BANDS
8 8
NANOPARTICLES
cell(1), 15.010
cell(2), 15.010
cell(3), 93.815
 1.255088043447498,  4.004109897124922, 39.090263464142986,  4.052864126821715
 6.572970826012927,  8.920621305587318, 92.768014061856903,  4.036773276017113
 2.416872645520291,  2.474086941900947,  1.338144263816989,  4.159662356599013
 3.969475905591503, 12.942330263540450, 14.141381442065480,  4.172201471107190
 2.476284527822167,  7.642492153674474, 14.997111780222928,  4.202775420838052
 7.572315813048482,  8.107974645360068, 24.557077442272615,  4.137458306243103
10.568560588013765,  0.129692745922620, 65.263505919293095,  3.821487828662776
 6.011828369347488, 10.860105127187156, 73.154904540736666,  3.692352927424796
 8.201405108329464, 14.206235642288977, 50.169058391368480,  4.076636944161057
 8.768414643795682,  2.603228191674339, 10.253501693280501,  4.319939858119493
12.198388007691497,  1.108978164390805, 23.721428006618169,  3.949240722020724
 6.141749180063123, 11.148610496296557, 26.805989758935670,  3.948751378271806
 2.410135270870994, 12.568288374713411, 60.575529222001599,  4.072156455271994
 8.684007446422839,  9.548096162749900, 70.534860946281015,  4.237165855518165
12.885657936999234, 12.413932659779052, 10.412530838045015,  3.784543145085093
 7.725056171060755,  0.341897175256497, 82.473055879102048,  4.284175532423195
12.074732861988219,  8.896042528256155, 89.384915024136092,  4.123742427269890
 4.635030030652120, 13.109056389849362, 70.332213610528157,  3.923871189607634
 3.231910212390694,  5.684157339747319, 23.814835378848002,  4.185555626196472
13.440277018651983,  3.899067731381612, 28.206308029734277,  3.997610868588983
 0.820171320509524,  7.203111718157374, 69.603863706352328,  4.178009064197951
12.652330660897873,  5.093105959608319, 32.005730055894482,  4.120072659731815
13.784928393168201, 11.852048963370715, 91.473754048079613,  3.876501891112355
13.429210955107369,  2.852510727570671, 58.144460462238229,  4.496004601747706
12.007179904005811,  9.874685617668449, 81.749433861888178,  3.626774947941624
 2.074281418800239,  0.058313778951461, 80.825545215410727,  4.411279812106323
 1.908037494198787,  9.348223882213796,  8.874735642627954,  4.141856339077810
14.908285826645887,  7.225079546235897, 21.695861376292982,  4.011982495536857
 7.479599944339139,  7.291406563560570, 73.716972211086073,  3.922294376241836
10.451169091067531, 11.127497367525839, 39.985942349980547,  4.136442580315300
13.683846150276873,  7.806540964946615, 48.499976291750201,  3.911980761709441
 7.031365248009118, 12.020868048492911, 47.051811469428728,  3.872553607052209
10.650830067060561, 14.110869973797737, 93.105098248170847,  3.816468772300884
 8.708004393638753, 10.724056309315442, 18.365976305644207,  3.926934434130099
 7.060987136852356,  4.689904342492019, 81.175504223240182,  4.341191928521879
 7.018946984509246,  6.826494408816934, 17.954962547859292,  4.103077701129417
 6.836050124667740,  9.713185261255440, 41.625842602832229,  4.017477327820377
10.687886540879148,  6.278031607353980, 86.568086987884797,  4.000487912016498
 5.504934167198977, 10.070208777231699, 76.798160733134566,  3.828288784060343
 6.753228652268683,  4.826935788197023, 35.634797476644984,  4.291363422038401
10.270349034353274, 10.339012528523320, 92.620154627684286,  3.771592324184742
 3.146927337160619,  3.556884878336750, 68.058176308365702,  3.865020340885756
14.390566145200626,  8.242833043720328, 86.220040377824006,  3.736294850146547
 5.386555679409550,  0.533627422689931, 67.141100556231649,  3.877312432920592
10.944632978717156,  9.608146001826855, 12.522244039823487,  4.017281987155891
 2.840675764614488,  8.318936849364642, 55.682628666815788,  3.983741261264342
10.935303406952697, 13.538412438229047, 89.176280631660106,  4.041106578742845
 6.658223480816203,  5.606601670632841, 42.225134584844973,  4.270404952192731
11.789852167832104,  0.398820656172914, 70.794510565542765,  4.054668596073098
 6.136327758988560,  6.184299889138503, 69.961291582357745,  4.274634297545482
 9.442642732754756, 10.523423668940000, 74.685091691023530,  3.844161371334830
 1.952290436670532,  3.933123226312705, 71.904491838848401,  4.095664206183927
 9.970430961351260, 13.151922585984549, 25.439021277518901,  3.826443334026616
14.765369581620472, 12.580889062390073, 63.791370720116440,  4.149202503739872
 3.996862981135668,  1.679873450532966, 23.567301453613023,  3.918215373153376
 9.975726671650667,  1.202869597595395, 56.304905027433172,  3.897778619894745
 8.829565633664128,  4.500008392411070, 57.670092652308831,  3.574429286810022
 9.698319214887253,  1.929976753603125, 79.214462608425308,  3.965070604008825
12.094977481059383,  0.992159038306690,  7.762285974838862,  3.740771123247717
14.587578787897073,  4.811252931404626, 62.489746399073432,  3.878272821737229
 5.309325373057404,  9.127862691703521, 21.321440443164050,  3.935872477871275
 7.213993386088177,  7.009646479955323,  5.749344067991228,  3.764661434170149
 9.718342899148089,  5.746381481680176, 12.911431410638800,  4.113634705409781
 1.508380457349658, 11.288405296554284, 36.741198783831877,  4.216752707077810
 3.948611867712372,  0.473106247054018, 53.924253829015761,  3.828659638199242
 4.430086265860155,  3.843756405743957,  4.366192504389699,  3.597889838661080
14.511682601160068,  0.298920896592188, 54.900424079760036,  3.945491585714662
 9.468926213291809,  8.987939292169200, 62.403951893128472,  3.978096646501991
 8.233296234766311, 13.912196244883559, 72.150209095089480,  4.118365627958990
 3.385225336326789, 13.403206686757594, 47.527441314242211,  3.943643660020242
 5.081573282096940, 11.106256614110009, 82.893200482575139,  3.545849377040845
 0.398089753790408, 11.167756193247330, 69.814341215505010,  3.742145611768164
 4.028976368457805,  5.486416324405391,  8.022135620149227,  4.422997452776744
 4.409429744077482,  1.326601083382040,  8.387579081998339,  3.951250071598837
 6.049853767410043,  0.554378020680989, 16.321855688424744,  3.766651078087217
 8.006881543509932,  0.497570521507331, 36.659067007047021,  4.194334943341613
10.371714985179606, 12.979630192477048, 61.766187418920566,  4.271822362833879
 8.118070023549855,  8.477995656982690, 45.364465924154800,  4.249652884717597
12.156913206159489, 11.480874793861664, 71.961262488313537,  4.050466530592118
 6.808507910315082,  4.043781971677015, 25.368108803075625,  4.246096914055351
10.329444856675080,  7.331128107285290, 34.555224357518270,  4.079934223878894
 0.743415348199245,  5.741670460766128, 75.371579963200347,  3.988562258625683
 1.728573160256210,  0.395807759444277, 44.515548526033086,  3.916092084814734
 5.860285635614943,  9.815352093488791, 30.614816135745723,  4.113082594063769
 0.986488957065371,  5.960747800886835, 10.808104491025395,  3.870648132377063
 1.530474802672374,  7.097642048826853, 30.789543892828405,  4.083975411684031
11.874789066281167,  3.778272173429296, 65.670835431460887,  3.940547784697574
 3.656507079443681,  8.914951548612512, 59.519553673065744,  3.916128377247033
 6.536658385794111,  5.440929834160860, 21.608592471978980,  3.769025268069731
12.148470277457188, 14.565883158174328, 48.793151242732023,  4.277203133738735
13.962753735789484, 13.597956588733270, 19.030169153467913,  4.005844622997428
 4.100328153651001, 12.434817961515183,  7.049567996657956,  4.258919111766200
 1.747220595274336,  1.367737114447624,  5.406558605540987,  3.988070067321278
12.890533126002786,  3.288180555961926, 73.607389391610511,  4.088886237285318
 0.902536833319701, 14.287535135652931, 30.160081354775876,  4.155866421214458
 0.762252352292367,  6.930686932343992, 26.810383559135378,  3.932763320530150
 7.934324822570103, 14.368662746106057,  7.520280342617411,  4.302571985931028
11.134447733255268, 14.960733523559963, 40.948431867566100,  3.866899626224737
 4.815402829534947,  8.111490271811547, 89.201178754667055,  4.072910624129916
 2.750454007515372,  7.087912947943629, 42.475174003074173,  4.051140089771794
 8.557877536492063,  6.786634531723074, 89.913495702409520,  3.987755835894576
 6.699145824369102, 13.057364967806800, 92.651483521361627,  4.238168391621059
 9.649245633674262, 13.243810744376042, 77.530193114666190,  4.039173468356119
 5.103875771554111,  4.059717673810787, 74.667347703603070,  4.279054084180832
 7.002336598924494,  5.356239781640872, 85.354168512978646,  3.970435947769290
 9.845974355611583,  9.815986970446557, 27.572911098726649,  4.071619346430438
12.477421485802804, 10.889687566450165, 50.633284175933547,  3.961305880659426
 4.617483031491156, 12.362666972815049, 51.362295744032636,  4.329733147662576
10.087500064759150,  3.443681259868352, 83.768361292834228,  3.925700173418329
 2.644628375915095,  6.402163351153352, 93.172233269658975,  4.084148170538001
 2.438853005012625, 14.310536589856044, 26.345288965732063,  4.007661338654434
10.821874157321812,  4.085561671927328, 16.325190935618661,  3.787349594781968
 1.378934476664729,  8.354467008766138, 45.901884154524588,  3.657466449679640
 1.124754214441387,  3.509979831319260, 90.913777916161450,  3.854984610119779
 6.622070950498869,  8.638502063567463, 34.299309990758580,  3.719310037712469
 5.167998512063399, 10.975880434028452,  2.181869025661727,  4.114578449144873
 5.049270056544175,  5.912553139378688, 12.088572963888620,  4.002761065059712
 4.894685437790363, 12.019376246948845, 57.441285297009941,  3.894883813791028
 8.928624260572132,  0.452992523398676, 46.312761022872714,  4.030080288019574
 1.825598429686567, 13.921160103228141, 90.140959121507478,  3.928525520218360
 3.647003781518230, 14.790919293194669, 63.829598758368654,  3.752668543202150
 5.785814747999622,  2.808160489676807, 29.159507206583331,  3.985824093706811
 8.700917224868064, 12.854908513362275,  2.366543571344804,  3.888028421611276
13.000535889052539,  6.105694376399296, 83.307587858735587,  4.000608770758275
 6.968240368494402,  9.322045159305739, 85.720505823896801,  3.986426339228881
 5.983438791023518,  9.149737364527619,  8.747554840223330,  3.998850304214197
 0.457886405262254,  5.386057858924788, 66.126020298021785,  3.689774828027665
12.702110182992479, 11.055269684181344,  1.751721869740786,  3.981206320438238
 6.066755687483375,  1.823418210578167, 57.017652277520490,  4.108348248573945
 2.219759021468509, 11.753132048864599, 73.253545581492361,  4.100033160405754
12.288651331618471,  3.668847882869501, 53.956662134356485,  4.316732444497019
10.339121081720174,  9.422000734096253, 78.317051085373095,  3.885090652747815
 1.953050149912992,  0.410390846706277, 16.874612635500000,  4.221830524317324
 8.299889866369044, 11.510626302912291, 22.332637947926706,  3.945366919878210
 3.658514375190337,  8.762441080641322,  5.269259500962160,  3.944017057705472
12.995558857598292,  4.002589397364510, 77.466564149056978,  3.762432688527374
 8.527668984479451,  8.739117956310235, 66.330683012064355,  4.112201859845543
 5.620766005247569,  2.038027414201883, 70.929609639593579,  4.282259517093975
 7.015817797670285,  1.681285678375896, 63.576144833801095,  3.952267509926949
 4.681222813667783,  6.017476379793544, 45.996635690440961,  4.261294431999832
 3.909888750876784,  9.405446592319882, 70.528830533114316,  3.630754825978275
 1.213418135189411,  5.281438202499063, 81.241300720305716,  3.829720016882947
13.734489787780049,  9.806379383019902, 54.233249176179910,  3.965962807529788
 9.667646804181427, 10.793969773116823,  8.847903923036487,  4.070579999111868
 5.475750187976276,  6.864316396513141,  2.255676902444378,  4.039632212418422
15.007479718602337,  9.831222011648265, 12.487484080912228,  4.082347532294007
 6.002585610321585, 13.451685782016204, 19.719876736418858,  4.019570718664305
11.185020209779729, 14.820202032247581, 52.815730190098726,  3.964936751181229
10.152797302486432, 14.750778012599360, 33.196485024023531,  4.090309010439601
 0.337972909720572,  1.457007141332326, 84.617681093975179,  3.735033291143679
14.814814832462481,  4.139096260195062, 17.379510611681670,  4.131394311140867
 8.266845666537384, 13.094257868098722, 86.051680191988993,  4.015411854902094
13.856222921235171,  3.562613653122586, 69.215154657284401,  4.135537597397404
12.642205585961660,  7.648867878073749, 64.580284966753865,  4.169833980686051
 2.365000834705653,  3.271421248741979, 27.076061797564446,  4.060812144333299
13.284724427956256,  2.469679127712125, 81.306309603628662,  4.304722453546185
 2.818370399880414, 14.754687486849392, 40.736906351324343,  4.055082167339553
 8.949182885161276,  2.035503914235653, 68.365675436151946,  4.100217522301322
 1.514191032298441, 11.655475611373527, 44.016203927923144,  3.650122366760183
 8.029064152203302,  9.665201490108080, 50.171556189535131,  3.909686219972232
10.968713292777938,  4.602778218207347,  6.417507098878743,  3.878211557035555
 2.098290139428028,  5.689208950640485, 49.421676329078203,  4.337240239495417
 9.247028022864876,  2.831993030742811, 91.353819120128350,  3.735951296712362
10.109868939488864,  5.818296419874645, 68.394512581143601,  3.703019391606478
 0.700238725477981,  1.612639606939523, 48.177235874484381,  4.041452552393358
 7.562542964157037,  2.080530740955722, 53.133811570950421,  4.220359967896105
 3.475364752196054, 14.079252086786395, 84.783970003098958,  4.143978014931116
14.728582824534946,  8.719180696877709, 73.113786907219009,  3.760294413581155
 8.443364575825060,  4.414906153889975, 45.722624249746289,  3.932512264422565
 4.446166982866311,  6.616292932722734, 38.730764980288583,  4.217699947292265
 6.716689400704069,  9.126303154607943, 55.531851136715161,  3.929129609557171
 5.465843409964643,  5.639771311848848, 56.444831348930180,  3.668567659598280
 4.046441167296977,  6.369467089048775, 78.311335714873607,  4.595817200812164
14.609207408974575,  8.127871498551134, 17.809205699354838,  3.897272038558843
 5.704472708641468,  4.227447329365429, 88.912871666230828,  3.914364648282927
 2.859757828733247, 13.630661994189609,  0.183875932558699,  3.927425572651385
12.124764740283499,  6.539794854843106, 59.898641448932985,  4.062899950209265
13.938038445334163,  7.629030006594716, 78.896789349009381,  4.226704256801298
 7.480022241007618,  1.634219808851528,  0.879848454958820,  4.160333116104811
11.302743012139482, 11.348225653453001, 65.327284558297649,  3.759042766597386
 0.917140482671093,  2.770733347128696, 13.421754905011653,  4.374454375366668
 4.825294416797054,  8.437814898337688, 52.267432840312630,  3.724555437923672
13.144343862655107,  0.167799402896646, 77.856510658361557,  3.947797269023748
 2.925246079033054,  5.798846010707292, 86.422295253622067,  4.082303315519152
 4.129866364132709,  9.632455142007338, 12.054751660723863,  3.629599979822273
 3.780844004189616,  3.068939591588243, 83.392877163952434,  4.197269203809883
 1.274559815479368,  9.566202581311456, 51.005599686708251,  3.956533656734897
11.532935415389279,  8.140005328377567, 23.672313190731444,  3.961619166772242
 1.139486964192093,  2.554743869050405, 52.064894988373148,  3.994873658711552
 5.349764402622215, 10.344110808179270, 37.420295371444979,  3.807542459307449
 2.921835907260456, 10.096558268890012, 86.057737261134037,  4.262718072920779
12.685559748740658,  2.507266069713317, 38.477896337159301,  3.767971597998547
14.416305501032152,  0.522126564103013, 93.004070382284155,  4.193252197484552
11.342575666952079, 12.329583803220530,  5.409971129953829,  4.146057175885320
13.993114636986215,  8.515749965981247, 33.404031385202863,  3.710257162771023
 7.103011610109589,  4.876156728416090, 66.044753058108356,  4.100878595401054
 5.077591714592995, 13.866949658629613, 30.030649732551264,  4.204392542102180
 9.988566558622248,  1.835604213764837, 27.085221635950326,  4.220335487976015
 8.657280591984792,  3.320743421508631, 19.334083330253332,  3.676084415773290
 6.918773649805695,  8.908331885307510, 80.259759054758547,  3.999282950963386
12.681359944942690,  6.933826840901149,  2.794443325773803,  3.994874376991093
13.552655053346601, 14.611758188338248,  2.927074925123983,  3.687083294582048
13.487920256546733, 14.099931774852241, 26.886380463548264,  3.986319085442119
 3.813923262382772,  7.241167308435747, 66.682040229680155,  4.004036952348980
 6.366826876031744,  0.061400836560849, 26.340586184104961,  3.962290236939197
 7.976159702592660, 12.463591462818110, 14.828361062888170,  4.000268471154730
 9.481785034321247, 12.990763493092652, 68.374663989291008,  4.038895435755712
 1.461939228095512,  9.651752724237447,  1.718692739435285,  3.701834415753579
 4.648873676954414,  1.517500488912025, 49.997392551242200,  4.399606019911446
14.468951022172758, 12.672931501954560, 23.081468231169076,  4.360537287000901
 1.730291093597522, 10.557926892821184, 20.204177655153433,  4.089315956102764
 2.259784280356210, 10.564241993607107, 28.355639636110173,  4.489976481051545
12.982332425979262,  8.561748252395223,  9.279179460884711,  3.917827943337517
10.643429492656255,  3.330315914118876, 35.221367876607196,  4.055160560502276
14.877311052514377, 11.515623007364693, 47.495549870865531,  4.027464399539966
11.811390507322244,  6.824489591253029, 45.275131399414789,  3.798936562918764
13.894092358524954,  6.193268729787247, 42.086173155752917,  3.919333925522344
 3.515814747350463, 10.963432894006111, 64.045132123921263,  3.879390281436051
 4.823350023132122,  2.399052644861183, 19.652690649268600,  4.205565664381535
 3.276834946052442, 10.277333566212203, 79.830725415621586,  3.659735165937353
 1.007671518046162,  3.194418754548608, 21.265963541820597,  4.210814962211848
14.432704358764767,  5.248821301667746, 35.662097511066484,  4.009743629195020
 9.127145230711834,  4.049403151734868, 72.007931464610223,  4.043728772060112
 0.732237207743760,  0.331781426109300, 37.283983148113201,  4.094341599803360
 0.992582819180521,  0.183783677185282, 70.374984202298151,  4.166672474031023
 9.341415053542940,  7.565658993013932, 83.070290624499975,  3.892098788526418
 5.092672394336396, 13.336599722109950, 43.818200215509435,  4.105559331854200
13.041805289163726, 10.042478396187704, 43.290570331101137,  4.149513280824933
 3.054119823038704, 10.686022923067581, 40.591599848679493,  4.043360488859999
 4.400325190678819, 13.985225676789369, 37.251045632719077,  3.713992937860112
 3.666682934285708,  7.659402378764925, 73.755636138887795,  3.675719762611768
 5.271768459494267,  0.230305762880330, 60.497406956561520,  3.677032548716300
12.294049630008107,  0.765147510608666, 30.116066536091068,  3.667608453912687
 9.098840355410310, 12.386896590554196, 43.669292494090762,  4.089093135305615
 7.497903933079384,  0.194681442085298, 89.459247296538990,  3.619343753815113
 2.354047073752016, 14.453000700423846, 20.767574794968215,  3.805674398731935
14.873047139744211, 13.351711448004336,  7.205783904658904,  3.987128366478692
 4.935268010036034, 12.970526526022736, 88.238025940468290,  3.601199038525024
11.764149287728376,  7.103657488023406, 75.369091544654921,  4.114117009612904
14.645411601697115, 11.755412860864197, 79.519369413562174,  4.211808118195017
 8.689010005589402, 11.326821920168012, 82.664319336858611,  3.666645097317756
13.278869106825312,  4.226193174520128, 49.962264830693663,  3.839102934470600
 0.755015545822193,  9.045598893856088, 82.579383099140728,  4.190688751272348
11.064955323690093, 10.195453599637133, 85.529171999831448,  4.081599676100375
 0.842307409192596,  7.216282288717386, 89.650159453601717,  3.985798740200659
11.132598422396711, 13.557349804939157, 21.357367428821391,  3.302953698817879
 4.529042169102699,  1.521274720424911, 91.691825435116058,  4.170441951825254
13.717429164307623,  3.271993464862897,  3.803669793682123,  3.865633143006338
 6.463427107220023,  6.098536637739654, 49.688744556205563,  3.932314814195697
 3.473598364188584,  3.196892175148278, 42.347668746234746,  3.676559243824357
12.197401299122436,  2.975024055254546, 46.301662885741500,  4.184324127411077
 1.728617298576260, 12.811016474815991,  3.801327117392395,  3.818856184150443
10.129801484784405,  4.450254142177375, 22.864775682968251,  4.088767215063454
 9.176188671282814,  7.072016310874226, 30.539209242701183,  4.080917120044192
 0.407336206195692,  6.332441577907473, 53.197801507033034,  4.022586834977830
14.745761669219283, 13.569064746593629, 13.529386116524524,  3.689895815364594
13.626777195349709,  6.310239493360207, 14.080569262742083,  4.113414410889235
 8.096251363940089,  6.145987499469983, 53.319360736953087,  3.984489473751684
 0.678555215457002,  9.602322097600691, 66.343456819591907,  3.874116687455104
14.639723846443122,  9.657126770008064,  5.309796669198833,  4.308520531492386
14.160405745649387, 14.403106111778849, 74.013868101650132,  4.136353264365192
12.674896419338342,  9.789924019761434, 36.821391654608867,  4.004137292319474
13.735935522828894, 13.820909692878184, 59.459800604315120,  4.023325480019895
12.429650498175745,  1.100614665609475, 11.697409784447867,  4.095327357279225
 1.958928755518967, 12.152048217039187, 54.777873890859347,  4.023118087795297
14.389456600429730, 12.523011419549468, 40.181728751773463,  4.206000097610343
 7.380622226929956,  3.247521695864700,  6.500793338605545,  3.782062006058762
 7.049269647974342, 13.264589835178356, 39.883913699542006,  3.884220863157156
14.692070925575816, 12.884476840844490, 83.438523573407963,  3.900056534504893
 9.171805641004172,  6.811507907511803,  9.070971295364123,  3.902696058792662
11.870609100149421, 13.918802114458954, 37.150006407976150,  4.072661048832378
11.723975323599047,  6.093939236069385, 19.544568334080896,  3.965703777516270
13.928494875820830,  1.157224810000680, 88.696214818663719,  3.965603543422175
 9.419165498628708,  4.868825956671425, 62.584875872313717,  4.212356674933511
11.966531406425961, 11.884560364125836, 15.832527616165725,  4.269721116942895
 8.938523787998541,  8.098727487854514, 20.994475003944103,  3.485481813228514
 9.877288466569675, 10.373678894474766, 53.547366094748384,  3.915820306226502
10.786664104171841,  8.410812166143518,  5.911654609828974,  3.797980673042302
12.308507588652523,  9.123199566321977, 68.460629124534066,  4.156267871095623
10.801536697750874,  3.959195899430872, 42.704215416452499,  3.776563070568160
 8.481124545771744, 13.203944715861109, 58.194574391289713,  3.795612777187574
 6.141641889115634, 12.834151329052602, 79.523994409463796,  4.038105487175797
13.357653147938876, 13.564870801131018, 67.654933147720413,  3.870010593081390
10.183471541404829,  7.629192861708980, 41.873645999444143,  3.818719382508948
 6.013961547209489, 12.409018227119214, 33.783087752794117,  3.973917285162535
13.892557068660237,  8.217847854329500, 93.010578676487626,  4.017049278782737
 5.916477951374027,  4.134189364060306, 60.428313315376606,  4.123979588579985
 2.321024049076160,  3.038411409020745, 31.401962236538271,  4.258733325294985
 3.512260586039092,  3.896818904547870, 63.953142530053043,  4.361515534825476
 5.973904760530162, 12.605089542396273, 10.657904319382514,  3.876635691890991
 9.202735507141769,  1.525623195351723, 75.184483315360865,  4.034357747594346
 5.378810478865276,  5.889769861758388, 31.782454520988868,  4.133383803130465
 2.066998006055836,  3.708136240190420, 55.855235946193908,  4.141818915368918
 0.518827217556152, 13.592951374986106, 51.188127290299398,  4.226907881371690
 6.379830168995458,  4.957646799410127, 92.708113262794015,  3.886125636146367
 4.780454830807345, 10.304944997054506, 17.327155042379626,  4.239100432513633
11.736388898179106,  0.001401743983040, 85.137972507052510,  4.114937295778574
 7.081172661303490,  8.585731846556893, 14.276073663319902,  4.011807113216824
10.984968915508192,  7.294785340958699, 55.952043019770741,  4.151411164181882
 1.525129840770948,  2.219593286563740, 77.212047608468438,  4.074737539291892
 7.513352262381616, 10.844240450347403,  5.481675044947645,  3.883805956744572
 9.357285473967496,  1.135108284008289, 14.294875216809567,  3.920458601342726
14.367221054717815,  4.612864379379010,  0.324800108762837,  3.565672904075658
13.131515024053169, 10.943394513224971, 75.823226435032282,  3.920561636341537
 2.742011928357412, 14.685695278851675, 33.776823526788114,  3.993479178017552
12.302585802078124,  2.142821284839781, 19.886520509579650,  3.983384157772066
12.229538037388023, 10.196234238683139, 20.257154772573106,  3.998556813150976
10.587579691807763,  7.978347594564047, 16.197245875290815,  4.008588717437847
12.509654786187550,  1.494138846321269, 62.161436327431375,  3.971378658785524
 8.862858755581989, 11.455300276965549, 36.323091589938805,  3.854923834948871
 2.462058240937613, 10.281636881151769, 91.778359471277000,  4.144086666563752
 2.308027625033010, 10.785848024762803, 32.669512662066353,  4.139320864760179
10.867497065187710,  5.459362329089405, 80.159332214458956,  3.684375353205395
 5.025642777368681,  2.517547536500299, 38.764244250284690,  4.043446072436988
14.408624176357348, 12.058694710569959, 87.428552902957165,  4.248624978903180
 5.581745350113372,  1.791554843343679, 78.301477204552683,  4.337780535277039
 6.212289732678222,  1.585144522478400, 33.031032301619000,  4.060891553899111
 2.248025645339443, 13.158913349025527, 67.073402764916153,  3.977833674592416
 1.591780300093256,  6.060887430561646,  3.229273008280203,  3.952344597770134
14.210126069724616,  2.185693499130687, 42.043172845365625,  3.996929374873286
 2.884358492981148,  3.288161955385247, 35.470512143754043,  3.951382488192098
 8.442348176866608,  7.902685710168922, 38.225201638618643,  4.231428902316529
 8.160606448538447,  0.675726790697863, 22.600951679472679,  4.414280390676931
 6.210355089703920, 13.754276265613031, 75.604261628966967,  3.891356939775546
14.187046021842070,  4.487127902619376, 86.670639687364641,  3.831753504055942
 7.483945486665054,  7.719035033968689, 59.171114428408238,  4.004510265953304
11.324644054554348,  2.586210053149890,  0.658845059086298,  3.770728623070278
 5.130900680424101,  1.722771031538329, 12.495421405785201,  4.394587417230868
 9.053615882416938,  1.552205429836408, 60.147894012889637,  4.009011930532234
 2.473226034239083,  0.055672855270133, 57.476951873698567,  3.885189530379130
13.829712899685692,  4.570564759814405, 24.370809368197630,  3.809135218593032
14.020888305913795,  1.467741156839653, 33.632745785724758,  4.282127129403964
12.906110080526183,  0.860480178548916, 15.944903325300432,  3.921166356822153
 9.564379919523093, 14.681645996076950, 18.096630133332468,  4.186037444611308
 9.842334875436549,  2.563676319395491, 87.585286530723408,  3.873701381323674
 1.437970576052391,  1.551105953840215, 61.061596052446326,  4.140650225987476
 6.349793027724993,  1.547796391311888, 86.141883812186308,  3.894799837776811
 3.066421517720418,  6.564729896408935, 19.194549680318591,  4.082750743556336
 2.144416532275842,  5.285440316886018, 59.575159437323194,  3.939001109471499
 2.911522224004109,  7.312346622874820, 34.878124206788712,  4.179495354723874
 0.157996651200070, 10.287923045744948, 58.020167800494065,  4.122701130184717
 0.994226106869602, 11.479606955940834, 16.409321388391998,  3.853769626252113
 7.140141424100542,  4.041472259951235, 15.252999694694838,  3.629425836008314
 9.082508453641536,  8.848668294631224,  2.342963125032438,  4.155866822133508
10.235997048534143,  5.901877569687955, 26.712976267069866,  3.951532568614316
14.679995752057801,  6.573760192375610, 56.989543997324589,  3.643422092503446
 9.421483535984605,  3.098630596310519, 49.462488355947443,  4.221162081234557
13.308410721341128,  9.851000628622119, 61.439756134036436,  3.614369560117211
 5.142689002840262, 14.839403282110418,  3.791824860980772,  4.101422960503968
 2.533530447984401, 13.300586611609679, 77.014564687817796,  4.035723156457052
 4.371133128380928,  9.376656269950859, 48.434035601448954,  4.031896341205321
 1.340417058380440,  8.183450571999440, 62.570801456755632,  3.670027815958033
 0.584361933554533,  7.970261013376496, 38.962159519812644,  3.977206580698964
11.386547660170612, 13.724426275291547, 81.169143210531573,  4.080672651450351
11.680231639352563,  7.232182668430552, 51.942720408489087,  3.955277294082908
 3.056126139488467,  0.620645898107703, 73.844314275167633,  3.890998301713622
10.639975569134092, 10.100884824182419, 58.836033202801332,  3.842452414993081
10.956550969791865, 11.050709037720157, 46.944863849262227,  3.892811492560012
13.650858642258960, 10.172149442285878, 26.277770274962499,  3.886712742440973
10.451057512003741,  6.202215748251494, 93.385864339060547,  3.981013499015606
12.359846212705955,  4.767202816243643, 10.051980308874123,  3.905481112213132
 4.449160444265435,  4.669465013853016, 52.746573377721042,  3.908149095803406
 8.948930640030403,  3.782857759420987, 39.141114622707335,  4.234613418609821
10.090788058581561,  1.212163442610217,  4.266314300953206,  4.329623781402199
 3.576511126179287,  4.022459027383767, 16.235147604176625,  3.754739263419844
12.126469241007445,  6.532966576681522, 71.465289765493907,  3.781260009033249
 9.316014827144127,  3.026991024583272, 30.951460815371881,  3.939762716863288
12.100034620712300,  6.257734589901384, 38.649870847655464,  3.830028449919302
 7.361312760374562, 12.932496677246530, 64.960524669747329,  3.988615246187779
 9.129730246396459, 13.430497562245970, 29.309196811804522,  4.031347284510289
 6.402351872162431, 11.484712066439581, 61.206194474094758,  4.284330655621612
 0.915814168682721,  4.384650808440369, 45.086477124985819,  4.131740788658480
11.784776913901791, 12.706061670481622, 56.128227032907922,  3.983427106533894
 1.687704174532168,  9.426571443443022, 76.492004608909895,  3.928708366840637
 0.551853562235886,  2.260145960384071,  9.212499916613236,  4.120097809021946
 8.434580362151621,  5.169040348700079, 77.059091136286511,  4.212696710370054
10.024076159003268,  6.869764249998486, 48.534002455804817,  3.635076457952430
 9.463813184517573, 10.744619915936104, 32.418525074089992,  4.149212383803785
 7.607481001960656,  1.418852217084345, 42.447799648436593,  4.323034478853661
 4.476293286452962,  9.665931428241459, 44.650911819359024,  3.516557151827295
 2.718803913000632,  1.923042912869703, 87.677032539542992,  4.007136500569305
12.777366915914966, 11.522256839130840, 29.993495182693568,  4.208709294456936
 9.506919696807783, 13.583450858978686, 11.507516359585670,  3.641488830397921
 7.252777916197330, 13.193909920411173, 54.488095778288020,  3.997122304494051
12.418857301342975,  4.774981008581016, 90.188369531336122,  4.050013321421658
 2.153499238371380, 13.715199512825311, 10.500499062231276,  4.051526109244475
12.847471935193701, 14.072934127570417, 44.572330025545433,  4.302680856725961
13.716918265999427, 12.340353614177832, 33.906086930167085,  4.000555462180511
 4.619479839250546, 12.644277068751991, 23.410117307523976,  4.021521140351762
 4.778974862994154,  7.022361954516609, 27.672005628166499,  4.279738211637293
 0.267927196581875,  1.432926932184393, 65.462120025492339,  4.316182818652132
 5.583819399649740,  7.581257077149253, 62.918041282638768,  4.336352021827866
12.746961447001288,  7.664797632679023, 29.044632978615390,  3.726110857900320
 4.461933166675966,  7.374036484042163, 83.029607084236702,  3.986441818367656
14.856779946655680,  5.697749523408228,  6.928760401285359,  4.218795677383446
 7.950002139860817, 10.761739908067707, 89.388805493432955,  4.113261847095768
 5.311943203399316, 10.747732914799926, 67.396687021830417,  3.730599118235210
 5.177002130264714,  1.900753578261652, 45.822543632306100,  4.038159589769138
 8.837982134290785,  4.861637678398634,  2.910684534868649,  3.799417481777377
 2.129926349144956,  9.622961828225376, 24.209461771362335,  3.961563180110629
