BANDS
8 8
NANOPARTICLES
cell(1), 15.019
cell(2), 15.019
cell(3), 93.871
12.487115466179034,  7.145296838044998, 72.765929956975469,  4.179534491935642
13.307143273715116,  0.306341547365930, 65.602146105545273,  3.914374893151681
10.398086868578870, 11.785268439756859, 91.812797345914731,  4.195539898497387
 3.345792672547660,  6.837034361511339,  7.442532977419503,  4.083992427880208
 4.560836705900805,  3.655962446077491, 56.638207370385530,  3.846291209085707
 2.446757417555757,  5.196758836407211, 26.358223773143518,  3.704122259967030
 0.513018637776512,  4.454799876674748, 61.062247116626864,  3.814983264305437
10.239033614157368,  8.698399857936082, 15.242118642234820,  4.121339285035424
 5.454314805299379,  2.929149080448362, 43.121110402348606,  3.902355620112797
12.446520397094817,  9.598861553675897, 60.509067312469433,  3.951135845090330
11.152513149861278,  0.540150505356299, 92.935177430296378,  3.776012500396323
 4.521963153841967,  0.525268468554172, 40.127337032960803,  3.999037266218301
11.741083560318398,  2.549851411988769,  9.174199806819699,  3.798891972297913
 8.247394952358077, 10.311006028144211, 67.057550671741566,  3.914418446634669
 7.423355021545994,  0.860586913815846, 81.225159512544792,  3.776262728425124
 1.328851647429085,  3.763144517406316, 29.906317112644096,  4.268454015272297
 1.212486525464624,  8.406799601479356, 10.290913155804233,  3.688973707473808
 8.687707226404202, 10.363993460404993,  2.009821313080567,  4.128803577201455
 5.080034336165596, 11.154753559393109, 20.262800567084390,  3.898731756089177
14.877990978923703,  2.221579614225639,  2.287601416539328,  3.918012549029024
14.451770284339837,  2.536582358157030, 11.901747870591906,  3.799985090837339
 7.956647497362806,  8.908055523853861, 45.015670036306041,  3.817496970717669
 4.785572322134196, 14.024714998054638, 24.990064955036328,  3.960597799113993
 5.797368155976360, 10.066325172605104, 50.491751299246978,  4.478183390188178
12.982228172424412, 12.002258195155079, 79.885902500058307,  3.665621696099155
 3.760466443286852, 14.355658085781487, 82.151304789829851,  4.052946393308305
10.088525562421031,  2.523361893705723, 17.098845825119678,  4.029644391213031
14.246045704438894,  8.661224114641746, 67.250409704795743,  4.101112403862078
 5.887439711705770,  6.812283950486677, 42.421068488822733,  4.021672741135327
 2.855652435415670,  2.318989595575446, 23.762320114032565,  4.089210261284245
 1.707053059180307,  1.942083400147719, 53.975529648126184,  3.902870739028043
 0.220753933218826, 13.967191900276038, 39.226030642823950,  4.157240568788279
10.093455985546472,  3.685264658832305, 32.297465250815279,  4.116587724529837
 4.246304937726064,  0.004985720871959, 17.104852965450334,  3.982345806724345
 0.686120084937290, 14.049793493092229, 72.476731899527934,  4.268167252669536
12.053004065506734,  2.904107363122057, 55.579389243773569,  3.960789689062339
 9.755525396619504,  2.378572866703087, 65.495726951653381,  3.624958536042828
 0.664530522030959,  7.657976528829790, 28.348469164575405,  3.558010504171112
11.253340417296730,  0.484145036107763, 80.185804878817422,  4.162981835073899
 2.795688848685986,  7.148284022150575,  3.346010823305896,  4.152804030751087
 6.669826955266237, 12.482882697387709, 84.418201681978388,  4.204223608895029
11.398597043276329, 13.661886068436145, 17.690509123285324,  4.223925020191530
 3.829469737820220,  6.115773578119266, 62.194375707523001,  3.938070285246752
 4.708823847970558,  8.830646514766642, 77.891485292395799,  4.077529613288727
14.013881316549423, 14.283731924090217, 55.467718484707817,  4.280824247057068
 2.218360938409366, 13.110979489863233, 35.430264856760402,  3.796373515676692
12.585732431570239,  1.300299056561556, 37.132177163297719,  4.078798683489878
 2.079423443500469, 14.535885417753631, 13.585087907331646,  4.154079618724718
 5.617475123120990, 12.705370197550589, 12.783819551194988,  3.879279085271594
14.118877704436114,  6.218952978728654, 40.710875499175238,  3.701898663446978
14.949851686106676,  2.090963048174779, 26.456773018896236,  3.858246216464917
 1.519831429720954, 11.112273067276355, 78.795471548483462,  3.967690022322321
 4.707492811092163, 10.082448554102127,  1.146843111267642,  4.028667366346315
11.646305311650123,  3.820279560903174, 47.873417447550999,  4.059749607284741
 4.314132250179320, 11.251170465734525, 67.757784549911605,  4.217339105627720
13.597747159040479,  8.811426074236012, 53.498984745967981,  3.837707967086804
 1.791929246225324,  8.362859226583266, 51.317977133626336,  3.894097835645648
 1.850773611790331,  2.376259448400680, 89.365492020327324,  4.186143823904541
 1.148021958228129,  9.610595631449721, 87.918222636094896,  3.729718957705193
11.128040054610153,  7.865795148888643, 38.618765893560706,  4.229329168232485
 8.697890278426101,  9.515927432244258, 78.183096404331167,  4.029263843727164
 3.050547166781528, 10.217511428098110, 17.086210728393628,  3.830572226678065
 3.428515678498662,  1.851179450594781, 32.976428509358286,  4.087678801483469
 7.774348154827752,  1.669898097796984, 62.257291562038780,  4.076667709018465
 7.330138537422179,  9.347978553744298, 28.868646135135251,  4.028585117892282
 4.727181252060136,  2.639124547594412, 13.108939270554281,  4.087339304104010
 4.158909743992396,  9.229142460866939, 46.122399264463340,  3.993569816615966
 4.187526162379585,  1.103695783000072, 93.139553172799438,  4.214415928670038
 3.924316545770511, 11.304608016375111, 71.984029104442683,  4.242592383465765
11.743510359021661,  2.325431906860846, 62.229468648453569,  3.915017465379327
14.033121276052601, 11.817769724952798, 14.903138221474803,  3.982090399917470
11.531971878454010, 12.235751550715566, 38.682737756581268,  4.098679918115594
 3.773007882643504, 11.633660356388260, 38.885954809760619,  4.337142471670341
 9.791768057860248, 13.409682741844211, 76.811019791388404,  4.230330877214143
 5.463140097071999, 10.830102738895137, 42.648780898009299,  4.037306505338520
 5.357098891986952,  9.375048706496392, 59.948333104223309,  3.895644097642817
 8.512917792832837,  5.133689337829471, 87.612068501259941,  3.648757592261410
 8.448491826284847,  5.368622611474263, 28.826296657871119,  4.202286533809823
12.695238674324102,  4.471607046976652, 21.895612889952069,  4.063176755681392
 3.694529823350944, 12.963378804648347, 61.527517499290056,  4.573863652697159
 2.505570468152619,  6.211266736231367, 32.897737896674933,  3.799473705497217
10.085188703125750,  4.010896748725922, 73.994250522193994,  3.951480860243488
 1.116949318846607,  4.620336657794551, 50.468946807246589,  3.872671666449062
 4.820485781454894,  7.723670572706399, 73.940765474129179,  4.100633869508964
 1.962503621282364,  3.632433066693578, 40.157641476977055,  4.025162808834643
 3.756685189462865,  6.417275825021949, 16.191846110509548,  4.024550606510078
 7.954528720974596,  2.941066022358109, 35.947977280454317,  3.901382900571238
 0.049188574515701,  6.342961145348490, 18.828119100839402,  4.105255034106567
 9.244461441782711,  7.801781083634425,  4.900783459526620,  3.575447205039754
 6.434440751015148,  1.358238607001681,  3.351941761727395,  3.618660875550882
 1.256755569461293, 12.764401436232093, 23.829189152500202,  3.884837427286472
 3.955694000996257,  4.486587849285847, 86.569749059625124,  3.979543248140291
 7.595864251778056,  3.257156609120577, 68.418786779098298,  3.847253564963236
12.688459325501919, 13.961041852273999, 25.275862762571457,  4.208227450338486
 7.363444755557585,  8.359540348635111, 22.205450449654442,  4.293003337601479
 8.581838875020910,  9.343810261051448, 88.953100649541227,  4.084800025936390
 1.120641931695935, 10.688377809852849, 20.452740816159597,  3.984194343420485
 6.269714238048212,  6.982294688795264, 67.476999960670682,  3.826727079474254
10.223167184153057,  5.765208668904600, 77.483227534548092,  3.834753879242224
 8.246670655769210, 11.385912710608823, 58.035091826515313,  3.759476994090277
 6.757732296826625,  5.227316138163943,  3.567537318577996,  4.063309883090596
 1.429180943948792,  9.028934290449190, 60.741263483555386,  4.145256685082868
12.332969156448970,  3.724168209233017, 28.906296551256649,  4.003375904088921
13.341074193269323, 12.901119449659978, 35.084117173993803,  4.028996551924140
11.860124532565710, 11.819666415586381, 66.586246933753429,  3.914894942429929
 9.351237190644829,  0.807810819647522, 51.411094664632969,  4.501376261398011
12.592780500137835,  9.600503360696344,  0.782890499097208,  4.198806504400906
 0.672623722925852, 14.092718084263538, 31.996410396979829,  3.951177794241917
10.038059747299586,  3.778246239982030, 39.433267255149332,  4.385973207556047
 0.213748531606082,  8.227545650779808, 15.402005496201607,  3.646688207289322
12.921285480549386,  6.823426959513501, 50.220085540899092,  3.921625035692606
 2.136019944504909, 12.718983770190485, 42.381366171709629,  3.630903688623546
14.512491955231541,  3.155110729710917, 79.689599452250803,  4.245262164880176
14.171356508655826,  6.072829835505802,  2.016642222698918,  3.883446335973782
 7.813984076691656,  3.192979594943102, 10.128646516097149,  4.345604858763317
13.529811540908346,  8.532645756592908, 85.417505996602898,  3.737806457995855
 3.516378057730249, 10.376330414261664, 27.590308041053046,  4.223282415900225
 3.099425098716105,  6.264217897120876, 81.018492927194984,  3.930345627517179
12.418957871400300, 12.225514569049244, 21.506318668778729,  4.095669962191187
 2.653715135431790,  3.221346219457320,  9.783260053162103,  3.830321880781776
13.003429855642207, 12.260605265960015, 84.556185216769649,  3.977027990731647
 7.195788745519966,  9.137788778678109, 39.323248865947207,  4.155352584183608
 4.869692428260134,  7.973954919405856, 90.073947081147736,  4.050350008067990
 0.980598008311048, 10.684596997833333, 55.889180170457578,  3.903094880546823
 2.895257659229284,  5.315677300875532, 77.029165061534471,  4.008460590324701
14.829319318557980, 14.658959724123806, 82.040008591834479,  3.871700528637402
 1.677367421934643, 10.616332816778721, 64.590387798180103,  4.119446634157968
 2.152321915672926, 12.690874976688324,  9.998655519270210,  3.902058942150600
12.768612453306034, 14.178145244974761, 89.527467331569156,  3.872091864739794
 9.159409796869221,  1.215713536306662, 29.141739491680912,  4.098404760471107
10.219231710747238,  6.846566399846334, 66.865812618442220,  4.041711298785316
 5.896271167774140, 12.603046641049749,  4.147131247040806,  4.156498697844628
 0.057336620482339,  7.620630997177528, 79.186262020937434,  3.619079328342222
 6.313780765697046, 13.288446328698461, 28.656063930172174,  4.113388863246267
 6.415248388568631, 11.448386191259246, 35.561181500581526,  3.879233731144686
10.801542767037274, 10.335292171213561, 24.913232361755053,  3.997735147818631
 9.421326234761935, 11.849926685947809, 81.404428021388455,  4.023285254758015
 3.104227831221458,  7.241933027157320, 57.428095415099868,  4.051439953925031
13.015114179385927, 13.045210133864650, 42.410118444592811,  3.816169620152677
 1.941461434145401,  2.970645994013461, 83.231993599019646,  4.309967260437238
 8.654591202559343,  0.918678031897316, 47.053139119359280,  4.309850471142752
 1.613754039281979, 13.322520429938528, 88.928634713228135,  4.019156365198942
 2.467193943365701, 14.200693484449708,  2.538429355094125,  4.052476998142736
 0.306957941167156,  5.680742197956220, 36.905792796063764,  4.185917862360199
 6.126976361903109,  5.243512098318751, 71.254882635958637,  3.656012499196210
 9.914375692014413, 14.342726055268637, 56.191816374966571,  3.956095869727959
 6.048581630418152, 12.748310003588914, 78.917146787953556,  4.452421377979311
 8.351714174532290, 11.053548764971197,  7.081624976707465,  4.056991665118926
13.597270707877852,  2.660251656557329, 72.522503617300671,  4.117383258117397
13.174593156212721, 13.601695628838911,  1.897383691979265,  4.150903517525839
 7.702978912356553, 13.023026779136144, 71.486135558286250,  4.088185114197064
 7.256749370744197,  7.669550274962337, 17.995926908360357,  4.226300091948421
14.661237605248093,  0.544581836519988, 86.168552328666223,  4.082376228240057
 7.433595734667510,  5.137658546406524, 45.663856524337817,  3.877511815379933
 5.700042234562280, 14.244884838493286, 49.872117242000407,  3.965875944740342
10.290956454901659,  9.442496002641509, 63.809369322511294,  3.913394301645398
14.682262720524305,  4.777495315308783, 86.526116622772250,  4.408594588406121
 8.928802898218869,  8.134377117942543, 60.242858341279991,  3.682047746414331
 2.544854975906290, 14.463470891478531, 65.403702689425373,  3.897627432490478
 8.816887857326375,  7.741516513210846, 74.423443261252956,  3.944098761092349
 6.162014871507843,  4.872911373351060, 32.282854108536661,  4.081962178928780
12.692222632211557,  2.604854229154262, 83.252766307972664,  3.813682467489127
 7.999696103914491,  4.220677730723203, 49.384845440891738,  3.866825980171678
 9.183594036174700,  1.680704935127129, 89.967856363278486,  3.647089288785132
13.086884964590185,  4.247946603379311, 65.831100559379180,  3.956892492951869
 1.878597498917199,  8.923722569386259, 42.678169153330337,  3.995083126613798
 4.346316400753939,  4.503937528510044, 35.840145361217580,  3.925228494616753
12.377971183789963,  1.655020573571638, 76.356786055588472,  4.129474491577496
 0.847942237931563, 10.600013223814512,  2.857605025933042,  3.802387139974066
13.917470870202969, 12.798650784966934, 76.120082538550662,  4.221136184030489
13.116331977729216, 10.663845307867222, 49.136490706955428,  4.061815724715538
 3.493333282844879,  3.366637701597009,  2.487104407085941,  3.706473910820882
 9.738975548316370,  6.516740409341756, 25.027148039083738,  3.907330502923653
 5.828630660241482,  7.123801635556240, 25.866523197975532,  4.021330239562683
 8.673686403427885, 14.582883088547945, 25.490418022294044,  3.920605348424178
 6.593173168311012,  0.045269230857521, 75.066933007452690,  3.735089098006963
 9.765419554249803,  2.782134020959759, 43.502033108233704,  4.005211774483567
 2.090046102267904, 11.458410759645250, 48.806387659553828,  4.092233813231893
 7.569179221888349, 13.177940356085255, 39.312131085430778,  3.872926739237207
14.138774430177547,  5.310863481648254, 69.515224150707681,  3.971166148694898
12.418346195677499,  9.061960743716112, 76.826234003356049,  3.940396896661554
 0.659747376674103,  7.867167407718726, 47.557631822291420,  4.021772286125848
 6.485610766814646, 14.894265442127098, 58.744152476214921,  4.195303185793307
 4.113183538896471, 10.188908878925146, 81.884042061890199,  4.287909426062198
 5.258087505110515,  0.209514563291856, 36.231099283836464,  3.768903629023209
 8.676270504193129,  7.859192738449046, 48.565236118489736,  3.707098013810461
 2.198473717534775, 14.301890184090015, 28.278965464578178,  4.058166461952812
 6.852174023650554,  3.165732961771434, 25.636020552747272,  4.155077273613449
 1.380768594680286,  4.238809081999010, 93.051285844166301,  4.089023642399434
11.104821053320002,  6.771880514785440, 55.890036304423354,  3.985141547155543
13.511526833287535,  1.354265445308801, 58.851846576757687,  3.732914544285198
12.614201521172387, 14.682406299127067, 48.861123389903398,  4.049846481730142
 1.426532816173346,  6.010739922320735, 22.665888225928118,  4.060442425673812
 7.308185888467122,  6.624572011073204,  7.899444540635775,  3.886384158386774
11.032063558363184,  6.184203164249325, 18.311809203384552,  3.910652745148715
 1.549192197891841,  1.782682138433536, 36.601688989881893,  4.011314755649343
 7.421370114742189, 14.405331578636888, 43.269974637269193,  4.201789766767002
 7.779919822350672, 11.776189350227220, 61.838782846374265,  3.903784337572323
 7.193319877964876, 14.930500607171053,  7.008101476876090,  3.633869747751028
 0.458680312451221, 12.464354074233585, 67.930973297242332,  3.733739736240249
 3.311096153530781, 14.801510111436862,  6.477574056262057,  4.072145613904949
 1.422551088004989,  8.284550442342319, 93.540369941261019,  3.990447926982404
 9.321992179416556, 10.717789913876389, 19.565968624098474,  3.765514100002783
11.266529520147490,  7.588026286843999,  8.224888558787478,  4.186616548844977
 8.757361950630354,  7.564736179090262, 11.277422771793576,  3.695447060455292
13.250591833937946, 14.962869528694487, 29.123110165669640,  3.783148900764934
14.268508521103776,  5.255734341470008, 53.771891254710866,  3.419082318214286
 3.064650609121622,  9.227788299034183, 35.463601047268753,  4.135857270523807
 4.104971473863372,  6.719896283932910, 29.432247325973876,  3.814955009906184
 4.202860326485236,  9.187668559956917, 54.206133045008841,  3.783013074591588
10.356250311035492,  4.804656036972240, 52.495525065468435,  4.002831440370142
 7.710156943552740,  7.931319225359418, 81.931461618894375,  4.199191821036707
 9.411518214566474, 12.009576821161653, 49.585927923955119,  3.836561684827232
 6.080198244137192,  4.186968835664696, 83.047962300245658,  4.255439964891813
 4.710250980443091,  2.923332462556693, 51.393360091653804,  4.257423661710773
10.089784203398953, 14.005344917320782, 63.946982258618569,  3.776646675603233
 0.568094672165679,  4.131686775049916, 57.073524990870652,  4.004303081932377
14.818409100713918, 13.364270227086529,  5.507448235247879,  3.754143007700317
 3.573073664708423,  0.453831918791126, 85.948016328034072,  3.772464650723731
 3.928684671904349,  2.282070701750766, 60.962522797033124,  4.081317752475512
10.645872277113005,  2.122773441969103, 13.078911220110470,  4.107055877591986
14.918108979405615,  9.766982097178667, 38.980618654436093,  4.264378469507712
 6.308382899700304, 11.416140109943406, 91.586235289547957,  3.992042883738541
11.500411463556773,  2.214008153749685, 68.982822872312042,  4.151011634689906
 6.997506546039624, 10.888585907542350, 25.313186425927448,  3.731191443607603
 3.174129896213381, 14.523194176813940, 20.894821875586647,  3.943217160381050
 6.797978432912208,  4.929135762221898, 59.725730528872170,  4.082307594270403
11.795601542243451,  8.127106253718605, 46.086808066524128,  4.270758123296407
 2.869029139652235,  5.619806465354270, 53.806718406538707,  3.811806143509447
11.430310338336378,  8.248897839467347, 21.615776711557899,  3.894928847228396
 5.602417884352272,  9.217815957916649, 64.169246427882982,  4.201185590307244
 6.233126713707333,  3.446858490792768, 18.060382551529827,  4.089067978808518
 8.770220383584723,  4.412869189244531, 21.052510300822892,  3.957689842051454
 6.393647061541534,  1.425912951740246, 22.035234087919381,  3.893410001263361
13.042114761973961,  9.306084716861280, 42.496970953290713,  3.652198810473950
 2.571599648587536,  3.295337950466880, 19.813311100433339,  4.032543332330647
 7.312930865572651,  0.745497837291839, 32.723147521504572,  3.991260171530752
 2.382318143842890, 10.505634555489564, 13.265798138039292,  3.945750778257950
 2.696957489200591,  5.454733745920189, 44.849569861037615,  4.296308148256651
 6.842631305578456, 12.226244844162533, 46.679435845169635,  3.924037896063199
 9.982957179913926, 12.499977384002568, 14.065708460284432,  3.827658429975968
 4.983695407123650,  6.132649439291444, 93.796364044215096,  4.186740997788506
 8.586534198326015, 14.339672425433980, 11.018353630529965,  3.744884185212724
 3.370536276107084, 13.509342214153286, 45.738715914162000,  3.686141786007684
 6.810673901472014, 11.699463825562077, 16.570083649153183,  4.287322669390364
10.198182709639680, 10.940502684665947, 10.552755737255167,  3.784018966673713
 7.862719349800972, 12.930364584962001, 22.181503930805192,  3.640090855425757
13.023680956803300,  8.982097503180430, 12.301666377361522,  3.928544261841619
 0.393048752387961,  0.666500689085007, 62.222114344501335,  4.079962036970644
12.131839465447111, 10.762209162861053, 88.039508060434400,  3.687786262415677
 0.721130390459988,  1.446567344948640, 68.824449585761471,  4.471696394476784
13.908838919120063,  7.316096201541639, 63.426351378740293,  4.000784807045868
 9.727336582240305,  5.541172817694347, 70.512950393973313,  3.634641011190645
14.312304464121132,  7.807101925945251, 57.705200523005900,  3.669130787667542
 9.237538081239656,  5.453910782891810, 63.114875335909481,  4.183237144960716
 6.526564414818031,  5.272621249128225, 78.931287109435061,  4.148583924568586
13.431539306391604,  2.136590421201539, 41.235567794246364,  3.954113168903463
 0.328708670270271,  2.758249682616188, 47.217330527244364,  3.730158881360090
 1.551699810620498,  0.334394137685528, 50.176107229864762,  4.227920139204604
 4.482250930127049, 12.994664254953690, 32.269701198412889,  3.977329483079958
 4.682710122999882, 11.141929091179691, 87.681819146365839,  3.892637144976964
13.594840876196058,  6.692736581726230, 31.663322169855661,  4.481201275063417
 1.762169012801680,  2.901812565304930, 15.860349465126546,  4.013571006293376
11.832602496443041, 10.766689473028975,  4.793564252488601,  4.288567732247397
 6.151170855686977,  3.967629621394884, 74.976020827957086,  4.132808462279134
13.340683514010051,  2.215558313823657, 51.875943957487422,  3.978133231136600
13.582747502744349,  4.759138994933569, 44.327698824484145,  4.104087302325327
 9.102241391183826, 13.335948017005737, 87.824242958124103,  4.272223853520740
14.983040797478937, 10.095907694329705, 71.101747283754648,  4.221278367253825
 1.658889096039491,  1.447905220471578, 43.675056132212369,  4.275220538037795
 9.689771140692054, 14.338125743035814,  4.041468993799679,  4.149581052553476
 8.647977762497920,  2.171981547106586, 77.658025637818412,  3.780683667711368
 4.563048710601982, 11.800961882368474, 57.007150523824613,  3.870318167868328
11.673539815254028,  6.952346516803738, 88.286525498287247,  3.767467795921199
 7.513415689960157,  0.372858332245152, 14.895528199446751,  3.931267484917171
 3.480108970722074,  9.470246097447433, 23.512394320642475,  4.088813979680685
 1.594517674299736, 10.004312771334728, 31.486268691300161,  4.475501550664817
11.949202609945608,  5.313005372286862,  5.028145507859055,  3.708498650910990
 6.618539449275230,  6.431128913663344, 52.697168706209922,  4.139364742310593
 9.705701356061006,  5.196999637952588, 91.127117731073952,  3.752936214842229
 5.260413711948750,  3.317625568519767,  6.805329509425776,  4.026450183253956
 3.846757108258524,  4.171672152895472, 68.468397315549623,  3.844563306478770
 5.009095915177348,  0.248495469041974,  9.975619286706191,  3.759277192016713
10.441885536706533,  0.804491500261569, 21.623969419967771,  4.006044684663409
10.678341146253636,  0.037689406306904, 73.133386431876843,  3.825036371417915
 3.666219916417322,  2.307613813822945, 72.055731623149853,  4.147433102888237
14.400808974026193, 10.805067408091057, 91.159820694041159,  4.028720810884948
11.327760176818177, 12.431163375082857, 52.957591980635222,  3.941012063951869
10.164977295284482,  6.263677973569966,  1.487644263706349,  4.134516862866351
 4.978357669416511,  6.074052655875818, 11.023626732356098,  3.933477401522266
 7.523099808711730, 13.997098936070287,  0.547825891602663,  4.034504384738626
 5.900150692751946,  4.182571421852129, 39.431117282614032,  3.925975017714607
 1.540515275371606,  5.628043315348626, 12.949828646971623,  3.965272654829692
10.953199286568866, 13.980273452993810,  7.892171237807580,  3.935694268661753
13.967926382630555,  5.424678833784924, 76.209486054141664,  4.053773788999033
 5.811789378679062,  3.852836817028795, 90.277527447379427,  4.348704387773087
 7.254438012291559,  1.728279945672411, 86.311386470990627,  4.041693920982882
13.446418573530298, 12.355014696329496, 63.091719959520418,  3.834091835653360
10.111939878662684,  6.735225534134523, 42.495709357684319,  4.097926569771658
 6.355884181137113,  0.648857401003976, 54.596319083151414,  4.247365676404602
12.861368450382368,  0.835361363343367, 45.053133486800483,  3.902295030759394
 7.924608181793644,  5.140186502159501, 14.502039295410849,  4.482554425270020
13.202224215819532,  6.768801363375559, 91.810188992279421,  3.918478449208832
10.981886008204803,  2.751623775958366, 25.207684076450640,  3.971349046357397
12.854312195366930, 13.879876141010154, 11.544862869994510,  4.242664679129361
 9.587616465708424, 11.050577973782325, 42.101077647651351,  4.106212648085848
 8.231579502871757,  4.019040227226915, 55.646022327586557,  3.740822182626794
 6.230521780870092,  7.831234720998935, 85.881596153372669,  4.211064801924898
11.648187041422355,  8.471670798999051, 80.757317129780418,  4.075249306759046
 7.268861432731909,  8.967523353069028, 70.812341050794217,  4.177318475006759
12.896643372140922,  3.047006728435647, 90.361797180169546,  4.081148245406630
14.339239612991376, 11.257367592938763, 28.032218440274942,  4.134244165100629
 7.158742043600713,  7.748196071656965, 56.650394181846607,  4.261080773210832
 3.193750126431815,  7.827817167423956, 69.818302944028659,  4.056557271556801
11.921594722418346, 10.759437113102196, 56.627375820432270,  4.204399383391108
 1.307784003904467,  3.485949288938547,  5.817652713708528,  4.098422851768361
 9.849881977027451,  4.226293869631654, 81.078961452713472,  4.019540456971932
 6.240319005016834, 13.698833258357157, 64.780667932802857,  3.727004518807627
11.801886838373846,  5.500456898386314, 11.486147990383236,  3.624969489370318
14.904395056258604, 12.662126221249634, 59.315113727359240,  4.247078363058661
 3.845606307724529, 12.842976976534102, 53.054555987259114,  3.914803838367208
 8.373463571242555, 11.866005733934958, 31.969335735423389,  4.136202971873272
 2.677306458156516, 12.434585444001300, 92.621676614943695,  3.817963836969783
14.482539414508661,  9.295790433662525, 23.842676991884510,  3.920267631675860
 7.568560443693840,  7.044168011955478, 35.680498704975442,  4.274030511473372
14.963238791073298, 11.294262418560644, 45.348533155671092,  4.024485004970552
 2.466027797152434,  0.416261928858014, 57.587867434629750,  4.063424222154858
 7.864766686492647,  3.077287532762762,  0.054912975860307,  4.163922077525616
11.530282142579743,  5.027600549627559, 35.765470704778984,  3.832397533450874
10.858401950985105,  5.826616335353862, 84.647455246082259,  4.020270907748732
11.163706891001068,  9.518321753113259, 69.720612667730293,  3.982139559695809
 9.812958108010070,  9.795444144065920, 85.014019970938264,  4.138277793494828
 5.255790455506288,  9.992196212585212,  9.712123017249397,  4.337299388886253
10.237520647944381, 10.260078571267927, 35.311907204241841,  4.116634594644757
12.753031004510660,  1.605840689416692,  5.536050796817746,  3.937058129014246
10.950220986613518, 12.300445243856192, 45.848793177639457,  4.242953094723325
 1.363774882690691,  1.895626169827884, 75.451651639831653,  4.094157003193822
14.050152487483809,  2.635308975778725, 33.368574911047396,  4.336627354614744
14.497403955453491,  0.828339249943443, 22.103911709813651,  4.001820634669619
13.755015457872128, 10.986951262187077,  8.592459797499830,  4.215090957697634
 7.532223049638232, 11.703435654945551, 54.101610291705541,  4.080033920453215
13.161335341132910,  4.777347959623215, 15.111686072808753,  4.250014684832232
14.304497617794416,  6.069208448359531, 82.567002696173390,  3.948485901705554
 1.122535480784137,  9.302403737605562, 75.110982798445889,  4.263091698941294
 1.379172586533950,  5.691304877062564, 72.881899448961818,  4.163091554939362
 8.827378304265464, 14.296533535864908, 67.715035390378262,  4.183470212431840
10.010196337051061, 14.865323731928756, 84.035985737670316,  4.025173654710268
11.906717126312747,  5.613731754511982, 59.910615102057243,  4.135169387488824
 2.266345953159681,  7.693272351186002, 84.694095262304302,  4.061998750983374
14.706253197059471,  7.923262580292129,  5.945724976411708,  4.090707922414346
 0.060336910519965,  0.389584142482602, 92.581053634107576,  4.103137435559119
 9.762400803849534,  2.339949741196010, 58.790385308024163,  4.005302422401613
 9.892387600021459,  8.804355369531818, 52.119150513358186,  4.028760188942856
 1.369494693488290,  6.389311412067869, 89.803794272079685,  3.646009359389724
14.473516101180198,  5.228327695580673,  8.876881169204752,  3.858586959031312
 0.053593116363745,  9.898821089496881, 82.210724867869644,  3.850352385246397
13.827544836945707,  2.499812569068480, 18.541416763289476,  3.981089577105164
 5.150912029931531,  5.028018041536018, 22.154139381179832,  3.702738385502077
10.890501784097466, 13.654200023132443, 60.081158277269665,  4.138591145215580
 6.786242006717959, 11.162691272659053, 75.004042320406128,  4.079031702707287
 5.152470993392282,  2.180902804298125, 29.258579369444973,  4.074864425052487
14.060239442114248,  9.027948716653450, 35.086982421328223,  3.839324552984256
 8.140255029165104,  8.203716306562226, 92.644555833197515,  3.670309099793168
 3.218986622796784, 13.106918314025586, 75.716240869929237,  4.115583222129231
 2.651168210612084, 10.749394151971703,  6.393276495170896,  4.132605484340997
 1.235312915417634, 14.838880660418161, 78.636255109801610,  3.511865336363708
 1.949325275571554, 12.063424782346246, 84.978104910516677,  4.006694665128248
 7.600805802824968,  1.888825947307901, 71.967747137253767,  3.721803730737375
 3.402750635358616,  7.379965728879291, 39.184805521438690,  4.200278989705090
 7.761745254141108, 14.914935203210048, 18.797230670205082,  3.763145551744525
11.144861438164074, 14.817928450448484, 32.359324512278867,  3.933832919068172
11.041421695422315, 11.041135676144879, 73.521684011275866,  4.157870650235029
 5.746057036420859,  3.950535546005539, 64.976764711681682,  4.087047043980437
10.328366664898168,  0.106099357433312, 40.845651245186581,  3.492899168773961
11.136985001134493,  2.491031304601166, 86.797490708195369,  3.930537285309573
11.096886153491626,  2.549638797733376,  2.239213409052465,  3.660073765843149
 0.126944301348713, 12.095886644575820, 52.224090851706244,  3.850112773143383
 1.797111112543246,  3.259890665454114, 64.947261827479650,  3.930204865223212
 4.547516956144746,  1.701349580246133, 78.086702526154440,  4.179115578355391
11.552278315147596,  8.201039563823169, 28.228706337803445,  4.015913023046291
 5.802117670230343,  8.821684809253238,  5.169644610467762,  3.620671397293819
 9.281635854459381, 14.209547549664268, 35.879312864084056,  4.055477595214272
12.892367855476744,  9.770702288346870, 18.201481159697142,  4.109832122265914
 4.589743117657798,  6.187073540756043, 48.757769110852848,  4.072367200596612
12.383662381626008, 10.872567844332702, 31.663124652398732,  4.128605896867398
13.647181524666973,  5.791043610297820, 25.655445532463773,  4.130080049380347
 5.429974882840222, 14.726182513791954, 89.377374539541634,  4.155787221662776
 5.947100956609280,  8.814866426707741, 13.718142760779594,  3.984357141071487
 5.638139608020523,  8.968249054236066, 32.428623517176618,  3.838979459545385
 9.100947989864395,  2.967151781047143,  5.924244517640430,  3.884987242973993
10.374761154386183, 12.370805046052297, 28.388072397670371,  4.092819823584627
 4.883315939311847,  0.304118877088491, 68.606179378995918,  4.153798964156302
 3.657509224752517,  7.621569734284580, 19.886754437590962,  3.750076634792327
 0.016733069598622,  0.631168871938103,  8.583423698057425,  3.917227510435207
 4.457248804932621,  2.154532267358193, 47.115964043460444,  4.429626742962880
 0.490757848962298, 13.864809744678109, 18.020902738469150,  4.026946679949423
12.417337229577086, 13.385135658458816, 70.119716811107622,  3.882052232095158
 9.461466493019536,  7.870885890910724, 32.020878569297757,  4.130573247731405
13.662534826005372,  0.716065375622848, 15.135865519787233,  3.712738454412833
 2.703916768490398,  6.960400672883234, 65.941269437389394,  3.934621537457956
