BANDS
8 8
NANOPARTICLES
cell(1), 15.040
cell(2), 15.040
cell(3), 94.002
 5.269394750653627,  4.377163302129279, 77.238246715627170,  3.974917022705364
 0.677681039126338,  0.016764644683272, 11.591173465058557,  4.236913290631168
 5.525032751755527, 14.530272722474322, 91.043899368718684,  4.090314887191647
13.924357801786179,  2.925743477007666, 64.843956541304721,  4.006813745994581
 7.594757687979741, 13.981699564546044, 37.556986744836045,  4.364144268316092
 1.337266170315353,  4.941735605033345, 75.395296424087050,  4.181292395209943
14.260729303562199,  8.723818953644125, 52.807583516516722,  3.950821721950524
 2.453253268884241,  1.592421992647954, 77.566034317177170,  3.967584119590023
 3.579432333472152,  5.335850782233916, 60.100160476164724,  3.924807153519362
 8.759037500548533,  9.330376791258832, 41.574444070584853,  4.088897540620454
 7.772546481831020,  7.199245495213803, 12.796862334801476,  4.074868460844277
 9.338396130176271, 10.876985011149864, 79.443765376004109,  3.787920502407543
13.333020234808174,  3.132253049122648, 28.128707472412817,  4.281658080414370
 5.345285562901202,  3.273923541329970, 26.634977593316549,  3.880594477470937
 3.421993136267683, 12.615768119137948,  9.396997840849577,  3.826877673664415
 8.707830008087290,  0.974822179590790, 34.044712049489164,  4.036699433923232
 4.978717847475898, 10.861578514067347, 40.919533084318033,  4.161839969830627
12.835871340455567, 11.113579086421685, 59.007087241441326,  4.143831282046931
 2.908858211182192,  8.333586944756574, 77.300538467405488,  4.169772642219600
 6.977201296221131,  1.246018995509625,  1.359461366175077,  4.144685812994107
 3.129600631688760,  1.374312538330208,  8.647480800581121,  3.879463956032850
13.561113074621169, 13.469222185728686, 41.636753371401241,  3.868267520455721
13.793549145806086, 13.198294151901576, 26.316987713686181,  3.936792565041210
 7.141096112670112, 10.903383919488887, 63.720040280324952,  4.376323424434115
14.141947950290469,  3.978031761587278, 85.709291037726032,  3.766942827483605
 2.377071760114578,  4.732755665376612, 49.830224351252994,  3.785474940947330
10.672368224118127,  3.911670635096995, 18.720756079801873,  4.233526153947349
 7.631330605099101, 11.658304449408789, 12.748450189308901,  4.188056390501958
 4.617038532751867, 13.925952921389330, 20.406057023858825,  4.070684393170793
10.842868147278928,  2.778096025543194, 87.423159258426921,  4.031463084772869
 4.137100381210151,  3.388392606214574, 38.726058517804276,  4.020225299705939
 7.365752800678795,  8.972672949669949,  1.267198361398780,  3.861162404627572
 8.545247139814812, 14.442265476420623, 60.744637183476492,  3.872920727661753
11.670305509737330, 13.051461453254783, 12.872450621826335,  4.119352317270059
 4.442616510237231, 11.429831386153452, 49.676280914397083,  4.033820311072414
10.008020209830041, 10.448893866371796, 31.199141162565123,  4.083940630370154
 6.201546237945179,  9.500323761409797, 67.590497839308227,  4.059627164035811
13.626779327293649,  2.601432365430991, 77.463555745960633,  4.017062257514685
 2.394062760717439, 10.483689245158002, 21.103680079478387,  4.177512745311637
14.814321682737303, 10.071269035430793, 71.608065616615420,  3.883199128536563
 2.863393933585584,  3.357488962222828, 87.785875599104472,  4.046419570245893
12.213643115972060, 12.834202416548893, 77.218696388222057,  3.800635119064375
 7.737163269456616, 14.826028685360694, 10.159003931032164,  3.979421105615882
 7.242291583483496,  6.654646812279669, 63.332432545925002,  4.158346225907328
 9.347179216664877,  8.421758285735377, 34.733037438638881,  4.130746000165953
11.910589770019181,  4.097450674214087, 61.538600800357138,  4.079578609265375
11.190021037152095, 12.984850365941730, 82.064736185968115,  3.872207395591281
 0.801591460308182,  2.916956659426754, 81.046929909791899,  4.122565890852537
 6.344421533236351,  7.739502326829293, 71.204336386971377,  3.866689556778814
13.703692222094194,  8.431604268578495, 90.693671114150391,  4.080989138114169
11.923177652144174,  1.699573927174657, 11.540526643918380,  3.703818586670829
 5.072869810353748,  2.642938783117164, 34.454224959066572,  3.816733997939232
 3.660142159335850, 12.501060184498010, 13.326484879746477,  4.009400391049860
11.073020008987772,  6.495706489466508, 58.137911793365674,  3.842710905201481
13.366659059562062,  1.592700470084082, 24.154241146696780,  4.213269604188635
11.291492842521182, 12.748981802993349, 34.440893704746642,  4.266462857245196
10.944749287051494,  7.823779170869866, 44.624493789125125,  3.994837099086405
 4.084179130357280,  5.556245013420299, 31.883345312483012,  3.868284862272760
 4.588013287781672, 14.031072424398591, 75.454484782153173,  3.953857328773213
 5.107094362561896,  6.177547801626099,  3.086966411551982,  3.412427150204068
 7.903249832379440,  7.987559729047324, 85.989539371176093,  4.104795603747296
 8.721575697728014,  0.905239217446183, 84.409806157918482,  4.158473298918405
 8.572608999891900, 10.630594314920259, 59.598869529454447,  3.989874614168553
11.812076533702811,  4.057776260917302, 44.787004409357685,  3.738815767552484
 6.117572510507125,  5.785563181501401, 83.150460320341793,  3.896312772989007
 4.796347424068301,  5.316272030906954, 10.716240877655880,  3.763492526026776
12.527350106287628,  6.299283672457347, 41.401048804806003,  3.761465555302309
 0.592553109735197,  1.665970978054613, 68.312692674338678,  4.116813371360982
 1.261867380940381,  8.971823271685507, 14.450946727229169,  4.430443794812380
 5.157453816037849, 11.659900905354249, 78.711473718601113,  4.173150341716947
11.228793914098265, 11.451702459336317, 92.185864118422046,  3.994276149745548
 0.060612362331001, 14.688635777351051, 75.034920079038841,  3.999242024965715
12.233002807854083, 14.649081929603824,  5.254430612323615,  4.011754836854508
 8.645273912816222,  1.090559736332268,  4.893847057232868,  3.676325932528934
 7.124490193371559,  1.824545651742334, 74.121118401007209,  4.069418461990336
 4.641355506471561,  8.786302254588437, 61.250267517686275,  3.621306192226574
 6.340681292138017,  3.154193820871827, 70.460959958570342,  3.864804965567121
 8.872658413410445,  5.052029420939079, 50.491875938644313,  3.794979748361962
13.926755938230606,  9.076308241951837, 75.655848240003337,  4.631085133910089
 2.484958127425973, 13.124123453710389, 67.562387877896640,  4.121564675039322
 8.659294758144545,  4.959148257450653,  4.165970075743641,  4.192872627218491
 3.535108797165675,  7.938895229067351, 64.880429911537632,  4.146286615700234
12.529488308744806,  5.574813302008692, 24.698550400663528,  3.978984799643278
14.347508417288365,  0.425121258439005, 57.233790663258503,  3.973044294472637
10.411191889669514,  1.137362865068103, 63.842150514853955,  3.996707031231733
10.676149359319027,  2.478455251979364, 57.908925526742379,  4.239923239840267
 6.923131270726664, 14.184956302902311, 57.064933876344192,  4.157998477591455
 2.512127570225697, 13.704678373606468, 88.674301892443594,  3.732085714446766
12.494662202783703,  0.003852270367423, 60.685439102082185,  3.884240817459118
 2.521296948882982,  7.679849414001733,  0.737991546291549,  4.038034386877149
10.425579456136211,  0.344810742976062, 26.865051022267785,  4.160695005307579
 7.203602297904404, 11.128925272118460,  8.725079753197788,  3.931402581279327
 4.567212087234278,  2.550750900151360, 22.602968146803043,  4.453268517552570
 3.859330141137180, 14.182897474080871, 32.296324177479484,  4.041871858027873
 9.835672168659572,  2.890710629763622, 22.687858588315830,  3.831596615588493
 1.557974343381077,  1.104286111010147, 84.689069512272354,  4.030010780862161
 7.237975818135037,  6.779858309498454, 59.203765236226246,  4.099489407751073
 3.070487226272788,  5.000935105874269,  7.163791065362128,  3.953901411102038
 7.241023046359349,  5.362626791157897, 24.017430070519296,  3.793301230930806
 8.095794444369089,  1.560415017948903, 41.043447977828478,  3.983539934420018
 7.649886438685303,  8.749499470658440,  5.141644202204896,  3.890574454556068
12.125259170688153,  5.250224860787687, 74.859884785974955,  3.944857806506629
 5.516007942729474, 14.316779366170339, 27.503356802003903,  4.292931972363617
12.176176258026677,  9.893632433130152, 84.400496196392510,  4.122950547842525
14.992334297187066, 13.471291345680907,  7.902099736744830,  3.913071781506421
 4.678513641280702, 12.206829775984740, 24.037593813188487,  3.959989881678309
 9.987341813901150,  6.820035891582883, 21.612353968529419,  4.033042947078681
 1.481332280834665,  1.754512229557418, 15.366912241899968,  4.019335710115079
11.424756353195596,  6.732071962105461, 30.207496187280938,  4.105433627306536
 4.356045337735171,  4.051802856919831, 42.677727783962048,  3.979360065718947
 2.228561443465459,  9.148258219936277, 68.598100983269944,  4.097388894115876
 9.255509908874673,  3.586247510575496, 77.214321243879766,  4.133338448961061
 1.271298887095455, 14.521075883841331, 29.150130000761958,  4.092388002182797
 3.389240982250909,  7.655319144140821, 18.048992471277145,  4.282379058673105
14.809933569322444, 11.144203376969127, 11.251853598770985,  3.819020366342231
 0.028921152955281, 10.696710041986632, 44.086499242331840,  3.970068026010152
 0.048356464263184, 12.996869987733200, 15.155880277180737,  4.086799143389729
15.030963190415484,  5.560654859621325, 31.647817007138798,  4.004202611640139
 0.610160141587803,  9.790897621206661,  7.937999601112934,  3.527852939600526
14.516363537382324, 11.453422784127303, 36.657665102230879,  3.964792861601714
 2.298619032920868,  3.394069896339484, 29.121888812260728,  3.988067646542310
 6.371607808759598,  5.705429430296745, 20.245290368527122,  3.951808176898611
11.994090059352054,  0.799024988281221, 67.356593943697305,  3.600683918368494
 7.337712625315543,  1.708058368764728, 19.523749637135051,  3.914087965825861
 2.176563740354337,  5.769819240756687, 91.152169727285852,  4.112098142448265
 7.669285075851294, 10.415328810281007, 46.084891774643602,  4.317260433404575
11.136377551280669,  0.810398817874300, 74.673658003192045,  4.275705761143525
14.161675377386983,  5.476542420873361, 93.958723161956115,  4.140523508596518
 9.728732433048556, 10.254802831152936, 75.577026998708547,  4.071961811576928
14.821713195208853, 10.382784209348419, 62.332808156196656,  3.708351642508667
 2.875904413429361, 13.761612257345901, 57.175198079952843,  3.923361445815545
 2.142597815545614, 14.115994887426767, 43.292395857342648,  4.174270962124873
10.882357486802706, 13.698212158743583, 56.617918206460573,  3.836176666131549
 1.487869117610968, 12.844740132608731, 47.217430597412630,  4.151780174843255
 8.240418332475700,  5.227911140771138, 46.265105954419852,  4.182861210460434
 1.937070655476065,  1.467816301600874, 91.382797144395553,  4.110576993247588
14.922587108206690,  6.617877766591546, 44.871838335340662,  4.314331213381444
 8.980513142188936, 12.399855191599354,  5.463023437648640,  3.901291992337268
 0.776731436093845, 11.880663054311622, 51.079681145408209,  3.842271103798206
11.355906017230659, 12.893106011591325, 17.125031305311161,  4.349167983127353
 8.355553171142006, 13.835992060865825, 77.047447857574610,  4.050583371032387
 7.938918175791842,  3.181255358401334, 37.348584085113863,  4.046949310746900
13.186898249876217,  2.010154798663027, 71.408056103551672,  3.795817146167580
11.188428301006828,  8.246575196285157, 72.330601431942739,  4.057726675930507
 0.007775815001025, 12.817559201593552,  3.048916892060172,  4.017690382685752
 2.232086359129554,  8.848999944712100, 38.439318292454487,  4.229807459514704
 1.655199059524714,  4.971614785329771, 63.289582548538988,  3.549700470147172
 8.192783951333189,  6.482989951018162, 74.502990969197967,  4.077746511850315
 2.441143869876155,  9.330626134383392, 55.024357085100618,  3.739477909514146
 0.007534583475032, 12.698731543363388, 83.125565155586457,  4.138978748156200
10.123777573362309,  7.990339321552827, 81.633994093268470,  3.626663566583146
 9.051590797489547,  6.854428444042878, 38.444133951182486,  3.896476086777794
 1.863255334807457,  9.358216572000316, 81.319537838815009,  4.302106424072552
 6.048594824934559,  7.659243501959935, 48.935760494843684,  4.249749180483349
 9.855861070760229, 11.368313694832013, 27.271192174816782,  3.978924253322330
12.516306999888565,  9.702835062656746, 24.612365839711664,  4.197581030251125
 2.963590506500271,  0.307126524488702, 50.349002874917879,  4.382826885186987
11.743469323616237,  6.857938300847191, 87.311325259060226,  4.324991914556740
 1.910483403793600, 10.112006798490395, 58.837011614318030,  4.092671922092308
14.444834352496601,  6.357273452142851,  7.267690050519606,  3.857566652629741
14.766316499792566,  1.671180165340834,  1.255801392470595,  3.858477009715472
 6.141899197056413,  9.311108007000186, 53.208762570467549,  4.056016880193110
 7.599423065005229,  7.182533673120756,  8.762139487560013,  3.998898705943098
10.678235912369603,  9.398826284023487, 10.435456461428620,  4.291920613405876
 4.277644577759927, 11.480982897981185, 93.838390103517796,  4.525316438541403
 4.762191977554025,  4.825390279579534, 73.451992666207047,  3.675616882092837
12.431561695042511, 14.396441184621271, 30.391103936423683,  4.053924300454156
13.072804750324888,  9.957073226690580, 79.890125036581281,  3.955349946138219
 3.811371486192411,  5.446976443992217, 46.325180964655708,  3.905574746780330
 2.237915357322558,  0.738967780679194, 64.018378308314837,  4.168577663478557
14.650524146581223,  1.080288306457598, 88.153045981739936,  3.881809240991170
12.082977331961944, 13.789931690127315, 86.008554123172544,  4.271073424751727
13.595022040875380, 14.872348236169767, 49.480090145532188,  4.245940195081456
 6.390306135449662,  2.100421033034906, 45.106982431266481,  3.432988236462244
10.646355923806757, 10.548319115463595,  2.504220345111792,  3.805291916195513
 7.441763288857280, 10.992215365546731, 91.008325984749732,  3.923497886820869
 4.237545743317568,  8.851751865342662,  7.259642696576125,  4.079172002546257
 2.565764657436000,  6.060600975926075, 21.708381019867566,  3.813288538217010
10.299771356815867,  0.818709749102141, 79.773101901735629,  3.675797817408567
13.117788821079307,  7.254836941572753, 12.696453785722079,  3.603985356374675
 2.632581734088216, 11.152880033238892, 27.315550179600315,  4.044536067318337
 4.305519953392507,  6.249387636323309, 56.346134145223090,  3.924401558392336
13.114593634279208,  3.598202947518621, 51.378120370742849,  4.156847064170654
10.648724611953805,  1.898672557851667,  7.955788338993499,  3.722021604967050
10.627645733022531,  9.478999604128768, 14.691301387449762,  4.152686783219566
 3.311599833656795, 11.742993460913327, 17.254303817850328,  4.018815307041938
 5.500653046137305,  6.084163573944624, 36.152756545267849,  3.902845970285640
 2.791297690473599, 12.137202218968580,  5.674914859639970,  3.744635800631922
 1.382945115326824,  4.903427501781375, 53.753517578638643,  4.310796624020350
 5.967694554017644, 12.866579232182128,  3.288417235685348,  3.552300004745163
 8.608592218853035, 10.193516836066323, 23.397545923890970,  4.040617689313252
 5.046692900778215, 12.537730187924920, 60.368831747306324,  4.117377141228273
 8.387700984769889,  2.127058435418998, 67.214706615522672,  4.076569049961751
11.142032013233836, 13.211068574216991,  8.839282175716288,  4.001906137393762
10.141668648561753, 13.655181129181855, 47.708065808473776,  3.865124047608163
 9.011109910878782,  4.034271502986294, 28.180591314852766,  4.165984411264879
 5.019221960523430,  0.297071817604587, 16.619184735282982,  4.022189955743584
 9.897291638857808,  8.361271042618482, 52.259798433750234,  3.902240038108527
 8.824416777080309,  5.315877304720837, 42.200810020403935,  4.007311140073810
 4.915027652984028,  3.575286221604124, 63.839595419636012,  3.619917936723485
10.665975840483114,  5.314871591826762, 14.858755054781128,  3.967606371718646
 3.355447452888168,  3.485694137890456, 18.583433186956015,  4.121669179701469
14.155613717127908,  6.680892065147999, 82.940045162910735,  3.957072868570639
 8.581426363625440,  7.414081865372986, 89.887591889687826,  3.877636344709793
 9.846356289576857,  3.826733346569689, 71.999109022548652,  3.897634718979158
11.776720442027296,  7.792680081410234, 18.171683230813809,  3.897288256563169
 8.573253851684257, 13.102837840980353, 20.492608150355867,  4.009031393990418
 0.755479548572406, 14.707082034458365, 18.936378862974991,  4.330708649592878
 1.408421861133949,  4.324671806115201, 25.185509712459574,  4.275323839227942
 0.522578927224623,  2.565522690796842, 60.548826082425251,  4.084264907039710
11.467174024226225,  5.224317596960717,  9.859878118099996,  4.113319893602141
 3.840464730652992,  8.600545810030287, 85.019021629255676,  4.222298480831679
 0.791537836519128,  3.744383627180614, 36.179799786699036,  4.411804882689744
 2.949506154431036,  1.615295495510328, 46.378897645383901,  3.940620507388213
 4.762957373403621, 14.993015670843095, 71.637722560948745,  3.620860661754550
 0.478277640860653, 13.147909955031162, 93.032462094547000,  3.899650312763879
10.829470904448266,  8.019265404057432, 61.790830427012700,  4.070255043040514
13.016686575033717, 10.827704880332197, 47.880140995279682,  4.004695174896352
14.000843599235159, 12.301688338012475, 89.403532741138392,  4.030116555938401
 3.514998286997201,  5.265906802102546, 14.513337667579014,  4.230800386836317
 5.166227458667503,  0.274898638986374, 86.332375496650997,  4.009196411180756
 5.558789540587153, 11.456534800180147, 87.504442511789364,  4.078673213855258
10.273512538665727,  9.007237798143318, 65.687381073148984,  3.925167101407993
14.561594640150592,  5.854652969437693, 71.554472908941193,  4.355521172042929
10.874366160600088,  7.280463995098169, 78.017557148570887,  3.877245112008083
 0.331024659812860,  1.240823086270712, 39.538659707179946,  3.963868400356851
 4.870834783785718,  6.877957822862895, 88.469984712918276,  3.754642946030465
10.997912839889123,  2.893573748365671, 31.452756701218178,  3.813176869512487
 8.060192930161220,  4.874433510274547, 33.151893781987489,  4.044011457482643
 8.246250045854737, 12.633857236706998,  0.411713329790628,  3.801744783323004
 9.624423843753267, 13.072682674357775, 41.050377687632633,  3.603447235613816
 8.591446878033514, 11.841123988890409, 84.836344153663219,  4.032636546002276
14.640508073527835,  5.379985529675571, 16.394112764519324,  4.378716927298712
 8.620911552875450,  0.312329189728303, 14.601579398800663,  4.230313225537596
14.922908131096648, 10.729140655829250, 65.985192792951167,  3.600181908977873
11.764537924652727, 13.978255491946317,  1.165286424781360,  3.879772893893221
 3.815523144395331, 12.625122034645891, 53.480461564993924,  4.015970270130261
 7.359697864328493, 13.527432334584544, 81.523457440479334,  3.791446861334037
 2.576173459210065,  9.886413148002823, 90.042230082489752,  4.351442128894144
 0.058464058105157, 12.980201775569737, 33.027761562247115,  3.829117142695306
 4.231178109016928, 12.446405149835794, 83.723798477209669,  3.926838833562913
12.630781356689900,  1.553603319865587, 34.689553702355788,  3.889092553295222
 8.350638275984167, 11.122461072625358, 50.032105167189634,  3.816499654812210
11.972939386692051,  1.941466107121585, 41.640076704724379,  3.840101381011165
14.667333568950733, 13.082409133131920, 22.532390719522702,  3.803054800599283
12.329593382916439,  7.175509852153570,  3.120764791037561,  3.821815781673723
 3.173610426399211, 14.973999378507145,  1.947445917085915,  3.930236533734479
11.807060874038095, 14.710146834286538, 38.204856510832670,  4.226445502000119
11.949753630884462,  3.942945427509347, 38.116323558314633,  4.259727871796523
 1.594964114521799,  0.710943218368636, 54.146742650390919,  3.724163459289943
14.523914481397304, 11.906488444582481, 55.302980102676067,  4.104730656756710
 1.205283732920020, 13.731653582779304, 71.350307970344588,  3.940307676241677
13.908320652453231,  9.766197382705345, 40.502948272269428,  3.787670885685687
 3.045802588333832, 11.232919223691617, 34.902414558977391,  3.978885533042024
 1.364874722543177,  7.192491289508050, 10.579955155852485,  4.007185541391382
10.303722452387181,  9.791978837096602, 56.000362908224176,  4.147931246603628
11.888696575089208, 11.753300766605420, 51.623829492699507,  4.028370849349484
14.819043867320593,  6.879729119516888, 60.420655580142160,  4.255565204168556
 5.546795689254992,  1.381980777252348, 53.724482110431389,  4.336929381699423
11.933515545286824,  0.354143621293775, 20.471633595279190,  4.067099753399863
11.057195660530828, 13.244146340681592, 23.615386002444531,  3.715491428004357
 2.454447519423764,  4.916187657549662, 84.117576418965356,  3.850504570009251
 5.478568903121817, 11.231559255871499, 30.191769501416548,  3.889520862247546
 8.500286571111319, 12.583619757513517, 53.670585908030276,  3.955112859646651
 6.631733044046712, 13.671534692146404, 43.543178256814528,  4.190067678783485
 8.470430354351238, 14.069456045551215, 30.330463252419939,  3.895545401947706
 6.888351198250583,  3.972276138692847, 86.674018340469487,  4.168127847636527
 9.853720463657510,  0.165553237642488, 70.452922468968609,  4.033258221438125
 4.432094479771770,  1.777969339355650, 67.228117612009029,  3.864562254734495
 6.603536014094585,  9.612622929769644, 82.023587600962912,  4.123761877077039
 5.804958391877701,  9.729956498633454, 74.782012468635898,  3.995629858271285
 6.501603395065806,  0.048210553501623, 64.180354121229342,  4.138212587803723
12.526297727865826,  1.604737948965439, 83.051322211207705,  3.985578002104022
13.126217158629702,  8.356277207328892, 68.437701192957661,  4.072929184833429
 9.777619212900094,  0.873944601141044, 44.631622145454102,  3.767912244423285
14.962531991723479,  3.964494759960976, 12.416999289873907,  3.960439232851861
14.741399571774515,  6.296912995417324, 78.963421076262151,  4.109404457738112
 6.091147946715855, 14.348590766039571, 47.519674497018691,  3.894790526404523
14.406463378876657,  2.642777795133129,  8.651393017345260,  4.047944044975511
 2.107247122160767,  0.116037691668542, 25.159946354571659,  4.143569306852367
10.698128882042386,  2.495647243553384, 48.170031418798679,  3.962751939284018
11.723636440610862, 12.266657827013066, 72.681266529853957,  3.996427788526717
 9.636472178524128,  2.741591375376019, 53.784627825810425,  4.274509139492630
 4.447611864272537, 11.203652270744069, 71.306925784005813,  4.004918201059183
 3.719137074170847,  6.891034315966248, 27.604990838445435,  4.145564719372821
13.255620889917083, 12.563498064723442, 68.925064660233630,  4.074636341308507
 4.608024242354917,  2.778426616526528,  4.342987488334067,  3.838843122615594
 2.753226765219980,  2.721243588633127, 57.190105413613139,  3.901030600394759
14.716867293116378,  6.987689573578607, 27.827236969075837,  3.926722627353624
13.594819986555224, 10.529286212443472, 29.280262896016339,  4.046146705560562
 9.470019301985531,  6.505397571981200, 68.962237369063089,  4.189797004845107
 5.978893492319876,  5.437702376437660, 67.046045810950829,  4.051196695334539
 3.498155054582192,  5.727390349801460, 80.373583934074190,  3.714784224094013
 9.971936321609046,  4.869875026702007, 83.986102058047038,  4.194110215340531
 7.716643595690838, 12.913790911997367, 73.092302550217028,  4.159540721870620
 5.506118953201348,  8.703239225903495, 33.407581227357760,  3.677748293320716
 7.969024424980506,  3.272865166997511, 61.174813879899510,  3.988965033120471
 0.672434262362772,  9.024980709121039,  4.237035774186681,  4.025851369080117
13.877766447096604, 14.728655118316341, 79.986560885776854,  3.686652324881671
13.555686527458592, 15.029607269145274, 45.307481975765469,  4.093182138502929
 1.970386759597162,  2.512790368835818, 72.135872196950345,  4.009880086299403
12.018038903171457,  5.405810914283086, 34.261389437058675,  3.947058298459391
 7.097123216257449,  3.884096717220673, 16.121089566886770,  4.091764983423960
 7.231147855509878,  7.492434131938236, 29.953040582018307,  4.382375342134195
10.398620265545878, 10.726862160247375, 88.299471410356247,  4.072098701626095
 5.461375480089139,  6.908932452056854, 39.971474376166519,  3.900472335459282
 8.630994486426511, 14.495486586356314, 88.327862146629812,  4.149023344731853
 2.548768791265811,  8.125772327949974, 42.301303530976504,  3.650543371690978
 5.417171717904551,  5.367968636225108, 52.348359281643106,  4.055256098031568
12.548027467384724,  3.663129478841998,  5.004271864256897,  4.134275784860515
 9.137935100382888,  0.452035456292041, 92.138662640139884,  3.671526462645625
10.972281524439703, 11.948193197437604, 62.477585131147613,  3.890166016566780
13.497777971789469,  9.187065335615305, 33.287540150139598,  4.397241316700786
 1.671286861457314, 12.637133489444324, 39.622028350847224,  3.781638849268159
 5.297345823685471,  9.328940072122910, 14.937861865544908,  3.725162910666715
 6.595399348736255, 13.571157863990194, 68.433943657812279,  4.265707123708534
 5.090720674418606,  8.417461427701319, 23.328276262723886,  3.792641476065222
 2.107846727355250,  9.029448787047231, 30.864165707983627,  4.266398121196262
 5.922890883804033,  1.012765751744364, 79.088335782347173,  3.688306241026573
 3.054119372649987, 11.814976965552537, 63.793632055442856,  3.935744842366995
 8.151700764365016,  6.360685872209357, 55.242383018282034,  4.071707864286464
 8.449691964075438,  3.349143086378750, 11.805329328672235,  3.976116488675832
 2.702942772569005, 14.477709480468487, 80.799331473174519,  3.811024569141029
 2.917530314743085, 15.000747348831613, 36.593987872586155,  4.276381537416142
 7.187712328973201, 12.225336263223399, 33.688188684085695,  4.142829891825988
12.508565746697899, 10.684068306885486,  6.027172609426649,  4.021876133391521
 5.590643010091358, 10.244898005854688, 57.042954843594160,  3.880424826142922
14.217897086101246,  8.189173046794176, 56.638831853338075,  3.782152790400968
 5.981463449544568,  2.227468939461473, 30.541467316865781,  4.219643606476683
 6.307590206864567,  9.826331262548704, 26.679684626303398,  3.848350849300381
 2.731765355370792,  7.988294785430124, 73.031065525951576,  3.886328929108716
10.725928864698856,  7.643665174430446, 93.365963980934794,  4.035975598376624
10.046090889286031,  8.070891523971410, 48.418309360864562,  3.806309608581686
10.832309887927993,  7.247248932770686,  6.571010245375421,  3.690801159704656
 7.587003055650734, 14.938585076144529, 23.943253103693181,  4.018101179480420
11.860820761638326, 10.819835441028946, 20.717736927511794,  3.997682438467744
 0.972455117653461,  5.350442518731690, 40.121539218762607,  3.886633207276590
 6.784724325723160,  3.161631407085158,  7.841339571256235,  4.408745614225166
10.481884106819457,  5.004194099305012, 65.239241019697673,  4.050212886241447
 7.289405713832593, 12.030355799675329, 16.837007591586069,  3.972173441131409
 7.607009999254857,  5.149212822383495,  0.152874091024561,  4.088408051126503
14.031977211439690,  9.738351516912285,  0.576411683228980,  4.133678729773454
13.546789756172567,  7.626085923015019, 37.195746590060892,  3.972101161448632
 5.839576804069100,  3.105888377545462, 48.883209702169829,  4.087169590001383
 5.802627716594274, 14.294324375867649,  6.743610060661246,  3.927693699948522
 0.924744113213117,  6.961244776279413, 87.433183277899502,  4.025351203380278
 1.168038190963703,  5.015478665887502,  3.559368440167305,  4.165834272211795
 3.861690568211445, 10.822667921697500, 44.740120960755867,  3.797495550844271
 9.479306357164621,  7.564389510623718, 26.261798411903033,  3.922091719695406
 4.663672772795591, 14.873835023447910, 40.274780944203613,  3.800476752469792
 4.411675500878331,  1.501734990332316, 60.635276206685504,  3.969418405369912
14.686479990244782,  3.483096962823683, 20.595776349504799,  4.258387893566353
 0.566080013828278,  2.860202360389054, 43.192503832063878,  4.018863595045906
 1.042315421569908, 12.040231599279165, 78.102496939652937,  4.179767341817294
 5.753158052532457,  3.637544925189063, 90.741106986208095,  4.238354993497351
 6.677496238125171,  3.236554189832386, 57.331285679863335,  3.980040386714189
 2.007653120058190, 11.464027255219698, 74.313689781357709,  3.661177333959686
14.227580408588580,  4.376613989486698, 57.212253216822376,  3.927127769714939
 6.262507835180748,  9.950599160791290, 37.054765863164853,  4.172086134054812
 4.888792632383609,  2.079958626347008, 82.647935568615893,  3.975416027481290
 2.132722324431030,  8.804263555389070, 47.641902237061430,  4.048508243112259
13.832281841752337,  7.265966358066112, 64.518070328210911,  4.157590423030406
 7.965001285270088,  7.670839690792198, 17.172614248701024,  3.949211811222528
 9.588382057990209, 10.765582592645611, 69.525613750904242,  4.120254881146887
 9.923929620079338, 12.908023070385539, 66.129541689676330,  3.929911996908513
12.432865197866956,  1.702117523555359, 15.623024118980124,  4.135499226096317
12.038611311207651,  5.965511162061251, 54.412586336207333,  3.821574664683615
 6.254156369276934,  9.960861427732960, 20.004630016610729,  3.860921073178511
 4.383882356049261,  9.629401232134478,  3.473880341866470,  3.637029267358248
 1.128242017666859, 13.614648344157853, 60.734444171699771,  3.987556004993462
 3.340974139923522,  5.576504215080290, 70.022138070667879,  3.892741148010728
 3.702442293338290,  3.707743332735234,  0.465371515190977,  4.239387354135006
14.566334795587649,  3.360977556475858, 47.475014467689512,  4.033541554190362
13.574429819767333,  4.348363660399643, 90.078758902463420,  3.994284633969487
 2.812111232104815,  8.171806826118853, 51.454629153683314,  3.799603065726869
 9.818122428241555,  3.976380992696855, 91.071881964310293,  3.801377478466035
14.771305585172046, 10.298265876127861, 18.081313090770035,  3.877020503685454
 4.717139283856834,  9.319323154643394, 11.176362905347608,  3.866786247601578
 0.809756532606259,  1.732570009444313, 32.464887877348119,  3.940513059656142
 6.925511787600355,  7.927445555912003, 78.268114558838633,  4.125805367322203
10.949407405952034,  2.890391192602551,  1.078494698854454,  4.149762729037145
 4.686458180587558,  1.528368566171202, 12.542940934978974,  4.507595438393309
13.809348031246479,  7.027539475852583, 49.153227002099307,  4.130447518341277
 1.031163202911840,  1.187797013289718,  5.167331589891451,  4.141103599389591
 0.786899057420488, 10.698591728692774, 86.393905794414863,  3.670894152224391
11.208886250099576, 11.828880692046733, 44.366622852962223,  4.039134165461459
12.926181781165289,  0.833169732345500, 91.867884539338760,  3.952887790989871
 2.038356650438188,  7.417296959513387, 34.628325745167032,  3.916865165428056
 1.389990034638730,  8.469009536621268, 24.563778907333262,  4.008065862748277
11.603818955150208,  4.308758102154019, 80.363967385763445,  3.829994811866740
10.748617541392951, 10.568692609354587, 38.092864920493398,  4.289090195758209
12.672364379392066,  4.250604640678555, 68.369585183425741,  3.714205198491241
 5.455313373138893,  7.836978051125951, 92.119511678436083,  3.827935920559848
12.848200623207171,  0.127161156762042, 53.538970181049550,  4.022554904334687
13.667222913082554, 13.979244955923649, 64.520922953421774,  3.947081842257916
 8.000633581082186,  3.430350957835650, 80.893782857235749,  3.634981683450891
 5.946714051544009,  7.486836540182443, 43.785775394130326,  3.865350383381879
13.958744588805340,  7.473249924461167, 21.459920495377673,  4.018984193716233
 1.264473291062401,  5.226571322022077, 66.869710064924178,  3.664202901919841
 8.264719651773108,  0.320074211326896, 50.722050614269826,  4.000481639341752
