BANDS
8 8
NANOPARTICLES
cell(1), 15.030
cell(2), 15.030
cell(3), 93.938
 5.849492803380681,  0.607724316757764, 26.997626502526369,  3.788634436586551
10.815215055619730,  7.846940683866678, 92.387969866700303,  3.928262406982768
11.238513291994671,  7.698677463751387,  8.961908485678014,  4.253164707924586
 1.620262611864364,  1.457549545197904, 33.504959661598662,  3.841627907612036
 1.284267055598056,  1.182822748706550, 14.916981501325880,  3.921661772397997
 6.278448421401206, 14.399741649592901, 64.324041646732368,  3.691977459163036
 7.097162192777266, 11.314780661238077, 16.960387435867563,  4.003104135719269
10.285270456461785,  8.542105982415521, 51.312662007614186,  4.029434219370335
 3.651805087311177,  4.974090443948323, 21.228394568428108,  4.066390581237760
 5.482684640519573, 12.945132558728330, 60.679158770482452,  4.196625815468639
 7.551753429667696, 12.048491476518182, 28.765054387931109,  4.005349180427269
 5.406777332290646,  9.068289129270669, 13.981681070399514,  4.184407036405615
12.548293921044513,  0.054167996872255, 40.369987953738516,  4.371516556917475
 2.335167377217387, 14.712967782690470, 63.645614816467798,  4.331059962957406
13.478420814279538, 11.278549392630129,  8.606124747708197,  4.093099846213868
 9.379675261156866,  1.212370474029347,  0.175266507609863,  3.929320781463397
 7.245838035257658,  3.299696563684554, 20.556758864686874,  3.965170912447728
 9.108836053488568,  1.559381298457100, 13.063787878409887,  3.779770012879772
 6.230343489887292,  7.155263986012420,  2.058515002437434,  3.782373062635407
13.233863897834803,  8.051971485899468, 65.494294493574131,  3.971920543457827
 4.154376277870007,  8.727966397977374, 22.514102740127921,  3.922090239834121
11.112328365228993,  4.685993525416892, 65.568632255580567,  3.932737758364030
13.976516899695696, 12.191712517869711, 47.003448377434637,  3.844702780586001
 9.111841466970679,  8.348263006146670, 55.174175628231708,  4.034488477210637
 1.698934299361228,  4.941292414809676, 40.404267188468665,  4.088806564886078
 3.549326249841093, 12.612105399188129, 28.185468751042571,  4.153419205747236
14.361898626244814, 14.298199146633829,  5.697414712920455,  4.073996109372986
 0.855328919652565,  6.229055651382059, 48.441625130088084,  3.787807426971793
 0.530496710708272,  0.534960799677838, 37.571331609644076,  3.901733252388811
 0.295450707700761,  7.708033651311718,  8.712828876329453,  3.924057265456651
 0.552378617763170,  6.146316863868698, 79.029162524636561,  3.914948782503292
 2.556568403415274, 13.404437862170662, 86.870704965569871,  4.063990025515626
 9.667733278031884,  9.573394252863665, 35.583496523771814,  4.252907074452129
11.564404204795848,  9.873261642636686, 57.886692469286992,  3.875025573968897
 1.338680901222259, 14.839318430691426, 59.560805568575489,  4.066584795493695
 9.995947399051941,  3.051611762261078, 81.884542685481421,  4.291792196190888
11.032634951506925, 11.161896477461273, 64.653744877803064,  3.815484718566127
12.482648552198315, 14.044024861081510, 66.942053266230090,  4.088959710384480
 3.023781205970873, 14.870435472637478, 76.171059314087103,  3.900984528751997
 2.500092179592686,  0.916750198472060, 83.583335364928416,  4.092643606216685
 9.731006751588012,  3.416365433131798, 61.798334757925907,  3.580833216374145
 8.131233072899093, 13.478258953226094, 49.537325619294734,  3.919332433730884
 7.142452913684790,  9.441068073896956, 79.055116747810857,  3.729321554136571
 6.282695791736961,  3.802692400957367, 49.489309197905961,  4.122437142205191
 3.911837687386864,  9.781454342011285, 31.193546312913796,  4.130968080536186
14.322374769178657,  0.302808673476851, 70.480234511896484,  3.892714531106880
 6.981560762132745,  6.732225329951817, 89.171986458110666,  3.950466072709434
 9.792993711646538, 10.416648989918750, 47.785468191340051,  3.865022359054469
13.772974165669755, 11.880107652134841, 72.538217103369021,  3.835031145313633
10.219341504696864, 12.091890400251836, 86.367415210911574,  3.887596382967511
 8.539481547667542, 10.320331122213691, 70.259019821628414,  3.672871567763934
 1.640221012681533, 14.394203874057419, 79.889044813941055,  4.085735739840016
 9.306218406588256, 14.324526495572902, 26.109737138162320,  3.814119757213898
 7.141188653619669,  9.331169083267742, 85.973590475761611,  4.168759066749070
 3.944462955534040, 14.759135912614816, 90.486816790845808,  4.119548272602673
 3.092025187992497,  3.129006395847072, 26.270129796359729,  3.807142453276525
 0.097821404090489, 10.714159745387388, 29.697853674651082,  4.269585359559861
 1.493099810984105, 12.531640000037111, 33.212085873258673,  4.093222282980370
11.347590642858945,  2.527668596860590,  4.899011155899248,  3.638746718168698
14.066971080676369, 12.121796266680109, 76.332754475884798,  3.773432663580281
 4.486101802372935,  6.634105921560155, 78.039496171194941,  4.252059021441180
 3.738892368674922, 12.684996246804282, 15.449193109396289,  3.820540030991018
10.394129287716767,  5.012044531446972, 22.226186437057841,  3.753598017670832
 9.572554842557981,  7.401822100922841, 62.640954242740357,  4.379876137758420
 1.876517614633190, 13.450945699006184, 44.914734598180907,  3.756858459528943
 0.418879121328628,  9.860297035958963,  5.589380936567180,  3.641089413770324
13.972954134866246, 13.230772518401050, 21.637790635901244,  4.240700351429012
 6.483217140534720,  1.654120839181423, 75.669508864401237,  3.972282353895890
 8.384888854379742,  2.836178619652185, 24.738033689605608,  3.998282035963876
 2.678079673295968,  3.836542162100827, 36.451455416812884,  3.966312623353448
 7.452169742740082,  8.154325189293402, 28.788352791814567,  3.779749073272912
 8.278938360924808,  4.125497363447200, 86.203715674788796,  4.307041921982178
 5.020821608321280, 11.341418784128832, 71.433004408459198,  3.959862059185024
 5.521389982480495, 14.591824779111914, 19.263405338010710,  4.023361090413437
13.142793316978958,  5.955926606982852, 82.120012284261080,  3.839108591294093
 2.670788795474756,  9.156965099608781,  2.331040516620233,  4.398060666227678
 0.960637697931413, 10.504091593178000, 25.362623527272874,  4.564188836502931
 1.920753860811747,  2.029750459783038, 43.271728031232314,  4.072052585716888
 6.459226669397030,  4.961468244437238, 45.714406165737813,  3.749783563908218
 3.691148461976111,  2.045929361262054, 30.035976650986598,  4.053639024195959
 5.001345333336825, 10.197501836214700, 90.041366732871381,  3.703791506363915
10.096375324141514, 13.839854480213315,  4.583377481284847,  4.212855090535308
 3.813955250368155, 13.115870966707845, 56.920993817119644,  3.932546175806301
 3.217056551572765, 12.876532878928462,  4.064941256320095,  3.865075446537186
13.736097397663482,  3.336523421996255, 46.535782964135471,  4.026167315430389
 8.197141156855801,  1.388317865670423, 51.960712825591592,  3.699852609780232
13.930550563743473,  9.358294169525628, 49.773372685674744,  4.049840124374465
 5.417168399551868,  9.357322411257435, 67.971174347500579,  4.029393812968924
14.398022585579175,  0.160275844289446, 85.686709120581241,  3.584741181309270
 6.427186502879158, 13.190306094561352,  6.332978711248105,  4.006808807118276
 5.154351412778555, 12.507275089992445, 84.066127184231064,  3.777751856843319
11.073945424006331, 10.247286613836090, 26.485447188396890,  3.934870945581242
 9.423960310751539, 11.365370437808423,  8.298304790487167,  4.017933151023718
12.523634772234551,  5.824687290804257, 12.483283390121301,  3.689716056249509
10.535909137451236,  4.714509112350030, 89.777220445368741,  4.194610598264390
 1.762006726219104,  3.433352125744897, 61.541979194369233,  4.231959278189461
 7.644596080049236,  7.192187620862946, 20.734323061493477,  3.820465748504137
 2.057038044994516, 11.705561937852067, 53.659462988502504,  3.827458204335066
12.616538791541108,  7.804040336704062, 23.785335541410888,  3.956458530647103
 4.002836837577198, 11.156630871607799, 80.590412073938623,  4.026190623104204
14.020208627387227,  5.272280616935125, 21.212308319107326,  3.789509143076841
13.305893578866026,  2.245416971936705, 50.524180173522979,  4.263056617710337
13.361374421877786,  2.692174462769914, 67.791924663455859,  3.534830990148981
 9.596609239446060, 13.387150829394745, 33.412834842935546,  4.476952644719136
12.755299908982836, 14.383572531293980, 79.130485837611062,  3.882323162927275
10.837827089086309, 11.386164146954300,  1.358917383798290,  3.975722228306991
 2.987847296686806, 14.081931734184515, 11.878699822353640,  3.991729216021201
 5.301085806128627, 12.034551923005212, 46.993427301528151,  4.202079331372754
14.075458335621335,  5.985699166860756, 51.975830374889782,  3.889688719879243
10.721120770432442,  8.539449066608050, 79.949184678635447,  3.851648958623993
 1.472310067347408,  9.414372908412163, 70.842291491101719,  4.186910729099443
 8.578297883553768,  6.800991519484018, 48.237925593439243,  3.796087048755580
 2.430715179012208,  8.199621342875151, 51.708866735398239,  4.217493834310393
 1.980976204966006,  2.955820901540592, 11.366836347188455,  4.136036000106647
 8.266207449147096, 11.901184010447524, 57.020930552786808,  4.059623633952174
 3.109659322259357, 12.623715820861058, 21.950432788218617,  4.198443072621448
 1.840438734439747, 11.341873642640643, 61.367342590446732,  3.858222765841810
 9.904146995905732,  3.275392527727222, 39.886222770363524,  3.905378976880007
 7.637033665839042,  1.691290264582025, 36.889541156577970,  4.144876400731968
 7.499524230190100,  3.842014986298404, 16.689701904784982,  3.809741096392449
10.246813521573882,  9.280081706612581, 43.198368423677763,  3.696397039186442
 0.007392660671122, 14.941562853126991,  9.518567660152637,  3.790354565779393
12.286614656671393, 12.595162156726488, 90.414774329780187,  4.251441226115934
 4.513247952365900,  0.123995064496831, 49.571143704969366,  4.027676525413109
 8.845844824953700,  1.672549186690693, 72.486199825412925,  3.860456732190648
13.253255405399553,  7.476572053594540, 42.068181151485867,  3.667502354730487
13.176189909079257,  8.414159386329368, 76.875248336361253,  3.924150611914128
 4.579563839535226,  5.105418354176076, 14.454736187264043,  3.963104851755464
 2.152813201968711, 11.822578802862127, 49.691548586951356,  4.087696264172344
 2.138422233438902,  3.568294560671928, 50.849020232212567,  3.823319303672536
10.127534787756353,  4.597058456478777, 51.493744596262943,  3.833217626302364
 6.802880570808071,  4.234265226194561, 28.405728965294994,  4.200362674055783
 9.971864525129385,  2.663985003154793, 47.995507299594628,  4.145865500199127
14.905810962982788,  2.414049967266597, 77.984220363396162,  3.922297209744175
12.590336226914092,  6.133778690820463,  5.370120979449784,  4.031372685858764
 8.540078383263509,  0.031186146416187, 16.634464609805882,  4.031265777776963
 0.463339577960989,  4.798211563772940, 65.546367814952845,  3.931765806837303
 5.704739260103217,  1.790527666774372, 67.931330686885516,  3.775002126634436
11.077658019844037,  7.480509293215527, 38.886165510871315,  4.041400179120273
10.591379634079017, 11.467929342358788, 22.804885236155489,  3.722464414675475
 7.324876672566071,  5.140097575730922, 68.780292992817593,  3.856887441167015
 7.641543068265920,  5.989381640519899, 32.119261548857857,  4.172606595911246
 0.618351946804118,  5.049185341883438, 14.523456391383197,  3.908933774106912
 7.734923172734853,  5.162193510557126, 92.864859806796602,  4.190615078820978
12.968715725141220, 10.878599634438583, 53.998018410271655,  4.593568508982511
 1.952574910737576,  9.698115392069258, 46.151187978733127,  4.135734353877378
13.816092569170582, 10.429868263572693, 39.321990678082443,  4.040783484040951
10.852428410794396,  1.918125430161685, 19.398776807004168,  4.092051049631873
 6.591947615784012, 13.024626719148843, 87.820182029678378,  4.146866486016155
 2.241471425876907,  7.360782760401891, 74.478216290183923,  4.276568169790073
 6.160016125713012, 12.490804804466160, 24.688432736109728,  4.000799414606403
14.826145501363451, 11.672963163215247, 64.696460352531233,  3.839797914193644
 1.198458980737759,  4.039985514201381, 71.919475824548982,  4.306913861934916
 5.389155059337921,  9.950725978798012, 54.888427001157069,  4.085306648995352
 6.572527988466774,  5.525208505288122, 74.623977114086046,  4.041790455734580
 5.268114119981951,  5.084806664931254,  4.970985354808177,  3.598647312025107
 5.351866866464006, 14.864990862465531, 81.103161029437260,  3.769663987468328
11.744707844799505,  4.920455358499687, 78.490255477455150,  4.208156515276595
 5.533067633859490,  2.452306285423035, 33.586325774436801,  3.769068549867412
 5.129992932442890,  7.508691667762334, 82.085976309489254,  4.054023111606385
 1.517545397432710, 14.273510819329656, 18.457479655149996,  4.156007464334631
14.041885514647291,  3.707643582273674,  8.446120861130387,  4.323493256202503
 9.317641529941291,  8.213453397845120, 66.925972046597479,  4.351525157001717
 5.006409327962840,  5.883473682021322, 60.832076474861715,  3.995726759546738
 3.756298541775915, 11.879354541128269, 93.297137123533091,  3.931934551422322
 1.770619072605110,  8.598396480042833, 34.573396251856593,  4.211867266413108
 3.975397120653889,  7.200316755673827, 92.562968059015375,  4.377218734452817
 8.516527972918535, 12.920840117184360, 67.187574483503482,  4.100530879015778
 6.331465330205494,  6.756020877691300, 52.450002192670667,  4.161914631344278
13.390667613331168, 11.512520650983882, 43.166138377869423,  3.982125126997429
 4.751762462410436,  6.718144967776943, 42.608865313978562,  4.129848555893670
 1.773949339528284,  9.709928242145521, 77.701980781280056,  3.749575565158461
 8.533507820389206,  6.392537887185833, 41.614129814693428,  3.712449689479513
 7.373932392135855,  9.255136113221727, 39.102688652616138,  4.142270343659284
 7.714839253209627,  8.191797988873388, 58.955374615503104,  4.021686799866172
12.230487894697092,  9.696003086841010, 83.628723045729231,  4.427256902807457
 7.049278901435820,  8.765376160722420, 45.255451881658836,  3.969921975190202
11.425168068784384,  8.702641355313864, 19.903323854459060,  4.348125095586049
 5.453039178587981, 13.741698764995057, 53.278958706483422,  4.119158834004891
 7.748791201600278,  2.850270218683844, 64.900401894639302,  3.836093044705212
 1.798347786291214, 11.919243527483809, 37.206594073218909,  3.839430514515084
 8.412167452028108, 12.627560569054289, 43.753960248880759,  3.949313761472286
12.875197961184107,  0.987799229036311, 32.125971563065079,  4.244472299350611
 8.773649708401516,  0.276933225661747, 59.862222868996255,  4.024695765506928
 2.298421816450890,  7.791038207702163, 88.810952452275004,  3.924592981353253
 4.961175279556432,  6.017334396904411, 56.607802227963838,  4.381538826573514
 1.648292999348408,  9.364756664072479, 42.045559619257645,  4.068690590106698
11.235321632635900, 13.169364364895987, 11.557638577223829,  4.227149234369743
 8.534483247727090, 14.767575365702060, 22.063931537242897,  4.183079008444356
10.098504208073718, 14.892329210737145, 63.690611135835134,  4.113129884045645
12.583217811092545, 14.963349995743503, 16.296944781938937,  3.999388353377719
 6.164235127354132,  3.436454155702118, 11.009197907255208,  4.314919209819398
 4.992024996782504,  1.348441791075590,  4.238196418713046,  3.986280590859571
 5.853460465067898,  6.828738674454984, 64.746555198731386,  4.205516077275663
10.698367810727321,  0.724593283486713, 88.019061947053160,  4.196796998480953
12.823785847737774,  0.126682098604319,  1.910397804051834,  3.837794318630359
 3.086797436892735,  6.450866020894704, 28.665181341447862,  4.376903375299220
14.348353128502090,  3.501810027190327, 25.991099280792984,  3.783957751586575
 1.343536791080739, 15.011323504724526, 51.858661508929075,  3.780840766935012
 7.021750175933980, 11.089264481198422, 20.984001217433907,  4.056945825595983
 7.722687652864100, 10.058890156688351,  4.207309656167030,  3.981647102164724
 2.258482951712327, 11.501089466915722, 74.278304863145166,  3.968486705566991
13.096783405871573,  1.866210758917767, 12.467704380221520,  4.273407313853852
 4.113343479503426, 14.845778795105332, 36.042264038082536,  3.974100167269916
14.110864496287158,  6.247255629216339, 69.036008906592841,  4.093643313528933
 9.647810013911267,  1.854643771578908, 68.294016520287414,  4.143475005929796
 2.838942538633159,  5.077382168148405, 32.606883961515031,  3.983669404856573
10.666176010943600, 13.604453853565285, 70.668093803305396,  4.191800851771800
14.620975817054061,  2.840442423805267, 18.186097424152241,  4.008866043321053
 6.906870237160984, 14.384908585650862, 70.362410853825480,  3.507412558129323
 1.939751865468141,  4.899696952950541, 82.644557796044609,  4.167874779556761
 3.070979589889092,  3.415370188279888, 46.913078167213769,  3.943660001202905
 4.915225743811061,  2.841969354263898, 53.688442639575563,  4.235123671750162
12.176824157360723,  6.032254131072944, 48.743603123104315,  3.596339548354618
10.663819261732561,  2.378533165843192, 57.342628861709620,  3.548134941394200
 7.728174440097389, 14.722627364253229,  9.852624249628279,  4.096551052427550
13.016660015521598,  9.575312547920532, 12.178272245062956,  3.860771222636540
 9.409544217549811, 11.379519007076148, 60.973059756435333,  4.230548891875801
 7.705919439713304, 13.124360453458017, 73.883522249244777,  4.126792642032854
 5.227008211995716,  6.685535905443847, 35.208960505221391,  3.775484279101883
 5.436772876290796,  1.841555139844711, 93.705329290213115,  4.050996268668645
 1.418409563405620, 13.376599855801382, 40.940970970124049,  4.198645422633749
11.391233818652131,  3.762430670607367, 15.792320341631342,  4.077618148515948
10.366569952348428,  4.411486354745580, 74.737347271976972,  3.847957970084885
 3.489175071931166, 10.118081241510547, 18.569321586018599,  4.251174665913041
 3.334336976894819,  5.049434645738323, 68.422194378436060,  4.133913284284656
12.880351786390188,  7.620919344343028, 16.010057652062830,  4.191212150878568
13.309836085281624,  2.964721390660755, 54.644107192067054,  4.094116028709462
 4.281850594186558,  1.976003342436805, 57.880362125566549,  3.974670817943740
 8.720726960161384,  5.769362121047979, 13.417153402519414,  4.100229161564870
11.160799808268090,  4.500229506539680, 30.355472479944911,  4.152774076573846
 0.232448248992136, 11.248743015809330, 57.776146678394433,  4.006681192096500
 8.635741555775008,  6.568739140549578,  5.889554797105330,  3.952921811849999
 0.158872120159337, 14.747738960984243, 28.949787464888338,  3.909663345806267
10.628063530086559, 14.011333650368107, 46.637316272514397,  3.797556313362146
 3.507257968048351,  2.903602795275199, 79.455664009849727,  3.953111489792359
14.015324676357304, 10.060306990361655, 93.178795289952731,  3.976260409655376
 3.642558876522104,  2.861875953115354, 17.741280681661205,  4.079631498600572
11.193921615295285,  8.766301563618841, 30.360147738389976,  4.348705090260357
11.505826859810655, 12.970840119157133, 29.506459014631073,  4.244830592302798
14.801469983064802,  0.982825530725425, 74.310631028826862,  3.927988087790633
 7.474699995768668, 13.017302951043099, 13.438166360105216,  3.837060994509572
 8.391147284268191,  3.967636509292572,  2.883512450798992,  4.002967752842278
12.070737057693277,  1.593595646346537, 23.334747511781973,  4.172178207039797
 8.386377560269041, 11.032499384213475, 82.398043353462981,  4.071523189578519
 8.000262919161253, 14.913368631211766, 40.517364530662967,  3.971205368700144
 4.869027606837606, 14.340733483255280, 42.771578456390586,  3.807288816486084
 5.299805910722890,  3.192172403161047, 71.567546926121977,  4.048088120255753
 2.992932931453887, 14.864149238767565, 72.037965089588937,  4.151698758156235
 9.046532293817485, 14.340175666869817, 80.272804923375134,  3.872582581422293
 0.483599050839179,  0.865242373015739, 89.074741059857431,  3.684530260217056
13.060857112874507,  2.065299843483109, 60.241356296280479,  3.988827637340822
 5.398076784419492, 13.707654651275046, 31.983272751059584,  4.411310741990733
10.201107233339426, 11.664994228600621, 77.396873029256426,  4.279104118908465
 3.484526319771779,  5.307514162439807,  8.358720238181542,  4.067218452048912
10.233648723413792, 11.721690674215555, 40.330070460201028,  3.790318165394000
 7.321332290392874,  2.074107051460006, 90.055176111725245,  4.112819535184342
 7.614550550085906,  3.834812561681227, 58.789649751722401,  3.756030697460502
 1.480780769865965,  3.544210763574452, 86.474765343768183,  3.977794830051632
14.048717826076699,  2.143334739000331, 81.850509166965537,  3.998450372363341
 7.901623173737584,  2.640058462978326,  6.891776322549237,  4.257039508538759
 1.306736183098965, 11.418470545880728, 90.180655068406395,  4.034663745963671
14.774380619650961,  7.107553520182482, 85.818773275429024,  4.049898696633693
 5.304431292527427,  1.149489103471792, 14.433278358429627,  4.067250544828933
 4.013149416657687,  0.905010831109264,  8.269885669851579,  4.256740970606085
11.451152235620544, 14.157255307126633, 74.522721820742987,  3.728686554561567
 3.360670034006569,  8.464024962704597, 38.425985139365395,  4.122770038755772
 8.199797737715421,  0.130289946266381, 84.497856420263517,  4.321295112889219
 0.379102253879484,  9.263607403779311, 21.232630315118385,  4.112430393256501
12.579510409533016, 10.175637727249345, 69.012489831505576,  4.329318688797991
14.297791454715091,  3.639646806859664,  2.740142902004569,  3.934931512323062
13.175200283475803,  6.908832545542061, 55.756340962020602,  4.097911936191999
 9.340526230877241,  2.547769960343178, 33.353616290276086,  3.861969936445715
14.007677354004009, 11.684370388628945, 86.884493368876221,  3.800121231764928
 9.022501815539513,  6.924278536456020, 83.157547378520576,  4.068556507777605
 6.222594394343578, 13.013727379686706, 77.727365039306804,  4.110403587627427
 0.248870330185525, 13.799230948347409, 93.174508213830052,  3.901208609071811
 0.670588241042643,  3.307099615840413, 57.718088574223131,  3.724235445790412
 1.837032948288528,  1.231269456634748, 67.541585834449990,  4.074633960316743
 3.612863738630080, 10.960279553428908, 64.822189891910952,  3.877791192495802
 2.031368200181050,  7.661416739711743, 63.055799713682809,  4.230233679710218
 5.446164406838871, 11.117031260666369, 10.146816455752898,  4.440577957241043
11.445535871108317,  4.479922821448969,  0.243629052005171,  3.798248395208388
 1.501960786141899, 10.507000217133662, 11.082647212979429,  3.734931061691346
 8.459599285959682, 12.930345323509403, 37.288380720651766,  3.650970146148200
13.302141403596817, 13.566000655421515, 61.789600879817051,  3.728869260024990
 5.017067052857985, 12.737548126675142, 39.156543079867063,  3.756578710600388
 0.573000224982264,  7.060356091960903, 59.138200396541201,  4.214886601881776
 9.160187306765577, 10.018216306285197, 89.522694693349990,  3.933868348155386
13.201947799670400,  9.553368572700862, 61.631930299222134,  4.288127951104864
 8.479784014250917,  4.393064223008594, 55.026179650304726,  3.971626150235188
 0.887827572333293,  0.379364658888574, 48.027988290242021,  3.854053590171050
 9.333423080788513,  7.763807183324673, 76.408173404995011,  3.909523015295813
10.439773579649172,  5.384955913973705, 44.901212390700373,  4.132367847070277
14.793425044173553,  7.010507381581252, 37.650003096199619,  3.786777799530805
11.005309635856028,  5.790348914075461, 59.017370668354822,  4.034145980742244
 4.657582994488588,  7.389230300204205, 48.256053989535282,  4.128957277457885
13.132094172498142, 12.018281191147301, 35.570459587756183,  4.220842014785711
13.417982724886098,  8.661295761195971, 89.415506394048208,  4.130286430278063
10.635901640205359,  7.454162673447564, 86.766921143548174,  3.909052245041238
 1.805366316413450,  0.803968966288155,  2.110539668423896,  3.747433197400493
 1.583041768018050,  2.497792474387691, 92.495535405348846,  4.129982284906649
 8.486068431512063,  0.769536200610753, 29.912270578210563,  4.054297033129090
 3.900134199579881,  4.226772172011271, 89.597529583679474,  4.022806507789737
 1.002387189630477,  1.895384451352716, 21.918321739094651,  4.155817395935191
 5.892613540496870,  5.035855452034323, 38.871435040297726,  4.367781840035623
 3.979072935323257,  9.553011638690062, 58.633849117932442,  3.921411100075134
 8.668780368941974,  7.655213048145266, 16.971883358962014,  3.947242369609956
 7.737978451106287,  9.960377921439143, 32.101871942647819,  3.741177051477926
 2.215157572909089, 12.319369070838123,  7.789247934681129,  3.871822894638262
13.254645731424329,  3.632145855913605, 42.506167156263878,  4.044443148159059
 5.857379426611094,  3.417991688061857, 82.773230013941486,  4.179751961855375
 1.855699924001330,  8.468561420398343, 55.662931548333219,  3.694821182523543
13.299317828552134,  5.472669349026987, 62.310604196986937,  3.984761247243726
 5.819106507184315, 10.456489347777971, 50.773105494381468,  4.006684403901642
10.215477178241933,  3.850134522477778, 10.105166138302700,  4.011833455406431
 9.546761680976484,  6.804345764967174, 71.653244042725476,  4.128797006199287
12.095977974643517, 13.232115378219053, 50.395225582552762,  4.179767661949501
 4.319043755308980,  8.992465797200390,  6.416298122299692,  4.396890424698236
 0.361761485412946, 14.648349421334169, 55.623532872095360,  4.016692112081803
13.731115945742751,  1.583222497764677, 64.125173060999757,  3.924155325454786
 1.498573592681621,  6.269459705885582,  5.053600634031944,  3.856549861920492
13.894935686175334, 10.763842247649446, 79.922587990226035,  3.857958355306002
 3.084352787969908,  9.391770176627741, 85.242237445111442,  4.053983442703596
 0.726117621335900, 12.189039932680233, 83.296038644587739,  4.233894363132873
12.134228134250286,  3.514319332753124, 71.310240842776622,  4.032132459073189
13.498956076936924,  3.600747073466791, 38.622505911170087,  3.734382512647728
 5.607532953079473,  5.752871909006801, 24.745567187969925,  4.049252531139356
 1.758512465887182,  8.392039250497936, 66.998111050048706,  3.773772268663825
10.093260290164265,  1.450745595442607, 77.214523187931576,  3.868429284103618
 0.018492917273492,  3.586098461475283, 29.800718771746819,  3.888032451816019
 5.174559723353679,  6.476301987996356, 17.994807145764241,  3.680729248445937
14.702696934645980,  7.046752420530454, 31.502936015378314,  3.792454120220275
 7.181032637148836,  2.369527137257050, 79.258708530722430,  3.476828868253175
14.171963919439992, 11.040628453437835, 17.820695100109489,  3.966172675596469
 1.771339670996425, 14.680644089500561, 25.196006185896994,  3.936884665536005
 1.249165267425957,  6.576273677023431, 18.206848294234653,  4.159038616362240
11.635711297521038, 10.058090521159672,  5.188199893217719,  4.035751916891251
 5.450633329718443, 10.846622747939131, 35.440308154996607,  4.541757499938268
 4.602697386054527,  5.826042923370292, 85.957838760988167,  3.793761790891615
 3.758797663086477,  1.502459303625219, 39.684616286185801,  4.035567305752495
14.968146212960001, 12.505283706259123, 14.086786165418912,  4.129771209860771
13.011035859544858,  7.920265815592987, 34.601553597187674,  3.460483462305357
11.372893851881550,  0.495637758035261,  8.155816905846256,  4.024791164681130
 6.295457505822945,  2.917783868028790, 42.441427734153173,  3.962515774814033
 9.022064986285592,  9.627202227742892, 11.986773491982868,  4.136495730726177
 6.607908577664291,  0.947205701658128, 46.061505225246407,  4.295536923694546
10.387913547533675, 10.242692069207854, 73.616725369940553,  3.759441892133133
 3.157089788540964,  3.637438985443960, 75.681832736708728,  3.746100460716244
12.624741009093166,  1.574947019232426, 91.684279095821623,  4.186226538005689
14.030323142124148,  7.189464847648536, 27.567310656278945,  4.194927506355006
 4.794982754493896,  9.290272314466966, 26.347034422983409,  3.708005189967003
 1.356902968290623,  8.642367703592393, 81.732720100497929,  3.604658197922227
 2.496749344418543,  6.963622123868185, 11.769937220155061,  3.747606103544404
 9.990629606730801,  1.475416670296223, 43.640065705872651,  4.086389939429218
 8.994860705954414,  5.479606738094643, 36.023016702422282,  4.085580421253962
15.001556084271940,  6.149635871756498, 93.597538486431162,  4.129360289680491
 5.829641537598796,  9.599456382869500, 75.254950463262105,  4.315617573310102
 0.870270833177810, 12.490555338087640, 68.310674452141384,  3.858536087135961
 8.069868137096602,  5.840902167596625, 79.544790825580861,  3.654436341419688
11.749857107925045,  1.536815578843985, 27.856945099058855,  3.682557511760010
12.119782357430619, 13.845825976226758, 57.984852557013120,  4.136481662715625
12.494145748450130,  3.617357130087777, 85.427742664724008,  4.324279624636134
 7.361881406818054,  9.891799979297856, 93.256758066451695,  4.276726769257306
 6.771532146365274, 13.408461047948924,  1.836714976688298,  4.440651491659589
10.661458428193129, 12.787825662766156, 19.175406355106581,  3.989902773251915
14.707222989275074, 11.919306215390632,  2.603970091176180,  3.733650331812395
 1.054362712664598,  5.991039409020497, 44.414376023696420,  4.226218572037603
13.082941234725256, 13.569255313481273, 25.784088923432005,  3.910225759332369
13.822082140494434,  8.377167937885673,  2.589137079929905,  3.525655752175679
 7.563488915984034,  0.704761261072881, 56.086880800089276,  3.911180645895231
 8.041381963459653,  8.942974666768947, 24.260647911875122,  4.020816225091782
 5.403749651185679, 10.610537038817004, 42.266006056562254,  3.786472430865930
 5.615473986450598,  2.019053167701976, 61.624840082232950,  3.963652772319083
10.910578562809745, 14.704680831120843, 54.147301358113040,  4.065081710566651
13.641940998070716,  0.164563937666659, 44.297647396350570,  3.735113320026093
 4.893922529159423,  1.352570484983855, 23.214912324277485,  4.106924095223263
 8.368136305546816, 13.472943423915600, 91.482161925117637,  3.950844398937833
 5.007025801028740,  7.319979453854282, 71.397564500454195,  3.952593402080979
14.100677571397316,  4.993988533568986, 75.235194703484595,  3.774343942942312
10.074826981962453,  6.134200609777303, 26.531052301807065,  4.232271079677493
 1.504105488961068,  8.913782272389929, 14.933912159771493,  3.852890693042427
 1.555295110127257,  6.333516414233518, 24.439058856332352,  4.059232132365040
 6.890278486157585,  7.211517021106437,  9.404655314591158,  3.998966504293299
 4.989714316646187,  1.611924019398859, 86.730510581272284,  4.037915009718851
11.726652889428969,  0.933286207258986, 36.226715853405913,  4.255573203665778
 3.952768731992319,  3.265331175387000, 64.905937135367054,  3.796990718667031
 1.555277530388778,  2.515285045205042,  5.583079895684120,  3.693816138091654
14.006662719632944,  4.207307923062838, 34.728228778127125,  4.168943586034666
 4.604374136465598, 13.191426166512004, 67.786735500389383,  3.800586825603124
 3.098423960160672,  4.531141262256129,  1.824576753166666,  4.118569326670221
13.276148655820661,  7.863848304859051, 72.805546481718622,  3.895423669543451
 8.756616764395300, 11.637528616374819, 53.081977864292384,  3.721309752587569
13.031878553064065,  8.476794404735111, 45.861055815433701,  4.149190446654750
10.892168563011356, 11.300523883813234, 15.344546501979023,  4.232145594430220
10.213186652780426,  7.497743174948323,  2.413479483593906,  3.853961116823742
14.640010628573027,  4.794031759669196, 89.775157037572214,  4.010080755477698
 1.664379410584215,  4.954904363092748, 54.536194500846669,  3.689613661437635
 7.337976402770130, 10.514908584054037, 64.251217991983310,  3.702973395936004
11.943284118487862, 13.913486085521107, 83.013640605716873,  4.101491305073488
