BANDS
8 8
NANOPARTICLES
cell(1), 15.013
cell(2), 15.013
cell(3), 93.834
13.280592431340740,  6.630860525520371, 46.682536188666191,  4.039782294996696
 2.694537062172842,  9.283208263711346,  8.082257826094256,  4.134554327160187
10.651644484795113, 14.001455713057720, 54.351369361504318,  3.856752200517858
 9.471742737945590, 11.679454870700336, 72.651508819226578,  4.131175043084092
10.311429092100161,  7.347718999266688, 86.356947513483931,  4.143041408895499
 8.018943833392642,  2.759711754063782, 29.602548345305294,  4.079506382918741
11.469573197071369,  6.405925809897444, 36.059586612021164,  4.171234494249228
14.838240032715907, 12.500832347783119, 12.726279542140999,  4.025225150039362
 3.265815386671267,  3.575943315932048, 34.876461197651736,  4.220484574605258
 7.919970721625452, 13.531557893433071, 45.478816948460853,  3.900074790248883
 7.249108587075181,  8.159725659939538, 71.952025146709133,  4.130180032602076
 0.673038651601363,  4.549108120421342, 14.983241113031470,  4.020703398249983
14.937188546551955,  4.827957618240921, 77.681467865119288,  4.080106003886693
13.708382561537762, 11.941760712148717, 22.061289687951628,  3.915024026449599
 4.059903233848436,  0.740403986799299, 40.258762774723344,  4.174576325051230
14.680819399211794,  0.369975887773733,  9.604342499541415,  3.911377649730922
 7.767422352187818, 12.906540833864184, 37.896953698422827,  3.661225874849956
 5.557167170713327, 12.790123050211074, 34.555458066568960,  4.352412840518069
 2.786932430828267,  3.141105345648276, 54.733474939731494,  4.356032278665328
 1.046160985273663,  0.665227175287611, 16.909284628210404,  3.811758657830878
13.308150792078145,  7.089216917936628, 30.910339252943277,  3.957010583351108
 2.445369488879443,  5.704306495776381, 69.951503078353426,  3.861357943424667
 6.194781066617239,  0.429509111555353, 85.147821950428948,  4.476613191725998
 4.260504505851948, 10.644115524351275, 90.345889306679524,  4.021790104745331
14.011210037631246,  8.449117384245529, 14.778744517303767,  3.695991369135828
10.316851718075759, 11.595348254160049,  8.875652344661232,  3.895441246463466
11.114450905007553,  1.138190243043373, 93.605190961373864,  4.008237203007268
14.091042035746289,  0.246991113354725, 68.253659166451015,  3.970026624068227
10.587772227855806, 10.754894794280789, 52.162260672042947,  3.949683088714123
 4.396922423565411,  4.225642227562901, 58.327509624006197,  3.779667776392717
12.125107339703600,  8.221276005291106,  7.591026978055567,  4.179768558430148
 4.636291279387143,  3.269898095446915,  4.774084143190699,  4.199937144557059
13.396538724339239,  2.315409079042166, 53.324755232367366,  4.028465692779640
 9.517939783060690, 13.374360444064562,  1.837399724632980,  3.579243511800244
 5.296327520913856,  5.220399962006866, 27.940131876696910,  3.977148408994879
 1.582351748741257, 12.267731361919372, 68.964415042564340,  3.960048472350890
 2.386784471490209,  3.336836686183564, 74.698974449371548,  4.196917939605298
11.475049960146846, 14.189738225991494, 38.547927320375784,  4.289806963102452
 9.241482897358024,  2.390065156039745, 64.358379925696980,  3.932715265437961
 8.803467916434560,  4.555692586113333, 19.114323528346407,  3.741745257153011
11.962666091095400,  7.441453208713629, 41.833175320323235,  3.890516388433670
13.169630442585854, 10.364360836770292, 73.570220112272708,  3.900386186479953
13.984677330220157,  0.673117089463982,  2.275802605588274,  3.660503587469390
10.546270274162801,  4.470130225446521, 32.431564560225979,  4.239036163853643
 0.901047429579531, 10.074072294046923, 30.707474030216773,  3.975103744278823
 6.714551396977193,  6.219706492027450,  2.600691344738665,  4.216799418629794
14.469041542117642, 13.533149971862860, 53.873074332573687,  3.890582206577934
13.776007428278577,  1.801006596150470, 29.815275748880048,  3.946214093127033
 8.181347537993878,  6.649213698416563, 12.875728914868889,  3.949705171497422
 4.520084443295452, 11.980162501244203, 63.146623938495765,  3.980258789321861
10.407700862732938,  3.608768353605361, 42.764582018963516,  3.969989473452353
 8.513906399185693, 11.246775112636941, 48.725649901364484,  4.126211739384482
 6.855507413278282,  8.145494617492714, 92.347725589890103,  4.201579278115167
13.386245447460121,  2.878747587565309, 45.288151877799869,  3.966237014058272
 8.312386550665128,  4.793437557577659, 49.760361000104872,  3.909647816177948
 1.781559688828656,  6.559816932497519, 26.251914012524235,  3.793128038019472
 4.065742376292047,  3.915360149511219, 24.345977769750988,  4.054423392357440
 5.061362581246553, 13.731554004525773, 67.646532515511723,  3.878534883768734
 7.322058026979157, 10.455889249102606, 78.945988064411139,  4.052509722265745
 7.294330264411300,  0.174953477178646, 93.161817750945687,  3.909507025085353
14.327992742019594, 11.419576848708299,  8.895352080356570,  3.990472041861489
 3.480924079847394, 14.368751429142415, 91.644491351200983,  3.887634410969990
 5.894028715176756,  5.344526377159485, 46.451377067260488,  4.279404466298515
 1.583204179200332,  2.002399242193228, 50.690975283582716,  4.275839007446755
13.039303665944209, 12.195863551278547, 32.138039939854508,  3.686978296401395
12.811797445680048,  4.155068771604927,  1.585818289327951,  3.794733331128730
13.670975883864674,  3.184916125081493, 73.911767366981195,  3.382330306423378
14.980149368810649,  7.338121306243258, 10.343884762484915,  3.940965390583294
 8.536470721997384,  9.947605889890390, 89.075535606628392,  3.917562715969341
 9.823115177564295, 12.646263015197485, 34.546051786439584,  4.167802100343216
 7.013927247644050,  0.383683401031086, 54.553058100903797,  3.941892392055021
13.470945050250259,  3.165761297830262, 12.032450144891943,  3.768430967081470
14.996624149938388,  4.106739004623173, 67.149843973983607,  4.253580043279810
10.472520825678535,  9.776417547577838, 23.682443917901441,  4.508149283003243
 5.450951825622405,  3.240535245838156, 20.598419270730258,  4.011772002081279
 0.032869178810490, 13.575338305085920, 43.556448442044633,  3.967465740783305
 6.114344064239337, 13.606846378774902,  3.336818444145785,  3.864626723959347
 1.597614954811686, 11.188028566121424, 60.188796927999881,  4.479171781490487
12.144341641334002, 12.643062114470071, 83.287300815416600,  4.149263532965425
 7.232564223072176,  5.287699296511846, 35.115909544005227,  4.409600478086071
 4.247986755922709,  5.512929103097359, 42.567556450995653,  4.131525203266292
 1.022713323535652, 12.889528209515174, 50.275446523330707,  4.029022413724999
 0.425377064914585,  5.830068683066998, 36.773185814357220,  3.961391263910318
 4.567032002340514,  9.066351628391880, 29.178643611370742,  4.216752644541973
 8.677851642534586,  5.991061494611459, 39.095584755215128,  4.117868130416486
 9.361521929564880,  7.583639040139249, 47.117291114623953,  4.048785946164399
 7.756788572127992,  4.402051123562112, 87.793523140483813,  4.030457994574165
12.602935137649641,  8.129764759724599, 26.943010955543524,  3.856394805451083
13.256844862437042, 13.654325441608009,  5.678593908486737,  4.116490358549298
15.012138720870739,  4.222617951043129, 81.946020842282721,  3.677196582146116
 9.504055803447143,  7.151543449620082, 77.930757196267919,  4.113767646610233
 1.659512965462797,  4.755363024026072, 29.888203875653211,  4.325406628683379
 6.691842768983794, 12.828773131267956, 41.701228744528841,  4.143024380671083
 4.875010326085730, 13.660769587151549, 79.036010318956627,  4.006160072345387
11.843156466490264,  8.812435222134768, 55.578037500053135,  4.272766013843901
 3.559729893768216,  6.436159437248912, 77.083001688445265,  3.959602916386121
 5.965412781136084,  4.684033102884842, 10.203167442888214,  3.888518669566684
 1.511713600088423,  3.884602179059625,  2.324929050249928,  3.768385092545797
 6.129579055919748,  0.156710089586321,  6.899005160933385,  3.892531088138462
 6.350943177121972,  5.946957143820368, 68.418131879278462,  4.392678590049674
 1.342573325436133,  3.570383170926974, 89.687096824155489,  4.300890595493338
 6.727852131886065,  4.247930497717795, 53.673740056339724,  3.983946471911417
 5.686447808775034,  9.886777675752317, 82.558533042080256,  3.958104104437119
 4.814889746795821,  1.822461259732169, 16.839531278403978,  3.992787990503460
13.005725892760317, 12.401653286082878, 57.470471254509114,  4.131893510121872
12.738655637257068, 10.425343619145336, 48.536620263863128,  4.472311812548079
 8.009849570712161,  4.156324713516356, 92.955286015980192,  4.190775621794453
 7.976273948158187, 10.528184945477280, 27.133213984212979,  4.124752830037919
 6.323220599104876, 11.319187428933242,  8.121357756890056,  4.178353834904320
 3.089652105774510,  6.795465070000921, 21.497985762818118,  4.273594847764961
 9.539145158932424,  9.767179892012182, 58.945731723713564,  4.095576862388585
 0.824632692193989, 10.246142694738975, 26.627985999499561,  3.840562751334205
 1.283160006714510,  8.334380090646324, 91.310791736864729,  3.756497019026713
 7.678369138507209, 13.499382605009316, 64.843564773469666,  3.804845800128922
13.780467484764394, 11.956174405513547, 66.524844779861084,  3.511679175638415
10.248502968572271, 10.548718052346402, 65.766321114389953,  4.217470962389792
12.191432164212390,  2.871952812373247, 19.064362605810945,  3.823993383873026
 5.407004039046422, 11.739664439391355, 72.418619563871715,  3.972758856280512
 8.789010796969746,  0.238475441508554, 78.562527677766198,  3.931464076074106
11.081309564609791, 10.011157156219193, 29.830459322875413,  3.651326420819435
10.538956310590301, 10.834598416519432, 76.512037799150704,  4.045651140822834
 9.628882430998516,  1.982221893335649, 52.121852375290779,  3.877340744653158
 9.526836613874487,  1.804861101382331, 90.112498906760649,  3.778878848183802
 9.529732775069458,  2.780281649831994, 11.458388275303676,  4.186794215822310
 4.274836762129086, 11.845969897072449, 26.316237388418042,  3.782278691713345
12.135669602288617, 14.199469854710385, 50.602088678589027,  4.215311568681225
12.183513326337192,  9.744489504378075, 11.727108482121285,  3.848973177306130
 9.002776953132097, 13.823727622434317, 58.174411553496412,  4.124969234269113
 4.626581118628868,  1.610099535827291, 47.227369903635839,  3.754502150983733
11.931194169767913, 14.210136992371915, 74.746443095074198,  4.022915981990653
10.151392282232315,  1.179152008038219, 82.718497721395707,  3.909868086466775
12.377476950693001, 12.050154998898698, 26.871020071252101,  3.958524856354132
 4.786591123498271,  4.680682346950062, 38.575047154877268,  4.065369999265116
11.467860966687413,  6.141125489187952, 11.057527007095377,  3.606942365049622
 6.036971369047333,  1.724132770912049, 81.195296751939850,  3.845426453892578
13.490095211427208,  1.442579741380291, 41.592663663619895,  3.660204457579821
11.327373202720663, 13.445527918741300, 90.531345317410484,  3.860319817152690
 5.542008653340114,  2.282719591962317, 77.253278486769744,  4.176288461597768
11.644077488752618, 10.446289272082081,  3.579929879612225,  4.166184019671682
 3.207929681498954,  1.378955266413039, 27.627379699690959,  4.330326605153368
 3.383429512820956,  4.008557327108839, 61.889562569668215,  3.619446713899589
14.373315634754336,  9.402107973791354, 44.179870039456603,  3.704846240549787
14.846689781764097, 11.064666011630218, 80.714085153232276,  3.916167967802390
 6.584846065771388,  5.282133715970596, 63.880462278278927,  3.976418682516259
 0.282302291893213, 11.568392535998489, 16.584560089943079,  3.941877855362844
 0.120581501162885,  8.860747546860480, 70.463595299465254,  4.001255091476274
12.798656829664838, 12.023946861477249, 70.080011543352285,  3.854131581092192
 5.829122988190877,  9.196573651531201, 66.022271180348525,  3.734093751312215
 2.299773349912333,  9.304348540395171, 12.932351503293711,  4.058936904783950
 8.696839465778480,  9.120439171406074,  5.851071413207895,  3.712041324197664
11.734458541662478,  3.656700327292287, 87.437162300510252,  4.051044821402641
 0.560635855724881, 12.659255195298760, 85.362477866380445,  3.799244148675508
 3.938974718069296, 11.930121112730781, 38.476972611219381,  4.262547480485761
 8.396082638606446,  3.605162237552075,  7.084775348435461,  4.301443651173032
 5.744581000101934,  9.131917224201906, 15.060827168334555,  3.977828197596917
 2.742935927604150,  7.976522153759968, 45.422688670659731,  3.986712587358951
 2.726174838138157, 10.747832630422824, 22.905265317170144,  4.007494684647348
 1.746839039637082, 14.157013621591831, 65.305823596827167,  4.278718090220062
13.375716245541128,  7.977746839742579, 66.836534086836451,  4.154322210022979
11.780750350030081, 10.023856436368176, 18.884304459608323,  4.307643682270772
11.186127007916795,  6.694872486216827, 21.047408800152787,  3.713279718061293
 0.286673690860486,  2.470194687503488, 63.421262283871158,  3.906739980409765
 9.255673506543850,  1.896952909470114, 21.811266382796646,  3.834763285554866
10.101800857442539,  1.541818449959550, 60.742933808723883,  3.688767979226551
10.760912971004773,  6.015877974127245, 58.358777363099001,  3.872461936239889
 2.410558994533375,  4.665351599603698, 11.535117287565784,  3.680870331538065
 0.300758794599883, 13.727680904432651, 72.606771854923920,  4.039117169592746
 0.471041768681702,  5.632224251450082, 52.344540177922930,  3.830536825568245
10.649959642256297,  7.531007157959003,  0.541322172835548,  4.485479758993026
 6.565207474949443,  2.005403687915514, 43.582851589381008,  4.483615465892246
 1.050655034736702,  2.233105564144921, 58.450349844496799,  4.003341303934630
10.815109101094629,  8.590980670009538, 69.986435071109824,  4.055852106791519
 4.644472726549235,  5.274446509694200, 14.651509827147963,  4.068835953811101
13.905358979567831,  1.311777447069001, 84.575566735743010,  4.346296805265797
 2.621820400558331, 10.659762229751376, 42.289004441035694,  4.179462380550700
 5.284183009181987,  2.609388790291525, 90.366952758151101,  3.919807001629862
 7.978259282035687,  8.705481228814739, 20.467259229223988,  3.899126859664029
 5.600901178394413,  1.880827354381835, 12.828667341515889,  3.818737546103085
 8.418697916570057, 11.064582468621744, 55.386107152795859,  3.806133172932338
12.657990084679051,  3.723258212751868, 91.207943072753650,  3.684750943570513
14.470263239690480,  9.797980419935513, 52.479684765836893,  4.055759289641872
 0.188676013134967,  3.099409964479395, 25.277366638938684,  4.055110559653689
 5.447802981338085, 11.886698053010742,  0.002698474769200,  3.744001854924571
 3.156078602875469,  3.914768736446963, 79.986590668338081,  3.770921455302101
 5.721738202798395,  9.300036678979323, 75.489897223476405,  3.891903087052511
11.379926682063045,  4.337287136985617, 24.242447008543323,  4.221982717953730
 3.854739166267506, 12.852131117262747, 11.456842991017968,  4.210255959789408
13.991828705812697,  8.764713041199103, 77.127274089004445,  4.003357217883470
 3.602437668350917,  5.890579192825421, 83.319789165118323,  4.007612023174124
 0.852328924613301,  0.214404276341330, 80.226728883752713,  4.146343892191107
 7.235435041741444,  1.960484690582825, 67.698802608862437,  3.892073215798867
 3.328698583852818, 14.286718561373743, 53.243681469968067,  3.953300660827281
 8.589189742415824,  0.196383872154774, 48.838383095792103,  3.714751941841001
 4.288569807574622,  5.349596870828950, 50.477870558855088,  4.334002388732188
12.408649338310203, 13.626852170340838, 78.777490724039254,  3.997276259311081
 0.479064553466589, 14.183492964648748, 39.413158561979330,  3.731734631819006
 4.030608607597425,  3.686841523463500, 86.607268351290173,  3.852539783044248
 8.463771141196137,  1.607149845018156, 74.121119097112384,  4.481174725546284
12.099289248199646,  2.514854283798470,  5.057946366802716,  4.001418285409984
 1.682963896372484, 11.440847133648736, 93.505973058817801,  3.861361002459893
12.383355609026687,  4.385947747962449, 39.440099546690988,  3.907391209291007
 6.128919774646874,  6.490862177945432, 80.195150481342111,  4.104720058625682
 8.045347103459658, 11.527817935164915, 17.524135066129563,  4.185207280984190
 4.291868779078388,  7.998352106308187, 58.168918665958081,  3.774323230903463
 5.634860342030164,  1.469713810390864, 50.930311433753751,  3.880630275107739
 5.183550212550575,  8.899091135848732, 48.461057023508097,  4.007507762482620
 9.751578997942138, 13.053378253085498, 20.981286275697776,  4.104820518693733
 8.356815246963651, 10.810197935234571, 12.347809246239263,  4.189145858458670
 1.485293937761460,  7.309452811728938, 80.327197790151203,  3.792387992411729
14.907487542115575,  0.759936653812905, 92.409678028700000,  3.964872727468451
14.208274922314645,  1.983093022517923, 36.793723097642719,  4.116313315610465
 6.906468440808412, 14.298907731047828, 61.374519150832548,  3.479368727516646
 4.644700496272477,  1.608091134945234, 31.531506474979558,  3.965678354925175
 7.685616453684008,  9.219038981165223, 36.765425571110150,  4.047356929399887
 8.943291588212977,  6.805402926015632, 26.220045736290967,  3.762554641188135
 2.960189348098210,  6.734673212263814,  4.136912281186835,  3.526400900513847
 4.005471366529390, 12.923049711740882, 30.370338297524555,  3.886053082259030
 3.990842426126788, 13.727032096108070, 44.686294495053275,  4.054944679868599
 9.106708746281658,  0.757959368998165, 18.168102140909973,  3.803027954242152
12.668959400824972,  6.798297589527275, 80.387897056815135,  3.917971156417163
 3.836555832672957,  7.961836064901191, 62.218739095039481,  4.344905443584510
 1.956091990445447,  7.183911767742899, 33.305639308260133,  4.072639832458774
 0.933593265367844,  8.904185740535192, 56.355056065582474,  4.056988788056105
 4.935032608905755, 14.960958720123086, 23.993285902038910,  4.049219487656740
10.592734459353901,  4.981169732401654, 54.542491216710076,  4.040706605991775
 9.275614244719836,  7.792228691600878, 82.471944389010318,  3.942514025002339
 1.947709393208718, 13.209764517264809,  3.425013944094287,  4.416513729786131
 2.506741041126156, 14.925047726087110, 36.234535342063296,  3.739476547434587
 1.695025911898508,  1.110304018655720, 13.007006727629792,  4.144258637430852
 5.856324493161676, 11.296562272803101, 59.449652267658003,  3.941245898191553
10.045645193049209,  6.515356650133499, 90.318744955647830,  3.962422974650485
13.735661973622458,  6.621342703810789, 89.090780330528602,  3.760330587917522
 3.999812354518272,  1.139712093648425,  1.266089500593226,  3.905846906044679
 9.290649592812986, 13.596107372272481, 24.885206883623503,  3.820990640363814
 0.359367492686472,  5.154724917403828, 85.768311847395694,  4.201254075334383
 6.821158086272889, 14.350168423873374, 27.834633345369273,  3.973165521896105
 6.221258452612950,  7.649592748374894, 85.861856991360753,  4.085977404633844
 8.195286079813034,  7.134674213097938, 30.127032445141683,  4.214227486811125
12.910172983239919, 12.547808832489366,  0.237304109064760,  4.097704048329944
 1.437900470562308,  8.861445223930467, 87.472066780729037,  3.988694698778904
 1.752534499880508,  7.430609981011302, 40.090674467884078,  3.819101905590642
11.578905673502373,  6.973839623746314, 51.102029427264860,  4.148609602523157
 0.498540614381917, 13.466960221992768, 28.771549222676434,  3.861548059461492
 2.299065752327324,  7.858319889812449, 16.702970548878266,  4.010422777666532
 4.302508100288357,  6.608322065079808, 89.403066891242432,  4.172639221667758
 7.200509633471340, 12.939408368982262, 75.778237465056336,  3.970816607430703
 3.246467258200394,  6.014759625534763, 65.748134890386623,  3.797313677900736
 4.093985600404045, 12.895683756599325, 15.713548117442803,  4.313835216866401
10.472315048737061, 14.307870887179710, 29.861455002530551,  4.347257308896689
13.790776073495357,  6.390622093555804, 18.099084701355117,  4.104948440185181
 1.733068034788789,  4.372716762993178, 47.146674682445550,  4.247193664446166
14.744451772839342,  1.097089241104601, 76.574275485148775,  3.685011825667691
10.154448599807720, 14.172280271580510, 67.922302697439932,  4.208879475406530
13.335322494535074, 11.133721587569770, 40.819129227303470,  4.125161568659959
 8.505844231385453,  1.784493698247822, 39.911793243870022,  3.794850689681206
 8.759418162010547, 10.990443356670001, 85.085707404896212,  4.171986625967283
14.805046725824228,  8.351960249609673,  1.420742602211099,  4.161146301866186
13.080732839409515,  0.919759587348213, 22.435753715468074,  4.156735274529339
 1.908715613064206,  9.864165603378760, 65.568478046366124,  4.265017849023673
 6.674678441473677,  2.800659435081979, 61.015524579315908,  3.599103966218819
 1.133946487473833, 14.782534428873701, 32.526759406039488,  4.171854407912982
 7.506557506275077,  4.391043667971802, 83.733143459798995,  4.076149181201643
10.319630737081546,  5.963676042967425,  4.398749275375348,  3.786553315038942
 1.396870986039141, 11.461258964886593, 46.623609024412815,  3.846824272976479
 1.006834424311679,  1.634372577367684,  5.885770442742945,  4.035999962347237
11.916002515823410, 14.150669486217657, 46.330975553136199,  4.334386117755148
14.523697637786048,  8.228550102205412, 23.425573091288843,  4.161260305733500
 7.674298243289565, 11.408124129670831, 31.157604942368401,  4.117998904062536
12.442574129852906,  0.006533019418161, 64.606886097527237,  3.997191053877780
13.081235595401514,  5.257685325224058, 70.723493245771309,  4.114448161805301
 7.861331761565178, 10.080230111943067,  2.298859768722664,  3.833561425805998
 7.777271363463649,  2.536929278932630, 25.480788927403701,  4.179889206093018
 2.727924498444826,  0.041921265945407, 87.727326218235149,  4.196494318488221
 9.271260052289835, 13.330297706380041,  5.554892525221510,  3.867578065626915
 3.647292298559500, 14.821660175674582, 70.992334375620331,  3.673580971645465
 3.739201294055037,  8.164345710058345, 36.802169612734751,  3.985308805863004
 0.250888235829894,  9.868035947396843,  5.047262263099964,  3.727733321994362
 0.362815423230130,  5.301721893656508, 93.039385690907409,  3.456215717038507
 3.374613711409294, 14.313042648350807, 75.273803363360571,  4.182069495421125
 9.327952112428560, 10.017493372674465, 40.488996028346889,  3.929049297101774
 8.574740113257620,  7.261311464488077,  9.082634274218025,  3.746309057593518
 6.868646694281533, 13.787303582573404, 89.241236105721384,  4.428164012330014
12.050725017552200,  1.197274361176378, 15.301514444521498,  4.372727461996399
13.505682414495888, 10.242978257525223, 63.079247549722865,  4.186633265531531
 1.189966178444287,  3.578008955899534, 39.923600792887477,  3.904821690286966
14.498112673936665,  4.612191565553884, 21.632885186180111,  3.906444974411116
 7.269469922828296,  6.431101620730296, 60.127895392218448,  3.941584053251979
 8.121383806053609,  3.129158961473935, 57.358809500823781,  4.198783346244225
 1.992487039566511,  1.635786648172001, 21.841757823089189,  3.875126267339916
 1.681129163373063, 13.729959317187005, 56.963535825828743,  3.730199193788950
 9.556473958882346,  3.033281786571875, 46.538302594546366,  3.840154033833519
 0.426257584184430, 10.045279767194115, 37.636740146311801,  3.784385447306565
 5.970181459662983, 10.199413052528598, 44.708871280604001,  3.969355976429325
 7.779076853722327,  5.582200584653131, 22.777909319047435,  3.877959580312382
13.348744150964226,  8.756386411530757, 59.337863253504636,  3.819639993485436
 7.725921519332828,  9.555409988347664, 62.615936208805998,  4.091229035694574
 7.343340706424287, 14.611075695377055, 70.702778944659897,  3.747288177417706
11.190160989313739,  3.685813806897847, 76.636371404762045,  4.017372747786383
14.491763674030624,  4.054915771939710, 33.423750676834764,  3.729562712142749
13.009445674241666, 14.013152990044096, 18.748957277685061,  4.019396844347981
 0.826652744493266,  2.356475409034716, 71.087187686964683,  3.907090019471633
11.389420520479057,  4.658600547220716, 28.376745359050684,  4.027574442415630
12.545963243954509,  2.278202090157286, 79.987248397744793,  3.678758872106194
10.855292140820787,  0.587327712652302,  8.215516354991616,  3.801951404286136
 0.517714628926421, 12.158957898881736, 89.747019964854331,  4.128456062622748
 5.644786075494573,  8.729058991241725, 33.364377480678797,  3.922646473444640
 5.299539906134042,  3.354046367794101, 71.682950522107348,  4.183140143137657
 4.004764072554413,  7.156039892730295, 54.350375401193411,  4.059348004958752
10.191570040247891,  2.536395981411566, 36.467955049824710,  4.013514387350387
 3.821998313822105,  6.736176754265759, 73.297482089185252,  3.604281012882771
11.772918150402752,  5.335368078606836, 14.746788915067718,  3.963722203695468
 5.111821340670031,  0.298853268216322, 58.147170205784690,  4.176261254707987
 4.632567641374623, 10.112836884523114,  4.577422666200295,  4.036335862688257
 8.238559375416084, 14.401179527962094, 14.499080474258941,  4.167137012360464
 0.663882761464278,  9.511168669881569, 19.813378019582284,  3.749493958271571
 2.679332183867633,  0.084274107334235, 61.398808424608404,  3.955642946788198
 3.771310444833512,  8.505897353279057,  1.033693856222717,  3.794747062187619
 4.580289559182329, 11.501667177139897, 86.275959556905207,  4.316469431031615
 3.404903660085612,  2.186961166381185, 68.080327602728772,  3.792196345317580
13.717645282372386, 14.866047278844686, 60.779225025737119,  4.076836113756739
 2.773847125710376,  2.002026806070665, 83.293303877730665,  3.902217147811977
12.025832700334204,  0.936600447299777, 26.390527878411294,  3.921468288952259
 1.231966607140493,  8.006449242004591, 49.203159919154203,  4.151183204650284
11.495715650715146, 11.822520891942634, 15.114044219537289,  4.056357374506600
 2.760305580648940, 10.305122724490344, 78.029030676080666,  4.161783428041270
 8.127659693910735,  7.022872510252131, 43.181636784615648,  4.275010169023797
 0.126577513247468,  6.641177221544802, 73.887081389832133,  3.861523816062109
12.424888769344822, 10.892031514328288, 87.211322245020781,  4.277421450275385
 6.648591208425512, 11.459413226924049, 22.997828886778681,  3.952392110236406
11.004608015510874,  3.207180157921316, 67.847298546970080,  4.039057877513095
10.352837453996381, 14.702495787637643, 86.631471413351264,  4.468351132000186
15.010168250065224, 12.412594694871910, 76.223316743539485,  3.667412392762085
 6.590635196343426, 12.261009100683006, 52.154104569818813,  3.989276826762334
 7.368161386908154,  8.158610845885022, 51.939918792683102,  4.317089253185313
 7.696722312671991, 13.229490798061661, 81.830976382082113,  3.971212021524591
 2.107606010126948, 10.088266313127882, 73.980748874527535,  4.040258444932580
 5.300609746399596,  8.078427419443107, 24.942952823583646,  4.301239116918807
 0.199505348240023,  5.771903206758163, 43.281999361330392,  3.957425558910517
10.019294410786594,  8.867571633799635, 33.265256143227965,  3.821053747818103
10.340023230694444, 12.722845153863362, 61.935963979032984,  4.155659027942896
10.318944829252384, 14.529365570377067, 42.503082074259083,  3.976343027719929
 5.110849117283773,  1.490181972955777, 64.318059435854636,  4.144867487101681
 5.441586225875114,  8.432912485783220, 10.783862764488749,  3.747492182499374
11.601527406049907,  4.734866476564991, 83.556245665505742,  3.931644855978293
 4.760097776683019, 12.940679868505271, 48.612599895437967,  4.098949234487629
11.101536459937101, 10.323213289434390, 80.295086003458309,  3.664524632238260
11.668995856308769,  1.211477411012193, 71.274794816698630,  3.994307641845022
12.108287830212262,  1.561898928193300, 57.244094472049134,  4.351146275520684
 2.207156159729965,  5.164928797476381,  7.641501212753921,  4.180350289258580
 7.504746973761847, 14.402205571071034, 10.489499148246669,  3.947555355947517
 9.103124829215474,  7.617488992095026, 16.699053746095302,  4.072514417292570
 7.666147492417477, 11.012976060821284, 69.005230986620134,  4.114769901549183
10.525174393732515, 10.559098768933147, 44.383088537872730,  4.286002393745681
 7.642466546946249,  7.272163472530748, 56.202072323660282,  4.102327581307404
 5.620707616512218,  6.488198698961918, 18.321163382959352,  3.866448670828796
13.106923731667932,  3.837761094051730, 60.524556997387954,  3.854941641352214
 7.000955414586185,  5.534362626582568, 75.112666850282650,  4.088962554398565
 1.786071093868720, 13.224823387026937, 19.875110164321264,  4.008734668056763
 9.080605020749859,  3.823045036715934, 80.078290352071889,  3.852225594226553
 4.076228355026982,  9.251029990036486, 69.609057954885714,  3.969684186938454
11.599265409810782, 10.261671902587237, 37.288717784848622,  3.918316398156391
13.865524114291269,  0.564593964270678, 88.619458032526126,  3.790653176344136
 3.543171442777572,  1.695512361178348,  9.427609148280297,  3.935667882023394
11.096917745175451,  6.976588761420835, 62.265935825678248,  4.090450462795503
 6.201863906183952,  1.286247565265704, 36.780869038308914,  4.041945398419514
14.272753831473379,  5.991824228323278,  4.805405420511542,  4.138484852462782
 2.026161637422224,  3.977742575890653, 18.691096954778079,  3.955657243715005
13.691082561189335,  9.164817695741682, 34.234061273099535,  3.795096914038804
 3.360641144286776, 13.150341080248650, 82.681985722745026,  3.946671786981865
 5.770807915466175,  6.749472087349443,  6.545347188773687,  3.875089064610686
 1.188030140718411,  6.076308967408199, 59.560237649772866,  4.001439898415467
 5.086296579447128,  5.394243763422335, 31.732966209110415,  3.556150862689214
 9.280410650966131, 11.211998137964535, 92.773683854722137,  3.660066757180251
12.236639785142984,  0.772572922630897, 33.390923706201526,  4.079256854837833
 1.913397948884984,  9.477668005151530, 83.608351851932596,  3.881003557884114
 4.392041622713405, 11.105860478367552, 55.622140695781908,  4.259965267561692
 2.001959627414744,  2.137790290635353, 43.597445617592157,  4.152090073588458
14.189229611587127, 13.128365715337003, 35.654471595007394,  3.905462040497672
13.097094547861959,  8.733890714190681, 83.774200506951601,  3.922209858951841
 2.588111280619828, 13.337937512135280,  7.575436022107238,  3.980569351452808
11.274903986544469, 14.083788174526521, 11.782005206267540,  3.992876185221610
 8.241092098698507,  3.444288149030975, 15.359099452440143,  4.125091875481679
 8.182392210125187,  1.140270030484706, 33.293204236509659,  3.971859349185647
12.542760909149122,  3.245163337745220, 49.364938798892197,  4.262601977402372
 4.029397027320803,  4.994121587157667, 93.251333224670589,  3.853419439145246
 3.333764404759498, 10.125008152238852, 51.842943260008646,  3.815813101486880
 5.818799964752384, 14.167510373857962, 19.980073097791230,  4.274482553250810
12.534114456464151,  9.690259380347312, 91.195093182073961,  4.044220716638225
 0.110210243634177,  6.447865452896132, 63.418362526303774,  4.044444684080570
 8.419423072365618,  2.096233494668593,  2.940765641701771,  4.512790605776128
 9.149526413447195,  4.460350813530374, 71.116703903577033,  3.875129609566738
 1.978992320309749, 10.959734198574891, 34.281673147914027,  3.695492095829504
14.289454846549983,  5.047963987584823, 56.186037221046725,  3.974090951940424
13.335262407430472,  4.291783243709529,  8.363403896023392,  3.899662593288247
 4.481491519370294, 10.210899114757993, 19.193177868242589,  4.110374172488318
10.861145307302134,  6.948929804801937, 73.918495825459317,  4.359769212560917
 0.856180805322615,  0.286712072339671, 47.025575822674554,  3.946694981964300
 9.684048183460478,  6.519367143965692, 65.998501817613302,  3.919130795222598
 0.964409712466799, 13.988804691532973, 24.781281039695134,  4.219807810310012
 5.626402450391010,  8.621850928817381, 40.293538042505716,  3.990736720690812
