BANDS
8 8
NANOPARTICLES
cell(1), 14.999
cell(2), 14.999
cell(3), 93.746
 3.631067160441592, 11.182436877076142, 39.777768856099506,  3.888864776408814
10.409232694424340,  4.004389960555179, 48.978945684588432,  3.905883605581928
14.991369693135411, 13.392293649244197, 89.598018377765243,  3.829648530994722
 5.184392371847384,  3.676622295878967, 32.716516832107359,  3.984161106528842
 5.062335653669742,  5.995807827215319, 77.586318604596130,  4.165454098979564
 6.006848892129744,  2.486497158900694, 63.696657813285924,  3.947694067835684
 4.795176176839333,  0.124765506667081,  5.260463648115731,  3.875294208954142
10.386658202423149,  7.867264650104443, 59.706345172223315,  4.137428348503803
 5.826583946069543, 14.650275630210571, 52.662766968799758,  3.988802666125528
11.351101597574687,  9.249665977558653, 63.946147951047053,  3.833199937337448
11.449078062349583, 10.640710409733531, 72.975741591765541,  3.648424422864037
 6.896596077757517,  1.732477745320613, 28.603533392442294,  3.777873990332771
 5.862496168989268,  1.268904351268036, 84.129571749127066,  3.908051781224056
 1.226510020638392, 10.344387732331651, 12.693831290392460,  4.336094357397266
10.569177108089768,  4.426571091102569, 21.084358237994561,  3.963370190494412
14.784741534658281,  8.785002570668293, 16.457621685067046,  4.282503324181802
 2.536500148186621,  3.634885380591818, 92.400696452980299,  3.987787489964171
 8.193600612306806,  7.551461285079025, 49.165416319244954,  4.317564409202118
 6.856146870999154, 14.361039669251870, 88.518406263307867,  4.059467407861624
 3.065075875187363, 13.305544469354780, 64.648855160197272,  3.714399497456798
10.694699472005963,  2.396780276701874, 27.910610009058178,  3.839317065542300
14.037924382766269,  6.298353455789710, 59.576040783964380,  3.733605278422960
 2.433989880627914, 13.592783680916497, 71.207122281837144,  3.739928028219524
14.388331158386810,  8.663315458796815,  2.195211457667616,  4.443217967294330
12.280645880979275, 10.654439106727255, 13.811865119797252,  3.868159355945979
 8.911881782069996,  8.524540423224028, 25.958155998479526,  4.150922227057497
 9.914721086231044,  7.425312043142280, 74.857724562908274,  4.193088773004173
 3.328301516846627, 11.343246008094999, 89.377457654231790,  4.011967921995121
 8.730339062759073,  2.351633926252845, 51.943449544544045,  3.662192950638422
11.384497136291623,  9.871943624271092, 44.754240218743838,  3.941835393750937
 3.544913347762649, 10.525398143023537, 46.582572135447677,  3.771575729661348
 1.700597042085336,  2.776137577841394, 84.400190846604730,  3.518071525152146
12.441395029272703,  3.269153729413584, 14.277261395811927,  3.965620372100939
 5.135537604348663,  1.095381467151184, 72.682482036486775,  4.102464100800246
 5.323323506998841,  5.720337935817209, 36.218951412631682,  3.630740933803249
 0.418137543423257,  8.983046984899820,  8.651714999545080,  4.077796791756136
 8.284536055001153,  4.697462901547143, 61.259828295403423,  4.045817531816320
 4.018060916704504,  1.149402673060338,  8.931578034172089,  3.904132435421578
11.301873161252686,  3.658937569957544, 58.653907452830822,  3.982404179372592
 7.657699879155578,  1.912752307892659,  3.379333884752936,  3.845846595331201
14.943672469892713, 10.768579001304598, 65.224432783753898,  4.370793042313206
13.661043580346560, 13.789026307782509, 23.914867213167597,  4.124581081173539
 7.351312847713016, 10.341767721356245, 88.421051919207613,  4.035302558275397
 8.644825404707694, 14.378175878225148, 38.207709120848499,  3.840122861394237
 1.096612296269179,  4.693666718077013, 31.735135754107660,  3.904675179199008
 9.199135771445873,  0.234265510198823, 48.683148386612402,  3.996096615199712
 2.069421888171921,  4.567978608767570, 88.388017913796148,  4.296493089794684
 4.892844425704734, 12.155056710544470, 85.821340088918603,  3.921798906295194
 0.045205243270924, 10.138407021820264, 36.997663346872365,  3.303500370411850
 6.537387400321816, 14.294997904846024, 65.936679789791285,  3.897986495105028
10.780343479727195,  8.862028298544066,  0.055905657799159,  3.953193197739439
14.109405835106001,  3.775450388506003, 47.694612502593493,  3.730852005583703
 5.899353132631816,  3.219149498438235, 89.603292482447060,  4.174847617351396
14.039527425637349, 10.401354727244568, 30.219314161331194,  3.832782307846471
 0.357276568094155, 10.381208474825900, 54.198374602999657,  3.918564198751793
 9.144702465835744, 14.971871243248520, 72.502387127591177,  4.231700425571029
 9.128193865751625, 12.388951331140660, 34.789518331072607,  3.984082515872951
 9.957717542406970, 11.515146413310827, 91.136464300549108,  3.640278153172418
 2.236662388531857,  3.673703855076051, 65.457746431149189,  4.694035900634570
 5.798533825214625,  5.428149541673490,  3.666094144226845,  4.105694141446087
 8.731639293172515, 12.679796885986484, 85.475872424960485,  3.835999297455555
13.306054870330339,  5.495159770988862, 92.896385199782117,  4.542677698541961
 2.686411933383292, 13.007333542441289, 23.168934624027354,  4.205344955998061
 4.918738886602370, 14.938290279922427, 39.402683374131108,  4.061141694369390
 9.369092015637355, 12.199188323203948, 11.446072850407766,  4.227788726137704
 3.425395716437439,  2.828624702779420, 53.099487644273168,  4.008016461721791
 1.038575187239719,  6.941960251787589, 46.839106154434205,  3.778049439403741
 3.118773742501313,  2.050998048275761, 29.626483835130411,  3.940962619602016
10.117678102671576,  1.480165733162421, 76.483859641443104,  4.411644602274390
 4.047964330571134,  9.357960141281067, 22.294913339978212,  3.755954425627761
14.073693112803388,  0.817173022837195, 86.788470103984395,  3.758414403814935
12.627342338224894, 14.707106264670552, 59.198792968070386,  4.100552614830949
 2.146957797697815, 14.303400107772575, 47.039484596338006,  4.204528113057798
 6.653297731404668,  6.408523983329350, 15.040067787773870,  3.754102553487486
 4.810228319894137,  6.564840749364946, 63.689945422367018,  3.762595094270008
13.295406329405720,  5.629719716407942, 44.434679603572185,  3.944191818525786
10.391797777540162,  9.012128860150254, 78.492806524666733,  3.714961945295745
10.829735575728922,  7.364754506657804, 85.452119723565673,  3.917202284815048
 5.216986735871823,  6.505673322346783, 93.619106328003710,  3.717527746046688
 8.945798938480937,  0.894218137570996, 24.750497965061321,  3.948847096002668
 2.571820611827114,  7.824966966160944, 66.569211283635383,  3.926858198760720
 6.128541932218317,  4.845086500898101, 66.854437998381684,  3.899479086856286
14.442580068192646, 11.110376404343034, 47.127831219018418,  4.163596066272755
 4.200458207936301,  5.316894152588130, 81.544140807521472,  4.035213764440102
 5.297736791521406,  7.625902867385697, 39.510648625934479,  3.887766037398346
 1.403340639953897,  0.428408045969877, 26.264537639756075,  3.771159956222072
 4.814544726799186,  9.865808038127808, 15.541903332693261,  3.983090225536188
13.059747265044434, 11.828107219648766, 51.529357126243603,  3.664239043696562
 3.957071212328725,  2.149449782493817, 36.189141095199652,  3.966739038468355
 3.836432698234153, 11.475610584308365, 75.175783210283356,  3.850862259162284
 4.750766604924534,  4.740460234511934, 85.385491928596579,  3.742260057123557
14.655322827366550,  8.235152328200590, 79.388043150010063,  4.034835723802463
12.427279105398931,  6.116187334706304, 31.138608059511515,  4.002385288233425
10.682386755545282,  2.743348832727574, 37.712885708431543,  4.088293093392600
12.853392950702737, 12.625579533407166,  1.724711852234639,  3.965369969909655
13.117704623822590,  9.392880195307715, 76.058095513153361,  3.631513980083108
13.793072356478195,  4.290528208791910,  3.314825389641651,  4.032133888933126
12.162046560355687,  8.392344736339759, 69.978453372928143,  3.923627003103785
 7.194010810608353,  7.911172126066143, 80.574949705603871,  4.111794486871682
10.482466944218707, 11.243047642725033, 48.501772796474256,  4.205623901780746
 2.849359388036532,  3.959325203807130, 39.698956996760465,  4.234838049029435
 2.221639574703562,  5.659528474199822,  1.983183913339188,  3.799619419121284
 8.885320935735646,  3.391258637920180, 12.556615238564211,  3.808776414597482
13.508270612868998, 13.264690809571542, 43.836939044109201,  3.847306108783183
 3.799942444318858,  4.805632919413133, 56.821634421945632,  4.450259077720907
 8.343225905610995,  5.697175406043562,  9.189158744522473,  4.414482766214545
 9.097089165936483,  4.763724158151269, 24.672158478910362,  3.794936674373913
 7.457910891639618, 12.463820280997098, 55.550357312557310,  3.795543696416165
 3.337157584524856,  2.062672816737456,  2.325724148814513,  3.727240851448403
 2.090456625933287,  7.978942329576594, 91.766253562845435,  4.123176000216374
 5.846040401199516, 10.150101098223919, 65.363395797676958,  4.400513948794137
 7.893425242933863,  8.780529897515880, 21.877738505300140,  4.047483704380830
 1.297068645424512,  7.852532478810309, 39.814693886551531,  4.138582982090444
 1.434033130142727,  3.359557352098947, 13.377742162961997,  3.729710659150116
 4.209677203931335,  5.973863676134293, 29.455912224457443,  4.172693587639975
10.887910095109886,  2.221178529919510,  0.914826253307081,  4.300657095028254
 0.063848069263349,  1.268775512188603, 10.264844350621532,  4.230101909296743
 3.317491938452753,  7.510895057302169, 18.690556776034100,  4.417560180636198
 6.728376284229134, 13.660653225854389, 22.113015780002879,  4.217877800964886
10.877574872280691, 14.268158022238071, 88.368668228798555,  3.967584254476312
 1.049382979460368,  8.397267596416498, 70.107936214410415,  3.849789744618942
14.601523821729410,  5.582990425473091, 55.659642265958801,  4.217423859496880
 5.627211295165630,  8.061034420825781, 68.799909313544987,  3.635079198032126
 7.714324639864934, 14.547627918844796,  7.847301648701682,  3.903240992607976
14.721611948882751, 14.678426195610989, 20.059193269825819,  4.062797561823239
11.143427391058292, 12.770893202151125, 62.395776991167004,  3.865447080005262
 3.328544262219658,  4.624354137722410, 73.936174555519329,  4.169576723708963
 2.606247208656946, 14.256473471918008, 83.479557801856743,  3.849006385010783
11.009930379735758,  0.487769795124298, 21.345457886032442,  3.951865655305062
 7.351608358911022,  8.846310577315553,  1.993883796302742,  3.905780947505720
 2.940030980584772,  9.815307718246753, 30.244081443158898,  4.026180953293363
 8.387035794027369,  7.059796778298968, 64.217942581494228,  3.528184521180090
 0.683172948792391, 11.723662858378413, 81.169730577553182,  3.993068546822690
 0.936777548120782,  5.007515171252123, 16.626756254288917,  3.620980174476326
 0.955520157033223,  1.250986828534200, 16.540602225815711,  3.880054503592750
 1.187578489817821, 14.917021901780069,  6.702705601402189,  3.669766220375287
 9.428684330378799,  0.596198373406615, 56.993139264107960,  3.867593691547900
 7.278348616185707,  1.330255296031621, 18.761038143196700,  4.410866691551688
 0.893526310760701, 11.666891868703056, 86.076953399958697,  4.143341894772747
 6.156721117740753, 10.903360938197878, 92.390225717900435,  4.296934478362108
 4.292641359475120,  8.349802810609544, 10.971455793970501,  3.749566270180802
13.750222046251777,  4.669344322215546, 51.590752496273289,  4.262931505224334
 4.801412357762991, 13.337591154710642, 29.156188611683014,  4.231148807206259
 4.316504895797725,  8.653790065150758, 50.072275390535367,  3.941361209907058
 4.354895548648150,  1.832503518786416, 43.068676083057454,  4.265679264446271
 6.335987919013635, 12.203189108844224, 49.315319799118967,  4.362735122553952
 4.979258911668752,  6.841870932753762, 46.471638456870437,  4.116194644398703
11.505703584750647,  8.562953328767870, 10.320578227853074,  4.414359154376390
 7.681727910910231,  1.445718040942692, 35.034808712580833,  3.957900938614296
14.620678012123408,  2.305274151447299, 37.904932288547108,  3.842518038865331
 2.340548782079285, 11.587642989177221, 33.760613920120740,  3.915203665736923
13.576294907801914,  9.989813626128775, 91.200679923328579,  4.000993498346856
 6.808037010402969, 13.940777161062922, 75.723733054023995,  3.937948518668028
 1.809381481431787, 13.235491938102491,  3.052462510581512,  4.454506238064017
 7.130228071738829,  5.599367858798386, 19.246769168449202,  4.174598357430380
10.242672577905630,  7.818923984923552, 89.895555713863416,  4.177435677003908
 6.931880466631067, 10.073557074974307, 77.148422122877278,  4.005144532381769
11.253382987510069, 12.968694813330549, 31.392753594224885,  4.082865845429581
 0.103820716510976,  9.713856505356691, 23.649610351841471,  4.209539528012602
14.936062518718916,  1.849181988714460, 44.356387913639445,  3.898999963275139
11.722976604019703,  6.033132721637177, 27.285809792752740,  3.815044923066850
12.057369326824110,  8.280930716743789, 41.055830898358550,  4.151072525110578
 8.899849236934466,  5.174717705385136, 35.152754767103488,  3.815802589094343
11.191590842126402,  8.464013375000299, 51.868803152008823,  3.939856953963168
 1.481556611424397, 12.037518588915169, 92.848600383860528,  3.810218813909040
10.225638330112758,  3.073597610838661,  6.291500954391640,  4.244973294816714
12.275439033356436, 14.916428033416681,  7.434758104414074,  3.589303802626775
 4.802246754271143,  4.358188362923824, 11.394538534103303,  4.336451891699693
 6.933576504561623,  4.245338375283948, 70.739389241816966,  4.124611560975110
 9.036724953085219,  5.173854413405007, 78.201281098316684,  4.007752539360378
14.198315309350850,  0.818807805330403, 77.859137379777778,  4.249380686088397
 1.552795097721877, 13.663003233300238, 37.264514974298287,  4.233778917306219
 3.209950644457548, 10.400592555064659, 61.945252280160624,  4.178900648254191
10.183714592101154,  9.287978200139312, 29.853096996138785,  4.172730277086799
 1.321821146415444,  5.450573326773887, 35.990426570836753,  4.266878337547875
 8.223160914590128, 10.271773624754498, 62.013843851407032,  3.795264122295365
 5.830984578874651, 13.709002851823243, 15.814833103023243,  3.978049402259924
 9.570348263933028,  0.565767344569631, 82.987672008134453,  3.954176263078014
10.087663022035157, 12.052771174742595, 69.588458021208808,  4.173278838135711
10.296216622794674,  2.779893452024238, 90.351689608007760,  4.132703140427733
 2.484565312575866,  5.219305802717070, 50.102457974553403,  3.841115036929879
 8.002593164154087,  5.547486678318224, 57.268535306927781,  4.093913456152252
 3.208107397560793, 14.600194490349432, 60.773657373941610,  4.436727487528758
10.415580144514147,  5.118660796315606, 54.024670540970220,  4.022464807639908
 6.409104116075150,  9.163261298557723, 28.831569006349628,  3.565626372696273
 2.926192768780147, 11.463888118940702, 68.038504220617838,  3.943879948647054
12.426158905948299, 10.421511696553376, 26.658496942075203,  3.942134062907944
 4.530760478204711,  1.681259599736388, 68.471952363737003,  3.825855832870035
 6.519605306696879, 12.480471623462053, 42.456609719546471,  4.406626997537269
 9.199186092391551,  3.942538871012592, 16.285060027410658,  3.746656169668451
 8.852674720254575,  1.342510848603396, 68.523660888232655,  4.096362519934424
14.509771374435241,  3.048778837429227, 74.447261999463322,  3.896639675992972
 4.052984915957873, 11.467538372496852, 54.018862076600705,  3.784768709606637
 6.248324698634080,  2.011367656304119, 58.961238306625219,  4.088440570422305
 0.984970784248850, 14.990230717572537, 67.574488130569165,  4.146046900509054
 7.773915854996332,  5.951024736020496, 87.354021611233392,  3.816025955519180
 4.207169762238648, 14.630798851277946, 56.334768488322247,  4.035774663116021
 2.852738851815384,  3.364686181761511, 46.638409884016767,  4.041974959603850
13.684926196738342,  9.371655855872834, 83.593708322139619,  3.851583653083803
 6.975054183128400,  3.356149406402018, 45.876443947724098,  3.992002534090507
 9.737716903937097, 13.526897029057771, 45.055772396819748,  4.086142743971246
 8.510080190728436,  7.919374195987903, 71.147704425453284,  3.799138782524841
14.399621525909142,  2.158931551571194, 90.418237566595096,  3.948691700736032
 0.427448716914660,  8.285101500800469, 88.147927294875672,  3.817503769414540
 1.243669061973495,  0.454826302491955, 40.886127518057300,  3.818378447049000
 3.705585056900493, 14.145132154568469, 19.337166400024721,  4.042394876481544
12.249145319945008,  3.463469119489142, 84.293143103085839,  4.358714139416100
11.313299256063701, 10.201030434935539, 37.437995146065134,  4.136411310302038
14.697360971678366,  8.534769958247375, 33.674621255629596,  4.098877546645029
 2.751403185690760,  7.260795021712494, 53.518869938540981,  4.040204369434395
 6.326667725290615,  3.179699757702411,  6.744023044705720,  3.572534327921231
 3.177258489612497,  3.957665572511026, 61.067391189417144,  4.294375058749078
 7.381691149628089, 14.148776721800882, 61.873631183647255,  4.134289445106737
 9.350361756768422,  3.688269285096003, 65.163739644363858,  3.728618919955146
 4.516886765161978,  6.607258461795665,  7.425810686533938,  4.162755528601073
 2.077735445784365,  8.502872624630610, 58.280813855684585,  4.178152280955437
 3.231607809907255,  5.190105160838338, 69.478832230173694,  3.919418381933203
13.816338263770856,  6.818893223447659, 73.285518111756687,  4.039282004965354
12.480724647369261, 10.763948707708833, 20.735515776507420,  3.839402679323322
14.071944052242989, 10.290636373238543, 61.009912562703505,  4.270140524531890
 7.912478490852235,  8.134913798144689,  5.821487493310904,  3.944023102816211
14.093386325979768,  3.065280168547514,  6.925644059983406,  3.580564970621146
12.308786251197038,  1.201977032100775, 41.353436106468841,  4.170949449743405
12.641361635626632,  2.056045098130142, 55.254422214269454,  3.872248630130416
 7.673839087563579, 14.491052881700879, 31.684941220318699,  3.713958937675754
 9.606388156867572,  0.014079185956664, 14.700586479972976,  4.313609004565225
12.694769155244865,  4.238841787975054, 34.554610282875231,  3.809039756746456
 4.010574584291004, 13.464150227747076, 78.609789913476305,  4.091710613994845
 3.179935903909833, 10.202006877763329,  5.821593042264662,  4.108947278757524
 1.981759660302556,  1.924870340617635, 22.837821662987920,  3.778446154599706
14.167374173920317,  4.870790839904189, 69.670439797896393,  4.191145966807901
 1.074400549305009,  1.636592948977752, 50.150573103281509,  3.859117919248272
 5.558319834899217,  2.383161280307264, 49.617717532654389,  4.196741736579709
12.641346008930457,  2.853696968631871, 24.309495752527130,  4.278335635240595
12.497015823514465, 13.172437753386893, 84.386983340389691,  4.016642587978383
 2.299917371854832, 12.194279241390880, 50.583295307419725,  4.038038988056432
 2.631585622705449,  5.743999057419574, 22.471543144193742,  4.002838665729570
 1.462817016902813,  4.186817716387946, 77.617815962570063,  3.846696360053574
10.150261256346601, 11.429944932456145,  7.489323249241253,  3.980489595511135
 1.848628358388409, 12.435377319274339, 16.225819509461594,  3.958479917157761
 0.777040112469486, 14.568688204937519, 53.781588188751442,  4.490134597408166
 7.060928060176017,  9.019501838403777, 35.418937580889207,  3.944516619562354
10.249641956113898,  5.117868365389931, 68.610172430848806,  3.938759703399256
 5.164590418253001,  0.176590728344219, 25.544756030344693,  3.898978355059223
11.601413412060479,  7.735394311172803, 23.046667876988089,  3.910910372938893
10.805855450969229,  3.909368350731642, 72.646548063507723,  4.265493623874989
 4.250619319715471,  7.961265508038843, 87.460676263878085,  3.969787924847274
14.954500949220900,  1.159264207496118,  0.527880978652869,  4.077945316803772
 6.747959160566992, 11.752842918808380,  4.611039598793635,  4.004708244476352
13.950988921214554,  4.789929952449582, 40.710444277062336,  3.769853233448566
13.602736029534022, 12.320425866383113, 34.519645428775924,  3.824213123275350
 5.987218249893021,  3.020769203875864, 22.622530230767360,  4.402515084734237
11.972503232161463,  5.496179634423017, 62.819740886451108,  4.085683524196416
 3.475950307753962,  9.578190404029927,  1.544335928692848,  4.032272426590986
 9.085022752039235, 12.122467432000089,  1.125210237144669,  3.701344801672194
 5.813785637889000,  6.650719885786611, 24.409883479794079,  3.663554707058225
14.473826837752776,  7.440846193451867, 20.337852308590808,  3.921740359257267
10.096847504619081,  8.490536231550767, 18.343247176866903,  4.285228081417837
 1.141981252317177,  6.811118015824604,  5.385623378103857,  3.692275454665855
14.327434536348157,  0.706396917523455, 81.981521003986714,  3.858108954096027
 0.952374895214698,  7.059228568705864, 62.911841150033233,  4.098354912469713
 0.181747249558628,  8.581627899197331, 50.482621148074735,  4.339319106532800
12.337807004978997,  6.749943060105266,  6.484564224779804,  4.221734583931184
 0.407485485726967,  7.109233728466508, 28.786781180585621,  3.833775167672158
 7.585207478180783, 10.730151396852387, 38.876542405371197,  3.836444913333592
 1.187432649061644, 11.630925112455831, 27.112852156943791,  3.995936990555874
11.473782884595984,  6.630235159734391, 81.494070107609758,  4.233373105936284
 3.464466255939052,  3.833275428760563, 25.975749189899073,  4.131873104850706
12.843907780274550,  1.564960011264278, 30.973128494104916,  3.812734962504909
12.859907799038197,  5.559738956047784, 76.988572673455494,  3.945985900187109
 5.789162477299794, 10.787221922031508, 19.230596379493928,  3.814791488029029
10.001601517870261, 10.678757492457029, 82.143385044054625,  4.339414981714588
12.169717336780650, 10.563360672319440, 87.455999076316928,  4.056902693436077
 0.226779759754058,  6.107428223305791, 85.035956142313964,  3.694940241713234
 6.976054387542906,  3.605073672342681, 39.240052035305517,  4.089689895470785
12.276306490878166,  0.688949585956199, 51.446338560302017,  4.215183945958542
 6.489113180353330,  7.345846272621362, 90.416659922286698,  3.367125494739261
13.906004109249031, 11.686736668614280,  5.871179321067548,  4.209922575102674
 6.082781206956970,  5.507502489991041, 42.690260187294406,  3.876838888442152
 3.386847893576973,  9.109938595737013, 36.544601150679981,  3.721095971021466
12.183628598383235, 13.836290692043361, 66.749689099138664,  3.684164383357982
 5.823088420929125,  7.751951386412422, 60.037709239083505,  4.163225443412331
 8.369611025759951,  1.161313411191301, 42.140126326684090,  3.844603358193407
12.013419057785734,  1.387583041512402, 17.683488618390779,  3.829600614592948
10.773390985674682,  1.677446495518562, 62.202258899580499,  3.971576311004656
14.353282889900813,  3.576585298824134, 20.640913254834629,  3.825368432477461
 7.396907998516217,  7.019058256775699, 31.925486535440449,  4.118602751182692
 3.631554267764537,  7.304065221674994, 33.204450715445880,  3.851654980396459
10.766540614771760, 10.009633539819205,  3.836914763569399,  3.948580889343842
 1.295962645710673, 10.986139943156177, 19.889646059383995,  3.969574771403484
12.417254387789503,  5.228540995429436, 17.769101927009171,  3.788576688932502
 7.292068317772986,  4.061587428709419, 74.770921183617020,  3.951818590493902
14.275835428350156,  6.591414290461790, 12.919005337901405,  4.095900329286398
 1.907395162705120, 14.902051776212049, 74.861848416459083,  4.031164020280038
 1.239512126340580,  5.096607638881459,  9.323956646036724,  3.978199287151520
 7.488658038527873, 10.065248854383430, 45.834884370002428,  4.121479049098112
12.520171390954694, 14.025194144565861, 37.934086551585075,  3.932795836983262
 7.715279653427340, 11.159941491757928, 73.089829827156080,  3.886550496763120
 6.463469678083235,  5.623556520236322, 52.567646618278332,  4.232231849386794
 0.607859478792011, 11.945162095326300, 77.228942677866669,  3.856182362425559
13.047455296837049, 14.147447897173691, 27.915648003078658,  3.992175299046766
 6.742600367286438,  2.525456848613174, 55.094442999779382,  3.755725808380566
13.725436360037731, 14.397821347919360, 13.762553204218186,  4.125570784442384
 8.810233505861714,  5.532364000602947, 92.884843833450304,  3.852765557846855
 6.185967993062958,  2.758709453338506, 93.623526752793964,  3.896045718877857
 0.366743780836643, 10.862677227267691, 73.211183795599354,  4.191549837040754
 4.870888447663658,  2.722019284657230, 15.396536386572848,  4.309871635821687
 9.377875820923464, 12.599792495424900, 19.005830689083826,  4.154116026124242
 8.652887086118128, 10.921872835825985, 15.294570608525422,  3.986035460545468
 8.130761814381241,  4.649992892485162, 83.251854798891145,  4.234191411300911
 9.178474523243263,  3.214520247080010, 31.598877964628141,  4.301829538510510
10.848523992757215,  2.478868065318888, 45.032017817718469,  4.103713276226037
 5.932356807106534,  7.742001967183346, 74.034942699608905,  3.938338879155545
14.292670670626638,  2.815701339885627, 60.998899290459306,  3.799391070669449
 5.779658019986819, 11.767047529497939, 81.913902759348957,  4.117705361096157
14.885031502298894,  6.054142031985691, 25.181761712528722,  3.729134594986777
14.471170076150299, 14.760087671327813, 63.630725074169568,  4.263574466880830
 3.927646010586459, 14.873920799748868, 91.389819996842689,  4.171965314411390
12.054066581481676, 12.691743967157452, 55.441979947524068,  4.479365515703363
 2.368185834292174, 12.541026090144172, 43.295468573272800,  4.063372367595719
 5.466789362336667, 11.709179340536940, 12.191939877933414,  3.751828851767101
 1.611968799610295,  2.228078197273449, 71.318776684059912,  3.709136331321850
 0.508534903296190,  1.329970002057546, 34.039237892547760,  4.322557092523704
 4.168908109874623, 10.201081027010551, 71.534239207357700,  3.887922575572091
12.727377764982366,  0.849435195088215, 70.236558353541739,  4.415183555877454
 9.560683373850852, 12.086632645039366, 58.816083885513763,  3.997705131721673
12.205017712646496, 14.377299706681178, 92.043044609092220,  3.838772190216436
12.782602905839793,  6.531333549075452, 37.573924962467224,  3.771655422871876
 5.369194291395156, 12.559568683425365, 36.175428264402846,  3.996382225719432
 3.205732333096407,  3.245602871869293, 19.282290892309891,  4.162110335777786
 9.194136750333495,  8.751992069682391, 67.426348175006481,  3.897168764522582
 9.055875933038578,  7.033454563228186, 38.564462910764462,  3.952366197496978
 3.036852905782326,  0.484832837512971, 87.319722559221859,  4.246332763244922
 5.675634391719748, 11.132295901115661, 25.489933679087386,  4.209421476559985
 9.373063508849812, 12.834187826196235, 52.138239576472515,  4.025147031261393
11.088560584392333,  0.764107315953143, 10.833829079625851,  3.763715167299289
 6.673868711536146,  2.283524577107754, 80.255918964792244,  3.921491307344166
10.672797104880031,  8.477397076807378, 33.835525373167442,  3.949575108072473
 8.326736357692353, 14.774061159687026, 92.218347959636745,  3.945207869818688
 9.936156869512466,  5.841564152424132,  3.052752833348526,  4.294957010274750
 3.554017289748272,  9.439532076303255, 79.336903611613963,  4.103917889134644
 4.143797163209689, 14.877584789734254, 32.887583064869304,  3.784072600706552
 7.090785913775651,  9.704617775147833, 52.570450132628721,  3.763839032337423
12.309618293998263,  4.407871167976957, 10.062989322103054,  4.062307706566893
11.470124552204799,  0.557493911484393, 34.443570761590415,  3.913046472558505
 2.899187640386704,  8.246291849591792, 26.105908767633185,  3.784186704386644
 2.213594623555364,  5.588346247961072, 43.393645230246271,  3.927913198807177
 0.976878037653877, 13.816671481600510, 30.704742648985192,  4.076465782611455
 1.791513318881304,  7.977433344935738, 75.890550972451507,  4.162572267434398
 8.028546679727615,  5.385613117080712, 28.327983960110117,  3.877207496436745
 3.008960288787153,  6.754164672244821, 14.126295839451236,  3.745779114680776
12.363023059845272, 12.436063738715923, 79.281734499057492,  3.761428107979271
 2.767674172393726,  1.745789748583312, 80.499489595274810,  3.857323529745826
 8.887133821441788,  2.262076647905714, 86.547823348291004,  4.041027670498933
 9.371496769567422, 11.943603516369143, 65.525533235775043,  3.512116227760643
 2.646733163877190, 12.401565129052424,  9.284542607620287,  4.102182488290741
 5.687379810055234, 14.032276401190266,  1.420667320861144,  4.096127318212850
 0.213497884464922,  9.076462507586170, 43.605582230629125,  4.110895260275043
 8.225599307821632,  8.717050416190862, 42.121329012050651,  3.842142063940507
10.185654635881782, 12.000771433605307, 76.207939806561669,  3.788063212883715
 0.877569869694650, 12.518412698278663, 57.659240905853444,  4.279199338392813
10.113135701533434,  4.691529624414493, 41.661597106498803,  4.083636881768991
 5.416936252280315, 11.604865525770112, 58.785789994416440,  3.896558056875791
13.273307282089124,  9.141603515660460, 57.210696562797708,  3.811322243573735
13.515898950662590, 12.357681797723265, 10.087639667656973,  4.181058681060933
14.174566444755103, 11.802148676429615, 69.384110012324712,  4.024912805862553
 2.681444404897849,  3.344866802478110,  5.870696003075636,  3.917339795175460
 5.604632045430995,  8.554784008509992, 56.056561808427979,  3.970155119548453
12.152820059595667,  7.412591610518684, 47.831975847213620,  4.039515242714942
 7.839546275366299,  8.563889541911534, 12.187528790420135,  3.748199827287656
 6.721598341145099,  0.305712288885891, 11.643325287150404,  3.929282617324708
14.675831177452526, 11.605011875715569, 40.372997773491470,  4.089538845904752
 8.955556867730600, 12.940592560935425, 27.760497639790035,  4.469871653803221
11.458497689533827,  2.725268459330090, 80.250973846911506,  3.962576913269594
12.998903315342144,  2.674793005295446, 66.296193245029741,  4.157418108932681
13.067112745830501, 14.977330139931379, 47.402232920758664,  4.059998020417068
 6.114460632961397, 13.271874853540645, 69.820266687354120,  4.149135893652959
 0.896106854213973,  1.762899471704513, 57.554657569341366,  4.070928797178832
 9.621120809544326,  9.088435601785177, 55.563238548101204,  4.163738947140580
12.916056753718571, 14.126673297494113, 74.191488159817553,  4.201786659436859
14.533781072312950,  3.387025727492068, 27.954888283406543,  3.986654375621723
 9.303829089929287,  6.509914932860930, 45.160174857886936,  3.961456968730700
10.600494131857022,  7.090589113354648, 14.501077299341116,  3.954762839814531
10.064191713849553, 11.784495174111708, 23.711812780330934,  4.073413938155622
 6.207758809025440, 11.029925185098902, 32.175980447809899,  3.867411084973317
10.097389904605160, 13.995060331576523,  4.405053130286391,  4.029838207551873
 8.549624767429293, 13.734022441332291, 79.455605655687151,  4.258712319760832
 7.053593806201771,  8.812249180179109, 84.621517601282022,  4.177664582223355
 6.264590072039822, 10.656988302482928,  8.488442900060678,  4.077098323578782
 2.869047091710218,  8.811288183869991, 83.547301290436408,  4.422586057836243
 2.897562317238851, 14.677616719122627, 12.966916056756565,  4.221772342864018
 4.248118864759992,  8.973884249734342, 43.067279614196835,  3.997846144754659
13.022935043322720, 12.422447252416497, 17.222727491972968,  3.935214541225684
 0.160226279780163,  4.653559551919479, 81.380971221087904,  4.133369451268425
13.525505991079012,  6.971955032702665, 66.232786029505576,  3.948549558428632
10.615924263610053, 12.251067584814548, 41.097613629470438,  4.236733082311798
12.902105241681868,  5.154364589373736, 88.133705453032704,  4.131403523120648
13.623839127348482,  0.523949405433005,  4.113728618246244,  3.668737930396380
 6.024171330974448, 14.565887770398508, 45.975436340184729,  3.824452718308344
 4.637853957883876,  2.029856361059077, 76.864188677986704,  3.927888766064141
