BANDS
8 8
NANOPARTICLES
cell(1), 15.016
cell(2), 15.016
cell(3), 93.852
 5.365368601922531, 12.115631915822455,  5.477721570717526,  3.901469994833667
12.567236079414940,  0.967467763213007, 66.706038782798871,  3.781762641105519
13.096459632077508, 10.146251732935461, 63.753759170685449,  4.124370026617788
 0.735836514378237, 10.577721954518028, 41.551901527386363,  3.855678899361058
 4.817037943750329,  5.442397896145003, 83.552586848479450,  4.007286544573320
12.428877729611667,  0.616559413344113, 45.336972667447931,  4.028215218642364
 4.186248271211761,  5.055600673564209, 11.053116367270977,  4.021871527995134
 9.347930208546522, 13.107573724473388,  5.829159791360316,  4.320600198219452
 4.897220506455765,  7.884242160997531, 48.618327433630824,  4.018693504212266
13.066453756566945,  9.710765054379351, 49.790517213717209,  4.315470771336496
12.171638949859965,  9.179176270280278, 40.946597529787567,  3.922090737811455
13.414195845846548,  3.027359978884875,  7.751524816373660,  3.932531352010846
 9.725266608659291,  8.561825111273102, 91.750284253727557,  3.865783458675051
 8.898331447588578, 14.671722662830032, 58.430583282956576,  3.856594536070371
13.713882615066117, 10.753929957854632,  2.373853374255088,  4.327890221292069
 2.760553408384562, 12.844648784717583, 21.753156007302156,  3.663587310014455
11.380717978941561,  8.838932056620191, 77.769474018997116,  4.131796499560163
 0.008458027102382, 10.574376962967758, 23.569483721221992,  4.341866078798478
 5.740273047714596,  2.307447578552357,  0.538009908919926,  4.017962577779696
 5.098145793066742,  0.322260661269630, 64.166595343736077,  4.174822285280880
 3.525707813684264,  3.833793986388031, 62.656984322004277,  4.016146605551596
 9.857045391511496,  2.086274209946509, 79.156702137510337,  4.010930167612059
 0.244565276542091,  6.327090265770755, 11.470212055542419,  3.958491515737395
12.490004718027999, 10.654079465415395, 81.223692518842256,  3.964723441861896
 7.429822516029659, 14.780375325051034, 81.304307059463738,  3.893270913694647
 4.241187892688638, 10.695298122708003, 70.198301637732314,  4.085046436593135
 4.379215310093698,  2.148517965124317, 41.740925485600286,  4.178491603717284
11.149480585648089, 15.001523810824265,  9.168675704216815,  4.150400826787638
11.348902157271885,  7.914567187100873, 23.967437571531214,  4.052250592665216
 8.641964509674684, 14.793639171889028, 38.950662469762662,  3.903223769690933
14.932414349224253,  4.023954365326359,  2.962478817993472,  3.943737202903722
 3.526153665889602, 10.000114611131076, 60.269580735065510,  4.245206930144168
11.005844097996963,  9.271142636959571, 53.621948093530875,  4.381454074751249
13.620109428414828,  2.129349565126644, 35.095084565705484,  4.394063547889350
 0.949257016212325,  2.332256054439054, 11.050985936349427,  4.186237107757462
 3.210243490652060, 12.912008664846853, 53.638980542426992,  4.064521658733925
 0.917381065104980,  6.308152194451753, 82.567067844052318,  3.821313678128854
 7.499174112699609,  3.524432809459677, 63.167463126366428,  4.001729347379236
12.051376399666960,  8.023944695524207, 88.500400955114671,  3.957867682994544
 5.213633518383830,  5.188150802072091, 76.689485623942062,  3.830166126599959
 1.788376385666868,  3.349351142165343, 75.946491571781237,  4.057119607834885
 5.559195402990547, 10.513629763600655, 33.558765667753306,  4.170303163056519
11.690641843603254,  0.713269448711278, 31.342004524267971,  4.491956413686571
14.392151472510946, 12.796583671923003, 66.262925423287768,  3.581216854482460
 6.098333114975186,  7.835032240113161, 36.971807820916069,  3.739057042209275
11.681587544309833, 13.083825760054538, 48.138556916633760,  3.679950643031479
 3.698597607955951,  6.096118428767293, 51.953291091807060,  3.917777854672792
11.544228361621492, 13.710950645145187, 51.977193186435372,  4.097185997639824
 3.983741093568473,  8.843808905929853, 85.460894873116032,  3.788568143232384
 5.245207467651354,  8.980189632881968, 66.812088633857400,  3.762493516366999
 7.533317259909804, 11.360528574774214, 72.302711380824547,  3.830394956667676
 5.517065379051862,  7.919306871230412, 44.766534210769223,  3.781779917047288
12.928353711064004,  4.729623762495459, 57.344074267037463,  4.339360037184450
 4.253250389027492,  0.701881483056474, 87.383957317621409,  3.905538304763111
 3.242204680002772,  8.556111179082951, 12.241411834275715,  3.596908944291068
 7.567934166688119, 10.010503750797515, 59.432614369351406,  3.896641229858819
 8.192451573659733,  3.018055462142881, 75.727097884613798,  3.783690413448010
 6.945402351909814,  1.003477671402042, 55.221937680471839,  4.107621942163689
13.692444425822362,  5.225305828909830, 14.855940936904108,  3.701017144973528
 9.522968471460482, 11.638542728166231,  1.800215989719507,  4.169767933265724
 9.477168882086948, 13.014549456558841, 44.971585250244978,  3.870078660213374
 8.748114086635661, 12.518741668443591, 19.797164787252694,  4.149741967670606
11.274370927913584,  8.709491210906037, 58.042118504055090,  4.387807389547628
 0.523372971814093,  4.296291282833207, 68.917007090895240,  4.041188685082209
 4.899411337579306, 11.814150609788864, 75.343589134009932,  4.265303794104302
 4.561207519592710,  3.903537177908732, 56.432576300368204,  3.732909049705139
 5.393208718231523, 14.458812436128175, 70.589339580891533,  3.813925726746338
 1.210543891611847, 11.028385161821230, 19.019053145582401,  3.555706435345272
 7.830329671252360, 10.851727043421940, 39.521441546034914,  4.182675643562776
 1.746592394883112, 11.349161869783531, 34.282059369530664,  3.757213739906150
12.446114838637952,  4.040990548858569, 25.356075932435456,  3.939677738172041
 2.242234973075945,  9.953466138678429, 82.144086060521317,  3.632889294842441
 5.882775689157227,  4.689527091531613,  7.002507830940119,  4.044050388453463
 3.784131134224785, 12.209044297770182,  9.083343781336474,  3.968357532874039
 3.556626455781246,  7.560705395748825, 55.639351005218174,  3.991286680628791
 8.385756455606728, 12.268551873445116, 54.911130954484136,  3.945488146425618
 9.334696906062119,  4.097154079918158, 82.738512089384855,  4.250088295052818
 8.111378704110180,  9.890639505264497, 47.837257990959777,  3.712509074469466
 3.374801926356163,  8.155382450663206, 30.929873768115961,  4.113219874128810
11.147507305020829,  9.771630265694524, 30.738378220809736,  3.938771753969578
 9.146567112238159, 11.792716892221886, 79.504097328436629,  3.834559498039829
 7.328279777538935, 14.548792615760192, 77.334070232437654,  4.040809043695218
 7.601642551005479, 12.538366019540547, 36.102343869614735,  3.444792293938103
 0.333786585438016,  7.785844278025952, 17.305080299318394,  3.880222603681756
12.922375985483695,  2.637415647819800, 42.024865490361449,  3.792248116083829
 3.162667971688179, 10.125961613699783, 15.948982192615722,  3.940296023585586
 7.571818248740244, 14.354732433373169, 89.374329376197721,  4.270771237258796
12.220024804497955, 12.589764229504539, 56.367407363717327,  4.261464576826560
10.613463120602400, 13.583357027072200, 16.291295830974743,  3.999983045366068
 1.518534547104462,  9.688452575152137, 66.094659305340429,  3.955646134631932
12.367934601466093,  5.430276949567844, 91.679892570951822,  4.254648971058913
14.635146583774347,  0.130578898237216, 85.197973642116295,  3.927370823098572
 4.777799492436715,  3.432762756157116, 26.777490280368635,  3.852081694338745
 8.663856464314277,  4.177447674637041, 57.362098127146524,  4.260481700777548
12.737302619229713, 13.842255667860710, 72.479374184106391,  4.101027901713841
12.651212017182912, 10.513118592073239, 27.094219821089482,  4.062119968193935
11.402051214928361,  3.640262866643120, 38.488011494656469,  4.121796489853182
14.273042109031683,  2.630324417748522, 72.808836352643723,  4.130090771752002
 9.118104140460204,  5.656050122630090, 89.354616744479443,  3.748310903726262
 8.912168829651073,  9.402838590211120, 43.277776051314667,  4.103246032679473
11.837962457203620,  5.638224116786380, 49.248808348886072,  4.105047975045239
 8.748281647487293, 14.666045599896863, 12.911439786810828,  3.817130311405133
 8.546095122297245,  1.245530822293817, 66.428314194050543,  4.218184818552828
 9.018361722996771,  9.291872201122224, 67.318252183828733,  3.869576400728313
 7.715987508308534,  3.390494207034056, 39.943374417211359,  3.734694575095984
13.049147643056608, 14.952964794010633,  5.280003549451486,  4.012781600230426
 1.113335357801686,  4.660561296729486, 54.956062063805668,  3.563737145797116
 1.934005081135242,  9.482350400926844, 73.270448545619345,  3.958471963295662
11.240987568911125, 10.024493748251693, 72.158485851223006,  4.047698873511838
 8.966873085916079, 14.760291851132909, 62.494821403396266,  4.195750922458950
 7.819012085983718,  5.753274324896616, 25.215096088301692,  4.362343289110869
 3.655756624564721,  5.608195071435738,  3.307420089039986,  4.200503917164511
13.480151390973687,  1.376869774269200, 91.818401620596518,  4.123759399525253
 1.173916215943329, 11.564653008591797, 56.863691967648549,  3.966488075864667
 4.715772008178849,  2.280875326591980, 67.795777565804883,  4.103406293494313
 7.515312381919749, 14.104633069155815, 85.229224031981190,  4.032766455563661
12.179104169558132,  4.553580917747611, 45.442194960283189,  3.838939696498501
 1.771391635674176,  5.437453415120936,  7.644564097081075,  4.361542006485175
 9.596618186725664, 13.131463311884982, 28.456458048061624,  4.328730890523199
10.365773396441876,  5.695165958571534, 41.972640596026814,  4.179244873693774
 6.647205475536198,  7.078539368361423, 40.769803928575293,  4.081779537982394
 5.733385746145762, 12.085838832530561, 12.613725270855072,  3.934813439064233
 1.982986311163728,  0.567823249632707,  1.666935686704467,  4.512071657492315
 6.482706603847491,  3.114494053244132, 90.447620631141902,  3.876249527793951
 9.750535350057499, 10.346618984690650,  9.149616684179749,  4.348324372884389
 5.350605899556645, 12.173963970017098, 26.961144398156470,  4.014572672916924
 3.976032035965066, 14.373301485415450, 91.738120439882266,  4.304442525541764
 1.303223266405181,  8.133080723987167, 69.644179156992365,  3.780912200714048
14.349493801357779,  3.533776827948183, 88.433913472804477,  4.083425231287487
 3.122447962275630,  9.848823464802855, 92.130487580571000,  4.205577746113153
 3.490666622133690,  0.503751535894749, 78.323417303650757,  4.092132216816430
 6.322182910620597, 14.243231346223894, 51.859726148538208,  3.581018705613833
 9.446552997915060,  6.279602651012329,  7.990283843097538,  3.984896717536950
 7.255408580351686,  0.518215519643435, 26.183160057894483,  3.775362017576530
 1.730002978137736, 13.467908462300500, 12.354483970390831,  4.142538182751140
 9.971672711236865, 12.896896542198087, 69.728382609303296,  3.882757101757167
 0.185425078114040, 11.871720586173394, 37.913896628111381,  3.936268940848571
 5.363884126737580, 14.902508134066155, 19.758640033637391,  4.064308705681524
11.240022531772388,  8.340096535170588, 46.361046621830035,  3.858774623253162
 1.314515640765114,  6.725495995691862, 58.925749874653071,  4.099809744351089
 1.315696830858260,  1.716157958056177, 65.390776729088657,  4.173599190614683
 9.414209624656289,  7.079336660940931, 74.701334171488597,  3.952933537543368
 2.152127600894111,  5.725231086071553, 28.148962354449253,  3.612907411073582
14.667862035458826,  2.945188667177254, 61.793112159042721,  4.091294603868408
 2.536304274546977,  5.619549116503098, 14.751530337599114,  4.044116315843676
 7.994136761802229, 14.096708910386456, 48.463245947727820,  3.981615339717193
10.844010521979017,  4.904016749728489, 31.547009985990389,  4.043900869310654
 5.823834748248082,  2.289737104269169, 59.729267338728327,  4.029135700516428
12.500857323094547,  1.016521397610922, 12.955501171335209,  4.138807793059880
13.460612904617980,  3.394298268449780, 83.413788774825164,  3.843421244844286
11.408452383331946,  0.717686341184673, 75.808428894513384,  3.835522850255444
14.300861116147727,  7.558324911119554, 43.931858221441431,  4.095265572084156
 9.818800193894184,  7.443803937025131, 38.173078291407414,  4.118686532618029
 5.698889104641540,  8.117165710705448, 73.611114265029940,  4.050330566109516
13.027390657544299, 14.480208098360105, 63.115408918747875,  4.031881338994229
14.091511483467063, 12.369279804172814, 30.371394753331749,  3.897717572285217
11.384447745167822,  7.474842300792884,  1.300407674997467,  3.995068420846299
 0.066847500759391,  8.550725043807919, 79.212263790777854,  3.810688454205017
 7.090654839162545,  8.366048481589585,  1.067484310887521,  4.061920167644335
14.597614092606582,  8.108885210943956, 55.512475961216914,  4.032332280361799
 1.112780437707755,  3.813517626554423, 93.243560358865338,  3.596712776789121
 1.418684719585065,  2.811880751973450, 58.240868911797037,  3.839740113810459
11.256398495026060, 12.188573770232265, 60.337929536374141,  3.927493106567915
 5.355580841027335,  6.474310659036641, 59.211607242121019,  3.972193990785004
 2.314884035067303,  5.485998353563529, 79.153833981441423,  3.722177533696867
11.657966680370436,  5.122397083288095,  4.897192831832053,  3.934323850314705
14.901948269340387,  0.411372110491351, 69.599489747801684,  3.734775736898075
13.789713603608542, 11.007080926169937, 75.235924789503073,  4.064442590761756
 9.965911575823533,  4.849882502586106, 21.697299063716333,  4.054702971318727
 7.954396148379052,  4.308876985025155, 36.023729428729361,  4.318649139255979
 8.551099474570144,  5.629635461410282, 78.379123433493675,  3.684210469171507
 9.362483783468820,  2.442990412401874, 47.052731222526084,  3.806043035150010
13.992593784583777,  3.626725047438639, 29.087577094670067,  4.180004495981450
 0.502191573288160, 14.653909308208780, 51.076854868819787,  4.135430841158041
 4.408401507888036, 11.231376351229553, 37.351582724486107,  3.885188678769804
 6.897611209617304,  4.509367709476526, 43.750906671399612,  3.791010015732308
12.945066738031517,  8.528678446685729, 67.580168390839702,  4.145196849398956
10.868072419606278,  1.177944813466607, 85.199890065490933,  3.854540376356525
12.534442124470594, 14.767042133394886, 38.360350911787030,  3.967570804769252
 1.146729034055800, 12.033861240670372, 48.022427945760874,  3.894682940747705
 5.739043199393015, 13.399012255606694,  1.667498341465103,  4.136866519662999
 1.028432193829937,  0.397053253468774, 32.080495112988658,  4.061456938714054
 1.414387322691101,  3.744832469296297, 49.642548606190118,  4.089104428797349
 4.789989838500563,  7.001434723881157, 17.810995752406711,  4.028374299588707
11.298640144091163,  3.090549805374009, 63.944525631997550,  3.596423444187165
 2.341094043424669,  7.869801897669110, 21.046146477854080,  4.238262572033234
 0.248349114532594,  4.094899949355158, 18.553778629200508,  3.871607988831407
12.924020395266922, 12.117961970911958, 11.434853723313170,  3.972577528330826
 5.814873488249062,  8.506902184789654,  9.211908402504164,  4.340044759480199
 7.678709168097337,  2.555973414206269, 32.291249729904735,  3.918740736549920
 5.489985247884674, 14.628751380097331, 33.830318931160726,  4.022236157698862
12.132529911748696,  2.119256498625451, 16.793140956829109,  3.758895392632178
14.310577876890072,  5.298488843232239, 65.161803766268235,  4.057131612435686
 7.959773530163487,  4.709333996108351, 18.303141178832508,  3.818377030641946
 9.171834549019691,  8.179266758804118, 81.406692381568419,  4.319594358480217
11.962251644489438,  8.285805714823034, 11.755844812526167,  3.629252003747154
13.078406729176246,  6.706301834276016, 61.416067397714677,  4.085037006624215
11.019987081480055, 12.580877193553102, 91.681131698151134,  4.495395819757435
 2.041436487011417,  9.546127172882910, 50.873037964967438,  3.851482893624897
11.125284687155366,  1.512217590082818, 55.073681017970692,  4.306828856147296
 5.070267675931659, 10.709211775722295, 19.451748922247596,  4.061009010052340
 1.708442689752882,  2.413960941727394, 81.431270227631174,  4.016267008392267
 0.755851023041099, 14.868554569938459, 88.915801893192679,  3.836608101778842
 0.532224605331700,  5.289418368244441, 32.713795865953585,  4.252283945917033
 8.491987820381448,  5.124980187464319, 93.083243953409621,  3.872160663209211
 5.487738916326846,  9.593238193281072, 52.777995998839458,  4.009946049160098
 3.434145804035048,  2.083425537528385, 52.982638985047387,  4.366066656525752
 2.868741704302050,  6.080792035547756, 42.305389124996331,  4.306485365843324
 5.224555969849970,  1.494371083582782, 12.755230614581711,  4.120301639868058
 8.978436622318243, 12.596239642547873, 32.589008500318393,  4.066530630140162
10.903063507087561,  5.168089473051424, 53.254792950398475,  3.848788469390574
 3.155511503562975,  8.456900080820580, 76.900288299892225,  3.905275946562882
10.513969266496469,  3.844428697659587, 72.860487942770391,  3.770841303139962
 1.495945883459115, 12.366359274582706, 63.068152263794204,  4.117948504290814
 0.530690673106368,  7.080612274296191, 86.530055264423453,  4.248079492373916
13.499482800861475, 11.603238509537391, 44.868247907678558,  4.361645065943752
13.208670798368420,  7.432651340182844,  8.293341561403812,  3.906298865725005
 4.201172877010969, 10.100183855065454, 23.851970275405137,  3.764293336008406
 3.961155811678661,  3.028982846410232, 17.562599351871654,  4.096524942091689
13.905580282898869,  2.032145179912727, 78.587495772386063,  3.993847524907657
 3.022512188300208,  6.039019938896597, 24.552314174838731,  3.748145180437362
 0.719492690519396,  9.911499379404383,  9.867856704002334,  3.832100453038408
 8.116113750416549,  6.105545870511577, 47.062947877547003,  3.931587322625205
 6.051419775651151, 14.902524379608169, 29.840000457302079,  4.014327823668704
 1.162831857094352,  6.568882090688687, 90.579947596382183,  3.997755958467716
 7.107908497869477, 11.886662640699988, 16.230322341501470,  3.787022991687689
 4.335192880437043,  0.717720184937104, 74.435308151101168,  3.859837784320587
 6.378818968530336, 10.879058882378777, 83.032094918357558,  4.096182633968610
 1.770445686123327,  7.422840915781991, 62.878818629442655,  3.873702167312246
12.405203161872498, 14.535352823772625,  1.377373028864738,  3.911419959188689
 5.994616185720111,  0.992380322779330, 45.442363214131824,  4.200601725008198
 0.629268922586367,  0.749707879035163, 47.372024798916406,  3.588422667795502
 6.072085269697505,  6.497263681572035, 33.208991250369301,  3.687175783614900
 2.647550106680635,  0.457704928101521, 60.981547727893734,  3.705085463458349
 9.254251098292013,  2.248306257924548,  6.322065768005575,  3.991519877878597
 7.332711027548359,  9.164357702288612, 77.300737718671698,  3.900729414903173
 7.798580378549429,  9.254982456012373, 22.270116426248254,  4.257214263530421
 3.447417123300792,  9.968806730516253,  2.510979733035532,  4.271825549442746
 0.335228031532944, 13.551957563501734, 81.526994081137090,  4.195362716746612
 2.931521349763431,  7.780213321209862, 34.870432762642814,  3.850858183066772
 9.673509144328063, 10.875941218405552, 13.432624613525626,  4.039431339744134
 8.134732549099372,  3.025944541407679, 70.015776785935230,  3.822551512017651
14.825630443941273, 14.712541914507201, 23.236793747590710,  3.925658666012939
12.028924548537237, 13.170593443501671, 87.536340079004461,  4.113157397969190
 9.879116421298512,  2.701494437815932, 28.048118637630797,  3.961140184728000
 2.978681465162226, 13.585775020503482, 40.228666937883325,  4.076404674883168
11.377401311102783,  4.592329145214084, 68.086484748359879,  4.330642518737859
 2.059253827266549, 14.869256130632117, 35.980229312362496,  4.056328705397952
14.748842444684167,  7.521951615726484,  4.702771287435435,  3.878630877575434
 7.313693615803947,  5.486654640843811, 66.861265123659592,  4.332791931124760
 7.469397731523679,  3.078547747862451, 86.452448923817244,  4.290749846927771
 6.157139666085601,  3.969493515414440, 49.736518416277889,  3.929533951582437
11.859640099762490,  5.811904614057727, 35.210183449659986,  3.766576168002680
14.316583778968646, 11.170644941955105, 84.771860474235808,  4.050156935059117
 6.477750978448370,  2.022849061582946, 22.826623934784251,  3.716636714124538
 1.611380617459613, 11.946478945260740, 77.953087815589328,  4.006406932550263
 8.652333287818029,  0.199193303826073, 72.874083441407805,  4.276891986639969
 1.953966240650663, 13.406723962489776, 72.236668246693625,  4.090433819090918
 0.789602646894498,  1.976627525930624, 15.181719432619181,  4.056630662402174
 3.953759450194551,  4.580293444463978, 46.391060033448177,  4.118903228655796
 8.580766950493121,  9.723897969200875, 26.292918837833710,  3.991036336587628
13.197046598749658,  6.465094190295956, 71.511590042686436,  4.173017637513431
10.605525029067524, 12.668537277891884, 65.796507066964281,  4.051450424136493
 3.931105340161515,  3.682296032462761, 34.939607916298890,  4.066560088077531
14.721027346541883,  6.583516608144330, 51.858554025565915,  3.876282153843565
14.295152318047617,  5.822704383881815, 40.327481507563718,  3.891089224184139
11.376508985846096,  3.418852847160581,  1.304598723028387,  3.989509060895752
 7.979171681772803,  6.006778616838239, 11.621141002379542,  3.834495982607966
11.574888361362314,  4.559535017296995, 10.941269333606133,  4.025371815974788
 8.910340062213182,  1.478983503930289, 20.067179509675974,  3.718758014288188
 5.792238704358548,  7.251424388558184, 63.264057785559309,  4.196177658637884
 9.123268353215879, 10.167737824929908, 63.032201972634844,  3.946051950257072
 2.785450543302652, 13.634227512159365, 67.768001118276047,  3.985971724007684
 2.566064875098006,  3.094329173263020, 21.884170184796027,  4.208610255137770
 1.043159653784561,  2.775230835556918, 44.229937838603313,  3.866794927556429
 6.524596758376245, 13.732484740729371, 42.084784947255514,  3.931103243152761
 7.302037681508048,  9.631485251736136, 30.032613456472006,  3.884887256963826
12.904531128579618, 13.267937900574568, 78.352017251666354,  3.834830799889475
 4.884296590666228, 11.761532317213327, 49.431174432213794,  3.901525655127948
 3.806496506231006, 14.182888581558659, 15.953337099940835,  4.274363846123906
 5.802947691560591, 13.371237211416529, 60.380370324462476,  3.889750301543051
 4.520057631334113, 11.516955756037710, 88.435232860296651,  4.259116293501447
 2.031347759645545,  5.626138748195067, 72.463955442807517,  3.878277324360493
12.465865387379456,  5.685430199409079, 80.262859389898324,  4.194785576434531
 5.260928816162177, 11.903996542435319, 79.372110762426345,  3.804666225265168
 8.901791994905704,  6.912321268195552, 70.666613725340142,  4.184362610249345
 7.493640393503968,  1.213156048627160, 16.381167791121129,  4.181807290177941
 2.304840782519579,  8.242411263794029, 38.781648694042765,  3.955076413337279
10.593112532299640,  6.842965817079514, 64.644488386257052,  4.006545515000099
 0.883373518043938,  2.078633607538163, 39.327916651371041,  4.288163617907375
 4.874032192425038,  6.679852288366520, 69.971989546989846,  3.919092440807204
10.087592035796817,  6.690087508675210, 14.904607040837185,  4.079517444807482
 1.678752870260301, 10.558988191376667, 27.419791491926670,  4.045076384360328
13.325158058209443, 11.251570823151635,  6.982756722548756,  4.143239585168535
 9.038219981424767,  1.863265884903121, 51.543495892121534,  3.921283526659962
10.985779529106130,  6.838230367797224, 27.917587981166569,  4.167598547778230
 8.040415219621615,  2.453528943778815, 10.075909460696066,  3.877754991673200
 4.296791641752596,  5.554138863349729, 87.619159708082734,  4.029885250416328
 7.850731487005540,  4.770235954687736,  3.280023812695941,  4.353604342194982
11.282360259245095,  1.268546041365890, 70.039913916186791,  3.374227395197004
 1.488450342131244, 12.842209370880745,  4.925623500988778,  4.053945105535893
 1.866129295910114,  3.387356812182563, 85.299655481724500,  3.964016048175652
11.318195959285603, 14.429001054096087, 81.739181472264477,  3.959550735380231
12.079952640501254,  9.860506279163497, 16.514601410784831,  4.008899820393530
13.940202666425115,  2.931195617369430, 52.542144628698495,  3.711918984088438
 6.662318985687889, 13.105635199616648, 23.231272869265467,  3.956314897188991
10.361655264756017,  9.013551842912346,  4.996214533700270,  4.265676128950313
13.422237127906715,  9.267927317634596, 92.308953483704926,  3.706457651185293
 3.810246231793083,  3.260960788962021, 30.757249807513610,  4.292244472255855
14.522638149581672,  7.952078237111705, 29.737497725893011,  3.979406220604738
10.618896426796843,  2.100591553660764, 89.008487573310063,  3.984446833772100
 0.265375191428414, 10.701479137544474, 88.939021340163094,  4.458265549585666
 6.475833695962101,  8.500679170989173, 14.328036374629320,  4.078730137028845
 4.304906882648663,  1.247489399229448,  8.696550631156382,  4.210009785275967
12.712922531069221,  0.216182412324773, 26.598182417736361,  4.038963932332465
12.515519810078896,  7.653955951391040, 83.827421130679170,  3.945446557456978
 5.355218349403135, 11.293277781342146, 63.715719073443267,  3.970345758289538
11.044552622491899,  2.366618015243116, 60.197166677416938,  3.904992679089045
 6.741430242689479, 12.602004583893427, 67.335399357624368,  4.141122465030781
12.698991921135237,  2.019909060774463, 20.742251557226872,  4.006753900026607
10.791260964459086, 12.150525410786038, 23.614013867215824,  4.465275637542178
 9.820354663862384, 11.949106414718718, 75.458960449096608,  4.050819039730113
 9.184255487341058,  1.257222362059540, 92.639173500341471,  3.960827485397384
 0.468483008475990, 14.253388005831267,  8.526072337566807,  3.859007635582056
14.717541625192426,  7.241623498852345, 25.853775741941249,  3.753659702909907
12.955089343843522,  8.818122745411127, 20.338869785011660,  4.073859967490285
 9.281685962123914,  1.494794808013927, 42.960528918860462,  4.047726196599401
 4.604903068312933, 10.313720739019026, 41.898015465928353,  3.889866041751834
 8.515503753157905,  8.690892226959445, 18.154504332452110,  4.170130588769917
 1.365558036937921, 14.674422433960045, 28.133749051588300,  3.992179893536369
 4.128305738138408,  0.617789011949901, 49.091731156380767,  4.008486213171012
 5.908447946072663,  3.273640914061184, 80.179943591491323,  4.075545517167773
 4.964479304927464,  8.167394748725652, 27.173157246929605,  4.040205927386849
 9.297645953924109,  8.715408718790393, 34.221440527330437,  4.218971777435885
14.413488372687588, 14.185581927151983, 41.729050853875776,  3.763205814353413
 5.071796228790740, 11.057532148876586, 56.634026690195654,  3.880696105916482
 0.195771136881020,  0.297233437082532, 55.185043754135528,  4.163140460303250
 0.719429685538889,  7.313168298637353,  0.861515548387035,  4.022104184851668
 0.188735489034990, 12.755569109320659, 92.764255226875207,  4.139522938337712
10.137828117966308,  1.293088361337587, 23.698405037653746,  3.945616356303009
11.235012625024694,  4.876571460075669, 86.275253390294125,  3.883855551384448
 6.195899606919768,  8.067745443376015, 90.082495268829618,  3.967718295910376
 8.896828822676190,  0.631621341877507,  2.653272597777369,  3.860039306301049
 2.737187605823099,  2.835793526329334, 90.150348371291912,  3.658988744035555
13.299269874420782, 13.030916810081326, 34.144508508425531,  3.921224667740295
 6.266882407041826,  8.277191631533205,  5.035637369318328,  4.016406208288067
14.562984352674251, 11.380288289344247, 53.242113392436487,  3.913769611174521
 3.172135401843621,  5.723779175828294, 66.219969431899472,  4.024753151421248
 3.084542337189816, 12.879628715503097, 84.668612540067613,  4.247967789901413
 5.080899065062690,  7.963192465615673, 80.383226871990587,  4.096526497713523
 3.574556705590517,  0.208838404650751, 24.746942154154539,  4.120190264594199
12.501957171263342,  1.659335148100881, 49.224236043314654,  3.930911177204408
 7.040069458120035,  4.686791115509642, 53.565863034029583,  3.952387970020287
 2.811849251599766,  2.117492899225515, 71.219506014770744,  3.720392870586015
 1.535801081202887,  1.750120525872603,  5.730722080507451,  3.918642630549237
14.629710451344902,  6.897440137373859, 75.517687464364528,  4.309317041561868
 7.619980346748612,  8.001403964736108, 55.924715940464488,  4.172193976640469
 5.696747684233876,  4.120081573357207, 72.912470444718849,  4.048713306352281
 9.696411343889901,  0.600141757755796, 35.193011300951426,  4.026854816952582
14.935472516446820,  9.575769107164161, 13.740598436011584,  3.970306086134195
12.929414278294130, 12.990693667833977, 19.890818702351943,  4.264801341034899
13.656918492985451,  8.330828522498486, 37.432465483815022,  3.844757246992359
 1.306127818115860,  0.282977812811268, 19.116513731404186,  4.073227024669429
 7.923956757376549,  7.455392560210361, 85.739738700551612,  4.575668912535153
 0.138841226411121, 14.749294546546903, 75.553952698274216,  3.927285579787045
 8.988793450844344, 10.582312583955524, 88.460364963104283,  3.981929011806228
11.595099933381441,  4.443936099060470, 76.570733839161861,  3.766437063147151
11.048752546483765, 11.279349040272658, 36.970729487778279,  4.074394162549336
10.196654903781328, 10.983003513601064, 84.561922488378514,  4.128395459994993
14.707605152042214, 13.039502601846198, 16.006680810771634,  4.265700866665148
 9.364884516322023,  3.177229817374342, 13.662864866326149,  3.498104556274152
 5.797207737410284, 11.762724357243357, 45.419241418847555,  3.944823729385414
14.513111305565749, 11.505529936486255, 69.753530645226562,  3.857847443815158
14.233066091532200,  5.440654127158364, 22.102828508849434,  3.950134460619517
 2.711481948289639,  9.351469142124609,  6.531675326127548,  3.986369566169495
 2.436294143237204, 13.931227631890907, 44.376698384764573,  4.306420239806441
 0.772518288141147,  5.214018743073636, 36.754630094916983,  3.826456527333210
 4.379539718265945,  5.923160425966254, 93.023970626235482,  4.160425724025654
14.521831839098379, 10.136327224151557, 60.071739389373882,  3.770954767040080
 7.261655623934072,  5.568928946359309, 29.495384715676568,  4.259848513265568
 9.053210902884452,  6.439623221458905, 60.836681085388427,  4.064665612914171
 6.960836993599318, 11.365283185587707, 92.204351213631028,  4.011394950253104
 8.379954996772133,  7.369739698879473, 50.881956340369953,  4.093092475158683
 7.384258425612581, 13.683908735633862,  9.431860219331140,  3.840497020286318
 3.136238048113213, 12.242277876339633, 30.769872245650760,  3.983847853910187
11.742734552085619,  5.586310846395953, 18.290325381921420,  3.762389172946195
 5.441112775323726,  1.336690696432050,  4.625301871682596,  4.220564311795529
 8.541146677064019, 11.355663022144116, 51.203490489058574,  3.675229706795032
 3.678197617820479, 14.720857792655378, 57.303696954390958,  4.060120509449619
13.853971970840872,  8.905747464951117, 33.519138244410811,  3.879415314744337
 6.273194196684835,  4.645139251158095, 14.884642503313561,  3.682523896929035
 4.166210315347602,  4.835471373810926, 38.695386655751605,  3.734472568035685
10.891854983665738, 12.816629574538686, 41.392979639390404,  3.820065906210156
 1.079299250272345,  3.075274162499492, 25.784370342280980,  3.658024496125773
14.262464356961235, 14.698635024341662, 59.292013967336530,  4.000101358878719
 4.858794706224891,  1.515361641284707, 83.607862182624302,  3.841477831138891
 0.953867948346053,  7.358294708558603, 47.696085944625182,  4.146377395827326
 5.827109526366876,  5.646570199154598, 21.493915672571127,  4.077269783509839
 2.258009524375137,  9.909925727844257, 45.000824831549430,  3.704212547442929
 5.228410915380634,  1.284750508922814, 37.889991107591626,  3.845715197887450
