BANDS
8 8
NANOPARTICLES
cell(1), 15.020
cell(2), 15.020
cell(3), 93.876
 5.647580189338623,  4.313807094964092, 21.634949492686228,  3.734034359061673
 4.313046246958715, 10.730136558418847, 92.419176891756820,  3.742086779306807
 2.116283911041955,  4.081253813613502, 19.107977239837187,  4.258720236235719
 1.313532823055984,  9.169098046115952, 18.631902224391009,  4.158232220547499
 0.484201075457736, 13.499285856513685, 66.239654410648839,  4.096663061408718
 1.574865192079147, 11.000186292113439, 25.968468529347025,  3.710656187373775
13.351242492060738, 12.126894360376991, 73.611096293690849,  4.403619578465464
14.727595568841837,  8.777514498860732, 61.107988035142405,  3.868878315504498
 6.076339954971062,  5.241788512727422, 64.374343404624881,  3.762878233673028
 4.161708535597158,  6.423376641455472, 39.973988026712831,  4.016551880842534
11.060966713155244, 13.747454902402060, 42.884558878800036,  4.030920901018342
 5.137403753111237,  3.214898412713607, 91.445296126922429,  4.023716769637009
 0.789008406145509, 13.012992863485563, 81.622101839786197,  3.984099133466510
10.136157112384206,  1.299223435855847, 91.696256924174762,  4.051928561681519
 8.348133849086652,  1.524642784482085, 11.321316112596323,  4.342701580617777
 1.074101720528917, 13.627462921448982, 23.164026564013636,  4.035791911620369
 4.402849910867761,  4.936042024218931, 25.250735954659497,  4.012874177468123
 1.582133593427431,  4.623720899405779, 92.262154374746018,  3.796367209496082
13.407457332926112,  6.220774641202590, 81.585905918420650,  3.634296557195907
10.124132157702018,  5.323605687291664, 47.174990051463780,  3.824315262722424
 0.898225568750538,  3.649219802863213, 51.615443243707197,  3.814616041663448
 6.925546441143129, 11.370694860608481, 34.104290373485810,  4.221163314711663
12.597267484665606,  8.589276815624283, 64.568719801628333,  4.124606944892646
 9.290796174222399, 13.198103715409907, 59.138758255473832,  3.993574118087632
 5.214392340027965, 14.395500789760970, 45.441195024876237,  3.853407335839754
14.341154845365486,  1.300986027488625, 25.582039113886935,  3.994307299866824
10.915357651215315,  3.087103236158535, 26.541411717593277,  3.964243078344759
 2.423042685179330,  6.302301041457249, 63.968349031656338,  3.877473892163738
12.977609969169654, 12.238298105517954, 84.673933828825895,  4.430798949966062
 4.744063747163953, 10.929388850520326, 81.484156221688721,  3.950084456746044
 4.626131909292019,  8.880344600431094, 25.127599772071921,  3.887349479479207
 9.568406759154641, 14.696913641575446,  7.713291713185244,  4.116731128926989
11.380554556364370,  4.341228047700988, 71.887016659643237,  4.103022767373775
14.850229266617781, 11.008553293841592,  5.579615297080286,  4.026975008701100
11.385112625120115,  9.528051987756896, 41.506101690882979,  4.186643182600865
 9.990269422862797,  4.018447347071936, 36.532119887095973,  3.747075467708325
 4.532576930268882,  1.694833543606544, 37.962685453282575,  4.010775812592146
 1.614535829157047,  3.647476239053699, 28.014196514676371,  4.173154966353561
 2.518216788675513,  1.584537050017500, 69.984969919259342,  3.870221239361850
 5.605212183677369,  0.010261422235414, 57.632897654780265,  4.383576000604153
14.376251850384630, 11.685188662413177,  9.463635274985732,  3.878187837923960
12.084507194802589,  6.059485685750623, 43.573180185337613,  3.977508483759163
 4.251527593961768,  5.063859759615799, 71.008146442915631,  4.108149247611462
 8.692910619070389, 14.042013885026172, 26.777370802115019,  4.023539859940499
 0.350374292505076,  5.384461363346517, 72.321652030080656,  4.132909345357271
13.333683757021278,  3.348398192381749, 48.566829621826230,  4.189726356684733
 4.009347106102168,  9.963884243324520, 88.708855512024613,  3.786733685828523
13.787184286743434, 10.651736494631660, 53.659613151492763,  3.729874472804663
 8.848175570860560, 10.285521077671477, 19.836611405675249,  3.587221411659461
13.448265609274920,  2.973343188159427, 56.230217196739908,  4.203547468480379
10.749109405714803,  9.145819575379029, 28.768420129868030,  3.581641101994604
11.630126288423574, 10.276232162776303, 32.455003286977067,  3.902452750111776
12.737154519975556,  2.708621701465320,  1.109814477213027,  4.017355631778062
 6.835217564792278, 12.163940285578137, 86.792075086583807,  4.004702390972923
13.355285888347199,  5.488449713964697, 35.755747338451968,  3.722047969631529
14.036698222783192,  1.673177635755413, 73.201797840286062,  3.856885739454138
 8.816011335564854,  5.505405261500759, 80.360029074096090,  3.828303011574151
 3.738949516597893,  6.112431667815907, 43.880554975554716,  3.640349555005072
 7.057802087154496, 11.713834042115128, 51.323618861101060,  4.047793944661941
 6.786644212645406, 14.380672777088058, 74.559121956810657,  4.067730547011808
11.342062512997233,  2.505852119240174, 33.266576872007349,  3.910419394986626
 2.002464833163404,  5.145708912031377, 82.048700055467592,  3.882535396191157
11.988444154136527, 13.348006493429311, 89.179553411917524,  4.553520097581663
14.917623187275034,  9.758284391982620, 22.664455124959158,  4.035690202773029
 4.154297353223330, 14.635122204723153, 80.812944309852000,  3.630764898464016
 4.106612940180564,  9.938229451195861, 43.518592445346911,  4.074158063657380
14.456516166620535,  5.324033419771225,  9.808719077130387,  4.309538815183421
13.205933436599777,  2.021340607193796, 29.725376366157068,  4.146002912010603
11.004551856481731,  6.476960569950868, 87.683019278819074,  3.873681827552542
11.690649671058271,  7.289889415385548, 78.269846341195574,  4.114194814850656
 7.185476995030310,  7.686262231685061, 87.939291056714353,  4.146149790198314
 0.542214179853821, 13.811903818885646, 28.578913944190585,  4.169723187903840
13.130279602286567,  0.920404560641525, 82.537949601081422,  4.119116176477267
14.532556189998422,  9.932813432235299, 67.962805267105139,  3.982273900583311
13.251450512955829,  9.217621893330262, 89.015652116039902,  3.677252348849644
13.456737785149931, 13.101377976607315, 16.920990923951702,  3.866347164917692
12.402969474478112,  1.119778508959018, 65.275896125920426,  4.114488935422263
 2.308872665831261,  7.316281968988349, 29.644301408168403,  3.937901018262257
 2.509831004100925,  4.753616622817920, 57.004554366951098,  4.233943015751755
 7.598851069572196, 11.913139039753126, 43.616718048319548,  3.936556456472117
 3.961739845908363,  0.921129943353932, 17.545452359705905,  3.595347598162580
14.284714842109945,  6.613054076607961,  0.679593195784502,  3.741484848038183
 7.850444369820448, 10.228591130334573, 26.777119310864663,  3.774200513670765
 7.808235032015116,  0.928526576295100, 42.288701886958023,  3.887693959681907
10.617074710877922,  7.392439810182209, 74.419763864365521,  3.861856572622126
 3.907442461617249, 13.926903103486403, 89.403908173274147,  4.258973431088701
 7.456108476162315,  7.018831742984917, 76.879218460544607,  4.179516479710678
 4.140343924521092,  0.696503889795381, 77.202862102401937,  3.867637070048701
11.136580334595200, 12.289307884207698, 51.219365744464135,  4.182279785539968
11.669366497880409,  5.210764956945657, 91.914806824583920,  4.174687387513353
 1.993512516737948,  1.373316745033967, 83.322049259294189,  3.853463193146580
 6.297017164637833,  8.706263848945754, 54.496834461245072,  3.761861410522105
 4.626755062222649,  6.802534737956874,  5.811018990967258,  4.200208505549185
 8.064568388164654, 12.370459750848516, 55.299563778870763,  4.231233229619435
 5.951955104722980,  6.674614755290950, 57.651273172720060,  3.734943922887860
10.799648932331724,  0.412289576746516, 14.781538361871590,  4.395432050028116
 7.806152836071767,  6.520194143004755, 51.748675758569313,  3.868498845572780
12.753755108053353, 12.695585192668375, 39.382263206692251,  3.881306758950761
10.959907089208567,  4.236207770578487,  7.547958076156252,  4.287748423980696
 0.373950866875661, 12.364429016662861, 42.452136690256737,  4.220725739504995
 9.288205014966373, 11.658185703524815, 23.573934565831173,  3.707979652865754
 9.844552874093129, 10.480887806623031, 62.214983934808352,  4.012701121887857
 3.663294944884707,  4.951527916467724, 49.287325464725043,  3.844627049420130
 1.234354239491437,  9.080569388529760, 82.671153487244752,  4.165656055361485
 6.728148791472430, 12.898433398939606, 78.416126351031906,  4.147149294222617
 6.541681087202927,  1.538367257248544, 70.933456815806196,  4.103229167883495
 2.475820137366969,  0.186543588312609, 73.519374194053000,  3.691495463395046
10.248268436962377,  0.778662699189907, 49.429389347183097,  3.894345996294921
14.777615373781938,  0.564170884837559, 86.375058960787101,  3.882225756021014
 8.703266281690640,  4.306040439177757, 68.802008965639786,  3.979298747835295
 2.763736768464909,  6.933006936487720, 22.134777882126418,  4.077029314900372
 0.727239985661302, 11.871204211574055, 87.817646354318725,  3.951457763914870
12.132758497206527,  2.207085543681379, 44.705417315549973,  4.053350185584854
 9.406560055334799,  3.904726736914275, 22.320650059717831,  3.945122623025240
 6.176655684435485, 14.777609747644936, 49.106736535205492,  3.717033780358316
11.374976391602251,  6.978028865747654, 61.216252245056438,  3.679484354803388
12.854850621583624, 11.160183843205781, 58.301758839329068,  4.381120118779553
 2.101691820840740,  1.141378423439458, 31.405477946269137,  3.786263796737175
 9.486045580566364,  1.768235659855642, 57.229076197681358,  4.142533576596312
 2.654455261445615,  8.112184470508192, 46.958186466611004,  3.929106745401533
 9.043427248827463, 11.231622872880983, 83.621837179016168,  3.926449831269549
11.487030217311970,  1.659337600974404,  4.593508573516755,  3.622757948470349
 7.484995239022278, 11.642847126440962, 68.642417110909264,  4.172647477344208
14.583490293484878, 10.980277219350631, 49.514141791528168,  3.913518675469112
10.854321626652910, 11.201807764493106, 14.467001330913559,  4.066589868982598
 7.804996485606689, 12.350936187727427, 30.258710123811227,  3.899390025363173
12.362915173834612,  2.288220983716674, 52.365758932088667,  3.918664960409810
 8.038762293998646,  4.845771138876695, 43.648444960922262,  4.394235189803751
11.580390398504480, 12.846410481306741,  3.667215287010973,  4.254387669630908
 4.784767893838659,  8.565505945890804, 50.327351235230971,  3.955912922786558
 3.700610401124294, 10.876283549275016, 21.828069017556960,  4.020897257424399
 6.597283554421390,  7.092828967624414, 13.554361496157322,  3.825188966257303
 0.567553286910404,  5.976996777663512, 78.412035864523077,  4.073504941739831
10.347850896969295,  3.099748037065536, 61.406901852635549,  4.265912277739770
 9.590827968880728,  7.770645804855574, 35.298951090371972,  3.812501886788699
 3.818801352921260,  5.955939592921910, 53.263256382879376,  4.029884332877128
 4.830083481825988,  9.175624597268788, 85.039036382957775,  3.894029536886273
 1.771209870097468,  8.986931557954570, 71.245097646579154,  3.904215267378905
 4.576369822513518, 14.872799018114373, 28.563703559543775,  4.100676665467118
12.722275567482653,  1.532774348337101, 10.132780902202098,  3.908688387741211
13.797059365736814,  6.288998000395817, 19.912233328974054,  3.902554443985609
 8.516402044017534,  1.029827354749981, 53.139385678957780,  4.283139468061122
 3.198958760062970,  9.906263933504501, 35.445154705197943,  4.222597214266446
 9.242634202192878,  1.091449015454233, 30.196212134041211,  4.042625696875239
 4.229360712516372,  1.987762411665475, 63.977423423912413,  3.748142840458103
 8.043968069456493,  5.712545157987763,  3.823408724902392,  3.950622409901830
 6.451228529667635,  6.821266911434477, 47.091404507767372,  4.091976712567457
 2.314335396799750,  1.079911223056492, 48.715409526970667,  4.404108534378616
 2.432860694518227, 11.420727386509443, 74.320404902902354,  4.027527177689336
 1.435313972572681,  3.790334258253361,  2.192771835141779,  3.991214822185870
10.245022726927997,  8.957031561619305, 54.138185839271635,  4.180927276877482
 7.228313481237248,  9.610479065822666, 37.692662264317072,  3.762649959055458
13.925830817223996, 14.034054339275926, 32.588118641453036,  4.247318054377579
14.012070419740786,  1.230748274412827, 20.588288686054657,  4.411994403834961
12.555390273356991,  8.716826973855765, 25.692979569759309,  3.598507843186253
 0.448507181838306,  1.312596771767255, 16.471103126311100,  3.790842284649486
 6.149723920234317,  3.504637164606191, 55.493659582721648,  3.840279940958791
14.452802874612491,  8.291753019665808, 75.127643192920900,  4.133251314797617
10.162755493395720, 10.188676404420221, 87.179149560207094,  3.759826352184330
 7.042589465301799,  2.726268174301861, 27.237476583541554,  3.920516388851737
 3.005498497615349, 13.968586828123721,  5.111301455723310,  3.889798547333782
 0.366142272836029,  8.356079461023706, 43.533064119610813,  4.023710144291903
 6.364481622458662, 11.584041787936332, 13.864479222323629,  3.922297971781185
 5.483293773792234,  1.824190638445705,  1.769696301472765,  3.685838227090709
 1.414787903708273,  8.044441893185716, 86.581790881723052,  3.930643205737358
 4.616398725853181,  1.471676078163982, 86.242324301603404,  3.895598218144005
 1.754002023941027,  8.579768306579652,  8.343130962240291,  4.196860241756656
10.656797353973475, 10.795853066653184,  8.145272127771207,  4.019779379473381
 6.194986146236043, 10.571010815510105,  7.135943971305741,  4.249366239737125
 1.335976523798829,  3.470337843158126, 22.907868676823178,  3.555100846801026
 9.298202519294744,  4.991840582273044, 29.558090370270097,  3.859932751512530
 4.422498453182169, 14.344129145845582, 67.113784186346237,  3.996342343528049
 1.319995946710889, 10.016654500939531, 64.456778036236372,  3.883764411421571
 7.333172175434034,  3.481884852869467, 49.255878160800144,  4.047344684456249
 1.981077887249475, 12.119399400245028, 46.378411026283416,  4.269156117062482
14.762383118032743,  9.810533820019229, 78.792755582298369,  3.803337030075074
 9.464000526744465,  3.771762646538305, 75.402077148287646,  3.981057057741688
 6.520265945514682,  0.080275461035839, 61.640961046189453,  3.825146364009606
11.975886700106715,  9.793850077747587, 81.454524901911611,  3.889199108391774
 8.230636681671825,  9.468701352177181, 80.114087505446477,  4.066753990376522
12.505954323194285,  4.541976490532165, 40.022230814467363,  3.761908789498723
13.706453500074986, 12.514086659866571, 62.497661390792139,  4.360237019023422
 1.662181744689893,  1.039929170121772, 58.555868945072888,  3.949547675129295
 0.831261666258303, 12.962741120018478, 70.281802143431690,  4.086225413148389
 4.526738688607195, 11.120469784880475, 56.847687898907814,  3.837868040958378
15.005930346705963,  8.199775758475472, 33.574312430012000,  3.950306442714686
 2.387902381035820,  6.768044307459418, 12.219265315549395,  3.826141400023541
 3.670538849184539,  6.055320284430700, 89.086191313904379,  3.893584337412813
12.445747947245286,  4.056078454114993, 13.298352530590535,  4.130984194985929
 5.803232360260989,  8.992270420647301, 71.492509513866082,  4.169140811045337
 9.253804447995829, 11.816072375543587,  0.067594068223168,  4.013871547588161
 8.066992610167386,  1.905327091831269, 64.778126133209341,  4.048219777251403
 1.136203432939776,  8.710836119000275, 57.184970973841729,  4.136094892631914
 2.649902352504696,  9.928769795984500, 53.511054302744036,  4.174328723804428
14.494187135790838, 11.652151116790257, 35.963447206260810,  4.068760537720632
10.185580290549147, 10.989859355831351, 76.577923553412930,  4.559131540881566
 6.586181528198176,  3.484329182909707, 59.743284132083453,  3.970442468383820
14.576424785334583,  5.609520551593069, 89.090373981435278,  3.969675776060419
13.937194985510169,  0.995570468301931, 41.270253138739150,  3.966095975286300
 1.374879651622121,  8.470032864769740, 91.205811596426230,  4.000529548332078
 3.706905324395085,  0.995174912019133, 21.316941988094925,  3.957643941974334
 9.399728293834043,  2.323205606977514, 82.417155620983536,  3.834239189788486
 1.047953817073578, 12.863947374364376, 55.879092488182245,  4.019031140834795
 3.552652701318531, 10.446116633512970, 67.947365250842736,  4.137467414543097
 8.390532268535983, 12.963099632932712, 17.167481513702118,  3.991702289423727
 0.010270003571334, 14.742322460948765, 76.573450338401372,  4.182132681528080
 1.239890150319276,  2.868506778604041, 66.383869573245150,  3.993626651065201
12.036211539636387,  4.289739344321573, 84.561474638325024,  3.962238927767558
 4.574757139032983,  7.004592564920600, 32.877655461958376,  3.967569426345777
12.040135333285084, 14.078023271775466, 55.036146920199002,  4.438321350534528
10.482555458918023,  1.366256671611018, 39.488224702437137,  3.817077950416365
 2.017306392670814,  2.513096296467232, 88.975472383894413,  3.927326989882619
 3.598802807210356,  8.469158632310835, 78.710909156244853,  3.744121016202293
 5.432705704999769,  2.988898976616045, 82.174434210425090,  4.074071417754466
 8.633865341819794,  7.531152669784396,  7.850963184808710,  3.634776338744924
12.985975855752125,  8.101710746132255, 84.784466911195395,  3.815985329623269
 3.185911303399077,  1.231099813230933, 25.145071033528229,  3.777421420401980
 0.929412398356349, 12.363929696827238, 91.700101719092586,  3.883858308716292
 1.370123942506800, 14.186823637091321, 38.610637955234651,  4.127239053965560
 0.266278520170986,  5.956675339897725, 15.775479855112524,  4.236291397325964
 5.898087589248352,  0.193609812697015, 32.547110549887194,  4.311954934645613
 4.182482903885256,  4.605674315366991, 15.433423774886874,  4.047266960504878
 7.739528368619113,  1.965219709199963, 78.752785651961887,  4.237332266954881
 0.592834978653744, 11.702652152660985,  1.705567800996606,  3.980748635540068
12.365445223672619,  3.248035121527277, 79.127661673264186,  4.258505018322835
11.648677330361304, 12.810320375348578, 29.335446072091052,  4.031240286729097
 7.696904326251298,  1.908836321788618,  4.903520218507754,  3.972291379529907
14.429214454374716,  9.921816618978589, 29.022005616337964,  3.908511755917540
 7.471954717669587,  3.983775604353759, 39.531736503940678,  4.051174379733816
10.261470189486381,  0.378539978215059, 72.532790239419114,  4.217319383257108
12.771787073460501,  0.297693596221952, 59.389575988612101,  4.170939434442260
12.702791757530388,  8.633695916075602, 37.492759173417539,  3.549516014046079
 1.437024603603860,  2.825250191650468, 12.816675377231936,  4.315088137717246
 4.396494718435175, 10.714300192182460, 28.762651331057395,  4.229761189522616
 6.260643881755665,  9.474255384528423,  1.716454646873075,  3.969212036127862
14.356083889903791,  5.121112339430826, 59.613619737802161,  4.012961412326049
12.486013141452306,  7.301838820768986, 56.999026643068902,  3.729909408561976
 9.374703623271621,  8.625431526002021, 44.961799010034241,  3.985914153961787
 3.591407302413416,  8.719741973890327, 15.323233586281795,  3.858528282154844
 7.201902231533060,  7.902606157368862, 22.289999749647251,  4.002525275731147
 4.869343932894603,  5.520972143043733,  1.622836405535286,  3.781821873376285
 6.188100501362674, 10.489814004663213, 75.227235882118492,  3.911148388088739
10.935602953578270,  0.216886091546444, 76.639165129281793,  4.066651733794022
 1.553952852287448,  0.821873871145474,  9.057585276843582,  4.153792883429014
 1.687436676655706, 13.239932534391247, 19.181241346861295,  4.036292128836232
 4.108905997725706,  3.407147441081279, 34.404334644381400,  3.898052167741673
 5.147392928765051,  4.082271968254988, 11.629160088878125,  3.866875624532002
 7.427958937166557, 13.032916646629403,  4.046756533145637,  4.010089301660253
13.115207020934214,  6.043852491805359, 28.447775308079621,  4.018678449742935
 9.540222324187607, 13.892921943567776, 80.950158396864069,  3.668960970291948
12.917902316956500,  9.273181257719916,  2.802196500898840,  3.569907093702167
 7.976535631724031,  3.475298540035565, 85.846546089876355,  3.940762233942372
 6.858745228487330,  4.166636050687516,  8.077717748238610,  3.979400021094271
 0.870423613490262,  3.244846822372933, 38.578110865329791,  4.034859050517998
 2.994013178090673, 10.669386274011057, 11.921172384782757,  4.062894167605884
 5.504923426391606,  0.338502691333801,  7.922896368927237,  4.123433112697951
 7.285351919473587, 12.771118678368433, 10.302017497186108,  3.752550464337677
 0.805751505317041,  4.236219482912349, 85.631735973573086,  3.876633297452285
 6.100153998637084,  6.971353331753642, 28.286833093342601,  4.042216609925927
 4.732000806698688, 12.936151518638379, 71.377457351564303,  4.002332746747318
14.472715030379554, 13.988392071899678, 12.870088576270041,  4.342589407783031
 4.530219371992525,  5.310087919744221, 85.374126497597430,  3.852805376645263
 1.907059004053531,  6.621675737733610, 67.952512204200787,  4.179354398575287
 9.919617252000752,  8.655386821189101, 90.715205210535188,  3.876845045600167
 7.877643255191800,  4.516025434725941, 33.257052161209955,  4.098413482390764
13.475938157226787, 14.480615129818686,  6.892145583611004,  3.877608442070229
 7.450374583059570,  7.192271082598876, 61.238357924330280,  4.088923003915517
 4.334035676897871, 12.914792882167250,  1.636518358905876,  3.823501181921422
 1.546444002059527,  0.921518789799107, 44.436925974465225,  4.267056807304492
 2.042026588120168,  6.126667767672712, 36.199853729654620,  3.795148706392116
 9.284032374109012,  9.472676197308475,  4.573198641009911,  4.070346417392575
12.686659029747618, 10.862898760753296, 45.175612467351264,  4.015977200069733
 6.734125825237244,  0.793788604622821, 15.067245036366613,  3.789570992171342
11.944687691592241,  6.482808015657769, 51.102529476675883,  4.336249016370411
13.038258853397434, 12.479253948378929, 25.579941324658318,  3.987778630589320
12.327936987319029,  9.356396134288678, 17.826617060534002,  3.992512235224101
14.873899515996662,  3.253353363529528,  6.012983066387283,  4.344262513142490
 8.919868371449480, 11.474295456857549, 72.489644014362725,  4.040782466488667
12.613053358083240,  5.851141733291182, 67.984403706786509,  4.569326833699082
 1.361685634852580,  2.183648986263010, 79.542652371066495,  3.976400821851497
 3.473836760727554,  7.769903042702901, 60.437229545267449,  4.037188341988531
 8.213759190664343,  8.287437613381163, 31.573780813518056,  4.160041218827359
 6.290680969900150,  7.215560980908386, 92.065055420881748,  4.347531967885188
14.052687671520872,  1.862026093381166, 91.359704679053010,  3.797259486718449
 5.258267990505647,  9.125653256966160, 64.387337668386351,  4.161951445533573
 7.213821930500464, 12.708638859972494, 64.692863122580931,  4.018366228310211
12.965786810340902,  7.834703138210082,  6.971564063667248,  3.824623971381055
 9.281933997265380,  0.484384878682654,  1.602608383362754,  3.866054154610038
13.012483703182617,  9.891356385798947, 92.845232017749623,  3.999945079794677
 8.683659972150272,  4.049384937589391, 14.674667801090957,  3.823293079298311
12.258711105072113,  8.692516909639995, 11.399934245403038,  4.339802116451393
 8.496566864091186,  1.475713532486917, 46.055615001259824,  3.833183211608206
10.893070700534969,  0.297903751170527, 23.537190067287845,  4.211845025326120
10.439929297905760, 11.489027398085069, 36.361031454387813,  4.072822861019957
 2.740565229507775, 12.206197858863680, 78.229521449253312,  3.953795283094394
 4.471284366057003, 13.616811858320133, 41.472915211322430,  4.360030070141521
 6.831033783179913, 14.493485570686468, 83.553570900584475,  3.937825691057217
 9.895929487749616,  7.812923263362533,  0.822387255749713,  4.220937318782798
 1.026606697977421,  7.116726345459934, 25.840333628665022,  4.083136756587191
10.900085306790372, 13.291335593757053, 11.126268928411690,  3.721419053478777
 5.081349163508538,  3.217254712926266, 67.523902991042888,  3.937074835424193
11.829611357120710,  2.619218309779075, 88.203404633374532,  4.058566716391760
12.726273892536828, 12.967072704481856, 79.281469256946153,  3.754128199234363
 9.861644375433201,  6.952429289992695, 38.938837130192134,  3.652636096131813
 3.421500231281518, 13.223335184376419, 63.340528798592594,  4.092569144086936
 0.632487557596822,  1.191517707673167, 62.760164322230963,  4.003622512766974
 5.929521432187568, 10.893300229862263, 47.247961231417584,  4.091666336416519
 9.591056307652883,  0.292749003968666, 68.315703033487907,  4.297647967605484
 0.188174351168354,  4.814070273877795, 31.685164530572234,  3.742193664774982
13.000245897959344,  5.229858647003319, 23.743005887779344,  4.204467396693179
14.863239587451936,  0.202869232343150,  3.268946310756749,  3.845805297450005
 9.896946288097242,  5.440344547681280, 64.733599029669350,  3.911758249840618
 0.300451386175615,  7.005558747371246, 39.453269910316799,  3.757161212215259
 5.372690330682554,  7.508822262357803,  9.834777949534709,  3.879738850908530
 4.443020652836706, 14.989974647933311, 11.918121657514948,  4.147359061625269
 3.065446266623141,  4.373646211847145,  8.477013825643171,  3.651487939655987
 4.955981632502795, 11.152027810869345, 18.061007109805580,  3.937020855518932
 0.574875549171788,  4.464042889497089, 42.430291587814104,  4.060956180820047
 2.559142499151036, 13.934912993614740, 34.686861645788682,  4.008575111257366
 8.906247480622834,  8.956373264552649, 66.019112550525819,  3.829084889149656
13.569391415757107,  1.626236192210219, 69.211164865216276,  4.156706873403648
 9.607350326218164, 12.757104849873423, 46.969922191639604,  4.031077277836514
 2.592912919511098,  8.469713345298937,  1.011058913853332,  3.743348997492379
 1.888974289470822, 11.874121726286926, 59.757515709012381,  4.139169758105348
 7.852751657940908,  9.172254893354348, 16.472654666454076,  3.765614765041535
12.829344792404312,  8.568293010011306, 71.345870358177748,  4.062908554546837
12.135926816816481, 12.283775685903011, 20.774194624113221,  4.324842939283108
13.736870654996569,  4.699849638717794, 63.655992993939982,  4.180170564514632
 1.668993616691176,  3.336242258554160, 75.572262470247338,  3.986730580995456
 0.787105432019083,  7.236710040126205,  4.248323199690212,  4.060932588193031
 6.813056933305330,  1.299943762444297, 23.653416445632470,  3.793047978565354
 1.356678403733573,  4.526228176059361, 46.274283384919400,  3.782483716675137
 2.609229098980786, 10.272702475534686, 39.579854787905823,  4.161585249888317
 4.446043866265565,  4.590373998907361, 78.464080903854267,  4.136639101429732
 8.249357040316504,  4.050989086567104,  0.165808321874193,  4.073097729850803
15.011708406729374, 14.268190711110256, 51.857751487156840,  4.193860445937680
 3.412882616124360, 10.270238539006035,  4.217078235665064,  3.743616141749843
10.003938871317168, 13.688839004015071, 33.124400567312179,  3.698560867625624
 4.999433521028552,  3.233293409368019, 46.022582203463358,  3.927061125581018
 5.205820948929200, 12.875471821863544, 25.016039581674608,  4.029634040983952
12.255455182101242,  3.533826744582176, 17.404146069565094,  4.154700303842343
 4.294433789285073,  2.822584690287678, 41.873730133752602,  4.128929300016255
 9.534083649723863,  5.513184870083509, 58.357482078074206,  3.680193259018309
 4.454233864068925, 13.700559781572661, 53.825662207327341,  3.998524105433394
 9.341528255586853,  9.157148234232807, 49.028504278069853,  4.201913401141008
10.093179601781380, 14.370228267608784, 62.695484963525438,  3.663248228397701
 2.842514689841110, 13.074132351058951, 15.222629563387695,  4.109871250200236
 5.152278207871209, 12.840812791742604, 37.462032757730832,  3.888982085985598
 2.367294045263646,  0.789237533968640, 93.374250264395783,  4.276174341856857
 9.884637937342216,  0.885003583188109, 19.528361187582988,  4.113557448202303
 3.219302311916991, 12.349393630175230, 50.306137913871794,  3.931940646419240
 5.982134773322508,  7.087072010565539, 67.868819253413349,  4.023065454906131
 7.789338435254201,  5.739369353930842, 72.520134875037911,  3.701708122242057
 8.866476764083547,  9.331736821283078, 58.030170099725453,  4.094148834443526
 6.830768768275983, 13.387546572815948, 20.959973146432091,  4.145593132440912
 6.053196420920401,  6.143142532273370, 36.469305315299238,  3.953162758808464
 8.311665393725713,  9.351731553650739, 11.181262306056555,  3.549404768241582
 8.143085866783077,  0.401770806176330, 36.259675476697225,  4.367357167347521
11.122353612737641,  8.504998996005478, 22.230345525657821,  3.901339449241829
12.349679248879101,  0.093424384309800, 36.278542299017282,  4.020264762050126
13.150049444081606,  4.668570172858419, 75.556277768046769,  3.575020940820929
 8.480916096782966,  4.281845251527451, 89.641158843665934,  3.867085265700995
 3.299103430117063, 12.918077566593839, 84.849398118619817,  4.166705582218863
 9.346639705087936,  5.638232515495175, 11.133916772787275,  4.048639043717730
14.855317296733620, 10.028472186300268, 14.564576312497282,  4.239618435171496
13.457916177311304, 14.300897344902033, 47.376871813599202,  4.288917959552517
 6.538885502906084, 14.579013786266266, 92.629695976560598,  4.141522833824286
 5.988674432708840, 11.142478773663628, 60.689148842493367,  4.378748190084145
 9.227932928538671,  6.677080245056906, 25.636035736126416,  4.170824875382418
 4.918748692227985,  3.763191709866833, 30.499594791950859,  4.097186401093214
14.918161145635889,  6.233055590751162, 54.301518097244838,  3.834521630146273
 6.895305444538330,  3.280162245743243, 18.111286363589649,  4.017444931675485
 1.843732393778692,  1.507360655969507, 54.661392572838956,  3.864414198034232
 7.413309384392110, 11.440596109771551, 90.498041504715232,  3.616673509934149
 5.477232218953018,  7.016868217581708, 81.783952637991689,  4.019223272318269
 1.785370055151512, 11.224400620447250, 31.842502461357615,  3.888016612594678
 3.610014803879298,  7.122351876508764, 74.780348068373272,  4.565229737951407
 9.539704759996457,  6.424328405218446, 18.980671678386354,  4.374446401633036
12.063282649276205,  5.679286207542143,  3.782284036316150,  4.070634930926899
 7.611219405313462,  0.592830503945471, 88.637425557855167,  3.958067717891648
13.633768205219491,  7.369343763149732, 47.223092034284065,  4.297553191104982
 2.919799106424409, 12.278623384374429,  8.465992731355191,  3.559392883743214
 5.559904204393290,  3.262576929389900, 74.522476564921348,  4.073634156272838
 0.299192330326928,  2.313067713132797, 34.682500828274350,  4.047597673471845
 3.876809162568264,  2.813702000577807,  5.139383646443147,  3.863956278141174
10.736505333553950,  7.269999946442451, 14.911860551768857,  3.808327170238787
11.755683404416379, 12.096520345440544, 69.763459749351156,  3.920550079970812
 0.972545892032474,  7.458415422103813, 50.702165085907566,  4.016404793853225
 8.507871455078712, 12.889298999693791, 39.735428077415797,  4.191337146075723
10.117142778354042,  4.832565797882582, 54.535992508688913,  4.102623243562340
11.719685263562472,  6.333551252841511, 32.358568489781042,  3.977797911397828
12.774737036121969, 13.873259336354243, 93.650790590960497,  4.136359725442674
 5.212204417258805,  7.060341485982520, 18.708307567224779,  4.339406098016734
 9.010518839896012,  7.120962949121759, 84.120970941223007,  4.347487696688328
11.087332384291390, 12.271694558868729, 65.806656141208947,  4.088661335169640
 9.289499573504893,  8.067328399149412, 69.712266188120196,  3.786875688039347
 7.353523516637357,  8.496092493885310, 41.456274039150912,  4.087571908417719
10.130130175187871,  0.130458401055631, 85.596476361648911,  3.908082338306368
 2.856860184538561,  3.892763862101438, 60.948538981955991,  3.861106386956414
 4.649721071708260,  2.231644931580591, 52.007366874533368,  3.981780998607257
