BANDS
8 8
NANOPARTICLES
cell(1), 15.027
cell(2), 15.027
cell(3), 93.921
 6.303337158231769,  4.197184908280927, 58.647411299634150,  3.881292344141437
10.019297312132416, 10.207620552762991, 24.932877931985207,  4.262090074987000
 4.137399911614114, 11.787142237976044, 52.074246291141996,  4.239308375427473
 9.678028685793755,  3.898695291933810, 56.963627382466811,  3.648537832462143
 8.027284548486580,  1.431668802493832, 22.541083841612384,  4.060517778749492
11.069809458136115,  6.505252550970532,  2.177626390420239,  3.930284111350910
 5.536462824676459, 14.195127306871999, 92.420930930221004,  3.783048184226194
14.206470506750030,  0.827102857227121, 31.383339155622352,  3.806084208953945
 3.337234754668585,  1.539159034599288, 38.846652310953445,  3.856729439119466
 2.529552585801882,  3.555674620605258, 22.259910654652916,  4.088469654126450
 1.644869466452830, 11.034509032033750, 59.595147403818551,  4.287885431429914
 4.827038527769782,  4.155215811006991, 78.796622635949618,  3.837123230458072
 8.504775089395890,  6.286383509409772, 78.881069885000898,  4.303401696485152
 6.652892869327435,  8.996116552924656, 70.952887077997175,  4.093319962399720
10.719887786189409,  8.730385965456735, 71.212249859372463,  4.069492136017415
 8.441538149367096, 10.801373858599657, 61.432063729440017,  3.706050757221960
 1.667778174089375,  1.688431320024200, 79.270975610763955,  4.233722064835984
14.977819687463208, 13.105451678879565, 73.809300768934420,  4.488026352935963
 2.493538474336523, 12.037789171861345, 44.779043137306076,  4.291356265548204
 0.356818940491812,  4.033192439581563, 41.595011433915765,  4.010731269000553
 0.042599536892919,  6.585806963163025, 27.697289535082728,  3.690067947011574
11.001918301951708, 13.597952849637508, 13.657926238445640,  4.141182416313551
12.362582486980337, 11.871003534762487, 39.870392807855602,  4.123424514583051
10.222362057330715,  0.287745502836959, 40.700345773580267,  4.151565485388043
 4.338472655988736,  9.855025006434307, 41.791952905648223,  3.931931873241510
 4.842237208108718,  5.006096440433767, 37.184190074974317,  4.175632983009993
 0.652432592378449, 11.175894370231029, 33.663402781051225,  3.796098586730607
 8.005196459130490, 11.011717034433705, 41.071120259579956,  3.872477692194285
13.253315805340655, 14.428643488982347, 92.323301175435617,  4.017139856306022
10.239507030640800,  1.931865483376240, 91.204783236499722,  4.150415740559860
 8.443902047904011,  1.049431108416822, 49.213916070286757,  3.674608264304239
14.614844449832733,  8.383972872280113, 57.118212698222713,  4.046035161276118
 0.126217243313129,  9.803302967833044, 37.448443219183524,  4.318917572290226
 2.053088481123698,  4.153307936929653, 13.112306910090872,  3.762238976614757
 7.910722332776152,  1.272264531970213,  1.120019262317097,  4.390283331602872
10.557055387649550,  0.934363952096315, 29.774305522984367,  4.130093680652582
 0.033055382131613,  6.172815248023340, 23.765155743369533,  3.696048849992090
 8.984191444506248,  4.477242915978256, 64.354380050600028,  4.010857198448194
10.295844620681528,  6.887171061202381, 67.465717428187332,  4.284442137054895
 9.612079439297492, 12.821210734758280, 47.431488270602436,  4.023270095103855
 8.825794358461163,  3.238045037268576, 67.972736959700157,  3.642033258469950
13.886189118057146,  4.167606123952852,  3.552373496322983,  3.646000275110565
 0.091499376704313,  6.781714534105371, 84.387243280908351,  4.527904086416076
13.429696040991960,  1.148533178204991, 70.998083707046391,  4.356486689761674
 0.491762101214163,  3.718707509913810, 60.297387373611983,  3.855916582445364
 5.592245430887361, 13.317485238631502, 48.334581445623634,  4.230587529257408
 2.026843310590482,  7.127612940782572, 31.349269259085265,  3.631414121011213
 8.530649678466142,  7.270311280621364, 36.311041875026476,  4.115318156692660
 2.108993463497389, 10.799461578885831,  5.061025843205462,  4.003634625319560
 1.981528905598443,  4.126628719010942, 55.532204964390750,  3.778311799805131
12.253021782924332,  4.717806360192354, 29.685750541862735,  4.131820209311561
 2.099526097970226,  0.509258920877450, 42.465115912920567,  4.020323697652972
 3.677218615402150,  5.731496767458474, 48.562222438017280,  3.997918289264064
 5.892408030094958,  5.187421770380259, 20.591632603399638,  4.060759511195297
 5.217661003468370,  1.999031132912643,  9.335140976721128,  3.989950989869051
 7.656735045382733,  9.881315190142974, 81.947298061584803,  4.338690246862695
11.864773477343478,  6.424731280723226, 25.746471812767961,  3.816784904315844
 4.333670335218538,  3.940540665338056, 16.411542260986383,  4.086987806851544
12.989498745665969, 12.613152424635691,  6.258395563126013,  3.910590017939356
12.036673940490131,  3.319989781077915, 10.407565254761137,  3.863622347947011
 8.997842212978536, 11.904338901897500, 57.601875527798235,  4.082802402249875
 4.444964139316960,  6.732966483393603, 93.598582691261285,  4.194400351053472
 8.957641404070351, 13.033242134468965, 90.778250002913680,  4.150616429811167
13.464384118669837,  5.909900366251167, 13.184986331642829,  4.249214721235339
12.074633935547663,  4.597308093954573, 21.202608197343707,  3.776162452539112
 6.494562349155422,  8.778294741930754, 29.991812151175637,  3.945854559121260
 1.287994856362288,  1.424338194201314, 10.177228613012286,  4.088421317041725
 6.142507143432704,  8.973168802140457, 58.123249627909971,  4.102826700639188
 5.145423998087837,  6.588486632879402, 89.622372045457169,  3.848085417828046
 5.501439730998614,  2.216504103222839, 70.325161516681590,  4.749283735094507
 9.866745057648073,  2.906309952939540, 60.710785502809657,  4.110326821559348
12.346850281451074,  5.710403777773371, 59.105839188980561,  4.004175524775773
 1.092597427298062,  3.788174687635652, 29.960470475527696,  3.790780973640194
11.971921354506732,  3.358166096108576, 51.395723871899243,  4.025911441926037
11.695919874639669,  0.704099778446922, 20.998119595590580,  4.026567848801524
14.991318711086665,  2.363817320709773, 75.626915535667266,  3.889587045345527
 5.543909538388594, 12.137248425852411,  1.857664952683800,  4.070311757948179
 4.892765661703117,  1.215095995578755, 19.599143945247366,  4.361242706424031
 1.108307114232644, 14.598972898510381,  5.049510049603492,  3.843518908805443
 9.544711671857341, 14.209525075156552, 25.449206912315130,  3.845404202538825
14.206333312703963,  9.697000199149912, 25.432429110898042,  4.197401795522282
 0.378813521216644,  5.974007077211380, 19.960665325485994,  3.812921716143408
 0.528759831410854, 13.530495601484002, 12.688760740210810,  3.746696930750190
12.214023234310410,  5.090649140908507, 74.386267267175882,  4.173708394502615
 6.196997477993015,  6.106644378286639, 68.024476703410116,  4.131754523181492
 0.022941002296894, 14.735363041564339, 64.877684966792970,  4.037083477128808
13.508089035800570,  6.480179530102015, 88.395960421516122,  4.125263028313265
 0.370743286886381,  8.801029449059845, 46.779016616451067,  4.024556345725750
 3.288253079796064, 11.962352057164983, 80.692748280056477,  4.009865431055196
 5.534789978469211, 11.454588795182131, 77.356777709621994,  4.079001441771942
 6.779130119215262, 11.121177713821188, 44.908178009551641,  4.166740514708015
 7.303824708813721,  0.596440396861250, 63.016525433035845,  4.170098577931480
14.084441924466232, 10.292090728972317, 43.314810700544498,  3.924092401149672
 6.256858489929365,  3.260244135623515, 12.930079811948470,  3.898856044032161
 3.698066742281424,  6.927080359049469, 24.844077888710878,  4.088444802716987
11.224617938532036,  1.070228099985810, 64.303037778897206,  4.136348956498510
13.271603529972664,  6.221193186828535, 44.350738728702524,  4.191606571388665
12.291771770596291,  9.452221218737629,  0.041905355573765,  3.739996855290702
14.569152448924198,  8.645716433545195, 73.198214993367429,  4.512441783136630
 5.694630644084161,  7.837373346069770, 51.407328502863621,  4.139692279672719
12.246676902821413, 13.226278249709019, 88.634189859230830,  3.693370356193020
 3.953890170468523,  9.407337612419420, 74.047665293653651,  4.148578728595166
 0.646163131258418,  5.035114892437583, 52.050658785649162,  3.844907420148306
 3.542610963359545,  1.682349377028351, 49.204017827453811,  3.879504544503495
 2.393775645952412,  9.799983623623213,  1.277448614981463,  3.820024377580717
11.782683520979431,  7.085941490422201, 49.452844549837074,  4.141817267621344
 9.810357396674830,  6.516649724403416, 32.425175784524569,  4.035965602715387
13.774470477964993,  7.512888511944358, 40.555000755373825,  3.878061967242001
13.974192036044808,  5.972246203895215, 33.269007974256773,  3.947229557844456
 0.367263988986648,  5.491114447714234,  9.321824623688538,  4.411966125899246
 7.860083609631721,  0.201422002839697, 37.346717615059859,  4.043413619866498
 2.746233964904159,  4.042106856666193, 44.885766136424820,  4.069082286897708
13.135594289764038, 14.697422973188555, 84.031702244998172,  4.059615506943434
 9.426243187400065,  7.158678381431940, 19.864784232226540,  3.928898113379857
 8.566094737565171, 11.229352183100403, 37.179636290052059,  3.920623323039196
 5.831181122498290,  9.159809142613359, 86.725150500447413,  3.962699754610472
 3.084775074601631,  8.463911314005719, 54.740395522212985,  4.398140757123763
 4.402012359162707,  5.680651294721676, 10.472603353386505,  3.886128468187930
 2.899673149419998,  6.458435583257460, 58.622412272285892,  4.159310750068165
11.496683560976644,  9.509216710214735, 46.200661382747413,  3.973752003834818
11.898256483137990,  9.859296010572477, 59.813303664075690,  4.090477708168391
 8.716296995128353,  6.895906058663136, 60.622613028003570,  4.185523956689234
 4.179640219252144,  5.949493666514174, 72.036637908496203,  3.848723015256753
 0.054090666671467, 14.719209507678729, 60.811014519639237,  4.035324066054243
11.278398727302495, 12.612956266753676, 71.916250792539458,  3.878532957395869
13.119343978436353,  1.172880777940359, 43.670431536396876,  4.288179928558743
 4.228076278877204, 12.316931315394303, 88.835921935717252,  4.173405177527802
 2.724111009609517, 11.198327996394676, 14.412165829297239,  3.524258527083659
11.523501459116902,  6.812802633573954, 81.870148963340981,  4.244366057092596
 6.256062760031160, 10.622344981318699,  5.816378821018319,  4.398631553090021
 9.466839624925630,  7.936475083103055, 43.117250400652644,  4.049959280384771
 0.690611505560825,  4.263131881813238, 37.464058538025405,  4.195027223783909
 2.479665185736514,  7.257761641079485, 39.589671325012695,  3.826834535359598
14.017061110623386,  1.854273923967191, 14.020823361497090,  4.092689866533996
 8.476646882584614, 14.167357216922630, 19.305121464712901,  3.890848201786587
 1.055664089122057, 12.307940720977793,  8.736979683627213,  4.016027636667886
 4.987833603772710, 12.917492704336455, 39.223999098136233,  4.155634510843829
 1.463634897679947,  6.790403533658159,  5.562855034403808,  3.801050088510534
 7.790814177477559,  0.636694658550383, 58.160672926318504,  3.878357938008662
 9.081624097500741, 10.841051171619970, 67.987281927739573,  3.986358282103576
 4.465545663276901,  2.724622721120559, 93.293754883951550,  3.834154786994838
11.283183242344574,  1.117597657120892, 74.573666135685244,  3.982072959292756
11.258867498534807,  2.528464670276725, 37.322079016344766,  4.169577943615017
 7.369548825949367,  1.141448206346290, 16.069415536134382,  3.990293874739111
 4.228512163504316,  4.337700586439025, 41.273848543321954,  3.761747301464525
 4.272853070656425,  8.048121374843454, 79.189998178779746,  4.056726264668440
13.519943605826057,  2.012292950979028,  6.819571773650505,  4.068084913962413
 6.558587263314315, 11.971339465356680, 64.470008777266855,  3.807251073865060
14.225742412309280,  0.583137327944752, 39.576804655083606,  4.151451537182426
 0.903778090582439, 11.607796884492121, 83.864474885861497,  3.956334313746714
 4.189518215402033,  9.543345105842567, 47.604492434589268,  3.919740189128966
 6.954912438990910,  0.442948693109539, 28.091775185414278,  3.879326396423675
14.947913156157048,  2.773622930625825, 85.864866570036213,  3.999731089554243
 7.242717163449290, 10.410384935816797, 19.151342916893899,  3.939254441307695
 5.145222534236442, 12.885730928765993, 16.770476523122603,  4.009003603273718
14.935083633852091,  6.811059026595344,  1.008787574678286,  3.973297328126723
13.277919918610708, 10.092360833945063, 86.471117457559643,  4.058476053865621
 1.994579066919611,  8.801573588016577, 87.619472779904640,  3.892265099424551
 0.711360465997860, 13.986849770361994, 87.094110086945889,  4.075345118088821
 1.594566321441098,  1.599007013796263, 68.178525515875236,  4.194041041237056
 6.979987474728418, 10.120923476780966, 54.418627579439892,  3.829736071531186
14.020230718782758, 11.283236385565296, 15.358899724196055,  3.838079656275561
 2.705330271725784,  4.276949716008292,  2.673808603246640,  4.247443635861368
 5.182527351094819,  0.503505261512377, 77.449917992065707,  3.974466445050005
 8.082086861810174, 10.083852124864944, 33.401267015606855,  4.014724600583289
10.731061897453136, 12.428786904456802, 43.572705422802365,  4.029560611849879
11.167913055013424, 14.634274534697958, 51.179381990470624,  3.631422653878432
 9.308913382876252, 11.180346146037701, 86.986182740765187,  4.076678831300295
 4.212443375303352, 13.512360023707934, 74.090964638051290,  4.063764303040990
 4.980450165285765, 12.733892730971137, 84.560789669777407,  4.544628561158175
 7.948951780732208,  7.941142956050230, 47.586768588909038,  4.245850875813382
 0.961310637106731, 14.142015889806057, 25.620223202183908,  3.857729754755775
 7.346732403298837, 12.540693148426559, 22.705521973070177,  3.895208001425209
10.209228978907520,  4.561835389988982, 46.602367894179736,  4.075790112200017
 3.225064362018959,  8.906888944182210,  8.457560764462251,  4.059971823243769
 8.609015432204943,  4.172183646457676,  8.302937505926181,  4.321384889855218
 0.951754909436242,  5.727113501326508, 79.145934218899839,  3.969263354409829
11.278934860360842,  8.295261709822777, 63.489403761524990,  3.985343176850664
11.064383098054332, 14.801916474998682, 80.545581615239755,  3.986077128279976
 8.422623766520388,  2.665857579549365, 53.437323949664552,  4.175078408284214
 7.417733132244164,  7.082944371717355, 26.479545297604279,  4.041003977511780
10.084741362414025, 10.480116754782973,  7.738322058159971,  3.813189794040302
10.681702135552786,  8.308967291615268, 15.048581678221055,  3.906164655712193
 2.933453925802786, 10.934277813371907, 24.220322022748370,  4.062582506393417
 0.184352788199659,  1.147116519550964,  1.513503783779568,  4.104837772063951
 5.285291877476506,  7.219233415861988, 44.544792435158918,  3.922207956024394
 2.548992457730003, 13.238661997014583, 70.372612661528592,  4.099036479819643
 6.605881938372454, 12.999795619374312, 70.276450616747766,  4.018270959094760
10.644209878895351, 11.331207640053501, 20.952887536268264,  3.951055900492130
 7.437969481722323,  8.171457157375288, 64.719031176882694,  4.004761569914388
11.534917305011437,  0.792013684507285, 17.013153521008025,  3.951285204776419
 6.927109842989125,  5.008189767279704,  2.576135253978010,  3.849431514351573
 6.318858830516102, 11.626194708637827, 26.657294421910073,  4.379990523011204
 5.958809016285743,  0.227927583577234, 51.685836576135074,  3.505989386924106
 8.150865960714247,  9.023021209174496,  0.328450717281261,  4.594319822901203
 1.508019224720507, 11.217572862971499, 66.583238161521180,  4.246627527433604
11.594948980812964, 13.499550954826825, 35.961708583356781,  4.012357067374590
10.363352890783913,  8.581790113225784, 39.445176995760633,  3.603030921140827
11.508623343004425,  9.634355320515873, 90.118378685700137,  4.094396523834426
 1.541061834780690,  3.545192715059797, 64.382408598350580,  4.268526711046805
 3.534663974970206,  0.749813292643376, 14.148684494085245,  3.896884579385657
13.748896581530696,  0.892618328398186, 54.128044113524538,  3.959628340675504
 1.217213965024466,  7.508281861518773, 91.251794191372895,  3.916371679536121
 9.170892574884423, 10.395070119212845, 11.806589840597185,  4.108951157995887
 5.095662564385110,  0.074653033433488, 44.824270051101749,  3.653631196408218
13.891948621393960,  9.247869067785501, 30.697821463054307,  4.086994891146635
13.893421211316769,  9.102256631953779,  7.805984582162305,  3.955876054270231
 8.461599303622377,  3.594354283178816, 75.777390570131786,  3.902611326786047
 1.161686964003793,  9.560010342936771, 77.072470083672883,  4.037093634224223
 8.192417590558792,  4.252940220320141, 29.396746210580954,  4.045309662181045
 7.032697592524089,  9.732743833819844, 15.250863932877303,  3.825849518459249
 9.980144335756332,  2.926857555974519, 82.890612711826648,  4.122432259253982
 7.538631802251352,  0.498541316225531, 73.746093509985343,  3.724407427728971
 6.402164711526721,  2.784635643027281, 89.799088011058231,  4.142188529984155
14.075185373583359, 11.244570312552856, 63.018207113571911,  4.103960284401056
 5.184773969302421,  5.220265836053044, 62.563620129987477,  4.512927235318788
 9.327589552600443,  5.970225499020241, 88.937611292271399,  4.306529803832146
12.824073492976446,  1.772041653230839, 58.065748395428301,  4.135752149705661
 7.373239300226150, 12.866498899185832,  9.168546492210103,  3.925693161958422
 9.030949565081871,  0.905034523285207, 44.752247266008801,  4.093389711724209
 3.756352905118443,  8.782945391431603, 83.200367287953242,  4.139218770943685
 5.763413765629018,  6.459773528914091, 75.936494149970500,  3.730369391810245
 0.099501492139251,  7.559193020284028, 61.435309261452495,  4.043805815915973
12.677454908946507,  4.749916448772488, 17.218349013982770,  4.285595626193487
10.148502691694324,  3.429739489256477, 14.069736066028309,  4.194369482857272
 6.817638716584823,  8.566100296011800, 22.724419711525002,  4.107732465445130
12.007243970085561,  5.830608489576073, 92.211184551044312,  4.151517501316222
 8.714571597225751,  7.206312108204236,  5.343680358253852,  4.062312831422519
 6.040699318863609,  1.838740534970970, 82.772016457594475,  4.036065591288403
 9.260852157679212, 12.029758076426811, 29.977714281869822,  4.149356898999992
 4.353306494361776, 14.939988831511009, 23.754530268426581,  4.008587250763866
 8.397265343405477, 13.555887184696367,  4.045952985268048,  3.654531999944238
 1.957945947403167,  4.473030395239689, 88.824659003365994,  3.943606014588320
12.776861239232348,  4.611869083768434, 62.987769022203437,  4.026297059395512
15.026259383232363, 10.713549885452835, 21.527233724537609,  3.915206483063773
11.239830395716503,  4.368726125257655, 41.130289733943854,  4.272815612180948
 2.577185844548509,  9.123826881481321, 70.128485594123475,  4.140154944703107
10.779562972112799,  1.598392536397431, 86.956307504150516,  4.377361012954282
 2.210705607962831,  5.582641201506605, 68.269161209663153,  3.858391525884907
 4.057340774345250,  5.770748928098568, 85.805057855044112,  3.846815605756825
 1.372992836040711, 13.953923272794908, 16.771035410850466,  3.815018568228727
 4.004851633531922, 13.680382316033178, 10.908167165472666,  3.787289956818435
 0.439776239712828,  4.746775142760763, 71.695383805711216,  4.030286076440477
 8.928461896573936,  0.977694833582175, 11.017022555208383,  3.986861442059517
 2.566254852231916,  0.416676247736921, 53.259435161763925,  3.978122948380295
13.917549479815847,  2.521910481056350, 23.870918747277297,  3.914003761718708
14.758176035931756,  7.088668333953561, 65.379290101654647,  3.897208946329466
 4.065652718795270,  9.760661295174060, 33.108190949906685,  3.663732346829070
 9.062129502030817, 14.090204919123616, 84.006483287306523,  4.121709918230827
 5.150186192152931, 12.781575308225278, 30.717439988879271,  4.336052701579905
 7.943006745274238, 11.559787607242408, 73.962471568351575,  4.216795139491213
 1.803673435963927,  7.324029641937738, 43.210262020792108,  3.537378518615768
 9.123981048993015,  7.611535305527283, 85.113787201824877,  3.980167344735440
10.395905336507235,  0.129964950492673, 55.599723563849743,  3.482932313532416
 9.901028349302395,  7.933133432715318, 56.691463763596325,  4.178715155313070
 1.002100863180082, 12.649606682604729, 30.044114757177770,  4.036456376346933
 8.739052039171741, 14.834919117166731, 33.387283084139270,  4.082996973912246
12.715557452729906, 14.377941406908334,  9.914757108476792,  4.224678747411925
 3.133187268736046,  8.397017548114734, 21.149067396063398,  3.891976439439056
13.617112022151673,  8.605924872726336,  4.071900703382647,  3.591235197484100
 0.281559247955105, 11.369393632089144, 90.328298009384540,  4.223877386342709
10.421426177979223,  8.289325478277862, 28.862169837282469,  3.994683458650094
10.049000181731071,  3.472327838002781,  4.358253749536383,  3.812990441833902
12.230165187531318, 13.845722343856412, 67.682629693833036,  4.095629450948508
 0.771837789964283, 14.801221910213915, 21.369816354085188,  4.405977883137137
 1.697027183872093, 13.581542491633444, 36.974069010495938,  3.911824099931145
11.956637393308219,  3.248576689417011, 78.239419774336568,  4.239355418449248
 3.051985522312103,  0.728392142060089, 28.533839680876437,  3.990694257651549
 1.616012461775131,  0.603861189802169, 57.185620888470233,  3.992995483237073
 1.168920254273855,  0.599161274520255, 46.324749629851432,  3.891673851737604
12.237302513022112,  8.143914525304393, 22.358156686229606,  3.685255696292137
13.253073008028272,  8.580992637326524, 53.157942619422997,  4.307385443854599
14.728294480655521,  4.219088730906234, 47.977398439431980,  4.588600894503651
 9.438164625022409,  0.621530490733798, 70.512158924689572,  3.751857104027771
12.646264874254321, 12.897541027059532, 27.734755145604822,  4.124829459456436
 4.799578117686663,  7.700742205637711, 17.689916304902063,  3.906882197859457
13.329028258249011, 14.386924595348759, 77.325469617924895,  3.675856275894065
 6.327111224607927,  1.879362831404333,  5.230797319087252,  4.427589105905295
 2.185076129989030,  7.181625832308656, 35.090820893214442,  3.844691133519310
12.242165319518435,  5.774498680571765,  6.540887427655760,  3.885304548541074
 1.666970723956213,  8.667508040983565, 50.670210785426036,  4.181934937565975
 2.848739124436447,  9.412402729322084, 28.129837351516180,  4.315714490353606
11.806941819323574,  0.161523229693965,  3.571735806208672,  3.824528073937084
 1.672640838614488, 12.239172111886674, 48.831492431546010,  3.812066771611618
14.238475178589217, 11.189490579699378, 69.922584542132824,  3.761345679242166
 2.135603832072529,  3.544662128980447, 33.684868695367243,  3.952952778438994
14.734742510918752, 13.493986941400975, 80.665730712070612,  3.758933120136934
12.325786728644914,  6.371807311773825, 37.127904712729325,  3.815944169197224
 4.956989708666945,  9.278918080348435, 37.142658942137025,  4.224042789587894
 7.002819065083066, 13.395240124519168, 13.303091752692167,  3.876230575744988
 2.026019026732113, 13.253694149674759, 93.514505353241944,  3.796214980715694
 6.298055195470009,  3.232093677179445, 46.742486104055970,  4.101534452977630
 1.586111327499603,  8.362509526464949, 12.143119156268952,  3.998586294709207
 3.886888744498221,  0.525151295677664,  2.336410043828848,  3.573405196098633
 8.058332593695708,  5.010673595448409, 92.760355386008015,  3.946183940252612
 1.993455261495940,  5.883782229669445, 75.275998295534620,  3.938949022933903
 4.395660837007979,  5.556560339050987, 28.754219345427810,  4.062360142693890
 7.457668294073015,  3.867291089848982, 85.899450889005109,  3.938719596226199
13.359442419119089, 12.897897403683114, 18.736401250376524,  3.716665649833713
13.887329349099458,  1.665687601660381, 27.661313386504617,  3.850511076732779
13.537729781999701, 12.654915780290988, 56.886927693738663,  4.586194182599184
 7.241006698114166,  8.072246784051341,  9.048323418309481,  4.061067905649935
 6.530673297475546,  6.159016295175399, 55.261257760950102,  3.950353576377384
13.857337264138017,  2.315122015062746, 89.588365047065054,  3.803619869028422
 9.305123280212650,  7.837093897218799, 75.097030406833852,  3.889376080829212
11.426213013619810,  2.891600190235130, 33.240599412277916,  4.012506556699483
 2.073310797686919,  1.367548591923709, 72.631370997411892,  3.684339584983339
 1.293648984518583, 12.095727238847747, 40.654379398418698,  3.888510122671883
 7.631735624142411,  4.381764156706872, 43.109072663858683,  3.950441845735699
 1.929277841774550,  0.349036773818300, 83.108989664505003,  3.817157047929249
 3.548330941931802,  7.839258734275474, 65.421305697724961,  3.884394829398061
 7.075257757082124, 13.871344817037183, 54.831120604002770,  3.696237562587254
 8.029961224919944,  4.695967787780591, 50.000953442844882,  3.826979125604821
 8.013790671906435,  3.487627881195866, 35.134263732389279,  3.874194460622853
11.705232438624117,  2.815538567569509,  0.856319845730492,  3.767867053566644
 4.749477226833960, 10.480620107910275, 92.315536118172815,  3.747006906073029
 5.033967655402884,  1.895277623125999, 55.838745629879696,  3.734691474647710
 6.298826399671407,  1.080910252336053, 41.355422281968202,  3.951625347226489
 1.779384907706367, 10.243336792137244, 17.930209484568241,  3.995041884670243
 3.903986556730803,  1.443336610145766, 60.582329641153841,  4.361892954953143
 4.425531260763680, 14.031086833870674, 66.922252800435501,  3.887129271806939
11.745944260510296,  5.022879951658209, 85.436541697560770,  3.344642746558563
 7.973030410222574,  3.617797695640371, 39.079135682698762,  3.583437603539193
10.325196911428311,  2.906129813660464, 26.284933373223645,  3.898968795844484
 2.430497463141397,  2.934702647772019,  6.592004563498622,  3.994768714171362
 8.125228905607688,  2.234857495631206, 79.410493512705131,  3.884196653364600
 6.903024081056564, 13.685635661828526, 80.564176124478507,  3.895879618254603
 8.327708272053190, 14.630435796831389, 66.902012075992559,  3.998819575402821
 2.048572274207386, 13.305310272677305, 77.304674194949385,  3.673450560973739
 3.949987687816243,  1.657552763504411, 86.454688834426847,  4.421220054190451
 4.526115456962149,  7.732480051001832,  3.601831680648866,  3.663082151090839
13.963228363584223,  3.303951423725406, 81.966598585070869,  4.083083098159088
 4.744872001766877,  9.471294108363123, 61.962296360908077,  4.113791183475114
11.877433920360222,  1.062522476282419, 47.588154089148333,  3.913752190925816
12.674378535039114, 10.055442886072939, 66.669438824005823,  3.797357617916910
12.510487401791233, 11.320439931501777, 78.915526317435265,  3.376957478086207
 5.561351309216198, 12.718991200529349, 59.629993666490932,  4.047744331698539
11.103642059080816,  7.258978867072639, 10.048030649645172,  4.048602210287593
12.044054975053376,  9.430812570168708, 34.476517873653748,  4.297926502178932
 4.870073668424134,  3.078228035821938, 74.481996160915557,  3.797518018899104
10.331438624081841, 12.790815441880445,  0.753446368641743,  4.123356356913595
14.251737162717017, 12.143093761588849,  2.349906495027930,  4.348974745320690
10.254089999678900, 11.609651066802316, 17.020767189090833,  3.808906106252585
12.538477126231259,  7.622589416064053, 77.785250111163947,  4.326899982955923
10.416733077760476, 10.446810957267475,  3.945278901802746,  3.756041463450217
10.394099225001550, 12.168880478333620, 64.405808820243237,  3.869857142225490
11.695068459519486, 11.019414869384645, 82.767124509940899,  4.207940578629310
 7.296175383269342, 14.556964365332338, 87.512184487363669,  3.774813731286820
 8.151382458605216,  5.325091391149479, 72.135516801834882,  4.174938779738133
 5.145147655055536,  5.817464038281488,  6.667481531747042,  3.670426395763441
 7.939243650303889,  5.867593612329361, 16.379684226828275,  3.735363188453219
 7.615030997881012,  9.394700052896594, 90.152415338790078,  3.699798711630629
12.908841170309572,  8.862235143980046, 18.459910415552656,  4.312872532298921
 5.506252382865278,  6.011679672519981, 32.976403404574739,  4.364422318588768
13.065828447698486,  4.798777169619711, 55.155625080993467,  4.223668139226754
 4.031226415089266, 12.266320170484946, 20.574645982265292,  4.003919634390768
14.869133491978696,  0.467119993169484, 50.228802202642761,  4.118795135487128
 5.284667150183034, 10.384083067159258, 67.600012729122170,  3.633722927137112
 2.850735882474799,  4.257074502925871, 82.379510824770023,  3.957584079000852
13.966611361068761,  7.442559458569560, 69.182725088494848,  3.879862696278182
 0.084005407092791, 12.313128931936985, 52.798386293950664,  4.043539305260387
13.133839197187088,  3.665288876371705, 66.991954240771818,  4.230597880215412
 8.095176853777961, 11.019827807772209, 50.667798832326952,  3.959387166157298
 2.426887613782787,  0.727886393784275, 90.426621502635072,  4.182732661906695
 3.111831675593371, 13.073941723527332, 62.902409838219683,  4.009129319833032
 9.174640967550262, 10.225192696495824, 78.195596600138913,  3.780134128602699
 2.406338215627039, 14.636704151545896, 33.234271902378417,  3.983220296754220
 6.790544267553790,  7.092131511783148, 40.159448338258649,  4.064311704377687
 8.983180906041120, 14.055678048336398, 77.152669188226696,  4.093149737222226
 5.429214895342449,  2.688325034463170, 65.977474981484477,  3.976549314769164
 8.144503663321935,  6.635262147404912, 12.628360871485071,  3.854176262058258
 1.826801541037914,  3.630885190423272, 26.190549135923646,  3.841715516643075
 4.675195157987520,  7.030979707904307, 13.982735263441191,  3.627356274949003
12.491020296216634, 12.615559442617926, 32.112703298784830,  3.662604516615438
 4.232301331031257, 13.926596159112997,  7.135048527670684,  3.784751656630323
 6.557215132213881,  5.863159310746948, 82.557013444967609,  4.051017419816988
 8.951885007633033,  5.211010039035073, 23.341259507559041,  3.880154462335015
 5.815896818417414,  3.383325381111345, 25.480614303543117,  4.264182844177208
14.875225337490091,  9.187982512495342, 80.870278712801579,  4.007424682463058
 0.833047817975510,  3.828897163018333, 92.529378920779152,  3.903339789923797
11.678410461395689,  4.732892766409646, 70.504233241551418,  3.654680264365668
10.568317820448764, 11.788040510335470, 53.785528068629255,  4.144278596721795
 5.152743447275341, 10.092379719943109, 11.803221001685602,  3.939257711580037
 9.833597162259737,  0.366910434235192,  7.107999638418119,  4.020928618028925
10.992289781999215, 13.862366071726527, 60.727502069516213,  4.296084200452900
14.418046351367321,  1.162870703768430, 35.223816488176098,  3.878918628747234
13.552848987550579, 12.814520240555305, 46.281555667325748,  3.813196938839685
 9.096100490922071,  3.218342019011359, 19.049854577791699,  4.043745234937901
12.801976384741117, 13.084679458415879, 23.709554166632433,  3.866486538023889
 9.445839154024140,  7.041385168096574, 52.754277283522704,  3.934886939681545
13.265132151244716, 10.562332957042281, 11.510104249525547,  4.103754212995057
 3.687297893967646, 12.369560156710449, 56.099509313834481,  3.933090438174317
 5.508998263587435,  1.948961341227273, 31.577627554490618,  4.203554512174766
 5.544441180960693, 12.810329760570239, 35.019317781275596,  4.100393944548796
 1.259913877223197,  6.637292770118081, 16.159104131626222,  4.073147050300053
 0.981171675910165,  2.529636698758092, 18.167079607655388,  3.941912086000905
 4.834000525312588,  1.541478690990992, 35.418019210286225,  3.588918296149182
11.736267002083482, 10.880987429477557, 75.383078739824185,  3.889781690586163
12.527995232501901, 11.185354786652717, 49.780740901927196,  4.106460508301066
 4.530895585460494,  3.942557393769688, 52.439015781432630,  4.245994651185318
