BANDS
8 8
NANOPARTICLES
cell(1), 15.005
cell(2), 15.005
cell(3), 93.780
12.075797063173230, 10.342735689583392, 77.699468274731956,  4.174491954864469
14.086299521381605,  9.194905699271139, 46.597281528088750,  3.824049496899155
 5.106736532332821, 14.805735342539007, 48.212655007872861,  4.230557621200500
11.916658352291588, 14.909893220383575,  5.485520640876850,  4.504798938905470
14.105205001777630, 12.023330138153373, 15.072511918140034,  3.862995681763173
 0.339386266165088,  9.007501765591533, 89.604951501526983,  4.088866201055428
 5.183718418724472,  5.591281839254123,  5.338612197221160,  4.110084629443086
13.960726493118774,  7.309257180790765,  0.012295701225635,  4.073252344871697
 4.084515525760996, 14.927351432615906, 25.646835207299635,  3.843065829617079
 0.162678194695970, 12.719357833704390, 54.090431528479400,  4.140928524804350
 9.766427124620225,  1.955009784823723, 32.964315362657949,  4.027942098162739
 7.522252159063619, 10.302411460019192, 11.009854969394514,  4.001496931981841
13.462616153274107, 12.373853872848551, 83.789080764770176,  4.152286384052251
 1.095057213124610,  2.396457975284156, 24.468254017935678,  4.263133518809963
14.424990751050871, 13.172581943935443, 24.623647457931806,  4.099549911390105
 0.528611115954548, 13.643884686884169, 37.902588234648697,  4.318913137201231
 0.087366382006863,  9.982105295495185, 12.047626012741331,  3.657730642002161
 6.755518865129258,  5.699222504226161, 18.044526133881924,  3.787570927874110
 6.626239369313794, 12.610699925164898, 87.544563686622340,  3.951046228757757
 9.194073147916869,  1.699791189869242, 16.609358860682100,  3.999230179688630
11.483421629661068,  3.649979274192381, 12.944344678859247,  4.190770678662875
 2.214808000868041,  9.669207315249196, 55.866547263317692,  4.014357924586837
14.792548119791919,  9.772745141190732, 39.758687884239222,  4.370114195512710
10.236320454331336, 11.098630002988552,  5.391745975608051,  3.823327035510395
 9.807194033317526,  6.153030617046602, 21.048558403404570,  4.095513842964729
14.859358489705230,  4.693404223064418, 50.022845622218291,  4.073376041413619
14.282121827309517,  1.558185411483950, 59.857399210374041,  4.312617171492091
10.860872869961016, 14.271466591025966, 66.140839381637534,  3.939267239969036
 8.161598752733424,  6.512891152934471, 83.788977823313331,  3.816220906831510
 6.820026313508154, 10.124165473227338, 92.614563161433551,  3.943647714601918
11.578853540864259,  1.744688667699900,  9.273972665497880,  3.912657215574283
14.588665412409158,  3.255038387583162, 71.418865897685890,  4.056740576369967
 7.101249336606593, 12.624072031257160, 83.173385559083655,  3.816590221467022
 6.666464372732341, 13.603336079079353, 18.386049079643477,  4.044985323500710
 6.411952770569696, 12.275176524633705, 14.612429691106600,  3.947352335177202
 7.517342898806866,  2.293071513567199, 51.835988421086121,  3.994020367660847
10.018708831332905,  8.559751952380848, 64.187400817765649,  3.731139496361192
 5.033193973655461,  0.108526926552796, 58.845032543944278,  3.994858441186935
 7.992926054745925, 12.074795319557463, 58.906691839059008,  4.405089425991773
 4.220165846782855, 13.492015816544432, 70.483210194562943,  3.964098823745096
10.038058674882061,  3.839070213646523, 39.372595512996469,  4.059869949264830
14.003083889064605, 10.715000342708242, 28.201519626949047,  4.068625716840367
 1.179433247852252, 11.853409759615104, 31.640091575126643,  4.367609711148607
 5.887968412529729,  9.912280692590519, 29.171697726648521,  3.943498753317571
 7.932008265122195, 10.375540290064132, 54.250770805152037,  4.024015690918621
12.539960826466160, 13.922380133137956, 80.195902889016551,  3.861900778146201
 4.421238102758362, 11.566454864821146, 66.989832226206744,  4.006274468308672
 2.982058983517092,  3.159176425262599, 87.215174530128493,  4.145121281604063
 4.415000263627220, 11.623442963227800, 80.676407887529933,  3.773247328142490
 7.882233991642114,  0.213507215817339, 45.059121565303037,  4.199740421344496
11.116287245809840, 11.801363041801979, 46.828853297913177,  4.059194622761464
 4.075349979891811,  0.962284334219333,  7.356855515286056,  3.986594368165868
 1.599749448436659,  5.426860341097213, 53.449461026380682,  3.753470617012899
 7.719549410203868,  6.322620027952470, 44.531514867882237,  3.805866363745213
 2.016467736751905,  2.596809912385717, 13.872334835512824,  3.826369751320541
 8.154988297996708, 10.190641057486836, 21.840425464193931,  4.071626775934624
11.791696991259142,  3.593370220528504, 79.815747490883766,  3.836261801211422
 0.359405217097085,  9.331822341601619, 24.776234884229233,  3.801775409037904
13.067756381676533,  0.860718131351420, 16.373664865537773,  3.917378636368587
 1.676878005817408,  9.897231608695094, 82.896023809981244,  3.862845260889102
13.000968206778829,  4.644854544407871, 22.985078883156458,  3.948519130754026
 0.666932322229302, 11.574010285800400, 79.400198557183529,  4.118012743670970
 7.602451155101498,  2.087300586463857, 60.992209375558254,  3.779418090052091
14.580984818611006,  6.769875373565410, 73.267739318951996,  3.885129622021856
11.441666098640296,  5.112460587720734, 26.734838844933659,  4.012839963294256
 9.291316696942275,  3.629343649304716, 47.026351399027028,  4.162079474803457
 8.524260321669148,  7.328461119389343, 24.836490292771128,  4.226556631500981
 4.034883920484855,  6.225248424795583, 43.052275500922747,  4.101465461793611
 7.930773417265677,  0.355214555766080, 26.139252302906243,  3.882083202145186
 4.733403651216322, 13.737140196001288, 29.357742600736486,  4.051336059236706
13.292093300145932, 10.682974589564825, 73.335031115639282,  4.331095051285724
 2.257673745028541,  1.073316101346904, 31.505444700474225,  3.980584814354328
 3.291524035797000,  5.692274123502480, 16.058702010883326,  4.161954499779825
10.267225412525757,  2.264098533274534, 68.689884202956094,  3.984863504831637
 7.527112322312802, 14.687073444066131,  5.437351393475125,  4.281628672638258
 1.716880167507928, 13.862862622495037, 50.451834326640522,  4.080356587904266
13.005549229266148,  5.598638899053112, 89.978078052787410,  4.196499025950787
 2.463612832527825,  9.851325634362404, 44.476475979218755,  4.256816006281777
 2.661457438783692, 14.394119810979747, 62.061262720676531,  4.125468452251302
 6.888767727100205,  2.517867889643974, 70.565151532867930,  3.754290771052504
13.828787339697175,  8.572789524526813, 85.320510121634683,  4.070764681790855
 8.217927754447132,  1.734927046841710, 92.412939182707674,  4.095139043418669
 9.119383464546768, 10.466426422507784, 39.553189633589724,  4.277027572815753
14.710317534624652,  2.961175012342115,  4.980191927697073,  3.604978697108308
10.674728678494613,  6.527463767113585, 86.753118919192403,  3.954597649716691
 0.101545497873905, 14.982349804670521,  2.859769107069198,  3.753765732825313
12.624337465058890,  5.379621842714760,  7.296118843882171,  4.275114506569274
 0.537595803707618,  9.038398475750229, 52.155474956231593,  4.188511823210814
 2.465376488962239, 14.224793013438097, 22.144689622002169,  3.952901458026737
 4.393872009000261,  3.479200143958711, 34.124836686031117,  4.129285016561071
 9.411535239153402,  5.382656600443620, 30.490350591992911,  4.090100784885014
11.749813366493870, 11.303478667999830, 21.313919987552303,  3.527857801563568
 4.106008085081839,  3.883732795611869, 10.621731504046997,  4.214783396031216
14.703169361178698,  3.064767981487383,  0.503751225211794,  4.007042072993409
 4.457973325217428, 13.310339456729118, 44.595073126149764,  3.694148613941001
 6.528525745775314, 14.059996412824706, 63.321388751816642,  4.031853879462443
 4.482616144924973,  7.055554384041084, 26.230000635644235,  4.297708848098459
 5.105606558958638,  0.832190639116664, 12.729480055257646,  3.466653083068379
11.310214267656754,  0.759888198272143, 62.551118273157982,  3.835808708916916
 2.925612522071802, 11.761370274609131,  8.067845884254632,  4.021222261926387
11.936328056829892,  0.551090874145331, 73.116382730752321,  4.208351377568441
 3.057496131546792, 14.328272396757798, 77.827853575055130,  3.804216934494849
11.224577610428124,  6.991687748283929, 33.646614659686605,  3.867720310763856
 0.502191244149075,  5.888644749670593, 26.628548658584084,  4.021090935325576
 2.472756701924350,  6.079582015788422, 70.536660921058768,  4.099378934438096
 0.069618995455734,  1.633943821058558, 78.879366131399564,  4.014494364081559
14.099639545998018,  2.863870700932382, 29.051227366663419,  4.219069932170396
 9.603862112703764,  7.019569071832155, 11.715956383299957,  3.894595378608338
 1.750016792821883,  5.015895019326782,  7.442869542670614,  4.000493308362869
 6.438561885627094,  5.423121408644151, 49.240173081948633,  3.864271891824127
12.481753551955569, 10.609520036309551, 91.983500965611981,  4.002817397300016
13.718919318381248, 12.937797491310787, 18.745218736534820,  3.718863283368650
12.034580841290694,  1.737995229121487, 87.946699701082935,  3.994685152956756
 9.369739991627156, 14.887999108901061, 49.014525803309972,  4.265842682975891
 2.184284055651907,  8.547990591930736, 29.319068511119507,  3.954986071560250
 8.228615284103594, 11.425785371852282, 65.975083452417451,  3.820442934098275
12.545558165494651, 11.993838611557164,  2.381708920011512,  3.938974972021859
 5.218790181086742,  0.509842199579329, 80.959643476457302,  4.153456399891942
 1.401733585279901, 14.585644138601328, 82.048059863203562,  3.989724427932885
10.912968507225944, 13.196929844978634, 27.506381742850682,  3.967960186253743
 3.142235690776495,  2.202260755323590, 70.119217548885288,  3.805483147958339
 2.047311836434742,  6.279441473758890, 22.859788321697199,  4.144588487631293
 3.945984936687412,  0.685462048669408, 38.888905532424658,  3.798213817416847
 5.802536280007599, 13.623148951709352,  9.957817300002418,  3.760809203882888
 8.810723590523427,  7.453231887962469,  4.557904712545831,  4.173787683132139
 1.162348677202923,  2.674247734993925, 36.694873145336814,  4.198928886266327
 4.698006846080853,  2.572539885253059, 63.506393439598995,  3.746202975769561
11.680378128096283, 12.765003892544478, 69.892687469179407,  4.308011449934114
 0.935739006435234, 14.840341706715938, 43.530390935637264,  4.210985563280555
14.068982205403316,  6.460196693577563, 78.751589925206602,  3.771280575103826
 2.371230682472723, 11.554361130198453, 73.439217039746623,  4.007582502566338
10.005132421835853, 12.091636465601177, 62.574760973535653,  3.957214114801805
12.137631476732718, 11.920444140123932, 57.452109764522866,  4.372914177113161
 2.093403680801105,  5.505753959241634, 90.339779158492576,  3.855686056492056
10.814198455401300,  9.210700138526663, 67.921980072441315,  3.998435610727284
13.374763133350250,  8.124147545139646, 56.764271752029558,  3.659555203408410
11.087113284088204,  4.434024304093849, 43.332385837722342,  4.208222407594115
 4.500307005916903,  2.423107380298325, 90.938262249508554,  4.019258221665157
 9.382918673170833,  4.467093100530421, 77.070383730573283,  3.657291686765423
10.610601938053204,  2.899895145100744, 54.673939775550558,  4.280481233248601
 1.873361296174706,  8.536791371333925, 66.952311282205585,  3.831550084069469
 1.521880900671644,  3.092015564459860, 83.580550627866756,  3.662522311079066
 3.764108813446031,  0.092437903483051, 53.589129609756846,  3.800274835183648
13.820110086033869, 12.360691169150458,  9.187484164010517,  4.175107733333618
 5.051495831625054, 14.446548387748894, 74.261705868095476,  4.005268269894583
 0.495457948096388, 12.180004794795011, 68.039918870382792,  4.212650607373363
 0.196055825834155,  1.744150793044997, 52.982835919065309,  4.092670337478041
 1.614562784345552,  1.907168678692811, 47.079259707895339,  4.106689423332996
13.634798302911880, 11.492292674244563, 43.524258957189517,  3.898834544742952
11.893943679475523, 10.139782565963509, 53.677689969975539,  3.979629606176184
 4.274474245143498,  8.468458903653373, 39.556769761124905,  4.160376690935923
13.106151388979217,  3.666504731122943, 75.805527106480838,  4.338356318897553
12.770987351980647,  6.231438033519908, 53.376962569757794,  4.023416761072110
 9.388255577105083,  3.267106902114048, 23.852422585847698,  3.950533414830414
 9.009379665679310,  0.044637536215026, 12.697190999695692,  4.496997820552258
14.073345212692729,  6.878899664225680, 64.541451362448655,  4.270349768620110
 2.973514092006783,  7.616207773850830, 60.929238290956192,  4.034907760995942
 6.159717321743272,  5.468157446360691, 59.531846557101169,  4.111751639182754
 7.473988855818422,  2.612031015423860, 57.166551260749195,  3.742649014287300
10.244195460426498,  9.292886598667510, 18.450446857390958,  4.086582489883157
 7.374059713418655,  4.267195167938553, 80.507457710557546,  4.286214696491687
 8.026116424599666,  9.338461593531314, 77.117280040788344,  4.220755118598569
10.263579166525020, 12.751892706659360, 16.170385582470733,  4.191891947159807
 7.964035766150004,  9.140610894319677, 86.977166845763293,  3.555272569488361
12.036690753942109,  1.703970201162882, 36.423714561392579,  4.232169991329998
 3.416480069780442,  9.791279513261539, 70.196365020905901,  3.590349846606463
 8.137466997255368,  9.108688114390693, 32.352097389016478,  4.004812756154129
11.291287408792655,  7.262678919654286, 75.277649006771966,  3.783915991633318
 5.262655225439419,  3.484523010554816, 45.921619105086982,  4.172204868055016
11.183793107284838, 13.646238492158604, 34.186405773216173,  3.443342114971526
 9.730697943278571,  8.684050813669412, 57.480902883816405,  3.673563773954128
 5.655040761172654,  7.867309238344999, 66.766392292796425,  3.801472381550384
10.348143948312956,  4.971076532370926, 58.469580955813576,  4.053036200873861
 5.897583322552645,  6.868723587343252, 21.710634070353780,  3.962090382570171
 2.845458449174641,  8.531585827056700, 92.815260615694825,  4.062434498377114
 2.585781012731740,  6.534988214862693, 36.196661319867104,  4.085019144580841
13.349912698951718,  8.210520544192637, 21.937364021545079,  3.506359991940154
 3.728436357641687, 11.076761537771226, 11.953571873018195,  3.921720446682872
11.987065435386823,  5.061766187353410,  3.046278294054207,  4.271606309539286
 9.433132192740578,  3.291894991666987,  5.800919024066813,  3.910208387195448
11.120650146380202,  1.338065794617131,  1.548751978015376,  3.939087061510110
 6.942881299819708,  8.853822679346997, 80.986533775656468,  3.735290219111604
13.726498068204661, 12.649453303966096, 61.255302301267768,  3.989908199354859
10.047725223170668, 10.003231019031823, 83.822711574114180,  4.116389796330714
 0.937775358489088, 10.052895392950173,  2.178776139534492,  3.891700678671708
13.243063316876208,  8.635263228803669,  4.772951979088831,  4.045223207674857
 1.426769756668963,  6.145245702499460,  3.525827695320424,  4.159323204187201
14.858983879886173,  5.375075807727568, 19.665655586009098,  3.794751162296528
11.542669061209065,  7.334670541539317, 40.529851937636622,  3.875959604611952
 6.067550601255045,  9.602754175230512, 50.135855356184500,  4.011394884190863
 4.141769482451794, 14.473887530954350, 84.977036592003827,  4.034419354938358
10.086832847056327,  5.427702291902741, 93.025704082247742,  4.226169535733074
 2.500124141450534, 10.621028158137133, 35.665462239674660,  4.152814233876571
 6.685303613368925, 10.728450840187671,  7.041949473426858,  4.041015354104763
11.999934578155914, 10.604798153061747, 31.882753493170725,  4.315481380440730
10.904712650507825,  5.241683434677334, 62.421472707111477,  3.935754134374058
 0.322902169165793,  8.691966139476238,  8.221535827296739,  3.988593675022545
 0.068668281633730,  3.103900034700521, 10.524725452322622,  3.984342266517312
 4.988350364587182,  4.479869791810156, 38.804286667634685,  4.066343396731318
13.885142889328732,  1.879706130413936, 40.329389308114145,  4.400679099620677
13.163475744907903,  9.141612791900945, 81.394467525791839,  3.869371562592895
12.206555474781062,  0.717078945282144, 45.383429862397385,  4.275962354869563
 1.677329413849510,  6.209506166214189, 46.673946161628294,  4.055804073926322
 0.319783380554846,  0.326094397150628, 85.950034777537368,  4.000559761879089
10.190820604756601,  1.786119059530326, 28.962354442548786,  3.874804327942677
 5.759830116887007, 13.707975754559550, 91.669152576378096,  3.759184211014152
 4.861458670712835,  7.657941044396803, 53.497368623905722,  4.114169859881828
14.427860556255377,  5.690596195464102, 60.484596245168596,  4.039831733137334
12.260199299551662, 12.958247070568802, 40.223094104387663,  3.814854668115497
13.850059756545061, 13.281082823691936, 89.178605280584435,  4.194107662852138
 3.572913693119190,  2.915450412701048, 50.657413187364078,  4.261633672248379
 5.745406474523857, 12.266412592438106, 37.716749195960546,  4.187926846079569
 9.534856153729358,  3.072046026760209, 85.105869379397618,  4.024219163338700
 5.451343784707437,  6.296778506378447, 77.474622130578524,  3.765953561224333
11.265453496436699, 10.675654092117636, 87.546118720892267,  3.811839273729125
 9.656598019726703, 13.144457727017556,  8.816493376490778,  4.234673042724119
 4.330690198180704,  6.757024113657018, 82.983831905198514,  4.016279286372686
 9.072721710905615,  8.170318655402729, 47.762672960493965,  3.839194839053701
 7.637174897375035,  2.672125400832728, 36.383442254831955,  3.932059767281996
 7.321958970499681, 11.229073020229153, 25.680440881252746,  4.041309189194570
 7.456846053244887, 14.193040407019000, 34.606099093612976,  3.889083178493222
 6.537142755005622,  6.397980065688621, 70.310618715623605,  4.040451922807821
10.792408037904064,  4.541489522828268, 72.324708349815381,  4.149382959009134
 1.596853763549317,  0.609295041282040, 18.421185354203956,  4.172957565984729
 7.950469128564453,  6.009503452174352, 55.470771850712794,  3.896449498249679
 0.310637199676771,  0.587099562995104,  7.622491751857736,  3.585133631293045
 8.970156557469492,  7.239303731285056, 51.768098846345502,  4.154015616682719
 5.720535315072599,  7.596381380517560,  1.734136622091939,  4.042255810617617
 3.079552941744912,  0.419777842549608, 66.497990902745030,  4.215423637525800
12.978731241642093, 10.821584618343449, 36.008996669844059,  4.175196980586603
14.608421005564173,  8.774313240694809, 70.008018640239129,  3.767237738005546
 0.113758567704961,  3.827002217273288, 43.831730614226537,  3.956560500891392
 2.707829643048040,  8.075880340935665, 79.563058826108289,  3.985282729254354
 7.196407614490661, 10.242991266477647, 69.515844274828339,  3.921037959597188
 5.858475798487621,  8.797348265166578, 57.269403871711425,  3.942280299740074
13.006601435406346, 10.945441149699223, 64.978801936241240,  4.044034731826227
 5.510818628157325,  2.362889449477935, 77.176286776346586,  4.097473183542144
 5.039210515909340, 12.398871004068724, 56.008873401721047,  3.843822993776983
10.364146408747757, 14.500613656033584, 19.878101620657738,  4.003632100333996
 9.352229139426958, 13.013953895155483,  0.092976087132576,  4.137881160511345
 7.074520721605935, 11.205395043066927,  3.025705265723494,  4.066905909530990
 2.376881105025160,  9.721347721634505, 15.534326875352360,  4.167439175327464
 9.078594395432997, 10.927646267348377, 35.590110310524636,  3.655644716617720
 3.327062119602539,  4.712004425540176,  0.221867777983190,  3.978094749672399
12.421604830265032,  7.949300848142020, 49.843037165332284,  3.858821428073222
 7.937247761835605,  6.016763039610709,  8.281015645425576,  3.993640242764816
 6.471098011862582,  9.855264563587035, 42.908504550858744,  4.318575103133780
 6.561334157271520, 13.998462782668966, 22.530615686874555,  4.281366503481044
 3.593343226129012,  9.270875147699241,  4.949142855689704,  3.939635795660203
 9.371054921632499, 11.636158116439297, 80.300286413830733,  3.748977995091819
10.423668156081881,  0.745284143025323, 77.343101671703550,  4.083161185859975
 5.517651276032360,  9.982487782025590, 63.286082753304598,  4.341119827285404
11.264950791563088, 11.350513782284024, 12.315746690065206,  4.144624778619709
13.478291495138723, 11.673023799795150, 50.116043584394042,  3.447998424698094
 7.430320975231309,  3.801858264489324,  2.225458144075654,  4.331649658239989
10.333069690042763,  5.568102482214860, 16.432811598317226,  4.060399339530069
 9.992901011848904,  8.589120239948222, 71.814523446812032,  4.035132976984329
 0.371356340087888, 11.100679300192834, 21.514227749484292,  3.573012480761329
 0.401298280061385, 14.332719676642720, 71.503665377778290,  3.786452809998672
 6.704022471828279, 13.307135490775986, 51.735691855234165,  3.981222261601577
 9.824347475814699, 12.471439026704516, 74.949576486496980,  4.106296838715771
 0.062318872502418, 12.103859797077554,  5.368930477885621,  3.870219957526577
13.812300730365545,  0.661931007935978, 21.517701789816229,  3.948324819338939
 7.658785705119847,  5.651282866585063, 33.992120557269544,  3.704825815501900
 2.999800616342549,  3.158756175881338, 60.163725916290396,  3.796556114645398
 6.693265427009156, 14.206643257767363, 41.271641361100116,  3.958398351559508
 7.032059379091460,  3.195676680738077, 42.149609798755534,  4.170965443256801
 9.247205762619727,  0.602301004522282, 81.407973714075453,  3.922528687450624
 3.162435655923049, 11.271884459964026, 26.614361232866486,  3.928924409642164
14.284404343616915,  4.709837858397055, 15.813663048576061,  4.089799646181994
 0.897385033257365, 14.267272991158116, 28.230262046455000,  3.979091474017344
 3.656722681054882,  3.949104331685851, 19.819704423193929,  4.152838381573755
13.283625548468939,  6.961444158334408, 29.978463499884047,  4.294770807272386
11.963865339754781,  8.985665003771501, 60.761116826644624,  4.171059109961845
 7.002180692753603, 14.702828222154420, 67.804097233499050,  4.067311762462169
 2.526619156939011,  0.255061207993371, 93.646275234549435,  3.961566160627662
 9.529752580500954,  8.400873088564511, 90.276141165394023,  3.890983419946340
 8.219635996790498,  1.967273864577290, 74.191413515074828,  3.987510186045828
14.449826122198077,  7.530671538940319, 43.164915494278794,  3.681242587335968
 2.678852399463173, 13.802967412616811, 14.847197349998025,  4.125948880008219
 6.095578379985547, 14.944635816678922,  1.547615275626007,  3.947625503474394
 3.150703631596163,  4.042775796490530, 80.138257424685932,  4.182651497952781
 9.735569925593312, 12.234809235136257, 43.169896665883016,  3.772099680573277
 4.159645073571588, 10.698000392251208, 76.921848922569495,  3.965738232333171
12.487167597770078,  3.145544447347393, 65.460142442467514,  4.041314621070216
 6.210853933414387,  6.210414226613866, 91.395652544687479,  4.324681253769397
 2.358142639846756, 10.258017113968810, 48.630599551915225,  4.092580385690050
 1.091346255767434,  4.036570329581436, 67.220284519262378,  4.159415184097888
 1.574389804376156,  1.549853514890914, 74.588057046360788,  4.133017668001895
 6.189259647810347,  9.595265961507915, 17.666761215759209,  4.122104234047703
11.980283567054911,  2.247716997583471, 91.714002899192621,  3.605411169684916
 5.152620437766830,  7.986816539162482, 46.732305625840624,  3.681407013150068
 9.834238535900591,  9.037427271997714, 28.548609194215281,  4.227872212562859
 3.400299860660370,  3.250725035050693, 27.956776525551778,  4.220930737325205
 4.619332118966213,  9.538201988080672, 89.253540804695703,  4.133659133999865
 7.546332885635785,  2.476343932362635, 20.296561488170685,  4.204514086831622
14.916526287833205, 12.971653194863329, 46.983615327364092,  3.889406020677021
11.533065236617674, 10.174269182614179, 24.945843554773660,  4.049930603701119
 4.727760548696936,  3.765976988273922, 73.450110272438621,  3.854953308906841
 5.485133314267467,  6.080719889214744, 30.102881184071183,  3.901688111767319
 5.531525430795812,  7.924999538659965, 13.460342745990832,  3.821794729454665
11.565626655512279, 14.040585116004847, 52.524742337049403,  4.104980714487235
 3.904509827806860, 11.333838781916409, 59.662792200212806,  4.036148143751039
 5.079388763985008,  1.903446256123050, 16.435129330373105,  4.247287736338848
 3.743997473825948, 13.254830291239202,  4.386142592753550,  4.072463761378511
 2.485243475369555,  7.214738619379454, 86.582105060379931,  4.114948318791988
 3.771345004655250,  8.168668492990127, 32.795873321262995,  3.703956314266623
14.143721819866469,  4.633035219061155, 86.159543495934699,  3.993441897924102
13.401797516097226,  3.709228708063805, 33.077258647696659,  4.033044490558563
 7.376464992453534,  4.135283251068743, 27.197747555682216,  4.036041533638225
 3.196435708011144, 14.267842296511141, 88.842771787785068,  3.930453773038801
 4.005373994919956, 11.824628712256661,  0.757696530856745,  3.656526842908570
 6.036374875493972,  8.605612899655908, 35.876170774583009,  3.985019443159602
 2.100792078122422, 14.574002174929184, 10.843375150377048,  4.051159196277164
 8.859762579598033,  9.256595496157612, 14.755314946245409,  3.792403823502115
 1.477109338384836, 10.589748062002363, 63.131841335362061,  3.827992057572842
 5.178725518886811, 11.676850538696479, 32.744613369959012,  3.836467331337083
 0.954939818711420, 13.342543283410228, 57.980481656055922,  3.850557428377996
 0.511521872185771,  1.891521975560452, 90.243403774248009,  4.034576479385958
 0.633084064274402,  9.004356677886070, 76.297368669193716,  3.931283220430720
12.326073760730308,  1.404399324548799, 25.666263214698091,  3.881211298874485
 1.823816858533238,  5.138308149909742, 76.581368909692571,  3.714422036730921
 1.437434804751690, 11.454044061563504, 86.538303558982378,  4.052561000333875
 7.081293568140775,  6.032440587108423, 63.521170814763003,  4.130413687718931
11.897237375735976,  5.750600685766661, 83.061975335068396,  3.946261052786316
 9.748044956639140, 13.895351594597335, 89.818566232864029,  4.185489519787481
 3.217868135066967,  5.962642056302767, 64.464805788450263,  3.782273795538375
 7.570178669899801,  2.053237287710725,  9.152797530465161,  4.126917051686489
12.715745048040050, 14.479161696166379, 30.768046170282776,  3.860566041098001
13.375381885822827,  0.921771809902162, 49.381285463515425,  4.040637722845799
 1.814224763638735,  5.086113719331402, 31.345199302412166,  4.095018091908334
 9.292378203671946,  4.054082843363692, 89.374392089764186,  3.721825108796529
 3.006216530292612,  7.913607382404716, 19.348998282248147,  3.782301796179464
12.775357323553681,  1.626561486282208, 83.103373274889279,  4.071902207054152
 6.268181539541276,  5.688361360690381, 87.189542944676163,  4.126527338183648
 3.292586544497873,  2.315713356465800,  3.550644036235906,  4.216718210488304
 1.705300750071335, 12.071504961373817, 91.646099516126682,  3.734271755524607
13.371565919109916,  0.493718091352875, 56.141784226090529,  3.607497968411138
10.217665811379799,  0.764329706953786, 41.839050252731731,  3.831720779924659
 6.393130685977555, 10.647371200480890, 73.470670331298962,  4.185749500280877
 9.493529146558712,  7.127450483961305, 37.147175143686376,  3.944398894584853
14.060030971380076, 13.696388115650707, 76.231379711736849,  4.150980463333388
12.762241727206741,  5.605386601609448, 46.800824309051549,  3.827365165002393
14.350328566301368,  9.082517233882298, 18.348248726758822,  4.125211106423202
 3.063809095457549,  6.815307402770697, 50.195510019935469,  3.586454903827284
13.338034854055648, 14.948796682039323, 12.430655219452476,  4.151041720584311
 1.118136233388515,  5.627460720284978, 40.045947007360468,  4.341607369809696
 3.720798265452845,  7.555039524093226, 74.157306951513988,  4.095589193755381
11.755665923455833,  3.149485255636788, 19.251878960721179,  3.883760863368657
13.961901048534925,  4.296388517794814, 56.715282982750544,  4.037665437368373
 3.065036239276557, 11.827274870253037, 18.940459761299220,  3.957654800241770
14.660188503396256, 14.754295463077918, 34.092318732831423,  3.798239889143143
10.396201931456773,  0.541054571776996, 58.692883460403159,  4.032629126009099
 0.794572996026659,  3.240983152174070, 63.292274332239899,  3.852637949125822
 2.097793121474634,  1.812143308117078, 56.637076138899211,  3.936790169708129
 2.046948472203070,  6.822995070122301, 12.404344732548525,  3.782217828027334
 4.063432972926237, 10.437028429051454, 22.688993822955119,  4.270624271595319
 7.091630432054893, 11.435781978466562, 46.709884462306931,  3.991196340104636
13.448129051746770,  6.677089426532331, 11.078452324836723,  3.885958274574083
13.307967462413776,  5.775609045252410, 36.858152278019936,  4.124797165641355
 3.598707207820518, 11.371910066724610, 52.758461444053175,  3.551252807033926
10.013228916493839, 13.993123266931050, 85.608477521245135,  4.246596422676170
 8.544592567865012, 12.951532115322276, 30.873491693378075,  4.270150363559752
14.977272564580501,  8.183651067815326, 33.582186958196829,  3.999419452326460
10.992132349579299,  3.891464632612799, 50.689585608853328,  3.931861319778750
 0.411295553129339,  9.875160877127763, 59.220200404876316,  3.584384934164559
11.265543415917016,  9.115469428905651,  8.682386694685370,  4.114410911660578
 6.389923694556644,  2.223468761415997, 30.686776639547737,  4.088709945517822
10.111563346026220,  9.135983080651831,  1.068422297937242,  3.993116074590732
 6.771340032916625,  1.613391685798079, 87.685281145875933,  4.062666603176519
 7.614955396243899,  6.360798449566667, 74.207072331155246,  4.041861665414397
 8.453937546906952,  2.342603293623506, 64.927303634524762,  4.229614849074622
 3.511234765119223, 14.580955579910635, 35.087961188468917,  4.091173884979791
 2.739303773118155,  5.843267844754525, 57.225782082466900,  4.170704910809135
 8.109903035568731,  8.536467250626746, 60.693805249950309,  3.521260584359670
10.892078788517285,  8.648446512943581, 44.270463079663344,  4.069599594676280
10.411949039485718, 13.737669216807785, 23.692992540197768,  3.772537280431912
 4.351912818255856,  7.974086185093450,  9.225958426744707,  4.390990148027861
 4.882408310455292, 10.082728984109504, 85.080201877806275,  3.901030143128388
12.758514944359286,  8.312219977409319, 14.653421312064784,  4.065789453934197
 3.191723659039095,  2.619367163852414, 41.965815306446274,  3.604155748109646
 5.631042040266781,  3.104376133253874, 84.098543911347804,  4.009116927387490
 6.973925212116930, 13.507319033681604, 77.769561145638889,  4.160951548916801
 9.203681179063983, 14.352659352495261, 38.199336015416577,  3.944920028394818
 8.908117293499149,  5.810851801294988, 67.107950791412208,  3.887320487203466
13.739247215617008, 14.231739767957860, 93.126524168427096,  3.927358640510842
 7.742774167892136,  6.782561620791721, 40.600359948036299,  3.761266586243715
 5.282655840919607,  3.919647794343070, 67.208327967251293,  4.166735521353065
 5.197150724043543,  3.326721880575484, 23.741227575645983,  4.267042074172753
 9.725806371158193, 11.075011246633416, 50.509139057888021,  3.910414865185504
12.576395658063261,  5.619193929687748, 68.741799285911327,  4.135451468577768
 0.562450359518298,  6.363879717567304, 82.237700402060838,  3.647986541366083
10.243017839617153,  7.156057828404645, 79.743558268846485,  3.913232966673416
13.913870257936356,  0.875771668295217, 68.344766381318834,  3.830138595548536
 8.013923700467201, 13.922379852219803, 71.625562112150376,  3.986327043269179
 7.276391847419912,  4.145057591714582, 13.518474803646955,  4.306588157019244
14.501526179930458, 14.697344846194801, 64.602468874411727,  4.006674053302558
 4.894134851526231,  3.700591961519856, 54.506800181639875,  3.978902697684805
 3.109555154228800, 12.230985341474625, 41.017195111228396,  4.234846602619849
 8.481173789181090, 14.296519014395786, 55.272580144162617,  4.153553586694820
