BANDS
8 8
NANOPARTICLES
cell(1), 14.998
cell(2), 14.998
cell(3), 93.735
 4.822490986476876, 14.856771420353240, 79.638428517155347,  4.407272679275327
12.888249907549815,  4.159994265290003, 58.601087511951917,  3.830407533354443
 3.887843453006107,  8.650233443712397, 47.567957639232667,  3.844534107639424
 4.353013884615071, 14.796436606179521, 87.152914755138241,  3.819717172797034
10.513033625014483,  6.165822977840874, 92.528730790942234,  3.928159163001955
11.749573907575920,  3.980425164639382, 54.739179638488288,  4.036879527259739
14.126373071656706,  6.512836414773231, 21.467236403962129,  3.676031554310705
 8.747035420167249,  9.504798822982638, 79.348115520021480,  3.754270123035731
 4.214459503318834,  1.258537796105010, 32.054930104906035,  4.035557492783352
 9.951020588631572,  6.483355691766539,  7.431620924954751,  4.103937505803698
 9.086877103627756, 13.874812587571185, 19.712977285493089,  4.041305690971596
 5.200831076143180,  4.355254590455166, 50.521197417379717,  4.188967187096759
 0.721806606571398, 13.477073179498261, 73.666015349870378,  4.017348035326216
 4.370484422702977, 11.340043693597538, 44.648826253807620,  4.103550873270270
12.934590664313982, 13.711763559643774, 21.150873054347532,  4.052905496326275
 8.591613952545030,  0.129121711462828, 66.982925288770574,  3.963000997894066
13.894010351635762,  3.017369792544848, 75.203286734444788,  4.126770632505742
 7.972279627188022,  4.786983920387310, 37.373936906959599,  3.499648094783539
 7.741605189051635,  9.876693829182065, 31.589643922641496,  3.833036683334954
12.069815774556252,  8.131005670867227,  4.495892218914859,  3.848644716395297
 2.261937311071108,  9.894800215129052, 51.675585620085471,  4.228387784968769
10.779367580835544, 12.307541375140632, 30.766963980584940,  4.105934378350079
14.761967866955015,  8.182175850924999, 25.194306839707799,  4.224960699633654
 1.919150180123918,  4.431805981306759, 31.976338841612471,  3.728711875533697
 2.606962387097916,  1.098583441673785, 41.829797056789978,  3.831115971322340
 5.768571042353766, 14.346815163067074,  2.760136362852958,  3.981726476856503
10.202527135269552, 14.315489537160051, 84.420125324778013,  3.962373507137400
 0.772968522968479,  4.263045603619992, 24.539922713030037,  3.960246618554792
13.757771337018141,  4.402847506961540, 87.684140113619989,  4.027316856835256
14.064312900306007,  7.176256206789141, 91.307713651647575,  3.833703927604624
13.631715044468301,  2.324872118554086, 38.834482093207292,  3.644265880018076
 8.149899567679821,  2.823716993433535, 93.070566267997549,  4.329099125214364
13.150569977821428, 11.032964799100693, 90.160817174961352,  4.136135247693816
14.671736624834725, 13.046919898682059,  7.870897409575702,  3.959630768128648
 5.689292101908434,  9.122913018126619, 75.314314355522583,  4.117511113378454
 0.025071622938478,  9.074786671196160, 86.197112375211702,  4.202412550718221
11.231385612112502,  3.362287425511200, 10.302841844792265,  4.074479274714070
 8.224747130462230,  3.674666441650945, 47.772638398900099,  4.052777092742929
14.541075142686632, 10.875853162762331, 58.749701004714950,  4.122850501492384
 8.920993310091152,  5.589306488753448,  2.615413099868900,  4.378025403188499
 6.440776597637783,  4.602610763091169,  5.900783613642915,  3.958458308488795
 6.511311649129730,  2.080000110178507, 19.132833742831036,  4.174369636403606
13.849687322985135, 13.565997288676815, 50.237994746524272,  4.042025430536076
 1.119222447024913, 12.866220789417667, 55.762955663182815,  3.713379366994900
14.994195220886990,  4.189412758721774, 11.643673751979348,  4.062057193310739
10.221100989778050,  9.404494230774384,  1.153823059064392,  4.106746702294993
 2.892756625465677, 11.797106129250839,  0.569063291028536,  4.033280273374036
14.062547351659390,  4.674097757674840, 41.856120318284098,  3.946939213417107
 8.232784910141364, 10.296475307137861, 61.970042342323758,  3.945766809693504
 1.316966736248962,  8.859829485271957, 55.636467874338123,  3.943409979729240
14.384358003942628, 14.385297127082016, 46.214839053701191,  3.943550864584844
13.111863303909486,  0.547446465476788, 80.840156332868446,  4.019299566316936
14.193445796789424, 10.042054638760108,  0.327298223225917,  4.107591515601684
 3.464222778270083,  0.783540204114887, 93.400863094374643,  4.171179046631805
 2.645517964563633, 14.145460614195194, 59.001489157052255,  3.882561075758124
 6.305834341183284,  7.959802680324444,  7.850393464534023,  3.793069183880027
12.504088862757010, 11.406915479363693, 10.964992696561515,  4.193859537437404
 0.887114746412768, 12.551441769540549, 18.068096929654047,  3.989235930205148
 2.506889693797237, 14.145454966754253, 52.203394727658839,  4.329630196501046
12.453433969853835,  7.266566691407179, 10.599151427703223,  4.114938320131383
10.164122198815891, 10.256487781107184, 82.935211972416553,  4.078940181471931
 9.979942774449622,  3.031909875845793, 40.206909334195096,  4.108399781616508
 4.801379888898896, 10.469691153369565, 29.294125100532753,  3.692448438361405
 2.932865814365222, 13.275384065140473, 90.347555255339046,  3.760801036365417
 4.540248980452271,  6.752521243242835, 13.143442466176577,  3.727200229734889
11.911091094345963,  5.158984653651901, 36.581283498480438,  4.337359941017357
 4.358939225366913, 10.984378349530926, 22.487059238386991,  4.233246891704625
 9.642812716215783, 12.660097355207709, 36.387389093464051,  3.772866531111694
 6.226323259769709, 12.124638826555666, 52.112671289132393,  4.132206363354288
 1.705858442907936,  2.486434326683677, 81.046840641376590,  4.138807209437430
 2.429192986043287,  1.467594187244532, 18.218299701192272,  4.281399042192829
 9.975138983625211,  0.548076466813853, 23.314962121141882,  4.078434627734871
 5.270186774422614,  3.304753850380523,  2.321487789849932,  3.986748031981751
 9.575976810563189,  2.678878287502265,  6.869702289205184,  3.618082907178452
 5.178278147117939, 14.057364147466057, 11.298576112874203,  4.066268710120960
 5.049922509595865, 13.045856302276444, 18.755631941893981,  4.401182893732626
 9.906102146729932, 10.482633049935561, 51.186138217403830,  4.012786025158398
 9.378297450384707,  1.951374197694503, 81.520562404380726,  4.041064486634570
 7.700761559755062, 12.437082407546713, 88.017290136022112,  4.360286570192774
13.757913097409151,  0.294842560541382, 11.014394255266915,  3.970558408203539
 6.190475744085282,  0.329756874057431, 90.502511830992404,  3.828643467153764
 7.000950468761383,  6.259074684274204, 40.750439301073449,  3.944311630306095
 1.152680967325270,  1.901965673804798, 48.792206251457458,  4.072328931491410
 6.689745523440544,  3.084590971528634, 43.267452695963541,  4.134793273912651
 5.278912670368740, 12.920848357407891, 26.312562390753268,  4.043811624175953
 4.789041868592195,  7.988400838721907, 71.245581619714969,  4.440152231438453
 2.132900264774632, 11.547263767439764, 65.275923433248494,  4.057518821824017
 7.690378385892672,  7.638064983996641, 68.122364363259592,  4.028617977836766
10.203030963690800,  4.496719297087934, 67.979434806898297,  4.021214283905144
 6.710986699490282, 11.442156274430868, 48.043498494607562,  4.144574111123290
 6.027508648193018,  2.981171268161612, 56.984564804410454,  3.615606560623009
 1.001039149723923,  6.194901445994936, 71.708470388394360,  3.978642866741212
 1.739824217160497,  9.645743020744570, 73.615722004471465,  3.910024704438487
 3.399222819626583,  6.453731232058404, 53.393691330764874,  3.777236691866505
 1.106555748412196,  8.364728796210711, 11.815225879730267,  3.866105142845834
 2.025258333840295,  0.748508793151286, 37.973010595401099,  3.970911797829004
 3.659182569220847,  0.224893718500002, 45.465365671777512,  3.928525757811287
11.625347418605475,  1.338864041258590, 48.285544973804797,  3.982356101999515
 1.327816591407184,  6.113299896830117, 49.644101607195537,  4.460353950968707
 7.820616501072799,  7.611492632998119, 47.367084913705909,  3.898432289275205
12.435284528883814,  8.799427282873269, 32.756684838953859,  4.363933394871879
 7.569476932498249,  9.863118452962059, 20.070058699944486,  4.100285930680034
 6.380182138383501, 11.713094676615016, 83.927593753364306,  4.230545084693460
 9.162744453607505,  5.084750799784771, 57.639426544687012,  4.039776122508698
 5.182051432971066,  7.923144290540091, 61.201199009214029,  3.863188454521597
 4.707257808135637, 12.201156074743730, 61.855194107612768,  4.038299489442852
 5.365476556464704,  6.316332421508331, 78.318597803505568,  4.040920768064586
 5.134811735260971,  4.489894573421988, 16.181428935372960,  3.927128264544426
 0.534203464647422,  6.969111359859788, 59.208078064478777,  3.941693707671582
12.817899076116717, 10.070539544840566, 62.618510062446958,  4.177700201702480
13.628183417729272, 12.208084894339887, 67.012441254015101,  3.792519558054625
 8.494786796675509, 13.360590557586548, 72.924719563053557,  4.220699972053565
 4.836156455140769, 10.743877806538222,  5.427828038620842,  3.771791133211576
14.070636844602436,  4.823418934439970,  7.548130114430223,  4.307984088889716
10.829212635039454,  9.637245576399023, 59.277144914984113,  3.644943181069568
 4.718113267879311, 11.917128343916977, 72.631323764100799,  3.831738930650307
14.713530273257334, 12.240047136363014, 31.914318761970581,  4.038560869948478
14.985462327438789, 14.425643408162275,  1.179877125368931,  3.881408934282543
14.631791093794499, 10.329329990324306, 46.200671706653388,  3.806092106099091
 1.180856428763378, 12.069643352527761, 80.168832091349714,  3.991578297797014
 9.306255255145128,  9.655421765739504, 90.859180634390484,  4.146189631013113
 8.869650899940650,  6.981289060968045, 34.206328597852213,  4.129977372589249
 5.875748287590871,  2.256974788481600,  9.012941946988770,  3.905392844684323
11.982656439601934, 13.901888371288434, 74.994102174267823,  3.956592137670520
12.268602442375101,  2.885126406967320, 14.271275357663598,  3.913062217815697
 8.927014135456350,  5.724447330832963, 80.190441198412628,  3.984006913149928
13.646924067127355,  0.511734951397828, 42.326771395206492,  4.225029896213019
10.688165802693113, 10.353369752745966, 75.995503029182686,  3.839663400349674
 5.348385858964161,  4.154174988614888, 60.440633079617733,  3.806119307277186
14.547968555717228,  2.457599601153176, 21.070392210083558,  4.048410166067934
 7.440222178443229,  8.548223406387294, 58.063843813873696,  3.717882336942320
11.867324011441145, 12.768099007294015, 56.555163301833296,  3.638143665622552
 2.155354388824469,  8.902468781295445, 42.083779511303959,  4.209752193026517
14.221680428217963,  8.501445434065591, 18.115902895897779,  4.013618552643352
 8.782108487780533, 12.561244361922821, 11.941315093711079,  3.836426393601303
 8.827787824183542,  6.269619673391104, 75.873469224690481,  4.364653762788156
12.032897104421986,  4.991696403721843, 71.904646299739298,  4.312970721739837
14.406207368410533, 10.761288718325677, 14.634068507158235,  4.107505000321432
13.700873306689706,  2.191383692902525, 61.866625034911031,  3.816659545317460
 3.737242546465550,  6.986182663457095, 85.784754111456948,  4.089768811754007
 1.937741197679014,  7.917136825239305, 15.479344125148057,  3.631218990369535
 0.372602179125345, 13.196884075435465, 87.274277208792967,  4.235547148621905
 5.441461784283262,  7.469546145893020, 44.180485255940830,  3.962934400481997
10.696074809696684,  6.314349022791171, 50.086024047174242,  4.311006695249485
11.624249190148571,  8.100417862494695, 46.610800160142304,  3.710344431594746
 6.560233076640936, 13.832742494446730, 29.958337609662262,  3.895505940957407
10.475281529703942,  2.836759763113375, 19.980402744517789,  4.062494678077469
 6.771247391619444,  7.727553924562785, 23.650324371483546,  4.198167222921921
 2.529231886901299,  9.255041138443278, 32.298317657673124,  4.176779327200150
 4.921637482284881,  7.332623952893329,  3.200627702869425,  4.277875564758504
 5.637933615753882,  0.475341017182662, 15.459048568772010,  3.869994183506138
 6.553708850258055,  0.766532429192927, 84.054248749086412,  3.872409764873463
11.864386888977617,  7.543873426780907, 78.339877117768808,  3.844430063444094
 7.649454336841893,  5.493805703620513, 10.852017474500405,  4.271100445023301
 5.519003610871291,  6.380065845567367, 31.853499760766230,  4.110201337529581
13.697106292285874,  6.885425977244410, 52.810090719104309,  3.867401838734809
 5.287341397535749,  2.816835871385650, 39.331138725171478,  4.210677723412146
11.525429672772995,  4.113655716798990, 32.519207552609508,  4.043003393766532
 4.147313296751512,  4.565636272043466, 35.509595471064237,  4.491876662784207
 3.124121399826028,  2.836362087031676, 77.232896358132450,  3.939538278676482
 9.359194512531529,  1.445253579573861, 30.341764707822460,  3.706819023861829
13.579887274215455,  9.235467353946403, 49.731163165942341,  3.824908406111879
 6.106195906541672,  3.361752837479663, 29.161085534571125,  4.043925169698541
 2.570155496335241,  4.962333529811478,  5.484059642909367,  3.809620543958463
 2.903495878996700, 14.084369869683714, 83.438171107836141,  4.225627015404866
 4.508846191815737,  4.405055386130191, 92.183248302043623,  3.740505594677836
14.969671475449674,  2.698506377741289, 35.077515149336122,  4.064503639150108
 6.407338488067301,  8.459810721995522, 16.271170354776505,  4.293563321862520
11.612873704200405, 14.382922286610141, 39.216258396770328,  3.522188151393607
 3.345674989568909,  3.017797009731469, 84.774417765783440,  4.059091651365009
11.189667361386464,  3.709719369829765, 77.925256919974686,  3.561992380423729
 0.378644493116082,  1.047032476629511, 31.571047686499586,  3.707932959481032
11.758871236950222,  7.771949051833757, 88.267584079823607,  3.889292423528994
14.497710245338459,  4.077121826286675, 65.277268702707147,  4.053273418336475
11.367823524706891, 11.260813791132216, 86.591636384498173,  3.852587484628025
 2.042899832979633,  5.941902229043422, 89.214450910475250,  3.837826380297008
 2.454291892462751, 12.425952541083813, 48.218195364308457,  4.275063985127322
13.640456861301336,  6.066997266873932,  1.410699014705291,  4.199281245160456
 2.769430993110980,  6.607492524904480, 28.936448397574896,  3.919264823057770
 4.098866542396723,  3.865368649119466, 70.920822464940201,  3.929912177483228
 8.981808735847231, 10.935937862568331, 54.958137153685925,  3.799081414190862
 9.334291148431779,  6.878792433755897, 43.837565602333768,  3.869172514325483
 1.657350732100365,  4.539428302400085, 38.832902299987417,  3.801923366744605
 7.508298656150918,  3.778891251958477, 22.698310993364437,  3.930724687559691
 6.779127385436161,  7.424479033863788, 93.195749354399624,  4.055700820404433
 8.267304149563257,  1.489132270995926, 87.463629355189937,  3.877117960738049
 6.506169820632751, 10.698863446085044,  1.651303393412230,  3.767893833851983
 1.261044132337545,  3.000521283506342,  2.337074727589021,  4.047808197928348
 7.428740818012440, 12.589696168440772, 76.980144112828185,  4.303333461765534
 8.184205940432674,  8.490322339386415, 37.791528726257866,  3.759072330352153
10.342871412481061,  9.413860586587139, 13.825241983406450,  4.008669987377129
 0.703343950453472,  0.274682662149009, 65.611685007916719,  3.950139563509084
10.295803943123886,  0.153739563546314, 78.203433655798378,  3.712378115540700
 0.147578591707077,  5.269588475262186, 78.415808599911145,  4.098354865537310
 5.466248393295996,  7.890916121074098, 89.382509542896230,  4.042776627149077
 7.908842368052789, 11.559340448776249, 69.072552775221411,  4.009651478643003
 6.748082683178805, 11.642487360185166,  8.520889893794452,  3.668755115401919
11.520458078275388,  0.002908510415207,  5.483083519354708,  3.552208758913090
 7.079484234684515,  4.627691223324488, 85.164535545923670,  4.108832368280524
13.488563415968274, 10.892243507802215, 53.464720359417569,  4.250670005233900
 2.753434503141386,  1.388700676739348, 55.756776184966455,  4.006158074023425
14.119571216117864,  8.564830994628945, 81.578452700112010,  4.301232928513383
13.853657314069743,  7.228348910378763, 74.938672607191236,  4.046670327195359
 5.695759230272818, 11.058145222091467, 91.675420121209626,  3.766700533131156
12.396048103098732,  1.121501259951193, 67.692588795607733,  4.026315706829180
12.235463128765128, 12.022268919335120, 43.467205560869239,  3.632936891881545
 0.273274122525272,  8.002707469192979, 65.118976493086294,  3.953906630297518
 5.605414779229043,  0.509819529728150, 35.840140938655331,  4.146701015407006
 0.355486455281621, 13.215530390226498, 62.057166852243761,  3.955983342499932
 7.485090899282772,  2.786843698983189, 77.904204205851627,  3.977534606539221
 9.767060777827249,  6.866710392118340, 30.302608121404973,  3.846025465742314
 6.576023331950350,  7.196108007403552, 28.019176388040488,  3.990089555307136
10.319858996494174, 14.634126377406375,  9.032412014321299,  3.940597078772494
 4.117099368762486, 11.035013647864554, 68.599369731327741,  3.703438802596185
 8.886613733791211,  1.585705208371730,  3.324405522807452,  3.752191212506125
 0.875366046191279, 12.395184879760317, 43.356758539947720,  3.629439435246424
11.562034208454529,  2.976826858507241, 90.592366440676798,  3.797105691232996
14.565052610950911,  1.370967262275030, 84.600146665925720,  4.179964966510746
 8.201855280293712, 12.327638290960223, 58.535844266384558,  4.017563951667177
 6.211431576917692,  0.491061945892219, 59.757328746634272,  3.842380829173975
 1.783207317246242,  9.556913078508268, 61.885415468994495,  3.800229458759122
 7.585449134308219,  3.142545841924465, 33.369336813606083,  4.079575810099617
11.961715388887541, 11.792276218343082, 17.739709391927324,  3.987678967945938
12.021206085265462,  1.919539922231249,  0.544449757157715,  3.924976393422083
 3.828780114579853, 10.863223738753831, 87.116233725367124,  4.109696599505695
 8.334189190082428, 11.747698090852021, 23.726726049122188,  4.219022876411485
10.813421290439155,  3.009920369048333, 44.465038476937373,  4.435224907575862
 6.003861949077964, 10.555592397442085, 65.258485878507699,  3.934338013939513
 8.389298402021677, 14.283473790020130, 33.272754587742440,  3.668906880738634
 2.939846233044106, 12.459008986900198, 40.108328355021854,  4.061822945092729
 8.580036212707421, 14.463266020784509, 49.890151095434852,  3.852145701390612
 2.707005694987646,  9.974364651316922, 83.219644889314807,  4.010903072058160
 0.612445268263751,  4.875420958304858, 55.708035883462820,  4.116144473275695
 5.676916548393751,  0.053724699439379, 70.058547544315545,  4.496948338883617
 2.743158765350626,  6.254781374077569, 75.286387088676676,  3.879664160769446
13.656221515435814,  6.405175680885460, 68.397340181833343,  3.903205353259583
 9.512214986884690,  4.450230253192567, 27.033619918256147,  4.276638351959008
 5.745987010417949, 10.158560140030167, 11.911104621651651,  3.887603740662839
 2.213917962823630, 13.305578506455516,  4.210912602251892,  3.930072530463667
 5.271583756649780,  6.624673474163235, 65.053430467311898,  4.033194594303696
 5.658376239467995,  3.659706546675300, 81.416456652778749,  4.127328348437032
10.920323888848614,  3.243510479243579, 85.047225365866893,  4.058922712612086
 5.109267962892052, 12.245717941299668, 33.393359508562781,  4.019040118450387
 8.978180227733858,  5.250353860141575, 14.915044771641028,  4.230632674941202
 5.824998214809673,  6.132579551317090, 19.814930908034832,  4.135259720549182
 8.417106180253112, 10.805270651905273, 27.778813108518765,  4.072974648913387
12.013638997470425,  0.251003652935531, 33.127409330478315,  3.828761614183609
 9.202071723482698,  0.807480858237413, 56.325358827795249,  4.185965658370140
 6.138151481796717,  1.163497983336942, 53.362656089453182,  4.288727033005464
 3.894047029653458,  2.828621265073068, 12.581877934346984,  4.299731982674476
 7.773806109476011, 13.577994302974599, 93.400676974474763,  3.544858036786843
 8.375543552031493, 10.797310911610239, 44.253592597044012,  3.982754701283704
 5.971805146516827, 10.041728283251496, 41.193575465409772,  3.941104891588952
 1.876079948575690,  9.620179744486309, 90.350829463192539,  3.836613767920765
 8.257588412042022,  8.514713577662194, 86.262917078955738,  4.304941092181330
14.488757103626270, 10.927032157690933, 76.433972235847136,  3.741971360734993
 0.720022816481895,  2.848859726744862, 44.926511804733508,  3.899007229046219
 9.765322587483091,  2.292126315370095, 74.561943798330773,  4.157920087744783
11.334153739968970, 10.111098495542359, 21.249375688048456,  3.767775548749295
10.831983708233190, 11.103823080238270,  7.174740598806588,  4.100568848974791
 5.981748928107824, 11.738691715382354, 37.494403245272210,  4.087271530877697
 2.319961331889838,  7.362421276553861, 93.620776762136046,  4.148389252405789
 2.554418824173198,  6.564031441439203, 67.995517178619920,  3.932031903257865
13.751904176950127, 13.200026145578441, 28.143045469074512,  3.975724792273116
 1.883938987866177, 10.613240612344018, 36.353854719300180,  4.451774204412036
10.100213775625638, 14.414498360970153, 27.184251181466475,  3.928574987856088
 0.183947781049868, 14.856761294465240, 77.428967217147473,  3.964280386945244
 6.616536249826239,  8.170107331764422, 51.124067450917202,  4.016678138624182
 3.230784320007428, 12.241529545407960, 76.650251996971079,  4.141241248742090
 2.595271350423566, 13.667293783116635, 29.408701267847249,  4.024145693809837
 9.532630493306527,  2.738268141189163, 51.702332638731910,  3.859361043950367
13.296688910709278,  0.709077986580085, 17.580263977340820,  4.128451497265043
 7.045448027309695,  1.434983607566719, 25.842236648902755,  3.852679052428109
12.587914415201455,  4.531465975180969, 81.545765558312638,  4.109020800951395
 3.532268626913989, 13.427387129189206,  7.812706611722700,  3.740189518631582
 5.338931586736432,  8.675703661773726, 35.077490501170516,  3.810411490359321
11.659517891808276, 13.247923718358187, 60.317171893650347,  3.950984862688473
12.089876663279089, 11.744735851464725, 79.539161912462632,  4.267585803581635
13.968383126611853,  0.478778970347182, 58.012911842083561,  3.780329462922547
 5.720630365232619,  3.883169059896347, 74.496631642287738,  3.859299845277484
 3.201088992281924,  9.223651407632396, 18.904034047778755,  4.078145169806874
 4.974151995368430,  3.442722406979595, 88.456509406347806,  4.002863018353129
14.114901486598637,  0.767900457891999, 54.080135937115863,  4.046867505227350
 8.538788106882615, 13.185325324673313, 80.885543119762360,  3.760339453487620
 1.911839504686977, 14.222151760798260, 21.656896168479143,  3.969972342551051
10.992177845432447, 12.110669586303484, 47.380848344727468,  4.545196765385517
11.867292659815002,  4.167313686939528, 23.597217416078252,  4.070242266904002
13.372480946397298, 11.926158244661945,  3.964284288015516,  4.241099549514199
13.332158283242439,  4.670093964282611, 17.955440079402447,  3.806280624626565
13.185708604431172,  5.951455073907379, 62.106182409570316,  3.724453902365902
 4.137328189800685,  1.460430511529366,  5.612216001859542,  3.829001775881520
11.511930848328532, 13.042756380090626, 93.723448272409428,  3.955507751197718
 3.107643273509322,  9.784572870127452,  8.842775544330589,  3.830609158446959
 1.510733931274885, 12.308689533692796, 11.429489766559344,  4.055815123185135
 8.641132707647269,  5.244806183011038, 89.014698730205424,  4.242131547053748
 1.928009185971680,  1.768314453460780,  9.023274565068490,  4.050000306364358
 3.262539313988289,  5.733201476917587,  9.437423931110743,  4.345067109125263
 4.223919345059324,  4.265174707701541, 46.429281381881481,  4.215670527759624
 2.123059736772946,  2.633585062696049, 28.397700889439584,  4.187274599512781
12.141120454564883, 14.386491470688323, 64.088471511797323,  3.971759321663871
10.689539512183483,  7.812408901162445, 24.875007544870893,  3.971943795921420
 2.694951010012371,  6.441981805056411, 81.333086828381639,  3.993937992983314
 0.546724727416850,  9.726319075454132, 69.692247471549337,  4.162202070895090
10.090859435936288,  7.676387015034559, 53.705677037345694,  3.515182786056170
 1.275388790648439,  4.216039103280318, 15.415413392626746,  3.887700918720332
 2.276351011594227,  1.964906913928973, 73.632419262278134,  3.601041565022462
 5.537874328610958,  9.272004017135490, 54.823831082438133,  3.842797511604783
13.333866981293978,  3.392750974523853, 51.178314135254588,  3.844592511948394
 0.669784216308582,  3.056213823127576, 69.067550339062407,  4.022539404908128
12.574109416227138,  7.528784381990609, 56.565673721794482,  4.058639417618049
10.751012065336953,  3.088622217313903, 64.288786735025909,  3.934834763872878
 0.578995848180560,  3.547617703110158, 92.066379764850723,  4.009474682006748
13.984210779931569,  6.040942473895528, 29.973799539310786,  3.998973590544621
14.033209728515436, 14.942679924275584, 91.064801724155316,  4.061121559531461
 1.003379038998418,  0.118951368464306, 14.438832046111273,  4.194331087084574
 0.477994126398503,  6.790174977298484, 34.949705685130006,  4.134213549337446
 8.298382992563488,  9.130870434227315,  4.740553725070486,  3.955970930658364
 2.069670880225900,  8.738384286749277, 78.179955556460328,  3.839173635288061
12.211121739207353,  9.320720191209547, 28.321779276252876,  4.128064720763822
 8.204632754592977, 14.218271712954547, 63.034100389900367,  4.174564594684921
12.059695203736304,  0.505679598410768, 87.672102638180803,  3.860318918451112
 3.602461410340761,  3.151097654869848, 21.861070806941719,  4.062394450321277
 4.662406589750080,  4.601476304684923, 25.538519942181061,  4.093510517376514
11.322916679675348,  7.279293929875974, 65.261626281411665,  4.063541503712346
 5.025623046625149, 10.641557023352261, 79.974980706992241,  4.055585505581817
 0.016281896068934,  1.210258047482065,  5.615022689154890,  3.822680676114364
 1.950273962750685,  5.438494774288571, 19.065389478764303,  3.872143921330816
 0.281662765487953,  5.572902705415164, 84.271647543178133,  3.802679015582601
10.735038099959592, 13.893891303320121, 53.087669963892459,  3.930173846486896
10.018703322772469, 11.199543398737687, 65.545634113148679,  4.216916291528205
14.044517951208666, 11.360115826539381, 40.147044650963750,  4.002371893572882
 7.880796577341364,  5.070408451385707, 71.381451838396558,  4.056599335572708
 7.116599127639472,  5.313349279949915, 54.084347141273540,  4.118920054003048
13.383285376665507,  1.064686742676628, 71.683560898791200,  3.983342512291566
 8.953591921590943,  6.085722436348368, 61.836726015568466,  4.597750800122444
12.347141688491536, 11.554334301757201, 24.749386278661394,  4.052350075523964
 6.746082716743614,  2.987699665800855, 63.958063583734344,  4.096994175018158
 2.222803818574226,  5.505773311047423, 62.570579849966059,  4.113612372442270
11.421919304419193, 13.080603309613194, 70.031378431431605,  3.878617420276381
 1.926821644396358,  3.145938457539497, 52.415314179517360,  3.723300720534947
 9.896667614040666, 11.059479465996530, 40.396131495572625,  4.315884607192658
 1.085120910801407,  6.758630204376994, 45.458267205412689,  4.023336581417929
 9.589809549510070,  1.517153125582173, 70.587648102124263,  3.917189471555720
 3.029968244719292,  0.844606422996472, 24.982066106237230,  3.722302061270388
 8.275373948903031, 12.302310947481311, 15.952999528214852,  4.265300758445815
 1.111731046979761, 10.101867971378498, 28.630781041443527,  3.829496814270545
 9.365886310057824, 12.719479804639647,  3.340006894689747,  3.996016295280877
13.287454755287621,  6.738448787619691, 14.593460619957485,  4.079933250510803
 9.791516873352061, 14.540808597978224, 42.402564240986003,  3.700193457663544
 6.339058247750136,  7.753618694762704, 82.583908348082474,  4.130346296562096
 2.807051275976543,  7.119223225085054, 22.580333257909903,  4.068457149548077
 1.392146723376731, 13.924190748641511, 69.512562681326699,  4.402957869594207
12.016887905351300,  9.469812898840829, 37.007148660791046,  4.264603197229248
10.872207914624409,  7.006974168173711, 40.173583403992026,  4.004820039939307
14.456140305525130,  9.059619668979861,  7.513127607184191,  4.057457393315944
 0.979191650570069,  8.626405533990850,  3.740232351586496,  4.074630643921210
11.179217423012304,  9.350356244423253, 68.947058590505009,  3.863630125123869
13.555648639055216, 13.260134175198742, 36.167626581788028,  4.048081271720140
 9.885448462620545, 14.610137998051441, 90.635218828699749,  3.696322556464009
 5.193162737976063,  0.049166717543199, 74.648101415581380,  3.661671472187320
 4.134285945080332,  6.413969672305955, 57.336863201255362,  4.224305726019535
 8.211707749046370,  1.640040994767561, 12.570949517673673,  4.209934301138983
13.917599030410964,  0.577968071255895, 24.759820749238457,  4.257135277393448
14.571489464733956,  7.578803449301240, 39.369894565523516,  3.644986603533743
 9.938644040277687,  1.994688591368436, 60.353286228606130,  4.275879372009394
 1.908570242393436, 14.230281367525462, 34.435077645384524,  3.730062016429384
 9.805808490590419,  6.588907190462417, 21.197442894724045,  3.892644307233886
 4.772705196487229, 14.416319683438134, 66.009492346388441,  3.866236380284395
 2.972863729119850,  4.910732145108938, 42.460140316688971,  3.916664733940506
 5.949940566885770, 14.169942927737360, 42.298481986730927,  3.886486724775094
 0.287250385601743, 10.362734859704691, 21.613839791064134,  4.181810111200695
 7.797527751612105, 14.927111533631681, 45.900287103990422,  4.320406828810901
 8.940853225195397,  9.060842947128048, 72.449288806186331,  4.464931132708290
 3.712462543054568,  8.983807140284739, 25.982952739904405,  3.885465976045837
 9.951074151585658,  1.518487815510656, 36.201471165215267,  3.961490079102965
 5.838920597881171, 14.818479882542578, 22.476630764147938,  3.979986963905671
11.768365524480945,  7.028580352806761, 84.507883160467784,  3.771220847416948
 6.533241111819390,  3.474297056014750, 68.062291938375452,  3.580915152718147
10.296221222704014,  8.064654883867631, 17.591155686342294,  3.939754138141315
 3.329632985655536,  3.197780311275724, 66.086945525613061,  3.959464809234229
 9.040173016282878,  9.206503694668713, 10.160686613358443,  3.776416929546876
12.953093773662577, 10.631820062501225, 72.764564221442100,  4.071100005110367
 5.090064343981627, 13.058212969811507, 56.008756758698084,  4.127717010014461
 9.423353357162819,  1.237574725140899, 16.441047956440659,  3.932120912848105
11.756903113364817, 13.859961048209662, 14.215332540947484,  4.073078337509479
 3.490909757539199, 11.489891384536577, 15.022073733507883,  4.190902480240897
 4.925325890310027,  0.552233172467401, 49.185228079963323,  3.891047620293677
 1.475406201369005,  1.800867067222329, 88.679770366013045,  3.686045151396544
 1.390054626820737, 12.187985605303846, 25.211267554092959,  4.163326206497688
 3.320793675370620,  1.055230513624304, 62.543034976858749,  4.258894005247513
 7.448660168785053, 14.622318346882727,  6.316658997656817,  3.868046112689637
 3.549857405377186, 10.315934715186925, 58.504463470822067,  3.882962266250373
13.217193859449262,  8.368913854960132, 43.089839058975933,  3.957661182104855
12.147965691965069,  3.457428782052125,  4.165639265696653,  3.938822891041115
 3.944557530003580,  7.687103147541824, 38.595517901263740,  3.991805287147637
 1.667597351323607,  3.099872338406991, 59.278584018911936,  4.106694774819203
 7.940723626602987, 14.808846094679685, 39.060320634655611,  3.813060692465836
13.299171261863176,  4.672997409370016, 47.250894680032047,  3.737583855658272
13.708589076548492, 12.391828734029716, 83.453521228133170,  4.250478741041579
12.892428992552885,  2.232397064011551, 28.608626047427279,  4.297428299909984
