BANDS
8 8
NANOPARTICLES
cell(1), 15.018
cell(2), 15.018
cell(3), 93.864
 6.749141158631990,  3.616637177024511,  4.915904759864313,  3.959269370659044
13.845515449651300, 11.390308746804216, 28.853868269970633,  4.152825050527073
 5.171449800906973,  0.178509610102453, 42.539631901782485,  4.120678232773333
 6.240827757982255,  2.445101269872083, 36.023086069723426,  4.145676660759295
 9.818660625208967,  4.291687610207923, 56.219854601937072,  3.972345993203121
 8.183549380658468,  6.905894080040146, 59.006075417203263,  4.314603790826515
 8.121327414774742,  4.070749733343690, 43.878996300853458,  3.806640023460456
12.329712573044370, 14.522922899143859, 65.434996621788301,  3.782458321703916
 0.715345809425077,  2.433438105974709, 41.962519082226301,  3.993350553891498
 1.258841457917105,  7.740231216830145, 19.196856317418263,  4.284916332388804
14.207847231840711, 11.204434723413190, 18.327061189012284,  3.959328418391043
 3.377814203679616, 13.259270822243902, 68.597172297120551,  4.144871571944337
 5.245745323281785,  6.738112096744563, 89.833844499452212,  4.201491105856225
 6.229879615027474,  7.485848326272362,  2.773793989955142,  4.289352706790084
 5.952737416450545,  3.029912136168199, 62.846043617406210,  4.313703832814540
 3.391951807077734,  4.316894767491067, 17.812466817561308,  4.227769807777086
11.066692059388140,  9.469889621022014, 37.825987792713569,  4.356323723499877
 7.280453294392204,  6.307363464993678, 14.433454193162628,  3.696384556315293
 0.758768325226962,  3.071795144768602, 28.422035351941553,  3.941412134628155
 0.292729711076144,  4.946844620011655, 77.650474701746276,  3.852024451442118
12.683174387095509, 11.699355078458217, 71.708606133516071,  4.093346475381541
 3.431555013732389,  0.581338650964167,  0.024922181922385,  4.048858228112380
 9.565457816684290, 12.479112226590951, 43.986207837547383,  4.195099483355548
 0.348551626101731,  8.628298907058733,  6.494392424309178,  3.585897872175118
10.258713636234921,  9.704702217744114, 61.459552315920597,  4.183429627568739
12.759824900754293,  4.201127161097544, 34.283452369354912,  3.859710074646274
 4.544736085638721,  1.287606898719815, 21.545122034284571,  4.031181116554879
 8.995996203432570,  8.025731498222720, 55.058618459492379,  4.016642802941943
 9.228167313663363,  8.630337785480426, 81.134382070986774,  3.648202340035889
 0.926046690999589,  1.247613963477273, 23.465550765726846,  3.706203683870448
11.859348996251576,  4.010760239805620, 51.451127584161206,  4.165363891939553
 5.039925987252441, 12.456090544000082, 64.904208394438484,  4.062284811118923
 7.657379107331959, 11.660984162949257, 76.318274433752080,  4.101895647783118
 8.689143302806750, 10.894383727272400, 57.861210924156104,  4.010396371674175
 0.003205581369553, 10.607232891049961, 38.734538898560636,  4.052312590707538
10.409895897565717,  4.636969485062593, 71.242294518951823,  4.078446685006021
 0.994166524575561,  9.377131614167574, 70.592260420131069,  3.533772797987523
 6.992105797617799,  7.846060954645333, 73.339371533887672,  4.003214608692279
13.437870889922381, 13.356785586112066, 84.469672502553962,  3.751079103473464
13.151512945425001,  2.080752851217641, 55.013106296926743,  4.333922706714730
 5.820503398546597, 13.797656596319266, 90.877084816508059,  4.363702574507186
12.050639291158156,  7.821754955733529, 19.034205122151111,  4.132066395139653
 7.743717830886060, 12.065447261006200, 80.419157606799047,  3.963708837345215
 0.981715824325072, 12.885989336080511, 43.209325725310414,  4.074659285244701
 1.844593844177135,  3.538146647156840, 53.810454288877203,  3.952622609176133
12.618601844706523,  0.768820852860358, 11.460436808357978,  4.162093551461761
14.880140848991845,  6.990490025921709, 36.484296854702727,  4.410675243248044
14.524502836966573,  7.770311560279803, 65.041655438623252,  3.871282993128828
 9.897998078774474, 14.979443409381645, 26.847951010190705,  3.993604924460797
 2.649726865619876,  9.531147326413421, 63.169398825571172,  4.248472161575373
 5.679124855888965,  2.965423494643849, 46.701828218606423,  3.902462995671256
 8.584914847088701,  0.745442197685091, 12.076507707250437,  3.892071308520961
13.069021620893132,  0.319262350747854, 29.359584968376836,  3.929064737975161
12.966485563718981,  8.477643697939198, 81.379873792873227,  3.850630584844263
 6.223051679571408,  1.054955192507629, 28.386178270712559,  4.256925194273686
14.659059902737676, 13.441943084827717, 61.640113781323798,  3.780443429106034
 7.942355301433071,  2.689043706644299, 15.898581689855193,  4.176904753282805
13.459989553284590, 10.360232934704561, 67.905727826525933,  4.116286389821168
14.379387194973463, 13.080443899540912,  8.528964226731881,  3.824672108291971
13.372396189754369, 13.459374300757348, 15.185673747649878,  3.883260685355167
11.458115413926631,  1.989438679233691, 68.324673058611864,  4.032368394257212
10.736133775391282, 11.226683536753747, 26.095679141716605,  3.794311797960114
 5.361615197122916,  8.031975245319623,  9.908708587149356,  4.080960815843321
 4.162258064532145,  6.799645938161403, 76.131159912501431,  3.934425305823142
 3.688301178841863, 10.799012280636223, 75.203424149303771,  4.320401803783761
 9.481503984349064,  2.065745301081529, 64.833130127303605,  3.938620337544258
10.047289806557764,  1.298674819603503, 33.970806858072628,  4.030845642529010
 3.294285094587858,  6.716175734065365, 72.065761638805384,  4.091358968215337
12.927893361145976,  6.453568022314569, 68.324633605426655,  3.712353299056568
 4.781500534258405,  4.166331227851003, 50.749044658892650,  4.192081218253922
10.497092137005723,  5.669077727896997, 16.173599273284491,  3.666536197282215
 3.315097415556927,  5.982293865540798, 79.855612311696348,  3.861345481533096
 9.270991049317885, 13.064503964732015, 22.919281959122241,  4.105795817487166
11.349497748974757,  7.422209061349484, 27.432703332160269,  3.975043943393298
 0.178368542787229,  4.895505798922199, 70.764128489624795,  3.561841125967893
10.069748418666210,  1.171249393022605, 45.674190139337696,  4.005144446329518
12.059114041926154,  7.797120618836922, 58.097180969051244,  3.820634650723572
 6.772293631434247,  5.697000207135117, 81.831672479443654,  4.112019017939215
11.629177607544547,  9.938518823713913,  9.694351258283778,  3.826893496070067
 9.222019834950439,  6.360634132116207, 30.624363895990015,  3.873849923712639
12.116302723927749,  3.235111477398632, 26.935848997671929,  3.843821717166512
12.327555484764877,  0.055085237522038, 18.791451854762325,  4.281196681316436
 0.069427271942607,  4.185025846493780, 85.807632125478364,  4.002579524568148
 6.529748988420458, 14.133605367089986, 46.230563899622211,  4.023261593878376
 0.717278814975637,  1.388495215276354, 16.525831453627735,  4.082412967949110
 1.961194600898764, 13.438279061631647,  5.490845397397302,  4.195679008275786
12.226297951441078,  1.352141464483799, 22.666293231849014,  3.860446031328292
11.772341244766032,  3.430650240791790, 41.054908727802037,  3.944257033490110
11.791393375845061,  6.775537893312957, 77.994179525138819,  4.056321965521381
 4.993315540045245,  0.611800510870137, 17.696148449603275,  3.830915293512370
10.972137306426969,  9.307697500519309, 22.703450504931364,  4.011191199772019
13.985215170828383, 10.724539152269323, 34.921756438371396,  3.834438075507750
 5.823633781862203,  6.468035582632964, 32.339166649561157,  3.717839624441907
 8.270087212868788,  2.711577592822263, 52.908653981730723,  3.956637875359517
 7.941505812447325,  3.540428834744732, 77.853924296912226,  4.218864506840789
 4.601414026777214, 10.348742596991242,  5.171842554937657,  3.856571605522199
11.622038288173480,  0.083612755659645,  1.335919362290498,  4.051251973674219
 0.602532900827589,  2.418504927774073, 50.220228654542240,  3.914871402876874
 3.693533223918803,  1.883881842835799,  6.979174822030329,  4.101271648581955
 9.176395372250862, 12.101108606534146, 64.756696947724677,  4.150059820493649
12.945579605499892,  1.788768652234200, 82.667416120620160,  4.069036540768950
14.431569233909604, 11.357157153268311, 12.021740258554546,  3.963842042666084
 7.954900639600090,  4.766133914165107, 27.083769956720911,  4.201451106534279
 7.144336083852843, 14.224551408325386, 62.013990593267046,  3.851938226966799
10.382373540715477, 11.489030540304485, 19.309471272122170,  3.936263685970650
 2.453020823498459,  4.499097541807758, 92.571188561208402,  3.685864868501037
 6.979677490450890,  3.793420127606687, 19.662203177666299,  3.875368148715209
 9.770532071393259,  2.469310886031769, 30.027214436011491,  4.056339889648400
 6.950492808957480,  3.720916245381487, 39.998012004248729,  4.320032022756525
 6.660423136258725, 11.950004444275063, 17.759745510898995,  4.176497590685320
 6.662852134191905, 10.363522630538940, 32.824444046889241,  4.288241754038185
14.120307966333257, 11.260517727610122, 75.580952950511161,  4.211853911940826
14.334668453930245,  9.652906731869443, 60.713506596126074,  4.024935191963903
 4.046000380274280,  8.097278856653134, 49.185473000543396,  4.164880290351991
 2.298038626937929,  2.164818876234680, 35.532242596694559,  3.814733021816648
 8.316324395912037,  0.111672094593464, 19.625229181773978,  3.894970244046648
 4.318174772199146,  4.593293683989376, 29.315169098828008,  3.987018747669248
 5.179658171713444,  0.176788966495870,  3.625281676773527,  3.989608741737046
13.970643823630112,  6.926279216402730, 22.334578273972131,  3.670214154521521
 5.336778932530431,  6.736654370705922, 61.698271937117617,  3.509876009750431
10.831380890874174,  5.137397489567754, 81.596687783612808,  4.087677940090034
 9.290460541343618,  5.300065699795987, 67.317318016992530,  4.125634245505433
 2.771906097413767,  9.631718428214219, 34.490753845307765,  4.045674218112434
 8.208509588312509,  4.915074399835361, 87.727514826141700,  3.904690724900461
13.262861559352162,  4.560478317742687, 74.367869967491998,  3.900600233132297
 6.968100535297680,  0.128370167935441, 67.434942367290617,  4.264016939233185
 3.370049636723118,  8.704464525524211, 38.231755475240284,  3.746615747012112
 8.251537280259246,  5.834875633365068,  7.963734527334584,  4.134931217281690
 1.929957930339411,  7.845911785378573, 86.346769784855326,  4.021905040715874
 6.227595336281698,  8.488225593780831, 28.815465296179315,  4.238502943206229
12.178223934297959, 11.033645471313617,  5.623010102844377,  4.453296485153111
 1.947373677624038,  3.266994776220310, 73.675819794965420,  3.976943397054564
 6.413571734837924,  2.761529295349636, 32.064162207624733,  3.795336202371610
 2.564070617251206, 12.619144698750466, 16.361766872877020,  4.342337295164119
14.067350161698549,  6.519700252846298, 40.543263592100629,  3.819344734215735
 4.565176568677206, 14.934376753070469, 10.582545719036563,  4.248711100752988
 4.159131039037256,  7.727517807716659, 45.077040283129385,  4.076830269028354
12.075593813277100, 12.385562526549366, 59.080675021008915,  3.777935690111926
 2.610044504049949, 12.051583146989630, 59.278415702909399,  4.292270726170956
12.518812395366671,  7.114747297763011, 13.160957297018582,  4.114561614807183
 7.404841094257087,  0.254976074140662, 74.891321446943337,  3.670129317322224
 8.244692351532240,  8.327627769024820, 25.310350127030901,  3.760009552403923
 9.218997868018004, 12.496951435189056, 35.432541197344818,  4.100853473338248
 6.106076347673220, 13.382277472485310,  7.057430569528015,  3.838476938326289
 0.015369615547964, 14.198961817743013, 52.564200757962823,  4.126227438317326
 5.130344875081848,  7.114720445622062, 20.003800016007247,  3.665636162019540
11.313477198688592,  4.412595510722858, 59.835097667211933,  3.818563676570090
 7.639789335644577, 10.150699028296780, 14.180474326364083,  4.036435756961528
 0.462723364026491, 14.616960202124524, 87.520620264001323,  3.949175501630036
 7.520005880046927, 10.038872495611564, 92.537735473844762,  4.528811990621651
 1.236007883652154, 10.170905479969566,  3.179923422735161,  3.933088113126773
 1.473519799514477,  2.075505049250641,  3.391132134973704,  4.285586168147391
 0.436153194454791,  9.519987854523626, 48.918577438444721,  3.606053748758269
13.805000415265171,  6.399699142113181, 47.619999415820523,  3.868755882530992
14.897276356563239, 14.380328036342947, 39.751848289264046,  3.754497932981722
 2.322792596027554,  4.753973406650198, 47.586094177383806,  3.895442206388856
 4.113402024756324,  2.348622902918421, 14.102054375758716,  4.286380104166001
 2.648906893070718, 10.845102534947735,  8.665710924959035,  4.115354673454619
 5.593094005019264,  4.376835402270043, 66.566674846667610,  3.628937326202003
12.542714782721472,  4.458737140121892, 65.147849695054305,  3.826315852830511
 9.482608097355069, 14.774465555917764, 78.047251390691542,  3.873993099063053
 6.302658330908945,  5.740819973836292, 23.196027868202307,  3.623263468442997
 2.642544000892429, 10.381246957977808, 27.502612332224061,  4.188889205571244
 2.400035027633784, 14.553517658596542, 27.289431421570871,  4.169473319720448
13.627215551697228, 13.964355786023715, 25.622168626619771,  4.102191426453381
 7.986588563783811, 10.715784483554820, 40.512600392952734,  4.173459815243284
 8.436029523052840, 11.601386886632671, 72.011547793019503,  4.367396090767341
13.872317015225597,  1.431785550154749, 59.145376188483247,  4.151381566416222
 9.863458119820784, 13.419351786787409, 91.432092155002792,  3.819375307963716
 3.008829031077482, 12.268659287086621, 54.958098611926502,  4.366687975284493
 1.778611609764217, 13.231216579526437, 77.841848105367077,  3.809075791140803
 4.640843230694927,  2.165309337409545, 81.242179591992297,  4.207940790362680
 4.720691318827418,  0.736237066717273, 53.152526577377927,  4.181962490973416
10.934333538433192,  2.288269959514982, 91.806885930533312,  4.136940913840190
 2.588034952726423,  5.065329406630568, 39.498602268208693,  4.104939480993057
 2.749494178652935,  1.343421204273142, 90.110131667288172,  3.766670319251693
 9.881291932373573, 14.782850241897570, 56.695063066712066,  4.279488844469625
10.802126714889534,  5.483866404903519, 23.969778007934742,  4.022167151685954
 8.342935259639775,  6.511415871971332, 51.200365422138709,  4.364422780885994
10.301880097183055, 13.666894134379174,  8.597483410675485,  4.318970774684491
14.980298231551565,  9.226783803572395, 93.598482841919918,  3.641042205920506
 8.203255199505374,  9.880612755807681,  6.924012762801607,  4.208446899427559
12.700577337498778,  0.061593051370523, 42.830815078249863,  3.877057429577176
 3.775134799877294,  3.852646134956633, 87.323392168165483,  3.984873860445433
 0.068264018330919,  4.546459776758174, 24.938373021363546,  3.718636219041954
10.629089300640228,  8.755214031185876, 33.732559536907516,  3.995208068112399
11.702477923369491, 11.152777706207923, 55.027977482392494,  4.234651256841962
12.948596809802794,  9.196133331495396, 85.399173294251270,  4.228047514535673
 6.466309816235507, 13.816277595020424, 83.720676979067846,  3.891160513150385
14.510853340297134, 13.584340227367814, 56.463763148613381,  3.716712703068815
14.916956054068384,  1.925842874109761,  8.328084525847421,  3.924827583740675
13.349936759651923,  6.520388411919395, 54.487239635190100,  4.208050864848128
14.748127230425817,  1.997194473663740, 93.551583888518394,  3.819836189229312
 7.069137999871446, 14.403369117591399, 38.744368680136446,  4.206964377274775
 7.138197156309093, 11.700401857719744, 10.472134573135584,  4.010224691242978
13.124474322833876,  7.604295658658216,  3.303008407407628,  4.011561093492121
11.191877664751484,  4.069604454951845, 85.390912642607404,  3.816568431535525
11.039619275124926,  3.076481398465540,  6.624337032772414,  4.150860210349845
 9.266090401782350,  5.864172616670088, 63.092342639231930,  4.385941100815004
 1.934135434873900, 12.494050057883715, 23.720719201056809,  4.096134971856383
14.390175897088683, 14.246449366783732, 68.832733862856387,  4.085519681992785
 8.635409606474786,  8.874346101440608, 88.485233424467111,  4.124986478651178
 6.704701533415787,  2.774446213999849, 84.751931232508497,  4.011300441082486
 9.590321746737365, 14.038555659785418, 15.949922090094899,  3.862526244887879
 3.731205900581758,  2.996122035867769, 77.276561344589027,  4.051855959272676
 6.151993620200470,  3.885243366498008, 74.075222438478448,  4.144590681705784
14.776304544253275,  3.072281414707189, 20.151213010188904,  3.886870713775636
11.497638698137756,  6.200490033802387, 44.283444425038148,  4.215875197083665
 3.626543194842048, 12.270880579381648, 39.998261470557090,  4.220331775302407
11.960333696597676,  2.174266555855143, 15.244912506836826,  4.005415733813891
13.126571435555475, 12.967778270971895, 46.104543938277374,  3.953256152854617
 3.795131867209003,  6.754247770239718, 25.921491054126438,  4.047868824236772
 6.207995314125470,  7.283848049986059, 69.225114843005201,  4.120880460341279
 9.868283867766696,  4.266606060306213, 12.741353456893941,  3.710873559491547
10.600675353774276,  2.043309927841209, 75.266435599758978,  3.637601907263235
 3.107014068778081, 11.576823307282327, 46.686149268903925,  4.469600743327894
12.552579682673318,  4.591541110178684, 10.033236165266539,  3.898837171946250
 1.221478331780005, 14.743040625126499, 12.896444546578094,  3.876174046069261
14.165213640332563,  5.089649547290584, 16.875805265076238,  3.841534359091487
 0.160789707310763,  9.814347843310397, 56.810791294846197,  3.959402029776074
 0.998413557551888, 13.130115830037060, 65.283268264837858,  4.016472989804914
 9.033981291111155,  0.839579690483983, 41.935734426445286,  3.778041260285069
 9.683663592362718,  6.003147310486784,  4.237442602317571,  3.690427495123952
 1.885591823977308,  6.205880676505732,  2.495647242107731,  4.206662386204968
11.959662432231390, 13.038112697892252, 32.441738584735553,  4.025381899230799
 9.524759677106177,  6.938062235095998, 40.763140816307590,  3.983960816136306
12.187948752123626,  8.051195720889563, 50.783813050391124,  3.949564953835905
 6.656624222831002,  2.098465283264707, 56.327175685123628,  3.691922624458103
 2.051250555678489,  3.245438134712201, 60.693949725466517,  3.764731211126036
14.984786982504154,  4.951462638524889,  5.867503044840767,  3.867702119155441
 8.225820308975312, 13.924461599481367, 31.271518836670730,  3.971733522230644
14.794174707508050,  9.565538304767756, 45.257924492412158,  3.806776219441676
 2.196909783078406, 11.817397088670907, 84.949127321951238,  4.400193378218211
 5.583503455290233,  6.891336576414704, 85.976213174213683,  3.534386605508474
 9.050194873225461,  6.052168041538442, 91.547109006001335,  4.234222434318838
 5.069817803269554, 14.159322302896092, 33.844839742045373,  4.105936302634802
 7.175459697444096,  6.473433634214500, 47.285910751322461,  3.803683453621937
 7.320533802974699, 12.119038569751725, 27.424243178498184,  3.733515839780622
 0.289821715722226, 13.618914263589600,  1.568467392348839,  3.905818336962660
 4.576547624975366,  9.633502645279988, 79.146388687283164,  3.981909486718426
 9.989819386869318,  0.236718866443389, 85.140943747837781,  4.231751708210879
 8.878456617306794,  5.172310516956581, 34.414828264145001,  4.095147289566452
 9.672155833043591,  0.636450887497633, 71.734699330399337,  4.107696995779971
 7.818669442642026,  7.721429795854406, 77.604421295607793,  4.148349488772164
 1.711916068632894,  0.901789051373397, 83.920762711640123,  4.099098081751009
 6.314209579392697,  4.336148311185974, 11.224263876417217,  3.972101370511797
 0.291637399361380,  7.011980523941515, 27.932233918035340,  4.042209796200948
 8.139216286091280,  8.615317414524648, 44.139081678609315,  4.045062357608902
 9.650780315341672,  5.543708157243519, 74.925508889100897,  3.646577677717981
 4.024323202437055,  0.419880282449560, 49.167527205906758,  3.907443802383599
14.338553005007693,  2.863033251166208, 38.017257676541874,  4.058320409544818
 5.338903203233857, 11.120672199541964, 43.342595512772512,  3.616074982104132
10.417366380145765,  4.518696631859944, 47.767079319406129,  3.803691167970415
12.948673554839605,  7.680119098830010, 71.968704383904324,  3.967966340113447
12.408365422098624,  9.974497698985918, 41.969531129954049,  4.349883403364427
11.136750830946902,  9.444210760385211, 47.029157846208676,  4.308586712160194
 4.252396581239589, 10.591372205281965, 88.524221544501955,  4.176193604991364
 5.553901261674368, 14.557027142139384, 78.202069454756980,  3.974587901350501
 4.020917200569855,  2.754060039718487, 25.284695876475546,  4.065702145812406
12.246083214444216,  1.575984469561016, 88.125839972686038,  3.709262261751402
 7.092328716535219, 10.388620902018525, 47.645132529287395,  4.049684241744360
 3.718586844257930,  8.265298349881329, 93.322724354396243,  3.997070007297477
 4.391381111167153, 14.930093969998408, 86.886558674778925,  3.998995041078517
 0.602089417249188, 13.975292756759877, 48.764692757957782,  3.575360800613490
11.154040793302441, 13.631987445539885, 81.295545162662933,  3.718768524715236
 0.018470282661800,  1.758276864313164, 63.699706164417400,  4.069397596223440
 2.737327756597145,  8.095180302301420, 30.833147152202745,  3.848620960921375
12.929042939368104, 11.077237404361648, 64.046583658168558,  3.736818806609712
 2.467125816374598,  5.096306089707872, 64.255083694721861,  4.258063506553093
 1.284592750525851,  4.696267126032663, 32.617536513147769,  4.013774197696842
 4.511872032709607, 11.816903912459313,  1.373256979441547,  4.226803791689086
 2.723052010445152,  1.093563797774127, 57.176278886425941,  4.519198763172096
 8.887313681274945,  6.720827491667395, 20.903313203405080,  3.535125280030321
 5.617555569759551, 11.310642159904681, 36.630717355404137,  3.825071445864553
 2.295819634191314,  1.066242152900349, 45.510853134245963,  4.195286560021285
 9.799488620528660, 13.107120267811659, 47.906877747446210,  3.594490698937618
 4.942796778422250,  3.859917332249854,  1.519742977375697,  3.740908597779484
 5.590333204107617,  9.386253311616789, 52.952781855301438,  4.321043345073511
 3.118669797769485, 12.042953134014255, 50.826616043186434,  3.828529518356258
 7.618683575632405, 12.618387793261201, 87.278383186064161,  3.946311548885741
 7.192593517417261,  7.610815367028661, 37.417774379497907,  4.273962652863672
 3.637560947149090, 12.869943574292632, 81.201745938715334,  3.899120837028783
 6.137571551322786, 13.891692805050813, 58.274192402781487,  3.900909406971435
 0.810045416242173,  6.335902618763797, 51.083977936465978,  4.116822112375594
12.860785755438487, 14.365793853281113, 36.285598299508536,  4.226400876498308
 3.466011497141336,  6.513587474583091, 13.315937658564206,  4.263146828871058
14.729049793306570,  3.660592562478311, 90.080664945009005,  3.861357718010236
 0.142211512415287,  3.793349998521578, 13.116694994314189,  4.330529182355243
 1.906805148911167, 13.326361598844999, 36.349123093757790,  4.107976686654135
 8.490964530538353,  1.172740599729439, 88.812026805085523,  3.906734696245485
 8.729129026022754,  1.642279185544009, 81.449697166093259,  4.044059607063641
 6.167427172096427, 10.435361708058576, 61.064796542571109,  4.137738301713023
11.360463258590849, 10.079607812968970, 15.717988796718304,  3.984816283087119
 1.735010713586201,  8.513011196877294, 82.418452942644720,  3.954873466319677
 7.011780026256931, 13.158392690532795, 50.742153691011666,  4.211739455481066
 3.800828645367878, 10.709346280279329, 12.690357082682860,  4.242337496295937
10.961856291849191,  3.878739437207933, 19.594924329085138,  3.969352267740170
14.621415677022497,  0.997875370621980, 32.950047250349940,  4.004522020087732
10.418522315211661, 13.069672036409530, 68.571854013848437,  4.091809095562025
 5.915665928839781,  5.525826353978142, 54.440020372622008,  3.953662915943085
 9.114508324442621,  7.295049318604781, 84.722485150206907,  3.963348127237155
 6.343798565348695,  8.414533523580866, 65.092699474537696,  4.313942302043637
 4.545022719186540, 10.413413597857932, 71.192312712859348,  3.902536592586614
 8.182193747545487,  2.148757325434788, 23.599046543441670,  4.491427483646446
 8.885382940042653,  3.326169386297119,  1.431045974742798,  4.215936927713121
13.564887975756285, 14.409745173909323, 90.962981852250692,  3.868790546395128
14.729250956602016,  0.246399240530934, 74.961731863425669,  3.950832659276727
 9.015674918497478,  7.717693059670494, 11.373089275094070,  3.800956067508265
 2.741714334642061,  4.874353816274603, 22.065200638109701,  4.046349364706179
 3.371440547592690,  1.381440816067331, 65.864755463772241,  3.940941873337126
 1.192816056131636, 12.432007250685315, 32.037302135343367,  4.039668935266155
 3.861816571244516,  5.791044037498122, 35.650244988846509,  4.086155646526512
 5.539795988438259,  7.459634981645538, 41.254955871543622,  4.056689597890269
 8.321483976742458,  1.600722368556170, 49.171782102640890,  3.821372602313744
 3.064099526316471,  1.172197564513159, 30.987515144039943,  3.921073858565867
12.131310508423077,  6.414372875877179, 88.573993333870632,  4.272460594522404
13.188971074909748, 14.191446017745214, 78.250529024602812,  3.595375964220779
12.907680033161945,  4.964556792605324, 30.427006766502991,  3.996719728494412
 5.154395019154630, 10.301152137816549, 24.389914856146241,  3.770249790373279
11.972142454671816,  7.105929880058360,  7.073108448826238,  3.922168299881126
 9.564764936480326, 11.252756041737943, 84.014970029854098,  4.125626309970216
 2.361143516095645,  9.637264990471152, 67.197734930050814,  3.784875433096043
 4.609135758045063,  4.835154164485483, 58.180145042405293,  4.076533185714987
10.706746026813439,  8.598669434432168, 65.735948293023299,  3.718311957527223
 3.650029615563371, 14.910321526078075, 74.794239183291239,  3.849112769032692
 0.206157954419985,  3.016421285354473, 67.516797326771666,  3.874573568370817
11.040293856687962, 13.301469694682327, 39.776659540245561,  3.904239541173621
12.057955129777447, 11.079139205133474,  1.386830036508951,  4.019859909029468
 1.889541017623882,  9.090371123451638, 41.985573923806065,  4.039089631749978
 3.007724684038575,  2.112685829027146, 70.051458699848197,  3.827466026907721
 7.545825016907530,  1.783601508026028,  8.391081925442721,  4.036134113756723
 6.063987436500767,  3.006955612619422, 91.647080020497739,  4.240102391977826
 4.957778935599341,  9.114575018983595, 57.205616613574840,  4.291633781143193
12.705861215422017,  3.625691099401895,  2.984567471453576,  3.916485167078175
 2.320731602157442,  7.463754133574924, 59.823630254592615,  3.615259551977972
14.930293708605772,  5.127492473307720, 81.543511383651733,  3.915869524280535
 0.592025231139952,  7.599413748461246, 74.827862805796428,  3.832897620272022
 4.192740617041562,  4.118543638779625, 43.162811372866223,  4.089980983595884
 8.192519306986778,  8.285604432546020, 17.574804545080653,  3.746508977252559
14.394425017636586,  5.818559363063428, 61.692233709397279,  3.884530634781195
 3.603890411679941, 10.975687093561012, 20.342118338273185,  4.027871498333478
 6.748852726760991,  3.330111741193558, 70.066890685355219,  4.026708904984843
11.255324107366915,  5.372171472956372, 37.629037015583684,  3.829276827491423
 3.249423485236703,  5.109832028101123, 83.625594013122381,  3.841632482084451
 0.501695927693341,  4.725700206405201, 57.504238600103093,  3.909646647113110
11.171639670862353, 10.840628890310784, 78.537892884457904,  4.123137116643626
 7.064448902821790, 12.748738298972652, 54.718270383687738,  3.715292670986177
13.446573532580446,  1.806100157930191, 71.670753635544287,  3.758425964211010
 1.276195754296309, 14.340860646080120, 20.048627572396946,  4.156260658259840
10.646382396807413, 14.423926106249665, 52.514207160892255,  4.202552253924964
10.009008409602922,  8.670140844068092, 69.498710053520597,  3.935464798688586
 5.493593334848638, 14.109976677074332, 24.714399081815369,  3.901157058196922
 0.792403448564027,  1.583010364332278, 79.739779419114100,  4.120051676759501
 1.898269305624235, 12.244184334477456, 91.882241600928836,  4.306872911118250
 6.021152260212818, 13.766830663450797, 14.208591131265301,  3.856801179823504
13.257112626296818,  0.052904151123024,  5.010723718394818,  3.985123085337002
 6.940851574477295, 11.105572337192065, 68.169539332951317,  3.932947897266314
10.553186055295670, 12.384815364895244, 12.532951818296059,  3.964391225593570
 2.580982098974066,  4.502797133468870,  9.837691355108236,  3.961131129441396
 0.683150120145013,  8.843314677021233, 78.561112982356065,  4.037867526620287
13.999284187731279,  8.549716891291615, 31.695697259500911,  3.889129544157543
 4.412342371769909,  8.729746143146281, 16.629167266443400,  3.913731003419249
 0.333210001084365,  7.828996923080676, 10.271179787542728,  4.075028327533452
 3.283335401212155, 14.900293231689277, 62.194292999020284,  3.969963665532284
 9.374776125879590, 10.293453016277871, 51.989536129275827,  3.608290754015078
 9.142002864497568, 14.850876334021093,  4.650078928940291,  4.219340674087402
 7.747868832173352, 14.386584212812465,  0.663329553249686,  3.923182798162083
11.835039021697865,  9.795724151940234, 91.215270175031719,  4.327350868843572
11.624488669895243, 12.582976368401390, 87.943354322067407,  4.171632401129163
 5.665419824570597,  9.712218513817175, 83.198699909769218,  4.381919017279186
11.026667442154579,  0.010024382259238, 61.770547240288259,  4.040434900068274
 7.306289725921545, 10.031767638533807, 21.263788476228687,  3.831839994045089
 8.321289972200615,  2.047759361357903, 59.692119622864595,  3.814540644429226
 3.469184857064874,  1.192112130874269, 39.062881380766775,  3.872605006147805
10.586439007016896,  9.283953074586394, 74.776516151842159,  4.016989963774811
14.748630174972979, 12.021181416904307, 81.018746440292901,  4.090601197057053
12.719975603489406, 11.915754570163553, 50.023395626754535,  3.963623405042453
 2.304600378495014,  7.331314018504968, 54.653924010065296,  3.870858685110509
 9.999579942204541,  7.850510447100304,  1.076913971742821,  3.647033995885002
13.025311474519693,  5.729364221899474, 93.235410004413666,  4.404850824011248
 1.072993229951563,  7.387870860019356, 90.394050032328195,  4.046019506172377
 1.534558471849541, 12.818115015606638, 72.214301889938966,  4.021628950833455
 4.657365901161482, 12.724062051072835, 30.121802980359881,  3.898243046079746
 2.192087353976603,  8.561723357286285, 22.943996370842672,  3.610883160649399
 2.596143848410762,  5.953355801875918, 68.198287966277846,  3.796299994366343
 5.762720898105227, 14.773230967151392, 71.505312349339064,  3.908445809740526
 0.621536633209342,  5.870606297692530, 44.124320963414782,  4.093949398180004
12.240976586592659,  0.763668420660944, 49.012737916206852,  3.955387571195423
 0.192713352528096, 10.750095816776888, 88.430021115838343,  3.910641537930765
10.177127817237537,  1.774792025060947, 37.963881742398172,  3.707426556488126
 9.894409885450672, 10.358206064308465, 29.976755212258922,  4.294406253150266
 8.299699519128229, 11.140143095568950,  2.970188062501884,  4.089018109507460
12.140731625140679,  2.811416619469695, 78.620250932200165,  3.901204773952180
 0.600833170329534,  9.004685568765680, 15.190769912054076,  4.204463200955202
10.849909111260461, 13.395491407579437, 74.754223028210774,  3.771907684879779
14.225591832558141,  9.695378495514257, 25.082776258513377,  4.072347246238282
 0.082631924658189, 10.068689585177005, 52.745070573147345,  4.139915306765326
13.675228145860245,  2.847642354761994, 45.953094651402679,  3.940857987187040
 3.894404542774897,  6.331536097289423,  6.313402058199756,  4.388474446109539
13.176565534853735, 12.522742166675144, 21.898854151131737,  3.927550976462115
