BANDS
8 8
NANOPARTICLES
cell(1), 15.040
cell(2), 15.040
cell(3), 94.002
 5.269394750653627,  4.377163302129279, 16.763690614006848,  3.974917022705364
 0.677681039126338,  0.016764644683272, 82.410763864575458,  4.236913290631168
 5.525032751755527, 14.530272722474322,  2.958037960915327,  4.090314887191647
13.924357801786179,  2.925743477007666, 29.157980788329297,  4.006813745994581
 7.594757687979741, 13.981699564546044, 56.444950584797972,  4.364144268316092
 1.337266170315353,  4.941735605033345, 18.606640905546968,  4.181292395209943
14.260729303562199,  8.723818953644125, 41.194353813117296,  3.950821721950524
 2.453253268884241,  1.592421992647954, 16.435903012456855,  3.967584119590023
 3.579432333472152,  5.335850782233916, 33.901776853469293,  3.924807153519362
 8.759037500548533,  9.330376791258832, 52.427493259049164,  4.088897540620454
 7.772546481831020,  7.199245495213803, 81.205074994832543,  4.074868460844277
 9.338396130176271, 10.876985011149864, 14.558171953629902,  3.787920502407543
13.333020234808174,  3.132253049122648, 65.873229857221204,  4.281658080414370
 5.345285562901202,  3.273923541329970, 67.366959736317469,  3.880594477470937
 3.421993136267683, 12.615768119137948, 84.604939488784439,  3.826877673664415
 8.707830008087290,  0.974822179590790, 59.957225280144854,  4.036699433923232
 4.978717847475898, 10.861578514067347, 53.082404245315992,  4.161839969830627
12.835871340455567, 11.113579086421685, 34.994850088192692,  4.143831282046931
 2.908858211182192,  8.333586944756574, 16.701398862228530,  4.169772642219600
 6.977201296221131,  1.246018995509625, 92.642475963458949,  4.144685812994107
 3.129600631688760,  1.374312538330208, 85.354456529052896,  3.879463956032850
13.561113074621169, 13.469222185728686, 52.365183958232777,  3.868267520455721
13.793549145806086, 13.198294151901576, 67.684949615947843,  3.936792565041210
 7.141096112670112, 10.903383919488887, 30.281897049309066,  4.376323424434115
14.141947950290469,  3.978031761587278,  8.292646291907991,  3.766942827483605
 2.377071760114578,  4.732755665376612, 44.171712978381024,  3.785474940947330
10.672368224118127,  3.911670635096995, 75.281181249832144,  4.233526153947349
 7.631330605099101, 11.658304449408789, 81.253487140325106,  4.188056390501958
 4.617038532751867, 13.925952921389330, 73.595880305775196,  4.070684393170793
10.842868147278928,  2.778096025543194,  6.578778071207099,  4.031463084772869
 4.137100381210151,  3.388392606214574, 55.275878811829749,  4.020225299705939
 7.365752800678795,  8.972672949669949, 92.734738968235249,  3.861162404627572
 8.545247139814812, 14.442265476420623, 33.257300146157526,  3.872920727661753
11.670305509737330, 13.051461453254783, 81.129486707807672,  4.119352317270059
 4.442616510237231, 11.429831386153452, 44.325656415236935,  4.033820311072414
10.008020209830041, 10.448893866371796, 62.802796167068898,  4.083940630370154
 6.201546237945179,  9.500323761409797, 26.411439490325790,  4.059627164035811
13.626779327293649,  2.601432365430991, 16.538381583673388,  4.017062257514685
 2.394062760717439, 10.483689245158002, 72.898257250155638,  4.177512745311637
14.814321682737303, 10.071269035430793, 22.393871713018598,  3.883199128536563
 2.863393933585584,  3.357488962222828,  6.216061730529551,  4.046419570245893
12.213643115972060, 12.834202416548893, 16.783240941411968,  3.800635119064375
 7.737163269456616, 14.826028685360694, 83.842933398601858,  3.979421105615882
 7.242291583483496,  6.654646812279669, 30.669504783709016,  4.158346225907328
 9.347179216664877,  8.421758285735377, 59.268899890995137,  4.130746000165953
11.910589770019181,  4.097450674214087, 32.463336529276880,  4.079578609265375
11.190021037152095, 12.984850365941730, 11.937201143665899,  3.872207395591281
 0.801591460308182,  2.916956659426754, 12.955007419842122,  4.122565890852537
 6.344421533236351,  7.739502326829293, 22.797600942662637,  3.866689556778814
13.703692222094194,  8.431604268578495,  3.308266215483626,  4.080989138114169
11.923177652144174,  1.699573927174657, 82.461410685715634,  3.703818586670829
 5.072869810353748,  2.642938783117164, 59.547712370567446,  3.816733997939232
 3.660142159335850, 12.501060184498010, 80.675452449887530,  4.009400391049860
11.073020008987772,  6.495706489466508, 35.864025536268343,  3.842710905201481
13.366659059562062,  1.592700470084082, 69.847696182937241,  4.213269604188635
11.291492842521182, 12.748981802993349, 59.561043624887375,  4.266462857245196
10.944749287051494,  7.823779170869866, 49.377443540508892,  3.994837099086405
 4.084179130357280,  5.556245013420299, 62.118592017151009,  3.868284862272760
 4.588013287781672, 14.031072424398591, 18.547452547480844,  3.953857328773213
 5.107094362561896,  6.177547801626099, 90.914970918082034,  3.412427150204068
 7.903249832379440,  7.987559729047324,  8.012397958457919,  4.104795603747296
 8.721575697728014,  0.905239217446183,  9.592131171715543,  4.158473298918405
 8.572608999891900, 10.630594314920259, 34.403067800179571,  3.989874614168553
11.812076533702811,  4.057776260917302, 49.214932920276333,  3.738815767552484
 6.117572510507125,  5.785563181501401, 10.851477009292228,  3.896312772989007
 4.796347424068301,  5.316272030906954, 83.285696451978140,  3.763492526026776
12.527350106287628,  6.299283672457347, 52.600888524828015,  3.761465555302309
 0.592553109735197,  1.665970978054613, 25.689244655295333,  4.116813371360982
 1.261867380940381,  8.971823271685507, 79.550990602404852,  4.430443794812380
 5.157453816037849, 11.659900905354249, 15.290463611032903,  4.173150341716947
11.228793914098265, 11.451702459336317,  1.816073211211975,  3.994276149745548
 0.060612362331001, 14.688635777351051, 18.967017250595184,  3.999242024965715
12.233002807854083, 14.649081929603824, 88.747506717310401,  4.011754836854508
 8.645273912816222,  1.090559736332268, 89.108090272401157,  3.676325932528934
 7.124490193371559,  1.824545651742334, 19.880818928626805,  4.069418461990336
 4.641355506471561,  8.786302254588437, 32.751669811947743,  3.621306192226574
 6.340681292138017,  3.154193820871827, 23.540977371063668,  3.864804965567121
 8.872658413410445,  5.052029420939079, 43.510061390989705,  3.794979748361962
13.926755938230606,  9.076308241951837, 18.346089089630681,  4.631085133910089
 2.484958127425973, 13.124123453710389, 26.439549451737381,  4.121564675039322
 8.659294758144545,  4.959148257450653, 89.835967253890374,  4.192872627218491
 3.535108797165675,  7.938895229067351, 29.121507418096389,  4.146286615700234
12.529488308744806,  5.574813302008692, 69.303386928970497,  3.978984799643278
14.347508417288365,  0.425121258439005, 36.768146666375515,  3.973044294472637
10.411191889669514,  1.137362865068103, 30.159786814780066,  3.996707031231733
10.676149359319027,  2.478455251979364, 36.093011802891638,  4.239923239840267
 6.923131270726664, 14.184956302902311, 36.937003453289826,  4.157998477591455
 2.512127570225697, 13.704678373606468,  5.327635437190418,  3.732085714446766
12.494662202783703,  0.003852270367423, 33.316498227551833,  3.884240817459118
 2.521296948882982,  7.679849414001733, 93.263945783342464,  4.038034386877149
10.425579456136211,  0.344810742976062, 67.136886307366240,  4.160695005307579
 7.203602297904404, 11.128925272118460, 85.276857576436228,  3.931402581279327
 4.567212087234278,  2.550750900151360, 71.398969182830982,  4.453268517552570
 3.859330141137180, 14.182897474080871, 61.705613152154534,  4.041871858027873
 9.835672168659572,  2.890710629763622, 71.314078741318184,  3.831596615588493
 1.557974343381077,  1.104286111010147,  9.312867817361669,  4.030010780862161
 7.237975818135037,  6.779858309498454, 34.798172093407771,  4.099489407751073
 3.070487226272788,  5.000935105874269, 86.838146264271884,  3.953901411102038
 7.241023046359349,  5.362626791157897, 69.984507259114721,  3.793301230930806
 8.095794444369089,  1.560415017948903, 52.958489351805540,  3.983539934420018
 7.649886438685303,  8.749499470658440, 88.860293127429117,  3.890574454556068
12.125259170688153,  5.250224860787687, 19.142052543659055,  3.944857806506629
 5.516007942729474, 14.316779366170339, 66.498580527630125,  4.292931972363617
12.176176258026677,  9.893632433130152,  9.601441133241511,  4.122950547842525
14.992334297187066, 13.471291345680907, 86.099837592889187,  3.913071781506421
 4.678513641280702, 12.206829775984740, 69.964343516445538,  3.959989881678309
 9.987341813901150,  6.820035891582883, 72.389583361104599,  4.033042947078681
 1.481332280834665,  1.754512229557418, 78.635025087734050,  4.019335710115079
11.424756353195596,  6.732071962105461, 63.794441142353072,  4.105433627306536
 4.356045337735171,  4.051802856919831, 51.324209545671970,  3.979360065718947
 2.228561443465459,  9.148258219936277, 25.403836346364081,  4.097388894115876
 9.255509908874673,  3.586247510575496, 16.787616085754252,  4.133338448961061
 1.271298887095455, 14.521075883841331, 64.851807328872056,  4.092388002182797
 3.389240982250909,  7.655319144140821, 75.952944858356872,  4.282379058673105
14.809933569322444, 11.144203376969127, 82.750083730863039,  3.819020366342231
 0.028921152955281, 10.696710041986632, 49.915438087302178,  3.970068026010152
 0.048356464263184, 12.996869987733200, 78.846057052453290,  4.086799143389729
15.030963190415484,  5.560654859621325, 62.354120322495227,  4.004202611640139
 0.610160141587803,  9.790897621206661, 86.063937728521083,  3.527852939600526
14.516363537382324, 11.453422784127303, 57.344272227403138,  3.964792861601714
 2.298619032920868,  3.394069896339484, 64.880048517373282,  3.988067646542310
 6.371607808759598,  5.705429430296745, 73.756646961106895,  3.951808176898611
11.994090059352054,  0.799024988281221, 26.645343385936716,  3.600683918368494
 7.337712625315543,  1.708058368764728, 74.478187692498963,  3.914087965825861
 2.176563740354337,  5.769819240756687,  2.849767602348170,  4.112098142448265
 7.669285075851294, 10.415328810281007, 47.917045554990423,  4.317260433404575
11.136377551280669,  0.810398817874300, 19.328279326441972,  4.275705761143525
14.161675377386983,  5.476542420873361,  0.043214167677905,  4.140523508596518
 9.728732433048556, 10.254802831152936, 18.424910330925467,  4.071961811576928
14.821713195208853, 10.382784209348419, 31.669129173437359,  3.708351642508667
 2.875904413429361, 13.761612257345901, 36.826739249681175,  3.923361445815545
 2.142597815545614, 14.115994887426767, 50.709541472291370,  4.174270962124873
10.882357486802706, 13.698212158743583, 37.384019123173445,  3.836176666131549
 1.487869117610968, 12.844740132608731, 46.784506732221388,  4.151780174843255
 8.240418332475700,  5.227911140771138, 47.736831375214166,  4.182861210460434
 1.937070655476065,  1.467816301600874,  2.619140185238460,  4.110576993247588
14.922587108206690,  6.617877766591546, 49.130098994293355,  4.314331213381444
 8.980513142188936, 12.399855191599354, 88.538913891985388,  3.901291992337268
 0.776731436093845, 11.880663054311622, 42.922256184225809,  3.842271103798206
11.355906017230659, 12.893106011591325, 76.876906024322864,  4.349167983127353
 8.355553171142006, 13.835992060865825, 16.954489472059411,  4.050583371032387
 7.938918175791842,  3.181255358401334, 56.653353244520154,  4.046949310746900
13.186898249876217,  2.010154798663027, 22.593881226082342,  3.795817146167580
11.188428301006828,  8.246575196285157, 21.671335897691282,  4.057726675930507
 0.007775815001025, 12.817559201593552, 90.953020437573841,  4.017690382685752
 2.232086359129554,  8.848999944712100, 55.562619037179523,  4.229807459514704
 1.655199059524714,  4.971614785329771, 30.712354781095033,  3.549700470147172
 8.192783951333189,  6.482989951018162, 19.498946360436044,  4.077746511850315
 2.441143869876155,  9.330626134383392, 38.977580244533399,  3.739477909514146
 0.007534583475032, 12.698731543363388, 10.876372174047555,  4.138978748156200
10.123777573362309,  7.990339321552827, 12.367943236365543,  3.626663566583146
 9.051590797489547,  6.854428444042878, 55.557803378451531,  3.896476086777794
 1.863255334807457,  9.358216572000316, 12.682399490819007,  4.302106424072552
 6.048594824934559,  7.659243501959935, 45.066176834790333,  4.249749180483349
 9.855861070760229, 11.368313694832013, 66.730745154817228,  3.978924253322330
12.516306999888565,  9.702835062656746, 69.389571489922346,  4.197581030251125
 2.963590506500271,  0.307126524488702, 43.652934454716139,  4.382826885186987
11.743469323616237,  6.857938300847191,  6.690612070573798,  4.324991914556740
 1.910483403793600, 10.112006798490395, 35.164925715315988,  4.092671922092308
14.444834352496601,  6.357273452142851, 86.734247279114413,  3.857566652629741
14.766316499792566,  1.671180165340834, 92.746135937163430,  3.858477009715472
 6.141899197056413,  9.311108007000186, 40.793174759166469,  4.056016880193110
 7.599423065005229,  7.182533673120756, 85.239797842074012,  3.998898705943098
10.678235912369603,  9.398826284023487, 83.566480868205389,  4.291920613405876
 4.277644577759927, 11.480982897981185,  0.163547226116221,  4.525316438541403
 4.762191977554025,  4.825390279579534, 20.549944663426970,  3.675616882092837
12.431561695042511, 14.396441184621271, 63.610833393210335,  4.053924300454156
13.072804750324888,  9.957073226690580, 14.111812293052731,  3.955349946138219
 3.811371486192411,  5.446976443992217, 47.676756364978303,  3.905574746780330
 2.237915357322558,  0.738967780679194, 29.983559021319184,  4.168577663478557
14.650524146581223,  1.080288306457598,  5.848891347894075,  3.881809240991170
12.082977331961944, 13.789931690127315,  7.993383206461467,  4.271073424751727
13.595022040875380, 14.872348236169767, 44.521847184101830,  4.245940195081456
 6.390306135449662,  2.100421033034906, 48.894954898367530,  3.432988236462244
10.646355923806757, 10.548319115463595, 91.497716984522228,  3.805291916195513
 7.441763288857280, 10.992215365546731,  2.993611344884282,  3.923497886820869
 4.237545743317568,  8.851751865342662, 86.742294633057895,  4.079172002546257
 2.565764657436000,  6.060600975926075, 72.293556309766458,  3.813288538217010
10.299771356815867,  0.818709749102141, 14.228835427898385,  3.675797817408567
13.117788821079307,  7.254836941572753, 81.305483543911933,  3.603985356374675
 2.632581734088216, 11.152880033238892, 66.686387150033710,  4.044536067318337
 4.305519953392507,  6.249387636323309, 37.655803184410928,  3.924401558392336
13.114593634279208,  3.598202947518621, 42.623816958891169,  4.156847064170654
10.648724611953805,  1.898672557851667, 86.046148990640518,  3.722021604967050
10.627645733022531,  9.478999604128768, 79.310635942184263,  4.152686783219566
 3.311599833656795, 11.742993460913327, 76.747633511783690,  4.018815307041938
 5.500653046137305,  6.084163573944624, 57.849180784366169,  3.902845970285640
 2.791297690473599, 12.137202218968580, 88.327022469994048,  3.744635800631922
 1.382945115326824,  4.903427501781375, 40.248419750995374,  4.310796624020350
 5.967694554017644, 12.866579232182128, 90.713520093948674,  3.552300004745163
 8.608592218853035, 10.193516836066323, 70.604391405743044,  4.040617689313252
 5.046692900778215, 12.537730187924920, 33.633105582327694,  4.117377141228273
 8.387700984769889,  2.127058435418998, 26.787230714111349,  4.076569049961751
11.142032013233836, 13.211068574216991, 85.162655153917726,  4.001906137393762
10.141668648561753, 13.655181129181855, 46.293871521160241,  3.865124047608163
 9.011109910878782,  4.034271502986294, 65.821346014781255,  4.165984411264879
 5.019221960523430,  0.297071817604587, 77.382752594351032,  4.022189955743584
 9.897291638857808,  8.361271042618482, 41.742138895883784,  3.902240038108527
 8.824416777080309,  5.315877304720837, 51.801127309230075,  4.007311140073810
 4.915027652984028,  3.575286221604124, 30.162341909998005,  3.619917936723485
10.665975840483114,  5.314871591826762, 79.143182274852890,  3.967606371718646
 3.355447452888168,  3.485694137890456, 75.418504142678003,  4.121669179701469
14.155613717127908,  6.680892065147999, 11.061892166723279,  3.957072868570639
 8.581426363625440,  7.414081865372986,  4.114345439946185,  3.877636344709793
 9.846356289576857,  3.826733346569689, 22.002828307085363,  3.897634718979158
11.776720442027296,  7.792680081410234, 75.830254098820205,  3.897288256563169
 8.573253851684257, 13.102837840980353, 73.509329179278140,  4.009031393990418
 0.755479548572406, 14.707082034458365, 75.065558466659027,  4.330708649592878
 1.408421861133949,  4.324671806115201, 68.816427617174440,  4.275323839227942
 0.522578927224623,  2.565522690796842, 33.453111247208767,  4.084264907039710
11.467174024226225,  5.224317596960717, 84.142059211534018,  4.113319893602141
 3.840464730652992,  8.600545810030287,  8.982915700378342,  4.222298480831679
 0.791537836519128,  3.744383627180614, 57.822137542934975,  4.411804882689744
 2.949506154431036,  1.615295495510328, 47.623039684250109,  3.940620507388213
 4.762957373403621, 14.993015670843095, 22.364214768685272,  3.620860661754550
 0.478277640860653, 13.147909955031162,  0.969475235087014,  3.899650312763879
10.829470904448266,  8.019265404057432, 32.211106902621317,  4.070255043040514
13.016686575033717, 10.827704880332197, 46.121796334354336,  4.004695174896352
14.000843599235159, 12.301688338012475,  4.598404588495625,  4.030116555938401
 3.514998286997201,  5.265906802102546, 79.488599662054995,  4.230800386836317
 5.166227458667503,  0.274898638986374,  7.669561832983027,  4.009196411180756
 5.558789540587153, 11.456534800180147,  6.497494817844649,  4.078673213855258
10.273512538665727,  9.007237798143318, 28.314556256485041,  3.925167101407993
14.561594640150592,  5.854652969437693, 22.447464420692821,  4.355521172042929
10.874366160600088,  7.280463995098169, 15.984380181063136,  3.877245112008083
 0.331024659812860,  1.240823086270712, 54.463277622454072,  3.963868400356851
 4.870834783785718,  6.877957822862895,  5.531952616715743,  3.754642946030465
10.997912839889123,  2.893573748365671, 62.549180628415847,  3.813176869512487
 8.060192930161220,  4.874433510274547, 60.850043547646521,  4.044011457482643
 8.246250045854737, 12.633857236706998, 93.590223999843388,  3.801744783323004
 9.624423843753267, 13.072682674357775, 52.951559642001385,  3.603447235613816
 8.591446878033514, 11.841123988890409,  9.165593175970804,  4.032636546002276
14.640508073527835,  5.379985529675571, 77.607824565114697,  4.378716927298712
 8.620911552875450,  0.312329189728303, 79.400357930833351,  4.230313225537596
14.922908131096648, 10.729140655829250, 28.016744536682850,  3.600181908977873
11.764537924652727, 13.978255491946317, 92.836650904852661,  3.879772893893221
 3.815523144395331, 12.625122034645891, 40.521475764640094,  4.015970270130261
 7.359697864328493, 13.527432334584544, 12.478479889154688,  3.791446861334037
 2.576173459210065,  9.886413148002823,  3.959707247144260,  4.351442128894144
 0.058464058105157, 12.980201775569737, 60.974175767386903,  3.829117142695306
 4.231178109016928, 12.446405149835794, 10.278138852424346,  3.926838833562913
12.630781356689900,  1.553603319865587, 59.312383627278237,  3.889092553295222
 8.350638275984167, 11.122461072625358, 43.969832162444384,  3.816499654812210
11.972939386692051,  1.941466107121585, 52.361860624909639,  3.840101381011165
14.667333568950733, 13.082409133131920, 71.469546610111323,  3.803054800599283
12.329593382916439,  7.175509852153570, 90.881172538596459,  3.821815781673723
 3.173610426399211, 14.973999378507145, 92.054491412548103,  3.930236533734479
11.807060874038095, 14.710146834286538, 55.797080818801341,  4.226445502000119
11.949753630884462,  3.942945427509347, 55.885613771319385,  4.259727871796523
 1.594964114521799,  0.710943218368636, 39.855194679243098,  3.724163459289943
14.523914481397304, 11.906488444582481, 38.698957226957951,  4.104730656756710
 1.205283732920020, 13.731653582779304, 22.651629359289423,  3.940307676241677
13.908320652453231,  9.766197382705345, 53.498989057364589,  3.787670885685687
 3.045802588333832, 11.232919223691617, 59.099522770656627,  3.978885533042024
 1.364874722543177,  7.192491289508050, 83.421982173781529,  4.007185541391382
10.303722452387181,  9.791978837096602, 38.001574421409842,  4.147931246603628
11.888696575089208, 11.753300766605420, 42.378107836934511,  4.028370849349484
14.819043867320593,  6.879729119516888, 33.581281749491858,  4.255565204168556
 5.546795689254992,  1.381980777252348, 40.277455219202629,  4.336929381699423
11.933515545286824,  0.354143621293775, 73.530303734354831,  4.067099753399863
11.057195660530828, 13.244146340681592, 70.386551327189480,  3.715491428004357
 2.454447519423764,  4.916187657549662,  9.884360910668658,  3.850504570009251
 5.478568903121817, 11.231559255871499, 63.810167828217466,  3.889520862247546
 8.500286571111319, 12.583619757513517, 40.331351421603742,  3.955112859646651
 6.631733044046712, 13.671534692146404, 50.458759072819497,  4.190067678783485
 8.470430354351238, 14.069456045551215, 63.671474077214086,  3.895545401947706
 6.888351198250583,  3.972276138692847,  7.327918989164532,  4.168127847636527
 9.853720463657510,  0.165553237642488, 23.549014860665409,  4.033258221438125
 4.432094479771770,  1.777969339355650, 26.773819717624985,  3.864562254734495
 6.603536014094585,  9.612622929769644, 11.978349728671105,  4.123761877077039
 5.804958391877701,  9.729956498633454, 19.219924860998113,  3.995629858271285
 6.501603395065806,  0.048210553501623, 29.821583208404668,  4.138212587803723
12.526297727865826,  1.604737948965439, 10.950615118426319,  3.985578002104022
13.126217158629702,  8.356277207328892, 25.564236136676357,  4.072929184833429
 9.777619212900094,  0.873944601141044, 49.370315184179923,  3.767912244423285
14.962531991723479,  3.964494759960976, 81.584938039760118,  3.960439232851861
14.741399571774515,  6.296912995417324, 15.038516253371862,  4.109404457738112
 6.091147946715855, 14.348590766039571, 46.482262832615326,  3.894790526404523
14.406463378876657,  2.642777795133129, 85.350544312288747,  4.047944044975511
 2.107247122160767,  0.116037691668542, 68.841990975062359,  4.143569306852367
10.698128882042386,  2.495647243553384, 45.831905910835339,  3.962751939284018
11.723636440610862, 12.266657827013066, 21.320670799780068,  3.996427788526717
 9.636472178524128,  2.741591375376019, 40.217309503823593,  4.274509139492630
 4.447611864272537, 11.203652270744069, 22.695011545628201,  4.004918201059183
 3.719137074170847,  6.891034315966248, 66.396946491188586,  4.145564719372821
13.255620889917083, 12.563498064723442, 25.076872669400380,  4.074636341308507
 4.608024242354917,  2.778426616526528, 89.658949841299943,  3.838843122615594
 2.753226765219980,  2.721243588633127, 36.811831916020878,  3.901030600394759
14.716867293116378,  6.987689573578607, 66.174700360558191,  3.926722627353624
13.594819986555224, 10.529286212443472, 64.721674433617679,  4.046146705560562
 9.470019301985531,  6.505397571981200, 25.039699960570921,  4.189797004845107
 5.978893492319876,  5.437702376437660, 26.955891518683188,  4.051196695334539
 3.498155054582192,  5.727390349801460, 13.628353395559834,  3.714784224094013
 9.971936321609046,  4.869875026702007, 10.015835271586974,  4.194110215340531
 7.716643595690838, 12.913790911997367, 20.909634779416994,  4.159540721870620
 5.506118953201348,  8.703239225903495, 60.594356102276258,  3.677748293320716
 7.969024424980506,  3.272865166997511, 32.827123449734508,  3.988965033120471
 0.672434262362772,  9.024980709121039, 89.764901555447338,  4.025851369080117
13.877766447096604, 14.728655118316341, 14.015376443857168,  3.686652324881671
13.555686527458592, 15.029607269145274, 48.694455353868548,  4.093182138502929
 1.970386759597162,  2.512790368835818, 21.866065132683669,  4.009880086299403
12.018038903171457,  5.405810914283086, 59.740547892575343,  3.947058298459391
 7.097123216257449,  3.884096717220673, 77.880847762747251,  4.091764983423960
 7.231147855509878,  7.492434131938236, 64.048896747615700,  4.382375342134195
10.398620265545878, 10.726862160247375,  5.702465919277769,  4.072098701626095
 5.461375480089139,  6.908932452056854, 54.030462953467492,  3.900472335459282
 8.630994486426511, 14.495486586356314,  5.674075183004206,  4.149023344731853
 2.548768791265811,  8.125772327949974, 51.700633798657520,  3.650543371690978
 5.417171717904551,  5.367968636225108, 41.653578047990912,  4.055256098031568
12.548027467384724,  3.663129478841998, 88.997665465377125,  4.134275784860515
 9.137935100382888,  0.452035456292041,  1.863274689494136,  3.671526462645625
10.972281524439703, 11.948193197437604, 31.524352198486405,  3.890166016566780
13.497777971789469,  9.187065335615305, 60.714397179494412,  4.397241316700786
 1.671286861457314, 12.637133489444324, 54.379908978786794,  3.781638849268159
 5.297345823685471,  9.328940072122910, 79.064075464089115,  3.725162910666715
 6.595399348736255, 13.571157863990194, 25.567993671821736,  4.265707123708534
 5.090720674418606,  8.417461427701319, 70.673661066910128,  3.792641476065222
 2.107846727355250,  9.029448787047231, 63.137771621650394,  4.266398121196262
 5.922890883804033,  1.012765751744364, 14.913601547286849,  3.688306241026573
 3.054119372649987, 11.814976965552537, 30.208305274191158,  3.935744842366995
 8.151700764365016,  6.360685872209357, 38.759554311351984,  4.071707864286464
 8.449691964075438,  3.349143086378750, 82.196608000961788,  3.976116488675832
 2.702942772569005, 14.477709480468487, 13.202605856459501,  3.811024569141029
 2.917530314743085, 15.000747348831613, 57.407949457047863,  4.276381537416142
 7.187712328973201, 12.225336263223399, 60.313748645548330,  4.142829891825988
12.508565746697899, 10.684068306885486, 87.974764720207361,  4.021876133391521
 5.590643010091358, 10.244898005854688, 36.958982486039858,  3.880424826142922
14.217897086101246,  8.189173046794176, 37.363105476295942,  3.782152790400968
 5.981463449544568,  2.227468939461473, 63.460470012768241,  4.219643606476683
 6.307590206864567,  9.826331262548704, 67.322252703330619,  3.848350849300381
 2.731765355370792,  7.988294785430124, 20.970871803682442,  3.886328929108716
10.725928864698856,  7.643665174430446,  0.635973348699224,  4.035975598376624
10.046090889286031,  8.070891523971410, 45.583627968769456,  3.806309608581686
10.832309887927993,  7.247248932770686, 87.430927084258599,  3.690801159704656
 7.587003055650734, 14.938585076144529, 70.058684225940837,  4.018101179480420
11.860820761638326, 10.819835441028946, 73.284200402122224,  3.997682438467744
 0.972455117653461,  5.350442518731690, 53.880398110871418,  3.886633207276590
 6.784724325723160,  3.161631407085158, 86.160597758377790,  4.408745614225166
10.481884106819457,  5.004194099305012, 28.762696309936338,  4.050212886241447
 7.289405713832593, 12.030355799675329, 77.164929738047960,  3.972173441131409
 7.607009999254857,  5.149212822383495, 93.849063238609460,  4.088408051126503
14.031977211439690,  9.738351516912285, 93.425525646405035,  4.133678729773454
13.546789756172567,  7.626085923015019, 56.806190739573118,  3.972101161448632
 5.839576804069100,  3.105888377545462, 45.118727627464189,  4.087169590001383
 5.802627716594274, 14.294324375867649, 87.258327268972764,  3.927693699948522
 0.924744113213117,  6.961244776279413,  6.568754051734517,  4.025351203380278
 1.168038190963703,  5.015478665887502, 90.442568889466713,  4.165834272211795
 3.861690568211445, 10.822667921697500, 49.261816368878151,  3.797495550844271
 9.479306357164621,  7.564389510623718, 67.740138917730974,  3.922091719695406
 4.663672772795591, 14.873835023447910, 53.727156385430405,  3.800476752469792
 4.411675500878331,  1.501734990332316, 33.366661122948514,  3.969418405369912
14.686479990244782,  3.483096962823683, 73.406160980129215,  4.258387893566353
 0.566080013828278,  2.860202360389054, 50.809433497570140,  4.018863595045906
 1.042315421569908, 12.040231599279165, 15.899440389981077,  4.179767341817294
 5.753158052532457,  3.637544925189063,  3.260830343425918,  4.238354993497351
 6.677496238125171,  3.236554189832386, 36.670651649770683,  3.980040386714189
 2.007653120058190, 11.464027255219698, 19.688247548276305,  3.661177333959686
14.227580408588580,  4.376613989486698, 36.789684112811642,  3.927127769714939
 6.262507835180748,  9.950599160791290, 56.947171466469165,  4.172086134054812
 4.888792632383609,  2.079958626347008, 11.354001761018129,  3.975416027481290
 2.132722324431030,  8.804263555389070, 46.360035092572588,  4.048508243112259
13.832281841752337,  7.265966358066112, 29.483867001423114,  4.157590423030406
 7.965001285270088,  7.670839690792198, 76.829323080932994,  3.949211811222528
 9.588382057990209, 10.765582592645611, 24.476323578729772,  4.120254881146887
 9.923929620079338, 12.908023070385539, 27.872395639957691,  3.929911996908513
12.432865197866956,  1.702117523555359, 78.378913210653891,  4.135499226096317
12.038611311207651,  5.965511162061251, 39.589350993426685,  3.821574664683615
 6.254156369276934,  9.960861427732960, 73.997307313023285,  3.860921073178511
 4.383882356049261,  9.629401232134478, 90.528056987767556,  3.637029267358248
 1.128242017666859, 13.614648344157853, 33.267493157934247,  3.987556004993462
 3.340974139923522,  5.576504215080290, 23.979799258966143,  3.892741148010728
 3.702442293338290,  3.707743332735234, 93.536565814443037,  4.239387354135006
14.566334795587649,  3.360977556475858, 46.526922861944506,  4.033541554190362
13.574429819767333,  4.348363660399643,  3.923178427170604,  3.994284633969487
 2.812111232104815,  8.171806826118853, 42.547308175950704,  3.799603065726869
 9.818122428241555,  3.976380992696855,  2.930055365323726,  3.801377478466035
14.771305585172046, 10.298265876127861, 75.920624238863979,  3.877020503685454
 4.717139283856834,  9.319323154643394, 82.825574424286401,  3.866786247601578
 0.809756532606259,  1.732570009444313, 61.537049452285906,  3.940513059656142
 6.925511787600355,  7.927445555912003, 15.733822770795385,  4.125805367322203
10.949407405952034,  2.890391192602551, 92.923442630779562,  4.149762729037145
 4.686458180587558,  1.528368566171202, 81.458996394655045,  4.507595438393309
13.809348031246479,  7.027539475852583, 44.848710327534711,  4.130447518341277
 1.031163202911840,  1.187797013289718, 88.834605739742557,  4.141103599389591
 0.786899057420488, 10.698591728692774,  7.608031535219160,  3.670894152224391
11.208886250099576, 11.828880692046733, 49.635314476671802,  4.039134165461459
12.926181781165289,  0.833169732345500,  2.134052790295250,  3.952887790989871
 2.038356650438188,  7.417296959513387, 59.373611584466992,  3.916865165428056
 1.389990034638730,  8.469009536621268, 69.438158422300745,  4.008065862748277
11.603818955150208,  4.308758102154019, 13.637969943870571,  3.829994811866740
10.748617541392951, 10.568692609354587, 55.909072409140620,  4.289090195758209
12.672364379392066,  4.250604640678555, 25.632352146208277,  3.714205198491241
 5.455313373138893,  7.836978051125951,  1.882425651197930,  3.827935920559848
12.848200623207171,  0.127161156762042, 40.462967148584468,  4.022554904334687
13.667222913082554, 13.979244955923649, 29.481014376212237,  3.947081842257916
 8.000633581082186,  3.430350957835650, 13.108154472398263,  3.634981683450891
 5.946714051544009,  7.486836540182443, 50.216161935503699,  3.865350383381879
13.958744588805340,  7.473249924461167, 72.542016834256344,  4.018984193716233
 1.264473291062401,  5.226571322022077, 27.132227264709844,  3.664202901919841
 8.264719651773108,  0.320074211326896, 43.279886715364192,  4.000481639341752
