BANDS
8 8
NANOPARTICLES
cell(1), 15.038
cell(2), 15.038
cell(3), 93.988
 3.586933323004696,  7.634338218252655, 26.016337033165073,  3.995048203279270
 3.963175909780589,  2.921157655739878, 51.693916265376409,  4.059625657449382
12.568559932265854,  8.670070401200768, 29.334314654189022,  4.574370460970600
12.627374926975392,  7.474369369768253, 14.918140387347460,  3.914149857328927
 6.888643690534659,  4.292596273155797, 85.204777177768577,  3.955709114681963
13.941962552937936,  7.108465987575995, 70.397568101114672,  4.152500739155834
 6.537260481026961, 14.655882833650541, 18.069286795617593,  3.920436760981830
 9.988801601616885, 12.347931822033308, 12.870801590234677,  3.582137277182499
 5.295695445206369, 11.311970112637034, 26.265116523352692,  4.044228094814637
14.599317208878634, 14.333734355677093, 53.636728282270084,  3.766446557015535
10.209545402674699,  3.040827753356492,  4.528386683696541,  3.782040431315212
12.219576894827318,  7.175156116422052,  0.453961710758392,  3.949268949816697
14.862947104343567,  7.916362348800757, 66.429854777778573,  4.136158463342224
 0.179805375789148, 11.023838210741204, 77.300562717311180,  3.877058952530079
12.871340656479672,  4.436476997724671, 59.766184187283592,  4.376679768500830
 8.369354343610553,  0.698290137545406, 13.889241682870049,  3.794205084617968
 8.266665712192660,  0.363145881398130, 33.417194004508069,  3.875735885399648
 0.428754322254809,  6.628930836395270, 12.458915659486694,  3.779761620097503
 0.576794003938458,  8.354869198066902, 42.931429176798879,  3.852349598329154
12.535143199366674, 14.080709978790154, 88.142036270494913,  3.749925496105210
 0.917210452752771,  9.901104921917364, 10.421928888375373,  3.791938217672467
 3.258583262145957,  3.657124012220189,  1.444489338069607,  4.188863238662115
11.209667477769234, 11.053385508055870, 78.318046646570224,  4.378829926488034
 3.190337964998532,  4.032407432166799, 11.175013494056303,  4.115278869034804
 3.005667214219009, 11.508666233210826, 48.238984676188458,  4.017096613951444
 0.164442765725382,  4.463436950779164, 48.967448213143399,  4.115671340635291
 2.907491034468828,  1.425737303749532, 17.551826291507350,  4.172020742436730
14.388434506568652,  2.321986217573068, 35.559666814247599,  4.010839081750201
 3.136097983311041,  5.965479045939055, 90.629540976643213,  4.108730223280686
 8.171950417097433,  7.779492923374148, 41.551137700162549,  3.868919669886224
 7.268001573274621, 14.427177338550990, 27.968705402413462,  4.029343719588575
11.620356782536382,  3.525378627785119, 78.225840177446742,  3.805630316751309
 4.455406868479391,  4.338969680732579, 75.749069490146212,  3.955836793640458
 4.822964647251123, 13.552733868598530, 90.987042391222417,  4.020444072088877
 3.051936219469863,  1.035193483470732, 65.338984343664023,  4.309373579367362
14.512243152994586,  9.507296098148881, 73.675737842572119,  4.005873791980896
 6.784917607287525,  2.299134571652307, 72.301298419409207,  4.197966903538071
 9.780091058473468,  4.097276814340456, 87.857917238400049,  3.902157781126041
 2.111233210145098, 13.909822675109710, 33.948975072105931,  4.274852802825525
 6.599302130756429, 14.186131448007604, 79.823783231465356,  4.209434565140250
 5.531938681716416, 13.234479316489697, 31.459705821041819,  4.110150972414887
13.838842262884693, 10.485596340965369, 92.947913619420561,  3.948189976202947
 7.212807496409694, 10.201808366258563, 79.164674752724622,  3.958636586314310
 5.836217899780555,  0.703954310791738, 85.096031810336157,  3.526134968266115
11.498551349394070,  3.487132513054511, 50.346922249814178,  4.015713029381070
 5.720870907718665,  0.461751541208770, 75.925150624089952,  4.198518197183584
 6.096611886799532, 11.825602265309099, 22.139205335253397,  4.041350302158807
 4.694166930609381,  3.253953749199039, 27.285615671537364,  4.186018613638921
14.204082857405153,  1.675763086901008, 85.706058220467966,  3.983697933228694
 5.408167157476892,  9.131970246591125,  6.934484792998088,  3.834330003335455
 8.192289456537594,  8.984456518765242,  2.859832881575254,  4.179984804946647
 0.274858667835900,  3.768924725995373, 19.928432179283945,  4.289505412695092
 3.316470420325326, 12.342732513060382, 12.528541698296582,  4.120888995942251
 2.736560650967417, 12.459341808731132, 54.834669933365291,  3.983133599875250
10.163973468475330, 13.023925576379721, 30.818945705867950,  4.071363081246719
 5.522658537864962,  8.218848159392417, 48.572947257048206,  4.289742925864405
 9.142805585595720, 14.616221681300077, 10.167548164626215,  3.658082857475587
 7.616987655816169, 13.348475787474776, 61.495038905095164,  3.796206825363708
 4.317484055933581,  1.458984475858270, 13.898104842867875,  3.645045324184223
10.673053072333614, 12.832271033238356, 16.516436727732831,  3.894226205444362
12.941732602576614,  7.576588144705918, 51.472112138186112,  3.912029221155635
10.101146954684335,  9.613052646153120, 82.176780810170982,  4.147647078887777
 9.229867183396525,  7.373700144751222, 11.938293767980021,  3.854913734279171
 7.538053548603453,  5.855947530852270,  5.612714002987951,  4.256092260141111
14.660525649265381,  0.734151661569894, 67.414379245099440,  3.729147333373465
 2.176567652157482,  6.766691501366701, 22.010184041761637,  3.924032097737658
11.425284245294911,  6.787997251231234,  4.382590102834432,  4.101734774964006
 9.549488012752066,  0.534536789961915, 42.935504012433469,  3.942293586169613
 5.956718636003873, 11.095146127448343, 41.455647960746475,  4.083932707796608
 6.664287346995686, 12.355652837981026, 14.827369996387322,  3.991484226833384
 2.875507753888953, 13.468670597423614, 20.351080647669828,  4.017864623900009
12.373374246174572, 14.095397535135429, 92.621147408588598,  3.855845866945353
 6.251451639329306,  6.250984024399362,  9.561407378262047,  4.076580887498911
 2.101065014855058,  8.789532177047553, 83.709704944942928,  3.903731788263858
10.758695575318098,  1.217912231708639, 27.991193037631824,  3.833779992638012
11.306572602708933, 12.088313157082588, 53.275914088050271,  4.235890509340028
 9.793702365538168, 10.302455513578746, 21.983919608129465,  3.951152364426096
 4.066772222629427,  9.767683462401621, 29.785118065269792,  3.989865854006679
14.769799422358357,  4.558564836059229,  9.398051790153065,  3.697377077771461
 0.208277137171405, 12.486161152574088, 86.130216393062199,  3.688642475373098
 6.717175383895052,  6.626516261931164, 37.348831782132137,  4.382823476842600
 0.762036655709695, 14.533087136115320, 14.467948579236623,  3.511451855462365
12.872615671767395,  4.511123829217559, 29.593966181170593,  3.778861509236835
 6.611081659803151,  8.072731847114374, 21.246050716571823,  3.711231824822723
 3.202799885967510, 10.422010907553389, 80.075841167304134,  4.264311426210910
10.468739144678111,  0.973611970832719, 67.420691795312194,  4.629089486574668
 6.216001949783651,  5.517976183785640, 13.422605609110184,  3.778258461570982
10.999370187837105,  8.936283840636028, 55.950917979415159,  4.030955788668219
 2.492418301934929, 14.511700241967233, 79.995350343406457,  4.026518947190436
 1.878363618771944,  3.041806380262073, 23.976750289428029,  4.508282219738889
 1.468508463129737,  8.017877628552210, 87.638019111398521,  3.864381382505700
 8.730636605543813,  3.540657252173987, 11.235809198028589,  3.969460619248352
 8.294182439758174,  3.638899035501209, 61.329520337885036,  4.014734846617975
 7.439360820938823,  3.325395527601973, 78.396663851191164,  4.100487513761236
11.322192293488953,  2.089903408342753,  0.914770705167720,  4.015480379867679
11.650071148992021,  6.653969054603281, 47.759036589268575,  4.161608102932878
 7.035031405986398, 12.145608412309539, 48.699783913994295,  4.129266568622265
13.632632367111780,  1.835784142490456, 56.493505639615208,  4.068163336523340
 4.420766894592332,  2.963950495497184, 61.734092632196990,  3.884045062682717
 2.106223583409323, 14.684759832981596, 58.272023340261178,  4.170083424951312
 1.242756944602520,  4.083075076910956, 38.840542041523449,  4.217087596443069
 9.154343493618709, 13.434274125175977, 56.678182750796147,  4.240643399874743
13.374845694933841, 11.596502066488299, 23.421320982961635,  3.769467907355577
 7.805554900552180,  5.697249196564430, 81.634156157076944,  3.930098192250345
 9.145919988208570,  2.442802146411635, 56.336249110923070,  3.869967627159555
13.404909358985602,  8.812188289424432, 85.198866856253915,  4.129721949239863
13.295360348496487,  7.637561959438516, 21.943316482323464,  4.067355454335440
 9.696423307744711, 11.397783493951026, 42.707133513795291,  3.750455171412345
12.173323545069504, 10.639130855399930, 37.160535512807712,  3.995088088156367
14.580671382566400, 13.220503721858661, 47.240516392186329,  3.961810780830878
 5.468978427791693,  7.091085118669958, 59.022820753434743,  4.013749938291479
 1.595075373066427,  6.182477911650706, 52.487690897327802,  4.088062888575665
14.159242755270942,  2.084750908251150, 89.515383108483732,  3.652560879210121
 5.839999718516418, 13.253755915062609, 35.737032055103946,  4.045966576507834
 6.046957042931151,  9.094805520872550, 82.908385970933423,  4.133383357139107
14.477256476099381,  3.786764790634989, 92.950515174779795,  4.004923416381262
 3.853006945287421,  8.164321385271087, 12.034124270089318,  3.751579180292697
 2.002671516949134,  5.404788707554993, 63.711715815778604,  4.023956666371815
 3.789279055678502,  9.593603933372323, 72.258776118788901,  3.942099847779894
 1.736195435498701,  1.379725601125051,  8.250227052426567,  4.151721516330954
 6.296390663436167,  9.897494177951627, 89.969362997135818,  3.863669713486420
 1.784494682452864,  5.559770755001629, 29.222569750902153,  4.141347972788247
 8.940212196668217, 10.343412556941024, 27.945681288595193,  3.833462050171877
 3.942186870435334, 14.217882039434453, 61.778731934179802,  3.744177737697274
 6.986801119976132,  2.823887323907806, 93.058775253990646,  4.023438927511130
10.184515516801756,  5.515464820719899, 26.897416939666048,  4.088277087760887
13.051276894137597,  8.877581950605808, 59.695515588010402,  4.488794334762666
11.617814702411136, 12.674887120376622, 61.110857548941290,  4.016002274166071
 3.476941073202061, 12.711825106670153, 83.741224115603885,  4.396597378931045
13.748885014941736,  3.801796233972051, 15.985751131220630,  4.045325181993156
 2.725766268511021,  6.722770298118492, 35.898446234164808,  4.085003099132790
 3.362240159213048,  3.489722441276456, 57.949779347782489,  3.894021447243884
11.364911412820359,  8.954054873528650, 25.297262930256043,  3.855588302311835
 2.274297188257324, 10.650414154866359, 23.376100132282684,  4.307044688754523
 5.837289455894974,  6.168182004821229, 71.730054293578760,  3.849183641615421
 1.847248828548344, 10.227395246993510, 58.245752113967804,  4.124871740837807
12.647434985824537,  8.150734855489024, 10.548768569025041,  3.678134027750589
14.386227692851316, 14.456906051695158, 82.446073113160779,  3.940617445710067
 3.639484993569611,  3.289215671436581, 79.696947316668641,  3.924935648641223
13.046722306092342,  1.942255031463189, 43.065590970608035,  3.569365997675821
 4.422200828253787, 11.671303001493683, 68.681651564914873,  3.977626741733091
13.851691521140987,  9.905946921819956,  3.035241168182585,  4.240376618865374
 5.386145551772128, 11.830501314281880,  3.767627766401315,  3.941627015994782
 7.868583548712763,  2.212428138139880,  7.567239162727793,  4.019482059982763
 4.025729603805132, 10.248396013502001, 33.757916094098569,  3.992910674803195
 2.903275701591070,  1.901902431298404, 72.953808282962356,  3.694106574836984
 2.694177480595743,  0.220757349776125, 87.195404675054618,  4.030200213581354
 4.158415196012859,  4.141845995503367, 47.775418466541772,  4.121099206157695
12.324127396405332, 12.569130003291555, 27.243097550634825,  4.287293592063107
12.919312090582029, 14.303833157882819, 70.666424031685551,  4.147141367085829
 3.407093541110413,  9.789215225928304, 51.874945840053037,  4.026032068827416
 2.709466243576364,  4.873434629426320, 15.192638163401694,  4.140056301063129
 4.027097712361775,  2.496958523317903, 31.381891688901881,  4.185651683840639
11.271695769240266,  1.084197245637264, 53.441020180237892,  3.781571514760517
 9.141250136329905,  8.563361410134286, 92.631159441015981,  3.642276613857472
 2.843789918390248,  1.991620887269054, 91.661632408179429,  4.088172548849394
14.420075760474534,  2.992689470839570, 52.879911487841476,  3.660343353888052
 2.971447310664352,  4.307450523664003, 86.802639103219065,  4.186538097596209
 6.307343054988263,  2.278874306551991, 44.884536800707565,  3.801409516229801
 4.063249404366526,  5.539805028203130, 82.868186059025675,  3.780875965049025
 3.618492141891753, 15.030572469725916, 38.327681422453423,  3.637567940412536
 5.881756424249485,  6.346469902176946, 62.885983469327378,  3.821053842884067
 1.171919437632430,  1.708928905210760, 46.159105450011417,  3.986511389574595
11.930615299886384, 13.049522339207840, 20.191708854804421,  3.875210948310431
 1.568266320342044,  9.405808995124076, 14.776130869592551,  3.801279902454033
 0.928697768646558,  0.752738344500650, 41.156711002552683,  3.774061483584823
 2.544692182358423,  1.874056381271649, 83.366019625058996,  4.216471796351088
12.669563054578665,  2.036909045217212, 39.236815245474304,  4.111048229166641
 9.987511226646733,  7.131636940677408, 61.894287642555668,  3.806241077443330
11.406997453640718,  5.152884625834083, 54.363741132600218,  4.212934575363621
12.203927201503927,  9.707678173137896, 63.850260091130494,  4.028351113563322
14.963301424077152,  2.429047589551886, 12.561724369151621,  3.663397694961827
 1.879458300590103, 11.787706567694183, 40.919691281364699,  4.248814337647474
14.787281313335345,  2.904609569282128, 80.469118617415035,  4.036956240611104
14.078418326005957,  0.358235894926833, 17.959756933330631,  3.889428911306803
10.627997365793643, 13.244618154311548, 46.159353225679496,  4.198668587395169
10.487439916242165,  1.699005636815070, 17.034066278120779,  3.992431803841901
11.627710987168355, 10.428408593766596, 70.938593892180961,  3.990750786355606
13.076105775168999,  5.517703206518827, 63.743806771382822,  3.862357695166357
 8.373152027283478,  9.743046540060542, 45.867752929710846,  3.718593773414588
 2.145576311847974, 10.281305142868703,  5.282783010064592,  3.828372980827610
11.742031727348099,  1.983606175813456, 20.666052592460485,  3.698545000472543
 0.925900108267511,  8.474426584688379, 31.937223877585502,  3.977034519423194
14.425656916153184,  7.177220235992846, 91.017689321019077,  3.797588360146813
 8.065573313768066,  4.899362188694678, 48.719490015596229,  4.043509249593730
 3.489449166436188,  9.528823509735730, 19.326876210855477,  4.165858382850784
 0.490181854078073,  1.551391888954495, 61.789264662143225,  4.433401701043968
 6.389041661790483,  0.997688410164823, 58.854193327016027,  4.121304694765011
11.723461177387824,  9.356587142018814, 18.447492088594952,  4.281940379724828
13.599841035368197,  2.802725645998552,  6.275418129321875,  3.835962959636021
 3.752256507453595,  7.965191093726719, 55.465231204222484,  3.988529396092504
 4.965926709662585,  4.669683635689000, 66.277192240701325,  3.942974193667546
 9.219212523864821,  3.943583624383202, 40.655324575591884,  4.222627400581943
14.800559578489707,  0.232921417575820, 21.753083701305588,  3.676222762497788
 2.567788177225308,  9.994269803441425, 91.476733411628018,  4.178468169766563
 8.434547289880520,  3.490430675619991, 19.795664429086088,  3.745431367575183
13.771155695523555,  9.300914756203015,  7.096925408310211,  3.915768968442661
 9.417211879170603, 11.931341330925653, 34.664534251714912,  3.847548640469424
14.849149640108660, 13.216188568533154,  6.648269124275551,  3.968634070850205
13.387800357595403,  6.210256042986234, 36.538576176899277,  4.067337551463350
 0.643768491158522, 10.355223873463000, 35.593358274568217,  3.685423277458963
 8.646944110072202, 14.861624260811114, 21.422236086855293,  3.991566659534623
 4.096681235948965,  7.300665941743318, 41.088544055929745,  4.354580347226302
 9.830603276943410, 12.809988982863199, 64.655624503278005,  3.921225697399034
 6.026651794695244, 10.894552035646170, 93.848661971859627,  4.145953099995235
13.082244924457537,  1.754954751991236, 74.693517279753010,  4.410641435493731
 6.790867400932475, 11.278939595600136, 53.782358626368854,  4.280792902089896
10.309963856349022, 15.019785348226968, 36.737900752272651,  3.717226817488405
 2.133616257525397,  5.652233034761149, 72.758775396720196,  3.899794238194663
 7.628142363311897, 14.330383128905275, 39.668546130648515,  3.987794292965546
 3.426859848858088, 11.360483994406065, 87.751728367588171,  3.843552715055667
 8.056457494470077,  4.346922614203134, 68.885213914716857,  4.161510743244312
 8.668714473428095, 12.027153584840619, 68.454872303704974,  4.095936405106178
 1.025970336673719, 13.389683352166466, 73.416464361210132,  4.370079953107325
 7.980442286528230,  9.239479623015267, 64.576005424515031,  4.079727362466347
 2.379141374051953, 14.893569671882124, 69.843512761302534,  3.816418679690438
 7.013313835186725, 13.082355369034968, 87.602466354616780,  4.089428069287738
 8.812276957452314, 12.613548424713635, 24.902476815216978,  3.730950170688052
14.362990401835665, 11.809963863621412, 16.645065780921293,  3.760749329449288
 9.950138329663137, 11.728582205107683, 90.314147859009424,  4.322578547567899
 7.034617434401911,  1.798004228234958, 36.761421382645715,  3.755388861231514
 6.634150969527288,  2.660269959117365,  3.344749609849356,  3.781707293748955
 5.533922866646210,  6.508307138903246, 52.254321011039366,  3.828350799966868
 9.817285698033265,  4.230927572905345, 44.830749485054206,  4.225957190133973
12.361308003767315,  1.850380035539247, 46.829876858462640,  3.804205675080387
 1.292059681828599,  4.110120948792141, 67.313745789203381,  3.726840691385344
12.226567265149157,  4.813915873294347, 12.065922812360506,  3.604381478626459
 9.504253265843017,  4.362992830938234, 74.846719457995363,  4.313634642671919
 8.621043252408834, 14.240325199143266,  3.123798572541520,  4.199455818154975
12.586300965577340, 10.022410714642524, 33.314549927365405,  3.830665323627719
14.370818330523063,  2.070736566432615, 27.117742568499857,  3.785677677184641
 0.953477340848481,  0.580627661819797, 50.180284729731703,  4.112774473123411
 7.181019041634543,  1.522635256516028, 64.502525580092041,  3.928845581568237
 2.155085458272786,  1.672497024194362, 54.882633029177370,  3.633203732921234
 8.317366112793186, 14.436385057438875, 51.707623995141027,  3.828446798943116
 3.033852612777984, 14.661901725903370, 28.526136424164694,  4.107160229094879
14.019627831599022,  9.489158608722860, 46.237678031143027,  3.822088488591724
 0.753386688590452, 14.023726926527004, 25.242324295215184,  3.971409537040964
14.680470193274166,  6.851644088160382, 25.893691686881610,  4.046011449656046
 7.830568155280457,  2.977323395356908, 29.902910280253824,  3.993064143370722
 8.214453514730097,  2.287927923036357, 24.853957810101246,  4.501219494794277
11.554295702684399, 11.719737112538581,  9.482674130194052,  3.977492508194473
 6.712056814269089, 13.379140696273691, 44.768199711192921,  4.093516517216161
10.546808335653623,  8.861435403506594, 74.790658130337789,  3.863105150484365
11.410370607149295, 13.375335462489755, 39.959748041089576,  3.813935832347043
 5.775839811186326, 12.790680385264352, 64.986237184550220,  4.175266620816720
11.684572171412189, 15.031545273133453, 23.989835713267521,  3.970230861701713
 4.512168230895170,  5.468714896452759, 18.928552150324816,  4.230068072136961
 9.394807088116476,  4.822309245522418, 65.034109394977008,  4.045150471949538
 2.454438900218092,  7.172661577036719, 45.983483287271369,  3.687561283189215
 4.632132332441605,  0.333403082915556, 42.009859810184714,  3.865187315043717
 1.336142672435642,  7.369287932368333,  0.605243578417140,  4.331966778157023
 8.957760271436950,  9.765634545150927, 86.151733624412699,  4.109707401783558
 5.371656459929972,  7.706998627943576, 86.749778458830150,  4.126271990670682
13.553438764775526, 13.959191068398381, 64.290336772293969,  3.811887855967893
14.670693174411156, 11.562409571067979, 50.889258417137164,  4.034892074201729
 2.619444323688014, 13.308655301982107, 44.671967995576381,  3.980214368691001
 1.285388159175574,  6.686604885682955, 80.168322776766871,  4.086938126952237
 0.535535607865253, 10.952886969980730, 69.882244231598506,  4.243435440821159
13.027240920119196,  5.876778352963984, 40.935423474756853,  4.306486979997900
 9.928569368131546,  7.497134172523147, 34.757831963712263,  4.037671810938160
 9.305734558266874,  9.473346980688106, 15.163974728671080,  3.842155279469822
 7.607928725113294,  2.001073259014079, 82.295048025835982,  3.589288590664079
 0.688351293366995,  6.759546499064411,  4.995973300049236,  3.724300009340041
 7.782250232471052, 10.876399006024286, 18.544632677746122,  4.056435033521879
 9.461775306379531,  6.979926636203641, 78.182261807414349,  4.133783638390971
10.680924054087788,  7.780589229695524, 89.235962178399504,  3.971823621150918
11.654395785048257, 12.496101274117065, 84.656350416145330,  4.062359111450663
 0.989727107641687,  8.302037488067683, 49.216091962490808,  3.743385824859756
12.521629079279290, 11.982499151958272, 67.422842129760383,  3.846888734622140
 0.727636842940023, 13.645211936730503, 90.455320537548289,  4.235491951634422
10.872484837665469,  8.315903681504150, 67.516636930758963,  4.153578079963935
 4.881466228692990, 14.945129921256401,  0.918647431009744,  4.003360769817754
13.406030169676789, 10.814241707454114, 13.106172052181424,  3.817077810795136
 1.102250449782133,  4.661794979079182, 32.982244237449436,  3.702507568155725
 1.415945636538460, 12.469958540144120, 66.180290230410606,  3.690481036813332
 4.344127411768942,  7.572260348815532,  3.478360314755812,  3.977977002392067
 8.647244318353287, 10.032509159912948, 59.337445291072157,  4.375395070212490
10.601116554948581, 14.166685593094284, 81.061857958962875,  4.001463097366556
 4.839122322575163, 10.363775403371786, 61.457691573064309,  4.183359431871069
 4.091288214827475, 11.511149761561505, 75.960423669662703,  4.409434343043502
 2.482179359064180,  7.018713088116082,  8.371676666034778,  3.927494285623230
14.305152381152425,  5.109520805373794, 44.918860659935952,  4.188189775092200
11.358652234079418,  2.840868270755477, 32.900060159531378,  4.114024254854954
 6.167577982034478,  0.432689548221184, 68.470576355674780,  4.286903980979123
 5.915028857601453,  0.431477919946667, 54.748840209573558,  4.173155279606085
 3.980715289612036,  3.506982466676372, 69.798518526332330,  3.693585555627388
 4.438429148546815,  6.526299776762083, 32.202793688289823,  4.070363427979919
14.774833028574427,  3.016949400438106, 70.820654727310369,  4.195170881262639
12.341643429103652,  6.309120060337412, 81.083491716605437,  4.113240668159078
13.679654888038925, 13.123370150860211, 43.269411458286214,  4.146758440927552
 7.548293291999872,  4.308787873240068, 33.744887893778213,  4.158519637760583
 7.146648389179168,  6.076011768392529, 90.025445791513135,  3.963799439955189
 7.727855035552691, 12.796865413869394, 83.578407012487261,  4.100062313048745
 0.455244028079234,  0.322236508442221,  0.243187350407551,  3.606721405685273
12.704804037856594,  3.888006301343114, 23.916863283774937,  4.076423725925675
 6.167575155863386,  2.091847708517797, 88.885473449450444,  4.551772577829097
 4.898832815368937,  0.211406133016688,  5.859184545889001,  3.895307860835982
 2.168362179936878,  7.690829239118582, 76.275940057596472,  4.126295921899619
 0.932246619136108, 10.520324321139718, 27.353144175601170,  4.080240037516410
 9.105805419722834,  8.128959278063068, 52.312159220067933,  4.015786919908388
 6.780664154343299,  8.320112334131300, 68.445031839272772,  4.221890827552132
10.572594789919155, 11.479258762359652,  0.818917550311479,  3.826837548857970
 9.173042771889332,  8.855006058552718,  8.017758113876951,  3.939661297602313
13.201105238754327,  5.814968056909826, 74.083651552382165,  3.763147309426945
 1.344195023487167,  0.936898138194159,  4.033994959255218,  4.224610889613722
11.465010800497115,  2.682118650912880, 82.867107042184088,  4.154144418437589
 8.172494679662872, 11.786969881351476, 75.660978240834822,  3.791810761012258
 5.113733806481338,  6.875014929122548, 79.048318254822149,  3.896319011130243
 5.296615290437050,  0.412265370142998, 10.236373173785250,  4.214062669154520
 9.598995823019429,  5.997863348532809, 22.483505484542292,  3.953872821166913
10.393065538719846,  7.570641336849256, 38.554808142915668,  3.553054361195407
 4.195172069433764, 10.067715648111712, 37.851344412823039,  4.164516870303081
 9.715562596750081,  4.865379330292277, 14.849533409406510,  3.852432309020088
12.951123728846452,  6.364158844495732, 32.754357930797980,  3.536449011802806
10.706498893853679,  1.012297189204970, 59.471429652002726,  3.692655195931243
 6.233442063386382,  4.943659552136176, 55.800030741671506,  3.842987037367178
 5.741557259144763,  6.732642740533795, 93.745924924532616,  4.083782726661648
 8.359748309814012,  0.949625927758351, 48.141496876148956,  3.947920467962589
 0.296858442320043,  7.385344714839315, 17.877958296949696,  4.010516827631787
10.754034470994974,  2.596163409707026, 71.340845464219626,  3.821153921664480
 7.507391519303393,  8.246333568754666, 24.980788502878802,  3.936893615117902
10.221859405813216,  3.836743574833414, 36.668337798481012,  3.810046133513027
 9.995300432616093,  0.964994578792348, 90.242487204991065,  3.871252022598180
10.889746320194199, 10.457553399430314, 49.382875682971850,  4.233170681041332
12.578012735638479,  4.690853333170622, 67.501610051054229,  3.851450299166531
13.673666168195840, 10.411435754664566, 88.963887154737762,  4.007344551929719
14.929565398752803,  9.431276437152706, 54.577277832469903,  4.333105040684583
 6.899280957218963, 10.635051853356124, 11.033806907307421,  4.334843140869616
 1.536656135893724,  6.469665992617271, 59.835423044685065,  4.045884705880019
 8.975813922305770,  5.221300381719059,  1.598955247439840,  3.906250796312738
 0.543019609816692, 12.436422757454494, 61.369168202371036,  3.910123957927574
12.880781178129702, 13.970754519057664,  2.968979617260632,  4.112250540307638
 4.674929054777693, 10.015324607372454, 45.033189426182290,  3.770198944248377
11.474303663978457,  1.977609950560001, 63.097054266701406,  3.945509576130156
 7.564292767324238, 12.510349020464451,  7.225676194397787,  4.200725595580542
14.878487492218646, 13.701558198419367, 10.738663679959297,  4.131393504268924
 8.279073740432102,  6.917243331954793, 17.966135711682739,  3.998280137878930
 8.270212475171672, 10.658469306389769, 38.231207091557806,  3.872501531038413
13.691764021175755, 14.562770991793656, 78.444234510545911,  4.134408655040678
12.282562690846559,  1.701980444466705,  9.943816096478352,  3.925331112726845
 5.329557989080779,  8.600387650399753, 15.731314658686761,  4.115349752090453
 3.397625874744310,  2.681304935772106, 35.531573042728354,  4.113238796965001
 0.161234467537382,  4.389122047748979, 76.918415463818320,  3.651618170151991
 7.752548562184976, 10.176351915659646, 72.039092298838668,  4.078925462939883
 2.826025925917574,  3.768276575961214, 43.078535191766939,  4.125541416144006
10.331188461925040,  6.249139349840030, 84.615219148812344,  3.956467709517869
 2.839926586420150,  7.218777244407103, 69.158117082518331,  4.077730166168904
11.216824884601369,  8.015948577355823, 43.971971342149956,  3.924862092767604
 0.657993259274910,  8.374415136816992, 39.009495666511505,  3.942332443811526
13.354944328709292,  7.618167373868539, 77.455189179419023,  3.862230889810252
 9.276351948534957,  5.985046889169853, 58.148401088162444,  4.088308878476773
 4.518019718567665,  0.121681890992490, 47.646625102537129,  3.953291662465082
 9.954739997917311,  6.843966390076015, 71.466629607592580,  3.962210802013848
 0.151085567650904,  5.258906524235640, 83.877195500519591,  4.128531449475924
 0.013052665775593,  5.568424274261131, 56.212245450319990,  3.923759749660942
 3.094111469935466, 12.479887366383931, 16.528976590474436,  3.889783078895874
 8.012100421911200,  3.332808208482513, 52.549429087763201,  4.223102741954520
12.729175886199723,  9.941997649525929, 40.967164467711541,  3.810378477283871
 3.817143332351238,  9.008219551916836, 65.402675072376155,  4.378707031536012
12.852134831046259, 13.958882336372685, 33.930760359663921,  4.131330927319483
 4.358257975396865, 13.703393151722173, 51.374600636291895,  4.048466390061050
10.500190529202074,  4.630348608145359, 91.800013209502495,  4.153582822871054
11.858038547767839, 14.474997020204230, 49.916724159641838,  4.062379504314157
13.542413026694197,  5.381061753611855, 87.620329355438002,  4.047857568678888
 1.769972990116763,  1.025689521037691, 76.450774418149024,  3.845135674912041
 3.631959596706070,  4.130036449354131,  5.671765393976623,  4.271363648329434
 9.800118573475356,  0.148106138530741, 77.040039385655177,  4.225076696372586
 6.501420058241284,  7.936700858803500, 75.353340195650304,  4.274899188431204
 0.790681981851961,  8.941742870651822, 62.791412411699234,  3.611033006518738
 6.627905644370736,  3.127726314744058, 16.393753050955155,  3.853965106187677
 7.731786756667452,  9.515778533000468, 31.788367732784700,  4.369564978533822
10.658994867437187, 11.053083114854433,  5.183454916585782,  3.759214267645716
14.194763148956870, 10.310104748171195, 81.364872039142966,  4.213537223713995
14.002515726881114,  4.265761210200176,  2.791809189503575,  3.752887039884861
11.895297054187532, 12.649555419087699, 74.379479732749985,  4.215796168269589
14.883381600762009, 13.829199023390219, 37.703467846543354,  4.309234215287778
 5.384710836445695, 12.210263023544883, 57.831999234440460,  4.013158828104554
 7.297403351573375,  8.355595514791434, 56.131995857312681,  3.264781148324644
 2.103413766023670, 11.899471139115807,  1.235754353067223,  4.251142071731121
 6.138062674688756,  6.310183025023996, 44.731511561801611,  4.217883410160161
14.948549027137348,  1.300916786987283, 31.082218931174594,  4.365775192315699
 9.119378946088599, 14.097102690715012, 71.830190601685857,  3.801785702038059
12.155127331683129,  0.205050007911499, 13.749522607138463,  3.824175158487817
 9.524979342150523,  0.685988775510845, 85.856334412880770,  3.991566717731517
 5.050660897387245,  1.855656944314304, 21.182228329259580,  4.263337387041505
 8.258515441846452, 14.124627922980221, 93.121136166374953,  3.761081168863604
 4.631481054433069, 14.982946176540597, 24.819418296125797,  3.946933802598599
14.943969887053706, 10.846288004774289, 20.179335691657595,  3.575709118207356
11.000205618254270,  5.198000402275860,  8.235813364175286,  4.242419006010722
11.050803408684169, 14.766266213973910,  6.623581306200368,  4.172686686020199
14.832744093739228, 12.149314934848331, 30.870563646129135,  3.996245592169181
 6.612537443687680,  6.740640794415609, 28.667119962418894,  4.219383703104149
 5.465048435967271,  5.208504283858780, 23.498655895505507,  3.920919166336125
 9.769669511588793,  6.104785469408458, 31.041942249812546,  3.706415233334112
13.432331335723061, 12.640006501251278, 57.242298059907924,  4.526596333853079
11.714054133974752,  5.358039173252889, 19.026816281506409,  3.781797226991733
 5.220033664003543,  3.498041125162759, 39.750441903972856,  3.999827854784094
 5.202557146303066, 13.441273153787350, 72.283793983754521,  4.184148539094428
 3.475628533541099, 12.213882058850858,  8.444259892725571,  4.031036670671422
