BANDS
8 8
NANOPARTICLES
cell(1), 15.026
cell(2), 15.026
cell(3), 93.913
 8.180226797447293,  3.343847157050835, 76.018547157656272,  3.935047452829540
 0.335323217668315,  5.371846945381167,  2.882459041232484,  3.899270360491684
 4.066438837774490,  8.250262870019277, 22.958672249640941,  3.973116576589588
 2.516693137415051,  8.916526108306504, 68.599355580072000,  3.957577986231962
 4.894026882422224,  6.533769170947153, 71.363277611397635,  3.918157843220996
 9.721851618556464, 11.516906688980926, 15.342203120575181,  4.088295727465734
 3.773095907085478,  9.364185161110841, 85.440147491002989,  3.742782456801219
 8.275324408098914,  7.573665231380820, 28.921684365281283,  4.139918866996321
11.153699231640003,  1.321611933460475, 63.083217674585967,  4.163503006398708
 9.069841403111853,  1.483406584973270, 44.052117363036388,  4.202120491257703
 0.728232766557905, 14.068914918159784, 30.071553324742226,  3.717041826001053
 8.968175859378418,  8.476630320723592, 86.814842916141615,  3.762179048136812
 8.958121162915363,  6.824311128951658, 50.189842256229639,  3.805972879793411
 2.847992965717975,  1.430617276591508, 71.083004730585756,  3.920428153441918
 3.383723539878599, 13.019012792959794, 32.467357627614938,  3.717496328485605
 5.088620936025935,  5.671176970035642, 62.739781587767560,  3.780937542632486
 4.986688124984451,  1.105711306054292,  8.691582383884899,  3.764581203015364
 6.265560362186724,  5.436324306135608, 47.874358652711685,  3.819507979433068
 5.558909712500231,  1.694421963853141, 56.839944869554891,  3.835498223577510
 0.712978195043482,  1.815859437285865,  9.052715011486075,  4.089885235240643
 8.591660323059051,  4.366767771806549, 40.740751387309523,  4.239178156919930
 0.588807358305308,  5.353300110566536, 78.325259126147330,  3.702950576017104
12.371741489900970,  6.466193897273470, 11.019749097308791,  4.241651862685069
 2.595045228556281,  6.465995477445657, 44.009514138031214,  4.014350312346970
 5.510120381045909, 14.175473127903297, 69.053177767697477,  4.150842340969831
 2.929044641878606, 14.176908179425917, 40.470409758894078,  3.838072373900566
10.337049083921348,  7.951889328553110, 41.904075940533197,  3.946424704699842
 9.237233244923585, 11.321140221701210, 63.017261020219948,  4.232760081723941
 2.583125734217980,  3.431649567654049, 64.685950707838970,  3.980812710568448
11.600160475427998,  2.266462823675434, 89.115037797653486,  3.828549997780936
10.294570129624592, 11.564094841418616, 78.739669451511162,  4.263676035876762
 5.713068294239952,  0.040733129862276, 30.112810561670795,  4.046374887269985
11.961250024682379,  8.558188872938294,  7.289384963515617,  4.333663692610908
10.288657156523152,  7.397873226686491, 35.024066895893611,  3.856329928537003
 0.293254197251227, 10.232294615709076, 23.393300552383000,  3.762025776346162
10.694732228498513, 11.883895091512970, 41.270278406165872,  3.925227266438944
 8.311015697662114,  3.351149010036344, 23.239558299954023,  4.185999244039698
 1.532679699702000,  7.397525322226308, 51.162615691333166,  4.243035741605045
 0.038556922180565,  8.682739234373178,  4.722972639785035,  3.685547416313551
11.806753016898432, 10.869977925891195, 87.577384567623895,  3.817968163777427
 3.460370560404894,  9.204801704717070,  8.250653217925819,  3.852261691829275
 8.742012180491260,  8.137080111121154, 65.696316325196761,  4.135767564755158
 6.714209440760528,  3.912423966960781, 59.765750553116902,  3.855141457128250
 7.832514258023715,  2.047602319427444,  1.075635072227219,  4.072793160835920
 8.311848301943956,  7.548927388142565, 61.716484927575110,  3.953567033317273
 6.522204234317941, 12.400958303434180,  8.634947037792671,  4.005055667213652
12.740160714133006, 14.056902295426866, 51.342249045232954,  3.840120135202044
 7.654798100341832,  9.131608356971384,  4.912488282240080,  4.138212946561040
 7.834100575906903, 10.610147500005274, 22.563745521895658,  3.912051816426018
 2.885886965041546,  2.680335517064391, 45.725238786208941,  3.888654346460434
 2.020652191639402, 12.438649720474535, 70.722498789484746,  4.306610953976961
 3.113797229722046,  3.667674754182357, 49.685312425708901,  4.263710507504897
12.393079827407925, 14.067410689008083, 66.376689338068701,  4.194546368403246
 3.466046319616065,  8.206731122903209, 47.564188684695537,  4.081802088040408
14.653840155560676, 12.108677073488739, 33.816900127219803,  4.164364017248241
 9.883254035180007,  5.378714300284712, 44.838768933625168,  3.900104445809897
12.983589886598903,  8.360848610007505, 55.026991615172228,  3.730336377505814
10.979482578056432,  7.733452754188284, 80.150252151030770,  3.985861971371689
 5.660106130531489,  9.325484065437468,  1.185009300446835,  4.323257172197163
13.615192708944880,  6.869097632816730, 43.917897856877779,  4.037765411596191
13.498520600607259,  1.016323177926088, 82.185168524912200,  3.955961479078601
 5.107916937465890,  5.583952716141778,  7.991289254256691,  4.110028841299852
 7.586764365398216, 14.014411167352559, 41.451988500014103,  3.591445720790881
14.665164518603431, 10.832237925271604, 52.535682639617654,  4.015290507164260
 8.757326601555160, 12.385068957798858, 44.832442415632016,  4.167095130263242
13.129892390560876, 11.436988061843769, 69.536688211008411,  4.086921998085528
14.323912034917159,  7.103414018385807, 84.547084056286280,  3.951223576942955
 4.828387377755285, 12.854753714860280, 84.774115336255264,  3.639105071875812
13.933227723095710, 14.880336786860699, 17.284910180520519,  3.915227803133724
10.565035704707659,  4.130297635987578, 37.154949653713381,  3.954510004448023
14.917186600240411,  2.582885632087592, 20.103636849638328,  3.997876812448264
12.045987517436700,  9.313753937876973, 38.693895323035470,  3.815611605850756
 2.205542805998050, 14.292688855733712, 90.582513974800094,  3.777143964227417
 1.636988002650603,  5.625778994130960, 33.494013924477009,  4.053292934662834
 6.336021967290815,  3.885320920994132, 82.113415235059094,  3.848616365941973
14.482147626874349,  0.286897282914105, 26.679803095359453,  3.884876799350967
 6.094733135120323,  4.368790633192823, 44.070542655403550,  4.081776338188011
 7.617169576666230, 12.880205229083208, 72.423886402807824,  4.195605409822218
 6.718736724106520,  2.033261773408556, 50.373478972181076,  3.762167682882002
 7.953910429018337, 13.649827897126357,  4.741665515831349,  4.239301284083113
12.677621638322764,  3.401283862232495, 16.270292717293749,  3.809525904788736
 2.401710067057104,  2.990726198945864, 60.528205739359883,  4.356664298626110
 0.472106588599463, 10.785091438109337, 91.266159363208104,  3.988700447684221
 9.460901426032677, 14.964102495277023, 52.977301792000993,  3.669271057098126
10.595781213795672, 10.688022448975163, 58.265693175669981,  3.908981348864534
14.238684683883960,  2.752436382282819, 50.989808469524725,  4.158605012656026
11.166918802528603, 11.790813628979416, 54.447094649798537,  4.088198897436209
 9.950797254357054,  7.522829787554175, 76.268135960188786,  4.053931007581961
 3.052538939402707, 12.390890326694061, 93.905038729313787,  4.048456679737389
 7.315728588552745,  0.530291225556975, 83.934926410895557,  3.866003810551663
12.922177411016140,  4.368704533562074, 40.582027931410380,  4.371483542722866
11.854439548367276,  0.064065020616365, 33.977351226718319,  4.010930389107939
13.571705681460639,  8.104041763757563, 33.289092737426976,  3.700045655481662
 2.456968119851236, 13.007129240689874,  9.483329281439552,  4.374306369666898
 1.957661291263383,  8.674265860506736, 55.188670000384668,  4.196626024117322
 6.918962047079615, 10.771749676506690, 12.423720515488966,  4.108296391578921
13.877345488749809,  1.798677250173117, 37.276132608772826,  4.135487243581292
 2.746623522472814,  9.569992931620449, 34.056439462239339,  3.890071261957695
 4.365180466517075, 10.749884223067214, 74.211943034964094,  4.138359320676460
12.394745596153603, 14.119743703508661, 44.085097585267505,  3.965418809052395
13.478669347535927, 13.600987100196429, 10.618041538875438,  3.943056377654498
10.664012207898383, 11.156026948151981, 74.679809833682413,  3.902401750187853
 4.286827240373323, 11.562395639207750,  4.846210743262072,  4.164228464717170
 3.671602413136252,  3.060170098691373, 11.917929140543455,  4.223777617300835
 2.214646823147131,  8.749097465685621, 26.704464611186548,  4.442896280417139
 6.104789304022503,  0.886420005946158, 46.751036481127066,  3.751436172788712
 9.042305627450846, 14.142034290608539, 11.366170477079141,  4.128312772620269
14.579070197633245,  3.315314431166996, 12.716373116922936,  4.155501412412292
 1.373987901372204,  7.386613986683972, 60.769701262730521,  4.067048413410929
13.430386214765896,  5.588048256181222, 74.927359603350510,  4.347218743671202
 6.978720343962879,  9.994811429789268, 35.317466742775487,  3.984034490598410
 4.453753314848361,  3.119441865338548, 77.886744321821027,  4.379484817243533
14.284055721771368,  2.842198105097162, 44.223584279566253,  3.958372230877794
 1.557039372542840, 13.895040451469326, 36.861151616691323,  3.870351933726856
 5.782081343422425,  6.446874567197120, 75.624149856210309,  3.939598832761638
 7.557679803941034, 11.640549341640801, 52.600312416116353,  4.022608498697050
 1.687849809307299,  2.793927624157917, 16.346207754067741,  4.330582078789507
 0.339488658859601, 12.196089588658040,  2.919199936678011,  3.926847382783758
 5.250345375312929, 14.302235434181870, 11.980495435054033,  3.553214469410314
 5.143223834472947,  7.517675570944511, 59.325446952740158,  3.982855083855913
 6.251798718667195, 13.199209250973041, 91.574993149051778,  4.021010591646180
 8.221562206555367, 11.900267340047321, 29.093216308153586,  3.912653965065385
 7.741770736528585,  1.334757089433266, 79.106567653051130,  3.481427774564311
 3.492463915805899,  0.979220583957219, 27.057640097385793,  3.732911608601731
 4.051916595776908,  4.289182055841484, 23.131161072283415,  3.951923690498413
 0.114443313460126,  5.042025797805308, 54.273041152126460,  4.010231651703613
 3.048470222291327,  6.135482096024518, 83.193950961601075,  4.246787344348531
12.980627687561270,  0.547484245137744,  6.392897499784548,  3.979495732413631
12.642208779706786,  1.487797423685338, 54.544619588082490,  4.020028341793088
11.681593367981165,  9.676643704329393, 22.108837304130670,  4.027912874693148
11.176097416498481, 11.096942218852753,  4.066826835196013,  4.018177133296255
 9.997347833905449,  2.089103838772016,  4.403438180528640,  3.821812050343433
14.169094631308038,  2.729467396489234, 66.700891759621612,  4.002873651564820
 9.438328006202159, 13.650410828438901, 68.972923594169274,  3.714561686097421
13.788382185277742, 11.722379524461543, 14.361269001601364,  4.269944402287980
 4.280845384811577,  1.877257362041290, 92.822327328755307,  4.243842170256241
11.147565050636810, 13.521329169781946, 19.826559504782313,  4.076798148793094
 7.729712567458543,  5.777266077047880, 79.048763016594719,  3.862782372948731
 5.859246551860953,  2.902314129853941, 67.131903844488178,  4.264081665234258
 3.735511270583562, 10.651483578148493, 52.184261260738978,  3.821491595813909
 1.164764806184778,  0.127590854283198, 48.374619811742548,  4.215100254574828
 5.562135857738038,  9.561803768367316, 19.602187036867605,  3.826255464101536
11.272611651215113,  4.312332484930160, 78.208906263282742,  3.851480137317655
 5.646693987997144,  1.953956539423767, 62.862080265937301,  3.733108864528661
11.626560139552833,  6.622265905333901,  3.561028144061471,  4.084085776623318
12.562608602450180,  6.577061813742778, 51.636852415639240,  3.969158028474097
 9.917955455789080, 14.335513181694559, 86.919903848480701,  4.177269931013369
14.457089119295363, 11.873449996704002,  6.799366380567351,  4.017649080236798
 2.043502096105296,  7.751273100790945, 75.720201859964234,  3.932032292716689
 9.056390837763336, 14.328650014313476, 23.180916230935434,  3.991310051813766
 8.304949739022920,  7.820902898733006, 38.446781735503102,  4.044426840304999
 4.628939635493206, 11.842740839075999, 45.836939209226429,  4.148990940145528
 4.618202737608955,  0.063157638750673,  2.669365949925094,  4.115261275891987
12.626716992091369,  9.875334230168177, 65.498666024789628,  4.383006639962622
 2.090722788293467,  5.137970739069104, 93.127994157510543,  3.591354780327658
 1.184961160557124,  2.634980409534759, 88.641124344152146,  4.070433569464427
 8.799782216131003,  7.195396934415260, 12.990337800670117,  4.042127182774224
12.816855344306436,  4.562614518337582, 70.042029771341419,  3.668149319131268
 9.607053553851406,  1.606770549262533, 30.527288901752044,  4.215645391376198
 0.971230842665260,  4.330296338661326, 26.374538186567001,  4.760267194180684
10.074611267797838,  4.482985475399315, 92.912309637457895,  3.662095442798243
 4.354657331409728,  2.876759966106387, 85.462983084683259,  4.052673891338740
10.068454843190183,  1.073070873400129, 71.839098277657143,  3.924300953210539
 6.061124894567786,  9.568814493990216, 55.865456155714462,  4.268443329629122
 6.922216855603964, 11.086770998546736, 59.630914571847995,  3.964434141449720
 3.323691055336856,  8.273184408597508, 16.565338269501314,  4.138363694160840
 9.312933663888547, 10.134552938551883, 19.008195092583552,  3.769780165039228
 6.373434448899252,  5.450255653553375, 56.160321855981707,  3.964929034180419
 5.575675373352595,  7.832875994833332, 88.343305111117601,  3.629203651772106
14.405122011801495,  0.180915176059276, 69.581867331721455,  3.628635628106412
13.917793592800882, 12.137100963391752, 80.616913090912661,  3.964008827378567
12.364281650309659,  8.373975149245002, 61.413054524614040,  4.337939198600776
 3.981569061717216,  7.193013115165170, 79.232923134181362,  4.153855605790472
10.123667601480204,  2.480584751195806, 67.867006752030207,  4.400613534141338
10.587554124097686,  3.850949223930997, 13.283061350170883,  3.537338569348445
 7.733629094227918,  2.986152664100868, 53.728070960733753,  3.471721140222828
 0.507649634293583, 10.553922002855767, 83.895050901504732,  3.415327498938883
 7.365130167087930,  2.207035842795143, 27.100579007920143,  4.049002133376332
 4.951987920026674,  0.755581059327493, 43.209062554194709,  3.653192104292628
13.256081478393686, 10.283780572847464, 18.319687505120822,  4.217111088893573
12.255837725625430,  7.851771723306620, 15.078567221503560,  4.118931560509119
13.966071243123942,  4.563998536039236, 62.890411057833610,  4.422947845962168
 1.634135189698110,  1.119831700169461, 23.488035118152229,  3.843479653051637
 5.621851863365604,  6.545715374804875, 33.632922598226870,  4.086036019856146
 1.481212693957782, 14.172330672815285, 44.255552530309785,  4.261639280476526
 0.146095456173679, 13.388124678656833, 20.913841893621058,  4.255861900315057
11.344838006583792,  3.868156984040906, 26.804000444548976,  4.595159702137758
10.263302808002550,  3.301024127864649, 51.032327298540530,  3.867933905122706
 7.991217551896511, 14.654426975555094, 65.383516108942274,  4.278859200708774
 3.546247529373980, 12.986441960277880, 56.204446983606367,  4.204237031677304
 0.773705734618808,  0.969120606325832, 33.604555541249290,  3.921955541917035
14.404842641606663,  0.545296483630599, 41.046075235612641,  3.874608936057784
12.143576761939316,  8.773201792043125, 29.267444936190284,  3.869904119803897
 1.601332096679974, 14.595027878018014, 78.855630223173577,  4.153507093194571
11.682483611915464,  1.922206143868303, 75.206256997702127,  3.724403084213226
 0.852209924003320, 13.786585714697432, 59.256874050657530,  3.679145413674406
11.811592183792289,  2.456933962091587,  9.862471552285710,  3.961506792349105
 8.003018835044561,  8.443211532042637,  9.074342289437089,  4.306954761169695
 4.362574915055202, 10.802485412891073, 38.655357305237992,  4.305031533690962
13.673718154494603, 13.958479106169014, 89.068437660923422,  3.952517058526962
11.776694380308527, 10.072762074658781, 83.410400141303612,  4.195515878332536
 3.646016444724228, 10.563028707423955, 81.727457718534097,  4.040654051779255
 8.288318370118752, 11.499917001533191, 84.663497675268701,  3.748136134865437
13.150280416359003,  6.544347483490182, 93.757738968416490,  3.925695680140958
10.479641737550201,  4.430868672959330, 60.588406861070823,  3.900884931003688
13.443687558673396,  4.592937117238605,  6.709749035635571,  4.186454161725077
 2.667921971947971,  5.389954865160940, 57.278948928121572,  3.717859197709724
 5.694452952851403, 14.939396258966690, 87.947948321197870,  4.098655615557171
 7.820335776442307,  8.766253773379059, 73.007751085510449,  4.122647159424989
 1.243267702528122,  7.613548362681764, 64.922282052058890,  4.229581292768889
13.531111162301960,  9.109808223586054, 77.272882488287763,  4.026774467515298
 6.590283716908745,  2.906884439875083, 71.204840407129367,  3.999654440416366
10.237538957614829,  8.523463580338495, 47.046103696015891,  3.783477732949803
 6.679674939858427,  2.807886258936010, 19.404274219110558,  3.899713499978592
11.704390766174232,  2.492938485707204, 85.296439196108238,  3.801941128670159
12.443061584849339, 13.031176639180339, 60.960313840663517,  4.107036157969692
11.704297124708313,  5.259475919470583, 48.153782333980672,  3.665556183960520
14.068558841124116,  6.314433834271994, 36.838426414908788,  4.307732229848946
12.606142797759338, 12.990529104691529, 23.965048352272454,  3.753331602377897
14.042588387052973, 11.462579308322580, 27.193119592993138,  3.908887912987571
 0.484570512889934,  6.263920054643353, 22.287573849728116,  4.281572310105593
 4.041382998467456,  4.172588109158663,  2.312398596400524,  3.963175627575496
12.378304862847326,  1.473530408605684, 47.477254851259261,  4.063924470581951
 5.105762566897464,  4.876487338346294, 15.302168101861238,  3.934977699361817
 8.148406123817354, 12.282732763457245, 38.251473551319862,  3.762699311320066
10.844745081790531,  6.665663151101514, 18.635929747985998,  3.841210369609831
 5.320816058797773,  2.103608742834773, 33.591694798643694,  4.054086079281244
 0.341015897609431,  5.293361659800725, 47.129406056779167,  3.919870409172523
 0.065296987121739,  6.754539988896578, 90.296424557919096,  3.978524183284116
 2.165882854531471, 12.857021147263895, 25.418650264587640,  3.832068110415587
 7.878194266259401,  6.855457491019683, 21.214640317210637,  3.946511589018278
12.101123642640912, 10.347282214582036, 44.424083799970418,  3.609878196596396
14.884889316849874,  9.748436179098574, 10.290480707604344,  4.087108438373023
 6.289105173786401,  9.481291885242376, 25.981506504838595,  3.916489091574426
14.094700654324251,  2.951384182294195, 92.102459152183300,  4.060270078019084
 4.758284132659412,  7.182951668298992, 11.864245818871277,  4.284167705481558
 3.419349721262111,  0.439835940004016, 19.385111726584547,  4.073768366561699
 5.089168958190033,  9.573013520278009, 62.900873217768613,  4.012768169319665
 2.324299995820240,  0.725786130720834, 67.396284519827873,  3.641457616168662
 0.209989500226108,  2.243349927869964, 76.316192554771845,  3.726971434200966
 5.845794472876728, 11.369251335399658, 16.222350246797966,  3.858049430716832
 8.159595217215092,  3.015958143499479, 86.900782001641744,  4.025094011422635
 2.258373147479205,  4.722390945226720, 68.650733987644344,  4.339222099037957
14.529150971676600, 10.039295926834999, 58.215777186849017,  4.058225775565979
13.528289599581035, 13.083644021421978, 76.624172659291432,  4.021706846913824
14.422757872787660, 14.088252138614507, 93.254086106498164,  3.951924998951303
12.003543558567383, 12.684180292203081, 30.560273831746578,  4.307449557762806
13.943968114871108,  7.716115154456952, 68.608179803134348,  3.617499902608555
 0.534538452349650, 11.047086905221308, 62.711649810998608,  4.003888715187231
 8.740833843893659, 14.690895741348498, 60.150588902969503,  4.122417385980295
 5.185645959496284,  6.775094872850318, 40.896156946839461,  4.089445916167995
10.776360848794228,  2.673561777510495, 19.785601609540212,  4.306741413891285
 0.335621076381270,  8.367532016568566, 80.827322911588837,  4.104014726015893
11.978126898503502,  0.390016256189296, 13.879699721762361,  4.002930286925912
 0.810942139185665,  1.477578040879294,  2.208027104883849,  4.054164547831979
 6.975216619696740, 10.052047299756483, 48.828803131024983,  4.239714353926976
 8.938205875406254,  2.994658674892073, 47.594763537875117,  3.423330947332879
 1.729089423363729,  9.354106330864582, 20.024704552664822,  3.764641865659036
 2.876533355548575,  2.683702148018382, 36.838864844390130,  4.145880102444115
 6.512272846955135,  6.144366438713074, 85.188186746455997,  3.742640012051470
 5.721267329962075,  9.983128070223026, 31.502072301059279,  3.993889001063554
 8.517558675200766,  4.309074190653883, 64.187000510071655,  4.101177620866320
 7.554972418131423, 11.564512667174792, 88.252553454728414,  3.575373581516468
 2.836829659753040,  4.128949976532803, 74.072219157967524,  4.123589311843075
 1.868658650352842, 14.155866163442729, 74.579324529161681,  4.107270225210318
13.090046218767306, 12.463518343131391, 47.674916835736113,  4.030969523262178
 2.321249629317431,  6.144948395902454, 87.136910553469050,  3.768359738449443
 9.419798004135201,  9.772168351205638, 69.385777530539542,  4.035161419393467
 8.291680547336105, 13.407585365463792, 32.855710358792912,  4.159214678435711
 3.054050193495971, 10.800099377922757, 59.726513589473186,  3.795034562410901
 9.167461656034419, 13.947238423858401, 48.949932423426667,  4.651930716330704
 9.440238331317225,  2.512030898109307, 57.200076823664510,  4.098905846302758
10.161134812983354, 10.540087138185180, 25.831771672022903,  4.108604387225687
14.774391387308368,  6.009379060522307, 30.092786381001076,  3.737478781591986
14.417629923623975,  2.362112600233758, 72.617637548674807,  3.812716367844419
 5.862549908131151,  1.039882161829096, 38.893583113328070,  3.813702818513938
 2.007240179735819, 14.795325030508582,  5.750802552097806,  3.945168496782367
12.386026759748521,  3.249388032591344,  1.696695146616690,  3.750006521506092
 3.248190338499639, 10.068606654532138, 42.493423358434136,  3.821752475371785
 9.329830951663180,  5.369008438059834,  6.625016230936417,  3.955949174153612
11.014172954326906,  0.791898133126628, 93.184809382191048,  3.660683651410957
 9.525329093531274,  8.001219608175502,  0.448374820454088,  3.883203020219681
 7.013376744077391, 13.312361675461945, 19.660490689974033,  4.173733394010653
 0.757243502758513,  9.821271510236748, 30.573801906661107,  4.087885204917034
 1.625084845743351, 14.635317728806514, 52.634527018705192,  4.412341245530948
 4.832922703764660, 13.602532273206531, 49.716727506184526,  4.175396444104869
 8.782574275583608,  4.095699526714824, 33.638456010274680,  3.910562609253047
14.877986909291730,  6.338584480436377, 18.029584091807308,  4.327372023717947
 7.339324143193998,  8.553233699892790, 82.056188779915672,  4.327012768956531
 5.209248675936024,  5.675336282006248, 26.782167501781252,  4.133805827503823
11.850456246563203,  5.771945603772242, 66.178841833561393,  3.713728098074933
10.523008090321902, 14.508999844020492, 26.999505905473477,  4.196095849436261
13.418122091236874,  1.817726578857169, 59.602588016948673,  4.198740466924965
 2.299537091576065,  3.692477330830686,  5.827415547065272,  3.919300041083826
 0.724081147724789, 10.298956057811328, 45.467359669596441,  3.980773403693296
 1.726143848709268, 13.889245453637429, 82.846840221980429,  3.949792900521374
 0.464233543473171,  9.551530436502489, 87.462761196552506,  3.996749795882017
 9.808432507244234,  5.064614152651957, 72.654971712133104,  4.237636302690777
 3.650674961136802,  5.319847153022845, 19.266236157752473,  3.854791385681732
 3.608968014090246, 11.982640600124034, 28.864590658143005,  3.788204251428494
 1.306072920541214,  5.909959833849798,  9.667734094455778,  4.176694256491567
 8.833854864990604, 14.432924490754845, 76.037880120356888,  4.034974447106229
10.603391099463183,  0.825549227604677, 39.813010026024024,  4.113352671671578
 4.582103081701386, 14.983472940174126, 15.610859934609989,  3.879962945797554
13.410159267080575,  4.882023321164166, 81.409401013906290,  3.916586202909246
 7.861770042718690, 13.401077042399676, 56.316568286272684,  4.119297669045078
 3.901954671492105, 12.114198400584081, 22.017406318684777,  3.939135441617308
12.095147718634957,  8.471909490123707, 72.118900444429400,  4.036985784631802
 8.722667198860659,  1.064851660586232,  7.888522314436417,  3.869076030062172
14.597164302287871, 13.104188918140441, 55.810210099629472,  3.733749969271317
 6.862735975329121,  9.586686981333068, 77.729504742852882,  3.905369240077506
 9.376331609472595,  8.272063267337597, 53.765830392464160,  3.899525543049883
 5.379830002278939, 10.368844661921379, 70.528897802142353,  3.523186864746240
 9.603463598466822,  9.707794495505466, 32.021961339309343,  3.824483495418193
 3.741723601182937,  7.475863436351307,  4.604380554262739,  4.085292915166684
11.059371657603691,  5.370223007307768, 30.761373078663148,  3.855632053209689
 4.922099425200468,  4.143711363668835, 89.342444049775693,  4.107372426679921
 3.845704829856002, 11.211211707019732, 88.874246855381216,  3.976495640692882
 6.598260127580402,  4.355843845639347, 36.920333398035886,  3.986112354220681
 5.011981615062806,  6.822359323161005, 66.411918214943952,  3.885185968688880
 7.300620790287273,  2.024852439316541, 13.616965283627344,  4.009001725254631
 5.199236925316846, 13.209236229062002, 77.394619347649979,  4.074514567909516
 0.432496694141494,  3.317374721917261, 84.748914950211713,  3.962457790305382
 5.386485807474408,  0.647526699251110, 22.809490234585070,  3.825121270590493
 1.343647611869866,  1.653315436220884, 56.508473568888597,  4.355777997680519
12.078224928246604,  5.985881362929285, 87.703057799354966,  4.110388595600574
 4.627318289426524, 14.444216198321346, 59.953644476910775,  4.100071532776872
10.545110274791767, 12.518242771613153,  7.857831306310771,  4.150864160787510
11.371894263894786,  0.489895775603876, 78.905205069170975,  3.917944679204875
 8.040801412065342,  5.930555489380863, 69.034646302628872,  3.986643691706974
 6.268971777586223, 13.481757979325828, 25.979386943905379,  4.074350740185150
 0.933560987440993,  7.138463352846373, 71.881826069704459,  4.151596699159886
 9.610259996098796,  6.958251587964521, 57.765418072790517,  3.860103954452502
 9.153626969405382,  0.272729920656602, 16.755540863848601,  4.061771820649843
 1.457179618525057, 14.747509968537114, 13.185123516108245,  4.011565409698343
 8.719925882881000,  0.772250201349462, 36.279340821499687,  3.886391209007772
 7.777276431097508,  5.581854776817788,  2.974971997805528,  3.913259799695020
13.045400773631606, 13.781214273150017, 72.751916030208719,  3.809406551445847
 6.981813005164074, 12.472387826338361, 80.879877066436350,  3.828926825619383
 3.541861864409110,  6.931522872409555, 30.229823997946475,  3.919530964675944
11.457281181535407,  5.739484588683124, 22.394480862694536,  3.856061928696439
10.299194766367705, 12.646023694682267, 90.857071273642262,  4.063247494546025
 5.668948860092457, 15.001129404031072, 53.397133875145464,  3.843930013988045
10.902687214656222, 10.263777849376066, 50.632664008909231,  4.118374796417713
10.855508743596124, 11.369595589275184, 35.458325113008556,  4.206957531030068
 6.305576107752655,  5.575872414520558, 93.105610427420558,  4.188583138622180
 8.830913100245063,  4.194742525863782, 16.500531519361495,  3.824289148335108
13.806374100763845,  8.621337692364953, 48.439722981411961,  3.863102079568523
10.341699508895488, 13.706555293234283, 82.320695155378658,  3.881843950455723
 6.796739938189170,  8.188913570736913, 45.166935219579990,  3.965132115196447
 0.549336534057866, 10.132768958542634, 37.251600980250281,  3.931178370917346
 7.092627937645084, 10.254516425987086, 41.757693072016650,  4.014785572852675
10.316278565530961,  6.031615198612058, 83.887862859655684,  4.290724828960534
 3.309114165668786,  6.896896653952990, 37.129536668627559,  4.324244308799152
 2.058642659322921, 10.721097242914718, 78.163897234558547,  3.759285770103364
13.469665726307101, 13.411438031580147, 85.148245311369081,  3.958951847137776
 0.885219412100613,  7.055702487772998, 13.559205082368152,  3.925502230242194
13.561806091367357,  5.806184663205084, 58.112264522533302,  4.319961552363567
 9.915379230295009,  2.508281096065417, 81.885932586735166,  3.829625385733965
13.597503893030725,  2.290173930618293, 30.057971385403416,  3.917271947697821
12.298481952105396, 14.580673534122331,  2.612652111395211,  3.854442729742086
 6.210990144671037,  2.704886293589376,  5.324641540418040,  4.018338352916812
 6.513892568673335,  4.265650413196950, 30.434723027878956,  3.941490708968986
 1.743172360762085,  2.932420753393939, 81.048661186380002,  3.871788589929874
 1.933397777366422, 14.235592370245454, 86.750658769105286,  3.895756479396685
12.654140434633831,  1.747191716749923, 23.336204922703327,  3.895652021820927
 8.023044572178119,  1.825480678679896, 90.859258009448283,  4.179405069501777
 1.980124982697115, 12.208435678065737, 17.165427544642316,  4.224602562739426
 5.483907042342950,  0.942656944878979, 74.465243081577881,  3.914133149279268
 4.753013917197497,  0.543014319149002, 81.079069797203800,  3.798636383326611
 7.353328113530439,  7.799878619470216, 16.658208901899091,  3.913620183843849
 3.914525005576746,  3.468605274131757, 53.733540173311937,  3.992811967429441
14.632785328750197, 11.403565866625554, 41.689166082631971,  4.045260480040969
 1.411485422226139,  8.787814162107672,  1.045941294080433,  4.137208582232588
 0.003241506283759, 10.582688847899934, 73.854808711884374,  3.980670698481893
 8.198418119880099,  4.187472554230522, 10.311199543775199,  4.086325589335096
 8.955611855186520,  6.855999358054699, 25.062746487790438,  3.781672259669818
11.138046276811654,  5.092857680127348, 54.859436660222485,  3.649214281098905
 3.554859758155863,  8.251514143689844, 91.548638291360234,  3.979507186013421
13.112682891769794, 13.033449282840692, 38.390722162177283,  3.906461059990132
 5.598328371956891,  7.047736219097086, 52.435055044182448,  4.287758891186120
 2.616166742577502,  2.908398724616652, 30.473853831991345,  4.297339915810411
13.097719042541799,  3.826790045873961, 33.699218151061295,  3.932762515596985
 4.115684185570892, 13.452815644194816, 64.004380094037160,  4.271688640717516
 1.066054199817046, 12.148255986676602, 66.602149191381244,  4.151957474444237
 2.779661784509639, 10.760094431479869, 13.184836879744180,  4.307350095588652
 7.415133430711866,  9.343385955383226, 91.316162776773595,  3.982339486001349
 8.552562430603132,  5.882245977044937, 89.676297322170640,  3.951798002369877
11.475940191259539, 14.252583156128892, 57.409224725999671,  3.620724572169964
13.137043408416039,  7.665011213046333, 25.509239235983831,  4.190446113851944
10.956638003908186, 10.428194020930988, 11.460576303374326,  4.215946107093726
 5.747662756834677, 10.756603922857431, 66.756335051755556,  4.094557197918964
12.631478759462954, 10.561376752166321,  0.278456526867558,  4.166392112604811
 8.793978843934287, 12.234209132487722,  0.815437309490269,  4.256855581442847
 0.248081119520965,  0.206818397663406, 63.244228705122708,  4.376468963755013
 0.787062485716181,  7.594502357125277, 40.498579612445610,  4.193988343009894
11.340864805110154,  8.569399635114658, 90.811128001838853,  4.056298987386111
 5.380493077011775, 13.676292295626618, 35.770468446020331,  4.087086001011865
 2.547316033524107,  3.324132835378584, 41.115918396851256,  4.523376042077919
 1.525635553040660, 11.247700602132600, 49.155090386971537,  3.769447402763916
