BANDS
8 8
NANOPARTICLES
cell(1), 15.020
cell(2), 15.020
cell(3), 93.875
12.669349239717778,  9.740992780988480, 40.441102633167489,  3.869902716642010
14.370480868308935,  1.834035772949121, 68.144397565437046,  4.361655738558489
 3.607731151223441, 13.059044372484195, 81.049433760003950,  4.085667405645794
11.735747510218900, 14.418604726639847, 79.259277615007704,  4.068141906012515
 0.233988563748893,  7.076389894187874, 86.216910522800319,  3.554039666779211
 2.125011447039390,  8.582844389228530, 72.090938988989322,  4.081162843226262
 5.084300678099241,  5.604624114301814, 81.634016192890925,  4.438157818893251
12.994792281274666,  6.602378852701636, 19.159480711831673,  4.165783993825614
 4.646414994311078, 13.489300089261976, 11.708164685258343,  4.166196064298195
11.817281316797583,  3.434818667521423, 34.210663175513126,  4.020521773938704
12.308024647591319,  2.922531621184699,  8.726949842539653,  3.832100819184880
 8.612528060314940, 14.231318285484871, 63.370779232216009,  4.011958591801633
 0.174931439857388, 12.246958495569634, 78.898453226990199,  4.098534110339928
 5.726513971056822, 14.586129046887834, 19.640409705712749,  3.963952578477430
14.435226023498622,  1.729351693831455,  3.230423761693842,  3.832373144046946
 0.745221976861613, 12.087631041129685, 70.939033343558734,  3.794255211948541
11.998291701497203, 10.410661057185454, 10.814299972282120,  3.960887824277802
 2.369366683001701,  5.340801877327994, 51.842308283322645,  4.160323934488541
 4.083045165934664,  4.712109748374656, 24.207402599725079,  4.030682904840051
 0.997463268393450,  3.518129935736185, 74.526200480604317,  3.960352304133711
 6.811619536103176,  1.582801759959835, 60.672880474889318,  3.934958021764267
 8.115897574482030, 14.023174855240615, 90.209347801839613,  4.058470058182765
13.539733261197810,  9.868117892955619, 73.103143187699729,  3.827614504929408
 9.346657534478066,  2.465975811604391, 80.015511924890490,  3.852319238687522
14.967449681242650, 10.878697342175167, 47.063682713396446,  3.803232449814426
 4.315982580740083,  8.627091667616565, 50.542034395572507,  3.871356719819574
 9.368653277981270, 12.297080744586646, 52.297730144108328,  3.983861997505786
 9.569019623961491,  1.644153251780552, 40.423310278011762,  4.076924192727883
11.065358117030815, 14.950608086931490, 55.561873622887333,  3.693580631409641
 2.393533533864214,  1.484150415654393, 41.673618149919918,  4.454723466966280
 1.816640907899637,  0.805437691186105, 64.384218507060652,  4.198778502843009
 3.645140176983644,  5.586034546739306, 40.515870205189636,  4.060684522467005
 2.490995735563310,  6.960585500357130, 32.739198079341570,  4.116434185625184
 0.014463518862826,  6.725127972323923, 15.355362124514855,  4.454571911499018
 3.993414308548100,  2.492129349973905, 56.640029669834121,  3.813702421151589
 6.833997307289694,  0.539610832742754,  4.581878294122860,  4.223639917647366
 4.319376514906803,  1.019293817005434, 27.801073230691408,  4.168133543104364
 7.135984502045519,  6.385064314325636, 12.416672861971186,  4.053458002805375
 7.017722809433105, 13.876269135449066, 73.974564754229093,  4.409332189375538
10.459178545689431,  8.679268367520141, 77.101324677979292,  3.694017412933388
 1.024488423117562,  0.607000901749197, 10.951869398000257,  4.376228286989808
11.147648940245688, 14.129869856576839, 73.175821483955801,  3.832327487125659
 1.669644740372652,  4.774575868271949, 63.521672603691428,  3.879872646354077
10.273556536175585,  9.771949067304243, 69.663008622132324,  4.146693926152087
13.508115578017618,  7.920394437378548, 43.964819498979217,  4.227869176940735
10.170915979381213,  3.607599599184088, 11.849699845311983,  3.814853277003808
 8.506836694118215, 13.585730478173414, 81.605479716171260,  4.085518119391675
10.051447645396227,  6.759483392561280, 35.746609528044701,  4.066369408143502
 3.958422813504137, 11.889096263537771, 42.556906472048993,  3.840744307058483
 7.408841257066373, 10.830538235495366, 30.640815424757214,  4.394493094060331
 6.856831158455525,  4.211476733365599, 77.660351896810042,  3.783027222407468
 7.961944047196992,  0.762679128963557, 53.086477383995863,  3.621680966141623
 7.432441057547129,  9.381581840207680, 15.263212228524187,  4.015932380602893
11.778207241001352,  2.898106772310885, 57.951849381824076,  4.032200350340937
 0.289309626627198,  7.069091731066564, 25.421729512154414,  4.104470232097382
 1.938848706924114,  9.766961282763633, 88.164486481771178,  3.775629824801106
 8.409999848523652, 12.332750511130111, 56.324175536771207,  3.914853436941710
 1.960539746357736,  3.112941649171908, 37.766319875206122,  4.055035459347689
 3.863884476830241,  8.032921224799132, 21.961063447118025,  3.854420527948027
14.839447970465361,  0.945123652849672, 84.686614005282223,  3.731681631289990
11.371863237886812,  0.709784764218725, 51.068071716499517,  4.300950609906601
13.854750079168374,  5.730963456465260, 36.878369807754503,  4.096172985180160
13.778427462562071,  0.563321093290743, 75.978138187865468,  4.002228120443030
10.941629118679950,  2.716359141518660, 30.325252916731738,  4.062752876982535
11.571726290769307,  3.939240572509108, 43.469610892127456,  4.536634237005555
 1.060042872684493,  7.519777799784277, 11.311975057225274,  3.877897474906172
 7.281574535992818,  3.503574891176984, 28.958884108535067,  3.883154698402751
 7.000581405808849,  3.098064699248291, 89.629405726376348,  4.464765427283165
 4.501129854624910,  9.446377677150471, 11.593476789498418,  3.914108274690145
 7.159239962102109, 10.836397434257142, 26.550944405189227,  3.747127102106287
10.983837968193033, 14.598914119447114,  5.301458784953955,  4.295821262998473
11.706453370387928,  6.918169830884099, 87.911659300248900,  4.209487978839799
14.990758095700505, 11.793640305297998, 43.123883718633763,  4.214922900680188
12.436387399832357,  0.706102489504328, 12.824005007819490,  3.754552789795204
14.220603319838728, 12.721075421184366,  3.693196469658144,  3.832361044950829
10.813873941265026,  5.340747201115972, 68.652897043049791,  4.128154927500249
11.263929119370188,  9.883328521471373, 47.238128033442997,  3.784744883531224
13.570571528745285,  0.396511574041621, 32.355703296832139,  3.883836729919603
12.450094484672144, 13.422880853303422, 69.526699554354920,  3.887941148333493
 0.915012840638949, 14.312539061003827,  0.521788975815518,  3.954790477864675
 1.775267140675596,  8.619036364457502, 76.208602513212440,  3.964421161357361
 9.185111684182614, 12.025268355955360, 23.432596317605149,  4.030890264417650
 6.555949203191151,  9.255513881127699, 67.809932480257402,  4.216769784740236
 2.359327490125164,  8.922975425713494, 44.727393179340872,  3.910227381270796
 9.225586655394329, 10.362682971806141, 88.517469414664731,  4.304467242308855
13.361540030885521,  4.983930585530899,  5.398043183341885,  4.267506177362356
10.352696815195539,  3.128423644251780, 87.026865042471286,  4.010138565652781
 4.705848843557930,  2.155648044340115, 75.119966842783839,  3.936821745872083
 0.415707267038850, 10.344138876428710, 17.544455316232668,  4.010464350320463
11.380874629607344,  8.466741877314496, 24.629923315180289,  4.220344935026073
 7.814144030967734, 14.375050921630692, 37.620933445456266,  3.956159906164834
 4.700767053604837,  0.623864223220281, 35.473790080281937,  3.987806327531758
 6.982427792905213,  2.025446163411253, 22.465799362050827,  3.934644458424720
14.922511358506419,  2.751623433104712, 45.849219383520392,  3.997760920596795
 4.165258040712035, 13.686711285070535, 39.041206991662953,  3.992584049929447
12.577532305535373,  3.244328247424081, 15.853453869935750,  4.102887022178396
 2.632643304232428,  9.179833360790767, 80.128175771204624,  4.095415168196991
 7.925938693177842,  3.647349943663403, 32.883943436127879,  4.039002823509740
10.948998174378314, 11.547288927512248, 27.499216955084389,  4.193637897906633
11.849176056327620,  5.366596242223158, 91.947715214130071,  3.899432803190818
 7.469014375135562,  8.351873888049976, 83.788521428293365,  3.925000358175651
 1.490063662137921,  5.430094644793439, 43.669780636871700,  3.583763337432004
 8.638939278314483, 13.370916826786097, 70.201480047129635,  3.823983735917285
 4.625973080912836, 13.152297436961026, 88.010514115070393,  4.342448300678581
 4.346512778338557,  5.992735540575213, 74.174246770235769,  3.913299804866808
 2.115656332799940, 12.161579182473703, 21.664203495265134,  4.105469220692506
 1.157356217151778,  3.979297133125900,  8.344636063078262,  4.121910006212896
 6.181316895891567,  1.398902465554465, 69.490504517506324,  4.133097167738394
 0.900181120762854,  8.676983789371915, 64.023637611899105,  4.133215084385707
 3.198264237127497, 10.315067443941441, 25.173940862020299,  4.073082836322726
10.185384002466595, 14.347018507741467, 59.486998803540608,  4.336846743616623
 8.003725690861669,  5.378290575870402, 93.257107130536909,  4.212894456013570
 6.269524967915125, 10.347775255318197, 53.167728380361716,  3.496055597730908
10.808669015309956, 10.688132417695032, 33.282073752274556,  4.201423183343048
 9.539517050948573,  0.227778114395319, 34.236837063987380,  3.812176889801029
13.410109529070754, 10.491585854843962, 86.441847805622658,  4.210082637352657
 5.874498251913537, 11.950649966753955, 84.200395603033300,  3.985721986160444
 5.637150951925332,  9.755257543647216, 73.851659891938212,  4.014286229956078
 9.687775786222240,  1.223898343238041, 76.259070992464302,  4.049458388676923
 2.208249672869974, 14.447407931257436, 45.433008025831349,  4.111420039706846
 3.284413459486198,  3.515590223612114, 71.327663241321957,  3.902122879080620
 5.640419380039014,  7.791979844838919, 46.605080205176307,  3.965683656241473
12.092266753787516,  4.848815453462925, 22.756321611406900,  4.024735224344031
 8.133858338014948,  6.779982365130358, 74.763936694204389,  3.898813445764780
14.929853447899983,  8.441255993541812, 50.345848222492180,  4.259617477965216
 3.310257041647696, 11.636943456633855, 65.138330342083208,  3.809093165384906
 6.154459666574463,  5.414177872692595, 62.071756488152658,  4.312935483954649
 0.077506124003943,  6.089234870422683, 89.944419637682785,  3.866871364984732
 0.857904415387184,  5.625855502748752, 81.135428650759579,  4.069980577479916
14.892851907417180,  9.023806621238379, 82.984557876486562,  3.845051495982220
 3.481392716655074, 11.435134980905577,  8.317896097837480,  4.010108989579826
 5.817831349443461, 13.769247375186442, 50.490148823187155,  4.224446737563808
 5.395965626781197,  9.811205215176050, 38.929197355341607,  4.136627161144757
 8.040003884882319,  3.110565527768494, 72.887489944187124,  4.278232679825406
14.034266967449541,  1.563018862578660, 20.793119121956572,  4.066004830301392
13.040432154138658,  4.274389919958709, 84.297234392164114,  3.791185479219660
14.625348308057760,  3.035326697267078, 49.866797073166275,  4.045694090111447
 8.703271841308467, 14.869693406779566, 11.953925447456800,  4.096251516720564
 8.202212582064027, 10.531170111140741, 11.615817147556719,  3.774608369900175
 8.486936489196019, 11.920214179915535, 18.417349655065696,  4.058444842095995
 3.479373237932868, 10.751150505762624, 31.922888657397365,  3.855929954536417
 7.310881111056393, 12.918825959176234,  8.611074771994485,  4.064688571084043
10.671833857359609, 10.180826802183759, 80.783484654467586,  4.131154698036196
 4.123451800995376,  3.437974225968735, 31.378599273032151,  4.044114636080607
10.503286414088777,  6.976220386490391, 61.175235468317531,  3.931101577386357
 8.887396488051012,  6.505681875084818, 48.506544179956940,  3.913434538476257
12.033790816451290,  7.424074600660042,  1.734438958830137,  4.173378671765414
 5.544091413942953, 13.814643162305059, 24.502498854869877,  4.142258788743314
 5.855386076544626,  3.902826323101802,  6.818915083286527,  4.031310387140081
 6.801510064573423,  8.853355684447644,  8.307677787463279,  4.151883910991701
 3.886902428285076, 11.370786312407340, 47.637106520045940,  4.165941054909474
 1.664597330069240,  9.163421218748367, 40.428562303563254,  4.009561738466227
14.935916355567429,  8.712177573871617, 56.980517397104926,  3.730079758276686
11.198749786252863, 14.059024058922223, 87.336754735497394,  4.362586924356211
14.227848798586390,  2.906051212783053, 87.879707576771409,  3.856517167740119
11.342445353779821,  9.572603457821360, 17.004654525970668,  3.838296398025071
 2.971700231573122,  4.727604505294006, 77.796420736136596,  4.033919493799709
14.467167377569778,  9.080082051386436, 22.009076349104497,  3.934481734534933
14.169657209135970,  8.854123557472722, 69.437483950950565,  3.861819830789935
 6.824523998717922,  6.193386394939888, 38.049729324785133,  3.832104874752434
11.730992914972129, 11.668459677246286, 62.425246166999671,  4.181302272839709
 9.215827568924377,  7.883114204953833, 28.060753402735756,  3.949476866650410
 5.425389612431946,  3.744360412160304, 85.309404994367185,  3.806100415179222
14.129426726201187,  3.959705013548356, 77.916425219505058,  3.845101443853967
10.329338333933009, 12.101130946274592, 14.338644382959382,  3.757863191566943
10.865438997669242,  6.174930481070771, 39.764199978673794,  4.207103171582347
12.764493182036276,  6.824227151158057,  9.167859695531122,  4.068305286507392
 1.838175820272400, 14.733745711745135, 18.430415416555849,  4.154132971705944
11.907128684221398,  4.966162829024924, 26.913210646493742,  4.187291701827209
 4.564922965509373, 13.911986305408893, 58.494892383259099,  4.292945295777846
 6.701165078054538, 12.426062039096374, 34.395499636679176,  3.875365447375036
 6.605965894818574,  4.250914048963875,  2.981560734406174,  3.812254551098559
 3.183776390038547,  3.973157044817916, 91.547627649298335,  4.248753844289633
11.197536535747311,  7.249685209207485, 13.328231408556489,  4.269768035706299
 3.376248388068487,  1.834935026466785, 48.972331720574310,  4.040861973584871
 8.467255372171898,  7.039958498383696, 79.798811499629792,  3.756381387915976
12.014351542076678,  3.446177437484188, 73.892432868760309,  3.925609785252761
 3.119973743172713, 11.376822076733111, 35.856382589033331,  4.126011211626701
 7.255740621182327, 11.805830506857584, 60.638480722850588,  3.749759927158861
 8.465038425251677,  5.470919762674262, 21.162463148701111,  3.996214974283776
14.760671168843562,  0.388992742144049,  6.932754046064707,  4.068475644716709
 4.367502039002620, 11.759427667443665, 77.235047829028829,  4.104837194298556
 6.383724795806079,  1.770370909268506, 82.258025893510080,  3.703432721301458
 3.207032670101324, 14.735067014417520, 72.377525220761328,  3.974994723832914
10.352921473621254,  2.959767429099926, 61.697354807133358,  3.914402387918914
 3.105769067216026,  7.958584902736523, 91.286839993081003,  3.736756451918359
 9.865170090218337,  0.344955677034293, 16.758640862634358,  4.031257509555648
 2.734825342543699, 14.741445155405819,  4.195226452538952,  4.154210920670044
13.348959629540030, 12.786962868369939, 82.745065199755757,  4.264547432091013
 0.216207601119423, 12.948306410149364, 39.249299596401563,  3.882083068877238
 9.019590760501702,  5.449332638667062,  8.652218395114589,  3.909478703088116
 2.945934976777859,  1.233272809340382, 22.216191710095593,  4.298255853534870
 4.049160352605453, 14.942019132663313, 91.762397721003637,  4.044213483626004
12.819086268289313, 11.984747206061792, 50.096714633214454,  3.951686024054372
13.002790530123367,  9.009050687462588,  5.288861122229958,  3.812007230639071
13.811076746732953,  0.839124102055904, 61.106997453816859,  4.155387273503394
10.976753477830211,  1.026615718998546, 83.664527549352357,  3.998129663980928
 7.902116799121326,  1.166377451513564, 93.823873213026815,  4.280230663060911
 3.262592561645612,  8.121113358633080, 84.323635635066111,  3.663459060945475
 7.443100791042830,  8.452540803143799, 23.555776828903213,  3.916497180037471
12.840896380373957,  1.762829789512778, 37.858401499766316,  4.214372643655917
 2.080682534235995, 11.959383223446288, 51.440508749951142,  4.285942697870579
 5.408880883034395, 13.128792976794097,  1.449018857318683,  4.153459958471263
 0.751040867889401, 12.465058146911836, 62.303035935307598,  3.987823131234660
 0.696314241093159,  1.587085207021203, 29.488148691820854,  3.661503163363410
 6.578046714596826,  8.372547643909426, 19.102043404769223,  4.037741891155487
 4.123216226880271, 11.328543074402733, 18.258271789488468,  3.791207008742714
 2.657462102392685,  7.317335301552173, 36.883371404704107,  4.177253324161216
 5.961675814448489,  2.720480938824505, 10.786827293613237,  4.134357204109820
10.465795694642583, 11.063263380608531,  3.005703041843376,  4.141113168535568
13.838994519896129,  2.099167231487007, 81.242519953740938,  3.797877962907237
 0.071503425417505,  7.779724852151904, 93.285489000618810,  3.535249836893397
 2.590377329138290, 10.016004572003904, 68.434950113559097,  3.650572349354810
 9.384153530094864,  6.016626362166784, 17.019802481471935,  4.275068439954948
 2.527913404470153,  8.769154201785147, 54.089189868868914,  4.038842068523333
 5.087426111266983, 10.349737327187311, 56.628957424018736,  3.804592815290645
13.560885089649268, 13.682902886546499, 16.065539139608088,  4.195068676613172
10.988412116899552, 11.359754275798812, 43.547743379213266,  3.871615247980411
 6.558817216281366,  0.052316050457261, 31.261237279503959,  4.292530863384931
 9.706358604056524,  3.376684959191586,  4.953943364361664,  3.736442870770382
 7.520714608324000,  6.940297701053014, 52.200567186815007,  4.008787227068511
14.499772039184251, 11.498440627631764,  7.905531041111710,  3.989675162989258
 5.678171240197546,  2.378657109385688, 39.135481533492523,  4.002136186519876
 4.484119884111729,  9.327689552598557, 62.260780324346321,  3.926021126131975
 5.338810143845417,  5.745836526141719, 16.374341232850423,  3.884529231097847
 6.535187117218225, 13.311622125043375, 66.771340543112473,  4.150054351446903
 2.352215970808262, 12.662234601822203, 15.056681273876269,  3.742783209702104
 9.569583219278053, 10.374937213830625, 73.686749960481947,  3.931443279028639
 0.559198960541758,  4.387456582402812,  0.729223007194162,  3.809267870815353
11.577931918262781,  6.886179339530252, 57.376336130384111,  3.955445931885653
 2.772101756900637,  2.038582088352220, 80.828763597336973,  4.081172152927785
10.910284285160239, 13.021924050163914, 39.648435589682492,  3.741439371379763
12.945593469950577,  3.839334983212674, 64.663662880524114,  4.150077943956888
 8.806782985099112, 12.282900829361207, 93.566623593082426,  3.629340620976895
14.850264475164202, 11.714868363059043, 33.381912861220449,  4.127992597300223
 6.388387787691651,  1.286116052983722, 42.859655959412983,  3.705305902022290
 2.839039870855617, 10.012819734884575,  0.768901218289933,  4.019470988472224
 6.648090299394555,  7.542268798986019, 90.260157654504582,  3.653209148821215
 5.691161971075437,  3.703780923687071, 53.437250382353263,  3.818786578802607
11.740369582400698, 14.590236361914299,  1.049956836615797,  4.311953031408146
 5.360355322921738,  7.390688757669163, 27.016161667746228,  4.078000285746347
 6.489633263057604, 10.285749460305228, 80.486474922148005,  3.955496656995076
 4.768761261104427,  7.441567973833966,  4.853267879075153,  4.260105582044650
12.951899263265021, 14.821008012554572, 64.847409304950318,  3.795559365295047
10.283259710704669, 10.214643576319027, 58.987404376812790,  3.822138328208365
10.805980958631025,  1.815387291935444, 90.877053390281233,  3.799657478679972
 5.909852878054196,  2.031469166874526, 64.581155819463078,  4.107222599281590
10.171521536488552,  9.092998432131644, 20.740657570933688,  3.989703951368485
11.866898130730847,  5.442873187348609, 80.769367181644355,  3.993207275094531
 9.041784098311071, 10.538010595133136, 37.074760046030406,  4.164615590968391
13.467168445947891,  6.903748218537443, 53.878645945232101,  3.969654971300344
 8.413093350604813,  4.848234616096350, 58.700514021261995,  3.799241263469765
 6.143146096890781, 13.878418740272283, 15.615369736767901,  4.228439562423870
 9.139872524205986,  7.445661955775812,  4.963822105622252,  4.468819867525866
 7.828014563255519,  3.740766900979553, 45.725470774871788,  4.206349602798875
 0.392111087811402, 14.441316709222402, 48.836675710125235,  3.554537247081949
 9.889853252067134,  0.085764300640809, 44.108119192198750,  3.948426580116271
 2.318731474464083, 10.558777114117220, 59.262262212082987,  3.837200288998584
 6.919538574180255,  8.289349333054732, 59.300476235266402,  3.796336314243620
 9.427698554861186,  4.575569655685676, 54.867509117410393,  4.031900912153305
 3.224457722988557,  3.240272242428182, 67.380599906221263,  4.004807396107856
11.050191487527160,  1.859861000879480, 70.516106910816887,  3.777618138067857
10.006565696013444,  8.864636527914776, 92.318412415690531,  4.010547147436744
13.423699839684167, 10.937984735114346,  0.326374160074367,  3.828932866197500
11.882592978932704, 10.513461361643577, 55.107748423989129,  4.285506262429621
 8.780968255122438,  3.090791180025784, 36.758027500296990,  3.932895370002973
 5.566409080135262, 11.075612167379477, 91.660680054092467,  4.239676721805608
 3.485095963025067,  6.010501002632431, 87.905253339847874,  4.070746591782888
 1.753844319379389,  4.162823177144197, 84.638207969344251,  3.703617595106881
 0.349904201597692,  0.862646355891405, 57.201225813697661,  4.247077786186887
10.213526312730796, 10.677633015831169,  7.287567108825606,  3.709491660505236
 9.701407780487436,  1.716360794845524, 66.621277930015893,  4.467918439370368
 1.559760281368361, 11.853820444055367, 91.371741836150974,  3.911671217365329
13.299465079942818,  2.856812398775718, 54.152690102551666,  4.132443018481974
 4.247776027328681,  6.115878935619820,  9.646864227672010,  3.799767622580622
 9.761631626008507, 13.592340518862519, 47.834314322973533,  4.085327645428816
 8.399757354493985,  8.477661584721144, 55.713598009250404,  3.850376515028427
 1.952554830442153, 11.752779865882072, 84.836808766635968,  3.935414466206520
 2.589664917625770,  6.493527195868361, 59.911712806686516,  4.288305114728064
13.248348229252326, 14.203146189833442, 45.836748372373975,  3.805706265411152
 8.861035123119148,  9.521474941424605, 40.920326008362856,  3.792823494935244
 0.043690085521226,  2.876330543491166, 24.964083796293185,  4.327659330166113
 6.229140349142770,  0.296321609100908, 78.512258216110965,  4.313874735121924
 8.750684298926624,  1.564222674447314,  8.154135674628067,  3.858557747387434
 0.245818915852349, 12.555644834212314, 29.234711392252358,  4.371462315305264
 4.321812320364844,  2.158441788499367, 16.728003596867367,  3.601769848368684
 1.438016986605069,  7.984206806992536,  7.348228989722657,  4.131874756041228
14.549930835876697,  5.105744976190890, 70.989933268233955,  4.271818921363725
 2.520821898412646, 14.584132258217805, 32.182810715756219,  3.977353789087211
 7.674619891664663, 10.286195779303030, 49.145785795211381,  4.114141854307488
14.242823411403231,  5.293976014436392, 30.453687803622596,  4.312113291373949
 1.116913923796600,  3.712017040010240, 18.167184171809200,  3.892204593037892
13.702368071072266,  7.896079125138195, 33.548553582111907,  3.844446737627142
13.749611971477268, 12.215861348417752, 58.526931317980385,  4.170529480530890
 7.466766466512502,  2.824363754545097, 14.619414651439866,  4.074197054752084
 3.099676420320441,  4.575238040823682, 13.197186639032930,  4.206003159341800
 3.506558215401962,  8.978024109872299, 15.314036764211831,  3.841548271246075
 5.479474652687188,  7.875673739731976, 77.469220895060232,  3.988336395698140
 6.923449551744581,  4.869197137339813, 67.469790023421652,  4.016739333128118
12.800307398570935,  5.967600366714697, 47.629315239679187,  4.140539768005033
 1.112349665462856,  1.559674120110031, 14.955157815245876,  3.826458343898322
12.268641042044345, 13.153952672657796, 36.108913464135817,  3.836211131499242
 5.894927401583272, 11.273909811270041, 21.542900011522296,  3.659180503048472
 2.712223939640666, 14.213113413764939, 68.180512352237770,  4.175149645465576
10.393715588655798, 13.833997987305439, 30.760867199387231,  3.827646636609649
14.384927311991541,  0.834935545328561, 72.118993318132951,  3.801443371565937
 1.915816159229713,  8.618707729048021, 28.879774621531588,  4.129210723569491
 4.509095628572606,  4.490530198732283, 20.263804222665915,  3.912222379071554
 7.459134586662391,  6.749760026532815, 70.921574768648782,  3.901552363008600
12.872981485172319,  9.232818328323786, 30.050518155917288,  3.693271951264967
11.223362470802346,  4.871345035604975, 51.268823403389504,  4.021747717843680
 4.038862458024330,  2.049531902993309,  1.195411299847932,  3.808000421951826
11.255504822172387,  2.218043338803749, 47.280586424914731,  3.849829452036203
 5.132389385903447, 11.826374935581930, 70.553792057682443,  3.782249119196084
 9.388112862955738,  5.511565278920954, 64.537804916901820,  3.714944194851496
14.624065852809505,  1.905984857148080, 91.674386476162439,  3.991767510557807
 9.849850617360342, 11.320463936426810, 84.568760335484583,  3.827854422082389
 6.148941241742750,  8.368729866530369, 34.680518331678044,  4.294242125642828
 5.569265334413094,  9.276816184113777, 87.057719381454447,  3.847648943675252
11.347041522944805,  7.768080528957655, 83.938317980829680,  3.911203818268373
13.515435522734366,  6.748776953671908, 75.332254508491943,  3.779860297151173
 2.342467141393450,  0.170420168948654, 77.409177767745334,  3.747590432928902
 6.345817039637541,  6.797697846135313, 30.864178786092790,  3.953267127837452
 2.524721562561114,  7.240696803595493, 18.520017667289871,  3.686712700262349
12.643616123644618,  0.364140133961185, 27.401697605144673,  4.151984134754068
 2.385706478009860, 10.759152399888691,  4.606265320551801,  3.845817647104249
 7.824272322466168,  2.230068427153412, 49.543770579909399,  3.993102688292268
 0.373747928636679,  6.027899806500329, 67.033807743559606,  3.938093630121096
14.371640583941558, 10.797498357373893, 25.767272836203716,  3.606178357044971
 3.888930970854042,  6.626298271859351, 69.172753875982707,  3.753881919511600
 1.793594628435573, 12.313666046275058, 55.779811630835511,  3.951240388678798
 0.409274543783804, 13.915346736582618, 88.049494851319835,  4.215965318375325
12.799963731410163, 13.468389885376208, 91.112672223806840,  3.907129617837748
 0.856670181284207,  3.330857352685109, 33.831182955376896,  4.122300358958016
 2.475662449184345,  4.690374845780329, 27.905068357107918,  4.018455399853509
11.740178824471124, 14.113854333035750,  9.355287676853987,  4.007377301277979
 6.955951424676333,  9.090888408270613,  1.416009180306475,  4.489489306699266
 8.915789654423900,  4.565156184851236, 83.463423722815648,  4.184992052555497
13.245389727405822,  0.327468061624303, 41.798768457113198,  4.093228615707468
 1.045528838212811, 12.391808695600760, 74.879289308166264,  4.124357781517406
13.942031147207775, 13.632359382776814, 53.466743942452631,  3.877960501910168
 3.080050226638438,  1.991523698019430, 87.915638419590408,  3.963531041306482
13.865934354911920,  8.384303741822119, 78.930199513037707,  4.001169093475588
13.886780280662020,  8.783060824886455, 60.605199452345410,  3.816967452046023
10.871892531222734,  8.798366928650861, 51.284486065705615,  3.862295290483039
 7.463227057650550,  0.354955756909267, 85.757044276832474,  4.146172761254250
12.105894647476315,  8.297783088146579, 65.888279355937527,  4.360964121793836
 5.233288118928441, 13.619497818546643, 54.479515941060484,  3.843123068465647
 0.839066721087442, 14.798637848021437, 35.853713796824266,  3.942776767144933
 8.393973039775506, 14.911828987047235, 27.396790409691238,  4.232809642082647
 4.282036581048144,  6.989772713449045, 65.365539982682336,  3.849288077308035
 7.459738240523262,  2.824253037880117, 18.512370470251799,  3.704345175812430
 2.038255608199202,  5.930717014999749, 47.567641421324687,  4.351915610201812
 3.609631672988082,  0.281237065438438, 84.406216081431438,  3.910838579881398
 4.203750091286846, 12.141941871700480, 28.467083379896330,  3.710174344778861
 5.007207422318761,  6.350669928126407, 56.377464446032043,  4.178432712659718
14.441893225351855,  9.804236396541189, 36.933353173545591,  3.977336942226844
14.594550315247721, 11.665569078669426, 66.598359633135757,  4.133409910949693
 5.461089320531045,  5.220716682357582, 49.485392752517242,  3.613865184708858
10.463503161587965, 12.151206827159735, 66.323538516366654,  4.057774258163513
 2.559790679440642,  3.873024041764270,  4.403804155406332,  4.131995200580470
 6.110203420831327,  0.043466111662052, 46.546366197224053,  4.088751424924022
13.844440147654204,  4.880872376806591, 60.743261422741369,  3.959887323421663
 4.770922199499181, 13.917108818450586, 62.510339343679824,  3.736612792140875
14.072619654444695,  4.174897827404693, 12.063096006446827,  4.064250405311741
11.142487666287678,  6.904077800133126, 72.320611858573088,  3.852384029088452
 7.364849790906728, 13.050068547854393, 41.244587795100308,  3.811067972796365
10.964576342695999,  3.300832502613446, 19.354081362029120,  3.546155338026656
 7.866721475446767,  6.209133930035390, 86.993508043859805,  3.810406154763210
 8.063642408441376,  4.815723908071542, 25.222520017240686,  4.180244142850844
 8.360038482058053,  9.392467141562133, 63.851095106307824,  4.416775587159722
12.952875412813224, 13.682557653368999, 23.558787137044639,  4.181320906685317
 1.073070134635877, 11.475916826351678, 11.582501772602750,  4.018594801102982
10.443075533659018,  6.604705471726541, 31.687584201412523,  4.086837600298472
 0.885593083291599,  7.408414732580954,  3.195504493572558,  4.015997428094087
13.454642837981805,  9.626992902817879, 90.449942571197781,  3.975315848249434
12.262786795546832, 11.911495443535820, 76.166205855478353,  3.938970295069679
 6.356496606321445, 11.331009375767158,  5.012656966733146,  4.028714120359576
 5.617833722527568,  8.319910535576632, 42.654646987756628,  3.900387687196093
 7.156927249329471, 11.338420216715820, 44.980265918512515,  4.253506390314223
 2.751868066622827,  2.240847105086575, 60.497132976062368,  4.287856466903471
 2.236549614370939,  1.175760598141521, 53.071909576686494,  4.522835525446859
 9.939949200127991, 14.986923764177622, 20.777699075519301,  3.987891412657826
 4.906615605403066,  4.488642853285074, 35.234395849630054,  3.759096115360258
10.394252775389097,  1.663559240632138, 24.343329586801278,  3.846086415358759
10.530843456526101,  4.943870075690277, 77.143979615142996,  3.772956797562827
 3.874043369945193,  3.049772811997362, 45.244003102722317,  3.841696287508291
12.584412993000745, 12.132815604412556, 19.761862511068870,  4.012383995321288
 1.572378100420363, 14.023897476940384, 25.498161288320574,  4.047283287795585
14.593739364276903,  4.506065755796846, 40.603444983764732,  3.863929191622546
 8.499689965169932, 11.978341934421300, 77.477686072524264,  4.016948358561494
 3.933027829724676,  6.222198628886657,  0.975684818391044,  3.881945681187410
 0.942979908353295,  5.388645019441103, 21.754653435247491,  4.005368674941053
 7.462347089619258,  4.887896476768124, 41.762004960290732,  4.073997494957925
11.013273172192973,  3.565426584388109,  1.396657603390971,  3.831882287600841
 7.768257769482545,  1.493413025747392, 56.827865710395791,  3.990784751663400
 4.071837129875681,  0.405292008618968,  7.982749823848531,  3.992171179554806
13.622684784933080, 10.289236325815446, 14.201026454175206,  3.522994403092112
 0.963249106871225,  5.015221648657637, 56.363570921285060,  4.043697874073505
 9.246108221569928,  7.594278397211720, 44.517144457510035,  4.352231214795647
