BANDS
8 8
NANOPARTICLES
cell(1), 15.012
cell(2), 15.012
cell(3), 93.824
14.563806230339425, 11.727658217942180, 24.403746905856163,  4.095490726056951
 6.861393430228198,  8.662195816699343, 81.241630006828458,  3.714036247947414
 3.520195099529869,  6.913905229719250, 91.420336872454811,  3.872010698435719
 5.943273773069231, 14.823666871860610, 32.640436041478729,  4.058453419076157
 0.266725239865276,  5.387699409647325, 61.322018905886949,  4.397459019362167
 7.396433051686752, 10.189531132055171, 30.412150930076425,  4.166805768282333
 7.840706249199336, 12.179965828439123, 50.472406029579588,  3.885354625112636
 8.091891662389688,  5.974046752146685,  8.342234659135542,  3.657828505190042
14.170540178090365,  3.393341115246164,  7.276721400884341,  4.027248983114971
12.416499886987832,  9.039547052012711, 89.484690303150174,  3.629460564858443
 5.275415161923443, 12.512703294512825, 60.183637221945730,  3.029415027288330
 7.499160202238648,  6.772257449297275, 60.603710701903346,  3.938812640286079
 8.385862409904172, 11.433960265446093, 78.901193997519073,  4.095406508861808
11.382859795098543, 13.889411816243607, 89.413923218492542,  3.614004826095173
 1.418496382284673,  0.393832020530147, 14.501196531429361,  4.043082767162558
 1.816165563982748,  1.654667319877379, 63.155826557617793,  4.424197668039568
 4.651350192586773,  2.430402079280350, 29.831213692865038,  4.041311101145679
 6.367173303095402,  3.409137167449628,  5.097355935671446,  3.562739550616195
 8.912168992203998,  4.948290078651278, 33.460223697029164,  3.971974808713690
13.064056735096566,  6.265681485415078,  9.814981973479419,  3.854754628443195
13.089084640964240,  5.972514392758185, 76.998543327262610,  4.156204727692273
 6.329659024206849, 11.438289370705784, 54.144458692274398,  4.190880938687254
 9.087399260773223,  2.342427743386977, 47.472061044854158,  3.671296814315410
 4.990594863605834,  5.202874184299179, 42.658950969618054,  4.072032006871787
 7.011139592795269, 12.973071321363330,  9.071021459384077,  3.859022822769569
 3.594090255905027,  1.282548805355133, 42.303102151289593,  4.235315623204409
 2.442983193553108,  8.634260829280672, 40.449386009314338,  3.690620657134311
 9.744955768161965, 11.175253670624082, 68.956834160656754,  3.700023205574178
 1.512317195741341,  2.624340971935686, 91.841404359777727,  4.279609446288813
11.583290736401660,  9.069377296267982, 19.870201849236405,  3.792271633536502
12.811877656983132, 14.429315579849643, 40.160074035279031,  3.961677936991606
 9.823382037169063, 13.254077687637286, 53.562979612962351,  3.753745793056422
 0.627763554457346,  2.146718017355291, 78.011551379919354,  3.941310811695690
10.995155748450314,  3.758720272845069, 40.156441141573794,  4.098261438985351
 0.948034203710049,  6.803513017182557, 43.486346657060125,  3.964528002945146
 7.223135204430749,  2.429333484633025, 40.765224833627734,  3.943416614419106
14.804904094899507, 13.678353095333801, 35.813048569399626,  3.936993206476950
 0.015038891506122,  3.079134605372920, 66.771753682572339,  3.775151749857949
 2.156301840075324, 12.348639353885687, 53.133454154698256,  3.891261930568930
11.262740440842702,  7.296949801914624, 43.319051622819273,  3.905280923418255
14.912320195510983, 11.197552431100929, 32.341139594888382,  4.097344269097975
 5.084219451438968, 14.684845114883618, 52.114504429573955,  3.860165455409262
10.584368227160912, 14.975929085003884, 23.947242982019322,  3.791155975960023
14.815003454024813, 10.920391733275578, 20.552572808647508,  3.776646975135784
14.928031346343033,  1.118614609818321,  1.675572540675897,  4.231709180621588
10.688387306281316, 11.097000260693321, 23.162605008942020,  4.117279706891903
 1.375128024369910, 12.424588320005633, 62.944192509664560,  4.076748298505271
 7.739096202187164,  0.596966323083322, 26.626634199352921,  4.098755708965823
14.703424733114861,  5.984821024745947, 90.184615645017118,  4.026512217417790
 7.240346604916961,  0.626046198325172, 36.301509809536995,  3.877801422512525
 2.838612277874334,  0.306512029041476, 46.112887787446219,  3.657542561846946
 0.018076585476450, 14.499870472611818, 43.540368234978843,  4.113371065792620
 7.637208758066013, 14.397275586068716, 68.236744078853647,  4.091811491853523
 8.246588213476771,  6.755937130763977, 40.749972558413262,  4.090190114159258
10.005993385290582,  9.199356260621816, 83.333666553113403,  3.893339401046193
 6.863803880016310, 14.027208149648938, 75.641588219018374,  3.771322075406645
13.031561717945831,  5.665193325502234, 20.500761312024281,  3.675060633142470
12.927759222310900,  9.295874470217385, 36.019199025278517,  3.809927177611927
11.311423651388509,  6.060217102113445,  6.259350518406907,  4.009085071294541
 9.070689756712255,  7.376109648792608,  0.777891079674590,  3.991772354442750
 3.423332041966996,  3.086733712219894,  2.702404161232454,  4.041593640479247
 8.089704083300571,  2.773714399146094, 75.807549491496388,  4.141604414328562
 3.747705795316314,  6.763420102899626, 59.507393380589583,  3.862284712082902
11.925418717917712,  5.354955547838009, 36.273524759968346,  4.311966121721652
 3.980609503176919,  4.409842841614283, 81.613762097222221,  4.021267179986097
 0.931151748871929, 10.120524193716438, 91.413997309320621,  4.348572746538316
10.107592557735165,  3.892636981640926, 61.346050866784815,  3.967111539693329
 2.862022729822326,  1.211214162738415, 55.209535073357927,  4.311940017301344
14.802660713316589, 11.136328470836562, 38.966142919060907,  4.085787966755985
 8.144133125151269,  9.651183080630522,  7.386628002529640,  3.714992515481299
 2.242649345597487,  9.494430856730403, 17.975991832150282,  3.838332488658700
12.522969439933526,  0.190630524418531, 79.713688774907411,  4.133245808160495
13.686325511876984,  4.474457746124756,  3.533262538036634,  3.815036521173160
 2.977289071210549,  0.585360812863826, 67.067854638485457,  3.960241432142679
 1.813942923656181,  4.379233776334795, 40.402492193580272,  3.843795681332689
 6.330090766894735,  1.268728907427954, 82.648962231187411,  4.086489725085175
 3.054198998971262,  9.260215486756950, 21.746713488520555,  3.875806291771683
 5.308547732865923,  3.763670804256930, 26.109530620420927,  3.951545714242565
 2.226742288512485,  9.815639923711418, 70.598995752226799,  4.111098060651247
 8.277593439356650, 11.697394293977739, 12.716290957467407,  4.185013040691306
10.597151771257531,  3.059742309125303, 57.505694276753829,  3.817952574476767
 6.833067740306033, 13.774831548313598, 22.940391520735975,  4.329239018030203
 9.144291830356515, 14.057886191437225, 41.646250431876439,  3.982024683053407
11.429926184968657, 10.843634668453475, 30.333089077387910,  3.969823465505531
14.255043769669777, 12.273153668129867,  4.883153539701383,  3.777934394390194
 2.882987240358839,  1.982704368441146, 49.654600539360032,  4.174226341797726
 4.961422061634027,  1.244070675129764, 89.375426798093713,  4.136593201510942
11.592956481467583, 14.455290449635672, 69.019152818738547,  3.827837798771179
14.737073890844712, 12.132423423485104,  0.961083861143210,  3.865279271181502
 6.160687004121269,  2.406591584236150, 45.186607836405422,  3.750048813738493
14.019551402296665,  2.176241020854582, 82.894617155447818,  3.939542356002249
 7.418268555856029,  0.033555024232801, 18.982284806332608,  3.960271291381513
 4.654254041189419,  7.686591423360654,  7.475087049337739,  4.198987851296058
11.690335289956288, 12.866484923625274, 26.972397913450656,  3.891152622646730
 3.000642089223529, 12.176165899102594, 41.959065128764692,  4.082094374073068
 6.168771651953669,  9.670509816622618, 57.992202171450280,  4.282673703092128
 5.166158617608571, 10.681255796157727, 92.280360624420638,  4.086708561077065
 4.774425042332780,  1.946892929742401, 78.204889367570843,  4.045861377012176
12.070219981795976,  4.666871588910015, 46.264978047730835,  4.007044806017491
 3.398005194809586,  7.904765624278424, 47.503360953660895,  4.040563182797784
11.993859672710242,  2.270051840245637, 76.151551873579677,  3.677270163291336
 1.698623952060099, 14.630346264635971, 39.110317912093642,  3.856728048348564
12.236787683871581,  9.873228062032595,  7.392930138300788,  4.138799883169361
 8.334104497505772, 10.555431417081088, 75.023786948816635,  3.841954929750679
11.493076826697196, 12.963552914920319,  2.571534649713407,  3.555295936627747
 1.953091663738770,  5.707822992728654, 20.097396996808474,  4.223020178668374
 9.076978038713827,  8.991509810460071, 37.457410188362289,  3.987226544908027
11.967325466183327, 13.756132679130133, 20.228246479202536,  4.204352732827932
 4.106237345884635, 11.097011421177379, 49.830391164361686,  3.982628206300187
11.985110853877170,  5.676715524664101, 83.185699995204274,  4.173753274344692
 1.877740042218721,  1.745264657792112, 35.566060621371058,  3.505682375252704
 7.740852653109628, 12.630181295059606, 71.816079236120572,  3.864992622157433
 1.972919858390494,  7.789194193627153, 74.024962947398151,  3.857712210472935
 3.648045235983081, 12.633458406116375, 56.852002332777403,  3.734677243138571
13.332658259741258,  6.131510204156808, 65.004774047971679,  4.005286204444957
 8.672850728229010, 12.702821344400700, 57.122393511487921,  3.768556089957723
 2.965117390555824,  2.844690604772815, 59.194227283023984,  4.149916206268323
 1.952359664773226, 14.589723510306172, 31.684418582341891,  3.911452885284548
10.941811058747687, 12.973702352733495,  9.790303699842775,  4.107383402328013
 6.839136879332507,  9.630136502402909, 22.735299882668645,  3.968838974316097
 8.464120753647835,  0.758990405655915, 11.613672568657789,  4.204423132466246
 2.574252083915285, 10.339434746448312,  5.185467093720304,  3.944154368228038
 2.391893833712761,  2.551162694782019, 84.727024639245116,  3.792836537531046
 2.759915812093084,  4.149052948141310, 45.854561967373556,  3.992335478098062
 5.102825864909524,  6.012882077651674, 22.791505849163677,  4.020365114385140
10.190808461012017,  2.007850273994958, 82.873054797666967,  3.712108751318188
 9.387851241310731,  0.267476683332256, 59.911092252453564,  3.915392317730294
 9.905368935447928,  8.733429686655834, 33.636738097545276,  3.838811746662878
 9.268192398157813,  6.726588766816297, 75.610373676897680,  4.106567980803585
 8.757105789131971,  2.991213499734398, 29.868716670822074,  4.202439569627869
 1.711181083615717,  8.471171417188819, 63.825747731451948,  4.047093138221861
 0.384726507715129,  7.540996731492976, 57.718663824519531,  3.893929479617552
14.964980391697850, 13.259573216113514, 76.841434110793017,  4.293041925376149
14.244439595932201, 14.253489051692693, 66.010795491454985,  4.199363005460627
 2.032797877799945,  5.235322339274276, 28.193408912568458,  4.300194903204067
 3.282155786471423, 14.090335105113759, 92.360767548506274,  3.691841123951295
11.584347995879815,  3.498690483993075, 50.127031949443690,  3.930749047709752
 9.863786776076871,  8.972228693219705, 65.800551951183493,  3.990001375404033
 0.709289410285820,  5.681275242249515, 71.085578827100520,  3.769453843796382
13.031350101745565,  2.958492877630600, 70.164888912073437,  4.098376095274382
13.216736375102482,  8.122205070903682, 23.239335241204177,  3.682446182767736
 6.738824226387759,  5.018660808796449, 89.767032716464897,  4.215929518562762
 1.825352311073484,  9.974161367375682, 35.680310684302874,  3.984809290602791
 4.446358231918476, 14.224020544498435, 11.935054811252089,  4.192026198958525
12.749059466548118,  2.445737766154701, 63.807738187380295,  3.784587176157035
 5.569446597272242, 14.730244070000667,  5.786022777127157,  4.106246868026705
 5.714050407889527, 13.969229287145996, 39.535705587193846,  4.008067090620854
 9.080628731105653,  5.256573920823699, 26.341016703835159,  4.157122277058302
13.221652617804782,  0.243919274657043, 16.732910301081976,  3.760134462944387
 2.914742113493701,  0.543042387958944, 74.853869024616102,  4.112716107429708
 9.905185125732560,  2.876136489367895, 67.255036929511007,  4.441434707557798
 6.091583267631147, 13.580379754673748, 44.268763909704283,  4.121117402050752
 0.029581255047014,  5.179030350916443, 80.505597535169201,  4.001732124419608
 6.005832480094571,  7.765008113036081, 26.183504236321262,  3.764990727925265
13.272373044203572,  2.000529326539267, 60.040101932469064,  3.839508766424421
 2.309417499812721,  2.042894361533490, 70.907291677704791,  4.187287749693131
 8.193221198868521,  0.062883223262811, 86.198479368885728,  4.020811459113752
 6.902388809090121,  8.425588761604860, 50.084151687824125,  3.767281556152944
 9.604973065525062,  6.622318874723311, 22.406714459818904,  4.193260940726944
 7.662921099505672,  7.417771989220650, 44.976622377594751,  3.990264951381697
 0.651626733835994, 12.275919872982616, 28.342895966755112,  4.139019961117264
 3.849360229621256, 13.503521375121315, 35.928364289752842,  4.133553603552626
 6.382297423192410,  2.396410014681539, 61.567308428004459,  4.065504078652229
 6.077085564009354, 14.889111913321054, 48.155728614446836,  4.041408678434095
 4.374125880161597,  6.326878444582653, 69.967771370627787,  3.974781149053283
 8.018032751806734,  5.573606125276656, 64.454370561820056,  4.187691989918474
 2.853438886430756, 11.466466750236391, 66.772557141497728,  4.311800817742339
13.164037956172651, 12.557405405101695, 46.523805107422092,  3.879072628673410
12.153260005268510, 12.826024007575487, 58.407530550427097,  3.654673137019068
 5.720193797874942,  9.294909067137993, 14.731352164128266,  3.768563876829740
 5.171199127914619, 10.146946295699378, 38.032007519781082,  4.189811750133683
 2.054942057659592,  5.574746858719290,  9.933367310579397,  4.102285236907728
11.476297213347978,  1.744992570440456, 27.189932628285685,  3.801036325418465
 4.898281946492101,  7.182979020699848, 85.104455542454829,  4.154060940107812
 3.289248165962674,  0.368327324414174, 25.382592092998813,  4.073652839040927
12.953336198056224, 14.634028761370100, 30.955236226141110,  4.215021519736555
 1.174178700792047,  7.289120905523124, 67.616309861484311,  3.910949843505076
12.062255869140095,  6.208708533956719, 58.978107589945346,  3.716088930288331
 0.228180255328038,  5.437613974115130, 49.090490320618692,  4.595107405110913
 4.829805016772004, 13.299461213638823, 28.800903637928609,  4.497571701505261
 6.040347373495122,  7.672570835807686, 34.735902068575385,  4.159008905178342
11.872240864130053, 11.496240459675720, 92.155784216130954,  3.683932312129644
 8.000489455109745,  4.588529009198179, 72.091664471866039,  4.129776890861096
13.636917446370648, 10.541596442472546, 68.698598206628361,  3.982911295596854
11.272295737007095,  0.800271926859788, 44.624709379851026,  4.132249071705806
 1.086891481151733,  0.810449504545524, 88.104513682684981,  4.060297406477396
 9.644239244218548,  4.625911120960371, 11.506222830211074,  3.855288374197105
 8.540073117505701, 11.422612725240505,  0.665392967750618,  4.107369616016775
12.308858583841435, 11.293824436588531, 79.168806884150214,  3.769590483486409
 1.111738043050711,  5.906834268921140,  0.684071872701441,  4.202553493058574
 0.447218212076583,  3.949370284794816, 74.500230961618911,  3.827838723886503
 7.594153996835887, 12.221110180884429, 88.835455312754576,  3.805166915497814
 5.932911229222367,  2.841826772003275, 69.215686792332960,  3.758536717209629
 5.214080566309358,  9.224406487745128, 77.269874493379106,  4.290759919234212
 3.999255027286121, 11.252061948206157, 32.496096532018932,  4.058377280164924
13.884458876494865,  8.771435342830790, 81.520299518609832,  3.810368139583222
 0.560328186691687,  9.191626297864007, 77.433866757080551,  4.006174275136987
 7.507381656564854,  0.369303221780209,  2.136983833965763,  4.253964123207472
 9.430981130183033,  9.698421854683422, 16.283779138758227,  4.312013252357211
 1.311514023082620,  4.105478912413046, 52.883569210055398,  3.728104251610409
 9.777771733813717,  1.062317681194069, 33.329993397623568,  3.978570877231268
 6.720217831649533, 10.630463280756203, 46.895820231018135,  3.690479168611809
 9.981934061543038,  0.932106741748005, 72.456814002785947,  4.201585991933155
 5.627435132293759,  8.822381634704117, 88.731006788988736,  3.933094715922742
 8.586865008802860, 12.262470684788086, 62.287211174199292,  3.887749363450659
13.954938968078602,  7.448735490428152, 17.176842727864514,  4.072924109655407
 5.439303844040137,  5.899640814537701,  0.801293818413935,  3.842789238448743
 0.043007984344989,  3.648483054831338, 16.404813964170327,  3.903772207977261
 2.121267336416829, 11.181377662475724, 14.182779147724727,  4.425031574263960
 1.531883233546686,  3.485102770103405, 32.242874271191987,  4.006156156963569
11.185445706102463,  8.769831331591375, 26.468803756322806,  4.010153858715920
10.890853518535600,  7.592598639434911, 62.295523872497377,  3.815360827855964
 6.840407015305341,  5.515994520583685, 78.788236290848317,  4.249641196856119
 9.857165485205714, 13.001911862341540, 37.822677865149394,  4.065011552926006
13.386603244797136,  7.099298393754160, 32.758203789573628,  4.050469706465831
14.368972162741139,  0.739500527853288, 24.291580696174680,  3.956955056002855
 1.290344263805731, 13.257695587783362, 17.867208911638386,  3.923627686520529
 4.284769641601508,  4.237003944201557, 73.760081989564156,  4.003079893148579
 0.170006173555566,  0.562580235887378, 52.200670794177377,  3.787365264107893
 6.513257684583597,  7.344135951768388, 54.181981828793418,  3.998360323768430
 2.748933773015391, 10.647089496053125, 84.296008779721220,  4.145239890295660
 9.549717672437149, 13.605630641083140, 47.278209755899006,  3.557005131837081
 2.432209760189616,  0.689993003748571, 81.270872539132782,  4.057465998186992
14.313085439092612,  4.139163070053626, 86.589550001202966,  4.075892372543885
 5.752064169836860,  2.813425624984968,  9.034657166555231,  4.324044760985189
 4.012861455438511, 11.417963988702695, 24.950381168998664,  4.014793627880933
 6.799407693258002, 11.394590749233593, 65.806716058827888,  3.793378570250820
 9.461796771058445,  6.617631755065799, 48.185043623448117,  3.536763584520613
 7.929852360908731, 11.358455885656880, 26.353403876408272,  4.301069049593860
 8.097213688527924,  6.527587134891919, 68.457772064015444,  4.044334394116058
10.810901622869132, 13.543005656961491, 76.087311877071201,  4.154955354113781
 0.116729857019331,  9.825391918767176, 50.074795460103701,  4.400189823673992
 1.684262859787629,  0.658210675998455,  5.377332856744849,  3.925776955062531
14.028371852385428, 14.575083837341262,  7.937381559421313,  3.748493045170519
 4.489725980972261, 14.106689446045008, 85.333224417882718,  3.734992001683927
 1.329347246959502,  5.782706745590886, 36.430801338073515,  4.560532601405176
 8.917532627237566,  9.250322166653037, 91.047262335339923,  4.040881809199631
 8.655145954132815,  0.985751804403390, 51.061247311600638,  4.004551032936787
 4.244372144136380,  8.912090090087858, 43.799717880288163,  3.813782342419574
 5.000762027014680,  7.883216353016782, 66.129615342959170,  4.064300229159929
 6.209028986677751,  2.156238260682351, 65.497579301215168,  3.816636917625964
10.723865847556828,  5.741871972019340, 90.248237671498586,  3.934051728605653
13.959359683183683,  3.373639048328871, 42.930903442995920,  4.034624531312863
10.685169845656574, 10.199802110659521, 48.534728786438514,  4.044554680063194
 8.813326289306483,  3.830894843696024, 93.014496689157781,  3.785524126505305
10.804318754645919,  1.610162097553701, 36.945062212988780,  3.614874575498513
 5.894516206480118,  6.219865613234227, 11.444927757760111,  3.960969015083047
11.049467079713219, 10.354863546721962, 40.717567243599618,  4.105382587490871
 9.921822294194193,  9.970358053257408, 59.475817240619300,  3.809596456695783
 6.058929735172455,  6.217349874645492, 30.730849232037645,  4.232408352020571
11.908361591476623,  7.280258797175714, 50.878268453361699,  3.806104501811773
 0.271422948807096, 13.855321424356996, 69.817288110972243,  3.699453024437143
 0.427529040878935,  1.375876638962927, 28.116396528762678,  4.060777133835008
 8.621896795939964, 11.470982715219634, 19.819246750102586,  3.759228861121978
13.303489773538670, 11.431354143465693, 53.562344618752888,  4.088374898655073
11.827228365904443,  1.793401060581946,  9.827078309726945,  3.547420357060300
 1.814008689922077, 13.853408819042812, 21.925546252649415,  3.844828605973812
13.212434054593340,  5.221450696172599, 26.448423697698015,  4.108622302713685
 6.009798701601236,  1.030080193582011, 72.510270692616089,  3.691634123877080
 4.819681030170704,  6.190410151667373, 38.777815109774345,  3.889632129442862
 5.271890635535030,  3.701537051534138, 52.689041871488222,  4.232943541807141
13.709845039071411,  7.092769506500230, 39.900671889430562,  4.461974700314018
 4.819344677446588, 10.128694154921108, 10.911761378237506,  4.207949429064255
 0.653631979753799,  9.637404713787729,  9.920230774797862,  4.385912610142135
14.261088016705765,  1.366829656943324, 47.551332614777344,  4.303014829882812
 9.434407768488809,  2.636805678999560,  7.093545875827348,  3.909803322719142
 6.599871968820569,  4.082503063960569, 57.898724405626581,  3.888498916395990
 6.376663575146460, 11.008638437807511,  4.123379941621960,  4.057411087279158
 0.636223427832465,  7.217759649612191, 13.440052238268079,  4.144525667720853
 7.890133971322326,  1.402898832511586, 55.059397128349310,  4.178968814128950
 4.650219077627483, 12.259662767038279, 19.726452877053347,  4.005066814688082
 7.390758897614758, 11.624442435894485, 34.808098879556830,  4.174264050601958
10.200581042765574,  9.631380986844142,  3.891636337230446,  3.969892630003353
12.839161174904319,  2.382684791197607, 89.947144906515788,  4.019717676974569
 9.900831498999644,  8.494962714452294, 10.642306910580841,  4.031601578014462
 0.363212117270412, 13.470280243747929, 11.274066992940877,  3.761711579878893
 3.339174777389194,  7.310470166326575, 51.577128061517449,  4.190683059845381
10.354067061752769,  7.854565670905474, 79.542387585819412,  4.163728203250076
12.729217023483921,  7.885461223701208, 93.110352718712107,  3.974635222857813
10.840789528862087,  0.245933174282064, 93.215147234906226,  4.348586590451355
 3.700696337832046,  3.147672724190931, 12.709456845314229,  3.934021000640985
 7.035460590706459, 14.166794333325091, 92.062642131725525,  3.813092089377041
13.623353217910543,  8.415684461509937, 46.352562283106927,  4.094469644988667
13.068898066404502,  8.671732795431994, 85.751880007569625,  3.975037399259301
 7.085084145096359, 10.605112473938167, 41.650159222614143,  4.046834332190648
 9.266748169432896,  7.996075064062095, 87.126664793708755,  4.180397069116411
 2.618965924994180, 10.428122098495072, 59.739130692155115,  3.767463856752797
 2.956449955609796,  4.112819083343219,  6.413941266437075,  3.715623039488888
13.761277313057127,  9.963588269329174, 60.690441188714743,  4.228952029063922
 6.788463454164731, 10.815129092261458, 85.242515389885426,  4.038117233341395
 5.157455079583064, 12.450484553384102, 81.403198617548696,  4.178050458831303
 2.881856591354731,  8.329938327993389, 80.756659231514718,  4.277127215589438
 0.746116676447115, 14.110336852669823, 84.549968691589939,  3.858467862915759
 5.118746547097755, 14.008412129619657, 63.403322778345526,  4.060754334033462
11.634312713873287,  6.983765465138601, 13.900444979774258,  3.937319803110022
 1.761167518786005,  8.392281358337206, 87.622006845286577,  4.119142713391741
 5.946461563129632,  3.371706409184521, 86.064168642842716,  3.968631246426333
10.297624566353930,  6.024063530309704, 17.896638670667954,  3.898422576274655
12.290407970830396, 14.915172566020452, 13.023017817581522,  3.884482199232214
 3.836529912858627,  5.791407933039284, 16.080066013432340,  4.626266140957685
11.686969078060690,  1.575270564556419, 53.526746951057703,  3.820248657339357
14.082718755118387,  0.381698868553649, 73.259423070697579,  4.212220703024413
 8.615816231410205,  5.476476295140833, 51.552634953638588,  3.656195962323770
 8.449622366458881,  0.504508220990875, 79.228135521067742,  4.094867013651291
 6.802562195355576,  2.209953474848097, 15.297402590836368,  4.350138967361192
12.914789744674442, 12.001343317377190, 83.169016899818985,  3.691400290525489
 0.994920280238594, 14.227681660790495, 59.279993398663457,  4.107278923305613
 2.640622515650013,  9.595378101812562,  1.336863204715506,  3.869708134793800
 8.022657413636066,  4.353378811613915, 37.342435238553705,  4.018089591594459
14.462152547090698, 11.984898942913851, 87.805719128410473,  4.287216786066284
 8.954543676729820, 13.934109423201544, 30.082811795286645,  3.952793096198145
 8.926124356747598,  1.645937694519698, 89.871044211911027,  3.816410012661749
 9.776877229820148,  9.423396558819601, 53.338103196112755,  3.916079400572503
 4.251450592266584,  1.961868980971504, 21.843529732485205,  3.917418269187654
 6.122497105394896,  9.918093019098976, 69.452983030439370,  4.004959885941944
13.457578732830324,  2.117330001467321, 34.286659556662414,  3.836175281404971
12.847689145083574, 10.836011540940133, 13.030662648174140,  4.324985585968836
13.052252700756307, 11.297974736919089, 17.167789010667171,  3.791972565857247
 2.785594508805521,  5.624223208327336, 77.400859524861005,  4.323489176168865
10.083483716005407,  3.815683975053016, 86.558330863016991,  4.406361734289642
14.134869297912378, 14.650658444381468, 55.775609960847909,  3.866457187422637
 9.303693281353008,  0.892482938587992, 63.711039488135434,  3.763798192465974
 9.142587202803481, 13.167493679831379, 82.636934220466529,  4.273250545538080
12.146789330150293,  6.744907375815584, 68.843656391380421,  4.091986142406704
 5.626419947277549, 13.135413533141371, 15.824913942164315,  4.218585670206721
 3.490751115036022,  4.370039589139126, 66.828079529479382,  3.629970578542892
 1.999612472896409, 11.482989395856402, 46.029368202218969,  4.166488933408096
 5.426004987670257,  9.716437211946428, 62.465498923591142,  4.162718634161010
 1.632002768829002,  4.159605738361314, 24.048087771119594,  4.217247566511052
14.748316319444616,  2.018787330068899, 20.314419997687025,  4.385261153648478
 2.910687383040557,  4.564702312728221, 88.304955783952508,  3.945801899745062
 2.890039300758384, 12.889086326838612,  8.305210320768621,  4.110466696327952
 8.974427240438393,  6.987503252281019, 57.102655203569050,  3.658645779525110
 5.985692643662726,  4.739986080535202, 48.558654396357220,  4.388361374747730
 4.041225691744489,  5.268818289147073, 63.147091210832897,  3.984633321915503
 3.409503717842803,  1.730622291325784, 17.864470558146767,  4.204752416051688
 5.861179731992824,  0.293100778647937, 58.291417416029383,  3.759733444120534
 7.826494290821115,  5.183501498155914, 82.890259724231214,  4.202980779044554
14.381691312040108,  3.348516992809986, 12.382705935041962,  4.254475312408683
14.267281394276628,  2.496082386747757, 38.149218115329766,  3.928741814920145
 0.334642957815314, 11.781314739391586, 73.264415853601264,  3.440396563944248
10.615992847054118,  2.548651819956310, 19.663013001978225,  3.902220080741775
12.382184176112375,  0.351373770386374, 86.073408079610743,  3.925455945758064
 5.318506527552024,  2.364957730094063, 93.168246853809634,  3.790111610486651
11.320790053192811,  5.450719756578201, 54.386708953539454,  4.149814231405387
10.166858235339951,  6.963682625838911, 30.022762186366876,  4.214242168296575
 4.107377462305521, 11.648771912332341, 73.936990150959332,  4.226175108793869
12.919049811612945,  3.789524012426208, 30.339650317574531,  4.196613295660377
 1.026442227790660,  6.696523209991539, 84.036166592596430,  3.930850477119243
 3.347197438473515,  6.817221824174326,  3.834861183069878,  3.723944249220867
 1.513161438435977,  8.230479030898598, 25.294259379373404,  4.100350992197172
 3.081243191976714,  9.133838435507220, 55.256282752358977,  4.029663581767447
 1.854462510716104,  1.578284128977650,  9.595440539613145,  3.916670745560859
 5.881467959154319,  7.929720536835903, 73.349767125525730,  4.070744528483850
10.449650332611888, 12.845842648623258, 65.654736650413483,  3.831948553166286
14.054377221158171,  8.771776884248478,  3.006180241239543,  4.113534131560085
 6.737333728006543,  4.220096340807758, 19.260755260803304,  4.536813658525478
14.615950825528934, 14.040801238817156, 91.343890636213331,  3.902293253131707
10.583282089344335, 11.802729158860442, 86.289349578666830,  4.037254669912371
10.696819309165004,  3.826032344777917, 79.464113177401345,  3.903979247946786
14.440067198321964, 10.510932305038816, 42.958516318140866,  4.027424372234162
11.839651313433560,  3.442209041103442, 23.215866024582471,  3.720024079188778
 3.575619813251493, 12.351815091458096, 88.815572065823261,  4.222653248870067
 9.459974153877040, 13.177813017215630,  5.872471830194781,  4.204545733743862
 7.905862172913473,  6.160124203452154, 14.816213235622532,  3.868347579115003
12.097818027016288, 13.803534301045225, 50.269926829406266,  4.296974508250230
14.742255664974033,  7.558504758061543, 53.645722937811492,  3.995802597310280
12.077045809595436,  9.656369527077638, 75.673648287101273,  3.865123422121134
 4.306495849560767,  2.425063914046587, 38.202235972043141,  3.724034316333297
 0.226425094051950, 11.241614177020015, 56.922632237884670,  3.637540845033560
 9.617579497043954, 14.015216636345299, 15.808500849365004,  3.954695753295414
 0.495493604657936,  7.153726215009788,  6.484965201012445,  4.089020894670095
14.359975012255912,  8.389899892158018, 28.993413224277116,  4.126675100508883
 0.913278131201728, 12.002265494439895, 80.695353257195947,  3.999086359225958
12.075358791824698,  9.040453630097943, 56.458769178887309,  3.780567765188549
 3.439028348204101,  9.184284080414043, 28.869409126368190,  4.187485765368221
11.683909017115981, 12.132770049859479, 72.253057892996850,  4.130278487399144
 4.209914775662861, 13.430449073026759, 70.206759661337898,  4.041454625026587
12.117543963617766,  5.367115284759111, 73.179099376995225,  3.812231312687379
12.180033623699337,  0.995278961947479,  4.749415306708024,  3.959281403249705
 3.403831640480828, 13.414032324855121,  2.447221866695100,  4.227664076959394
 6.114723546866707,  8.537960652749904, 18.725436727020675,  4.236521710581281
 3.884630607156696, 13.030544768025182, 77.701709528318943,  3.722136050920512
14.542174804845569,  3.671853123602094, 56.517922720894560,  4.346455872341296
 7.213182934868881,  7.016952563838953,  4.302749055342915,  4.004891480173431
10.985720889948832,  3.137735811360348, 15.118494137338327,  4.223281963402338
 1.281535161945788, 13.519825329002837, 49.282141542558463,  3.506572933572122
 9.651322920192348,  3.976167455498952,  3.091210998265160,  4.155242976875067
13.390689420956095, 10.464375684546837, 64.741327389220501,  3.925405636612391
 9.938129623654460, 10.902540413732035, 44.611309546349389,  4.057859082647834
12.644493115593695,  3.960666062859419, 93.642690929141125,  3.946216184987841
 3.371487984504086,  5.233399117193529, 55.946712464671336,  3.902805447870143
 9.207551036898787,  4.053936317050674, 43.674630889802998,  3.801598988212946
12.417280524950218, 13.758630687176815, 62.253785252582986,  4.211392865255892
 9.720590391140224,  8.402034095703595, 71.807465005132499,  4.252020666846303
 5.120592449002245,  3.549339150107759, 34.345222161850145,  4.294714441089698
 7.956375749250829,  2.833878063166961, 23.178610439505665,  4.119401630473217
11.390508336358955, 12.399763214653376, 34.089936555802140,  4.090722512298545
 2.465482571053365,  7.444875885234524, 32.549115450361015,  4.147871844330334
13.726092988030258,  8.716138869976009, 72.177802305099476,  3.813046767527709
