BANDS
8 8
NANOPARTICLES
cell(1), 15.012
cell(2), 15.012
cell(3), 93.826
 1.683810073512858, 10.586412529181230, 56.540222820259658,  4.150621446963689
 5.823593781956120, 10.843973481465136, 84.605014596034437,  3.991606087714445
 4.110744917063377,  2.990086996309883, 82.893350390990022,  4.236815540394840
13.817515796514096,  6.487002868496257, 52.443280232563325,  3.661335942331842
 3.824305687875623,  7.757436335204831, 24.043802964880996,  4.068554661165108
 8.557229649803173,  0.090733078974140,  5.318113768379854,  3.925125637558594
 5.217640046703463, 10.471941058563042, 51.835167176909309,  3.938709751810434
 9.368708159362249,  7.892417935293126, 20.507876825828252,  3.969832865170993
 6.160033808822369,  1.622721440871338,  9.574738955409121,  4.032303480512094
 1.753508458829113,  3.308949366833539, 15.939352818954763,  4.099431018316257
11.530749828304600,  2.051930502884546, 43.286685387037309,  3.855648088480891
 3.632623199359281,  7.693216138578805, 49.364734631530823,  4.104660045860643
 0.440448022389149,  6.255375071322189, 78.082458628241127,  3.815234161557496
14.713124925030518, 10.173921330351767, 41.388859704910580,  3.695458822728118
 3.611479438243006, 13.335797314365532, 12.408152412584288,  4.031468561090879
12.026096082338185,  0.823986117824997, 47.414359751653201,  4.147680276845853
11.067953165674856,  5.399714670614689, 58.860987581858147,  4.235998583165041
 1.193668678631083,  7.304614205953333,  0.462096394691530,  4.202422634323031
 9.058166496480000,  3.021389302891228, 92.642309925495525,  4.059510045473483
14.201222915629279, 12.358589295627750, 66.495339893604623,  4.132872230507747
 5.682580617065754,  4.022944456938987, 69.632052523625333,  3.863518148960115
 3.468524578184413,  8.658557778317308, 33.225340485496140,  3.891932642530412
 5.944928613805372, 14.411529088684448, 52.657493244241110,  4.218657445042902
 7.755940311813394,  1.365547076003288, 85.923163358201236,  3.894586138928749
11.829295982041685,  9.210579112356596, 67.883741407906371,  4.211388501625387
14.479429907759927, 13.807119781181060, 40.505403280702119,  3.765666144257091
12.054814204920698, 11.381986433685626, 34.030250588511642,  4.187482521598949
12.785942393701072, 13.307052396216452, 44.095791517447338,  4.230141671140226
 5.233585357196411,  3.903280462931714, 18.042709680709468,  4.092734442180325
 1.272705463909471,  7.829730779717007, 70.620328678489713,  3.731749833696799
 1.946476929569736,  9.911421118610651, 13.832262152735531,  4.097539599044532
13.109635280717351,  8.944871960424384, 83.573970963715240,  3.656570471107025
12.240546900157209,  9.752121828804801,  7.672252613028114,  3.885824709222258
 0.451062016896850,  5.735701344416033, 55.761603903799511,  3.889404411353106
 8.032078934074210,  0.497330211075932, 49.423040131957457,  3.763996478396832
14.224919855185771,  0.029944636802326, 36.821744543416621,  4.010176220081560
11.319906747664689,  5.316215125868719, 22.780718076457791,  3.921669666040560
 0.346139917986267, 10.091678899319623, 17.562327705161273,  4.023548418248128
 1.852641858520013,  9.889816579107134, 21.252084228640129,  3.908638680698083
 2.834192889516338,  6.316458630821641, 39.788578192011208,  3.768334513669568
14.479498009533211, 14.359245667429118,  3.179645052812867,  4.051187907902756
12.601569900699355,  3.353939052837405, 33.207429867219972,  4.160660626309294
 2.236523554384724, 10.431720503509414, 90.805939210325533,  4.080778004810208
14.531804908336371,  7.403618327675596, 34.986720549636040,  3.700530959161110
 1.591603257558620, 14.253294797690502, 92.509804356771980,  4.097853033136218
 6.520309851139658,  7.918899384191540, 58.751179536261446,  3.772121100360344
 9.671030856469432,  4.192074117864880, 69.219149644968638,  4.115861914093711
 2.123344939993504,  8.345142509259921, 53.119947296005591,  3.993627478100882
13.714963995389935, 13.702189743425695,  7.367954175878721,  4.509684596420128
13.276852147820410,  8.471580824183158, 20.549474513021512,  3.931278407044697
 0.770884238335727, 11.247242035530769,  1.152171243259837,  3.819021816618406
 9.017098825085622,  4.201236551315060,  7.161110208074421,  3.925557447719639
 2.269434760441713,  1.054313787253635, 22.971547836524991,  3.889858963708166
11.303934816022347, 12.030437752021411,  4.241753736646228,  4.055077220791292
 4.378712040049484,  7.511950914484854, 68.355712179410105,  3.957897488779314
 2.035706833026646,  4.699587685867531, 51.553365864365226,  3.917729814258481
 8.478946043117146, 13.444723038856147, 29.741398320249029,  3.717753968221895
 9.229348467303986,  2.142469450046059, 23.370366898203898,  3.696324429873559
 4.841762867762746,  7.191227781182295, 72.352924290220670,  4.108134895408289
 5.549196080369522,  3.421206041851428, 78.964927606677975,  4.165108745044431
 2.003565153262263, 13.584598049110227, 83.536001640035664,  4.003811319940264
 1.511028954673264, 14.631429635489788, 26.532178395571837,  3.911809688763817
 1.952796560366505,  4.084169963832465, 72.076204856685152,  4.394948582246839
14.794412626185704,  7.022366966833663, 48.592041070211607,  3.780388704535749
 4.517835385212103, 13.934180500595110, 32.030773718121189,  4.240487457714506
 7.357069410479028,  2.162622191924707, 66.614369669345209,  3.945117121041777
10.944755794759848,  0.396181998629173, 13.068447100893097,  3.939538260791656
13.650699599916489, 13.593546090809083, 19.274389415392324,  4.315987690283995
10.716455378246955,  2.863490036773888, 55.610193437818197,  4.036236115375920
11.557508161220744,  4.119314547738649, 37.103971040109521,  4.022544777805653
12.888116746338323, 12.210193124733518, 60.586309062246663,  3.976387100010751
14.097758141493848,  3.705186609524154, 12.856134897521786,  3.962005290016975
 9.016492373814422, 11.134973811124832, 77.017386647408628,  4.127697344308848
 0.199372701745642,  7.466751665389054,  9.384621511005426,  4.331292993821514
 3.163145024544213,  0.759520721225731,  2.310399963552435,  4.035661978840110
14.904205174549077, 11.123823506506593, 72.536653591267751,  4.370016323105023
 9.328565012937769,  2.029933879154401, 60.553686556785202,  4.041664059215009
 6.881744006422903, 13.722230180664193, 64.317940199791508,  4.367823249260482
 6.388415765411376,  0.122892724480868, 92.976587369933057,  3.847382380284034
 6.800069608745776,  9.949919597367757, 66.469943719328370,  3.828132142701534
13.029684014353721,  5.248853714960515, 66.866299103635200,  4.294184868045692
 2.106705591709245,  9.649663102540073, 77.187458183185356,  3.949051430167138
 5.907482379228846,  5.940260499541576, 27.074943993456650,  3.908834910331457
12.556745191103841,  5.943880471389495,  6.490282330524521,  4.069240175836836
 1.478887148820243,  6.247082183351899, 19.071049991370561,  4.341607937256658
12.002850374671365,  2.658293779321648, 72.280706918234699,  4.152870709373270
 6.873436964136591,  2.317717113905522, 28.584561173817224,  4.153887973567132
 0.294982537250231,  2.030268481795570, 83.466316961258869,  3.693232003953525
 1.211001650459763,  5.131454128386888, 64.152403358867062,  4.039987515780586
12.233073658495934,  1.969625442783568,  1.072976361411285,  3.992426306492991
 8.094459314291043, 12.521160367403951, 33.546821101667248,  4.012720810330288
 9.646926812793151,  0.132868474128954, 19.294075008313246,  3.908660621716085
 0.299091908321803,  0.284494733882372, 72.774933727398221,  3.992035393531575
13.231656911347013, 12.681042806040919, 83.868159217805896,  3.803297144354541
14.100396774494717,  2.901749248892836, 53.490776419523584,  3.826501956134102
10.846730350938413,  1.448067633804607, 51.877182687207771,  3.939339109954946
11.351943253248521, 14.807784355517025, 58.009069912257296,  3.821691991868136
 0.461363103969987,  7.404925289469527, 74.359757153121137,  3.967609555513044
 9.188529322518546,  8.666946124953423, 40.380983063224114,  3.942794752650952
14.914634481762821,  8.020072561677752, 24.031948987626400,  3.791385195868034
 6.736512768607478,  9.811476656125226, 62.366127665483376,  4.362221125637966
14.896121688681404, 12.792322915362853, 23.301784551876725,  4.200269042993118
12.666177221777369,  6.441552353548259, 70.838683160287118,  4.029245540810046
 3.088860141281465,  8.951869821503953, 42.516201039077082,  3.826859875335813
14.973947168006008, 10.034146181010554,  4.806990683436235,  4.045566047920886
 9.227383289006806,  9.553085303425371, 53.977286330659474,  3.934457149689235
 9.198815124671320,  7.024839857643478, 93.232766568363331,  4.020660001271279
 2.045633717417377,  9.005672179156642, 37.209675155051549,  3.691814416821785
 4.863484332537452,  0.921177706528454,  6.003653358761691,  3.659194157857553
 5.778383769004292,  4.047704941157316, 14.086484407399480,  3.892437023964073
 2.312167592066527,  6.906130311040963, 45.681962716626899,  3.866194218459006
13.196329884610773,  1.332601571117419, 16.191810747602169,  3.983549609599536
 6.026473761393770,  4.936437526367473, 47.138279796258871,  3.891857299208542
10.543995707962337, 11.253707534540435, 71.167683263487731,  3.932144369337125
11.173588400760043, 14.687554632965432, 86.963160260465074,  3.914020533763199
12.216376270330221,  6.326632671269605, 86.097019893250291,  3.830324281993014
 4.290851296291799,  7.369483195722384, 16.057592508380377,  4.110262107917654
 1.104287825046895,  3.190884846895675, 93.572006520107664,  4.097244120522810
 4.536688760209394, 11.755684715763579,  0.072920518088749,  4.062957151873476
 2.855857333000940,  1.680234178303472, 54.246001304865942,  4.087083501809384
 4.613081646194917,  5.841330612717237, 30.765821933962915,  3.900312067922469
 5.355144171574625,  4.537118168307381,  6.183757436010278,  3.634264210468331
10.032898645687339,  0.460967807239798, 26.738733082964277,  3.989886850970266
 7.129552449704211,  8.766841853584827, 35.091674494780236,  4.323786863329558
 5.331092004185854, 12.533050994050338,  8.008165684788391,  3.820134968712072
 5.075280545632288,  3.367422154415315, 39.008609864477030,  3.736939740904226
 6.840894258697273, 11.884031012460040, 71.130177258479904,  3.567786209070191
 3.898043256860377,  9.603643982730468,  3.561131019328148,  4.143803113239442
14.756134463223662,  9.651250912822530, 63.010470221150761,  3.937121072870287
 5.655394258516339, 14.036836928836125, 68.254559065402418,  3.900758822441313
 8.784887705190357, 11.965426995379751, 50.842611922512475,  4.017675783306188
 7.080165296562000, 12.466958067197638, 46.722913855125746,  4.507642832881365
12.375011103914600,  8.872483965024019,  1.648235303677428,  4.380636135992702
13.921363321212782,  1.575368472337942, 28.542991619027241,  3.618795314046345
 5.179535919173266, 12.534833361752847, 77.614382677994698,  3.980584071299178
14.791607924497509,  9.241015244393751, 31.353332030918732,  4.447479717725524
 3.263103094760364,  0.679464387154758, 36.722172949723578,  4.194178816044092
13.340075892113839,  1.473222427637291, 90.932538040616336,  4.297588825386480
 6.986021086709512,  0.302786498912866, 13.291242102991859,  3.989144485058845
 6.149435296665541,  2.403808454242265, 62.777793709388710,  3.739093691375881
10.005452686950109,  9.254396498027054, 59.828323863538465,  3.968153316166676
11.177749132746801, 11.611999326307679, 80.565432697505216,  3.719153016612839
12.670781239186310,  7.399019936597778, 43.254743426593059,  4.136011679287047
 6.609210899083828,  4.127801217236091, 58.651706614006471,  3.787683586099293
11.148571748779009, 10.580266523822740, 86.612097981862959,  4.261194813837408
 6.471942980080259, 11.319221907232349, 14.076118398208326,  3.713008103657113
 2.781522777812527, 13.540735040791596, 19.927989653088396,  4.045059536750749
 2.688058833298494,  2.225190723608798, 29.695322798586911,  4.355909842943366
 7.617885616579017,  2.450678651497224, 41.766147130694314,  3.985462883389365
 1.995142178201497,  6.533782926670059,  5.641304555525317,  4.160635702121072
 5.404831378201493, 14.783811682835118, 43.622722745479223,  3.866272450024245
13.006690029152905,  4.476181957830343, 46.002852068302595,  3.897629560232016
 8.956337553277946, 13.023773657153946, 60.735641489926472,  4.023379317789963
 9.717405579958376,  4.393719662351855, 48.302686269501102,  3.919305418077592
11.239848986943283, 14.017423236829202, 73.925780270929451,  3.999121432329166
 8.188551454789030,  5.779672305162754, 62.010731998568865,  4.232391984401447
 9.698301522495465,  4.528151094834558, 26.463153650976210,  4.168655531398335
13.699440683523305, 14.171927322748251, 54.853792912122167,  4.085042250964123
 0.168108033721193,  4.384017115373539, 22.578961721054775,  4.010276719941238
 2.135741110312641, 12.832542003005869, 53.128248167385756,  4.067409560623515
 2.685941355122105,  0.989709561976077, 40.990019241815830,  4.080588266447971
 7.991236867405460, 10.099034686013622, 17.099125282413674,  3.302703287762951
 7.158893223304551,  9.748041286473569, 23.168209811840683,  3.763164378964405
 3.802269745159593,  1.069110870090717, 65.674541523786317,  3.632626977827025
12.610674784653508,  0.411042497730227, 77.488966818086595,  4.127188029078622
10.671908915085519,  7.619525744488051, 89.487104532768512,  4.046114572584952
 2.912581799576992, 11.189104052535395, 80.586906149508295,  3.685233859220856
 1.011637262631584,  4.910779235581920, 86.003311537482389,  4.104588581577246
 0.748883758064897,  6.084303222187358, 82.082556920081075,  4.075160803612695
11.179746771386268,  1.092242393507509, 67.474311839296561,  3.603731100576860
10.308979946910487,  4.999553601786630,  2.920001284963889,  4.046910377372948
 7.136523469689720,  2.949037362867916, 54.062506039725129,  3.758617082593653
 5.219791535901130,  6.957884720180478, 83.596115943056404,  4.086783906941335
 3.293566159584332, 11.126089969759773, 69.830421653564144,  4.136693492526263
 3.747976198112858, 13.193294197265770, 49.522455285945504,  3.780925018420465
 8.062368657417876,  6.490213759569162, 17.117256810465911,  3.736852136480512
 9.892718284894062, 10.399104230555769, 13.932249225059849,  3.366349032304957
 4.609100348175589,  1.221313163908254, 47.211806061802640,  4.032875590539156
10.520968097269620,  4.971338526516496, 40.848342379629806,  3.917975857941393
14.592561200784184,  1.449038658777870, 65.434602114521567,  4.373942711436090
 3.607349329539392,  4.655305497241885,  2.517281316138392,  3.797575393460429
13.987296779900294,  5.316354842962611, 89.492388751699963,  3.998215741543356
11.629407508372191,  5.746267758164348, 82.274528702791031,  3.843773833592055
 2.903115892619423, 10.681389489988554, 60.568602415538095,  4.239191402416907
12.993634312459605, 13.994893984262779, 69.934012337124130,  3.785482470653847
 0.074241175736737,  0.453553265658316, 87.000307448981872,  4.042262152874765
14.427010508784486,  3.030859804739637, 79.907374783067951,  3.872560540959166
 8.656626927445643, 14.929005065743127, 78.702426562497436,  4.125875003157613
 8.088205305254400, 10.298383948009093,  1.793489921676466,  4.343886942348406
 5.025790032745175,  4.305000937557788, 86.776184753040823,  4.159970570614976
 3.420189216562791, 10.670471074082897, 29.784108773522536,  3.977834734942911
 0.462899504358555,  4.762022517165958, 60.208731061683892,  3.998666974944414
 5.212289290312261,  8.978601762942784, 55.377386189432784,  3.747431599527947
 2.657672766056472,  4.109213195856041,  8.880490860910941,  4.038358502022427
 7.936727579706224,  5.776287796386273, 37.913685029957790,  4.056671365147843
13.781532607176807,  2.736962920303327,  8.928866393451736,  4.118299514194123
 5.276962396151585,  7.986138501280450, 20.084160553652904,  4.249266973853113
11.082318223228006, 10.681098649355006, 30.094555900049283,  3.894275352379739
 5.072327666048661, 14.351912109801818, 60.423474317581132,  4.193500940605166
 3.254522982930009, 10.644653746525425, 46.704861973263419,  3.877241197481764
 7.307457637960483,  1.646630991167502, 36.218644142571733,  4.083073835180025
 7.236016252603970,  9.484287214855152, 30.844620927683547,  4.288715422780864
 6.745871621346761,  6.724716517496922,  3.420461451712144,  3.919250014726644
 1.963969018095163,  6.976303293426780, 27.888362056420434,  4.233277943777698
 7.685365494983398,  0.751858633380709, 57.152627309998607,  3.882470813724768
13.393356252118643,  1.375375430915402, 24.781078769123685,  3.987280063241524
12.040451272196522,  7.444384714623055, 55.562921960131099,  3.761601648532126
 9.354401751312126,  5.674204380310719, 72.976910351478679,  3.972618481412979
 3.095955137458389,  2.519814540775484, 58.190663118681776,  3.947420212958916
 3.988272309911403,  4.525931698335272, 21.773607905540665,  3.786401660918633
13.230732446145080,  8.656224867635986, 27.478883940170508,  3.977480735085776
 9.376380742115371, 12.712839560984037, 67.637730543702062,  4.055212364653928
 1.679925496262636, 14.793734832430054, 68.744239797289325,  4.141437545166184
 6.210827520844270,  6.680672974523050, 52.375066389555002,  3.959311371748340
 2.734024433814970,  9.891008695991475,  7.493089135249609,  3.612401989550137
 5.772964665168764, 13.136119541226027,  3.540433653340248,  3.757846198167880
14.752015637929563, 14.867103622424663, 12.076863418904267,  3.996261837850854
 1.258547898755888,  4.926420236155924, 32.560436231996334,  3.891482156517496
 9.906994241686871,  8.393215208370229,  4.909524357804550,  3.807730349705901
 1.944222354893582, 12.701757806320092, 43.446831460174423,  4.212914654476655
 6.252647741955583,  5.883953780784934,  9.862384526368853,  4.209064515688777
 6.352824246937943,  9.965794057247876, 90.351286650263546,  4.237008688929173
 4.583477349077641,  2.870210414260972, 33.433958671403694,  4.064820684730353
13.846044701524967, 11.073369386427910, 37.778733061585001,  3.943427295454630
13.406558568073917,  1.285418623201633, 61.235819886957636,  4.345115032066237
10.762546517530236,  0.128885677914518, 34.883882350436899,  3.920357082495608
 7.777625244213395,  8.365014090044291, 49.027627247646052,  4.108199731747898
 4.810347977185918,  9.725794801832940, 10.832751433201709,  4.201665095750134
 5.608620435594986, 13.977711449314825, 81.523553063606698,  4.287088241575733
13.551722706400945,  5.134057010690977, 25.987926280266713,  3.688110723020099
 8.878336580248362,  3.472896953087286, 11.793314999410450,  3.896399266405759
 2.558034226970987,  0.738917182319157, 79.409557855922529,  3.909483162683943
 8.884772769496491, 11.792901627771167, 37.497630773704664,  4.097907288497113
 7.809006377942615,  9.389420591040746, 73.697471916231621,  3.744513204369460
14.018236743115269,  8.507562200549932, 59.084391744973985,  4.325328147041618
11.980641557406186, 14.350667158823438, 31.206111462333769,  3.959238142793133
11.176081897083831, 14.022139942700191, 64.117611402913397,  4.244173351855385
 9.102584053619648, 11.962674116778002,  7.509936763849357,  3.796210984856937
 7.046454814907885,  5.891745303088171, 89.968912391146773,  4.012650689412562
 7.694950093792698, 12.777292341164571, 87.609744709204847,  4.054532391799242
 7.672917612911775, 12.513871466662179, 10.851057647536898,  3.534184411730056
 9.830222826686072, 10.317125042590042, 44.094092702124875,  4.173989511979269
 2.140170907015679,  3.765625880430572, 67.849780017402537,  4.050348126355846
13.459617102953850,  5.455588997061428, 29.826044793282623,  3.967407051217604
 4.419800825622328, 13.630429384445641, 56.412673769926457,  4.026245761779588
 4.131130395528384,  3.567640027802141, 43.856290205348024,  4.149649026793729
 9.644891873908040, 14.593692860639536, 90.629921480139046,  3.995258660451485
14.016003809772696,  2.763911940909426, 40.152997596132508,  4.256856363474722
 6.535194223392241, 11.956029567285052, 19.989691388298443,  4.066888881268171
 4.167842510019166, 11.001985904840350, 73.921641490990993,  4.232542926675099
 5.806689363635999,  8.854801523766330, 76.800225566902441,  3.656443637107901
 5.644511914307661, 14.815072682358254, 17.062773403720296,  4.001692920844692
 7.375372029304069,  5.816480707232332, 23.319922059500495,  4.056658924681920
 4.352908976271803,  5.189234463245845, 55.542519707267324,  3.966012536750662
 1.500563760957004,  3.670973169900447, 47.721689184171680,  3.931172141097774
 9.191818825841942, 13.097402510214824, 83.722332350887996,  4.297335029677384
 0.773706080553823,  8.451726076213424, 66.745202500997848,  4.156361377200858
 2.860309655093485,  6.376391361663027, 90.369326473668465,  4.164381860220289
12.799600990090752,  5.458764814557921, 93.222001344826836,  3.831320098589288
 5.258241797690077,  7.764018985813207, 93.697016060617159,  4.051023657837074
 8.144149477781639,  2.276140682363608, 82.041285575905235,  4.114792050360103
12.583769741439598,  6.250382999664086, 62.678297177902699,  4.118880740103425
13.140192625500260, 11.352450244110992, 77.024718449364769,  4.129238993960366
 0.730811140560185, 13.554223089472446, 30.250814996149337,  3.962555117730144
10.600599175427101,  3.594033871981882, 79.076103891087868,  3.997826500143026
11.049930443991260,  9.277355279185377, 23.999164249036593,  4.204096809531564
 9.042463476158147,  6.677235866791461, 65.993518815114172,  4.097907850757779
 8.632375317086035,  5.143822151553310, 84.926402613480320,  4.063494451253280
 1.850497090740441,  3.434744105266881, 25.935809456805110,  3.718050186615248
 4.315854737281351, 14.806224879501794, 72.024129502984266,  4.235632287672131
11.485717096102736, 12.217349383787548, 10.710621964104027,  4.056399641024543
 8.985133693237534, 11.853794849013493, 26.202311667619327,  3.619949591639247
 7.387314176627640,  7.586782914221009, 13.487450738711280,  3.948421199167009
 5.994394429175839,  3.365870725075935, 73.641509217109672,  4.282991910779461
12.084426856139947,  2.067454692047784,  5.198698909622317,  4.148786103477648
 5.824761495508277,  9.873002756974781, 26.762970893650468,  3.899179621333654
 9.021321458260219,  5.459770501666902, 44.508636768060917,  4.042560378406889
11.783872044003422,  0.519968632471465, 81.480650136437617,  4.021095767469086
11.140814364854410,  7.767876781542578, 46.893706623712561,  3.792063092914930
11.752526537781817, 11.123536415101034, 56.780322242029662,  3.981071823559529
11.191568880226226, 11.851054229738041, 47.630362594095139,  3.989463117151360
11.568249017122730,  8.850777374642824, 16.913892910556282,  4.049387272762798
11.832685391714291,  2.773281654344663, 84.715043540902869,  3.828269710970663
11.631440408634793,  5.758945891083521, 10.315169605467553,  3.800067124825628
14.930216196102357,  8.737471073107768, 87.585844200431566,  3.961233503579701
 8.350321355793877,  6.162869015661483, 55.831494432504869,  3.954018067061698
 5.118278466159109, 12.144344924594836, 36.234496570507552,  3.860373452073061
 1.385021383817600, 10.690851201216983, 26.442521683743461,  3.812105171528981
10.080401266042571, 10.801523769589810, 91.948729646202878,  4.043976605006866
 6.342444036862826, 11.201801542253195, 41.989583485053103,  4.149164159321773
14.372786642131514,  4.715902866026571,  3.090545388378503,  4.019403035998978
13.230843193564194,  3.773993323061779, 49.854410422890503,  3.850894319203817
 4.525639681995797, 13.665396375420588, 89.852950091833961,  3.901365838546395
10.320494093501573, 11.431297278166884, 19.489277876152542,  3.636631719659233
 0.972588465742898,  1.072239733330240, 33.344542147441892,  3.993519628949363
14.638282205923131,  9.376305864809094, 80.170783145673553,  3.829984775463922
14.765312158355135, 13.233335334425137, 80.334051481842451,  3.845759972602303
 0.595318610285333,  3.890041423931644, 36.406513967056284,  4.169957406977186
 2.388811390262552,  1.855881336259689, 62.136273970800531,  3.909668040764288
 6.163033763834324, 14.461709053512672, 39.471048607097906,  4.088447828615131
 2.825381746084935,  6.137597030481087, 12.402999355943397,  4.075811247948034
13.983338395658546,  2.339928407825829, 69.150433753955056,  3.281381585390428
 7.336430007119109, 14.085780759625585, 74.675094671815998,  3.925605174672582
11.671571647697045,  8.783808171785140, 74.142831373098900,  4.123021319174200
 9.318116940200831,  8.781592084873848, 83.419658109345264,  3.927100661978651
 2.878443291238711,  2.181172737467544, 12.299859393462606,  3.818043025828310
10.066315235724426,  5.478659031532731, 52.224416544334971,  4.112362104115514
 0.788335798789850,  5.172829806616368, 42.700942789600980,  3.608366461500815
 0.879272972400527,  1.922178951217469, 19.471575784654682,  3.673701397923648
 3.918350742550080,  7.123254835203056, 79.718399678519617,  4.062287212002944
 4.066959115223992, 11.227225769957146, 16.987224113355349,  3.836215845878832
12.809923275827217, 13.290722324373082, 93.507755829372869,  3.966741775600620
13.715065906866087,  8.901107245304658, 91.603406367857289,  3.783480685316104
10.493304315487066,  3.125099988522779, 64.291165324054006,  4.049870985860147
 8.105264526739585,  5.771981913800520, 76.781868917531554,  4.033039976681193
 5.508743124728551,  3.154974505396561, 50.589675452215545,  3.922793325634590
 1.525041245488729, 13.540368473840090, 76.210190762272475,  4.102094232077627
11.648609373179216,  9.103776693794606, 50.570091111078149,  4.076218455784623
11.213719885368484,  7.857874341260139, 78.594700168240919,  4.277320844167947
 1.071698223526431, 14.032718675964366, 58.805172364705932,  4.158542951504533
 7.019428969551652,  2.567155875199619,  2.416361429528261,  4.191630395677205
10.970479649589441,  5.863694813606174, 14.215825711751258,  4.080079776571975
 8.051966713973535,  1.255100177241188, 32.284219087414897,  3.886001231375090
 6.282285918545965,  6.237623087824764, 41.623122256468172,  4.028482201494863
 9.065507107513138, 13.998887166849356, 42.775879532622341,  3.782447287777937
 9.689352991028448, 13.606512054940602, 54.404825869549256,  4.018481379233237
 8.353912648626642,  1.598618977870226, 45.655635587383806,  4.105027219204416
12.878093381562673, 13.211305701294380, 51.027570350422167,  3.902165351489082
 4.179477485186252,  5.939923225616287, 36.108425832928624,  4.083931693498472
 0.381160595633256,  1.664063760887146, 44.350519174999626,  4.175012394720111
11.321798484820592, 11.826830728732444, 40.714600208092776,  3.693824752004268
14.265772894652025,  2.324593873972705, 57.327030225588878,  3.921859540786113
 9.490999702055671,  2.261915342791857, 75.455561348181163,  3.894057536351309
 1.325935028045872, 12.020888459298549, 34.503450280052007,  4.480580737269590
 3.685788474814751,  5.822403599833582, 75.960797624288759,  3.876852625329672
 2.449960517645125, 13.069281050965328,  5.482500599944046,  3.902138344940271
10.141297463857532,  0.750862095182139,  9.080804377031859,  4.175628745766044
 4.087134801248621,  8.605351187304246, 87.356165916049562,  3.703048673968218
 8.443295050487732,  0.527283667019345, 70.904599398529101,  4.288266090000753
 5.063760716296652,  3.824201688713465, 92.791388906698558,  4.022143801662218
12.917009688962752,  8.946306440362482, 12.491696343217592,  3.922816275371908
 2.111621175120230, 12.071824193540007, 87.180728300689069,  3.867356855112690
 2.589995134155478,  2.228134765788480, 89.783645494711365,  4.229959538160816
10.662749833042410,  2.681757296264329, 29.832734141450924,  3.729158087976708
 0.760587244421419, 10.618111468123537, 49.948975658570866,  4.149357468090575
 3.264679695007568,  8.349651350797437, 63.712066289546087,  3.621673271819068
10.678673836540741, 13.415169558294318, 22.949244571842598,  4.347719719578167
13.028308709864859, 12.715464670630444, 27.207895800385867,  4.167245152483561
 7.157135976529045, 14.412392464353498, 24.516176831005513,  3.511048403598326
 5.423362447733687,  2.690044606487603, 24.838223920324737,  3.888492586898563
10.283971570813451,  3.487876235271140, 88.506692185866228,  4.478437436166616
14.769668845166223,  6.805845371547297, 15.284924877870260,  4.025865891241639
 2.452992183459526,  0.054379359784970,  8.936970262482236,  4.063236477056922
 7.796846253740652,  8.392179081639515, 86.981948983663798,  3.707192192174546
 4.044739803397225, 12.195277395337607, 23.812448933248486,  4.250899329530412
 2.843161858801340, 12.050744857799751, 39.459395120404153,  4.026244920521860
 8.069359372987678,  4.874990949425419, 33.883643100928623,  4.027434514088929
14.397252504946128,  9.969967574440215, 45.998827954730757,  4.099204453929165
 0.525750654017025, 13.703200736615385, 47.211666462271822,  4.074313978027981
 3.995563608193429,  0.430408688436971, 86.396541240437998,  3.868210996989492
 0.986788067060503,  2.715557517915365, 76.111003589228787,  4.324504066099308
 9.317685649836625,  8.378026857047072, 27.523023746258978,  3.843683023743653
 6.236057420190614,  8.432870653762704, 45.115484176299084,  4.183125273711135
13.030590336782240, 12.349267630317465, 14.939533475813677,  4.276429412274296
12.446494403635040,  4.909978272829158, 18.165036740467411,  4.273348601016608
 5.297302306502690,  5.249491004437552, 65.226145167852081,  3.949587517228974
 9.375826391295414, 14.244934688669117,  1.509894367705522,  3.966016160688710
13.896931809027574, 10.449871964816630, 53.595258983625961,  3.773707974253854
12.494642362589659,  2.019617114463491, 21.049970796941619,  3.759990389740561
 9.089609718074003,  2.595794760206490, 16.046836986927705,  4.301789569058221
10.410495800942252,  0.499208384287737, 39.077097894115504,  4.520938019536323
 5.998739094315566,  1.010420836948462, 21.076410374241824,  4.390300139491345
 1.172469219460317,  2.116977386303202,  5.638130057348150,  4.097216716544897
 5.197230723791136, 13.682810360978921, 27.680108014874936,  4.030951287262145
 9.129391930624694, 13.291039025191203, 15.930582471545579,  3.820960411458690
 1.977465208201713,  9.516046347048681, 84.041525632834620,  4.193566613031298
 1.660455436768724, 14.162559896470389, 15.880905730029118,  4.068945479261273
12.439293409693734,  5.010492927513968, 75.700465962183117,  4.174667001651802
10.770268842149948,  9.817094897442260, 63.840983249071137,  4.210336961706425
 3.274971358412004, 11.774964763476964, 65.679006132551876,  4.264152612741954
 8.820696444190524,  3.958758209929770, 19.977060935420536,  4.032119009274804
 7.735554021479017, 11.352677599811395, 57.240941427466261,  4.080989303941643
 9.125283054966941,  8.914731439814766, 10.077173504532050,  4.146487275844257
 6.445831001736596,  8.851459055244169,  6.869697148849552,  4.187797080643644
 0.807239717695308, 13.393018096018258, 62.892350803124728,  3.845360246022744
 8.185643812099508,  8.139138629449743, 69.847266195615063,  4.314023352267319
 8.394070050419659,  5.681218222565145, 30.073164058326302,  3.789008710012946
 5.462920710345893,  8.935259908355107, 38.814327517542743,  3.838274666727808
13.752097952602886, 12.416860653534755, 89.545856907545300,  4.335792423309743
 4.492326664495315,  0.924477381204289, 76.255913223582212,  3.471469775493499
 4.145189594650586,  5.405898616986123, 61.477498602752789,  3.893801214564258
 2.820408122129699,  7.282051232039947, 58.411235442716524,  3.766682919573082
11.034223529523556,  7.420484279290650, 32.542310758499141,  4.233484979566053
 6.795230523890651, 10.027109333104585, 80.444625405166704,  4.233145415639185
13.974481376746072,  6.884875621235543, 39.370485099233129,  4.101475030765166
 6.596494907344341,  1.901257108316552, 89.563394796388593,  3.817748970283464
 8.027884672187760,  6.122804496534794, 80.773938740618760,  3.971347475036138
11.059379756041574,  8.264825030098560, 36.722464626142020,  4.242553457555868
 0.754424463825800, 11.462366285887033, 10.304232747677021,  3.939637118123392
 1.054375053488141,  0.899265162114412, 50.632230356853938,  4.136826504069529
