BANDS
8 8
NANOPARTICLES
cell(1), 15.011
cell(2), 15.011
cell(3), 93.820
 4.977385935417330,  7.396969603085546, 78.175550941222340,  3.854867375544055
13.553308993583084,  8.345385330209659, 20.360883117639567,  3.875264918849536
13.969084412504163,  3.915204150587008, 27.810416734440903,  3.986525600087232
 3.918945524509448,  1.671837283933099, 87.933132646710092,  4.381040340194201
 6.136169907399670, 11.722453162249522,  4.798043094158605,  3.809908578000970
 0.897540117210769,  2.948903655083666, 24.430943829759507,  4.038019748977708
12.686321249115720,  2.655500892881569, 72.511644618196797,  4.235947313016659
11.791950396219082,  4.767214389287054,  2.806165622676772,  3.815774523033426
 9.439103620980015,  9.831233172640207, 90.674100109452169,  3.805587407274384
 3.797689572149897,  5.290971123496068, 48.832081915758884,  4.012565789523697
 3.918331871873831,  0.865907405792484, 76.936637671626315,  3.864881727467434
 3.572267800684008,  1.824759670965969,  9.206280772437873,  3.763993875205958
 9.329688904788833, 11.534126770923743, 76.826316135934619,  4.088724398618361
 0.716321295416939, 11.179292191060929, 46.732388052976596,  3.836314421775629
 4.435393479072387,  0.912031293888736, 29.934856126745721,  3.912572044696760
12.871710054061094,  4.219315728532108, 13.481990624783583,  3.956029222420673
 5.460297054448362,  7.071792252422521, 45.487543188425477,  4.050844004708946
 9.774081094620994,  5.179948844634152, 82.225057119697084,  3.600023486094848
 6.904273718601970, 14.310815250057907,  1.942747794003676,  4.043470944613977
13.770914412268615,  7.201422918742160, 24.188402738236299,  4.094816578648177
 6.210055816991197, 12.349749043694624, 49.445008723882211,  3.980515282541993
14.776888070323782,  7.661873199248205, 39.163216923192493,  4.367668586088024
11.258760820683092,  7.712210851597455, 50.266166375484488,  4.174326237948981
11.184051654414596,  9.432070697250733, 16.558009860976821,  3.907317763879445
12.332829953253478,  0.421274480627237, 14.013404322586597,  3.783024447648220
 3.291110305987335, 12.117007942363678, 29.629051303882743,  3.919712108921017
 3.975261586386315,  3.653774021767147, 63.829079663878893,  3.886234547965341
 5.765641011456060, 12.267545612178091, 78.546621193008136,  3.955576839691695
13.443595599237675, 12.359246677474436, 89.663389069213963,  3.855743242015330
 7.525485689308286,  8.744078874133614, 59.755385525726616,  4.217151125336980
 8.351687097562104,  9.796421588386719, 46.477462297328621,  4.124058764177414
 3.592019776554911, 12.025698081252724, 11.121181097086753,  4.164496936628354
14.165697089564569,  4.339006127391157, 20.502942589955346,  4.091926219306670
 8.086694006568527,  6.220976130148106, 90.156040359503578,  3.959170948059202
 5.057604595997236,  0.536005613645204, 65.838941016676657,  3.804734302544584
 7.130383671113021,  0.361968171080219, 41.077549360335347,  4.152451916540448
 0.637432444362969, 13.341753795022740, 80.884766373407942,  4.029248635685328
12.057141596247410,  7.879539354338541, 74.047436954933843,  3.775600549821483
 8.984329270167004, 13.233441190080926, 80.616088238031949,  3.894612377343956
13.741625277379203,  8.015013222521224, 53.387140106390468,  3.824533082062436
12.920465020073403,  6.355376472206195, 70.435779606766829,  4.251691064990411
 7.805871955502738,  5.767679428571294, 17.465247947877163,  3.918787672917434
 4.898803013644539,  9.943879617615600, 38.794938563045903,  4.033207762098501
12.551698318200971,  9.298514974606075,  9.227409351585036,  3.824343819785818
 2.222925149483833, 13.240965445681617, 49.789230778591516,  4.116250124254573
15.005373826425416, 14.739544102395536, 39.474946941273110,  3.891393094053931
 1.547707753069747, 12.535330656448819, 57.880201887351937,  3.973033912221167
 0.368954486624024, 12.209878316118914,  2.644291736642654,  4.017849751995487
 2.433898830867154, 12.372707270933034,  6.222617607575220,  4.220730907644200
 0.174869608287617,  8.348330257192835, 56.879475306935632,  3.731452881968173
 5.130862982231053, 10.584652220987673, 34.209723082838515,  3.880557101721130
 0.684436377304602, 11.106129965771784, 54.381220972537712,  3.744037579197806
 6.586071865358618,  2.891454411784057, 33.787774630734440,  3.552424400389412
12.586372312584178,  6.330609059291527, 42.415731217116637,  3.868268108145846
14.071411839317818,  9.607287727845195,  5.533148710611907,  4.173943718353376
 5.965346797967879,  1.480051246377266, 19.423906843124534,  3.997907876486946
13.755318603636736,  0.988836417275388,  2.901436890844258,  4.100870757181281
 9.389913858769656,  8.079252532842156, 63.414623186877996,  3.986143460257059
 7.872897509735941,  1.729268685089550, 58.279892317517415,  3.972603893068257
 4.323527800679467, 14.835258643763602, 59.836457938645715,  4.021966022890973
 6.026521375248338,  6.944883913513027, 27.410658727727945,  3.840472492583297
 5.029703029907528, 14.719773318154740, 22.961691502201234,  4.132231412900553
 4.923358425712779,  3.899513973138598, 67.925115786724675,  4.098896612861540
13.924711283154839,  5.409996146864704, 77.558583408028369,  3.965536308537445
 7.538167620787877,  9.151806248020220, 87.358731330362772,  3.912563428152640
14.139091465650086,  8.350112338461754, 32.467135967375341,  3.662171027552966
 8.795977426568985, 11.784270350743984, 39.958949869990342,  3.958296418444690
 9.174115820637647, 14.591206515240552, 51.773360667527655,  4.069211068815898
 8.236325518186025,  2.332218525680082, 88.598916246865954,  4.414547663141883
11.578774085262426, 11.315588921257310, 53.180923196792051,  3.929597768225817
 6.324578231800361, 10.705024116278789, 71.791381854248684,  4.374222895236867
 0.830472614923120,  2.232521263346303, 79.539438468866621,  4.233928113291870
 1.738123856766249,  5.627723513060195, 84.541419073692168,  4.243413015329331
10.076216100973822, 12.561633048936750, 84.364817084332941,  4.015560650338677
 1.790211818527498,  6.253754650770574, 80.334017366960140,  4.173875733200362
12.790606471727298, 11.428487188002000, 57.003914437181109,  4.072015614356803
11.200450442370888,  8.685059143509717,  2.657168314801182,  4.110556100245381
 9.786586520392195,  8.694742246630444, 71.159511993284170,  3.682590891034135
 0.450842425963686, 12.940647619215552, 66.604621698138814,  4.295540208782707
 9.403285176088085,  2.729706480172423, 15.346541524915359,  4.135898737409860
 1.080724216193621,  4.903560927770876, 30.990845982943586,  3.885236816673055
 2.787258101395785,  8.934286591228803, 41.916723500827011,  3.689656544065144
14.692269800827599,  4.992440739872229, 58.554970943749652,  3.775517838503599
 6.293633436897918,  5.889535526123320, 52.627426473834355,  3.967364576632142
11.591098004356137,  2.970117696756838, 51.920921544544463,  4.253474226805761
 2.437666365257931, 14.335745704440326, 63.282733287630570,  3.896427970413893
 0.753800132140185, 14.394706826073412, 87.220902369352700,  3.528556093325559
 6.973666277282306, 13.359065410548022,  9.042420810807503,  4.209841311791916
 4.787175524940348, 12.197940798435740, 87.618551166111871,  4.209863282210736
12.110492134080513,  0.101328061206532, 82.109906042541525,  3.860425794103473
 5.143957779047412,  3.778104275452324, 42.056779347417574,  3.986424595901440
 4.520395155844200,  2.121779325055228, 38.557124928253344,  3.852580340169303
 9.334651341296848,  4.777921509117290, 11.957872363911235,  3.749126901231477
12.377388230323422,  2.952238161172240, 60.918484528703260,  3.997802586432037
12.946120461399474,  9.599583121202091, 35.917778957574704,  4.030658895023823
12.861952508328637, 11.383763967977007, 40.106897766807471,  4.171616986888041
 0.056053437623829,  9.780883372394976, 79.661397608961678,  3.540230914216872
 8.317289456185181,  6.051631457630529,  1.792595438144296,  3.861104998572078
13.295519176581761,  3.308587268840229, 93.224340816330610,  4.152803311571281
 7.586040786362162,  6.018046741917493, 37.927786298399610,  3.857937065485710
11.943882278861173,  3.534486625821418, 23.840133898669563,  4.056752279895545
 2.869004462284786,  4.441535725630181, 27.501978114131294,  3.823753010466116
 9.472484686084661,  5.881952895171215, 86.516606626219257,  3.856324664117205
 8.363558562007711,  1.728819402587966, 67.535402344637674,  3.980877660190061
 0.538870408764932,  6.560364631853419, 11.579063361031210,  4.105053506693650
10.997691719324267, 11.774738408125168, 13.291148975334298,  4.132831501835318
14.338861048579895, 10.447765832942540, 50.343654751437057,  4.005759843807714
 3.898503982996942,  8.317613826788611, 89.326215218210876,  4.433689925811724
 5.750537917796263,  7.636717315962787, 93.067769854386725,  4.022984641521908
 1.100537764798522, 14.377081493154833, 13.483049911471145,  4.134640633387306
10.963013913068703,  9.065149907871019, 30.280069808558338,  4.108598446763483
 7.865065592296583,  7.928784266326195, 13.974049771519791,  4.287272043768064
 5.517559254552309, 14.745416607084259, 44.977103897440266,  4.323279925013257
 7.890180309264466,  1.909069351821890, 81.590282613462421,  3.968572859374877
 0.515685884644880,  9.284670987387141, 83.298671563702655,  3.851584537678898
 4.810271939743381, 10.118621148133334, 75.504526977757322,  3.715120311604661
 3.066108860048310,  3.495291564933674, 52.384159916065492,  4.071365175836262
 8.290774365237640,  9.640873293862123, 36.674362788475911,  3.935691118777545
13.123238409372091,  1.018396599474040, 36.107541257155049,  4.224282182566974
 4.175766547797974, 11.278677260534616, 52.735355929430945,  3.921382661808733
 6.461094261254603, 13.235966139674327, 36.940342699047484,  4.142403209737101
14.854945916516026,  9.642546275592732, 60.361076351334241,  3.704099924106404
 9.326519616975917,  0.009516429904946,  5.978382168763108,  4.161348272389351
 7.617611764771659,  4.791521100342957, 64.986759000414352,  4.068335584573086
 7.712604432490457, 14.561222111975056, 26.644227750703692,  4.118231595957282
13.436847721280442,  3.890799562259590, 82.592516764154183,  4.185806466456874
11.241295528671429,  3.377273885164370, 56.844620488171486,  3.933276432688252
 0.940159051265334, 10.530556360974515, 87.104924798486778,  4.175176458259869
10.751982820365821, 14.159473810255571, 62.486131992614837,  3.896350267273097
13.988809522055018, 12.613969816809318, 84.343692386777676,  3.770396902309067
 3.066638157818287, 13.127756462690236, 73.161435682596775,  4.120561359670369
 8.423111253785423,  5.110393153301573, 24.927472246500589,  3.956309818268643
12.569169731173659,  0.374993866100914, 47.198940705528805,  3.770254573467752
 4.937026952032954, 12.638614436465231, 19.307316527624327,  3.966358804361443
 2.703640763044443,  8.499552094610991, 31.051672106557913,  3.924182569175570
 3.084594102019896,  3.525263432529079, 45.390673136873588,  3.846352020847311
 5.551990483880985,  8.334417080404743, 19.678031425581029,  4.174564203397163
 2.566395681656133,  4.440195741984199, 76.668174940986418,  3.786708842425794
10.804376029533547,  7.891789313789322, 77.850208822171197,  4.028563690458083
 0.505188546877527,  4.494120401418598,  3.943780484308341,  3.984529384424150
 7.443022991219283,  5.552329705411620, 57.142521392079018,  4.021287807290960
 1.587284143057096,  1.846128226586892, 73.874150618398772,  4.016404758665418
 7.685982952232632, 12.783680903880290, 68.294818089629857,  4.187996443071806
13.872564773733249,  3.025292748311703, 86.517095779139169,  3.880147459030725
 5.799076696504387,  0.675031906901213, 91.798135503870512,  4.164797620316897
13.094981304480667, 13.508591972591645,  6.003756696990536,  3.915456773991673
 0.955344992811083, 13.017023553181142, 19.921420219797916,  4.120644589762580
 0.903063838920862, 12.152420822019341, 26.580715990014898,  3.802797269751197
 2.580881554323371,  7.517372985426916, 53.071562172909012,  3.965867545260515
14.653958568176970, 14.511258078059495, 70.488083730691542,  4.219152726294094
 1.610994540719802,  9.826973060414602, 63.859457778927194,  4.136839440054010
 3.701481719909850, 13.598428472769218, 39.919402531306773,  3.881555303082700
14.460783582060893,  7.608653768256315, 28.839912675233929,  3.725875464790311
 3.057778079590849,  3.834863841887154, 34.920369680980798,  4.088757200902843
12.325242980026736,  1.572315291105448, 30.551854413361959,  3.915490314549468
10.396977972073268,  8.151501220890182, 39.688883404850621,  3.999019958649685
14.370677464111147, 11.893521197714442, 16.301633680848692,  4.087103744125090
 8.030306748538788,  7.810371610196458, 74.685766884837903,  4.355746394090565
10.543798648624055, 14.802916625755982, 70.432500137698113,  4.008882180789771
 3.601126701468581,  5.686860890568836,  8.700276183656802,  3.996060313624082
 6.750195700847113,  8.878065961004083, 30.855818668425073,  4.188187733426071
12.278068523955735, 11.457322530788742, 81.240279286762245,  3.661372769785906
 8.859574468678266,  0.077864551017530, 12.286390111520927,  4.001428527201907
 7.584511750682053,  6.602485409033066, 48.872363903487930,  3.991446894329922
14.096877622569330,  4.955565000157886, 34.506238207040532,  4.198839112560066
 6.605186963590355,  3.740536229123159, 75.532673742045233,  4.396459129145023
 8.013084315882255,  9.508562410010072, 80.080689230177072,  3.784619874973605
 0.238687851231248,  1.286418340318318, 57.415295368604525,  4.002845670190907
 4.899446477296149, 14.384667728975979, 33.451903101340960,  3.818824271112528
 3.602309613554842,  0.194237362760341, 69.497567495681935,  4.030476597945005
 4.681471581682541,  3.309739054897334, 71.883651880157316,  3.895612196507658
 9.198015665410646, 13.043833469691815, 43.780472492943971,  4.077817443593654
 8.681889073866385,  5.542444811211275, 29.791307356947947,  3.798992103578731
11.741533568441005,  4.583287589338711, 89.489677928493194,  4.061299193127303
10.925090732136457, 12.886988776448739,  2.555535235453196,  4.289330643603782
10.504563189651677,  3.063118045243217, 33.714132643480220,  3.954440010235436
 9.621546807604757,  9.250557468879192, 67.303827230951129,  4.084475012346870
10.210128417207311, 12.909517226224501, 23.725054491125448,  4.113759977965254
 2.329762984465159,  6.191435322289566, 22.400491803906782,  4.131299057584819
 1.938464017172778, 12.378888509264986, 77.099591668706225,  4.180839960537427
12.280890802183572,  5.407636112398802, 30.980182128071451,  3.784750827833213
 1.810724049353491,  9.359068202728652, 18.490318850881440,  3.917411341859869
 3.582612725767150, 11.518616700511460, 15.435760193775483,  4.344872888687075
 1.516999141841030,  8.276606591261924, 76.517507140674027,  4.016241790520180
11.304865790828279,  6.700007140721966,  6.257422022306561,  3.952602697123112
 8.361485154199499,  4.032637546952417,  5.297495301589975,  4.206486637872247
 6.491195722792010, 11.463731014916309, 83.090199699462190,  3.890789871259826
11.199116499318141, 10.320274211330700, 87.352736361755717,  3.764671687663813
 6.902865099731058,  7.877665508071213,  5.001951052210126,  4.032122629518817
 1.502875047688043, 15.002150306457770, 46.182593189978355,  4.029110003329653
 1.035179174546765,  3.644274837640393, 70.322426675809623,  4.015964199316406
 5.021644524390497,  4.732261265787289, 30.870700480876771,  3.994454794755607
 8.695920963556221,  0.018639799697470, 47.723862362676563,  4.040818469781659
 4.518929240407630, 10.914568417740073, 46.184991138595791,  3.865516332360994
 5.737424284748250,  3.107026805250511,  1.440192104339187,  3.978598481859855
 2.936573251325211,  1.176126794596200,  3.052495585573170,  3.526004370508555
 1.233274361460457, 14.263660170392995, 23.562382030968532,  3.582305361567317
10.683195330313671,  4.590794175347994, 75.499971694883754,  3.849669906038907
 2.814238117140869,  0.384079191227529, 17.102953271417018,  4.126427851316697
 8.992467394267841,  4.032351049814761, 41.015028007629731,  3.979546487033705
 8.083495445229490,  5.353939827196367, 78.953925501941242,  3.725165913756221
 8.707470729942301,  3.539441437802272, 71.933317619671442,  3.948925672515871
14.763141438967136,  7.819869766788548, 15.418253488188748,  4.089443778899588
 1.413285166863661, 12.037037524267310, 33.503106190267751,  4.168510159836806
 6.593421227073757,  6.683505422561607, 70.902309681625823,  3.873566560726315
 4.819281912258945,  3.621664678301652, 24.237709319415533,  3.901184128505123
 9.913191333144354, 10.717804059979509,  6.264296639573018,  4.537971516486283
 6.838145944811484,  0.010471455192771, 85.195550975145736,  4.278444508295625
10.347251217226619, 13.707439103663660, 16.699703331269109,  3.734512155638869
10.663461539276192, 12.801324559238338, 36.631843027996617,  3.930366676446855
 9.074084909039492,  3.180533254210043, 92.799673088697659,  4.313546296741992
 2.139988822290539,  1.167298968254493, 42.430318835383773,  3.921577827641288
11.044949075297870, 13.300822973006339,  9.455314905697850,  3.958681648384214
 4.911811490224229,  0.553168549172553, 12.630093369385827,  3.969374832769077
14.634242059245864,  4.269649159430379, 54.604624089249867,  4.250581819768010
 5.555285676047910,  8.689170139195248, 55.477173775888353,  4.021942504487319
14.432746659434223, 11.263098783539741, 30.041548298997267,  3.932565342156468
 7.519827922732409,  6.366867882076018,  8.703719337989492,  3.872316211156678
12.496939574435908,  7.672974376211950, 81.469162223221517,  3.921825856700707
14.387419512291899, 13.725658465205962, 74.372864024866047,  3.712607987482266
 2.808512579268420, 12.445950028240762, 84.080723502220295,  3.896094004119360
 0.621931762514650,  4.078666685509005, 16.707879320816332,  3.963621312265390
 1.295304119038796, 14.935345871602181, 53.467598996558621,  4.186128432056972
 5.999138078745037,  6.665518975701555, 34.313543717163043,  4.138440199879204
 2.812513915846247,  7.907532507709259,  5.391278386700077,  4.060145899206715
 3.594750765924881,  9.864760624504505, 80.939655007591725,  3.976739277689084
13.455403254808449, 14.215084607198282, 43.327234510627449,  4.475565268190535
12.516243442350818, 10.548070453742035, 64.569586664343262,  4.290553966150817
 4.587109299158570,  4.466623648031239, 90.961925589281918,  3.926937154775184
 8.126082368228984,  2.663404500986061, 54.304305624089054,  4.175628350287593
10.080536707130475,  2.316023092222925, 19.542184013588816,  4.400707028397955
 8.575819062743696,  1.517209513065526, 23.287915406504776,  3.822167515981010
 5.593784153131049,  4.289053390036607, 11.764087597992916,  3.795550124118065
 1.826282130003635,  6.278022368838570, 66.148273323845885,  4.316679996714508
12.278103945361112,  2.829773292665847,  6.201614492723630,  3.987377764975442
14.629495478752848,  4.052574932364677, 63.756415637203865,  3.567647920722616
 8.340445898909264,  1.804745084376525, 30.680352511379716,  3.894131265255919
10.165075954480379,  0.220786396910886, 74.956773540501928,  4.264822402676803
 7.494505994628342, 10.732527446856935, 16.959056616788722,  3.919423516030721
14.223265192021300, 13.345186832627805, 60.939826052723369,  3.867341694898743
 0.326842594508936,  2.418210296124265, 49.376571405693340,  4.330981925146590
 8.692102199618079, 14.632740248531032, 33.850014096469401,  3.806895726365082
12.015981147435845, 11.439074379963893, 45.963260059904016,  3.692632487463312
 7.763908129707787, 10.421745520217216,  1.314467687775820,  3.965063480542268
 9.255382144382086,  6.017760287178565, 44.525608815081242,  4.040724729549550
 0.241030347922150,  5.633740537095083, 73.766055646432264,  4.005702327350105
 0.136051599405044,  8.294921937708994,  1.813895647943208,  3.995845227429162
 3.288954553845674, 13.657236483581100,  0.381694906162567,  3.822737773656272
 9.188229301020588, 10.096507246029558, 56.020805649819138,  3.807996153830290
12.388073947239638, 13.276628842906154, 32.956830678050160,  4.232530544473263
10.919747386852517, 13.226722144534744, 29.003304723960412,  3.963830473898745
11.554986887619627,  0.689879969764201, 90.587483833750213,  3.987148848159571
12.558994986832108,  2.695966003720220, 68.206671635343142,  4.338494790556759
 8.442001242144272,  2.022213168795465, 37.214919066882203,  4.432740310265617
 9.929384702184004,  8.749254393288707, 23.820847493759345,  4.220457520083117
12.449984242876848, 10.322254986842184, 26.697122677927716,  4.034304278834253
 6.860006014010254,  0.156417059566736, 71.629712991227635,  3.753993191723032
 7.884307361970274, 12.876189376553491, 59.489767125292033,  4.069633740421465
 9.181714424943095, 13.215262502085309, 92.632152514792239,  3.995902231421584
13.315704201001136, 10.661231638113527, 76.428196452445320,  3.965382181345308
 4.411065541860124, 11.729244942351263, 66.087260416736811,  3.955126399470148
 5.243585890122747,  0.343322504256233,  5.903351948380746,  3.987617067024065
 1.862677717904922,  6.356694762579662, 61.588133625623350,  4.156533322683397
 0.985271618984156,  1.267005874143869,  6.310146328226814,  4.070018829932875
 7.270042149790125,  2.542045161479529,  8.855638227604032,  3.771508080826416
 5.508997966519636,  5.384356512775950, 86.710559472288963,  4.047873775551265
10.276187466187272,  2.377553801020226, 84.814609667797313,  4.084795259490507
 4.095157602601248,  6.698294511138971, 73.918116049203192,  3.955854772139370
13.093407186645191,  7.282566669639779, 85.727909127881333,  4.065347180410186
10.261516600443105,  2.585196450720239, 27.351120204456844,  3.929726018566825
 1.221406730950290,  6.159112374261785, 92.376036690896413,  4.072455064620613
12.260133276899555,  7.715011881786156, 46.378589115053053,  3.785441479485730
 5.743331732218320, 11.405858207972633, 42.481042902094657,  3.995159968607544
 1.428506940180458,  9.407180641884562,  8.855499328106607,  3.957690229490429
11.080381054746779,  0.074271400235374, 39.892544947626362,  4.030586604027692
 1.483992984974712, 10.422946328788408, 92.326170954712154,  4.313964533107448
 6.865569578660331,  3.413709299400829, 46.437531758375144,  3.986965642407553
13.586448817158988,  1.813017636312938, 76.288467492661056,  3.684516746933883
 8.853741595229003, 13.923586579590248, 55.679010834198444,  3.877457622086703
11.342748154271451, 14.823056054456515, 58.637761318083626,  3.987020610459741
 5.446242827799370,  7.541719475519557, 63.058420125870100,  3.925276615569067
12.161572647030912,  5.640104814060273,  9.771697413972721,  3.582963538898151
11.357522435585054,  7.324553798715546, 58.088214468799627,  4.325963338581142
 5.224765589071883, 12.577735287693260, 56.334374528227990,  3.966067897645627
 0.488791171550122,  1.508912781975977, 32.837353469958458,  3.908789252614979
 5.651786437934840,  7.943454689883501, 67.150212810325968,  4.261616102631913
 8.377335456784346, 10.502524985620399, 27.326616256141556,  4.205419668709611
 7.245467520148379,  1.390493371903878, 62.456305201542563,  4.424378097577363
14.525045223239964, 14.289420055235034, 93.026772314708452,  4.181481867590821
 8.333740717829807, 11.773079769213407, 64.410637629963503,  3.883666394245587
12.466882992274254,  0.118302941801651, 54.801692763377233,  3.939804144497902
12.831844143078717,  6.795367972517204, 61.906033018048895,  3.916884845324273
 4.981434926582023, 11.429465810259014, 62.031378283380654,  4.166854123575708
 3.380324557314353,  6.135340583254520,  1.941213011565297,  3.753709517198266
 8.791637336884090,  9.848885425534688, 10.356047643335428,  4.103736546919745
 3.442901816185902,  9.108540345539513, 58.927399158888683,  4.112005567077111
12.103749756168451, 11.940745339212885, 19.605626647621509,  3.918594225916034
 6.783242663781337, 11.060686119358863, 22.484378731627757,  4.028509726207346
 4.288118295951685,  1.406380671332355, 48.591356628202227,  3.830102424564169
 3.782020049228068, 10.069636773810831,  2.035194559032456,  4.125869836514804
 0.291419273306885,  1.870520238724310, 89.984126075242685,  3.953283882430992
14.867833835782035, 10.602720481126996, 12.374786308308696,  4.109219620676837
 1.215669332075507, 11.371291636243456, 37.624292653817825,  4.162283736341482
14.782160252620240,  2.776985087453587,  9.965741715311022,  4.173907948767224
 9.148173780203360, 10.963704215555305, 33.199456129396907,  3.685971657302041
10.781530200869875,  2.470995384605873, 64.487938031847747,  3.840046261802040
13.005432703312685,  0.209007084563924, 21.760753591868138,  4.064197890134584
 9.386554291967256,  9.272671966542141, 19.928943325471177,  3.699838556323389
 2.828787305387768, 10.288666750841609, 22.308306160867740,  4.028467299463971
12.143279612499192, 14.652432641252519, 86.909128084689158,  3.743914067903848
 6.520535427145795, 13.579808749613713, 75.010232165882343,  3.736472851581228
 2.223384292538649,  1.727605730744689, 20.866217003825099,  3.950145318189835
 4.890452360845216,  4.009209308444678, 59.937936654527874,  4.127640426918767
 2.064024106720425, 12.286284659570404, 43.361542325887555,  3.721803429638336
 2.707587809356659, 11.323787441388996, 69.600468978193362,  3.869326602444711
11.871333399087764,  4.613492747840640, 38.104731377797300,  4.289221129846587
 7.566579330600462,  0.623444190162841, 77.972943829755010,  3.732679527267082
 4.282841232768363,  4.113265589783945,  5.101202042337085,  3.953650175090482
 3.220400394131320,  0.522445893789049, 26.323419629283329,  3.667086627997438
13.128683814804369,  0.002298681713051, 25.936159183739285,  4.280402653425227
13.119239406983963, 14.236461793807502, 50.929538290279339,  4.029072617516824
10.690991042337206,  5.996740288163410, 21.083532171182355,  3.665139498244622
 0.096602007124233, 13.615075229440636,  9.507887155907813,  4.163300767531016
11.130182742609763,  2.781570549391609, 79.233480786224703,  4.225026298384102
 5.315156088444140,  3.278433880715721, 15.562315382995866,  4.074305577357872
14.066601631200705,  3.514280824696552, 45.224296127351714,  4.216140511889765
 6.630291006471753, 14.485267152567904, 16.039520393995204,  3.955849055278409
14.737008058845928,  9.199501638053878, 68.138862748454258,  3.904139760295316
13.555487437710495,  2.801085802348504, 41.302150869649140,  3.771928845836948
 2.563260075147528, 13.825846950220940, 90.480176282450316,  3.695326747147894
 1.135988044095726,  5.376075556001050, 88.519502339434894,  3.790265346659834
12.013328980800715, 11.482084229448603, 69.316995103720544,  3.581132240978277
 7.433196225289784,  2.873174597214724, 50.324698707999900,  3.909467066575895
 8.632280978174551, 13.184321915378474, 88.652086232982057,  3.937296315360832
 2.714544467836828,  7.354310646663914, 70.140390265279294,  4.131104810340059
10.124040209592506,  6.362120421317953, 54.095527586722291,  4.238885131145636
11.320020408258475, 11.687168174602862, 73.094814212779639,  4.055109626748760
 1.290749140317698,  1.131041428334531, 83.870630185703135,  4.094413943949770
11.217248928861883,  6.611178463006801, 27.164508599243369,  3.799714721191156
 0.673698461290048,  0.032575965274285, 29.188163395762036,  3.952096567228046
 4.758560097724506,  3.108129649425923, 83.587362427036396,  3.823714678383261
13.665417217991532,  0.684488651399583, 17.738496043870306,  4.119960262762070
12.403138249246972, 10.695257600110427, 93.132671843978528,  4.008163768229696
 4.776738965496336,  3.535169988472620, 79.719309034188754,  3.958081227554753
 7.047873306077642, 11.816071499387542, 13.293246792774955,  3.744693708690122
 7.025384030877403,  4.872824187135383, 21.230599784702193,  3.962060726886595
 5.756506855403859,  7.544411648148683, 23.690458009755307,  3.668205050947675
 5.975810099153686,  6.675775900341065, 82.094128792717768,  4.268993729785442
11.038915692914827,  6.879107183281536, 92.815014029261221,  4.058818289450152
 9.802980824546745,  1.668670415738474,  2.532710042061063,  3.531582568131424
 3.695093930848738,  6.029000057204298, 38.894499325621425,  4.148370093497774
14.287965961892946,  9.680044270301023, 43.457498253360178,  3.847095887481200
14.958703659176054,  6.105107767438535,  7.422662934990985,  3.757012810541744
 1.420316531869549,  5.280947904342245, 42.235240848165432,  4.012911547605180
 6.491415747537659,  3.186961590804481, 27.638856642709808,  3.720069600397118
13.929167369582149,  0.510289919851761, 63.979421688800201,  3.631732789938900
 4.751487678654319, 11.859634504086769, 25.880671018349606,  4.037840166534250
 7.148764925802834, 13.001652568292599, 30.458370873788084,  4.105076848601649
 1.430345339651321,  2.334075974171065, 61.008502756611072,  3.846995033769638
 9.421864666261666,  5.421417186126881, 68.517572946684410,  3.937819408385911
 3.127444565284283,  9.223845716461554, 49.486751618303444,  4.034287855738899
11.231308096860490, 14.052255188659391, 66.492912512530324,  4.101927743349110
 4.300493189357540,  1.662921253001404, 56.025902262727293,  4.438040177959935
 0.376680973169228,  9.855737202413110, 72.776407298394119,  4.356449750658058
12.523496009872716,  6.486283938893171, 66.010803668580550,  4.290294919815806
10.175490926343130,  7.176621116405823, 33.960969140219518,  4.305837219869925
 2.395228817166109,  8.358664075481887, 26.073841081173985,  4.398851458159235
10.227848958817114,  2.004828177539254, 44.354111762121335,  4.199462405502778
 4.235026764616728,  8.894223882020334, 85.139150303284936,  4.022699724621922
 2.304920186879624,  2.316050903114923, 93.360910597407383,  3.954093470473427
11.102839975961295, 10.650031212624995, 60.642012761953097,  4.060001564286922
 8.864786057740218,  4.999638516804807, 60.889853013895753,  4.044521651677104
 4.301188712296473,  8.067931496265109, 11.851413436813365,  4.006401476746763
 4.420066957138512, 14.864115383943160, 81.322044572693272,  4.103050941243834
 5.342165566866970,  9.680344934331442,  8.229845248191246,  3.987150720778323
13.961137483418952, 11.197803907216779, 23.061456347655213,  4.007253680482168
 6.764714791786338,  7.525210265396004, 41.591263370331276,  4.216507874655559
11.853754056178406,  5.499217745796942, 17.265483295610984,  4.184550978103060
 7.943599054157789,  9.655828000394264, 52.094968338891043,  4.319103383839580
 0.775497624687858,  3.340177608789870, 38.201848791649326,  3.885074268730095
10.541789413193316,  9.407925190636432, 43.287784697915363,  3.620044753877437
 0.168851734535157,  6.534960251775953, 50.036006773260020,  4.012037655985841
 2.134296234347127,  0.074343737670253, 36.158382141226618,  4.030101065735098
12.171091509404627, 13.922980571344379, 78.352985990070408,  3.935199597172976
 3.057744491449476,  5.702896084304284, 56.646574369843350,  4.102131267528139
 1.427575362528371,  2.060281076913626, 66.551107487750173,  4.188822101001303
11.731712636987567,  7.881849228663029, 12.719173113731916,  3.835222187612590
 2.053721014495265,  7.939702384382268, 35.225533942220402,  4.339903271708867
10.423959145009473, 11.603279573252681, 49.431096371283417,  3.920699406013029
13.645263413582416,  8.285364790641182, 89.862017294603277,  4.297512351511660
 3.830086214722320,  4.762614799727325, 18.946861225700278,  3.882865145973912
 2.130308163843223,  3.269221898699195, 13.189168569252802,  3.855195265570494
 5.177700269483887,  0.064301591013699, 52.171708905139319,  3.993465667649837
 9.254618701348479,  8.671846138615255, 83.699245788344200,  4.033467234799038
10.888091758069621,  2.166090364695851,  9.750227968430652,  3.716983285335732
 5.575498393012297, 11.508668443606632, 91.699838968316556,  4.196675450412370
 8.632432595420196, 13.538078408614144, 20.076746999837134,  3.779758462998882
 4.067651730041595,  7.289887865246523, 15.836820381003600,  4.112167964580830
10.849295831741124,  4.213243616336269, 47.912683204485369,  4.268461566204127
 1.284276495727293,  7.168009593395431, 46.044002681346910,  4.371325584107923
