BANDS
8 8
NANOPARTICLES
cell(1), 15.013
cell(2), 15.013
cell(3), 93.834
13.280592431340740,  6.630860525520371, 47.151810493071906,  4.039782294996696
 2.694537062172842,  9.283208263711346, 85.752088855643848,  4.134554327160187
10.651644484795113, 14.001455713057720, 39.482977320233779,  3.856752200517858
 9.471742737945590, 11.679454870700336, 21.182837862511519,  4.131175043084092
10.311429092100161,  7.347718999266688,  7.477399168254164,  4.143041408895499
 8.018943833392642,  2.759711754063782, 64.231798336432803,  4.079506382918741
11.469573197071369,  6.405925809897444, 57.774760069716940,  4.171234494249228
14.838240032715907, 12.500832347783119, 81.108067139597097,  4.025225150039362
 3.265815386671267,  3.575943315932048, 58.957885484086368,  4.220484574605258
 7.919970721625452, 13.531557893433071, 48.355529733277244,  3.900074790248883
 7.249108587075181,  8.159725659939538, 21.882321535028968,  4.130180032602076
 0.673038651601363,  4.549108120421342, 78.851105568706629,  4.020703398249983
14.937188546551955,  4.827957618240921, 16.152878816618813,  4.080106003886693
13.708382561537762, 11.941760712148717, 71.773056993786469,  3.915024026449599
 4.059903233848436,  0.740403986799299, 53.575583907014746,  4.174576325051230
14.680819399211794,  0.369975887773733, 84.230004182196680,  3.911377649730922
 7.767422352187818, 12.906540833864184, 55.937392983315270,  3.661225874849956
 5.557167170713327, 12.790123050211074, 59.278888615169137,  4.352412840518069
 2.786932430828267,  3.141105345648276, 39.100871742006603,  4.356032278665328
 1.046160985273663,  0.665227175287611, 76.925062053527697,  3.811758657830878
13.308150792078145,  7.089216917936628, 62.924007428794816,  3.957010583351108
 2.445369488879443,  5.704306495776381, 23.882843603384668,  3.861357943424667
 6.194781066617239,  0.429509111555353,  8.686524731309152,  4.476613191725998
 4.260504505851948, 10.644115524351275,  3.488457375058580,  4.021790104745331
14.011210037631246,  8.449117384245529, 79.055602164434333,  3.695991369135828
10.316851718075759, 11.595348254160049, 84.958694337076864,  3.895441246463466
11.114450905007553,  1.138190243043373,  0.229155720364238,  4.008237203007268
14.091042035746289,  0.246991113354725, 25.580687515287082,  3.970026624068227
10.587772227855806, 10.754894794280789, 41.672086009695150,  3.949683088714123
 4.396922423565411,  4.225642227562901, 35.506837057731900,  3.779667776392717
12.125107339703600,  8.221276005291106, 86.243319703682531,  4.179768558430148
 4.636291279387143,  3.269898095446915, 89.060262538547406,  4.199937144557059
13.396538724339239,  2.315409079042166, 40.509591449370731,  4.028465692779640
 9.517939783060690, 13.374360444064562, 91.996946957105123,  3.579243511800244
 5.296327520913856,  5.220399962006866, 65.894214805041187,  3.977148408994879
 1.582351748741257, 12.267731361919372, 24.869931639173753,  3.960048472350890
 2.386784471490209,  3.336836686183564, 19.135372232366542,  4.196917939605298
11.475049960146846, 14.189738225991494, 55.286419361362313,  4.289806963102452
 9.241482897358024,  2.390065156039745, 29.475966756041121,  3.932715265437961
 8.803467916434560,  4.555692586113333, 74.720023153391679,  3.741745257153011
11.962666091095400,  7.441453208713629, 52.001171361414869,  3.890516388433670
13.169630442585854, 10.364360836770292, 20.264126569465397,  3.900386186479953
13.984677330220157,  0.673117089463982, 91.558544076149815,  3.660503587469390
10.546270274162801,  4.470130225446521, 61.402782121512125,  4.239036163853643
 0.901047429579531, 10.074072294046923, 63.126872651521332,  3.975103744278823
 6.714551396977193,  6.219706492027450, 91.233655336999433,  4.216799418629794
14.469041542117642, 13.533149971862860, 39.961272349164410,  3.890582206577934
13.776007428278577,  1.801006596150470, 64.019070932858043,  3.946214093127033
 8.181347537993878,  6.649213698416563, 80.958617766869210,  3.949705171497422
 4.520084443295452, 11.980162501244203, 30.687722743242333,  3.980258789321861
10.407700862732938,  3.608768353605361, 51.069764662774588,  3.969989473452353
 8.513906399185693, 11.246775112636941, 45.108696780373613,  4.126211739384482
 6.855507413278282,  8.145494617492714,  1.486621091847999,  4.201579278115167
13.386245447460121,  2.878747587565309, 48.546194803938228,  3.966237014058272
 8.312386550665128,  4.793437557577659, 44.073985681633225,  3.909647816177948
 1.781559688828656,  6.559816932497519, 67.582432669213858,  3.793128038019472
 4.065742376292047,  3.915360149511219, 69.488368911987109,  4.054423392357440
 5.061362581246553, 13.731554004525773, 26.187814166226378,  3.878534883768734
 7.322058026979157, 10.455889249102606, 14.888358617326952,  4.052509722265745
 7.294330264411300,  0.174953477178646,  0.672528930792407,  3.909507025085353
14.327992742019594, 11.419576848708299, 84.938994601381523,  3.990472041861489
 3.480924079847394, 14.368751429142415,  2.189855330537120,  3.887634410969990
 5.894028715176756,  5.344526377159485, 47.382969614477609,  4.279404466298515
 1.583204179200332,  2.002399242193228, 43.143371398155381,  4.275839007446755
13.039303665944209, 12.195863551278547, 61.696306741883589,  3.686978296401395
12.811797445680048,  4.155068771604927, 92.248528392410151,  3.794733331128730
13.670975883864674,  3.184916125081493, 19.922579314756899,  3.382330306423378
14.980149368810649,  7.338121306243258, 83.490461919253178,  3.940965390583294
 8.536470721997384,  9.947605889890390,  4.758811075109702,  3.917562715969341
 9.823115177564295, 12.646263015197485, 59.288294895298520,  4.167802100343216
 7.013927247644050,  0.383683401031086, 39.281288580834300,  3.941892392055021
13.470945050250259,  3.165761297830262, 81.801896536846158,  3.768430967081470
14.996624149938388,  4.106739004623173, 26.684502707754486,  4.253580043279810
10.472520825678535,  9.776417547577838, 70.151902763836659,  4.508149283003243
 5.450951825622405,  3.240535245838156, 73.235927411007836,  4.011772002081279
 0.032869178810490, 13.575338305085920, 50.277898239693464,  3.967465740783305
 6.114344064239337, 13.606846378774902, 90.497528237592320,  3.864626723959347
 1.597614954811686, 11.188028566121424, 33.645549753738216,  4.479171781490487
12.144341641334002, 12.643062114470071, 10.547045866321497,  4.149263532965425
 7.232564223072176,  5.287699296511846, 58.718437137732870,  4.409600478086071
 4.247986755922709,  5.512929103097359, 51.266790230742444,  4.131525203266292
 1.022713323535652, 12.889528209515174, 43.558900158407390,  4.029022413724999
 0.425377064914585,  5.830068683066998, 57.061160867380877,  3.961391263910318
 4.567032002340514,  9.066351628391880, 64.655703070367352,  4.216752644541973
 8.677851642534586,  5.991061494611459, 54.738761926522976,  4.117868130416486
 9.361521929564880,  7.583639040139249, 46.717055567114144,  4.048785946164399
 7.756788572127992,  4.402051123562112,  6.040823541254277,  4.030457994574165
12.602935137649641,  8.129764759724599, 66.891335726194569,  3.856394805451083
13.256844862437042, 13.654325441608009, 88.155752773251365,  4.116490358549298
15.012138720870739,  4.222617951043129, 11.888325839455383,  3.677196582146116
 9.504055803447143,  7.151543449620082, 15.903589485470178,  4.113767646610233
 1.659512965462797,  4.755363024026072, 63.946142806084879,  4.325406628683379
 6.691842768983794, 12.828773131267956, 52.133117937209256,  4.143024380671083
 4.875010326085730, 13.660769587151549, 14.798336362781475,  4.006160072345387
11.843156466490264,  8.812435222134768, 38.256309181684962,  4.272766013843901
 3.559729893768216,  6.436159437248912, 16.751344993292825,  3.959602916386121
 5.965412781136084,  4.684033102884842, 83.631179238849882,  3.888518669566684
 1.511713600088423,  3.884602179059625, 91.509417631488162,  3.768385092545797
 6.129579055919748,  0.156710089586321, 86.935341520804712,  3.892531088138462
 6.350943177121972,  5.946957143820368, 25.416214802459628,  4.392678590049674
 1.342573325436133,  3.570383170926974,  4.147249857582605,  4.300890595493338
 6.727852131886065,  4.247930497717795, 40.160606625398373,  3.983946471911417
 5.686447808775034,  9.886777675752317, 11.275813639657843,  3.958104104437119
 4.814889746795821,  1.822461259732169, 76.994815403334115,  3.992787990503460
13.005725892760317, 12.401653286082878, 36.363875427228983,  4.131893510121872
12.738655637257068, 10.425343619145336, 45.297726417874969,  4.472311812548079
 8.009849570712161,  4.156324713516356,  0.879060665757900,  4.190775621794453
 7.976273948158187, 10.528184945477280, 66.701132697525111,  4.124752830037919
 6.323220599104876, 11.319187428933242, 85.712988924848034,  4.178353834904320
 3.089652105774510,  6.795465070000921, 72.336360918919979,  4.273594847764961
 9.539145158932424,  9.767179892012182, 34.888614958024533,  4.095576862388585
 0.824632692193989, 10.246142694738975, 67.206360682238540,  3.840562751334205
 1.283160006714510,  8.334380090646324,  2.523554944873375,  3.756497019026713
 7.678369138507209, 13.499382605009316, 28.990781908268431,  3.804845800128922
13.780467484764394, 11.956174405513547, 27.309501901877017,  3.511679175638415
10.248502968572271, 10.548718052346402, 28.068025567348140,  4.217470962389792
12.191432164212390,  2.871952812373247, 74.769984075927155,  3.823993383873026
 5.407004039046422, 11.739664439391355, 21.415727117866378,  3.972758856280512
 8.789010796969746,  0.238475441508554, 15.271819003971896,  3.931464076074106
11.081309564609791, 10.011157156219193, 64.003887358862684,  3.651326420819435
10.538956310590301, 10.834598416519432, 17.322308882587397,  4.045651140822834
 9.628882430998516,  1.982221893335649, 41.712494306447319,  3.877340744653158
 9.526836613874487,  1.804861101382331,  3.721847774977442,  3.778878848183802
 9.529732775069458,  2.780281649831994, 82.375958406434421,  4.186794215822310
 4.274836762129086, 11.845969897072449, 67.518109293320066,  3.782278691713345
12.135669602288617, 14.199469854710385, 43.232258003149070,  4.215311568681225
12.183513326337192,  9.744489504378075, 82.107238199616802,  3.848973177306130
 9.002776953132097, 13.823727622434317, 35.659935128241685,  4.124969234269113
 4.626581118628868,  1.610099535827291, 46.606976778102258,  3.754502150983733
11.931194169767913, 14.210136992371915, 19.087903586663902,  4.022915981990653
10.151392282232315,  1.179152008038219, 11.115848960342394,  3.909868086466775
12.377476950693001, 12.050154998898698, 66.963326610485993,  3.958524856354132
 4.786591123498271,  4.680682346950062, 55.259299526860822,  4.065369999265116
11.467860966687413,  6.141125489187952, 82.776819674642724,  3.606942365049622
 6.036971369047333,  1.724132770912049, 12.639049929798251,  3.845426453892578
13.490095211427208,  1.442579741380291, 52.241683018118202,  3.660204457579821
11.327373202720663, 13.445527918741300,  3.303001364327609,  3.860319817152690
 5.542008653340114,  2.282719591962317, 16.581068194968353,  4.176288461597768
11.644077488752618, 10.446289272082081, 90.254416802125874,  4.166184019671682
 3.207929681498954,  1.378955266413039, 66.206966982047135,  4.330326605153368
 3.383429512820956,  4.008557327108839, 31.944784112069883,  3.619446713899589
14.373315634754336,  9.402107973791354, 49.654476642281487,  3.704846240549787
14.846689781764097, 11.064666011630218, 13.120261528505827,  3.916167967802390
 6.584846065771388,  5.282133715970596, 29.953884403459170,  3.976418682516259
 0.282302291893213, 11.568392535998489, 77.249786591795015,  3.941877855362844
 0.120581501162885,  8.860747546860480, 23.370751382272843,  4.001255091476274
12.798656829664838, 12.023946861477249, 23.754335138385816,  3.854131581092192
 5.829122988190877,  9.196573651531201, 27.812075501389579,  3.734093751312215
 2.299773349912333,  9.304348540395171, 80.901995178444380,  4.058936904783950
 8.696839465778480,  9.120439171406074, 87.983275268530193,  3.712041324197664
11.734458541662478,  3.656700327292287,  6.397184381227849,  4.051044821402641
 0.560635855724881, 12.659255195298760,  8.471868815357658,  3.799244148675508
 3.938974718069296, 11.930121112730781, 55.357374070518716,  4.262547480485761
 8.396082638606446,  3.605162237552075, 86.749571333302640,  4.301443651173032
 5.744581000101934,  9.131917224201906, 78.773519513403542,  3.977828197596917
 2.742935927604150,  7.976522153759968, 48.411658011078366,  3.986712587358951
 2.726174838138157, 10.747832630422824, 70.929081364567949,  4.007494684647348
 1.746839039637082, 14.157013621591831, 28.528523084910930,  4.278718090220062
13.375716245541128,  7.977746839742579, 26.997812594901642,  4.154322210022979
11.780750350030081, 10.023856436368176, 74.950042222129767,  4.307643682270772
11.186127007916795,  6.694872486216827, 72.786937881585317,  3.713279718061293
 0.286673690860486,  2.470194687503488, 30.413084397866935,  3.906739980409765
 9.255673506543850,  1.896952909470114, 72.023080298941451,  3.834763285554866
10.101800857442539,  1.541818449959550, 33.091412873014214,  3.688767979226551
10.760912971004773,  6.015877974127245, 35.475569318639096,  3.872461936239889
 2.410558994533375,  4.665351599603698, 82.299229394172315,  3.680870331538065
 0.300758794599883, 13.727680904432651, 21.227574826814184,  4.039117169592746
 0.471041768681702,  5.632224251450082, 41.489806503815167,  3.830536825568245
10.649959642256297,  7.531007157959003, 93.293024508902548,  4.485479758993026
 6.565207474949443,  2.005403687915514, 50.251495092357096,  4.483615465892246
 1.050655034736702,  2.233105564144921, 35.383996837241298,  4.003341303934630
10.815109101094629,  8.590980670009538, 23.847911610628270,  4.055852106791519
 4.644472726549235,  5.274446509694200, 79.182836854590136,  4.068835953811101
13.905358979567831,  1.311777447069001,  9.258779945995093,  4.346296805265797
 2.621820400558331, 10.659762229751376, 51.545342240702404,  4.179462380550700
 5.284183009181987,  2.609388790291525,  3.467393923587001,  3.919807001629862
 7.978259282035687,  8.705481228814739, 73.367087452514113,  3.899126859664029
 5.600901178394413,  1.880827354381835, 81.005679340222216,  3.818737546103085
 8.418697916570057, 11.064582468621744, 38.448239528942239,  3.806133172932338
12.657990084679051,  3.723258212751868,  2.626403608984443,  3.684750943570513
14.470263239690480,  9.797980419935513, 41.354661915901204,  4.055759289641872
 0.188676013134967,  3.099409964479395, 68.556980042799410,  4.055110559653689
 5.447802981338085, 11.886698053010742, 93.831648206968893,  3.744001854924571
 3.156078602875469,  3.914768736446963, 13.847756013400017,  3.770921455302101
 5.721738202798395,  9.300036678979323, 18.344449458261696,  3.891903087052511
11.379926682063045,  4.337287136985617, 69.591899673194774,  4.221982717953730
 3.854739166267506, 12.852131117262747, 82.377503690720133,  4.210255959789408
13.991828705812697,  8.764713041199103, 16.707072592733656,  4.003357217883470
 3.602437668350917,  5.890579192825421, 10.514557516619780,  4.007612023174124
 0.852328924613301,  0.214404276341330, 13.607617797985384,  4.146343892191107
 7.235435041741444,  1.960484690582825, 26.135544072875664,  3.892073215798867
 3.328698583852818, 14.286718561373743, 40.590665211770030,  3.953300660827281
 8.589189742415824,  0.196383872154774, 44.995963585945994,  3.714751941841001
 4.288569807574622,  5.349596870828950, 43.356476122883009,  4.334002388732188
12.408649338310203, 13.626852170340838, 15.056855957698838,  3.997276259311081
 0.479064553466589, 14.183492964648748, 54.421188119758774,  3.731734631819006
 4.030608607597425,  3.686841523463500,  7.227078330447929,  3.852539783044248
 8.463771141196137,  1.607149845018156, 19.713227584625709,  4.481174725546284
12.099289248199646,  2.514854283798470, 88.776400314935387,  4.001418285409984
 1.682963896372484, 11.440847133648736,  0.328373622920290,  3.861361002459893
12.383355609026687,  4.385947747962449, 54.394247135047110,  3.907391209291007
 6.128919774646874,  6.490862177945432, 13.639196200395986,  4.104720058625682
 8.045347103459658, 11.527817935164915, 76.310211615608537,  4.185207280984190
 4.291868779078388,  7.998352106308187, 35.665428015780016,  3.774323230903463
 5.634860342030164,  1.469713810390864, 42.904035247984346,  3.880630275107739
 5.183550212550575,  8.899091135848732, 45.373289658230000,  4.007507762482620
 9.751578997942138, 13.053378253085498, 72.853060406040314,  4.104820518693733
 8.356815246963651, 10.810197935234571, 81.486537435498832,  4.189145858458670
 1.485293937761460,  7.309452811728938, 13.507148891586889,  3.792387992411729
14.907487542115575,  0.759936653812905,  1.424668653038090,  3.964872727468451
14.208274922314645,  1.983093022517923, 57.040623584095378,  4.116313315610465
 6.906468440808412, 14.298907731047828, 32.459827530905550,  3.479368727516646
 4.644700496272477,  1.608091134945234, 62.302840206758532,  3.965678354925175
 7.685616453684008,  9.219038981165223, 57.068921110627947,  4.047356929399887
 8.943291588212977,  6.805402926015632, 67.614300945447141,  3.762554641188135
 2.960189348098210,  6.734673212263814, 89.697434400551259,  3.526400900513847
 4.005471366529390, 12.923049711740882, 63.464008384213543,  3.886053082259030
 3.990842426126788, 13.727032096108070, 49.148052186684822,  4.054944679868599
 9.106708746281658,  0.757959368998165, 75.666244540828117,  3.803027954242152
12.668959400824972,  6.798297589527275, 13.446449624922970,  3.917971156417163
 3.836555832672957,  7.961836064901191, 31.615607586698619,  4.344905443584510
 1.956091990445447,  7.183911767742899, 60.528707373477964,  4.072639832458774
 0.933593265367844,  8.904185740535192, 37.479290616155623,  4.056988788056105
 4.935032608905755, 14.960958720123086, 69.841060779699177,  4.049219487656740
10.592734459353901,  4.981169732401654, 39.291855465028021,  4.040706605991775
 9.275614244719836,  7.792228691600878, 11.362402292727783,  3.942514025002339
 1.947709393208718, 13.209764517264809, 90.409332737643808,  4.416513729786131
 2.506741041126156, 14.925047726087110, 57.599811339674801,  3.739476547434587
 1.695025911898508,  1.110304018655720, 80.827339954108297,  4.144258637430852
 5.856324493161676, 11.296562272803101, 34.384694414080094,  3.941245898191553
10.045645193049209,  6.515356650133499,  3.515601726090264,  3.962422974650485
13.735661973622458,  6.621342703810789,  4.743566351209495,  3.760330587917522
 3.999812354518272,  1.139712093648425, 92.568257181144872,  3.905846906044679
 9.290649592812986, 13.596107372272481, 68.949139798114587,  3.820990640363814
 0.359367492686472,  5.154724917403828,  8.066034834342402,  4.201254075334383
 6.821158086272889, 14.350168423873374, 65.999713336368828,  3.973165521896105
 6.221258452612950,  7.649592748374894,  7.972489690377347,  4.085977404633844
 8.195286079813034,  7.134674213097938, 63.707314236596410,  4.214227486811125
12.910172983239919, 12.547808832489366, 93.597042572673331,  4.097704048329944
 1.437900470562308,  8.861445223930467,  6.362279901009057,  3.988694698778904
 1.752534499880508,  7.430609981011302, 53.743672213854019,  3.819101905590642
11.578905673502373,  6.973839623746314, 42.732317254473237,  4.148609602523157
 0.498540614381917, 13.466960221992768, 65.062797459061656,  3.861548059461492
 2.299065752327324,  7.858319889812449, 77.131376132859842,  4.010422777666532
 4.302508100288357,  6.608322065079808,  4.431279790495672,  4.172639221667758
 7.200509633471340, 12.939408368982262, 18.056109216681765,  3.970816607430703
 3.246467258200394,  6.014759625534763, 28.086211791351467,  3.797313677900736
 4.093985600404045, 12.895683756599325, 78.120798564295285,  4.313835216866401
10.472315048737061, 14.307870887179710, 63.972891679207549,  4.347257308896689
13.790776073495357,  6.390622093555804, 75.735261980382987,  4.104948440185181
 1.733068034788789,  4.372716762993178, 46.687671999292547,  4.247193664446166
14.744451772839342,  1.097089241104601, 17.260071196589323,  3.685011825667691
10.154448599807720, 14.172280271580510, 25.912043984298158,  4.208879475406530
13.335322494535074, 11.133721587569770, 53.015217454434627,  4.125161568659959
 8.505844231385453,  1.784493698247822, 53.922553437868082,  3.794850689681206
 8.759418162010547, 10.990443356670001,  8.748639276841891,  4.171986625967283
14.805046725824228,  8.351960249609673, 92.413604079527005,  4.161146301866186
13.080732839409515,  0.919759587348213, 71.398592966270016,  4.156735274529339
 1.908715613064206,  9.864165603378760, 28.265868635371973,  4.265017849023673
 6.674678441473677,  2.800659435081979, 32.818822102422189,  3.599103966218819
 1.133946487473833, 14.782534428873701, 61.307587275698609,  4.171854407912982
 7.506557506275077,  4.391043667971802, 10.101203221939096,  4.076149181201643
10.319630737081546,  5.963676042967425, 89.435597406362746,  3.786553315038942
 1.396870986039141, 11.461258964886593, 47.210737657325282,  3.846824272976479
 1.006834424311679,  1.634372577367684, 87.948576238995159,  4.035999962347237
11.916002515823410, 14.150669486217657, 47.503371128601906,  4.334386117755148
14.523697637786048,  8.228550102205412, 70.408773590449258,  4.161260305733500
 7.674298243289565, 11.408124129670831, 62.676741739369696,  4.117998904062536
12.442574129852906,  0.006533019418161, 29.227460584210860,  3.997191053877780
13.081235595401514,  5.257685325224058, 23.110853435966792,  4.114448161805301
 7.861331761565178, 10.080230111943067, 91.535486913015433,  3.833561425805998
 7.777271363463649,  2.536929278932630, 68.353557754334403,  4.179889206093018
 2.727924498444826,  0.041921265945407,  6.107020463502949,  4.196494318488221
 9.271260052289835, 13.330297706380041, 88.279454156516593,  3.867578065626915
 3.647292298559500, 14.821660175674582, 22.842012306117763,  3.673580971645465
 3.739201294055037,  8.164345710058345, 57.032177069003339,  3.985308805863004
 0.250888235829894,  9.868035947396843, 88.787084418638131,  3.727733321994362
 0.362815423230130,  5.301721893656508,  0.794960990830686,  3.456215717038507
 3.374613711409294, 14.313042648350807, 18.560543318377526,  4.182069495421125
 9.327952112428560, 10.017493372674465, 53.345350653391215,  3.929049297101774
 8.574740113257620,  7.261311464488077, 84.751712407520074,  3.746309057593518
 6.868646694281533, 13.787303582573404,  4.593110576016714,  4.428164012330014
12.050725017552200,  1.197274361176378, 78.532832237216596,  4.372727461996399
13.505682414495888, 10.242978257525223, 30.755099132015232,  4.186633265531531
 1.189966178444287,  3.578008955899534, 53.910745888850620,  3.904821690286966
14.498112673936665,  4.612191565553884, 72.201461495557993,  3.906444974411116
 7.269469922828296,  6.431101620730296, 33.706451289519649,  3.941584053251979
 8.121383806053609,  3.129158961473935, 36.475537180914316,  4.198783346244225
 1.992487039566511,  1.635786648172001, 71.992588858648915,  3.875126267339916
 1.681129163373063, 13.729959317187005, 36.870810855909355,  3.730199193788950
 9.556473958882346,  3.033281786571875, 47.296044087191738,  3.840154033833519
 0.426257584184430, 10.045279767194115, 56.197606535426296,  3.784385447306565
 5.970181459662983, 10.199413052528598, 49.125475401134096,  3.969355976429325
 7.779076853722327,  5.582200584653131, 71.056437362690659,  3.877959580312382
13.348744150964226,  8.756386411530757, 34.496483428233461,  3.819639993485436
 7.725921519332828,  9.555409988347664, 31.218410472932099,  4.091229035694574
 7.343340706424287, 14.611075695377055, 23.131567737078196,  3.747288177417706
11.190160989313739,  3.685813806897847, 17.197975276976049,  4.017372747786383
14.491763674030624,  4.054915771939710, 60.410596004903333,  3.729562712142749
13.009445674241666, 14.013152990044096, 75.085389404053032,  4.019396844347981
 0.826652744493266,  2.356475409034716, 22.747158994773418,  3.907090019471633
11.389420520479057,  4.658600547220716, 65.457601322687410,  4.027574442415630
12.545963243954509,  2.278202090157286, 13.847098283993301,  3.678758872106194
10.855292140820787,  0.587327712652302, 85.618830326746476,  3.801951404286136
 0.517714628926421, 12.158957898881736,  4.087326716883772,  4.128456062622748
 5.644786075494573,  8.729058991241725, 60.469969201059293,  3.922646473444640
 5.299539906134042,  3.354046367794101, 22.151396159630753,  4.183140143137657
 4.004764072554413,  7.156039892730295, 39.483971280544687,  4.059348004958752
10.191570040247891,  2.536395981411566, 57.366391631913380,  4.013514387350387
 3.821998313822105,  6.736176754265759, 20.536864592552849,  3.604281012882771
11.772918150402752,  5.335368078606836, 79.087557766670372,  3.963722203695468
 5.111821340670031,  0.298853268216322, 35.687176475953407,  4.176261254707987
 4.632567641374623, 10.112836884523114, 89.256924015537805,  4.036335862688257
 8.238559375416084, 14.401179527962094, 79.335266207479151,  4.167137012360464
 0.663882761464278,  9.511168669881569, 74.020968662155809,  3.749493958271571
 2.679332183867633,  0.084274107334235, 32.435538257129693,  3.955642946788198
 3.771310444833512,  8.505897353279057, 92.800652825515385,  3.794747062187619
 4.580289559182329, 11.501667177139897,  7.558387124832888,  4.316469431031615
 3.404903660085612,  2.186961166381185, 25.754019079009328,  3.792196345317580
13.717645282372386, 14.866047278844686, 33.055121656000978,  4.076836113756739
 2.773847125710376,  2.002026806070665, 10.541042804007434,  3.902217147811977
12.025832700334204,  0.936600447299777, 67.443818803326806,  3.921468288952259
 1.231966607140493,  8.006449242004591, 44.631186762583894,  4.151183204650284
11.495715650715146, 11.822520891942634, 78.720302462200806,  4.056357374506600
 2.760305580648940, 10.305122724490344, 15.805316005657437,  4.161783428041270
 8.127659693910735,  7.022872510252131, 50.652709897122442,  4.275010169023797
 0.126577513247468,  6.641177221544802, 19.947265291905971,  3.861523816062109
12.424888769344822, 10.892031514328288,  6.623024436717317,  4.277421450275385
 6.648591208425512, 11.459413226924049, 70.836517794959420,  3.952392110236406
11.004608015510874,  3.207180157921316, 25.987048134768024,  4.039057877513095
10.352837453996381, 14.702495787637643,  7.202875268386836,  4.468351132000186
15.010168250065224, 12.412594694871910, 17.611029938198612,  3.667412392762085
 6.590635196343426, 12.261009100683006, 41.680242111919284,  3.989276826762334
 7.368161386908154,  8.158610845885022, 41.894427889054995,  4.317089253185313
 7.696722312671991, 13.229490798061661, 12.003370299655980,  3.971212021524591
 2.107606010126948, 10.088266313127882, 19.853597807210569,  4.040258444932580
 5.300609746399596,  8.078427419443107, 68.891393858154444,  4.301239116918807
 0.199505348240023,  5.771903206758163, 50.552347320407712,  3.957425558910517
10.019294410786594,  8.867571633799635, 60.569090538510132,  3.821053747818103
10.340023230694444, 12.722845153863362, 31.898382702705113,  4.155659027942896
10.318944829252384, 14.529365570377067, 51.331264607479014,  3.976343027719929
 5.110849117283773,  1.490181972955777, 29.516287245883461,  4.144867487101681
 5.441586225875114,  8.432912485783220, 83.050483917249352,  3.747492182499374
11.601527406049907,  4.734866476564991, 10.278101016232352,  3.931644855978293
 4.760097776683019, 12.940679868505271, 45.221746786300130,  4.098949234487629
11.101536459937101, 10.323213289434390, 13.539260678279788,  3.664524632238260
11.668995856308769,  1.211477411012193, 22.559551865039470,  3.994307641845022
12.108287830212262,  1.561898928193300, 36.590252209688963,  4.351146275520684
 2.207156159729965,  5.164928797476381, 86.192845468984174,  4.180350289258580
 7.504746973761847, 14.402205571071034, 83.344847533491432,  3.947555355947517
 9.103124829215474,  7.617488992095026, 77.135292935642795,  4.072514417292570
 7.666147492417477, 11.012976060821284, 24.829115695117956,  4.114769901549183
10.525174393732515, 10.559098768933147, 49.451258143865360,  4.286002393745681
 7.642466546946249,  7.272163472530748, 37.632274358077815,  4.102327581307404
 5.620707616512218,  6.488198698961918, 75.513183298778742,  3.866448670828796
13.106923731667932,  3.837761094051730, 33.309789684350143,  3.854941641352214
 7.000955414586185,  5.534362626582568, 18.721679831455443,  4.088962554398565
 1.786071093868720, 13.224823387026937, 73.959236517416841,  4.008734668056763
 9.080605020749859,  3.823045036715934, 13.756056329666212,  3.852225594226553
 4.076228355026982,  9.251029990036486, 24.225288726852391,  3.969684186938454
11.599265409810782, 10.261671902587237, 56.545628896889475,  3.918316398156391
13.865524114291269,  0.564593964270678,  5.214888649211964,  3.790653176344136
 3.543171442777572,  1.695512361178348, 84.406737533457800,  3.935667882023394
11.096917745175451,  6.976588761420835, 31.568410856059852,  4.090450462795503
 6.201863906183952,  1.286247565265704, 57.053477643429190,  4.041945398419514
14.272753831473379,  5.991824228323278, 89.028941261226564,  4.138484852462782
 2.026161637422224,  3.977742575890653, 75.143249726960022,  3.955657243715005
13.691082561189335,  9.164817695741682, 59.600285408638570,  3.795096914038804
 3.360641144286776, 13.150341080248650, 11.152360958993079,  3.946671786981865
 5.770807915466175,  6.749472087349443, 87.288999492964408,  3.875089064610686
 1.188030140718411,  6.076308967408199, 34.274109031965232,  4.001439898415467
 5.086296579447128,  5.394243763422335, 62.101380472627675,  3.556150862689214
 9.280410650966131, 11.211998137964535,  1.060662827015963,  3.660066757180251
12.236639785142984,  0.772572922630897, 60.443422975536571,  4.079256854837833
 1.913397948884984,  9.477668005151530, 10.225994829805506,  3.881003557884114
 4.392041622713405, 11.105860478367552, 38.212205985956189,  4.259965267561692
 2.001959627414744,  2.137790290635353, 50.236901064145947,  4.152090073588458
14.189229611587127, 13.128365715337003, 58.179875086730704,  3.905462040497672
13.097094547861959,  8.733890714190681, 10.060146174786500,  3.922209858951841
 2.588111280619828, 13.337937512135280, 86.258910659630857,  3.980569351452808
11.274903986544469, 14.083788174526521, 82.052341475470556,  3.992876185221610
 8.241092098698507,  3.444288149030975, 78.475247229297963,  4.125091875481679
 8.182392210125187,  1.140270030484706, 60.541142445228438,  3.971859349185647
12.542760909149122,  3.245163337745220, 44.469407882845900,  4.262601977402372
 4.029397027320803,  4.994121587157667,  0.583013457067507,  3.853419439145246
 3.333764404759498, 10.125008152238852, 41.991403421729451,  3.815813101486880
 5.818799964752384, 14.167510373857962, 73.854273583946878,  4.274482553250810
12.534114456464151,  9.690259380347312,  2.639253499664131,  4.044220716638225
 0.110210243634177,  6.447865452896132, 30.415984155434323,  4.044444684080570
 8.419423072365618,  2.096233494668593, 90.893581040036324,  4.512790605776128
 9.149526413447195,  4.460350813530374, 22.717642778161068,  3.875129609566738
 1.978992320309749, 10.959734198574891, 59.552673533824070,  3.695492095829504
14.289454846549983,  5.047963987584823, 37.648309460691372,  3.974090951940424
13.335262407430472,  4.291783243709529, 85.470942785714712,  3.899662593288247
 4.481491519370294, 10.210899114757993, 74.641168813495511,  4.110374172488318
10.861145307302134,  6.948929804801937, 19.915850856278787,  4.359769212560917
 0.856180805322615,  0.286712072339671, 46.808770859063543,  3.946694981964300
 9.684048183460478,  6.519367143965692, 27.835844864124791,  3.919130795222598
 0.964409712466799, 13.988804691532973, 69.053065642042966,  4.219807810310012
 5.626402450391010,  8.621850928817381, 53.540808639232381,  3.990736720690812
