BANDS
8 8
NANOPARTICLES
cell(1), 15.038
cell(2), 15.038
cell(3), 93.990
12.299427297101863, 12.610351951556048, 20.753081229695770,  3.857330545511953
11.077981557051702, 14.670100430960311, 54.676079664626720,  4.188910919249317
12.353400932160667, 10.542103134799600, 27.484803506711756,  3.921519257999814
13.690938151282866,  1.972983074584297, 89.479053255347694,  4.322093033733569
 3.030947266014162, 10.019357786288682, 61.825169107248207,  4.306433456330624
11.128081830245867,  4.273868927876475, 12.907718382498397,  3.940761856098750
 5.329606250807378,  6.602793221610800, 17.618882474667068,  4.162347698439739
14.438969381427540,  2.787018917916416, 14.397757767461258,  3.903925444898880
 7.051591572435216, 10.438506864072604, 40.112244156552620,  4.024188838329414
11.472590518257224,  9.399460510180081,  3.927651720840250,  3.898507528966607
 7.563134611847566, 13.755395063752015, 15.714407567991973,  3.878758937223040
 4.475183073804696, 12.991027779055052, 33.705930649849705,  4.109136699162668
14.402147105037816,  5.673280380955649,  5.575563307060501,  4.154126324044002
 7.175738111485912,  7.826119908275253, 91.082425036833754,  4.082665477530249
10.652355883192826,  2.271943659888864, 82.617441347870880,  3.818302241197595
 0.705225689977674, 12.057373244341036, 35.357105986989438,  4.157214849936520
 8.858026745515060,  6.938148450533944, 20.021626194971770,  4.395343726607414
 4.141422077394316,  6.074543796582858, 75.595987845730832,  3.841390182600974
 1.059845033362562, 10.491321432279550, 92.918368970683971,  4.228310811222182
 5.362402850379610,  8.723289927577486, 69.205224089366880,  4.021596444156419
 9.425307890592643,  3.832935409233664, 79.006642958107150,  4.416312855481208
14.397775329571026,  7.492049375998471, 33.230369449780177,  3.685475055993112
 1.956514270108834, 14.759990691938453, 68.327263465663094,  3.652364699461553
 2.273957696722765, 11.847128466242514, 65.428645558315097,  3.826951779956881
 2.018036382386261, 14.910611634492595, 79.616908923147619,  4.204355866430173
 6.529786043325993,  2.154740998295869,  6.834768987827284,  4.099657101328687
13.450286172386027,  1.013449268433849, 68.169535813229800,  3.727390090158720
 1.351337678523314, 10.578945123774353, 84.399984426085268,  4.056982009447242
12.029469625208501, 11.481988986037493, 49.489223649004195,  4.055670869903117
10.681904755435291,  3.435589202994106, 56.522796069915692,  4.194663669749345
 5.979521412515193,  9.972008844341346, 78.446297864102974,  3.889876261464524
14.531634115417638,  6.275190247711819, 12.535838499336164,  3.989871460694091
 6.841414973064036, 15.028750506293745, 29.426534640992600,  3.964663609987256
 3.686624529691437,  2.810782530109778, 24.679013835814750,  4.103244383470836
 0.505642655164179, 13.962140574190411, 14.098370508286997,  4.154567777271933
10.249378674599674,  4.945756205749052, 62.389045790827986,  4.149504344394138
14.215916167490725,  7.501333812689541, 48.635054534362126,  4.050410519415827
 2.004877097717415, 10.059552818916195, 32.014663172770028,  4.053027251109691
 4.879400882805683,  5.162684994694475, 52.764213790358951,  4.270056382127825
12.788254960797996,  4.071502405993596, 93.234830274089532,  4.430144824985934
 9.970222409165460,  9.608739261182523, 71.426607373563584,  4.135401148432329
14.523391741431274, 12.151718886083339, 81.206994139067305,  3.924346283251376
 5.109524519708911,  5.546089561318280, 21.776289105743441,  4.335363856105706
12.108122926562253,  1.500260067106912, 21.618598945105695,  4.186909708628145
 8.691663501879370, 13.265842496843058, 50.934478059827256,  4.014686305353836
13.462062391316477,  4.854164830334710, 59.804224049766539,  4.068918867370853
11.660934669213448, 13.321695624108145, 35.039192295436209,  3.981171293215131
 1.492105923345400,  5.863980438149234, 93.374316011955415,  3.870602758210059
 0.542151582453827,  3.463716844597612,  2.339179991365811,  3.964085028509939
 4.080775494619901,  7.307905887733236, 34.599888490032413,  4.024774428750259
 6.659527597377626,  5.998793328588051,  5.425753943476949,  4.086064618534031
 6.920336059449115,  3.623190906590061, 82.476557030757519,  4.121790882749789
 7.338156725484458, 14.493743239378109, 63.337738877612964,  3.562373480096019
13.551015575471546,  9.021114666169733, 78.961840712854965,  3.976211970751975
 8.818535011480835,  4.163647250855729, 91.684350747783981,  4.026264204485939
 4.588132919324005,  7.964428851503476, 49.289568668404257,  3.586159748562429
 8.516361143780042,  6.096708319080049, 69.820414687494107,  4.109778318454254
14.193262148159780,  6.071305930427148, 16.570562613371045,  3.970711688732653
 4.314042281974263,  1.804596678312325,  2.321798798832735,  3.920926049814260
 1.717748268372482,  8.532187766687768,  3.135206400211655,  3.627039254789326
 3.171644167880638,  8.684276161009116, 10.188652636141919,  4.046059027830549
 7.220250993888575, 13.671199496700767, 77.802678003478817,  4.010760068167551
 4.201733342133419,  0.641235766755263, 14.689164682697140,  4.079502944740059
 5.580380860121392, 11.080716302834663, 84.894102321710733,  3.911083615303782
13.620884846667197,  0.706672249323043, 17.706366591822807,  3.982744270687678
 5.697501993023883,  0.279188183355020, 80.886784910630794,  3.603627162248935
11.629206379987439, 13.184744058115488, 73.722867142420753,  4.127446135422294
13.595617139837845,  4.931998976005210, 45.729199001514665,  3.796087865974022
 9.065579226154268, 13.203685633150444, 57.827783733639102,  3.742922242564684
 2.397721003420618,  1.575710863602595, 87.433271935711332,  3.755921869163642
 3.828605959111770, 11.598391915708397, 14.873676576522788,  4.087229368920360
 8.524839231939461, 10.619272254200576, 67.788873312041233,  3.867618641314313
 4.975894391540317,  2.430295346837739, 32.267162081771886,  4.353677837333782
 9.045591566094231,  6.084907218017553, 15.857874467677625,  4.106574394151690
 5.723640361994565,  5.971554660891158, 79.263274499321398,  4.133317708696221
11.917224915668362,  8.680832650969670, 14.491591392712184,  4.098772061098098
13.696900401864376,  7.259961061885215, 86.219718848854356,  3.701276360454510
10.026907181055364,  0.035921741043339,  7.582307943817777,  4.189270609188545
10.606334806587393, 10.883438828336221, 53.399509000204461,  3.819621289269980
14.991858071745401, 11.769854736461827, 39.481717411832342,  4.240540570781299
 1.833264444391406,  9.709189499947884, 27.137403522298406,  3.892819565853123
 0.398884810580458,  7.129228734320411, 69.090530517542163,  4.358095463150609
 5.976138466884749, 12.734590072770327, 47.529433998386203,  4.101627701112021
 8.989325322681212, 12.604319076750363, 87.475199542007417,  4.321113613192236
 6.525335457610347, 10.492446342735956, 11.889194923603203,  4.252961645652683
 1.664275231095042,  7.431283801651279, 19.395449792724914,  4.052753960154936
 3.448361465823580,  5.209490181171738, 59.606031849439930,  4.114321878573588
 5.981025249543650,  6.638904230369514, 13.303541215441467,  3.894464768165433
 7.608456261693722,  8.309962752040969, 52.874040577419137,  4.060273253161630
 4.339993830498496,  8.543778988048373, 42.586947366906855,  4.230164927966807
 8.790108353897008, 13.658021194556454, 22.431256605526606,  4.052504660570597
14.670583412774066,  7.849449145118498, 43.443035223713359,  3.913248285605532
12.007833764658484, 13.781340564863752, 25.049796055885526,  4.143183411188257
 3.169476958148063,  7.932218780783346, 90.566856760603272,  3.865167636465560
 8.453167017183345, 14.311203004672086, 11.768434319928454,  4.254752047423721
14.968492872541921,  0.654247964533735, 75.034702284572703,  4.054075206571984
12.025794225752515,  3.266337548683418, 39.310880783021830,  3.686893086612998
 3.085254444491207,  8.617257173922036, 80.551041940299129,  3.738413440718139
 8.511067560975228, 11.083428412828406, 74.903501350069618,  3.738820422973499
13.944748724629205, 10.544232940954787, 46.106073622167763,  3.798306707342368
 8.417021472699959,  9.261740107444551, 61.393270613748079,  4.074134981911148
 6.021997722778863,  9.663417634839968, 31.991406990700341,  3.980652829526086
11.244596323298031,  2.125222694319998, 35.486273922781990,  3.792516305059303
13.605948750613694, 12.745645852410769, 77.402348904758071,  3.965612060587586
 8.396559841682221, 11.942648379820906, 26.343255553311813,  4.363142063327007
 1.574070772865859,  0.764938671684934, 34.004947550596818,  3.973549695159857
 2.979438357949127, 14.946873144728293, 49.654449731554251,  4.352278774249009
 8.278306647938329,  2.887405697316437, 21.591795464946607,  3.899823460285417
 4.183574945493068,  6.329790669306678, 30.734116126844821,  3.952774785468730
 8.407971744345046,  4.170238696906378, 73.881587757968234,  4.284605862310110
 6.099929700760939,  0.529500702298372, 88.570100401567103,  4.238528846883328
13.672836260514291,  7.946163030418870,  1.037539135017430,  3.919737525234393
 2.503473068191854, 13.117011546999068, 53.164866509692715,  3.621868931575355
 2.512818260001066,  2.900754926784717, 77.016235996299145,  3.829743183554005
 0.933295719163596,  1.351958391279618, 10.783450854498497,  3.939701183571136
 1.830372744538986,  3.503647080586155, 67.098035328358705,  4.291380820432734
 9.120533816025491,  1.741962308340266, 32.213981851847777,  4.022661203653422
 1.665984183567373, 11.042541199225676, 69.220841933090952,  3.831277012645087
 8.298074503511849,  5.865037205978573, 30.400413152298675,  4.309235589138615
11.083396990714975,  6.011527194576728, 36.576934794074397,  4.280096089577722
11.984068863593215,  7.536409711499947, 29.892380101480605,  3.634787601425252
 5.940932290665385, 10.785032729793365, 21.614742299066087,  3.733466098801684
14.373385138175720, 14.300222462964829, 86.162613976776257,  4.317825777132917
 9.367017959958856,  1.589014147914512, 60.065229519585202,  4.185212446277228
10.128906226967906,  7.378833861973511,  7.174281786408685,  4.155534322964313
14.244992465596310,  0.827620668373098, 82.358508247058950,  3.863920785391744
 0.244790078820341, 10.695695237838789, 16.472871546407713,  3.924311034684400
 7.288574431037064,  8.305919896685461, 36.753206827150215,  3.787785326817201
 7.340113022288903, 12.193713650031045, 36.513411044729459,  4.002482388448532
 9.816339735381225,  1.381632543293073,  0.296589338122388,  3.846136220591983
 0.787754198911454,  4.036514087159612, 39.266567046401853,  4.043764590166005
 9.581279958562009,  8.500547263985895, 33.548722508926140,  4.097788672671161
 9.177127256605022,  7.741289887633988, 80.902458212379827,  4.260359643120774
 0.597916629181140,  7.263761974414630, 29.747430460739473,  3.671952378973793
 9.293042611024957, 10.121227586013108, 29.910059695219406,  3.825028042142546
14.150485519286113,  2.692049077098828, 42.589896683249798,  3.847604145804612
 5.284820038203810,  3.342294915142654, 28.314909896029139,  3.746031058606088
 1.020362712621548,  6.394785689103171, 83.145358147144364,  4.242483637358014
 3.043869111662150, 12.778543118386612, 10.961565295406405,  4.200421061969900
14.539501322692493, 13.780749333434489, 71.045365748223233,  3.819963634049590
 3.961441983832538,  5.634362733433119,  2.578483909638248,  3.768847558993074
 3.775876668410058,  3.441551510303391, 36.376894013889519,  4.350710169858092
12.070924542501990,  0.948557510238861, 10.971017809242298,  3.869330842313538
 5.451323808278934,  8.645598048657586, 58.696747470577705,  4.022593325688858
 2.883221378147755, 11.176039853167637, 45.429764016791310,  3.989307308196929
11.361595014628083, 14.979518788682674, 64.986895715128171,  4.127603138929519
 8.208926992733081,  9.691126749288326, 49.056722545573059,  4.019143732822184
11.307583309473204,  3.911076799028411, 18.391215470877839,  3.952011955734828
11.415954747794210,  4.563952900849768, 48.893974380414946,  3.922054520826014
 3.430838801011726,  2.089708830700678, 20.432111059024944,  3.742350503533748
 1.073169803966641, 14.792500426882505,  3.980009897994640,  4.144011378571609
 0.168498884950089, 12.439832720629649, 29.378550734567433,  3.890412274452556
11.481829489746975,  8.082162833096810, 68.004335421544042,  3.891439499575989
11.253092825611684,  5.330303674447088, 88.619276026187862,  4.141401312976445
 4.017916771408518, 13.846100118308986, 56.659266457530876,  4.120059872421998
 5.776076625891122,  4.899277704350086, 67.008899415409630,  4.077130238653459
 6.463021093785743, 14.374774697370892, 39.716258460331296,  3.786675548385441
 1.288010640948446, 13.726573442346814, 90.247606153105068,  4.171717218022471
 7.769382623882814, 14.950315445785707, 73.880438867470019,  4.305873384194411
 5.220544787213129,  4.987824947722467, 93.019165830074670,  3.820532835977335
 1.185816740767830,  5.214159106545678, 88.402369723317619,  4.112893265487822
 3.028247959874020, 13.059423747939228, 86.790858091630426,  3.564648804844417
 8.442093511185641, 12.813846778061263, 32.674170296240092,  4.065225609406829
 4.065814701743956, 10.330434320657110, 18.495201024681773,  3.586315892609677
 8.321315553037481,  0.501405758491368,  3.711378976848628,  3.813667343280520
12.976241279830546,  8.144658245435245, 39.617093174601393,  4.054771474534443
13.174252849997973, 14.649275735601655, 92.989654468654876,  4.172012720398109
10.978342889731046, 10.657226675848877, 64.827254610397802,  3.789341093837975
 3.248066162835702,  7.945238914314566, 65.758558754048792,  4.203598842923542
 4.513354771427340, 12.414494586888814, 92.464014020560114,  3.721469877596058
 1.677398583430691,  4.311425785305810, 27.742253301211260,  3.766268580695012
 5.078731245309704, 12.562203185213336, 68.053632593665441,  3.970825253826128
 6.110832425617957,  0.956344792189845, 92.790926312680554,  4.146448797674821
 1.511150495530338,  5.045197820623692,  9.212245851237967,  4.149337126824358
12.498320667528334,  1.732054794365113, 72.227298404129968,  3.680377079887597
13.873499818738782,  2.454504193970367, 78.687665180986215,  4.197290349571466
 9.448969264585275,  2.148120716086380, 41.859701434082048,  3.896302054355368
 7.196542433573895,  5.511129709790066, 42.249993463245467,  4.012076323135167
 3.653941863762681, 12.171590626267406, 40.990258117966455,  3.787978396884573
 9.664927124773024,  3.528583866389784, 66.340820004132127,  4.257942562683413
11.978047745696511, 12.407264029093692, 12.825709816755039,  4.014337207164797
10.179636751191378,  6.866502876232263, 58.674637087525916,  3.953918580461774
 3.844655673519765, 10.254945699787676, 37.486425407603960,  4.192428901980233
 1.536429593470618,  0.430456780654481, 40.661599812230335,  3.819660554891300
12.453178505538352,  5.821682959148321, 76.889027093073310,  3.945715575432617
 1.986864972313372, 14.720810650314579,  0.070928518690902,  3.816156963268254
14.573610484593749, 10.663018849713122, 23.937394390647658,  4.212132138470386
 1.262795842894612,  5.724614466081213, 22.878740448400446,  3.672098085741353
10.426963285408673,  9.713389269660871, 23.096214069251946,  4.458635996144166
 1.106667749350389,  2.348361872748225, 71.051976484726055,  4.072511203596597
12.246888410371122,  1.462208607724708,  3.643544176939602,  4.234362447076981
11.772263863588623,  0.289750886113198, 44.517819326801423,  3.893267438172650
 5.235837456546444,  3.492503705994408, 45.172406733137919,  3.954031772993500
10.793353133174774, 13.414263700856528, 69.639683380844886,  4.214914164538698
 8.556819656090129,  9.683095858510629, 56.460829926566916,  3.843254526083585
13.463399487637369,  4.093789626797330, 64.775149599371787,  4.034877668573940
11.061425995744049,  7.807396768366834, 51.010203592813461,  3.851494141120876
 7.475955461896790,  3.598743164572732, 86.377495989629296,  3.743352169050540
11.057169489862515,  1.603394915540225, 75.812198178730284,  4.027874894309359
 3.118667143648867,  3.499819696457526, 81.136565942302795,  3.941822711108899
14.470153799163676, 11.445943717134680,  2.536181834991385,  3.850545776749229
 5.325190349166548,  0.794004516789885, 53.006686811120900,  4.006294785427515
 2.473555168686261,  7.243481425934955, 46.178307740858621,  4.031415984416202
10.407283370161114,  7.360618704740021, 93.168761573235756,  3.665663285179600
 5.507474493386613,  6.841485965194360, 62.605142628675047,  3.856766959915864
 6.517802638350657,  9.264246563352884,  7.902133011087629,  4.090185120553049
 1.067895452121731, 12.003354789958973, 74.396982690632740,  3.753029346620144
13.820851991514106,  0.583715232799770, 27.938942009345425,  3.600408101439676
 3.909505287420390,  4.283820436337876, 85.134995885404564,  3.929664159316983
 1.117620123735743,  1.908966595382703, 59.134537808142504,  4.021516316279659
 1.426875856896154,  2.427774343425409, 45.702778831997961,  3.802988346031911
 0.266894682841512, 10.195799127192164, 12.540142306715721,  3.990423306299927
 5.204100173722375,  1.604359909046684, 69.418143503137316,  4.114174904934480
 0.964756110174672, 10.652734578154753, 55.801259630163727,  4.220683612918497
 5.015082377795705,  1.502167335516957, 10.659993044997726,  4.228914067540343
 0.947286877084527,  6.451171096257608, 62.616203923604687,  4.095044672252771
 3.363487030153542, 14.418057704837674, 37.376316503010145,  3.976902713911696
 0.687582530617642, 14.602140991044964, 21.904948867380412,  4.003353152991950
 6.063403813692329, 12.346945836426947, 60.172449270916495,  4.009283684115603
13.138342556109151,  4.079835329185007, 29.033584064728682,  3.846261725669760
14.120162672529423,  9.732106953574833, 52.369880191974893,  3.816136731296638
12.419232482612742,  4.494360584615039,  9.077595955889745,  4.133238095199057
 3.306199191222795, 14.093998432017610, 71.969599170608888,  4.024792830911739
 6.717223566560850,  3.191242518252165, 63.457501646864571,  4.011600167737830
10.087899085496060, 11.115055079912139,  9.280288861122317,  4.409744748932352
12.413645589228034, 10.767113957532978, 86.335013650165536,  3.769981455547470
 3.110237506600239, 11.764991950824221,  2.015228337941328,  3.604073632787291
 4.709076112029692,  6.459885026605297, 39.085307703474797,  3.918329567581604
14.273889565444241, 13.004147628471745,  9.363197154727962,  4.021884799780640
14.199490147037110,  1.386990702133222,  7.236012907660704,  3.916266078492654
10.502970479268017,  9.271759440631804, 89.343051653124789,  3.893508932579588
 7.211343803343202,  4.795642157097760, 60.067591730676696,  3.497726554462014
 2.983998056839346,  0.339906103429134, 83.671078291151716,  4.135818443750491
14.157397231635970, 14.237247191871603, 51.628143214671432,  4.110571959430853
 7.513354955020206,  7.408488773549108, 87.062364094658960,  3.941971999596576
14.070951290860677,  3.451328489640507, 85.362691299503311,  4.114925005446930
 2.715802952835263,  8.701931082317365, 72.197060296613458,  3.939473266282118
14.955613111705278,  5.977486296567252, 52.172216969466660,  3.785859539488569
11.725928575728373, 12.369151652385332, 16.788838966586358,  3.927150138599143
 2.294857639526962,  4.974160194830877, 42.872923137713578,  3.973321262008693
 7.466663027679866,  2.913798336255522, 13.817567842685037,  4.060846222880919
11.928407528469535,  7.389551785620776, 54.984239886750281,  4.261663357981244
12.524127783490906,  6.126485869206335, 22.017410446939270,  4.109108715935323
12.274663432361240, 10.519088368082862, 58.027368425821990,  4.387287165604789
 6.273473483680292, 13.836463764718811, 19.361244895320809,  3.857566383612591
10.832591818771135,  7.712650544986401, 46.384122809251160,  4.050510870707681
 3.855089060651745, 14.898398561576515, 43.870611211868521,  4.151569050383480
 0.656795238938492, 11.030006477673204, 20.207605822883341,  3.595407370749729
 2.380382573340521,  0.763116684559475, 29.347496017275368,  4.135555217733512
 4.738904066818896,  2.693480132482885, 40.681536995447658,  4.000776995674257
10.804022940598804, 12.932224264856645,  1.967428038952963,  4.134367938489534
 3.315847766555460, 13.947160594934807, 62.362200976915169,  3.623666049358740
 2.696479526935684,  8.544635104578020, 52.423122466037988,  3.788553804916404
 0.344183175916685,  0.280507162958376, 64.934052707058953,  3.941084113839341
 2.352409366760801, 13.968950298187307, 18.095311822009126,  4.385124051088964
12.624076804550498,  5.452010571320657, 81.141221559464526,  3.916231438922224
 0.628822754946222, 10.110601830308287, 88.386060837319874,  4.033343819739557
14.318173176040453,  8.798203231743861, 65.407899593115786,  3.925215797384950
 8.616732165031411,  3.189418318992418, 52.860111518188809,  4.134783016289211
 9.292461929867533, 13.337747852694589, 42.013751872490978,  3.770951951501876
13.192362038783649,  1.025848577861554, 31.859539239083496,  4.112331370843465
10.087856793976648, 10.937613761857294, 78.442615590899180,  3.985723595214331
 4.550017097629124,  0.589608832177425, 65.583748545678091,  3.916735458582130
 5.677165093389119,  7.454769556279249, 83.213269546978012,  4.034724856214829
12.637097008685906, 14.697083722636462, 40.850286449846038,  3.747572568156767
 6.335923126720601, 11.820553246323380, 43.730481817273393,  3.702590863515297
 3.756753210821623,  2.917951081469469, 56.158661883867424,  4.170104869497538
14.000639248211749,  9.952566735406695, 71.848410478326315,  3.994275464659299
11.208745731568840,  5.441195030381805,  2.969200834623470,  4.084926008508013
 7.180485850977398,  1.087799198333756, 35.680844024723378,  4.028960686600732
 7.552681836347250,  4.064636827808610,  2.006866996947100,  3.960100538287620
 8.512993965399245,  7.479900170218773, 65.229513725324097,  4.213382810378254
11.832594724470750,  6.279582062657272, 72.913631462439724,  3.973180948682213
 9.872139644344728,  0.480140106092865, 90.400671397309168,  4.024469157554210
10.007110409602012,  3.637039186458574,  6.127282336089190,  3.564320396544414
 2.868680049947286,  4.159206659921413, 12.968749337553289,  4.014938653827935
 7.645564135196083, 11.979325960696663, 81.478269617624605,  4.068019174012631
12.516497210705467,  8.975782400267949, 18.957884502607307,  4.243390562271198
 7.528087652002920,  5.027212474658573, 34.496397597933438,  4.181386986393647
 0.843779447684162,  8.316554754279480, 75.727101622283925,  4.079130109697929
 4.621873396706903,  8.731396839309733,  0.193754005542849,  4.084324155998159
 6.899299178917040, 11.840742737499228,  1.477648572628585,  4.032146254964840
12.641357685995375, 10.766604450744179, 31.976189334154576,  4.130241080941856
 4.594812172430878, 10.701116601870499, 74.926959522355375,  3.785092441511272
 9.150662979815724,  2.099096782151265, 70.340086083961623,  4.036511901628582
 4.132421013827912, 12.103053226894088, 29.279248600969062,  3.992826619326585
 5.125461818193795,  4.867968252793568, 89.146551876901270,  3.923480225900698
 7.144474626335585,  0.080574854902026, 84.540111980669877,  4.062442568283995
 3.436978196355700,  4.145217580989137, 48.846858267932895,  4.298164794809193
 2.898217285880976,  8.998035545093453, 22.697011260077531,  3.643127882412613
10.781274622692688, 14.803490477979574, 79.502922602717675,  4.135088468612548
 7.465321041977657, 13.004404666484009, 54.527165694575508,  3.580203872999918
12.448889639070448,  8.442771717759067, 61.791143516062050,  4.187279810429908
11.679034981765808,  4.827885053437630, 32.642719230611895,  4.013568131348141
 9.662070364323997,  2.514650389923427, 28.363137005594272,  3.893409159351824
 2.316805173537718, 11.261996974946390, 77.942519130692673,  3.837269173540290
13.777215950819992,  7.590840399839475, 90.989779913136999,  4.127633245901022
 8.387151308884965, 11.911935116079578, 91.637000656283334,  4.142403990665875
 6.456264451641426,  2.557936312116169, 17.825190544090269,  4.211826492757097
 7.330207189459554,  1.187298520240357, 56.377596897076515,  3.779507259021401
13.239175223824221,  8.415516281953977,  9.504556885529496,  3.867103787645401
 6.988835883739614,  1.588612000237113, 49.002452348405193,  4.433663454306689
12.052897757307539, 10.768970298787638, 92.797257621611337,  3.873434764671606
 0.946420313550018,  5.901892273581109, 78.902472073416519,  3.897897233937613
 7.978331242487966,  3.920794321666233, 38.522844187180105,  4.149879419272305
14.787822959282570,  4.321037555242172, 55.862603083594209,  4.307424355748712
 9.231573713450292,  4.098002092125792, 45.613471929302051,  4.001530988294414
14.688911968089965,  9.653053808585303,  6.102397416054811,  3.881407958475461
12.249203745093309,  4.464538708078680, 69.400259936934376,  3.963482084606354
 9.845324582199723,  0.391338928828066, 38.499448852992799,  3.694397448170079
 1.484415514619657,  7.511402030870296, 40.361246696230737,  3.297047195773030
 6.194922246679111,  2.282101108434582, 77.030823259576465,  3.604558402239418
10.807934918291156, 11.583391286338030, 38.729681528538556,  4.239777811877033
14.314155053323816,  0.387982074870695, 37.341039745323599,  4.163295891862102
 8.023373477485588, 14.975626890719761, 67.182586640104105,  3.809841343743796
 9.902292283963831, 11.824264079019123, 45.807184967925593,  4.450371110717480
 8.142648786859001,  8.020218474020052,  2.222909877725827,  4.032945334191405
 8.517740969828038, 11.841892524670426,  5.304052877504743,  4.235756750301484
 5.127553204483802,  9.546550178087909,  4.215271606674070,  3.807011192030827
15.010476218661388,  3.778694398611707, 19.846683280001749,  3.981335803572299
14.663164728809596,  4.064734095961069, 35.369758045535377,  4.060841590255071
 5.659624955382419,  5.485211097836999,  9.429244884501530,  4.196043616184713
 9.019355458426253, 11.057413197127902, 19.342519689416825,  3.927705462261411
 2.674792510651320,  2.741167112852541, 62.784134890443461,  4.074471386502882
 3.013955202564197,  7.384127441029097,  6.439624796522245,  3.695825129705404
12.509971418066147, 12.761592145786221, 89.549033517661258,  3.760117958122025
10.924330234846632,  0.744752403207691, 14.745019045772448,  4.023460098902740
13.951534797161072,  6.873978832070892, 26.028348142369978,  4.513722838444879
11.094299435147287, 13.335595215515358, 83.477458228619909,  4.345490823548142
 4.969020397558069, 10.264981930290951, 55.111148953888296,  3.881246705445460
 5.396278828017429, 10.862862136085973, 88.927161985487587,  4.168210080410446
 6.811254965324204,  8.260046070136458, 24.162278549562544,  3.620882249827938
 9.672013876025089,  7.302180296963622, 26.653681077079252,  4.171368584842974
 2.786948203455097,  0.014757365814424,  7.629804438710181,  3.843776755279871
 2.829498896059333,  3.450753960904668,  5.654182309072113,  4.079801328293291
 6.489781492546967, 11.684652449820607, 71.666576482326292,  3.981994712490436
 9.318740219482500,  7.440336640237718, 11.262449590560616,  4.048130891863182
12.677832583831979,  2.854889611296534, 52.605320941941081,  3.984120662144362
11.160125929883526,  0.504457884834410, 48.529716890104723,  4.234641984653933
14.214805787028862, 11.995838677125196, 62.966404324821511,  4.086296307368264
11.383803898384382,  5.646161245167815, 42.479123787060878,  4.183507782046388
 4.944160712232554, 13.741808847345878,  4.660717415994325,  3.941746663443670
 1.047029109572512, 12.854522848562590, 59.376383653846467,  4.169314828279484
 2.631716923760785,  3.638005440959644, 16.918274210025075,  3.933245002725240
10.356093873357466,  5.830026735760399, 84.530376328608810,  4.267638131287605
 0.149016839778581,  0.093339067341622, 55.565031976206193,  4.204341020844436
 7.059230342190790,  5.592170835081963, 56.336002074025181,  4.139274877985857
 1.726777105670922, 13.693309460691887, 25.838605774832757,  4.153265933427876
10.581485123164542,  3.766885862861248, 24.711876417322532,  4.038931564923783
 8.671579387521865,  7.455618345885413, 76.632614245136324,  4.299371099157715
 9.229390068310639,  7.398283931498588, 39.711397093129001,  3.496691632537971
 9.223155944295156,  9.759545422731064, 84.442627859935968,  3.884358162340041
 4.681996286078204, 11.071661546627908, 25.094016690987530,  3.612069412824598
12.306192926437436, 10.870811553743483, 42.496482614331669,  3.946816179867375
12.633397556664455,  9.632445202011548, 35.757717610480043,  3.751408677900724
 1.515520820440484, 10.889006830559687, 49.336774195837378,  4.290683247514207
 8.781276712781500,  2.986913546276498, 10.048357688183840,  3.888143438638469
 7.775669224731433,  0.383886075459266, 45.006424480858030,  4.056923487479409
 2.542111970785565,  2.537816956668889, 91.297163201666564,  4.185491597814214
 6.229395400723567, 13.298175288261813,  8.416900178102786,  4.019304656147208
 0.574198242057093,  8.151206161866536, 58.997671178135462,  3.931422968825495
10.751779692097264, 13.793912352906277, 29.427877580241041,  4.130093769221940
 7.341306929691599,  9.798021197780415, 15.939657485668750,  4.054690712937752
14.698074618296324, 14.007746356139396, 47.452435373808775,  3.771221878591520
 6.947725604108166,  4.830651453876899, 25.342968666190629,  3.625314148210070
 3.091847316063712, 11.212361932147594,  7.093687559433921,  3.925584886972543
14.570691333690979,  2.738159412819612, 24.775840541601458,  4.192452744174846
 3.709088373185020,  6.701401946137945, 25.569424431415229,  3.854797863077625
12.543147440727765, 14.633254933345077, 58.581424228091002,  3.879868537518015
 5.177844146330565,  1.327015939132303, 59.787832282427402,  4.225482304947256
 2.446396182060338,  7.741375170049031, 14.889762115418511,  4.078831289834014
14.726399774223049,  2.428422963623921, 49.211485087143402,  3.972381150788807
 0.157720222687491,  4.609103376718846, 74.260376988944373,  3.997257159388921
 7.306593479669741,  0.944389147030769, 25.477849103179903,  4.164796086808473
 6.646765886564413,  7.344656475364863, 45.970246631334142,  4.303196975221560
 3.732440481012520, 12.068178083049219, 81.736657924594383,  3.667407350872171
 1.714088529441177,  2.516519571459271, 52.652507434366690,  3.978878261482945
 5.225305662022405, 11.260897488095706, 51.230893300387812,  4.003149764292385
 6.574662657926035,  7.853391533183491, 72.994618799362257,  4.119719415262809
 6.054850690408057,  8.763566708950727, 28.038276700738145,  4.097310525642812
 7.687479615508344,  5.729455250529810, 49.729817119767894,  4.064081944728453
12.772442953637066,  9.006041493208409, 82.886407532778748,  4.007259286971408
 9.770414767990220,  0.283125967319447, 18.530230946986737,  3.920296606302752
 9.060864329402667,  8.846741134459583, 43.077561103062848,  3.785056131429087
 3.855516278172136,  5.251667863401286, 70.550558053037591,  3.981211538216984
10.438555647719163, 12.853844471252122, 61.530338727702713,  4.173513474219308
13.762964551521357, 12.357358169047222, 67.017132473215000,  3.964052497731721
12.890972135725281, 13.047065565815654,  5.651267594481999,  3.817702654622994
 6.227827380567162, 10.955173924747875, 64.477977049854118,  4.194661524722489
10.703017931127192,  1.342382418455005, 86.505583848893366,  4.117062939286696
13.338388986597728,  1.467332440925923, 61.855006464635267,  3.821632668366210
 3.576821388099485,  7.984087488017911, 86.616774932973954,  4.025548748857595
 0.078270611551631, 13.413578898791474, 43.629647210790196,  3.963544532891392
12.036594111530720,  9.465897784813841, 75.292456121736407,  3.984665448448994
 4.587081261886082, 14.245859635962391, 22.927789062180967,  4.060331361191777
 0.753162066352649,  7.662435112479538, 36.793575346810201,  3.960631744425821
 4.524565412734422,  2.602755678154853, 73.552554748732277,  4.111155635902115
 3.752239064724971, 14.376300738777955, 75.940573851455852,  3.966479891255488
 1.114527370242646,  3.928853997757376, 31.600171416207306,  4.026992032648443
 3.010956459451076,  6.961734927685066, 55.981333212777130,  3.978425484464360
