BANDS
8 8
NANOPARTICLES
cell(1), 15.013
cell(2), 15.013
cell(3), 93.834
 7.250369170784484,  5.579448426425506, 29.846552920628685,  3.717258395284097
 0.938600779604934, 14.455016382515515,  4.551107785368935,  3.981413642429835
14.882376203727146,  3.825819295486784, 60.634937025808746,  3.905954401579796
 8.718992528415408,  6.110281422777055, 80.374516965601359,  4.176381430698769
 2.334302196597183, 11.863176349348416, 54.731946574870783,  4.009912208413952
 4.745868628034957,  4.627453893960459, 67.431506319254382,  3.796647020822776
 4.652070058028440, 14.035893917336603, 57.923042777413137,  4.142838312095816
14.649626491405742,  0.348011397740407, 14.322850024374164,  4.011815882323479
 1.254740814725669,  8.703440569672392,  0.068293232007988,  4.037131134657294
 3.057762507489338,  0.821505163657999, 67.732202647959852,  4.328741429557848
14.116404110336020, 11.415999896398661, 87.924657419570650,  4.154413330324559
13.724519060615188,  2.516453948719990, 35.579251214574803,  3.864923632996201
 2.629569827785660,  4.872981183647570, 63.369686766334560,  4.023010418614207
14.811520799385535,  9.562597424703032,  4.185527796617185,  4.213733381980417
11.713675440319120, 14.097608167609968, 91.099638021167053,  3.969210043680145
 0.298436574236904,  4.536471186050218, 83.991434259932490,  3.986456902792731
12.007430875556924,  3.213250145711092, 93.802146731491661,  4.217231501507606
11.748213594033997,  5.703009851262860, 27.636830495438389,  4.160115654936076
 5.254950767236922, 12.609251643806774, 17.771969857856536,  4.006789502606515
 5.367374162287747,  4.335559830003405, 71.773149285454281,  4.046114264613818
 0.106706828765973, 12.610272678279928, 24.728882466194563,  4.177678551923932
 9.129503398609518, 12.432276254918085, 43.988125073660491,  4.056507178527561
 9.929397748638008, 10.163020427168238, 14.710880747332752,  4.211281261430312
 2.133274880452847,  8.507229364382285,  7.598484377792319,  4.249399988072976
11.412867307302495, 14.012017745796346, 79.569377380991881,  4.224120256402596
 0.464720914594524, 12.202521079514591, 83.767779001379722,  3.734930234324310
14.902866962562891,  8.748370822040776, 33.585900775301738,  4.095045760120810
 6.010100887162264,  3.127531896949641, 23.119952578729286,  3.925530500692742
 9.413930981754032, 14.061215652512699, 36.613578085726601,  3.811358882466095
11.677475264724468, 12.955373880302981,  4.593418800261331,  4.078753436103432
 5.134484581488072,  5.752463646359174,  7.097200089457597,  3.957900012976473
 1.265441824313471,  6.582091693531352, 66.889065458668654,  4.247795360249352
 0.063475721245862,  3.057217488688947, 56.657201497242205,  4.060782483017742
 7.017420124071378,  1.677096255695830, 68.298284094122664,  3.842757078412436
 0.937808079944723,  8.787987106674137, 26.405175828165344,  4.316182769519915
 7.033189871461182,  3.769009430111180, 83.182203885957279,  3.866728354915983
 9.406359372675619,  1.006824426938682, 23.658769200903592,  4.146506683795279
14.838106469628370,  2.173637274918849, 52.544376535999191,  3.778727305839882
 9.823868205088223, 10.816585473516044, 38.903569037723933,  4.148299361274207
12.930035546377082,  6.928404826528096,  1.556403918691840,  4.046220169071075
 7.193250762038876, 11.176135744686217, 59.476000320007870,  4.095958896472370
10.018776286986267, 13.806135190548616,  0.944951892154538,  4.107969590333232
 5.965412331658399, 14.172218640168538, 23.734407977554035,  3.664529966763729
 7.138130897196616,  8.518063405554280, 49.305094469842203,  4.040434240258763
 6.543903863637253,  4.534572046048740, 44.363119921804405,  3.791657230937599
11.591887345327571,  9.538379292535998, 62.634561782797348,  3.849956551221854
14.154217706627973,  6.831481201797803, 90.755116473845547,  4.082911773518707
 5.903120045966432,  0.643307259660855, 10.484144130354231,  4.156794852567585
 0.202168907881759, 10.616631645499645, 58.347070296740384,  4.248919339463493
 0.029825639276241, 12.549367430096790, 32.383081291651230,  3.825065316846219
10.509157400266064,  6.371150436566757, 91.959586642765032,  3.621320480758799
11.649829180724087,  5.167586644493905, 16.721545867936108,  3.788918811531974
 5.619442726161568,  5.184424800403784, 38.001815264109055,  3.850232759699607
 5.335728140613393,  3.758186148808919, 79.478612075851515,  4.157132356361851
 7.490824626453306, 13.600002505823527, 65.880733706074508,  4.054052522702647
 9.496535718412396, 14.584639348010962, 74.762200710166141,  4.173990915734614
 9.905455700047517, 12.610031353081597, 55.604821259013782,  4.198138157636899
 5.049248857117613,  7.710952891955662, 80.065765219827952,  3.832638362608492
 2.010598002057899,  3.728164560534957, 37.530566947471172,  3.940692035463833
 9.128088648979057,  7.188211822209201,  7.573876695453316,  3.815352052453976
 5.809316706132077, 13.842441864390322, 88.388984045158381,  4.018088423353558
 1.889679689959026,  8.331881464381651, 14.809708061875247,  4.447975835687886
 4.249310418119436,  7.901920841473117, 61.056200502186037,  3.924512267467276
 1.901260628273561, 11.087332054363305, 67.640066836675587,  3.862395203361994
 4.065607437538183, 12.430511974367308, 91.730574520192917,  3.862592016498943
 8.006367935041990, 14.360775639325162,  7.124185309737751,  4.159213289690826
 9.166244677891633,  7.751891817640851, 88.679160674511991,  3.680425858030245
 1.319499793882007, 12.454563252340416, 42.582414036331464,  3.641628150788951
 8.870286771130592,  1.909888787457454, 62.629841608156518,  4.069149911452615
 0.209456822531086,  8.670040387953497, 70.310380051029966,  4.040084837659704
 3.137242067685713,  5.539893700889902, 24.595678006091010,  4.131569434015597
14.298065304252960,  9.534798320683690, 40.856308765489985,  3.902474226778335
14.128155284061162,  8.645210040058595, 83.921515870172200,  3.796444693399929
 5.892601381598245,  9.592896888543905, 14.413431550402183,  3.960098413399631
 4.509805371379146, 13.763461709052569, 48.349864818086068,  3.593692577915041
 9.251545193731490,  7.345163585783393, 73.025780392836225,  3.904727427578021
 9.345968173591718,  9.186128899767956,  0.480082777512182,  3.986838219708602
12.396863989492793,  5.079867609066617, 32.846738312991533,  4.056299017088602
12.890596093636216,  7.465116077780316, 13.837731729580879,  3.988533492903301
 1.760601828056094, 14.807111208702723, 10.916748711747237,  4.090634738447654
 4.175098949261772,  7.685830330881770, 11.206085264611778,  4.176194823159385
 0.260225773805840,  6.661396486015909, 10.773666052882511,  3.935892621500339
 4.733189950765654, 10.453340431964291, 33.245427076618938,  4.035950186943741
13.474542498613301,  2.010726772929228, 23.864086147030651,  4.226738652630827
 4.465822106980390,  1.702454357604243, 91.292515296598808,  4.505089436680198
 2.615213599130896,  3.756526923769336, 17.238694254861141,  3.618329219050761
 8.215967546583562, 12.573336094473008, 77.840809876386089,  3.588711057210326
13.551175329233324,  3.347464217813223, 46.190918179926683,  4.290594113079504
 1.917528957670033,  6.287441606572821, 73.044814695377852,  3.914624806108833
 8.225025997896028,  4.561945137130757, 48.430673494638576,  3.978096376293093
12.178376572359534, 13.874353589148447, 84.988233342062173,  4.046198973087875
11.588395495265740,  1.116324556432492, 20.517733616231052,  3.477100793970855
11.255448279593196, 12.028192176455118, 66.131985393620937,  4.108107065608579
13.105341653475600, 11.419798129800141, 52.479339302970338,  3.800599174949963
 8.438243290581795,  4.569339372226100, 33.383876418438803,  3.994263795985719
 7.075759092255808,  6.533019725015626, 41.267584755822654,  3.642063135425065
 1.336501070405527,  3.662382510437714, 21.231646803550646,  4.236276487999179
13.609799306048473, 12.388521194180170, 69.545719296231596,  4.168423486725493
 0.782927172004757,  3.309905876922751, 26.804648775640182,  3.699146738362348
 3.697203123684666, 13.013059310598983, 64.772496898733394,  3.921974214023893
10.224959080167082,  3.207763775007648, 30.253478971677254,  3.659068293205113
 9.836171314363328,  0.733480029745174, 33.137317728407822,  3.944149203368056
 0.852415709485244,  4.693660496583708, 93.742656253585295,  4.008456347315214
 8.700375828038426,  9.957379006228347, 52.871483875000521,  3.739191771741660
 4.917493164950374, 13.589869399097710, 41.519724911093761,  3.900216612342051
 6.040448574043967,  4.409131065323234, 61.564380477810268,  3.743964627848549
13.429573663535594,  5.204417999485715, 70.764062740463118,  3.815695589813644
 1.836934864026426,  0.480517490252490, 34.314768691763561,  4.001450158299247
 8.375476232752593,  3.405749317826532,  6.778832570560173,  3.985818584181789
 8.066428145420842,  8.988847170333898, 56.384650326299401,  3.633601047344887
 8.149672036037668, 10.845893511591177, 35.077387692917497,  3.747897878177376
11.673114117282548,  5.397744128853722, 62.852421739622287,  4.388484292591653
12.584388784852116, 13.561641553775290, 17.723443282185613,  3.826697490787757
12.731612309229837,  4.486777959561939, 40.618778851688376,  4.297488527370448
10.985972735903896,  3.551677476812174, 73.755869153011801,  4.555883493364281
 1.764128309924798,  4.440968512791521, 48.456128605837989,  3.877079932426521
13.967225704588156, 14.782155105990149,  1.076951562897825,  4.013371077689419
 5.230847162578317,  5.607727360553423, 14.990589996875656,  4.179150532093657
 5.890730918709540,  6.900993720302901, 64.502070760820743,  3.963205933153378
 9.706689787366143, 10.869718480724984, 28.445840403021521,  3.987442279408811
 1.856138875097272,  9.741441514285063, 51.347249235450285,  4.030451458488619
10.107658611930836,  1.558080294150243, 17.059134971082152,  4.035336577356682
12.259483229580720,  0.676168723068822, 38.856205728611094,  4.130301834803996
 5.824750676575333, 14.426098428678209, 61.778263921255437,  3.944610660862881
 0.654456734038035,  1.288096377296206, 41.423833208656319,  4.486660668523222
14.440779917421423,  3.049685965825668, 64.961498988566035,  3.972022192543306
 9.555634927631669,  4.218228941297716, 59.310383307107166,  4.123967265472559
14.319482475491004,  6.767871603339059, 43.752168599166396,  4.068489502885891
12.212029183124663,  2.702804404236156, 85.848017840681877,  3.825656539811884
 5.287524010181212, 11.876491528433274, 45.063667334274264,  3.992915519186796
 9.251503451426565,  2.480770368180134, 78.001389673925416,  4.547566489198425
13.770726129659238, 14.301849495420880, 44.887203853445889,  4.136181979806152
14.534475988674483,  3.075728470642978,  3.405884061010570,  4.130729106700000
 3.257169828845880,  2.336653201167801,  6.128954728228622,  3.983631289147719
11.035382292881057,  8.412329452047896, 34.523287727487435,  3.875533977959111
 1.170769182789101,  4.984669029693782, 33.952922995422902,  3.822165015756732
 8.626708924966657,  4.328535479394999, 65.865559963114407,  4.021158687381404
10.737093250745188,  8.794016784486208, 21.409159987514375,  3.734394529948639
14.458688104041729,  9.889564936940340, 21.714068783137741,  4.046012339673654
 4.558252006316624, 11.265745095997366, 78.236744845465765,  4.201271014886564
 2.307984437468590,  0.067686863753064, 17.174088224800894,  3.770698113351624
 0.225681593630189,  1.437389841990878, 91.499350295583739,  3.994887279768189
 2.077973854865744, 14.158503333706379, 89.093154255467908,  3.580270196346706
13.999804318691499, 14.264453227609954, 55.208386484239107,  4.270418675314908
13.032879674892376,  4.413507398950718, 50.045465683328352,  3.766734807178576
 3.983593446965078,  6.263042966622963, 83.578093124639707,  4.031295525990976
 4.820752841472597,  2.567636784485080, 87.026930970094980,  4.032094002108722
13.030527466048913, 12.943129882110405, 75.937491676754092,  3.962372315780412
 6.159702002178871,  9.820205817903425,  7.561301821410360,  4.094817502031315
12.725713553366880,  5.554522481746669, 20.498035237943832,  4.068787041518503
 8.590616397876513,  7.382360399347975, 18.271452959812439,  4.374455213995598
12.305153876034161, 13.323526026983714, 58.696635658496810,  3.705308131557162
 6.765125767619923,  1.535762750896690, 37.768645462510698,  3.812539837578147
 8.448306670900458, 11.391811791216309, 24.690951865389124,  3.993668231054299
 3.499015820574381,  1.899091251320521, 50.948704850566926,  4.023272034443354
 3.134865639874836,  3.780578871323039, 10.076585293586804,  4.215443969444408
 0.653906567772920,  8.124928538131909, 54.972300301910295,  4.171073598691954
 4.109475814665835,  9.521766289796236, 57.452802702107142,  3.980984830844911
 5.068756074102240,  4.984624533104986, 19.806569577760097,  3.897365189695875
 2.843750030576610,  0.814390544836441, 54.760625595385143,  3.963022754711350
14.485467446145259,  0.765448768285468, 82.027790312022276,  4.360842922360480
 2.088627117036940, 13.603414760924805, 75.661230204232382,  4.288475809254688
 1.658213071348094,  5.466667125721020, 80.324251591262041,  4.051334413493959
12.623116548639981,  0.660866933828096, 49.630538098839686,  3.817373504696197
 7.189325327590147,  5.055872748165410, 90.612786211802586,  4.008275795891679
 6.741461402759273, 10.916957510127220, 21.089294571147303,  4.004108304498829
 1.863180961365771,  1.627656933544996, 78.610181590059554,  4.153686296285873
 8.220975670306284,  7.592051998839005, 26.646775863487544,  4.047537868101002
13.907934194001571,  1.592653432676815, 68.872136620221326,  4.392492486476051
 7.851432177650777,  7.646694863382860, 84.148282087477497,  4.144344038990052
14.097745528070847,  2.268625374133098, 17.882812286563873,  4.145561755153059
 6.705171260481216, 10.197926343210899, 41.864572859817848,  3.757057463758482
11.274776594699262,  8.995200750872838, 69.337705051023477,  4.077065773370596
14.868930672639925, 14.056942315303221, 65.559912026533141,  4.172522941592018
13.811148724537054,  0.263671898229234, 88.160434679883693,  3.588998704130354
10.038367665407625,  2.747015874187410, 36.372272831118586,  3.687042178146817
13.753179810877416,  1.326685865962936, 31.703935010461382,  4.236582010142429
13.769101019831178, 12.043865216150982, 48.601553824642146,  3.999467009748956
 5.687565623779033, 13.398016720402627, 69.469210257534840,  3.631877216328551
13.762095323775663, 11.592534075518101, 28.731739296354469,  4.111392125990121
13.354924681234914, 10.154567010352785, 37.110347667795928,  3.835149439137686
 8.938124882187466, 12.958048383233795, 10.824745818001890,  3.868991725073700
 9.880893966267882,  6.628175897732630, 51.450346192155450,  3.870849407924957
10.012886214469232, 10.935694843350671,  7.700973068808027,  3.861419495605368
12.214183375759038,  5.765843947537315, 67.058734639222635,  4.045093631894215
 3.969595474300895,  6.726229948716574, 50.379122343443882,  3.544673528181614
 3.091985066252340, 13.720518555251031, 81.241998567729382,  4.083922291271315
 7.638241872452521, 11.812709165997427,  3.744483641247818,  4.249405124667516
 6.072866773146476,  2.021006166455052, 17.315266477226501,  4.086421288719442
 8.091041937016385,  8.893288454552902, 31.663107470714944,  4.010402987234755
13.413627896782774, 13.681745722515391, 35.643012969973356,  3.769633470532245
 4.590142295874192,  8.630815835087541, 18.066441570487687,  4.015606046150725
 5.856960571076470,  9.991995451195045, 67.225047535428999,  4.245456888441911
 8.113580970237866, 12.335505606878197, 47.970296681865179,  4.157684387415509
 1.816744414767882, 11.674653121471815, 35.848745056414103,  4.155333588404685
 1.631004468909903, 12.070070971157850, 46.143289054068632,  3.547471417436806
12.862226781139720, 14.216880077966438, 10.650577502859335,  3.831359276776720
11.768089084186540, 11.111592472783071, 82.271825253510372,  3.732164888290846
11.622933286488506,  5.211733837206782,  5.291627420613865,  4.015368554501929
 8.084120950009972,  2.504699809822479, 93.423941839244463,  3.775535162629551
12.699389231023558,  3.985474822080878, 80.041521133319748,  4.006229881868461
 5.041671748174124, 10.516191269586981, 83.002636550298917,  4.202585958214270
 1.013470896195259,  5.557971998052643, 51.904966927277435,  3.501969908845767
 1.274135569300624, 11.231670741997164, 18.113657180884491,  4.412266241180344
 9.136210395679697,  6.095054229093789, 13.863127503004016,  4.004305986884420
 1.948892310631539,  4.058775488039960, 69.927748656100263,  3.734649163201284
 7.266652609833205,  7.068496222860602, 22.596627204103708,  4.322768878217655
 2.693671718788996,  1.381760760604720,  1.367812881723090,  4.102186440436012
 4.911188834676384,  2.367947124269338, 47.182929297245465,  4.030061400218228
 2.168262027949062, 12.388951461648530,  1.335071594450312,  3.968076368133902
 5.573298151466914,  6.467635248311558, 87.267647987405084,  3.921838795411759
 0.182032156642949, 12.537001132456037, 91.832865838175152,  3.767498161368219
 2.344776248601699,  4.001217998054228, 44.387444197983704,  4.180019836540613
 6.293127367212264, 12.459356310873112, 38.115515042862924,  3.782661612184294
12.585006464302715,  8.974505912596360, 17.852695626930757,  4.260573065968966
10.906865495178881,  9.820886194030139, 85.868629307139429,  4.083450843646277
11.452789846296390,  5.772448107903531, 83.463879433008941,  4.087800869137566
 3.472567802368631,  2.381312252502003, 82.733874028038628,  3.828208456644849
 7.982666226344347,  1.597308525040908, 71.851502653448293,  3.518143460330077
 9.657592421409113, 13.881835007570297, 69.622372061567063,  4.276499442073373
 4.517408032645657, 14.034607716189335,  3.661465027963454,  3.405845182797107
 0.171185404759175,  7.812449899506626, 61.695852614488665,  4.332890495975275
 8.695242721322572,  0.037337566570611, 58.879423342295837,  4.299971098698136
 6.319033996778745, 10.534460601006755, 63.235005875597949,  3.702888884203403
11.642293813107898,  8.973929962364055, 55.091397023626492,  3.860159782870323
 2.762675479854009,  7.680987482872380, 36.426161258098240,  4.133547407373956
14.455853521304217, 12.126531939379101,  7.576171928051417,  4.204367460697960
 3.076593080791891, 11.259161714002962, 86.645341609795594,  4.197562797371663
 5.261092422709511,  8.266072860295257, 53.748711517055291,  4.123262666542676
 6.995816832724547, 10.376645344226027, 86.933125625535666,  3.838767893587687
12.173020945835789,  3.478181438438450, 89.683022859041614,  3.963178767942638
 0.331482687254392,  2.691970232287972, 73.591796580011746,  4.017676971176349
10.711607722658794,  9.949458714194217, 49.702604887557435,  3.693368286431256
 1.596509193856045,  0.557201463714634, 85.621621203623391,  3.958732794974142
 8.932994936816153,  4.624041463249566, 86.584026140940125,  3.859448732115991
 6.146230298034983, 14.382774210791137,  0.446502555013727,  3.782031069605771
 8.792915964219858,  3.263899955428668, 40.516568603139007,  3.746252034618605
 8.314016003639393,  7.649399785542039, 61.300134876898696,  4.149284407805079
12.530739121185055, 10.292930882819460, 45.065344244496494,  4.261320206527655
 5.858193831052445,  8.952855754439739, 90.504050802305755,  4.161376940980847
 0.772618775221660,  3.448332709424470, 88.158535229902895,  3.873073421407593
11.692699434730667,  2.921599094442981, 13.554526764874161,  3.951535901489619
 7.064147771897994, 14.943268313143134, 81.049610874710368,  4.121584549088629
 7.680507364373741, 14.386908432045651, 27.330861861574409,  4.109936099182625
13.973237676392603,  6.243137288763915, 36.944670299152996,  4.016617008699211
 3.232500027835061, 11.663757436715743, 60.841158531955188,  3.856179489615953
 0.796020769788198, 14.810024039158231, 58.855819840958276,  3.883497294697520
 5.814716699162133, 10.423452581166959, 28.864546204558810,  3.754892012388980
 3.218861287529062, 12.110767401452271, 22.288282695920632,  3.780415896236088
 5.794611155037613, 14.295787437571853, 34.604826045972565,  4.194514136208049
14.968203486177417,  5.284784178126533, 76.658666142439259,  3.913323601490047
12.961693669117825,  8.235387907732918,  7.697899667487862,  4.128046938296184
10.699794749524280,  9.009575919506510,  4.270592647604219,  4.051409245249309
 1.925249708150168,  9.618661027029997, 90.122027796900255,  3.828177370046272
 6.343143102655732,  2.418297984520320,  3.270218801335273,  4.337013500587458
 0.201559360120008,  4.793930843055037,  7.191515708121697,  4.119554896960096
 7.617213520698542, 10.450714486424925, 70.900920998310184,  3.956415379639053
10.402785153684109,  1.769679335324401, 82.455553492478671,  3.996262871966441
 5.489263450164875, 11.604625851528001, 51.380395760009733,  4.064882401935944
 4.191346469332364,  7.015132155516796, 28.141496698658035,  3.830286025283223
 6.526922698185853,  7.460946901735750, 35.090070378246928,  3.719500146899084
 3.766892277836831,  1.813363804854323, 13.909887372127050,  4.117617107017183
 0.727605448272605,  0.027238041056453, 28.504068227530851,  3.691366175855028
 0.044613696145327, 11.356521414408151, 73.082440343365008,  3.672430690573733
11.852389730221347,  9.152582026978408, 25.228008398975994,  4.225887541478336
 8.174695644026444,  8.878725719767479, 11.059060440219012,  4.120933417037915
10.949406222785823, 14.252923131843495, 29.813025730020968,  3.672413145561418
10.888510099643492,  9.797416879663718, 58.841134676137330,  3.881854320552826
 7.291250704865488,  4.790426207191659, 75.164749405690330,  3.731028986474568
11.503976740513409, 10.036269529438787, 90.871973358400822,  4.171722458856119
 3.081439468375742,  0.059945774993664, 44.580221092872868,  3.817875249605219
 6.854069310750168,  0.698808662707710, 44.146554496774769,  3.882273436872911
11.414573171634354, 12.638298843085861, 22.141499724155928,  4.189862505539600
 5.323338327798420,  2.130939013958628, 64.555141682172106,  3.884283123391736
12.023365447250981, 10.344668552632418, 11.110762751235118,  4.108231196739432
 1.111776374834182,  0.610164868504402, 47.909823871870231,  3.965516601443054
 3.748750114185017, 10.519936711223986,  4.432602335410713,  3.919024938833423
 5.181768693537141, 14.467645501836980, 84.529546214721151,  3.840193009700837
 4.742802077591070,  3.323428125757367, 34.566915606270449,  4.139287494183784
 1.489477861756777,  9.670814687136328, 80.768346135332223,  4.353333127819067
 6.108160253573445,  6.061006454300662, 58.008302049764410,  4.085365585494079
 3.572663719473047,  3.847458883242597, 75.658024388097886,  3.958686967200765
10.577141782665077,  4.895030904358719, 23.817930738329078,  3.945942380411007
 8.873934527213301,  5.478942067508750, 55.081360342227150,  3.949993383426277
 2.470832989486727,  6.189516248436195,  3.883398471756294,  4.372338890267186
13.897003489087252, 11.392772814035025, 14.595763919380959,  4.077184980170736
12.532515743739243,  1.866057157188249, 27.734896602964803,  3.674039960083221
 6.480968782421510,  0.091821860387038, 52.860295551158202,  3.788070347869608
 8.685617948504838, 14.376622751060161, 40.510320615286865,  3.942903183891507
 3.729557768261629, 13.100851216879235, 26.786397977358156,  4.190499231974132
 5.307506163134321,  9.824268694092586,  0.744260927047072,  4.207304663094344
 4.889110654052512,  9.487505982321910, 25.103282952054933,  4.109836600099955
 0.474946708778541,  6.055375743282728, 29.928842817426332,  4.620556061343928
 1.187413968996226, 10.671871759777400, 11.164887939322671,  4.262759453333665
 4.729101712402680,  0.796557088756310, 73.450370165924738,  3.889081961427865
 2.043270795030065,  0.909578501218530, 62.524522052844667,  4.137100559104601
 4.554479260328774,  2.209763251620444, 27.211423277179193,  4.147428222725810
12.819997574911570,  0.482990833478533, 62.076022983228810,  4.384847873645493
 9.490170857010680, 12.904934791109209, 62.401195819070189,  4.075331939664858
 0.429830391385520,  8.299912789112543, 47.608959929620482,  4.438031821273319
 4.222762564441028,  6.602302802395243, 32.066446819239680,  4.047528822423121
 3.062653120619818, 10.497230835349026, 39.660491618050301,  4.163255100933956
11.110609699767567, 10.362809913914552, 78.030465498295911,  3.701587756601059
 3.035657722945218, 12.456654918472315, 14.400011408113945,  3.986439176273632
 0.463520154374076,  4.351536914535677, 14.075313311715995,  4.119315246382256
 6.084551750333760, 12.090216400655031, 74.373219732447367,  4.219124607468277
 6.590846217529764,  1.812848104309245, 30.920469248756795,  4.179366898090064
 2.693485256911566,  2.690518827142784, 31.193408704504115,  3.801535353245763
 3.849597656547404,  7.377096593182820, 69.859190191203425,  3.732239457457093
12.185939677208925, 12.789817513011153, 41.610417341400655,  3.714020575459721
11.430932348823339, 13.550172781651865, 26.114185072904004,  3.893045275777570
14.874931478868893,  9.811883997484971, 77.094485701754977,  3.658947649808945
10.375052182293613,  4.814506014020925, 44.051195649751477,  3.906560168230110
 2.849216484197973,  9.292675955029113, 64.379171840730393,  3.744896489469415
 3.113732752768199,  7.717787867145387, 76.603624851742396,  4.055207756023982
 8.847347024812434,  3.766035727069296, 20.413691842775478,  4.002729671822528
 3.392863341876502, 10.952135009281818, 71.269320328766284,  3.962440994439647
11.088925314800878,  2.123398168158469, 56.114162742329889,  4.104741884347732
11.220357900412434,  1.317999583498084, 42.649056320783153,  3.754003470143163
 6.427844048920773,  2.381941284622072, 56.132464063309968,  4.197237076784977
 1.093196680610905, 13.694801244640757, 51.391627253841456,  3.992180812938023
 0.081042756419968, 14.420741986596557, 20.862619465472889,  4.335770716884575
 7.777493508545319,  2.353830198130654, 13.675787949595275,  3.953651918975519
 3.291935366332899,  4.820867677781959, 54.876341332012515,  4.099827704026017
 3.075807027758882,  8.300548011860357, 21.693900345014960,  3.872979217324441
 5.552678785722650,  0.254354606849960, 77.283384481086912,  4.018251353400602
 4.120726881541057,  0.606251831362137, 20.622524988650802,  4.083709033282505
11.411973285303587,  6.862301469183898, 47.380602198958812,  4.129699995285447
11.148301883225759,  6.185337151387901, 77.105149811666820,  3.931035782488784
14.253404419447836,  2.854256715788889, 10.584291121668704,  3.854204479685760
 3.136671081872971,  5.765386509022412, 90.471193833783857,  4.195373059515656
 3.434486272225978,  2.784259640579529, 59.098387754585190,  4.086159583952597
14.269868632844396,  5.955390630854625, 24.075680856953134,  3.733238977587457
 4.324999084952567,  6.804389796849849, 46.629660945315344,  3.978915327942774
 5.146453329060616,  5.522046718179565,  0.439511461778610,  4.397750462034326
10.435577526461886,  1.710576096397755,  3.727842317291321,  3.998453888234461
12.623175917383698,  6.517070146090372, 87.147377635660661,  3.777593981507767
 7.189679016814489,  4.863239217477757, 10.483845221496152,  4.152983656384145
 4.831633316702989,  2.693191258628745, 41.167852569736517,  4.335568939126336
 3.825154265223288, 13.393197883825531,  7.471945661736537,  4.424261614237199
10.705103531170272,  8.183710164946364, 41.939218207262186,  4.068660433209261
14.677040023288731, 11.816376120745865, 62.252270043271956,  3.794277309074853
 6.149688775818976, 11.780403458655265, 55.148731324869445,  3.547854008990250
12.945599414673987,  6.345191384866846, 58.067446158656622,  4.250391622829119
 5.391628849043144,  8.177335168481763, 73.313836323619370,  3.999313141222868
10.911318718334416,  1.049638615855345, 65.999136208611034,  3.962364558753886
 8.699984515876340,  1.395648218933637, 89.679643784931557,  4.126870335285644
 2.163961138692919,  9.993692275832130, 30.200556532023629,  3.966532321808268
12.805019577608507,  7.912277057817859, 80.366351304517266,  3.866199583654593
12.944786566513672, 10.901491164239253,  0.764590833321234,  4.000645636593426
 3.903389596707145, 10.224798315358406, 48.175605487167878,  3.571753629708731
 8.482839623489658,  0.932406586976769, 85.743619933801909,  3.764236227194204
13.234238150759397,  7.894085162205363, 73.961636578274366,  4.347690066227077
 7.677256035326414, 12.864434047806967, 31.243670235206615,  3.986734981317380
 1.024755305913264,  6.867615199562130, 18.666148398499960,  3.922852965776114
 8.074131922256884, 12.328951439674308, 91.458471149001625,  4.133259398017457
 7.774724175704273,  6.643138108265740, 69.242751391234975,  4.323536573548878
 2.548360517634257,  9.111704780024972, 43.927354355222171,  3.935689768780981
 8.532622457284182, 12.490363909827412, 83.956805720101571,  4.016712117470892
 8.007882862414283,  8.264083886303677, 45.195963826280824,  4.356238432151587
 8.048259451766334, 14.821381295777057, 20.051257230184962,  3.924121650418707
12.753406454097298, 15.006212526455210, 72.489224892713452,  3.755250233156057
 3.154538560028787, 14.905509891816418, 38.125530964268016,  4.143287820138285
 6.954820580771691, 13.474290450156825, 14.213479887265846,  4.036035454383773
10.037166119694891,  2.594037311585550, 52.088633871982076,  4.265141535798231
 3.646916665257730, 13.777921987306563, 30.983594634220609,  4.288647233686111
10.181486365959012,  0.758281862409703, 46.446076317914923,  4.193223080662715
13.465048677463498,  7.948368937550040, 51.138955389790127,  3.666052297226990
14.970232957818107, 12.878496156529813, 39.169138774743551,  3.678876057079233
 7.648783707256287,  0.906198724042058, 49.430285530396390,  3.632976526005517
 1.575042326991750,  7.282420651786190, 86.828180172168558,  4.277754594791914
 9.905796727611424,  1.782584944461007, 10.136690191220607,  4.074099895441905
 0.077751642576378, 12.926083306960194, 79.059716058493080,  3.483012232196641
 9.863744277535289, 13.459917967695581, 51.531086461823776,  4.076690321795515
14.262322503190671,  9.645961111946043, 65.323669573011841,  3.725802764424274
12.783066830951995,  5.279673005786298, 53.953767200012216,  4.182540411271395
 9.411331567899772,  8.395677410278786, 65.760480030200227,  4.065585539036075
10.894419297181503, 14.077782328654889, 14.014741825723581,  3.928173979319421
 6.348896092502755,  8.797360316681031, 38.486942457112512,  3.579235992258663
 2.278927472047639,  0.918448785581690, 24.244548269220136,  3.733518607248709
11.190671105813964, 12.011460049617977, 32.931896909611410,  3.992171195752634
 1.562077155636593, 14.515909924499008, 71.438687893861939,  4.043625409344815
 2.394193780818600,  6.344402088295470, 40.769899910831533,  4.417109965197121
 9.484534812716070, 11.496581627713987, 18.426800512822950,  3.726323148753689
10.240055771837513,  3.387425685971666, 69.542629689308484,  3.862424337613290
11.363808050217235,  5.604181657899791, 10.454801502230172,  4.126601624869588
 6.343892399649600,  4.435084993250686, 52.201082880594214,  3.990733741602861
13.003152277963210,  1.152923811570792,  7.020636863745793,  4.389532698484788
 1.953775716692664,  6.365609614090080, 58.318596256963879,  3.804237151539158
 9.704072088060579,  6.510428835166272, 38.065371027958797,  4.582952721248045
 9.643095130730901, 12.983598890300959, 87.865246829933270,  3.811635594909573
 8.456308547702527,  3.404004056013975, 26.847318076772499,  4.018382560577491
 5.208880244489428, 11.665892662479521, 11.067012324143040,  4.018395264726827
13.267659470705015,  1.750962810966082, 76.826953692097291,  3.896892353604335
11.996350687269048,  8.487776417769146, 30.697468173804850,  4.004264986822792
11.118603456086522, 11.353723709528904, 72.715355074769064,  4.134276996338197
 9.140093049339855,  5.442032735780274,  2.050453096114667,  4.101031846893693
 6.610726548410291,  7.843579402043925,  4.070796340674272,  3.936725741640102
 8.397368885873137, 10.150936207252405, 80.729445588040974,  3.926011153003547
 7.640339550992183,  8.501088803609745, 76.898929792368548,  4.485834477476997
