BANDS
8 8
NANOPARTICLES
cell(1), 15.018
cell(2), 15.018
cell(3), 93.865
13.008829926743411,  0.136293659815583, 84.293183554259272,  4.100033755717193
11.273794193548072,  2.106731610874627, 81.565855198974262,  3.438116050599040
 4.539483496263991, 10.523782659481119, 25.751751336341666,  3.951727247523567
14.145853786379810, 13.875239364748682, 88.830978730811992,  4.387670584918514
 0.074479633876418, 10.426686540215352, 63.475185265770484,  4.285515197429779
 4.801917120237080, 11.326149533144196, 62.584831467269268,  3.920845088087765
 8.991136291775907,  1.240668382897614, 84.506605484121721,  4.114757555391892
10.546906269110686, 12.337931320870622, 43.502790651209033,  4.029273189498098
14.166040332155035,  5.762848727552524, 33.467888989395746,  4.225418448370985
 7.936115856276639, 10.931992021897214, 28.416618952182116,  4.188964158761884
 9.936496355740537,  1.582374556643953, 49.406451140129725,  4.288907787811074
 7.371125558060448,  5.547298233993311, 78.035887293818874,  3.940198767062265
13.334838294898852,  1.467172484509141, 70.951715304411493,  4.024145937434306
10.902161518973960, 11.259864971530218, 53.863985951374360,  3.766165869327056
 0.564279927845804,  4.065074926008577,  4.595263770072390,  3.795399868381650
14.791205157127271, 12.226869203990287, 24.898207197288219,  3.991859737403610
 0.452140776700129,  8.606604055590442, 78.290308206725825,  3.974126551897380
 3.511357007006444,  5.115918883938898, 12.547694725441664,  4.076125524439028
14.570411797903077, 14.439516168076384, 64.671896363061776,  4.103979617774884
14.640055071943330,  5.016630616818261, 12.885894487376410,  3.728766004662393
12.586633784799583,  1.326628241727905, 67.279428449867225,  3.471522464352064
 2.067149505451558,  6.404197023059506, 54.554451369907106,  3.832490837808939
13.103941056151712,  7.273565801521037, 20.215956673185961,  3.877277636411257
11.930154735419444, 10.440485828438755,  9.936845903162517,  4.309033753159438
 0.018028065403238,  5.402800009525635, 23.114092096769767,  3.933038169720567
13.842971291586691,  0.956341361583261, 20.590982219673549,  4.304799917303465
 3.480016463892068,  5.659762537226379, 68.965048220257884,  4.056875657224332
 7.869257946660468,  2.995224296318669, 59.916238820898599,  3.924099479374143
11.420365040249385,  8.672435349081942, 64.491767504497886,  4.098650087468371
 7.826370114008658,  3.711781308011110, 39.478831100721791,  3.921725011906857
 3.035957965824833,  0.452690086270502, 70.293040686247849,  4.321720663113891
 7.524068471310231,  4.694796140075900, 50.482764725945273,  3.871066262986974
 9.032375967215218,  5.086939918687428, 85.761349649779348,  3.934952113058364
 3.729248136406763, 11.326384679006424, 18.360502203657038,  4.101585431387012
 5.959266386310133,  1.805583282635644, 35.619591576519241,  3.845197545573587
 1.917731637750076,  7.884596225624318, 27.146376835029386,  3.932051325443553
14.866485971659261, 11.571439314514148, 42.232418690849649,  3.908903810215851
 6.190314426557953,  9.722844437704296,  0.183524649971866,  4.011012314040760
 8.200894842576073,  5.016531460273693, 24.571688167104899,  3.640176529348032
11.187342827806164, 13.899493137821731, 23.068929674238817,  4.022572593099757
12.183577063420863, 13.701107257975099, 12.671135712833681,  4.110453693748098
 8.456570570270868, 14.278904191195510, 46.315395894384459,  3.981927375176270
 1.392049315209006, 12.751749481273714, 35.091157212383408,  3.868666746742996
 3.920095716383258, 13.947251714127704, 55.069189277797072,  3.943300811159173
13.517328959483580,  6.769594878033953, 87.581077949324850,  4.202183216158503
 1.057258255974634, 10.714734840446203, 48.719764052146949,  3.723110111344698
 5.057798374230473,  1.193335260170434, 14.138380987678973,  4.319170915546453
 2.809963425847469,  0.426566011225659, 18.915355081528471,  4.396785372067714
 4.157869285867196, 10.480569520730793, 83.470443064150729,  3.466805776028329
10.801726402103750,  5.659441168447212, 31.231304645474928,  3.816573156163747
 3.196046767413750, 14.188724117282982, 25.146190785110978,  3.854238376853389
 9.639393004161521,  8.294181343260567, 19.993033899940645,  3.356017038909493
 8.288664202693223,  2.429933052242492, 90.672123894136860,  3.985696177732274
 3.996994560062201,  2.550345919645928, 29.718630706039470,  4.070265815816119
10.162147330494873, 12.618907737827730,  6.635216013583056,  4.218681225947040
 6.752447864149863, 14.145004828978079, 64.385780305624706,  3.783053600271934
 8.299423559451443, 11.300119614023062, 77.661335790976167,  3.980469310277891
 8.842256209057687, 11.269146587102123, 62.742637731856078,  3.913458103386354
10.005379911415710,  5.300835054681460, 82.175407308870192,  3.504152518204944
 8.157901006253452,  6.064819552921575, 57.480312655159210,  3.908388364612821
 7.177831479617732, 12.031562047164515, 52.901546356398448,  4.075800727779542
14.446366274500352,  4.830231468840473, 44.953366390674660,  3.925847869893740
 2.723383531703258, 11.285606735572721, 70.178479070252564,  4.053450090859616
14.454395413266676, 11.531739975783687, 52.182936238852768,  4.096639578563933
 8.125113846860215, 11.643548749585358,  3.241478441549190,  3.895056409610068
11.919665861980361,  8.533176200377595, 35.462193502083004,  3.945789499097072
 9.371586705125694, 14.327086900378692, 15.800232851124134,  4.351986643931476
 7.295329491573206, 13.475167521025238, 24.922356772860912,  4.245125187537318
10.889638844955904,  3.346000276654053, 45.807653117784589,  3.920990840115647
10.474830568541879,  4.579474908989003, 35.433404734695024,  4.466536423112461
10.011558013480757,  4.628389997586417, 54.144704785557863,  4.244958577383023
 0.312845169365939, 13.381054053849549, 72.995177715298496,  4.356535219033702
14.684355115903289,  0.197054276906795,  5.121853543276826,  4.180700404038911
 8.704902784264487, 14.134722013668593, 60.011542573385313,  4.003363873751226
12.894294708813405, 10.369405020936725, 38.955286998184029,  4.109158571518680
13.433368430268532,  7.076284719426890, 52.651513485135858,  4.485127594410219
 5.623147569442370, 14.462226394412275, 80.179362664375589,  3.767133076545555
 7.835885884661251,  8.214545341652558, 74.840583062523052,  4.418651185609545
11.659800227682293,  3.603251872105925, 22.703559473314222,  3.750313530938078
12.371674525339817,  3.279081654183900, 74.415147612782619,  3.989374725040122
 1.282941359785181,  8.492664530124497, 85.171816628076954,  3.927503729434533
 5.632127388605061,  3.970820803859336,  2.790109512417187,  3.725196227456230
 2.607386573251370,  2.693687480769114, 55.404664070891428,  3.684183143978264
 2.497012279999769,  4.795086276147698, 79.287978652281922,  3.964155494530978
 9.561119614653087,  6.189337491609944, 61.925490618005860,  3.942195367461951
 2.416541133104297,  7.918440706513665, 81.544937074406960,  3.732440864344200
 1.813082270873033,  7.799841145847018, 39.461740310966213,  3.967959986569709
 2.872096646732308,  3.862923396221608, 45.897567608707817,  3.404267726037260
 5.783857408435500,  9.077105359621068, 68.578487531764438,  4.122042214458864
12.448396732876025,  6.113947607176081,  9.941855036280598,  3.895649876438997
 5.371585042327662,  2.142941829019101, 77.304037683197862,  4.085866908546191
 0.865623800480056, 12.158770393406336, 76.830689085295319,  3.702408141209870
 2.310305601944261,  3.429007007573103, 59.277317236693079,  4.188581728869799
11.649242000894315,  4.729053263885142, 58.845465743873838,  4.010170717069379
10.160560009281379,  8.296046693431142, 80.083254934370288,  3.772204660132230
 8.356707938195866, 12.579612073214298, 10.632186337422340,  3.998596174046234
 8.329963779648130, 14.828381745016623, 75.994447856433553,  3.812348814697079
13.948538816693434,  6.794171171997172, 29.386367524335043,  3.815512486090809
 9.875898256210371,  8.725976016539656, 87.077543768377780,  3.985316412062997
14.210151353039565,  7.732854227669709, 42.366324350472446,  3.853861470288213
10.762262558574468, 13.457262129029317, 68.928518460373922,  3.974573316060322
 8.325085800285791,  5.774585920744511, 44.331515895178825,  3.728541144380808
14.138886382599505,  5.853631105540300,  1.431470332862168,  4.018374580404741
14.959327315847112,  2.527373902339433, 81.700478322353504,  3.959316363642180
13.365303503127938,  0.089044166081367, 41.874243265882782,  3.791276867652221
 6.196223902161289, 12.327683860770136, 14.000600846113251,  3.743285021459839
 5.724904772416556,  2.271260582639554, 25.943293644754352,  4.240710588180095
10.304230571371535,  2.726580798320961, 77.903003868704047,  4.193904758693416
 1.644394490615182,  3.161707370323723, 15.796738595863211,  4.219839668183131
 6.973350734898419, 14.878307314805786, 87.827662987368939,  4.109864983755936
14.344920761215393,  9.555169893327507, 93.543599330512507,  4.131385413798272
 6.885532560387872,  8.775418691104074, 60.218661284493379,  4.187321152945909
 6.378569457494465,  8.369076842743631, 14.288374183410209,  3.741026093185698
 0.032716343990876,  2.924066237083988, 89.744961596909164,  4.117683558675080
 3.417956295708257,  9.742583587231959, 33.547159404962031,  3.936847536468016
 2.357583946494264, 13.700457963139863, 31.469405915600010,  3.859562046396882
 0.824787711065331, 12.664332037157310,  1.937025014663179,  4.098257795721429
 6.659184872686763,  5.351748517096261, 36.305778106318648,  3.500064950087043
13.798919598354031,  3.449976174450773, 55.550745550076925,  4.086793469716763
 6.704736017203491, 14.834399561172248, 39.021258884063542,  4.154323578732065
10.256351648165865, 10.611823650868836, 25.101287760752804,  3.921371928707623
 8.207092176057809, 11.496734458128198, 21.347475222055238,  4.122671505094583
 1.421929329568657,  0.602069708947033, 52.373275304221444,  4.041911306008108
 2.970720200798447,  6.059767099144685, 35.303238358630907,  4.271422979171168
 9.926002183890310,  7.403216995763203, 27.491851002230579,  4.106271336282323
 7.432933419817096,  9.615015056341495, 44.153908117308291,  4.159658831069140
 9.112088630667035,  8.285501175064271, 51.739268947039392,  4.330786320384988
 1.761760649993218,  0.141835834830868, 92.282187306448094,  4.150304991867005
 6.897558965339053, 11.233529624605749, 85.955225183526565,  4.063148251553101
 0.461412816556075, 13.281022329288557, 56.881707429549373,  3.943154038488848
 6.620679590552855, 13.481712350438004, 68.932284870421569,  4.306716088659187
 9.467125290757187, 14.305491614873395, 79.972347852408930,  3.936269705130572
 2.595739924687990,  2.194899335783753, 33.544721742990724,  4.079380758975235
 6.478149881373492, 13.188873586280133, 91.695186042413013,  4.360220198347814
 9.720372931715419, 10.752046084449429, 13.828815105111167,  3.816841745998609
10.458575008487811,  3.955106925916313, 69.982615531663782,  3.797118606038990
11.176835828983878,  2.878661058987662, 14.849509286877170,  3.838279554023382
 3.684333466661167, 10.163691961788199, 42.309681077031001,  4.252225792510504
 7.690665557605721,  4.560067041860552,  6.213293458063847,  4.338530382420739
 0.517571429980642,  5.858621521846533, 75.179132542763128,  4.313023101793084
 4.065224856111091,  7.553799445754536, 76.773621672891082,  4.130890062486898
11.645596344055969,  9.279344595206545,  3.380922426771556,  4.487217083743092
 7.971752874059183,  9.929067200141086, 56.351987029383572,  4.134211499710979
10.972291050968112,  9.371394090015938, 59.925390748461965,  4.076810171965980
14.866984387085553, 10.918327426743790, 17.343870082169985,  3.948773560552010
 0.618502018763770,  9.175083990145341, 36.090797204344732,  3.692464584747583
 4.838345321829253,  0.057026329217006, 58.951342025905916,  4.222528503678626
12.739534788960194,  4.751453491097615, 26.284664513245932,  3.989791676621243
 5.011515220443879,  1.581039065759145, 66.784612444842423,  3.910224293423460
13.557374228443566,  1.986683492367564,  1.765853043316566,  3.749346920714978
 3.627516719829339,  4.876963080666155, 64.985440930466183,  4.025519220355512
 1.854824890534176,  3.885003856894418, 26.432643291599351,  4.192464784488276
 8.499159162770775,  4.833709177682200, 20.749993253954980,  4.028602275000581
 1.523047553330793, 13.850702628097212, 82.803052076843514,  3.991819033299244
11.928820577737323, 10.404166374602324, 90.097787414100821,  4.049911608312549
 8.897473829899363,  1.561592863130668, 67.405524515020403,  3.890081589845103
 8.746984390034592,  1.295699958742261, 12.136143305946193,  4.066896144864294
 7.125166426491859,  3.177470358191583, 46.903213858041880,  3.883409346860193
 8.403913363195723,  3.995231318047837, 74.439799634694936,  4.065650480945362
 3.014179598331555,  8.698357259405084, 65.679950475519661,  3.826249987755090
 3.966975403194771,  2.738423585974423, 49.278813450761540,  4.040959123906929
 6.352100030723266, 14.474963150119807, 49.748122709761383,  4.053147567801850
14.605792408080097,  9.755780308259769, 32.063220614796776,  4.263272117786921
11.605177780126992,  2.096396324086390, 29.158654120221595,  4.079597001493009
 4.335700374993686,  2.218842424563389,  5.888558910659681,  3.820246872593056
 4.609384186415850,  3.998626926905791, 19.995420451898706,  3.848310280261274
 9.722838747584795,  0.287633469866581, 35.797914923268195,  4.268047585229960
 7.548382590592756, 13.837474846276796, 56.331080938560035,  3.710866207452980
12.310760697674780, 12.948563589441228, 61.517061489497365,  4.163217552322600
14.055644689255365,  6.289083892194360, 91.431614264790483,  3.627109165770269
 7.877262816553720,  7.326266216654966,  3.037327753833058,  4.026516109239640
 2.941989611185468,  0.315902699446793, 37.589614442274453,  3.944340641480823
12.725307516251471, 10.451239269812381, 22.206259109994711,  3.659553370254791
 9.028532956702287, 10.359920396636097, 70.409735307627130,  3.696119250245030
 3.640473198797108,  6.944331724266269,  1.452375346169435,  3.808041893159671
 8.233060808318982,  8.897291902831846, 90.706066849444582,  3.987103179692432
12.488752121486201, 12.408503972369727, 34.584719394090385,  4.063420511556527
 5.837546068091547,  6.891280783889533, 27.043418547679973,  4.154789678075525
 3.444650015078300, 13.600127927900161, 89.198771859153211,  3.414193588029204
 1.529519618820925,  1.785249510025389, 75.051616201211587,  3.988266012136399
 1.847871742307956,  9.069159732716532, 23.033471977078232,  4.213969404848307
 6.180345100636526,  1.127261987954382, 22.068783625047161,  3.851272019053161
 0.647517179786223,  7.833979175191962, 71.336478402132812,  4.327697954281660
 1.955605365868566,  0.355081530877028, 78.879483002837247,  4.219750241913554
13.388184452614002, 14.111922324986027, 80.389812412968766,  3.951698593491447
 5.425501962645921,  3.289114972162845, 85.653620707017794,  4.029562369279989
 7.398308146205657,  7.568477415009483, 30.772404252848723,  4.039656530163961
11.594195603779069,  2.356876930260971, 38.954816339737029,  4.151854968648791
 5.374662610799970,  6.390668930735688,  9.243722295508157,  3.846373409732836
 6.508216643046350,  5.641051090607826, 88.882450496253895,  4.164558096086357
 5.143221502771416,  5.347475645759133, 61.384422797545049,  3.841583806548883
14.057329297298542,  1.205719291620211, 24.807643700610647,  4.129391307520476
10.430218067467480, 13.072242491760472, 86.667896835957478,  4.026335813023301
14.999562919821498,  3.466022488463758, 40.889704994049573,  3.951199459531450
10.183070050860653,  7.836748207634066,  7.143925995290399,  4.085816734146047
 8.832307731086409, 10.865987036583372, 66.641239293848216,  3.915885921137533
 8.303572020347712,  8.530769472474192, 10.870015176877578,  4.074889070891532
 4.385087970082078, 13.740431369402224, 10.973408749038887,  3.806006900580703
 9.867103903741539, 10.811895778943162, 46.948378237424357,  3.609827871362620
 4.752040494427806,  9.749064349079973,  3.906407394402387,  3.952425283453004
13.359347884390294, 14.717045521738356, 50.224220765881206,  3.680371158043643
13.427780541451984, 13.585790791613757, 30.674615760502892,  4.159786284457401
 2.560258168957737,  1.418853630329484,  2.329764607003346,  4.224186106762334
10.576523786268764,  8.798204580153929, 41.912163504377808,  3.732241428493707
 2.077506755735664, 12.950475421017654, 14.371919322148532,  4.509829370938073
14.737804477580454,  7.156378630940160,  6.872420874446841,  3.986753969541859
 0.922425515835739, 11.850454503368027, 10.312405049457670,  4.192852525691909
13.141265184478199,  6.297893987648480, 38.744824532369549,  4.052764665158774
 9.733679791520903,  1.431674430402528,  8.200103875012358,  4.051972599439877
12.037723268285383,  5.382802732278956,  4.698694177134996,  3.767888057923654
 4.386896829237579,  4.468321028260696, 74.122432046438064,  4.023341210423139
 6.215996145994525,  8.814474482742767, 80.007932655576894,  4.025686959268861
14.269698142005456,  3.138719565740054, 77.914991673383497,  3.773389085663639
 3.937892175343998,  1.440124435160207, 62.809522481081721,  4.104939554644776
 5.443824216977798,  5.666332622064170, 82.394834002180914,  3.988496701374096
 5.418807935027289,  2.464903981942885, 10.023605221927776,  4.154088643239048
 7.694132430380057, 10.677824689541517, 17.294840188634076,  4.206438716050379
 7.392851960737070,  0.590372769372690,  3.850505377935815,  4.143173499190150
 1.273926358598845,  4.370579142194579, 51.502544816736382,  3.666018788036050
 5.543520774864313,  2.805838003894356, 42.963607922703467,  4.558296085090345
 1.413205598270307, 13.657171865066248, 61.011372467614699,  4.247830619074672
 6.676932606637081, 14.196590023278047, 18.792470496452889,  3.696754361322327
13.538212049803192,  9.993460317749284, 13.728863507790427,  3.965603343863579
 6.065084867559951,  6.214208711944781, 53.932200478535655,  4.209761130448513
 6.489192068918549,  2.649917992501910, 56.095075290513947,  4.165934747597722
 3.222334301384568, 13.161382928218643,  5.288406273591503,  4.018660731944935
 6.032808478392593, 11.587291707780942, 72.743378106906718,  4.278183780751766
 9.126910852782872, 11.222030295139831, 36.650105004645589,  4.158030271179848
 9.875868989337157,  4.045793062466962,  1.747682272296217,  4.020466328157650
 9.760569306369282,  1.702156544444317, 25.453405433482839,  3.893582072081078
 5.497518003870963,  1.796800464048335, 93.410631087786271,  3.891173708278884
 5.518059648431837,  0.753052278779028, 73.529328143654993,  3.828859570865280
 2.107447946159157, 12.440573726818878, 45.275527126566310,  3.851818922116733
 4.947379904270110,  6.721488992446666, 45.564122257749467,  3.680783459105109
14.192456290040235,  6.407249988014004, 16.487034234922021,  4.040664063651827
 3.420318136444387, 12.243369755643801, 51.399837734572905,  4.021246322944762
 2.856561915506420, 11.257645833543121, 92.494230108944222,  3.950537106364928
 7.784965800206979,  5.490687447611166, 67.389501918241336,  3.754638977411451
11.439143114100755,  4.899773377832034, 42.163989814822962,  4.036506630597827
 4.122494055766942,  9.875650189084997, 54.719358967494529,  4.223785827466942
 3.103518209899253, 11.435847540650055, 79.954644774202961,  4.108043232478702
 9.633531540754076,  1.068127818699254, 20.187945977161050,  3.847030826293677
14.816290779123474, 10.289213025691460, 59.386298993914494,  3.886420080775115
 5.068184543445596,  7.700762161448080, 85.741812800425095,  3.879687959562698
14.064373896306124, 14.222959874004587, 37.961934734000742,  4.095588093089730
12.850211965236143, 14.752570863558455, 54.161138922142428,  4.058880585430171
 2.045184687218621,  0.330186089516933,  8.358250221866500,  3.854795963046263
10.982429004852422, 11.906117231821264, 82.802438729171683,  4.056843443818750
 2.531209043449076, 10.118108231836876, 74.146940065413460,  3.817460098351279
 9.630744735875696, 13.554481017563226, 32.055940148066568,  3.902925892244257
13.002247366367229,  1.709098000169030, 33.395554843131883,  4.195692761986552
10.877787208642891,  6.774718600013441, 13.679214728821488,  4.311385867189245
12.348139991056858, 14.802891539715811, 46.559571459135071,  3.884362665572985
 2.407730341805225,  2.189394712418586, 22.722871529034968,  4.021074223508547
 5.298145752372386, 14.500660448314029, 84.108574582348311,  4.062524303866136
 1.145487741731621,  2.427449828961937, 67.064306610883506,  3.983574143939156
11.750204647124749, 13.716034608378235, 26.989902640270770,  3.907190788971013
11.541564149197400, 12.633771012933886, 57.486680250882422,  4.052206037520812
 0.736353871863877, 12.353035524681086, 20.917622135713643,  3.902161385585182
13.773747180001562,  0.064043571007319, 16.363634037305268,  4.300576997544423
11.119772523725413,  1.937408710986469, 62.209641067174395,  4.301549762400317
 4.703434195162635,  5.745243567826582, 16.518687601022890,  3.899466307497288
 5.116516198598569,  1.537328728588963, 52.681354013851632,  3.520878034624260
 3.542155611100038,  7.491847195703320, 91.437132599013452,  3.974847849744293
 4.247623079569891,  5.729562154435092, 23.467556904156837,  3.942367996851113
10.402804915179434,  5.647442833795837, 89.877201522418758,  3.850923820873048
 7.959030541601326,  7.606424915105674, 47.787709233709379,  3.994898245836428
11.733307815908660,  6.789806902200921, 72.484540235545751,  4.123989697850853
 6.822017368978783,  8.066284364579738, 64.402353320582407,  4.277288673139342
 6.254968378334618, 13.456786649247423, 42.948159621967008,  4.197010669155298
11.568932695788552, 12.644055926091159, 19.110278158356973,  4.266468725041851
 1.103688864723552, 11.452883729693593, 28.558458554530109,  3.893510882551453
 1.506511661534106,  8.509717541445236, 45.515249565302348,  4.069661038873387
 8.115049639926180,  4.081104743871441, 28.842189382710327,  3.912916337470565
 2.409846325885278, 14.717467174519166, 41.522832573613606,  4.049741687861631
 2.540005262779456,  5.790819443565862, 42.775116515612858,  3.907422945598011
14.756058293059148, 13.533160510353978, 68.621486233154300,  4.008301543941422
14.964629739196901,  6.201169175978793, 65.456384350162409,  3.846110327127601
11.895478728166628,  2.934647154635566, 92.270025847140417,  3.950299605797304
 5.968064363729670,  0.029679183607608, 32.139677960370037,  3.939584039698469
11.437466667128145,  7.838159616705833, 56.266290198459373,  3.911796864818295
11.372527956146918,  2.079002998315451, 87.874381478104340,  4.278841716453647
14.176145933165287, 11.212212984769781,  6.372962387913083,  4.239832246379653
 3.806709849055106,  6.167060114917970,  5.553268127795632,  4.153291172146649
 4.961457098071349, 10.342958420870751, 89.229914952842037,  3.747148195943319
11.244234267739897,  4.551660536196300, 65.584891416545958,  4.236512328259246
12.780446435991841, 10.774910301221768, 71.017910497687339,  3.932617800109505
 0.867320004971600,  4.305822202867782, 19.550356862979051,  3.711114963457874
 7.310865763314978, 10.616336953575439, 40.224759989984534,  3.935369326421721
 8.226339313586228,  8.047674788953120, 34.517037270206828,  3.687128535518717
 2.597961409489027,  6.400284213668319, 31.078870120406894,  4.235836215243143
 8.039982256079318,  6.757531913970304, 70.967441567501766,  3.845246362715839
 0.163870891023269,  9.590573269745667, 55.588650749972395,  3.870211453183629
14.568615670720835, 10.557941699215691, 81.635651758893289,  3.930307217591567
 9.446914907491593,  0.624493853859046, 72.182715701187860,  4.278832152268484
 7.300537334445508,  4.682253402047230, 13.756922377269984,  3.922108420475755
11.537147926105970,  6.582581906785968, 76.727272685087286,  4.228939434859789
11.766437221937805,  3.947699474148637, 18.586767732206969,  3.997088762132888
13.306933027113688, 13.297053288416212, 92.808047986156296,  3.744500389832634
 4.637937882291583, 13.211370850861508, 28.498899579708088,  3.692035250143080
 8.060959089182429,  0.071490405112617, 28.696765267360565,  4.106620507655403
 0.947867055313927,  7.817692553918575, 10.697825823996283,  3.853813684015608
 8.853176237797765,  4.713283904328184, 10.154954972830723,  3.760289818879193
 3.721395937570492, 11.022511867018617, 58.718647444992207,  4.121994105944860
 7.477698748845133,  3.324049002832428, 64.007446940690059,  4.262809810465911
 0.134795490164356,  6.731035684700550, 48.787193467244613,  3.863816532763483
 2.052502745048625, 11.702638179043305, 38.851669387987840,  3.926807878159665
 0.133485053221888,  3.298366909172767, 30.420927437552070,  3.785720351624759
13.822565730790997, 11.450457847822667, 85.497730082848236,  3.812089609266735
11.585658272204974,  7.603835571093968, 45.519755464185650,  4.092630794385943
 4.348435958341733,  9.669297493082308, 29.590020282140284,  3.730300851533429
 1.725949312146916,  7.961660722886634, 19.076630209430064,  3.858371776832450
 9.168504702422313,  0.404227745442148,  0.166307620067846,  4.042738301486227
 6.458033406352301,  3.065177044783593, 70.323552801283938,  4.284973084033234
12.830472106110635,  3.043541968584428, 51.771547989388630,  3.730120623942777
 0.132966061646160,  3.120090526529638, 62.875596777528180,  4.197860907694284
 5.820338793563770,  4.471138175776803, 32.764450488139353,  3.965246817557833
 5.414078572699181, 12.813384857195478, 35.534470806160243,  4.223356344521325
 0.673250251516244,  1.056666491831457, 44.888070090775479,  3.993788276168894
 6.895872325954171,  5.683583240810910, 93.146463849471402,  4.375889302572650
 4.142855285927049,  2.308628478786528, 89.641088287683843,  4.119622700468708
 2.287994155460380,  8.534293146136363, 14.668177966528555,  4.326504091129658
13.289399778340535,  3.131128684322200,  7.562700217375578,  3.911530772583946
 2.496003118607907,  8.104397123218096, 61.172823331260538,  3.797935074835122
 1.065215214712849,  0.317190025108297, 28.177982122139209,  3.902642083124832
 4.414373957862827,  9.768827073110311, 11.170987389826152,  4.101641708092422
 3.242550685387172, 12.834430887763993, 66.193892072149950,  4.478214413015516
13.323201461867113,  5.988235022066696, 80.490973394052631,  4.055780724796227
13.799661430176736,  1.216356403250857, 59.040939351630989,  4.102432851456265
 1.898364106538251,  4.354056638574637,  8.841937472495367,  4.130821673875777
14.633673075661166,  9.574058641772213, 67.597706279048793,  4.167325417014104
10.337785655329126, 14.076950682083282, 90.496101661889739,  3.874659528575966
 1.805085393739106,  1.192686362883515, 86.259808201378078,  4.384034441975025
 4.377549685228719, 12.061717236277905, 22.196113459827696,  3.792045211233367
10.559863615726044, 13.976856983683035, 65.014462201407355,  3.898858689339137
 8.220777892533235,  8.345706688670447, 83.457381194410857,  4.005420384932146
10.133440989376208, 11.802826110068095, 73.978762142857391,  4.269908886263342
 3.758860615830255,  2.261552675716347, 81.860805912943846,  3.665199018304050
 5.465134243871171,  8.955544384874376, 37.106168835087928,  4.026508228558622
 4.618072137206860,  0.243678108830444, 46.227081996909455,  3.924646400367259
 3.721288879948895,  4.111370005562077, 39.086042591047011,  4.361925910171712
13.523674603986629,  8.509382291923005, 25.359103295765976,  3.865022704309185
 9.611255199016510,  1.232752439805655, 42.580260324280701,  4.182049380114329
 1.723267013205974, 14.443235125413969, 48.645453953488740,  3.792055196504582
 4.345884478177627,  6.806466126046179, 49.400571348554216,  4.054454575478384
 6.340752836802130, 14.296778933720999,  7.599068181582325,  4.053791473686213
12.469873804099292,  9.494004616371402, 49.348596940651547,  3.906752937351718
13.509798050286433, 11.122258950765408, 45.896019106120320,  3.944132702999529
12.298347631779590, 10.961117716132346, 78.328665675377749,  3.876613153869544
 6.725685720910478, 11.100407066820431, 32.204133251697186,  3.697802205726936
 4.584604795974219,  7.755910612712285, 72.078686575304815,  3.678475373811522
 5.151257589254421, 10.853265065271422, 47.712690847060856,  4.566303597754843
 2.427049853823592, 12.155649670883157, 86.121106875462416,  3.658403019813026
 2.477494580711284,  5.706786856025356, 88.000206673760445,  4.055483220949369
13.129439131412317, 14.398718316607154,  8.816041446832321,  3.946694874872233
11.408570724993565,  9.159433780616398, 16.971298937039858,  3.844443758738357
 6.106307180715504,  6.894103783599689, 41.263419959026045,  4.145339025130935
14.698710491841670,  2.791819348371995, 48.361960902848466,  4.020916777919813
 4.713953170878422, 13.132418097187983, 76.485719219231683,  4.234919430909052
 6.797572305358855, 10.201341546570580,  7.406267397488312,  4.184281911425447
10.495847492322557, 13.529322634902421, 39.693529964569279,  3.944072634869808
10.195445284296802, 12.568782648813201, 50.294253889843169,  3.967528612060011
13.745342941143825,  6.846736154564787, 61.629581546032618,  4.130270921540532
11.287635136219038,  5.610451859991961, 49.162377109974209,  4.204315218355924
10.345733789809447,  1.468224235651596, 56.869527165077017,  4.041621491581374
 0.852100210318547,  8.895286409662887,  3.419634269518887,  3.985455677785060
 1.144839381176255,  1.424955767463725, 12.065133533312423,  4.066240935072284
 0.107564129710718,  3.201231835654232, 36.762346205069896,  4.299283657163647
 7.281115028431733,  8.612985196320581, 23.814785802919175,  3.680494998745715
10.677436726568612,  7.326021781523436, 23.202622332170897,  3.651198253046828
 9.881940983808164, 11.402157551502158, 93.496905818249544,  4.128652949042580
 4.207679167431833,  6.789317481677069, 57.819056325830822,  4.010956188949418
 2.048514463493178,  4.147696263466858, 93.071084516971069,  4.034291632415645
 4.891016155669191, 13.168073880358012,  1.680011920903122,  3.902954933886963
12.630274065660982, 14.529010644372409, 76.245771575219862,  4.397412284774494
10.521339880753617,  9.721259271447321, 31.994548507721813,  3.897822601873361
 1.959625163821775,  8.711280823748593, 51.676084236090610,  3.539868645375162
 2.774367890683203,  9.629678248578553,  7.443498703965844,  3.932900287746403
 7.198318676342768, 11.795848554339541, 82.169876543831791,  3.592093514776018
11.110761403343322,  1.769634679406934,  4.599098500288958,  3.677346709992507
 8.734217464798002,  0.811746145023631, 53.268022409276142,  3.936132353640298
 0.945517613843936,  9.919673790597146, 89.061963872317364,  4.297871413572055
 7.383249975112104,  2.781754847473859, 17.336725451985863,  4.184682962530727
 9.158788801630779,  7.426726228553322, 38.445753502267515,  4.230632421071749
13.653198192811304,  9.639069353367011, 74.793791127416455,  4.138928837660028
 8.452858080574471,  6.644897616438453, 16.968133806026891,  3.861858066440462
12.428923622603314,  2.403449391257527, 11.257824166719621,  3.813214039122328
11.852233570369513, 13.519982786998288,  2.598477946044598,  4.128239999265470
12.678125299340898,  4.155514210136330, 84.545010449325829,  3.967112008001429
12.258692403872997,  8.114457460694533, 83.842893052831727,  4.110299244327176
 1.327535819943742,  3.845162244461256, 71.747830023733712,  3.801070068584954
 0.045567858822062,  6.449232181991015, 57.847033025173189,  3.870766727834694
 2.026338928212295,  4.777152165038677, 84.159030726087281,  3.899479098852378
 5.751723198327924,  7.990606136903485, 20.099415425167805,  4.438076782381896
 9.079647686145949,  2.376605274624714, 32.198094039666891,  3.842417244077357
11.059018942166478,  7.604688267529121, 68.472178782388767,  4.169388442709828
13.944994158546148,  4.966499379982153, 68.926923017241023,  3.694060282902749
12.432443023825037, 10.275798632285859, 28.642190296593235,  3.845114253006707
 7.631326161444125,  2.665670222198399, 80.984371314776666,  3.952774040182247
10.828145422167269,  7.379228691782564, 93.460869752935196,  4.127361890126661
