BANDS
8 8
NANOPARTICLES
cell(1), 15.011
cell(2), 15.011
cell(3), 93.822
13.879764862593653, 14.489597924070445, 36.801676508531770,  3.906065771691226
 9.623925402912057, 13.664246420569560, 61.054872239759327,  4.104114748627596
 3.670422710928495,  9.944851342613351, 76.552435511299805,  4.315003091257275
 1.521863828308429, 13.753489237940157, 14.578485448146614,  3.653873348799669
14.623250956644670,  4.415510856988744,  4.647269823058517,  3.744294993567558
 9.669959315747432,  0.188883001895337, 48.542501511876104,  4.183195186086715
13.401628174246003,  3.135628975903160, 25.810453804599213,  4.236188786967239
14.953422589679644,  1.362373645593393, 61.304415929695715,  3.956451066359959
14.228971393068573, 12.255715592204000, 39.965426063393068,  3.830106168700946
 5.065098129439114, 10.125864352068971, 42.808797482896416,  4.126884072347090
 6.315227367297799,  7.848337599802113, 20.427328262966313,  4.274527656681348
 7.202640719609764,  3.200409796804386, 31.206540216890353,  4.047721604416257
 1.160006816273774,  6.632336584930044,  7.421409927536685,  3.918327910638960
 4.909151402299504,  1.300166016835988, 52.050917381093868,  4.145993102304357
 0.254807561873744,  5.818315366699108, 53.227675627132918,  4.202244924353947
 0.355652283301019,  5.144405226928643, 87.570308279534288,  4.080002252843451
 0.499014079475483, 11.450051654719230, 78.498316274361983,  3.687907124850337
10.531767014505061, 12.674461883910185, 38.524441768631625,  4.012655933505010
 8.023553914134114,  0.302316839998397, 76.168113949107209,  4.032841505644194
 5.405907596176610,  0.589142055715412, 13.797090091376857,  4.019425976106362
10.583341670468123, 11.160699273780361, 57.847459566242087,  4.198619959262686
13.031701272165414,  2.671174252362039, 89.825844802280685,  4.072413131159549
 1.763437767429438,  3.870273918324425, 91.270006593541410,  4.228047945138602
 9.765866666731098,  9.050989690482563,  7.361398850677354,  4.361215276618788
 2.818985810226798,  1.727617296564155,  4.660807337843250,  3.885063552187047
 1.358346628822450,  0.909205316733025, 88.435434967396034,  3.960957435694045
11.131093336371757, 12.320318037087659, 45.920610085088285,  4.131484979214726
 3.181166148110303,  7.203650709229713, 85.528715923333863,  3.985098102110271
12.220838379273257,  1.293743635655865,  5.689341539161373,  4.386372702910952
11.345950172491392,  3.785103122695079, 32.175491052980419,  4.130609143155518
 1.619684635555664, 13.705653004425315, 59.047964704674776,  3.737668263963481
 8.293197096707202,  0.832768436419086, 64.180882702778035,  3.948681587455219
 8.760632195695187,  2.824481895476386,  0.450911978192595,  3.987987954897106
14.074302653688278, 12.974066060789905, 85.846743022981599,  3.934016849992278
12.129815812503505, 13.054837762104254, 54.249307690602556,  3.917705197684229
 8.944137503504978, 10.116268552760600, 93.521779808487736,  3.884165567789693
 9.985639709998761,  8.431872115988098, 46.460480105413566,  4.014956690601362
 8.965918979397111, 10.867968126094437, 18.968038368569871,  4.102124547762173
 2.426781212861916,  1.171397854221356, 36.259622900885411,  3.768306613353108
 9.328577460550363,  4.049283850363226, 25.352978265092229,  4.153378483228360
 8.896505790620649, 11.346159175803789, 81.535015499370985,  4.255529883629520
14.882162602600239, 13.699378367965087,  2.408984787660221,  4.203494960707332
 9.099105770395148, 11.630847155013280, 77.398462719715752,  4.018842767244444
14.921488100850718,  2.018255292194240, 54.649911978325086,  3.923357110086462
11.308803343536606,  1.615896085468331,  9.907289506103336,  4.183912150265211
10.091579915210900,  0.108677559120604, 24.333790567245959,  4.092605310843231
 6.675424549975529, 11.070453632119772, 59.442405983809266,  4.243618478342673
10.575948220790261,  7.223392944839878, 18.332735793659616,  3.966562603170861
 8.262430030869711,  3.610959002941626,  7.888043825299849,  4.141042124541007
 7.469779394060973, 11.750251028216738,  4.945876029917489,  4.147350425984934
13.587609703821455,  5.860337010703281, 20.644505736559342,  4.100187207992355
 4.317053731589980,  5.545173189902755, 50.995495942065673,  4.655178054518941
 7.624995615547269,  0.910157618466729, 84.658714924000549,  3.872059278310878
 4.011921787830254,  7.984057937059944, 33.440879919353229,  3.859999194876552
 4.975485470953655,  2.394170196343591, 74.405301011185415,  4.120052167266880
11.402421014197197, 11.118279948646338, 25.326324604798245,  3.725132509981605
 4.669192135342699,  5.883319977950073, 77.485162124134604,  4.226932071372111
10.023758697210761, 11.853523625080246, 65.139604011003144,  4.011880862092822
10.722882000895410,  6.723395935715875, 77.998959141141611,  4.238572755108679
 3.602751721798913, 14.001583002969015, 75.999109598152558,  3.861261398739488
 5.537636741247176,  8.581208774464084, 47.723203957803491,  4.001103984376240
 9.228731265698055,  4.239801374162049, 46.522220370997012,  3.827339561215160
 2.543755905063941, 10.290497056811466, 72.628051147175171,  3.789955501103096
12.307696687039543,  2.377990755197799, 21.997650645928740,  3.786018949625755
 1.873258440161881,  3.546274555732567, 43.256815889089644,  4.093706574707467
12.433686265929143,  7.966670197584810, 56.103165187613740,  3.964719948172822
 0.049300079225872,  9.565841078421565, 67.515568167112278,  4.202925035041824
 5.546246407553538,  8.045995399652348, 29.826724828549057,  3.990465985210683
13.082095513180166,  8.096252299577040, 12.757014350299791,  3.794760332817067
 6.197677824235278, 12.537616207655150, 26.237130418625114,  3.640399659718784
 6.408107840247063,  7.122013516923591,  9.238023346842198,  4.191688812290826
 6.725990084030721,  3.825064651246518, 35.019337010903655,  3.712445403685652
 6.022344311783039,  9.485476136857518, 83.866582924151430,  4.023616230178391
 4.266982121083000,  3.784642811546250, 19.590191858003891,  3.891613043987788
 7.111432890217864, 11.557612685075208, 55.301409506883047,  4.131554915151743
 7.995895916269196,  1.659430531260517, 21.308768944861232,  3.861292820457541
 7.842382481067149,  4.018293638076272, 38.772056092400362,  3.978868667648646
14.838617651622311,  0.052308295018330, 11.356996935563574,  4.063376766147460
 2.038646241702182, 12.938554848838697, 68.358356655828445,  3.792444514172903
 2.963285905054545,  6.994417825732176, 17.807095574070544,  3.896942814228831
 5.074022284762086,  1.582399671884687, 78.513214972616140,  3.925628270679177
 6.311750375371553,  8.578849049876034, 63.350721773225864,  3.892057303823802
12.531362828823251,  8.831003401541077, 39.461835785877213,  3.821755648393154
11.115604974408756,  0.043112576492802,  1.944081050588035,  3.802967822162832
 0.382347421308693,  4.220927069655078, 17.516260542820287,  3.695981491811969
 2.003358899152109, 13.597400747114783, 49.677739096122764,  4.005481219561979
 3.086196618196763,  8.888257627228651, 53.824706903507874,  4.208644319915892
 3.452657151476059,  0.070400461846994,  0.942767259945270,  3.898088471926500
11.009886329241148,  2.443275767860816, 54.902737603927612,  3.928251206455899
 3.375999221110189,  2.007892745316370, 29.047828734163772,  3.846575022961221
14.668999908696064,  4.115496567513735, 64.166974358775803,  3.989803180747508
10.419725479556972,  2.881976187061482, 82.838157272947413,  3.768121275535984
 3.131701762137032, 10.270683754759936, 81.115429609059419,  4.099720128555942
10.993449712445283, 14.148469407508426, 83.675667962601906,  3.944926085747899
 1.140178488129796,  6.231342726378847, 14.320108571882438,  3.999826193832249
10.791330034055697,  4.794750875396750,  3.461120920518345,  4.198206850243640
 3.505825173017470, 12.753102520828925,  4.240501626078069,  4.147808090125543
 4.788114414775761, 14.197723981894368, 43.400426563301174,  3.802890324925152
13.235231158806910,  8.139204749456946,  4.936893933136433,  4.199514711333196
12.428338693676585,  0.936519583473779, 51.570042684790813,  3.863263645384020
 4.962337478837859,  4.237220594935597, 15.642540844602594,  4.169406941969449
 3.716439499707002,  4.661331636097363, 55.299406665870755,  4.186668405585898
 9.363152449925545,  8.601100693717688,  3.277869504147951,  3.883761744104468
 5.764132502627813,  4.240130806127909, 92.062530873343775,  3.936269110298598
 4.588698181226441, 12.945937653762916, 16.558009287433684,  3.800865118106501
 0.130115457854711,  6.983816047816051, 24.938152977317827,  4.261661033908008
 5.926541787958043,  8.224790754740257, 91.925486857839957,  3.908344833917227
 3.789108326082224,  4.910159999251492, 31.349025448143500,  3.587878763646076
 6.874596804136549,  1.113229723542619, 17.520764499567608,  4.049134749697965
 1.101715503508486,  2.471208934632366, 50.750924417265942,  4.224800526676401
14.168820753081944,  0.793570381976474, 18.926100929747705,  4.055718039968879
 7.924555436989458, 12.716247116702249, 14.718825948417013,  3.822514798982248
 6.597101280305295,  1.190651123762739, 25.953987898879895,  3.749003744440716
11.628731425860073, 14.705859586170927, 71.291282737151604,  4.034138829159724
 8.022818323089361,  7.302059137648389, 60.109592111084801,  3.855110504502907
14.360049350721642,  7.440914065053674, 91.569016684395535,  4.051845533427538
 6.123669827512185,  9.268495295305547, 16.460561063671012,  4.123951055520306
 7.972476007950839,  7.103807409268184, 33.096778496510396,  4.253460710373182
 8.147778136796212,  4.329132959938610, 75.949085406868491,  3.898485424675657
14.764446032083480, 12.113015543243183, 64.420036219652289,  3.832858236279352
 9.703369692983758,  2.620086384272235, 59.824424383409117,  4.171812518412665
12.918560001006663, 13.311013472459825, 67.665580205966350,  3.986630198975122
13.734529581365669,  1.625502619799489, 15.179622166632651,  3.639138444498953
10.067300884455188, 12.784862409104973, 11.339049972057472,  4.179658351448527
12.841623755433377,  9.364529143551170, 80.208283751837328,  3.814254254088532
 3.135626049993252,  4.627543112763528, 34.904918716784792,  3.633330166247782
 8.823197695647998, 11.050267120894883, 49.372656921451018,  4.139290443335613
 6.899370859171809,  2.071276114328537, 88.346887829698574,  3.525602166238162
 0.268258177363995,  8.094601706248724, 82.987694217628757,  3.944914990803981
14.153064448699139,  9.771553320449341, 52.977918849177136,  4.023981874856595
 5.748453950169231,  0.280913459864196, 60.237955179827274,  4.392300539638810
10.618528160143647, 14.344170158339804, 17.329119155087341,  4.230953691307074
10.711840469098108,  9.949881560798744, 15.342420811945583,  4.125628256737492
 4.288491187676709,  4.218691782145119,  7.299887915757655,  3.941569307488607
 0.462202129398155,  5.776656329542623, 60.785928288051466,  3.693463412644150
 5.771811736155519,  7.099564960067001, 36.969130323247583,  4.095220247340722
 2.370004627801205,  9.802628606565440, 39.681968003295580,  4.080098931821508
14.804983132743606,  1.241765982988692, 40.428472646755935,  4.274133156550584
13.273832397058753,  5.085366886410395, 81.015468843475901,  4.290133135145270
 3.337441857513558,  3.416802376861658, 61.402797389838007,  3.814243895838032
12.367533698909231,  5.207596428168775, 15.317496701427027,  4.030023319575076
 7.126959690156773,  4.365971032396478, 62.617992044577321,  4.070873637391502
14.850533203141332, 12.188530141743492, 82.158640960571162,  3.754586883472409
 4.328017686632288, 14.662726675213943, 56.131235622457233,  4.365861967718891
10.790229146836907,  3.797356581849933, 63.963214025509892,  3.797989392189296
 2.073129797179749,  6.674245890558824, 28.510347041715718,  3.880272046495667
14.538236488078253, 11.265497957185739, 56.832802587192518,  3.968897943476646
 1.858675765056244,  2.338459065775034, 58.023160694911788,  3.848540626595253
 1.263353858292113, 13.330612250127411, 33.910092394663963,  3.938181641872064
 4.771863500356680,  7.408336977359064, 13.107438961777234,  3.905694756163819
 4.978682222357651, 14.079336790807403, 87.001894710980153,  4.092940954382487
12.050962518197853, 12.873104608519776, 21.234956343221718,  4.504923325600295
 1.268787586299593, 13.770436456722813, 29.919885632537557,  4.086750014963382
 2.606617420745355,  9.778211551839068, 49.955038494628845,  3.741926626764827
14.544468139159427, 10.312400171766834, 47.408557751914621,  4.307903878801718
 2.194901482394340, 13.760123233764290, 20.186373228950174,  3.660651986164385
 5.092247943653818,  0.636844621545094, 33.448776072363252,  3.924291173284264
13.442391980042746,  6.587440803068870, 45.592636193108014,  4.009985885052972
 9.515560586320246,  9.003853710500174, 36.626589577433137,  4.331040339831882
 8.469950054331921,  6.279514937968936, 14.934040013766383,  4.063262478577615
 0.264941078811787,  6.782341045760764, 41.391990861258400,  4.037006540802250
10.227055508981497,  4.999467327603340, 35.795493030885311,  3.823239981492673
 7.063511381186704,  9.939776952251327, 67.365400246960718,  4.136070369398108
12.925890587653402, 13.007585396763151,  8.521509107562252,  3.850856921530643
 9.209479313086948, 13.326982030479034, 68.625348753503701,  3.673520723637432
13.883500701927778,  3.362144271408678, 35.306378382658480,  3.881374735942228
13.603961846198864,  9.168252707776800,  9.047725242789289,  3.996196456885513
 7.129475306370213,  2.520184972828268, 55.224772187982943,  3.844412056365573
 1.743743284582329, 12.151269135162437, 42.724669289206126,  3.654532322009065
 5.432253215249879, 13.268761278572985, 82.991126575324330,  3.770627279320180
 5.978732446228738, 13.274611579224329, 20.116311967891956,  3.863303920217724
14.106496281367995,  0.946041325838357, 81.648379159864291,  3.989932734257255
11.123080449641559, 11.333951927225794, 87.420337839894884,  3.506844381920740
 7.301509286259409,  6.315868064900303,  1.067712323367383,  3.654553833245855
 4.385403794590124, 11.866212365680614, 92.534671601178374,  4.063112886885817
 4.336906765005513,  6.341385163858245, 41.018819480137843,  4.171860352115967
 0.573510983670669,  7.590050352805015, 74.648575059166461,  4.018754856682013
 6.933382283778390,  6.700716314331985, 44.298017540817852,  4.222971281619902
 5.958431143499525,  4.665057471282623, 27.624478895724966,  4.060994732387390
 3.734569694633438,  6.291079661736508, 81.646947841398116,  4.003080185009845
10.954836066018808, 10.981279979897337, 72.619744441113795,  3.984629385937875
10.102464488162580,  2.162316113013432, 28.780217125991530,  3.792190437581023
 2.853803372271729, 14.044161677784832, 62.968762505322168,  3.945437676265750
 1.982606157641065,  7.631307332386615, 36.542086989605167,  3.583464840091813
 7.964943618320348,  0.256344158118830, 80.821891271025407,  3.911213491135198
 8.152740951900174,  9.281046796466470, 12.253175529961080,  3.997043219197324
 7.671836666909277, 14.725709069045253, 40.856231059712620,  3.950620802058694
 0.023957155945232,  0.327533287117921, 77.638006271545407,  4.289512240843998
 3.748810123003934, 11.018991478433698, 35.921867305083268,  3.948323884297377
 0.139834967560008, 11.050278324832464, 24.673925356548420,  3.885808997784150
 1.768053125686119, 10.442426719250651, 61.345383268674318,  4.217082824799084
12.059409747428356, 10.187397158933781, 83.925301040528183,  3.942402365820692
 5.855593692048282,  7.913190017387540, 56.805406084165632,  4.141427895413099
 7.759903347249725,  4.361529019610869, 80.097519187006441,  4.416515720851687
 6.504988736246911,  9.028017685102007, 51.829088807431070,  3.712681384904753
 6.191964783774481,  4.033246667331433, 11.813188406834517,  3.854569061394889
 9.305477909617995,  3.787770332338605, 90.526802760314638,  3.812833573494691
 1.096955873769883,  2.944277898464031, 21.664559225258095,  3.866201578683963
 8.731774074368840, 13.898615434434614, 52.348143074258196,  4.046074619928468
 8.327205923802312, 14.950517564650729, 44.726931171147932,  3.895459878403221
 6.891095598811214,  5.957428395632922,  4.870726839802357,  3.957788179566918
 3.580595292277104, 10.486971447047736, 19.204569397854467,  3.687810868556606
 0.834799314937045,  9.864370128741177, 32.056050322526481,  3.962499299539501
 2.674471881581285,  1.215321936122609, 17.161747910320894,  3.854702674650718
11.650061093542620,  6.042051489032487, 60.887532783715848,  3.969888356433707
 4.478518780517374,  2.260273570335920, 65.191732865193941,  4.421921556633492
 0.049559024465082,  9.749425693496732, 20.857483843123969,  4.171232542723333
10.133313758884595,  9.761109467049579, 53.236597641906471,  4.020675103831032
11.309821186135181,  7.425430424855845, 26.095661719693798,  3.791891960009523
 0.577181853801595,  2.615889834824041,  8.111771829640951,  4.294037780510544
 8.745852745932041,  2.937796081014196, 51.566548620492945,  4.195624781236765
 7.447483882464266,  0.667893452689950, 10.449683723761005,  3.806535909495617
 3.194766932971318,  0.768952243143105, 46.607792675016768,  3.894294935926062
 0.028472346558405,  0.840258568904169, 69.711747074532525,  3.763899293708576
10.090320291582159,  0.033712133477696, 87.716633504278150,  4.147893224150249
10.856215788946548,  6.982964084668523, 73.562142600962318,  4.138910244138139
 4.450971778492668, 11.968274682029646, 12.582971875588507,  3.852086723591708
10.423458891102564,  0.044334528869563, 91.905430221414690,  4.012476743216181
 4.757032654918759,  2.456604288204932, 82.400790727379899,  4.050480067343877
13.717630308959794,  1.727088457143378, 29.748025021325049,  3.734413831860632
 0.330760771497896, 12.500311698805712, 74.731417975094644,  3.746029060534798
 5.855874056046730, 13.742502832431686, 66.917581135728668,  3.892319670685777
10.701696857470058,  7.104057570591806, 42.862187573050143,  3.757195853164306
12.839670469455260,  3.978634448126990, 42.679366526527858,  3.817297464600580
 9.272269130969400,  8.143790751160953, 85.895391824334268,  4.008124829717275
 4.702942370802214, 12.321651537386698, 52.222567539607546,  3.832577550579285
 1.444237455840041,  3.837599110894649, 75.879118034693576,  4.059044440695485
 7.437472783380102,  5.985759717197800, 53.751667397003530,  3.710123968262078
13.911334138230153,  8.182295305334470, 63.640355842634747,  4.341282319863058
 2.598308818831188,  5.131018841418364, 10.769236878889426,  3.909963776102321
11.929527871362659,  8.347398757673540, 49.954971654651558,  3.973617604282404
11.734203745221540,  1.560284782513345, 45.387313960060297,  3.762207861682199
 7.266228720728386,  0.138012610166367, 71.542260523985604,  4.065017478124828
 0.264948533343201,  0.261404931814021, 92.486110547635292,  3.947516674791898
13.256002303225207, 13.448411838078478, 89.653792428331812,  3.905682583484788
 1.998137746986303,  0.340515831860847, 84.508692978430076,  4.076113755799794
 3.064742450049323, 10.666030698213511, 27.891404897292450,  4.153592485180206
 5.631908994835085, 10.141203241387680, 87.816194732625576,  4.012622462529228
 8.115395713180989,  1.435475415236504,  4.288690769227959,  4.272654212861145
14.282102834515564,  9.128752537534584, 87.173430402668544,  4.206191115188361
 9.312155279969714, 14.726269014795387, 31.829262231456482,  4.180827745336734
11.024876820160676,  9.822479573887474, 68.672458344711160,  4.195344879695600
 7.547223029878575,  8.277827929283108, 75.694433787969984,  4.059573704160653
12.492333489617613, 12.251687565579475, 50.417761047412341,  3.839374702229633
 4.803978772556667,  2.369876132077052, 40.645724681862909,  3.850469537281028
 2.671604694561992,  6.962955908655376,  0.152681060175422,  4.184221801597415
10.585018786335532,  9.791210081867135, 61.712322122312393,  3.962712934508305
 6.271168204731078, 14.599472446120030, 29.323196299140228,  3.703583593044109
 3.049545833449049,  5.985787970973591,  4.046273025414153,  3.866617972090591
14.629984049895471,  1.112038287858812, 73.552826280743432,  3.977875110343859
13.057174333096862,  0.307465313086535, 33.144446882610360,  3.744715093486366
11.357115815271394,  8.816108336822328, 22.250816459135159,  3.956458344651286
 9.836455845754235,  3.140390839947409, 72.517931823151912,  4.070712685861216
 6.504306506224157, 11.229682993614391, 38.990259312800845,  4.310085692867001
12.523703133509857,  6.092122725929886, 84.896884777376258,  3.853629048978380
 5.689875075982695,  2.797956518407017, 44.403469581408082,  3.901711834690501
 2.610817586466818,  6.629601822079102, 21.695770790787989,  3.921709008275398
 6.268536050132985,  4.163621943986792, 70.886966116478263,  3.956013664922919
14.270691636060729,  8.142760020947780, 17.231151044632924,  3.910290195296464
13.627312753736305,  8.972546563802581, 59.662899447689291,  3.494720451179805
 6.521489168711653, 11.412345371823053,  9.065355260861836,  4.327394881714286
 9.018721695965892,  9.223160253778763, 89.712794366157084,  3.930244980633323
 0.964496011668290,  7.405445644852828, 78.735802690012392,  4.138670093301220
11.091489264553807,  3.225765866110887, 18.483877740425122,  3.837507570098853
 6.805036165521265,  5.451368912396341, 84.177693345659648,  3.980172105361190
11.195137034817490,  5.891587770680870, 52.969252182846105,  3.928249039916932
14.485605935772888, 12.007342273302465, 71.071606011438888,  3.833231766873197
10.101361259610373,  0.901610537524353, 35.858283576198076,  4.365315525900307
11.952794714004360, 14.148344841594012, 42.441584072729540,  3.869110549368108
 8.189256838201414, 12.251684195730350, 85.469539335734154,  3.700445452870671
 6.156448110145897,  0.700001333559192, 37.286352537915931,  4.021241304608596
12.229537215163843,  2.262464773509222, 67.316322292234929,  4.079146493846689
 5.875118122105954, 13.763308576760334, 48.794937548488086,  3.939576202749331
 2.623279708562722,  3.561325068061706, 25.377278401112378,  4.251343867470596
 4.303500697604242,  7.633949592781389, 25.274086173650286,  4.201651971807988
 4.079356387503329,  7.163666850836918, 60.404287499387323,  4.021956242422144
 1.142705505120376,  4.237544899100000, 83.768761769105737,  3.845635239693771
 2.624351921081419, 11.306471288782069, 84.983323263532029,  3.965858598138641
 1.107950743664705, 13.289813910705556, 53.679996728256690,  4.154977127091638
 2.760399661649129, 14.409968869157213, 26.168564185603422,  4.021145132843237
 1.283074198953135,  7.433937903313425, 57.316829465012489,  4.133755014105231
13.339480091207484, 12.350122221032409, 60.935531031893426,  3.689437878342300
12.859804600845395, 13.137780978344408, 14.197766956241264,  3.825132941182357
12.711880227701238,  3.016233444129482,  0.013743455095149,  3.971273515012728
 4.573788382644421,  9.076116344200440,  6.090230044187156,  4.022571684918327
 9.704820184832005,  5.168766654857600, 21.553606048860377,  3.803446775155825
 1.211929620408237,  9.820783215614798,  2.636115299512698,  3.908290273709914
 3.937115008927783, 11.344044613431572, 23.115221918599953,  4.337691512812611
 5.931521792575526,  4.546349135220187, 23.098129967038176,  4.016975515862120
11.770485854797400, 13.948291752532391, 75.419242339113481,  4.080274288432920
13.544431767223337, 14.060604538694946, 26.836841949034678,  4.150990385663310
 1.768899254621100,  4.351776169341702, 38.490804613814525,  4.045521896453886
 0.469889024393930,  6.564148570988412, 49.123375423598333,  4.139311030387581
 3.954853167279935,  1.211019034556078, 69.399730006044152,  4.079607075040871
13.449144504600872, 10.022497528248593, 43.264366523852239,  4.283169274209151
 2.240544310431275, 10.015256609965045, 15.294738804586265,  4.089752076576312
 1.983946432594756,  8.287756480091847, 44.668863718662706,  3.933124464380691
 5.406036748707698, 14.983976730364267,  7.132977036489300,  4.081571540121716
 5.209765948779268,  3.351105052841659,  2.063494113230629,  3.867646532316958
 8.209553637084205, 11.567572524363106, 23.009463489338771,  4.178240791877713
 6.464966374111990, 12.481927799636095, 63.269582998827346,  3.919360350801170
12.165826070762687,  5.132555429015288,  7.713541260942434,  4.239782429268851
 0.514701852661014, 14.177273974633561,  6.187788695273706,  3.513568653140233
10.709115550258591,  6.470133673677480, 93.101922123147745,  3.996278255057683
 8.111453035413508,  7.651018426303090, 24.041278590443731,  3.791872925044145
 8.051674660532511,  7.664709755310416, 40.199390384220820,  3.824961640666646
12.039235211294798,  4.253160587356074, 49.363866662152851,  4.140031416550849
11.655898095006570, 11.909256860683930, 34.457337819130970,  4.079182267796945
12.201028365588032,  0.043663874421938, 63.893577902916590,  4.040289924755983
 9.535173818246420,  2.106011215713175, 13.984591715189689,  4.720065246156934
 9.472417087732191,  5.498270912952087, 56.959782824083156,  3.924070663725121
13.817570577327860,  8.197938447471348, 71.126737844822614,  3.901382592169613
 0.166593082435230,  0.130698141200786, 44.303084784491098,  3.805328011513891
 9.427846477468504,  6.055032185677518, 29.308430348297236,  4.123662392277500
 1.984366441809138,  2.488656831521107, 13.599841776734184,  3.805343867999848
 6.088805941371710,  4.156917946682824, 58.642308610003560,  4.011916249713064
 2.605791113229178, 14.440607643021806, 80.684302745816908,  3.859789714544605
11.977147994050984,  8.279731396436109, 31.887488771501197,  4.372865513711505
 5.334205364114804,  9.615455614173001,  2.051141688748682,  4.206098258097907
12.085143907812034, 13.159759949777404, 79.601024859046646,  3.990376313665078
 1.475479474275844,  2.076808204726732, 32.524945307818179,  4.070732754444192
 5.199669469491408, 11.931573257258165, 70.334331917128637,  3.926181904327248
 4.503728879361296,  0.602591195248355, 90.950341517310889,  4.077005566327060
 2.691703529216189, 13.994793100779324, 72.295835106367065,  3.641076725780110
 7.368953011232023, 13.764672003826997,  0.986254290159754,  4.322786811510321
13.383069356187946,  7.217233092263935, 35.637070014383880,  3.894247503723133
13.417897727808649,  5.494868670936204, 29.151633639065270,  3.917477600448028
 6.583117548111075,  6.063825648458812, 88.404455160916015,  4.392681793103532
 9.859834010465224,  5.691788758134547, 11.141790436389563,  4.096930013633317
13.329275490303548,  4.243728746955624, 70.718803294966676,  4.084223254569356
 9.358237180136966, 14.051380062627812,  7.574008927500839,  3.784524109365579
 3.497011231679798,  5.193542487718219, 46.715290283174838,  4.066022305665522
 9.296639170106339, 10.947505810214288, 42.323844547005294,  4.367501949140042
 1.798289583162213,  4.503246671229959, 67.864470630580058,  4.367783621690016
 2.853819631213677,  6.685639977815748, 64.318177563985927,  4.217764378286816
 2.025890422227920, 11.874909095742913, 89.052463650687670,  4.328129681378868
11.681429651963979, 12.098301209694377,  4.720222627572427,  4.313455007829376
11.674371864762740,  6.358211162218247, 88.739411830068917,  4.021527050986268
 9.645156945775224, 13.367019900217500, 27.944687756615188,  3.980210624318974
 1.359421123839466,  3.352753650166537,  1.438651317355287,  3.856219798666298
 3.724234098246505,  1.459962023822925, 10.376350901709790,  3.795182448960746
 3.184654296755166, 13.871126265276709, 39.479819613181675,  4.224835432509607
 0.430976484872019, 11.261993073043808, 92.858562423074360,  3.953729528917855
 3.388432145002100, 11.752199790222267, 46.274345705137677,  4.185927578016585
14.052211666554950,  9.447089107422320, 28.269697666047811,  4.278097293595319
 2.527988735706511, 12.878489612660861,  9.182881736225388,  4.131766627410843
14.885869190464108, 10.719112979489559, 36.479878706755684,  3.891433079203104
 5.649903407981003, 12.658905016546250, 79.057088038491472,  3.896490849141994
 0.215404595539417, 14.597798752049048, 23.234729995819563,  3.748918911050484
 0.381821215541711,  5.948635121747905, 32.525539690880230,  3.895937322307156
 9.604346769061671,  3.829303947640052, 86.475238745294476,  3.897294219543849
13.390145777647865,  4.317607573125197, 57.623514553502119,  4.166359520832849
 7.531651703780987, 12.491525608281083, 34.989318733131860,  4.315293939653291
 2.111959458863944,  3.774720749399738, 71.937201583557624,  3.927724333574671
12.660249039563466,  9.992705982883045, 76.205109108904793,  4.162297255396121
 3.699493847963152,  8.150816154699369, 69.352158366111382,  4.365124117455182
 3.337203663809446, 10.903495888501597, 57.255937435897991,  3.722700680343474
 4.402612521272999,  6.810405906334502, 73.372354708154433,  4.196013682306751
 9.702656695756280,  5.826026602962254, 69.292169824826658,  4.310572064204413
 3.876593837166520,  3.360231693324169, 86.486759032714545,  4.023964107196756
12.511032451363475,  9.888260862365877,  1.322645961468657,  3.955744229850915
 1.013181389554086, 10.574435628831568,  6.382122928907377,  3.724099966919081
 8.654243513010220, 10.742027303185077, 31.255880107609975,  3.973331348618270
 4.330059635955975,  0.831803031940050, 22.684457516567178,  4.114358007685514
14.008968640702399,  6.347679965061415,  1.484193217773497,  3.725621176699517
 9.972155206802491,  7.386151142009306, 82.021169626551838,  4.005532644737890
 6.161585354834721,  2.675737024062614, 48.357101999502255,  3.959774918608221
 6.258376383158248,  5.890928583988282, 66.721002572772591,  4.219084166258326
 7.284372162497010, 11.439109158585365, 45.781518472887406,  3.683889164075763
 8.408443070543868,  6.510922106182382, 49.593391818559020,  3.977738983680732
 2.888337234037743,  8.964431587765203, 10.056513781776260,  3.907103619137157
 9.882307351047938,  7.602881759733820, 65.183639434554948,  4.360769851891940
 8.996456944365812,  3.684483066739740, 42.532793256004972,  3.893013408958741
 3.418759530118293, 10.747736674967499, 65.311124629020455,  4.186653675362413
13.806455281749164, 14.570520726221925, 47.753977963624266,  3.694082263525849
12.404237888101134,  3.759751032245264, 75.628824807248108,  4.059303700287144
 0.647010376879226,  0.634216692269272, 65.877931006470547,  4.013237197843202
 6.651272322639024,  8.342463682669537, 80.015897462659964,  3.836681199407686
 7.687655378794590,  4.761335205536817, 18.375719387161165,  3.617499421868296
12.510808404584973, 12.512616190726511, 30.555842579321734,  3.958781606305427
14.571685246766320, 12.061522418671762, 17.538231354535171,  3.966164741752591
12.057340554869240, 10.440918569198013, 91.481766844528551,  3.505242929986925
 8.362445446692622,  9.606965671440371, 27.432509518634554,  4.009200179553492
13.238183615884768,  2.030432239303810, 85.652718592708226,  4.373701642265018
 2.815881822037216,  7.755651737730067, 89.490406551944957,  4.046139068977974
 7.600317913678739,  8.867704132482059, 71.514030652290629,  4.204041336225273
 8.638712225913887, 14.658209931503313, 57.319389642791350,  3.872895102496888
12.809410170000580,  0.039586824405820, 57.908832644210484,  4.473268155013159
 6.596032994679621, 12.014522698153192, 74.170321234706563,  4.185435144292406
 1.797582141548943,  3.317969603844881, 79.851464014651455,  3.944050628618483
12.739755363227339,  4.966015438136662, 38.828736379318464,  4.021425162702783
13.119124235708988,  6.092016669038503, 67.131211792490333,  3.775825920687250
 8.202179803104912,  2.061600785093494, 68.029284206667526,  4.080898092433892
11.154623272687539,  2.058413936630502, 79.082076448498142,  4.030028348502992
 0.292900935445050, 11.122821554952658, 12.002280877107314,  3.861039323055595
10.834735870927986,  1.689745279193601, 39.804289744854991,  3.798528600382260
 7.482159365705214, 12.931267591970620, 90.112469551938347,  4.079553204618652
 0.025447254513183,  3.127388927350672, 46.834453308732087,  3.999277856493617
13.768736803097221,  4.408393694428280, 11.628323776037446,  3.995528842486320
 4.586752979520124, 11.791101313796204, 31.789648299975013,  4.486940468522276
