BANDS
8 8
NANOPARTICLES
cell(1), 15.031
cell(2), 15.031
cell(3), 93.946
 1.893748262214730,  0.067631794065897, 28.928563943535998,  4.246000008145436
 0.394616072481170,  5.233345014512063, 81.038782401416427,  4.090015419649715
13.727351708871065,  7.804462617961943, 37.641369543213948,  4.004115513632135
 0.868783202126658,  4.693784305723557, 42.900589576008286,  3.986355654140045
13.398910812101676,  9.425904280150357,  9.134394827926902,  4.247119418238580
12.587801312485654,  5.861615932529299,  2.684333717012527,  3.766679431388415
 9.835430359652424,  6.138047464127893, 26.523255779485144,  3.849325227549371
12.591678814937552,  5.645834163223141, 19.692287115460161,  4.285916807035930
10.226269667742294,  0.159432750338945, 58.033811215139160,  4.065981582449709
 7.903873271129634,  1.982561800533807,  8.251047199721576,  4.442847853196126
11.480791412783404,  8.060753807575992,  5.714824665758778,  4.041205073048679
 7.991006532875908, 13.016923299544890, 32.909352213269344,  3.978785718969858
14.123966895242912,  6.644578154825678, 56.483493436589086,  4.006758269341990
10.624213603147679,  4.837324285128719, 83.576971440003163,  3.800275844376658
 0.801860735806772,  6.057432264098541,  9.790092987356021,  4.159202105915777
14.644914708839064, 10.268914654550693, 74.919017645099814,  4.086405056775669
 8.709800467401331, 10.873153705623855, 24.386370351026986,  3.772566384483666
 6.607942787785800,  6.744417468911641, 58.616013330474246,  4.058866309222635
 3.698657217409327,  6.004907948311385, 50.561349885704750,  4.031933400996502
 2.950374154264083,  7.821786107702769, 57.171216203253309,  4.084664798866226
 6.992030312161409, 10.786214796343355, 36.311606875198493,  4.010381483674188
 5.330002654290107,  8.600822180554255,  7.163399959723924,  4.125106314023894
12.926107818956527, 14.503236646926664, 11.694567023521140,  3.976239725148185
 8.746267096232454,  1.022103107417235, 39.865599796897556,  3.800012063233266
 2.278547588857688,  1.397856381292374, 77.786533419629720,  3.709532069100795
13.325834014194900,  3.391772047398913, 11.599106166999654,  3.887105430867027
 5.895907021345836, 11.225156972582210, 65.396246818745780,  4.234146565190082
14.672961258775068, 14.363420312613270, 50.037462325129503,  3.601739015662040
13.412918588691820,  2.698991487942204, 46.584799172628877,  4.006332497808081
13.966065420922721,  2.760216621943085, 65.267783582245073,  4.379446562202993
 1.135734563900614,  8.603828663499931, 84.581249784179150,  3.771303379604093
 8.561587379891682, 10.290945679404635, 16.701143499381189,  3.982408848822087
10.103160590944423, 14.841340275801475, 92.204221909472622,  3.969196959153508
 8.803072477897695, 12.026634261424764, 77.887275974169057,  3.996489293048435
 4.673632961144587,  9.955360056768733, 54.263846851486832,  3.899666246920690
 5.286056164564790, 13.868182151814041, 53.849503489021451,  4.051411515849029
 8.005519900073416,  8.139531303081386, 72.240961263228527,  4.169434595428000
 2.688634843167963,  4.971278701799423, 84.462688972935482,  4.124446164304032
11.637890699713324,  3.758195672988291, 23.721455856384456,  4.197916884369576
 8.315137903329429,  8.948259713154661, 55.620062516077127,  4.089374148213285
10.015450065984250,  8.936506768370474, 49.368975171460761,  3.972113966029454
12.423640320089381,  0.771206049179139, 39.531649396691961,  3.593922048765521
 6.854659364470692, 13.629472562221428, 82.477347060423128,  4.270104902412823
14.551845913398981,  0.857463212678507,  1.759120746855475,  4.146003238081953
 7.722006411507661,  3.681106003248132, 64.127634859873240,  3.762176333601138
 2.410857334463305, 10.063173055220769,  9.760930667761029,  4.031485613763270
 1.566209729261460,  0.561073117195002, 47.049990693939584,  3.690924889535026
 9.098167310095995, 14.834665660503818, 54.262551476193508,  3.801313918154519
12.097473204780506, 11.965675296935112, 22.423653814021453,  4.018022948712168
14.782038776654849,  4.570229872225510, 15.255182873810373,  4.253038366194747
 3.197325752916359,  3.317329909673657,  6.110733257174164,  3.858634334733053
 3.575461543469994,  3.385851429716780, 30.890491825574632,  4.094309361694371
 5.941123065112455, 14.463604649758599, 78.695254165579698,  3.680094178459859
 8.865545659763953,  7.393432246923928, 89.727265358886811,  3.934027438798334
 8.450129438453169, 12.022501877003416, 72.119078371821075,  3.650557917492022
 5.554657029726065,  6.961298435247099, 87.070888072603367,  4.050227713071375
 0.422438386505983,  0.299940072684280, 14.829376727584204,  4.212976012087879
 0.239098268699202, 10.035591015912267, 23.844005318851512,  3.923869596105005
 3.980993499990266,  6.957125118936792, 42.453363185065434,  3.760445536813126
12.089231704598905,  1.487126194628137,  8.354644698802550,  3.986228692743501
13.370707770295313,  6.528152781328709, 86.153922708403087,  3.863863309109437
14.834919102907023, 11.851249274072284, 86.206034611133759,  3.962560758155024
14.097832336564132,  3.202777536480656, 84.258197077610376,  3.927932036336513
 4.504324463614644,  2.472345670092285, 52.272146805776025,  3.939528048539532
10.257518693875358,  5.687584775869861, 57.180583940079480,  4.057085112464435
11.426748782935471,  0.347738106437005, 15.204279692200654,  3.828347849096025
11.505982193396591, 13.098478652450485, 74.907145935061322,  4.309223714664061
10.781164502798982,  3.071098121223661,  4.831560163600497,  4.140662599648890
 0.507553246799701, 14.150901622434718, 74.579934431209722,  3.877036489260471
 8.697716188102854, 12.855265597503257, 45.324964969385320,  3.847318513659485
 5.008004007932974, 14.145361377733488,  3.781779027268013,  4.107523074243717
10.663791714419164,  4.127395403136602, 14.436746280099571,  4.026029365649619
 6.690350324186670,  2.856328061551336,  4.213440799073640,  4.133047980636801
 1.560156455035659,  7.152169325840968, 90.176969029864253,  4.245526231429466
 9.551723327178376, 12.344154244606534, 85.429281379795327,  4.077430776083490
10.774293467303105,  6.079490041774059, 35.676640454712164,  3.882565363685156
 2.259911054930259, 14.171469495042775, 11.346453613968954,  3.995832132927867
 4.312390353045454, 14.647016423108852, 32.311612690486328,  4.079321650052909
10.766610598193356,  6.546502112715293, 93.199953574183240,  4.116138488094963
11.066756746026966, 12.088700220619632,  7.090314001719833,  3.909098457058787
 4.802924643723379, 10.146714467447083,  2.778612198371469,  4.137096806979300
 1.747601601416724, 11.806830186589123, 16.087227855228551,  3.689486969120110
12.163584593807581,  7.266091864505810, 81.240430514607496,  3.594139767128561
 2.170234791199126,  9.504216451275752, 36.391729196320888,  4.117777758868863
 9.917238277773626,  5.114479647651930, 45.316549270374452,  3.953782052122043
 5.751694933065001,  3.676317123707466, 41.392877231499789,  3.978817671799796
13.819581055339899, 14.373150077381720, 78.210491952976398,  4.140124042138535
 0.433095946347758, 12.087437706101014, 71.095161159095213,  4.060602484569634
14.244074834773309,  2.073179859345021, 72.270570279728773,  4.050126522617563
14.874358906623309, 11.073798441765216, 27.722715945709798,  4.099019999776934
 7.030027916739806,  7.110008327120271, 34.312199816127666,  4.342808491386906
 7.844147791413159,  5.800531831167632, 17.248841764040165,  3.899315878880495
13.988488986170234,  8.393928622774149, 33.415752160631946,  4.146703727577687
 9.571734349956438,  0.808043767552871, 30.271633441479437,  4.044004244810170
 4.991264426162319, 13.903367849846104, 68.387331806387877,  3.996734164855248
 3.508663285963852,  8.021284295986208, 25.198269510841278,  4.211297205093273
14.945255272551789,  1.005594280358946, 53.340485974447631,  3.575522132875485
 5.311871977755842,  8.872305151239523, 90.631538807359192,  3.938999794074994
 9.191489197391981,  2.231714232701834, 26.577913201594221,  3.908696234512578
 4.459547791203531,  5.227738647371518, 21.859171019141737,  4.256397455219125
14.375499247786331,  0.599598882255896, 36.301554558507107,  3.942063490980791
14.872972060313817,  5.155329658142523, 30.977713090885732,  4.147700740848410
 8.752395063143560,  8.030118637012709, 13.485638249403921,  3.876629109694699
 2.438449439059773,  0.236569975950487, 65.106292932210380,  4.188881443084325
 6.549811325055017, 11.429286690180392, 48.626442848638568,  4.218351801993570
 5.459829535353078,  6.838159310360587, 30.319474009565166,  3.808045876558265
 3.985628699657035,  2.096056166898382,  1.209205526345397,  4.011575982295913
11.829685877448407, 10.207331878310075, 71.894537257578818,  4.018360180279096
 5.475217691756645, 13.662724626065600, 86.443936861655331,  4.115677300494611
 6.131592492261623,  1.141346808442466, 91.747003102166644,  4.263334994507904
 6.589193212428254,  8.495848195164021, 51.305699389930254,  3.722599851615398
 8.831333386514142, 14.544339238833979,  4.987113226728901,  3.949006420196358
 0.616315216407251,  7.273236843438461, 60.594139272291990,  4.259809399536821
11.570109301290577, 11.201441223316676, 30.892953814145113,  3.833883524557729
10.301907630720569,  9.757346711630145, 34.372334835312756,  3.931010943070034
 2.455128007942887,  5.328686139901732, 77.566907702058415,  3.940225257331866
 4.253677787937311, 11.709799653294494, 39.120401675320430,  4.032151037727838
 7.927013866802245, 14.113072933009390, 61.516381959150280,  4.153876795274844
12.268675032613691,  1.933140379352806, 87.731712705862378,  4.243141919312783
11.520675004396349, 12.313692501546429, 60.783899934963742,  3.982781279619084
 8.700379002367896, 13.282826919053480,  9.954697269029058,  3.895883679291797
13.829652245124480, 13.505948369692806, 64.857872307273396,  3.877511265706273
 5.047763535077829,  6.378610179889585, 74.752266041905742,  3.981509276019065
 1.038544590184072,  3.339358938429417, 61.686016555572401,  3.947753373418361
 8.131553797031126,  9.471315931452519, 31.124457259579263,  3.847563338596583
 2.834943526756490, 11.629414626957361,  6.094816030326183,  3.977517399480402
 3.589110161474757, 14.155331286137377, 50.108214706037757,  4.181267029711523
 6.345608202627814, 10.651284448294135, 75.012333100348542,  4.003237697154466
11.174664261403645,  7.461302502101097, 16.373196232940792,  3.746590768788464
11.879617952473847, 10.280688930187074, 45.970255457463239,  3.946693177358531
10.069165613947707,  2.635603677347264, 18.147236604285627,  4.023294611096344
 7.168910598970449,  2.694475842959452, 33.305887508985293,  4.542299037023993
 3.674120500882901, 12.110694727412138, 57.495274889582042,  4.114773304164699
11.643685998671026,  5.766204505525207,  8.993893722400433,  3.862175400767009
14.461697804617033,  7.173292555932869, 66.343906891529301,  4.028896722704901
 5.841291037699712,  5.003249971074337, 90.502674741291827,  3.869622665429989
 8.142291757583509,  0.368418780276824, 70.556722707720041,  3.809072621214858
14.073335592414722,  1.914173972441471, 18.407158479047887,  4.105360247612187
 7.717312247525708,  2.837963320529771, 56.133147211419498,  3.838663046226142
 8.076033445836217, 12.277679635429676, 39.753539981397232,  3.792153582130915
10.801644263236094,  7.374645618936056, 69.299778159768010,  3.882905580480868
 8.991933582070414, 11.376991100763869, 52.413553525038928,  4.042655770924307
10.452100099365483,  2.043433688850476, 36.327886736871143,  4.297926547019673
 0.350022096352491,  0.430179883882463, 42.598132199774042,  4.021181754517162
11.100066127327853,  9.777009412731744, 27.203479703602472,  3.918537286037358
12.590849293476120, 14.667127306444034, 84.430979686900614,  3.823802988861677
 9.574796290243675,  1.375176252706671, 11.943435662124639,  3.700621093545713
13.346011974171464,  5.430503245668914, 52.668973856700745,  4.065915129837930
13.338657011092344,  0.736015637038377, 60.771640430497598,  3.801484869325669
 7.412648076788018,  0.035124326653783, 65.441085118996867,  3.972252095890014
10.608604923238579,  1.383019537468337, 63.318923556397650,  3.765634410652852
 3.538216913438026,  6.375515872269355, 93.886083059266454,  4.279560335465955
 0.621615022475494,  8.440393552933624,  2.121546188152748,  4.076964745163091
 9.056982609211827,  1.354044272250386, 84.687542940064077,  4.047418530708022
 3.780347081984468,  3.887714095152058, 57.918265370967625,  4.037055827198992
13.561380525073776, 12.858673685729789, 92.737784853131771,  3.933215290504295
 0.708836414162668,  3.131305616985938, 50.127774530914671,  4.290896929449226
 2.423515071746447, 12.884356498150529, 79.385740988038748,  4.046065388725003
 5.360600473935201, 12.053786100620890, 11.039283095322043,  3.530883700535985
11.876309112663010,  8.563547920668935, 59.484258329004199,  3.986296537661409
12.988775497120558, 14.285617742183305, 29.125400448913762,  3.800897352087472
13.688185827339895, 11.675790626825833, 35.920124712162142,  4.108317618410559
 8.604993335959589, 10.573150795636577,  4.286856997747766,  4.086035640011857
12.534620486325041, 10.677134213863338, 67.555575597506319,  4.316368346692460
 9.496638342828053, 14.900707315853332, 22.388870671913963,  3.756939163560495
10.758846405238693, 13.943904060667395, 80.994358177246710,  4.071048334687758
 0.877025637989909,  9.317527127766352, 80.724123518329122,  4.090240473897309
 1.189964926731926,  0.211168495553512, 85.202022509859788,  3.634009090545804
 9.832497575757245,  8.809618817949138, 38.443810127573514,  4.110910764207410
11.572021187836510,  5.258353047129812, 49.064295670902276,  3.971055080051850
 6.505843264577760,  4.162110479972805, 37.385035598237323,  4.226779645355815
12.346777502230676, 10.647461247581676, 79.239120259026166,  4.043173010447446
 5.541962637231181, 10.134509493407977, 69.632423950029619,  4.006718415779058
13.851411892460808, 14.310978311037982, 56.525626341379862,  3.960468141044225
 9.117690826716830,  9.020226757415138,  9.053139694338713,  4.352595137578004
 6.654592025757101,  8.142820136988739, 20.075956493404870,  3.775548882944217
11.072988179282932,  0.269237439179728, 67.076803611420246,  4.057495646813654
 7.413248116393345, 14.631717678053377, 74.955519454833208,  4.200649800578307
 7.570694411096564, 14.802962107314867, 50.698135628855802,  3.953926423514946
 9.455911659614337,  3.497678588052652, 90.892776692426594,  3.964329618412043
 8.393781050258776,  3.121400700495922, 67.847756775781875,  3.876532683906571
 2.432495906942931,  2.783799458723182, 74.336663488884753,  3.706265540079626
 8.381552693378650,  6.623484318432149, 81.203971964836015,  3.639138986730854
 1.355360297021176,  7.978744432437447, 53.471018001141260,  3.979633897880836
 0.585403746477495, 13.272669050289769, 39.226795207822470,  3.936270582474481
 8.082026744520558, 13.210948970321265, 13.925158975526301,  4.129868352098514
 7.481032832065541,  5.344584414677610, 49.068430559918205,  4.194381373848280
10.809785330403770,  5.511070539944788, 65.780907837165131,  4.053924114654684
 9.551504086474372,  1.891222698856886, 47.812059155877002,  4.228036154770455
11.749014117661790,  9.575384274719902,  1.953922781288577,  3.983046529231413
12.489491759391997,  9.149578988001243, 63.396543308782789,  3.971301861386547
 5.696676281341770,  0.434640363907948, 58.435143907014897,  3.918276079287682
 6.954444875834859,  2.458996047160940, 23.419815000230855,  3.780015774906720
 0.098984325096944,  7.103487429059475, 49.464059277895622,  3.804954209398148
 2.079099956068030, 14.472202981149326, 92.945538199034928,  3.874141926743104
12.371423510796477,  5.719237638504081, 72.684160948890153,  4.149355298760087
 9.659460023530704,  6.785000741036553, 52.616858131173402,  3.768588459140956
 7.931162541218528,  0.594717826630948,  1.290442411158383,  3.652855458692411
 2.893472448349589,  6.509273761048340, 33.562768999428101,  4.142969414302889
10.315865560506500,  1.196571841886463, 77.355364139109028,  3.969750958135282
 5.594393398692656,  5.910810546782140, 54.387212958019347,  4.388863458942057
 8.552588545129554,  0.270079144958887, 88.523821856591482,  3.984340889889384
 7.313474265937162,  4.403000140345680,  0.344276614154828,  4.269499618694478
 3.150458374056445, 10.116931771933663, 50.624239775651461,  3.994333637774230
14.932787537476852,  0.055327678582039, 68.374594450120611,  4.073798239332458
 7.108975505692350,  8.431593750302273,  0.084849682782639,  3.705738734912571
 0.805444744995556,  3.914413175934017, 87.842390398957107,  3.877861704705614
14.136807098471394, 10.951959442423291,  4.890720188289430,  3.976664103492295
 8.121125083880530, 10.338504259787705, 59.852839233860848,  4.097759928541818
 2.886427144622822,  1.262000101878891, 70.818677823538081,  4.009855338091526
 1.784135916138365, 11.483600794464934, 67.097520793163213,  4.432961213159141
 8.133035381545303,  2.328916416699117, 80.709320691919771,  4.341217348266472
15.000395975060158, 11.222044732341438, 12.726485162612098,  3.959333589331004
 9.084362613903796,  8.970265452829503, 66.192303343852615,  3.707789655763861
 5.872965063321142,  3.067574246735874, 77.078458404176004,  4.277823247465998
10.079118505373566,  4.801233430563106, 39.574263875027917,  4.230933256288093
 9.136935120645235,  6.966519782303704, 62.204672148871111,  4.358210095647129
 3.087951259473655,  9.390941517225325, 72.818622968955182,  4.165737681561923
 1.047055538577736,  0.021843261091554, 89.100945193035969,  4.169373888957972
 9.130313278767504, 10.323650690562726, 81.593094621955672,  3.938775330706226
 8.077052455916007,  8.728311066390155, 45.777610773191533,  4.193266971809661
 4.548236387663749,  6.278875870176947,  3.948859034463079,  3.951081054789872
 0.295879579653624,  5.919439389879337, 23.103892426292663,  4.439872281691263
 4.552884166217675,  2.447590282296395, 87.680875112076180,  4.096941601899845
 4.838754713277488,  4.837322583381940,  9.517428086298789,  4.272808955475586
 8.227191951583714,  5.818779436197993,  6.536755149513100,  3.981335462842414
 7.319985312310415,  1.995850743504097, 15.143123103374439,  4.022755652077413
14.874303435370045, 14.319805449156391, 25.276371017900928,  4.027645410477549
 0.431533416436420,  1.445310690025834, 32.550954134938209,  3.992324277247067
 1.431243308163191, 11.706641767152048, 47.327706007845123,  4.089110223551343
10.920671719795921, 13.759674483034193, 25.832485113368051,  4.027207207975226
 5.458873800596882, 14.635516813129213, 41.692835685271739,  4.116635843094367
13.570339495603577,  6.658995660508388, 45.848912510359057,  4.049587700781137
10.442162226713618,  1.738018606008646, 73.351583685503840,  3.671014797356142
 3.292069130374832,  2.479283695152769, 35.262150370311851,  4.153256567008643
 4.362903738418208, 14.351819079710090, 14.937991136348998,  3.906895664304474
 4.869726136682991,  1.778036164359062, 62.123740104769922,  4.084823010092368
13.850230365667528,  8.981060632420480, 92.573720213921433,  3.828251302577297
 6.718736130988115,  4.581300938711053, 83.990404453232230,  4.025836438317137
 2.743886532267004, 10.391634267817327, 93.241172132512006,  3.957376145947663
11.880947801554964, 12.892179790428070, 88.907100231961323,  4.263257486153158
 7.708105507792710, 11.330663216392271, 88.806723677881564,  3.818452975008725
11.397809585613997, 14.020423663761585, 19.055640196687957,  3.921650784242196
 4.198573367627184,  8.347681851825417, 47.150306264349439,  4.067575348690721
 8.711997091142077, 12.218187532379259, 68.282889647179402,  4.043936358780695
 1.620748336973677,  2.244096155354918, 21.604861501129815,  3.922584566505117
 2.718675016279436, 13.506642809268149, 35.860951622162169,  3.995121224288673
 4.511599109415615, 10.396590403520101, 32.959745390913064,  4.358115230967080
 6.058271692809245,  2.945098451472373, 72.788918588857641,  4.181668514911525
 7.474532951513898, 12.578551964289899, 56.749073734621149,  3.653224061113240
14.090192534454031,  7.374287978987654, 77.684253982518555,  3.988688487420403
11.701125602464989,  9.545202738439354, 19.421557038582893,  3.711141110309846
 2.050834873709554, 13.485562965017957, 22.228156590069922,  3.668674048577632
 5.839970396148211,  7.937125034358472, 39.103889402237186,  4.145500590631641
 7.613543737341280, 14.222639038971634, 17.814406754067893,  3.734681205751614
 5.683637746257812,  8.433333080183820, 11.099769183757592,  3.728068057531336
 8.636274908139139, 12.372821169167015, 28.689699386472146,  3.787262587006362
 8.312059034185518,  1.684240565544921, 43.815150745570392,  4.116550896522064
 0.688956738229818, 11.129473646741074, 89.964375580022164,  3.889638742269301
 9.174011852743872,  4.484653930241220, 87.111538057637404,  3.856005411754773
11.125612067952234, 14.161986623363983, 42.633271748898984,  3.835151673485029
 1.390767672483742,  9.007760374553838, 44.388021089648539,  3.890857238849373
13.520667671400950,  1.768878367806928, 91.723524006302299,  3.938947087963888
 9.026671908636883,  6.955773621140664,  2.928164827547751,  3.680805030234652
 2.621299370360007,  5.666003597318277, 37.816932524347081,  4.109806488128658
 5.745261580482381,  0.936293716919553, 11.658670547942281,  3.865880402853167
 7.903831428572876,  6.742997003774363, 42.315193234539983,  3.727944263737287
 4.413175104395832,  1.451158549343919, 83.886699899562601,  3.741569970056600
 5.945054913490921,  5.121007684218435, 45.261516596547146,  3.987222175944547
 6.713236048776930,  6.467350712791568, 68.830282287422008,  3.833205867417609
 9.073781282326005,  4.623886599506440, 71.129906797042693,  3.463626035313166
 4.198755499980581,  7.429976167062537, 17.220204746128267,  3.873212103394508
 2.405416585323003,  3.147912023173209, 91.447388848586513,  4.105236599099904
 7.234626503179508,  7.428749575945786, 23.801180328266767,  3.796582867585562
 5.903275513813217,  7.072966735416148, 64.939456094083269,  4.093246633304562
 5.946881007699963,  4.804834354434164, 26.661845633510438,  4.362499102310167
 0.943175597486471,  2.063561377076065,  9.015288263418745,  3.905373197589094
 8.294880060241530,  3.224181591753246, 60.152143325962335,  4.316326929685643
 6.425537965122140, 12.407293406022077, 93.660198349027496,  4.111327025294744
14.387817260343509, 12.766418954578132, 81.741223067345317,  3.679035350139010
 5.752498678826409, 14.447176443324404, 21.237869131271065,  4.069746012962034
 6.893718574316456,  9.091878280738314, 27.377729974982053,  4.068776838010556
12.757455188050706,  5.437652302145339, 89.856578134671693,  3.945589095387015
 4.945628724536165, 11.394129483690000, 18.584833325999565,  4.117587339433543
14.761054189782158, 13.311407752709064,  8.218708769997209,  4.187308894592953
 6.214027822713410,  2.759351965650037, 19.135707348823814,  3.840434753273035
 8.549952563669541, 11.563838590720991, 20.520468524831855,  4.068608733030074
 1.665261128178400,  4.148535218430359, 54.514252607071811,  3.977932182648008
 3.871391901108491, 13.353551142848998, 75.913335737396707,  3.528298996183652
14.539485003164097,  4.560557758896478, 35.182511088791976,  4.296326340496850
12.493239958629520,  9.387077636142635, 53.821922037663178,  4.294475803877142
 8.361019615182196,  3.211018451196076, 52.361659072561999,  3.845855040312740
 7.207722209572473,  7.864206517222864, 77.774689272258186,  4.019880656158477
13.814113604332276, 11.377456636700327, 42.749714588654626,  3.877733568144186
 5.553156368956203,  5.527346935615249, 13.860132448685231,  4.272913345832140
 4.776198127295126, 12.146269409926235, 29.170062451929535,  4.003595299448838
 4.642636226733631, 13.591294853768609, 45.584514913811461,  4.082176237748686
 3.506077899747762,  2.968660740829578, 16.339166982288873,  3.935295283766773
12.391217733068586, 13.364974796747939, 52.948284777123497,  3.841730064937132
 2.310608031378306,  8.787765748789280, 20.591688404267469,  4.179080944762100
 4.210159595656931,  5.664142949202882, 61.592159895827734,  3.858034788349081
 1.637854894215963, 12.550654978441219,  2.362851023457889,  3.851536245060972
10.053809365975562, 10.073800628600001, 42.372920421841805,  4.114225354501678
 3.121091326937836,  7.577763032846520, 67.794825977411307,  3.929112567601101
12.531817258490484, 11.609752650673645, 15.993968143420279,  4.174755385562998
10.112709672728448, 12.282122182193735, 64.509603257495954,  3.957086510506319
11.008931719501724, 13.019065482689722, 49.040105722291180,  4.450674687772820
11.041199693468982, 11.461607622658329, 57.004698885625636,  3.816480699455416
13.816626644034054,  6.908935729232070, 27.009541450216879,  3.977993871910894
 1.944722529386268,  7.722929218532776, 13.462758815664417,  4.204349958386415
 5.916614609135620,  1.013381844793627, 28.545577027416300,  4.046036278540966
11.873521525579580, 14.107510472558181, 70.863042462694963,  4.041117774590957
 8.563401826446295,  4.949091192112596, 11.163140664944274,  3.843527068494408
 0.523917078467517, 12.224779616465240, 32.011952989026895,  4.567293242678899
11.192370329347256, 13.585544203716276,  1.908801031094054,  3.990511298851301
 2.197109181097862,  5.485746178728969, 27.895921539634564,  3.615689410093027
 2.481325500803314,  0.614154876991830, 56.015885273376924,  3.871295255329286
 4.312811288225977, 12.739991618557484, 90.214767907188318,  3.982991315036235
12.317633255536501,  4.568687931655537, 60.762899728316370,  4.103794916814772
14.257289400898104,  4.448895266576740,  6.397763417297999,  3.953924896820689
14.993204007881809,  8.025704162142071, 70.359826734474069,  4.237634226305503
 5.266385306121877, 10.675467541148777, 22.640829712221056,  3.942757928716390
 6.662397233813067, 14.053534753654569, 25.160031322365676,  3.945015808900739
12.170486041642450,  2.985582941330787, 42.713152008312150,  4.139575347626949
 1.955393488711687,  8.589584428864773, 30.163811614740911,  4.033482571949005
 4.748518951162513, 13.072062894264736, 72.276328105015125,  3.969107308661731
14.576235456422589,  5.229146143214115, 93.330611923769666,  3.899728690149691
14.168234858903766,  4.169150096674838, 39.316674060699633,  4.041511589106664
12.441304913899801, 10.136324385083878, 83.633215731465796,  3.845507513527004
 2.026492713251306, 14.965110808779126, 59.871151186573648,  4.008093007382141
 2.169493793070524,  4.884986328263675, 46.670345231212934,  3.988930741871270
 4.189208307414932,  9.538098919659488, 60.681425621677413,  4.094942386140525
11.378022456714969,  3.657908721023647, 32.569267191916389,  4.074081643369550
11.387093093479677,  7.276407966091641, 30.428394924201459,  4.070550020579170
 1.467122128823349,  0.112881542959492,  5.130233696631030,  3.666110870631334
 2.914902773004142, 12.085724936274136, 83.480635233718800,  4.322552529074679
 3.433260439329554,  1.580730499007921, 25.244164278245446,  4.288647943814048
 1.060513162355853,  4.171412877407199, 68.631619273479501,  3.987856139172532
11.856390110154052,  2.521849583434111, 55.125486800902301,  4.088574240026022
 1.348370351075707,  1.099728900170717, 81.502393077017743,  3.968024658335821
 1.240217155307111, 12.240169368167871, 53.786114571699798,  4.393391519393165
12.126502261144305,  3.621019231245605, 69.145528177159321,  4.081438765913705
11.042914731245364, 11.001770126768896, 12.201914975953061,  4.017649831759199
 5.662472534958997, 10.751621971142015, 79.900040355981773,  3.776153947486260
11.103255362461855,  2.791064630070893,  0.761926756498268,  4.003030135000119
 4.225978711365612,  3.868907911644603, 80.831929595965178,  4.040898818421408
 1.554277402923182,  5.134096164480977, 18.958731139182465,  3.898150919954190
 4.546594686980356,  2.694350195159180, 67.538125179277827,  3.875878102952793
14.980630889139411,  8.383316605388401, 17.119695582593934,  4.221976733436659
 4.204545305454327,  0.118562083397019,  8.063011185414183,  3.836863668651197
14.886706616519902, 10.519641695431291, 57.560561539149674,  4.158937361329113
 3.384813036573227, 10.317196981409497, 87.228627680176430,  3.918767668014834
 8.746919449547825,  5.017605796995924, 21.102417581180081,  3.993447126160194
 2.667346852293007,  1.781730517297884, 39.400357901728995,  4.277868448251580
12.767148237894659,  2.329267005042413, 80.633005414105781,  3.819706681888089
 2.557645479792531, 14.769306238926607, 18.573274639913372,  4.138326331390919
14.143671240652340, 10.690966424265916, 50.352501184997323,  3.785537525416487
 4.173066544451856, 13.020517431642006, 62.359857329821978,  3.608645448046002
11.950025333091270,  1.807389593901194, 51.142200339970501,  3.968041490691781
 1.017397661887837,  6.249657871703027, 74.103917379091413,  3.779561926956664
12.891308832001416, 14.706438114831871,  5.133924737936241,  3.531130566782710
11.891337842447044, 12.098148922466763, 39.464010590068611,  3.866805678603916
11.218158351561629,  7.945647198782987, 23.099418470414712,  4.295907561571138
 0.511899294379485, 11.474196703291694, 61.682846470847934,  4.401207099635140
 8.545641386471289,  4.607135584302593, 29.850081494872857,  3.811417844906036
12.001343976283762, 14.454491501679218, 33.254803108457885,  4.130021597887534
 3.617123776660222,  5.705726905766729, 71.168830661984487,  3.840895822812053
 2.491999819858022, 12.225874488017100, 42.591867779342437,  3.733937497817591
 3.086646882042418, 12.062335123315492, 25.602811270828596,  3.892050481312118
10.046875827237342, 13.111719717112688, 36.335763382854012,  3.608246872175237
10.034276933093746, 10.632141522513900, 92.152522785238631,  4.444691935218893
13.457657475056282, 13.868625543348122, 45.720516878755141,  3.898078285826848
 2.522379880483357,  4.869722140069045, 65.011334174561000,  3.918175031679480
 1.170139605249982,  4.416382005633233,  2.910735462407080,  4.029404588787490
 4.397089247069881,  7.722480896553195, 81.997363782339079,  4.003102023528723
 6.360873503684376, 10.050135176160506, 84.577490086677301,  3.953089978164666
13.238795865576943,  0.594635538064496, 21.987081772152404,  3.691967251482457
 3.036260134144241,  9.381260108656241, 77.150403983145097,  4.251774039931662
10.658575059494241,  4.952620026800176, 78.653434470591606,  3.954151349758012
 1.317890408739904,  9.181660410630132, 40.405479735697782,  4.062610192224889
 5.347825024822394,  1.989730293780045, 47.663654478974827,  3.900503552010806
 6.477053612981249, 12.317098891663093,  7.028027347134563,  3.652224142922724
 6.555841136078612, 14.898347194237560, 36.686190902383174,  4.240348901323571
12.270166499822317,  8.986799016613828, 88.705425855162076,  3.548111163587346
14.826521627556531, 11.863341113097407, 19.436340182049257,  4.059094953284911
10.724110745598866,  8.916487245072927, 75.748539536084891,  4.359122157288801
 1.393208316473017,  7.841751338267049,  6.111036902529993,  4.102023182134411
 3.525130207234649,  2.127192098388243, 44.226951781040540,  3.858663464777069
 5.955707443021574, 10.374556391915810, 42.577306120365115,  4.110696003094609
14.872002199780066,  2.939158988487235, 57.886961754537857,  4.056580205971405
14.786076750497402,  3.154217801367353, 26.218432556397783,  3.924756422336277
 9.740874135954769,  8.239194843308676, 85.879055325332885,  4.120242692735736
 2.326118950794203,  8.652982815323062, 64.102524767784530,  3.863929295443049
 5.083223944831208, 10.365936035137711, 14.520887576464338,  4.214987209176557
 2.476062986611921,  3.110645689264784, 12.507946559331954,  4.003987270217356
11.984415318146509,  3.618457303244083, 28.737681011229963,  3.666987287029796
 8.930068598904331,  5.107959904630751, 74.973960304862345,  4.179530345314316
12.723618541861972,  7.273113369090249, 12.712690572568382,  4.209187312586060
13.911890072309834,  3.303475309417191, 76.386796728539778,  4.561245800577764
12.899107014857226,  7.150392059243193, 41.764420539483069,  4.076080451666982
