BANDS
8 8
NANOPARTICLES
cell(1), 11.921
cell(2), 11.921
cell(3), 74.507
 9.529488407083674,  2.584943974540479, 43.602893902509642,  3.853319212079090
11.635330985191912,  4.362087771799372, 59.429676510721251,  3.976547514542691
 5.434130718977331,  2.001341727916987, 72.135042808974674,  4.051157872400925
 2.036684472347104,  1.361101468713819, 65.780817181532925,  3.962115601964903
 4.301419229138514,  6.084679415100577, 46.195239976739089,  3.927273581390665
 0.418003359831912, 10.270128077756997, 55.903319758234133,  3.882361278382150
 3.938803117912088,  2.199265198241335, 34.874237526996822,  4.023499966675248
 7.306905136898308,  6.881462732714702, 34.250063379411927,  3.668429781769599
 1.549623142824228,  8.886662500990376, 70.737036189179420,  3.774227716925140
 5.408327594440373, 10.668534175311226, 25.170775189048236,  4.060158899525681
 5.910946669563299,  0.961686783369715, 57.796823296295400,  3.734419262704612
 5.310322533341431,  7.706336627035398, 37.330998246398913,  3.755103716255774
 7.987786182070362,  3.194011828705086, 20.453150756306648,  4.087142911606913
 8.886109900192199,  0.315659500519063, 73.311360726910380,  3.984090693620123
 9.922218125326616,  1.217885341108989, 32.184632526398097,  3.961597843698521
 1.373615297778456, 11.787607190352880, 18.561758500245674,  4.153143537070113
10.375467444144990,  7.002153747263781, 67.986217833344739,  4.275463682134268
 2.066367711432757,  3.367461842246014, 15.423996330273484,  4.128502000113606
 5.480750042808595,  3.904209586618079, 38.108558268999531,  3.899314006110875
 2.903881912156381,  2.907214007067610, 48.419741495712380,  4.293443160234625
 3.923497095712279,  6.530151012641094, 52.508835779352935,  3.894600883942254
 3.287352694517366,  5.374886675717971, 71.316721179371527,  4.107767031913383
 3.976397105106789,  2.108888901785357, 52.136569445921893,  3.580966950484995
 2.705538335933420,  6.875551769462082, 67.430267582793959,  4.302829491742670
 5.905746199235578, 11.588604018774278, 21.370911616452986,  3.817249668244769
 9.359136445940797,  6.103006048406215, 62.333502043347487,  4.180599053115741
 0.912667881438739, 11.536582607273626, 49.131386381953824,  3.526923801093955
 2.259089706222809,  6.340195959221210,  7.295946897436678,  3.633051850284166
 0.449288055579006,  4.684821622604121, 52.370767134670423,  3.975099962278653
10.654408796468575,  1.594028768664922, 23.071216885971690,  4.042733431909072
 5.408707216698228,  2.600268139265633, 12.522501031122404,  4.037658656085672
 6.043602417673454,  5.760646687802719,  6.999816033919471,  4.044083526236895
 0.993782261730908,  8.751003049081044, 43.300282258301579,  4.171722682205145
 2.759311173046208,  8.854656240945365, 58.694232062121927,  3.835308166789536
 0.425687168014495,  0.064715609074737, 13.758725202460225,  3.903136257318402
 7.579503036379199, 11.817441581043536,  2.576151515254777,  3.943898572320186
 9.238455653768197,  6.858074272627309, 43.170055902298387,  4.095269530059032
 9.129639168523694,  9.783326954722259, 36.049567719225671,  4.067485618734995
11.331486468611855,  1.318494564951481, 35.968468681408829,  4.111663487957522
 0.392968537343331,  2.943742897908519,  7.587008237218458,  4.127820485363203
 0.179606716210372,  4.673918139517686, 65.186998858361932,  3.685525219385745
 0.495236303537615, 10.765457563494044, 61.482280621287494,  4.295031898781215
 0.611261871646994,  0.792563437717734, 45.513626399447887,  4.097578484971068
 4.690219276723114,  2.839051836143220,  4.487513744889687,  4.117537063993373
10.633738062081797, 11.332109947765149,  5.125242080117551,  4.041631355782722
 1.684276524805375,  6.883731890350751, 49.173942249726082,  4.156110672582357
 6.048707712395131,  3.790012860457485, 54.987939117531617,  4.220216977527129
 3.515139199201787, 11.390579715326265,  2.092874799471346,  4.285789566815088
 6.104711192976246,  0.661098814933515, 49.481634171006739,  3.808283135848325
10.940579048862796,  6.930389622194510, 34.236578863529125,  3.593173415154121
 0.178226124812712,  3.547119046236494, 19.854595121816402,  3.948786371716088
 1.561603864788613,  6.576494581993611, 55.622785112259912,  3.868378603654757
 1.093127475236537,  0.170716867009798, 73.144220825990558,  4.269333783077475
 0.635359242024512,  3.523239602033353, 68.844903599241150,  4.033669256832645
 0.624922609362579, 10.204236104567999, 67.401543966380927,  3.541337581611656
 3.036011002568146,  5.670764870362153, 28.329748243647270,  4.074515053290979
 9.937375247041674,  9.594091851401023, 24.498810246851946,  4.365065538837698
 4.162733652174492, 11.636182686234614, 15.396187539109976,  4.286166158607164
 2.359059438742566,  2.599473257944883, 61.942624652757168,  4.122159426942454
10.518482672397813,  1.985974833391339, 16.699067286627574,  3.762429435300477
 4.453073611348140, 11.324946234419301, 61.005084539203011,  3.721690326337644
 1.865030408796816, 11.711209759177812, 32.187892985954043,  4.272631913717510
 0.826517529069969,  7.689687396859411, 31.002612472949092,  3.947600815057163
 8.760051419965768,  6.714349475720549, 18.357715659993570,  4.250661158299501
 0.413990860789750,  5.000758189481543, 45.339511319039389,  4.320943279041952
10.793924614677035,  2.798210246558817, 49.272571546908750,  3.934494974378384
10.079582228593617,  6.044219652931300,  2.439137936353157,  3.901172803318087
 0.101260845658403,  8.353198674076571, 39.168164381339359,  4.113998202016925
10.837260534938096,  9.830920525523585,  1.365809948313270,  4.047781373390516
 4.014600800289965,  1.811886154371780, 27.553580467757790,  4.030204448609815
 8.272925129136350,  4.062561867905115, 65.805769321549207,  4.158492750428794
10.456330946221266,  8.673746179220100, 46.850893409674491,  4.449481041306512
 4.472584828454814,  6.654681715536874, 15.150081026825145,  4.032550920101846
 1.655608702028389,  6.790114892780409, 18.111643698831319,  3.960805208906244
 4.355789938889246,  2.224567294958048,  8.569781341947861,  4.163181767320421
 3.257896734492137, 10.397018335143539, 40.445066070208959,  3.822112641381004
 8.787341035323424,  3.129001924967268,  5.319775521441633,  4.263042988466752
 5.791545062631012,  7.089424431720512, 30.809148319615513,  3.774578886956721
 4.348864554939314,  2.662950002357257, 18.738677186006957,  4.019089452253097
 4.929583379993089,  3.433342110439833, 68.029648381240705,  3.968791544408944
 9.858691271830690, 10.573652978001165, 20.414863809842000,  4.017973389462765
11.299506234431174, 10.283153571488047, 28.379704778649959,  3.960890704390899
 7.679117033622195,  8.769575593156222, 27.889406613833984,  3.945835983143924
 1.558973439990199,  6.736735763725221, 62.159902031242311,  4.141321288488949
11.124336746162227,  6.338017652475549, 14.977729379521225,  4.031119854685027
 4.186459734008038,  5.932878543841694, 10.589155448068201,  4.041337384074731
 6.618448159119446, 11.915508563121135,  6.211121549197670,  3.565517994684751
10.059562072632911,  3.076326431138074, 13.122317127243409,  3.765310793376092
10.897939204126523,  6.294749122042827, 27.657108304223115,  4.185091961442309
 6.913080681518180, 11.453513668977697, 69.094282426158799,  4.190612973422621
 7.332433126767730,  8.605516020526778,  0.752049511811957,  3.455143116136267
 7.332879866435636,  0.260672315085883, 17.872162173238671,  3.832094357059161
 4.753256759796256,  3.381615173435312, 31.150940327324363,  3.954773901762011
 6.429000395492547,  7.320485983038277, 69.459699413704072,  4.157795590408045
 8.406852065281093,  2.001429167996074, 52.247960457335040,  3.846044554803109
 4.609404328735905,  4.956056061510878, 64.317056150128835,  3.940722871714614
10.930477057489044,  8.131221530969500, 58.793302656888514,  3.796987638303368
10.730972301163504,  0.250493579080492, 69.861340054610409,  3.728834059910703
 1.596483490099401,  3.003959942333836, 11.432870141109099,  3.932103389941267
 9.639933324548018,  0.860900978550852, 59.038526188127157,  4.120995552902292
 6.620830904999564,  0.849394241194215, 41.645674740776450,  3.966928742741294
 4.846603953598676,  6.678161322449244,  2.909269514195519,  4.150572214243271
 5.223448499277231,  0.932226602380694, 45.472310840039839,  4.181907725378226
 2.948590160330940,  0.337093261598298, 69.489093132164925,  3.935388935152031
 3.564335679724027, 10.355482198798429, 51.472378865219035,  3.926934145088350
 8.128052082668832, 10.715864779120308, 62.248344117413986,  4.090129976514429
 8.893030862889182,  6.028947994837004, 37.736235561949606,  4.174032753443636
 5.900899459576800,  0.850277516203129, 64.964157440196374,  4.001445196316894
 8.407186729506577,  8.478800241144764,  8.682628109464652,  3.895824052493220
 2.803548480660262,  2.321693169528131, 42.312530740456872,  4.239856140202200
11.532557357482203,  0.201511781239945, 40.720251358297247,  4.058084249253454
 9.426629249965014,  6.573756818265077, 50.400949269243661,  4.038444181277733
 0.445202213343791,  9.561859333242648,  8.333854575180540,  4.043917359867865
 8.219521760112816,  4.859191570577956, 46.758885798539929,  4.354401633054348
 9.662718313699404,  8.394039919852069, 71.980709737786995,  4.288571014761936
 3.985675880469236, 11.199038558572278, 55.142284498044610,  3.630932554165568
 9.861842792135514,  9.185280112471540, 12.322913796343808,  4.065010666690759
 5.934593159443057, 11.696467907873867, 37.789685458378912,  4.153396668795162
 1.394111849172325, 11.755084273105410, 25.382280665113470,  3.835517281709439
 6.762067530959771,  0.125136605200270, 29.982838862218266,  4.041654211276111
 7.888672417000855,  5.587025136693390, 58.382073783585291,  4.175871423414592
 2.982740890270192,  9.727347351573242, 46.658447855993018,  3.865347663259457
 9.172784139665476,  5.200115835337160, 24.105086752679952,  4.002183453031531
 8.555357731356837, 11.396040331736430, 55.323678423369593,  4.089297526243683
 3.514147751098990,  5.532204730741241, 21.781819389591735,  4.507486330314628
 9.407084861914424, 10.825449147982214, 50.223811573441033,  3.802329318735391
 2.237794263221204,  2.908667739669793, 55.202712568953707,  3.605508502408092
 3.749101593324924,  4.632745987250724, 58.496132763204969,  4.322134911558843
 6.843444075356126,  5.666451617986372, 73.101108565058354,  3.869614664150936
 2.653901587772689, 11.398230482342779, 10.839435915003200,  3.526580547636208
10.842101995138169,  8.898244682778092, 64.569306960076943,  3.566443569695870
 2.598282162594112,  1.465014493010702, 22.112689936184594,  3.842591876874140
 2.675461284265215,  9.593969514703765, 21.606349474300156,  3.786870211842653
10.242833300212107,  3.317727263174495, 55.659286743441555,  4.320589067164267
10.993236454031416,  2.011744868488365,  1.881795675235741,  4.204035331678971
 6.148625172605691,  4.377887234781807, 43.240432851948391,  3.827790859409631
 6.431241409976955,  8.702277153975832, 48.501491730665535,  4.214088147964138
 8.885554876686003,  0.517797051113244, 46.874686736487355,  3.703166546501836
10.645299511821770,  6.566176022841887,  6.231655750880557,  3.757934225693648
 5.363011706474662,  7.735097426636917, 55.984850744024953,  4.004469231204317
 0.970012622517951,  3.964599301860436, 32.671227151061707,  4.163408723266909
 1.440667182238750,  8.499916509159345,  4.234154040305792,  4.008256359275644
 8.818877045402628,  2.229332550994262, 38.809788886584791,  3.685834011168322
 5.635620678166076,  6.502071668879762, 25.391389898045901,  3.942393612334152
11.209683101526737,  4.641285706170867, 73.119555124187983,  4.142391452409460
 1.456845990455220,  3.751262509083127, 25.109696279837319,  4.010959888781378
 9.066383372141701,  9.146258995913309, 31.630613931992730,  4.064103985379621
 0.185717462609108,  8.692660615381669, 52.393495582131933,  3.811801243422164
 6.541930039269685,  2.832389558489751, 61.334093208040834,  4.333758156894633
 7.547151206749191,  5.956921811487406, 12.726261121182182,  3.919712404193126
10.660929600256154,  0.577171703380940, 10.320876843001496,  3.821325175093770
 0.108161821438556,  2.391121445923439, 28.843395636908983,  4.278249783734749
 3.502820730751199,  9.808340155217529, 28.753553213581480,  4.227801744564336
 3.312673935818529,  9.713662135704668, 64.401415003642697,  4.086405602042869
 6.183084040220396,  4.389013347398415, 50.256371548446616,  3.786300578991085
 1.231713222761407,  4.976637467691138, 36.799275041395596,  4.208495929741051
 2.257633352228645, 10.227509013456331, 36.188592532499250,  4.139367073140270
 7.831776409397703,  3.156306010306853, 35.019751572342471,  3.996081739759475
 8.568504419731628,  3.691440760659083, 69.990380274239286,  4.262669396547051
 0.184595320237868,  0.687213481333541, 52.704825438626187,  4.042903282335111
 2.138669700378061,  0.863725324912398, 58.333336545532134,  3.875699002535620
 5.055777399706423,  9.840576066474116, 72.470139224831584,  4.155888622110633
 5.616084477567835,  9.408807734993852, 12.168007362834476,  4.068587916967268
11.262663849276324,  6.054261266748617, 10.096154891568771,  4.110027907783561
 5.559128089918101,  7.532341797212723, 61.293086666556455,  4.196876341172397
 7.273518316756652,  3.571916781783350,  1.684339596248122,  3.643881397982884
11.502323649744179,  4.474899740797666, 40.636757830074494,  4.204465308409474
 5.930970280108599,  2.679067258209935, 24.016635350530173,  4.199673849034511
 7.073912556679852,  7.887900163633061, 21.947370904125769,  4.019830939389538
 9.609243473516429,  0.180291241422261, 66.171220817892959,  3.866299613356555
 1.833744438499970,  7.811488653379672, 25.043403039742085,  4.127392005986937
 2.480788237725156, 11.857100857006975,  5.940300244003051,  3.735913395980735
 3.450419281021331,  6.992771365260198, 33.949185486754466,  4.060826311024876
10.273362962933295, 10.029938094345056, 16.467663318461067,  3.960245443944902
 7.110826878719016,  3.734762215193110, 16.008225109066519,  4.018588109072401
 9.260522987602037, 10.741659842123189, 43.543700758590177,  3.694954891651978
 1.221612830867179,  4.658570383918408,  4.184494205733431,  3.658182389396025
 5.706200668257041, 10.515623769228711, 33.727101138299730,  4.316102207953022
 5.092571859591635,  8.920657195536124, 18.510275149883306,  4.163560294338253
10.354768718812030,  2.165155184383114, 62.864514955932037,  3.986275252026296
 7.144843828569058, 11.793271988540836,  9.685855372630277,  3.460175668262359
 7.507753505083977,  9.570250332645807, 58.570324255487591,  3.641481972968910
 2.472410543574430,  1.561682981607696, 38.409753703012136,  3.735551000587859
 4.524276719597680,  9.360517613400194,  8.193603080974521,  4.127023021339071
11.512824535662450,  7.109023790762396, 21.498405497188571,  3.960466269467882
 9.656485346395154,  7.418394705114022, 55.168641871560723,  4.016962859104230
 8.215680561640905,  9.311908280768277, 40.156766495778108,  3.907652363363537
 8.756774824382147,  1.114045984931545, 26.609395537719898,  4.040819540781341
 7.069791741880718,  8.095938648175261, 65.349519218689835,  4.299604556007756
 8.114181007405239,  3.498488503629110,  9.642809779255904,  4.044570867404766
 1.807756270431725,  8.302067878369835, 12.714120301850816,  3.903567507203380
 7.753771551381240,  8.638118136658719,  4.848465648376535,  3.862330409133967
 5.599465214685027,  9.018380590595209, 43.529769036635855,  4.397581822486544
 2.915020355172564,  3.568921668803404,  0.664230844420122,  4.437345819906169
 7.949613890790414,  0.140603376588143, 14.138276545985004,  3.738016535940324
 7.037100148692059,  4.249675465024046, 28.139421604926518,  3.694123649003282
 2.125395650301519,  7.725867615130285, 74.483712185081998,  4.113449980381198
 9.157382348794220,  5.089191340720343, 31.288783093461962,  4.070454507087145
 3.469216308566983,  6.314647191983825, 40.807518832188038,  4.378348605350175
 7.033699054441535,  8.894178118370885, 52.579692243755893,  3.919984386008104
