BANDS
8 8
NANOPARTICLES
cell(1), 11.919
cell(2), 11.919
cell(3), 74.491
 6.586481096082754,  4.307445098566724,  3.341678003456004,  3.888260623477473
11.015956633933062, 10.929521827636469, 18.704227653878849,  3.894135347697286
10.686521668840259,  7.314720179908009, 37.793609003735618,  3.718056388476087
 9.172665231560430,  6.973310887172327, 61.609813611913211,  3.657925642083921
 9.187196266560610,  2.103260614701088, 16.965590469615805,  4.084406912989424
 7.168858373417005,  9.306730699997734, 59.159552806448374,  4.007711411551631
 3.844492712554014,  7.541776757661970, 38.186946886029084,  4.068786100945610
 7.266273364581816, 11.296839694243012, 71.200984884783310,  3.781142338980036
 4.915064669808045,  8.233910279773623, 25.835283045559596,  3.535857132833317
 5.781926556378021, 11.788987314245661,  3.302168164201944,  3.999993440340758
 6.203440810332465,  7.510734665418270, 49.064481660540885,  3.791234192778065
 2.071962296830711,  0.569943844101650,  9.029837678516033,  3.912339950817236
 0.080730335242969,  0.202147920785935, 64.407179748097775,  3.483440891635464
 2.316903087644463,  0.413679810712713, 20.732896751090635,  4.168177300912836
 1.494673217569121,  1.738640045557860, 16.782305786702512,  4.320060564591784
 9.708537883738574,  1.019844159120843, 51.935893028751984,  3.877845321237582
 8.799582356182880,  8.103699649817903, 20.717526035257773,  3.937456525860466
 3.918441990946313, 11.058917895054662, 64.461152138048163,  3.734673261446605
 9.424791021012842,  3.335372024121306, 37.060474237533768,  4.152584293429566
 0.933628423814563,  1.685427888428331, 24.367101215919334,  3.944347220262777
11.758628217908864,  3.593535241999080, 54.973514636761848,  4.250583744223630
 9.322361789773678,  7.771935931543268, 13.094665995475243,  3.862206539735154
10.188090108140415, 10.676323768414399, 61.484720574806907,  3.968072324394171
 2.234827889171690, 10.031422631735998, 23.925980372883252,  3.693879365937402
 5.765598439711604, 11.000890486613420, 37.431786420005402,  3.867504105348683
 1.898727004718148,  1.988022163419657, 51.406830259485126,  4.586534256199871
 6.902484679375501,  6.743621393903205, 43.643566449341840,  4.380417089805561
 4.615795469571456,  6.642016528229318, 29.435881804529046,  4.337033494749807
 9.811014834097428,  7.249321710904612, 54.685779324500238,  4.053156251589288
 1.013129496163179, 10.148011821961630, 44.091375237828970,  3.691398325922159
 4.885687284122846,  8.823019474053840, 21.354109045470743,  4.076199435926291
 4.763408032216289,  2.461752516078056, 23.381557663478496,  4.104243115548083
 9.449888213588357, 11.343889394149107, 67.191036330972182,  4.198434920436260
10.464295439962589,  8.615693978345437, 24.441750905579045,  4.272155168507911
 3.376929494732911,  7.580016532758272, 46.116798247792552,  4.375109435260711
 2.817292127477852,  4.538271163187566, 10.168849214871258,  4.059789719328967
 1.680874990085834,  0.668383112162318, 57.334432046722647,  4.120203971890682
 2.627651739407547,  5.938487877838121, 23.824012065275070,  4.091207397000536
10.684927545349398,  4.734477701990040, 22.521003564075485,  4.398156393685568
11.496835955928049, 10.954637509463623,  6.447550759661510,  3.891435298746468
 9.171295569302981,  7.213670505163869, 67.773450332462104,  4.091149189105028
 4.864903952157099,  7.058604484625739, 61.813348612893293,  4.174925110423078
 6.570222185466331, 10.375711491968605, 28.618653996723218,  4.228004817484992
 2.738299138216900,  8.053171410397786, 70.653238872760738,  4.266727396886970
 8.518083505565647, 11.143809815171650, 55.461323129824983,  4.296923735616165
 3.593622316213692, 10.226037668894541,  6.210256345104533,  3.920641217199412
 8.817237195087086,  1.295363601860158, 12.967285919894531,  4.104479470360305
 7.798652632142776, 10.230541856128523, 10.586088100370969,  3.793909045901210
 3.730732824802717, 11.680492448352366, 34.126452713149838,  4.013460181329029
 5.812032204306688,  1.727413851579589, 10.173862679491734,  4.145642108357706
 0.943244207192751,  7.574881149753275, 60.947073309891998,  3.920352140017442
 0.809411517473802,  1.257218069356328, 36.257416852881335,  3.812277001386181
 6.415188328193969,  1.627761235272983, 65.794253793851567,  3.795627231696598
 6.667578898428005,  5.920556922928594, 10.713325506267237,  4.168321923619889
 4.627745026687821,  0.328156377261543, 13.975740196884217,  4.286216897980974
 0.956809840554211,  7.414340519363990, 40.779447622221227,  3.688140574938124
11.903935024229275, 11.060394647688543, 32.935803171036284,  3.943291113704781
 4.446608902759332,  2.782380499145153, 36.741501671611118,  4.104060212533204
 0.134380739937164,  3.664280159275293,  0.477251017888628,  4.122549580641993
 6.747402595648187,  0.384649239062828, 61.740575089096303,  3.640992982189017
10.684084092090480,  4.844785941976645, 10.719559964463176,  4.140290686181557
 1.301295741003471,  1.656337888189520, 30.037121378133932,  4.167246822466809
 5.835982176289480,  4.635949386898044, 39.947865296833299,  3.806012584087848
 4.918929237477236,  2.395779833782188,  0.249951843346515,  4.095742693210294
 6.666892433470928,  8.711506330208854, 52.707162734262972,  3.930676060060315
 3.647562841017683,  0.687658059565692, 47.631007502109753,  3.984752980730137
 3.846609215032040,  3.450801354011549, 55.492014584327414,  3.834300123193909
11.694726389576786, 10.391901815932455, 14.839779715658262,  4.019906799599377
 2.028346904338934,  6.919121463723561, 56.372866053753903,  4.187644022184618
 9.420928131020808,  1.541025218649974,  4.077477272972703,  4.155945131970681
 9.801846762856314,  1.672872011557710, 58.669967086522320,  4.172747802478917
10.928853588592286,  3.039804281310713, 33.207299147459395,  4.110497730256782
 8.747941989354125,  0.314029637654379, 39.799417030784397,  4.112748120349012
 4.361160284717377,  3.144890653661644, 62.782269204194272,  3.945823417860577
 1.855178244018905, 11.816510845019804, 72.372933316030768,  4.193239155587995
 7.865994768176583, 10.490934161086438, 15.670788806083705,  3.801349515079937
 2.687716797273843,  4.933758365407703,  3.444493283452452,  3.985132239408666
 6.867342959123398,  7.302221101561272, 71.366028103459755,  4.246633725634236
 7.230972888114124,  6.696584568231544, 36.030493638685087,  4.133191669355520
 7.075152047071615, 11.133073109106579, 24.498719394189820,  4.169351224984275
10.620774118441592,  7.470766298966550, 33.962529186815900,  3.950197726462791
 2.916715620118749,  3.795504130356424, 27.105896470180156,  3.765453880727196
11.330329006431928,  8.350340362945463, 64.528455169729924,  4.022717176835704
 7.257998442542216,  1.620755042839498, 34.094782899326432,  3.951344081393919
 3.658848668379896,  1.271421056335963, 43.887217581113120,  3.574575929263889
 6.681160893182738,  2.632841325254544, 49.394448492783447,  4.015606447205252
 7.197396538484617,  2.437825038733507, 42.940092572715493,  4.078777702066299
 5.230952228673823,  8.084131740609767, 13.942541680878509,  4.117135830471667
11.512214583542557,  4.784687468207364, 18.561151524822410,  3.692712582278908
10.308554366420598,  3.711654703813753, 66.299112219503925,  3.683884490616832
 3.146948035781751,  4.925303933544640, 42.827190434254916,  4.090451881770807
 7.091536573144280,  4.594318687849048, 59.469470817940127,  3.953615440055185
11.702275947911115,  1.999217077749044, 43.256308169868731,  4.410313164640201
 3.325529739751698,  9.809705315333392, 50.645556738227590,  4.221369638443472
 7.416263654659774,  9.337990292126555, 64.131560623713355,  4.089134735406162
 1.227947261332217,  9.483417572652240, 36.142412133747001,  3.623153083628761
 4.408234055460935,  1.165337578678112, 40.309210349592412,  3.728621433760823
10.071126258419678,  8.777393414674014, 51.236307849006202,  3.477959050720056
 0.554504243860322, 10.419084734858108, 53.872323725705563,  4.348976234379164
 3.535248641960025,  4.953756660766222, 49.112124012536455,  3.594802400290511
 0.942533671251048,  1.845034917851300, 61.219473125092186,  3.796026695225664
 8.778674068755501,  5.250235468802831, 47.130798841683195,  4.076566886070878
 7.123989264689991,  9.569723838011356, 32.924127930113386,  4.330006561052635
 0.970040613568640,  5.629888703530711, 68.007907818162735,  3.591418175640728
 9.876171721104722,  0.703503385514435, 22.017278702562280,  3.884513318129608
 3.384025453720080,  9.957423349337178,  0.958951650409576,  3.617787744863807
 0.913956934289098,  4.795206311503429, 63.679702707442090,  3.874301672296767
 6.120449769188723,  6.669082868191827, 56.208903400093497,  4.002378050277128
 9.814746272364266,  7.545116764610523, 16.791624143638220,  3.598353332566764
 4.005197416882367,  9.083231725716509, 10.083787069384041,  4.194420292727162
 9.443526486331402,  9.819784970918029, 42.834322033298378,  3.752150860071798
10.336945153411461,  1.234688722646897,  9.465174422131723,  3.522402411107388
 3.226153055903823,  4.432568879713787, 20.021331862927084,  4.160888567358045
 1.361358893434539,  3.441804845623878, 39.482445325896599,  4.049021987868512
 5.684170928446046,  9.543958352304413, 67.935698727505766,  4.276938134216685
 1.671954488333605,  0.834651690278144,  3.303277547864736,  4.441628673385451
 0.461428604810143,  7.723847923559295, 74.184860777442140,  4.161633787846851
 6.786987653458874,  5.971693288296502, 23.481706893462032,  3.990062674567814
 7.174413109605021, 11.492600019405737, 19.382174520535379,  3.986379099821443
 3.914442187122174,  3.584951352751342, 32.661956765795118,  4.182352298139398
 7.672313907512389,  5.362731940624509, 32.115024733590673,  4.181717230647317
 4.434097984728568,  2.440304241648107,  6.262388735606552,  4.267765418474777
 9.026482793006743,  0.562970937704591, 30.886495130446953,  3.669815117843586
 3.397182684186039, 10.731562444177701, 60.582794971977513,  4.109325483795880
10.419167742330725, 11.885661926180696, 27.207152581825550,  4.286378654384039
 4.136572119866354,  9.455051227456615, 41.809044377064559,  4.140652855528726
10.666136792120659, 11.357756242601075,  0.553593376618489,  4.053893939137803
 0.512109274714426,  3.313915356781187, 47.297866764426971,  4.180979830916755
 5.336206348308478,  2.729774606492282, 17.042103098317497,  3.630450612676542
 6.168848125598821, 10.612612129317847, 45.187619923694882,  4.075545612596226
 8.998624115636439,  1.296989786456933, 46.390121510708610,  3.979081530164136
11.224462334393984,  9.406632269470677, 57.945579905421496,  3.830378175011551
 0.909270515620755,  5.672400333633189, 30.893210344070901,  3.860343448952257
 3.387423345062245,  4.441289767019638, 14.194610626357868,  4.062726476256569
 3.110463631586244, 10.173517571549787, 30.463364035432043,  3.553533121930302
 7.905136190771523, 10.869716795887298, 49.254349826466267,  3.731543691614903
11.707973030817886,  5.355571621999527, 26.246143566504930,  3.424055505688793
 3.165406015548996,  7.433156154224005, 65.474814020861174,  3.931879338052626
 4.804236812316447,  5.200985396677322, 68.387386766785554,  4.105639176908815
 1.808669214186962,  7.285866325406920, 16.613705707050574,  4.023100710800493
 4.354277895478693,  1.121824922446150, 69.488143194229309,  3.822147975460326
 4.941817253530458,  6.484575645555855,  7.035837107588090,  4.028989233824725
 1.048963310415691,  8.584195228976936,  3.646560812433134,  4.013322192700197
 3.161699770539045,  4.283390289255939, 59.221817579143206,  3.898738260694125
 8.683036259591359,  6.024471036804547,  0.407964726745910,  4.095994103336261
 0.946670333979955,  7.875813614267928, 20.584166325150104,  4.171382258717403
 1.600601806164828,  6.297773895619909, 52.233551823273253,  4.205125054053994
 1.471940466376974,  8.487226111706288, 27.383476772877298,  4.025722310326008
 7.689212536689972,  3.226798834112455, 55.020445951245868,  3.921475721732275
 5.463042293565072,  4.997167981036893, 52.330852556425860,  3.906360923141958
 9.411061299200062,  8.968679941394168, 46.414316183797624,  3.594604561072932
 2.575158357740337,  2.304240022465505, 66.222026316881681,  3.981149655860317
 7.513738026170021,  8.337776858096426, 39.783502200469840,  4.045972727848058
 6.035356228997528,  2.567332812464118, 29.212809582472318,  4.141382027555331
11.826668672279451, 11.177834956380686, 48.564185564311799,  4.235650332440510
11.508866213993420,  9.764107447174027, 10.079929682350228,  3.750295495476118
10.621182237915352,  5.332527211339436, 71.198895354935502,  4.236757477039014
 9.902071956093254,  3.810476365740589, 29.077716144508312,  3.968014450926920
 9.529877501915408, 10.745483923534382, 36.110339806784239,  3.993244310310666
 3.341921204252311,  7.662689733093091, 33.406988499788447,  4.185301734892173
 0.892774062918556, 11.256660133834481, 39.796537185559657,  4.235163539087710
11.320205799193875,  4.694335269179620, 14.728391472256444,  3.982245001301827
 1.276530409533532,  5.116309550722394, 35.838083060005481,  3.970912132118535
 2.641330283118769,  3.973578565608177, 71.685655096650834,  4.148441030556229
 5.744509990855474,  1.059561993713130, 58.047816498161509,  4.127903307889814
 6.926961375913541,  5.398654371746474, 64.934115019613515,  4.006350858379261
 1.294550782391623,  7.460893246038040, 12.631010854243005,  3.920749025928219
10.736544218694664,  9.483531898096858, 70.802595910210059,  4.084600844226522
10.718377507392729,  5.578123760395474, 58.379808143558378,  3.869402800285070
 7.975675917249712,  2.746616390550451, 69.265450033742880,  4.104761364557398
 6.056438121900416,  6.768851775067706, 17.874791504610268,  4.336607336260403
 8.736062077975133,  8.009171823571149,  7.492355564072644,  4.042579113591852
 0.925001966875136,  1.642166443948046, 12.659500125139052,  3.996264487233758
 9.722719913569387,  5.018647279020342, 40.888086092183080,  4.225035563561023
 8.999392986871422,  9.392214255210803,  3.690582313461370,  4.057981084896134
 4.339690596683009, 10.152060251362707, 55.535714966209696,  3.934923703162637
 7.364288056716699, 11.676052097463378,  7.054629258071296,  3.829980586644103
10.202785541017622,  8.671881540815106, 30.045150253760863,  4.287010012275746
 1.567323898785489, 10.537020187484414, 67.524836872455211,  4.058527183812135
 8.648886851256156,  2.370978169399140, 73.218781846714279,  3.945381981640184
 5.209561565129946,  3.875528837738027, 46.008622453423463,  3.774898728433441
 9.529066437044065,  4.982275159516244, 51.211393498993267,  4.092556236145722
 0.082319773834423,  7.118893410571434, 48.572025293272169,  3.888810773976739
 7.064227567075685,  9.684474336658850,  0.198986820023992,  3.916416417760005
10.314481559396024,  5.565506859712247,  4.144920339508297,  4.084696092532412
 7.271163441366153,  3.518559491599402, 20.297534159823051,  4.103498002424260
 0.855266969295530,  7.010193373402744,  7.462700618371496,  4.250554841389465
 5.288848900437805,  7.923485361742907,  3.409819062138860,  3.796591021273813
 4.311993823265200,  6.418347776368835, 74.457961953494049,  3.954703970155116
 8.292523472403731,  3.877997539608384,  7.398727213511788,  4.268891651688035
 3.894820889521386, 10.464286538451562, 17.547034537039767,  3.806007212274398
 8.055762772113312,  6.712773987612825, 27.152818549559594,  3.913521096586053
 0.036826992553402,  1.916992738246057, 69.291442256897852,  4.021354437639372
 9.350341786954983,  3.173305256582708, 62.523719120138466,  4.146485108845276
 0.291173207162500,  3.034688303270017,  6.580969807638727,  3.892627846503393
 8.020492641428929,  2.951610591359867, 25.714117166411587,  3.908538207538919
 3.265358587201359,  0.030555575458604, 26.975038423918896,  3.795371343879117
 5.746712172902915,  0.650816830378636, 52.737076603604891,  3.977987771372181
11.564221339256841,  6.478973854937373, 44.358407115925026,  4.157094290356401
 7.365213326184904,  4.717448145340517, 14.526302966043167,  3.937023466735410
