BANDS
8 8
NANOPARTICLES
cell(1), 11.902
cell(2), 11.902
cell(3), 74.385
 6.905788684770663,  8.812127668227678, 66.553974085522313,  3.851571017163527
 7.054478318664082, 11.469857183302850, 19.791367021885360,  3.924157615248608
 6.545284745291241,  5.185310314741236, 16.585157829391278,  3.837217902598895
 6.755777522083396, 11.245639841952448, 36.301398995643289,  4.199414087190515
 9.161811294045245,  5.574310460525121, 23.380456309087553,  3.975129707498429
10.069415359075867,  6.443039030099042, 40.130705899150144,  3.847811359507670
 9.998243267685551,  1.766321159462982, 27.872799215443084,  4.057598320974227
 7.356090564779168,  2.386940025741348, 51.014572663387526,  3.929130022350022
 3.235741237628581,  0.335794586451894, 17.893156449823621,  4.233441556483000
11.003115436708066,  0.565585728001304, 16.925712874506608,  4.253636802020320
 8.972828027584757,  4.865078916992769, 53.669776558877899,  3.985676964265480
 1.283725893548726,  8.731201546404041, 27.505358085933342,  4.023780637545985
 4.648764015573968,  4.848941377192896, 31.677481999554619,  3.743677062457586
 1.194466101916265,  9.411249149273269, 70.111484355989759,  4.029396943343733
 5.476307559715435,  0.157677391164113, 48.664855125964756,  3.559781660788172
10.041808450971150,  2.771047015089879, 56.966433423436108,  4.110899975334861
 1.140451230442155,  8.917416942203298,  7.702193387148986,  3.802636461634323
10.248327760836817,  4.035243263750464, 66.028909085152222,  4.149799861870113
 8.803529398781764,  9.988642112855558,  7.050020795876201,  4.311879222828103
 6.740415873435882,  7.266749645743966, 37.387636571120062,  3.906018835771781
 1.066956429017204,  6.382525188939422, 56.880604003515330,  3.785227349607946
10.469068730089713,  8.669631716763252, 54.687761962501625,  3.733890836805904
 1.207947578558845,  5.563749043327785,  1.892971991845630,  3.934416070732428
 4.595332091360199,  8.236494639957467, 50.870023222415057,  4.231064845702164
 1.646493778488480,  0.551938914775055,  9.505127610262335,  4.174442247440251
 2.513991045582644,  3.525700389065148, 15.413800196672163,  3.972541652054734
 0.184223199386324, 11.196920969496240, 30.409797425757986,  3.906675232443145
 8.588657998506223,  7.966528875466071, 14.036677521551649,  3.811368342146428
 1.604750958931661, 11.408981687808776, 13.844843746240524,  3.854102179553666
 1.794135928658893,  3.045559235787357, 35.578983773529423,  4.199901105469921
 0.408327653411614,  4.026061894305807, 30.172045650257829,  3.858082857767736
 2.925865201736987,  1.609572885960410, 31.514997013635973,  3.600264349975242
 6.902958324096828,  1.764478830059430, 54.802508802078812,  3.774020784914332
 8.534319351688087,  4.160954415162301, 30.577590108667920,  3.715527742310283
 3.207965315295853, 11.080913087210469, 24.804689189014063,  3.999978865313370
 3.050026771280292, 11.252137621285918, 73.312834976674168,  4.221581179372922
 4.323103774827976, 10.614010303974123, 29.203814686642740,  3.890578974265873
 6.162212725951992, 10.671705373704434, 44.236454509518872,  3.730226324199739
 8.383332178909683,  6.101546311648812, 69.003572213498956,  3.997654259594509
 2.110493199100284, 10.836362848872183, 34.361526481770696,  4.377188623917730
 0.506063356394768, 11.347919470507534, 56.748066942346554,  4.056274331177014
 3.930642478965097,  0.428365014467927, 52.304247757582786,  4.364143655677490
 8.183489697304589,  2.146910412029519, 39.658222041484962,  3.915296542673557
 7.524792097180394,  4.368293820801595, 12.829531109456580,  4.062369569376846
11.676951144108685,  5.910885331503849, 33.488829093172470,  3.856381593810287
 8.202920292559911,  0.438114794776273, 12.335515313780375,  3.825893952017842
 7.560755505566918, 10.550820752015142, 52.188113122892410,  3.713950496354218
 4.969360716779654,  4.644824046031012,  3.584565488925320,  4.495058223021237
 4.236198884738853,  2.794917451083998, 46.222509655814015,  4.036295156727439
 2.839128405398052,  5.525965378612408, 38.813294869504603,  4.161768937624386
 9.278569498590166,  8.410495110713876, 26.607296502337789,  3.979754977886984
 2.001012436477582,  2.550940295710001, 58.958241747367417,  3.871059749702693
 3.585649005227025,  6.758304693423280, 34.939450093885519,  4.095563459947148
 4.138051931442271,  1.177183343188468, 39.881614675315774,  4.403943147606899
11.102709564458115,  6.489212262594604, 19.969890376375869,  4.072597500352870
 6.985735279265153, 10.285127750702758, 61.125374332928828,  4.357361447485217
 9.824609539215986,  2.426484277521626, 69.774581933132211,  4.017681158083742
 9.878847347859708,  4.071303658111829, 43.227294080405549,  3.925733209347514
10.422063605311864,  7.439089883754233, 30.203900781770137,  3.808694321887376
11.084595096107817, 10.613824180406151, 20.776291216231261,  4.265462028339005
 6.581029758997011,  7.912996985860885, 54.977826932013578,  4.191420094297652
 8.566223976991012,  3.173909452823605, 19.439161176737802,  3.883346687371704
 7.640958387757286,  8.994413843749530, 47.565472420052501,  4.258258712285678
 1.709749432866043,  0.428421402550884, 48.761757956951342,  3.989812786402173
 6.465052975075608,  2.310343132295401, 43.073834882309818,  3.732233806949400
 6.813529550575959,  6.076158515382644, 60.527655707514022,  4.139149548023830
 3.886349046445523, 11.677908731019988, 68.284848856628869,  3.885789091943484
 6.837248804692578, 11.455114143282820, 26.347352742329225,  3.755864835718998
 9.623497002865257,  0.153152485396058, 43.242155592445158,  3.924560225346831
 8.151263213615593,  5.963018461857499,  6.131867429228884,  4.036877512577753
 4.604307293312583, 11.407192356942007, 64.409992723996666,  4.011458752917883
10.989715189667754,  0.001760903128815, 72.663953310852122,  3.874028438926008
 1.328033532752046,  5.702303063122205, 63.867867056337467,  3.932806057733345
 3.058187570750360,  4.910488697638031, 11.215813645961290,  3.920356352872355
 4.920100778856685,  8.543757146615627,  6.869659357193103,  3.969224638463831
 2.898896296176592,  3.110668067106650, 66.437252989295331,  3.988791835922969
 3.736257076528673,  9.291199739765972, 21.038304514489639,  4.396321932447399
 5.530087140549046,  6.446200872773177, 45.036268620679586,  4.050406826231111
 7.707411255969725, 10.054138049690886, 74.083052634030921,  4.160570758230040
 3.633086006905794,  3.526269397278079, 73.670930994456043,  4.046550936309603
 4.727501012032961,  4.392853087910682, 69.820337325246783,  4.114907976411762
11.606143748314668,  5.194574944449455, 26.512517964296190,  3.951595860010872
 9.128755031228906, 10.323582799561944, 69.503177969848736,  4.110518051698203
 9.521739900189880,  7.574982317828114, 50.878973957857326,  3.869690178718303
 8.312534186207117,  2.061214158665833,  0.133215739652638,  3.797051086949579
 6.924100787408908,  1.215630878007876, 16.065736336042352,  4.183571068325854
 4.728226379066268,  4.876110964369808, 57.157362251791433,  4.139857757531724
 3.160325747436781,  8.931051221708305, 11.104461092510348,  4.108631349054244
 5.407033093840760,  7.884284482990546, 25.770363619956004,  3.992421592262396
 8.073492998787808,  1.620624245962007, 23.165546408305339,  4.220434088755807
 1.714190696478547,  1.952614801294241, 70.571301779274023,  3.770186947057665
 2.932035702781622, 11.140676791392105, 60.809058561350135,  3.941856135841078
 0.320426795232498,  2.841751023584704, 46.036785307258263,  3.789217056377434
 3.232536623669641,  3.861712135770579, 49.863332061733082,  3.808707524523197
11.173685985041955, 11.415961496614834, 24.797709980304564,  3.898044675093008
 0.112392269896539,  0.227523324941468, 67.229013463342000,  3.931764764617369
 2.295156050697047,  0.022228701665863, 43.723210030855576,  4.373339220812475
 4.215058652320884,  1.527185601922622, 21.720598933436968,  3.959938883503540
 9.204166590429024,  7.071167874303327, 63.582437959561126,  3.868007174089270
 0.607081503213239,  9.926924920314400, 51.697162834595908,  3.899374122279005
 4.044890254353958,  6.886980849311727, 14.325479541647006,  3.705626694282878
11.615734910045358,  8.757175622844523, 59.907912899344318,  4.267456091430391
 7.286052590049967, 10.060002204143075, 40.390482090322166,  4.367637413565839
 7.038399634047941,  6.775182375378711, 20.176787135498650,  4.073569824661155
 7.811038844333210,  1.903295299198911,  5.347881280750054,  4.136341520297218
 1.192284957043512,  9.565871912001256, 63.918894184690906,  3.793297393461355
 2.325209023911544,  7.914459095661162, 31.275723291426107,  3.955987772148015
 0.556140110016270,  1.634671027054589, 63.418309775625907,  4.202660335597534
11.440742088072390,  3.886365172416853, 73.114803418291487,  3.956934814483155
 7.718878799624384,  6.116450742598731, 33.773532773172946,  3.917211294500606
 5.316766833882982,  0.488877464389775,  2.307510647796652,  4.218247494360312
 5.702061381683494, 11.622732745562715,  9.350965180515500,  4.072333709236750
 9.856026221142635,  9.693262655900519, 33.565216491653437,  4.353903130314524
 5.741016640701225,  9.425079376768874, 32.730610594989074,  4.059535675132819
 9.284734936905283,  6.577485341281663, 57.521054298044866,  3.695365754870683
 0.138183950245646, 11.895723878041311,  5.604435881043138,  3.737185624900800
 1.153797376674769,  8.656456106291968, 16.920007846633968,  4.261913975507189
11.853834506573223,  7.979750507972997, 36.886973699479562,  4.099285626857514
 0.359553182002164,  6.946399837805139, 13.252988778361052,  3.966515049018239
 1.765247874788823,  2.958905697553054, 54.967863209245593,  4.164073314367098
 7.093448881108271,  7.710976288465138, 10.282318814875033,  4.284169844489128
 6.560574881276180,  1.608268552970601, 32.818594747254132,  4.104850698272618
 6.363958358627739,  5.421871913057752, 40.826938993450504,  3.933279684882061
10.721563670367702,  9.723521157887864, 10.782061037818428,  4.070274699654840
10.934392523862657,  5.730618939178407,  9.232341604021032,  4.301292514690770
 3.267038688088260,  5.547202852440092, 18.912941298260769,  4.232925509840070
 5.820462946583446,  3.406734246085883, 36.638831231905542,  4.149550362565296
 8.396830382518850, 10.883727015117319, 57.195079864577131,  4.063027942609955
11.137868123319366,  3.473708081020960, 49.963045912749052,  4.214798205359270
 4.622215771665597,  7.631686096879458, 63.403481375681260,  3.725984052461540
 1.137724957876887,  1.481685450298420,  2.041846064443982,  4.234372595942174
 2.741167900210440,  5.146851702933702,  7.228038436181007,  4.093471483974487
 0.483063848340898,  5.482158566867563, 69.586788406439410,  3.960259104868119
 9.467703026028200, 10.906827582492344, 64.432593848840128,  4.005202739551124
 1.312797370530904,  2.634164878422515, 24.124596943705988,  3.666099403421974
10.258251132823460,  0.615514066215412, 60.253870683757690,  3.753120745151059
 3.597616301249378,  9.495786861537956, 46.774118310869014,  3.833928981897102
 0.118697163901978,  9.207107261887355,  0.896180129342447,  3.918661532989543
 2.780170600389281,  9.570027806884022,  3.733079360675742,  3.886076062382506
11.219449594700656,  7.885386611705765,  4.478995382982918,  3.883168204698372
 4.582027472085282,  1.634919567962930, 12.666589092516189,  3.829349879495591
 5.694582272882529,  2.278548460007697, 29.051689149272164,  3.740381706901077
 6.334185192834424,  7.359749578574567, 29.479678468135102,  3.717372886458998
10.261094761376052,  7.547102616776394, 72.191544655188423,  3.928571539059853
 3.528672329079664,  9.420599930546240, 37.989840599241553,  3.911956829948981
 3.801718995493264,  1.353818961236719,  6.071585359254893,  4.078096699657281
 7.020739724756394,  8.789955161540350,  3.506286495250968,  3.962255180490209
 9.872405299443750,  4.349506315538812, 36.716778321433701,  4.170905966168079
 6.354945515026313,  0.893082558102307, 71.276823207884746,  4.120364409275706
 2.656959622124930,  6.069196273982978, 60.284232017469456,  3.731657655970771
 6.217897516409672,  3.779925497024163,  8.991801225180289,  4.130521069289022
 5.364146438477612,  8.576626447574185, 70.730567396931576,  4.535338625015545
 9.645359155657900, 11.486540062843932,  2.790118779638483,  3.675232074439226
 4.401000130384917,  7.602302563688744,  0.476357418920067,  4.154424884834805
 3.666425164036998,  8.295314938870364, 41.873241359866782,  4.166361102871576
 4.305349130180069,  0.252958006066143, 57.031843983553522,  3.683741262143144
 1.076376865571953,  7.102860846550866, 48.812546175832757,  4.218841028830774
10.797083774169050,  4.603445424785390, 60.703527894738940,  4.345277293554574
10.434038996565258,  1.048193535644264, 53.254751503830867,  4.066211815617949
10.839681474910044,  0.240850525171489, 36.999588814801704,  4.267262304584193
 7.883848865537031,  9.432721435077896, 23.038889970962632,  3.914964890262250
 0.199278396428010,  2.683840143823379, 40.208185019138732,  4.042037653664116
 4.543509052120239,  8.649714591860034, 58.305652246932084,  3.747471897346604
 7.099313163216503,  5.348949548663529, 72.896980047574417,  3.884777226471503
 0.053970215345182, 10.027518869637179, 40.541699134116257,  4.276959297508573
 8.261029247579371,  1.945568988308852, 46.630726065202062,  4.205738513873825
 2.793542874597223,  8.988823379103838, 54.679336493918356,  3.704277023834001
 5.323568612779832,  8.840684439244656, 17.275497479683818,  3.817981413062699
 3.881374636669964,  5.490117269335453, 22.971398709043982,  3.967505663079624
 1.043575592909390,  6.889198828555424, 44.693194319607777,  4.023974437463197
 9.106753672187017,  8.979959738163227, 17.664021968719013,  3.786333977055622
 6.534561910218707,  5.355636215427762, 48.782168916257326,  3.647801136751794
 9.789006525422145,  5.648368232360392, 46.850972637531932,  3.811016251666629
 2.081962471928516,  1.536590005733593, 27.743882476787174,  3.857145176063442
11.508625094917928,  2.875697461180433, 12.474677881637147,  4.392150113007286
 3.059129372319790,  4.114412238604010, 42.647358765550159,  3.935896045237357
 0.727743353203578,  6.174838934537410, 52.759909766995946,  3.895659198823973
 7.638619092554406,  4.830918199181383, 26.935618022087159,  3.894362406661471
10.627087725932336,  1.902554782794767, 33.050854676583604,  4.048312259607211
 9.680650112838313,  1.662410140722979,  8.924784057815822,  3.949518609807076
 0.596707314896043,  2.629332025692153, 20.281962068099229,  4.119612837685923
 9.891187756891098, 11.646556172488173, 49.504167041490881,  3.683559283025634
10.542693745072393,  4.730535746624818, 16.244746456584746,  4.225771696598197
 0.625636221498749,  7.831847919198935, 23.578966292356149,  4.134868686637748
11.431471250669100,  3.821266755193687,  5.086418936837315,  4.068972454197824
 8.236086485932582, 10.670383933718716, 29.857910092718420,  3.942225649118927
 6.342189279111382,  5.072572105450023, 65.698767080612313,  3.881072148089707
 5.589589734871709, 10.158494490593588, 13.826043127300471,  3.584724294664051
 5.017479390433574,  4.660710120436019, 53.167234587796912,  3.868383747755308
11.374955135784562, 10.173175781626126, 46.326249881517384,  3.893126602568216
 4.889442482888553,  2.638755363787435, 25.393629111293006,  3.781801799069233
 8.311383498701879,  2.407512924559610, 63.008196895673819,  3.720670196731402
 6.823580705683322,  2.167604902228372, 59.356383216306995,  3.990651997236767
 3.189639467564919,  7.326885231806934, 67.120837753748305,  4.230184409936806
11.089734129619943,  8.033324443755632, 66.863727803540669,  3.903016000802142
 4.407623063655018,  3.254831738283015, 62.571445067281218,  4.312533080297073
 9.107956748329872,  8.045977352274971, 43.708988095403228,  4.208591969809353
 7.242812046038032,  1.348109480430105, 66.851307526530647,  4.060533685699795
 8.984102821222695,  5.485245902653504,  2.102727942552778,  4.215140502434367
 3.405109760961553,  5.255172979423190, 27.979983277733087,  3.953336028641775
