BANDS
8 8
NANOPARTICLES
cell(1), 11.868
cell(2), 11.868
cell(3), 74.174
10.247534347506948,  9.507017672762867, 62.372150897097484,  3.886340906303325
 0.429516859544482,  4.033523034560627, 13.589738508677547,  4.060599022725155
 7.049823642154285,  5.870177527902819, 49.302600614082237,  3.908452017058312
 8.661392888354525, 11.200497564884472, 59.203497229628155,  3.898054996447844
10.292748101057871,  9.792861913495523, 68.834780239080132,  3.514102513205221
 4.136494378263684,  4.639259117070981, 56.147144985820994,  3.800365718291852
 5.253268464804695, 11.350255797280363,  6.508781775442362,  4.342734964699797
 8.745350079797348,  6.844246008900756, 36.200893083121279,  4.236517457353385
11.505662309039909,  2.564551086076488, 42.303678930583892,  3.725429386858316
11.504764333043278,  5.115243358578352, 17.446626169929221,  4.103948872803032
11.691879729139385,  8.613303887459121, 29.739589694359537,  3.975705191438896
 9.038334025918196,  6.859739291836555, 59.715676299070097,  3.989324002520546
 7.634935434638878, 10.457357020478101, 21.248704024482105,  4.200328209448336
 4.101228062820347,  9.329662020395620, 71.686307978873984,  4.002533737541369
 5.080699134452217,  7.304504439505929, 58.919885258243440,  4.092760659613185
 6.589211891561984, 10.436012943894161, 42.482875592065767,  4.121006967711337
 3.615127060844118, 10.934059256380039, 19.218462889516019,  3.915417917093595
 1.739112032643758,  0.718360402459479, 62.308075103383473,  4.151142674908720
10.091337463211232,  8.880280940882198, 56.283983789738720,  4.076609202294879
10.058460899542874, 10.757093572861805, 26.533488837031154,  4.396920438070866
 4.056237453567177, 11.610902943031613, 52.933521444420506,  4.022593091166782
 9.904540120658533, 10.531030056421299,  6.055220987622143,  4.180040428661343
 8.753664840559503, 10.399280405675002, 31.734588061052825,  3.921256829364123
 9.605448094186086,  9.043385737130336, 49.040241223353647,  4.055610131930766
 7.836060078924151,  4.067113531830945, 70.909253747244080,  3.986278812569114
 9.642208767938762,  1.449934974621790, 62.299728367366200,  3.816149330564081
 1.503141612110533,  2.843934786113591, 27.156831655466121,  3.816370533471251
 5.515451372693977,  6.195786421620649, 68.448972651968688,  3.974867137920142
 7.595006543698558,  2.575709792120270, 42.924514875463110,  4.176343281254039
 1.853915701146287,  6.022161838988317, 36.323025740111738,  4.558301409090439
 6.372634125874507,  9.486343053006953, 61.994582731117852,  3.838332820838201
 7.714326300473720,  0.901291927547593,  3.652113319153934,  3.695855964703372
11.685505817486144,  9.667727229688815, 20.174938818974901,  4.290129194174360
 9.109848996595625,  3.858497582688394, 46.553317492555600,  4.045334265937419
 4.315210740990400,  0.119803167570221, 22.851535966083940,  3.778450918793079
 8.884939778560966,  9.783440901632865,  0.941781094928235,  4.137457826614463
11.763475927398105, 10.251437667600628, 52.418617416052598,  4.208695286141650
 2.320686218706308,  2.616580794181952, 32.502485870087867,  3.915186467535007
 2.916826723743327, 10.127140686614570, 36.037566137392957,  3.935758834362232
 8.530417324765233,  1.644614689229562, 23.791331292093236,  3.945401644150162
 3.632736482953725,  5.959056828117279, 14.585193072841639,  3.666085984834754
 7.914656703502568,  5.478904228283246, 56.172891302422165,  3.931078460226750
 9.585206860963597,  6.228430548320653, 68.123977836291900,  3.880410849460753
 4.666613878579640, 10.990448053366832,  1.858018395163114,  4.177485314803824
10.886862288268873,  3.061030938049374,  4.295040213720080,  4.085182335540891
11.316679285610457, 11.102247331792846, 72.203974419128315,  3.894049873273605
 2.882548635012850,  5.481943283327643, 10.670080889898646,  4.061606020303373
 6.050811951571656,  3.076489110329893, 21.076860462261244,  3.942058307846604
 2.160104526749139,  9.431890936085733, 55.706142339419848,  3.940792504268165
 2.881734037814257,  6.437606629967545, 31.280249648080748,  4.129633355854424
 0.532657835509771, 11.283857522867679,  2.717652061486218,  4.263425289853926
 7.878721091297240,  7.993345121551605, 71.223488629356808,  3.886585992790641
11.444892186994954,  4.727728411579169, 29.831504918987864,  3.768007801707620
 5.220126112445758,  3.545714826364362, 52.580283562193330,  3.955312317506537
10.475654692162403,  0.768459737293555, 55.316050924712385,  3.702776796816286
 4.534570796206606,  3.347768052736559,  7.747347032537206,  3.880870525278284
 5.739521140069848,  8.511429153080709, 33.594748788287511,  4.017022405285698
 6.275145868259663,  5.579609388117198, 62.202799328243898,  3.691427682909469
11.115594811609386,  7.227544186892984,  3.625885920495206,  4.365863065576417
 6.709877458342087,  1.070390358464907, 17.637733255379317,  4.107437842821541
10.435780389992201,  1.258129888769982, 49.383423750546989,  4.055412152392138
 5.826792195611394,  6.336209262773103, 42.441794862188075,  4.183071595321947
 9.135087862665817,  3.488128687518753, 53.012900510148278,  3.910930582533722
 8.511374434716171,  8.361279380220479, 39.836519860827039,  3.588799656482722
 0.951402051303026,  2.156102806341998, 46.246357970683981,  3.816707112385256
 3.731218035520417,  0.126408987671460, 65.712072683223383,  3.812478599695214
 6.251117049983124,  9.285366530356985, 25.103869226390330,  4.231449760517020
10.886369339245723,  5.372569511084787, 50.036083334325390,  3.957522215237702
 8.153297466532782,  2.555480356453263, 36.250449269238040,  4.280747699984005
 7.151545207829580,  5.367813818389616, 24.139960446360796,  4.013485809207165
11.471801033680480,  8.285858968824703, 33.619365547821424,  3.801651325982320
 8.979070934989243,  6.115053185237408,  6.988531905842859,  3.905815170940496
 0.253156163842883,  6.169639694221043, 53.865686733923823,  4.245657098260952
 4.740735920689948,  2.166835654740776, 69.016611121131817,  4.202470637395082
 7.340256493548943,  3.622209526619686, 65.771728497535008,  4.298111404026474
11.002881444129468,  4.534643951217592, 24.669768259761639,  3.825978546590563
 8.371688109436638,  6.493795201472732, 31.370745597685122,  3.948377950458963
10.611571546460215,  9.963326340747237, 42.722115476234698,  3.987984667719031
 5.391898391060571,  1.295822287958889, 39.771447760388732,  3.924031789044990
 2.031018002496252,  8.985757343608213, 68.308118343383569,  3.937395848439499
 7.851188582376016, 11.110065945883635, 13.988105946406387,  4.147057547887432
 3.232699837439293,  1.595696715551063, 43.009436554580446,  3.847632497539734
 2.421693457791187,  3.616234702384721, 40.032625855098097,  3.524002103343812
 1.694118765217341,  8.127452271565032, 49.544406262021056,  3.782673008044759
 8.314061356064711,  2.214616715183055,  7.377477747601605,  4.036013853525688
 4.741112784532476,  7.345101809112172, 20.842932656229156,  4.264752151082238
11.487651698440638,  4.790767557746967, 61.980585052696966,  3.816753805550543
10.204690110470336,  0.024398413372190, 10.572021865549424,  4.232103829885250
 6.706184141789433,  1.640053464749290, 55.751443474695741,  3.994029895223785
 1.440445252387431,  8.381365521108174, 12.847032316472321,  3.721586549650518
10.100631048405466,  6.028342136306115, 43.302037894205277,  4.007284590977355
 6.143239643842207, 10.185005186555705, 68.288429689654976,  4.100406693737144
 9.499308129336407,  4.620149114564384, 39.594339080401220,  4.013625763888577
 2.872659413044110, 10.223776489619146,  9.685057459366224,  3.906911544365325
 4.854575356743333,  2.307921637572065, 14.212758559931293,  4.059112218808163
 4.912489680843641,  1.049228895213523, 30.032340922939468,  3.901540332438832
 7.990283450954129, 11.212794904399850, 64.985449915923780,  3.737946073221979
 0.161129906048184,  7.109898046445191, 65.110284088857227,  4.035726659773579
 1.024305536771057,  1.286824420540251,  7.505699685775433,  4.271036124571724
 6.922781884266040, 10.497135050165923, 36.956341100175536,  4.066553753479564
 8.993539299680956,  6.787416245635005, 27.431813021109225,  4.003374151700445
 3.980342113104459,  4.412898559644589, 18.024090383584252,  3.902135411852472
 2.302470964942485,  2.295971319883116, 20.616211826156881,  3.583483904240815
 2.822533071951085,  4.293949260039743, 49.174574072035398,  4.121396158444819
 1.231760580402451,  5.399958564278065,  6.917654626340002,  4.044774983223881
11.281348428643270,  3.027256695326273, 65.323601958572496,  3.689221630071327
 5.342609843055674,  8.434919130026655, 12.208496852326840,  4.000224466941410
11.795988346773401, 11.080776362980812, 65.634499708429090,  3.985173379426522
 0.595443964399646, 10.039826984855484, 46.298198398138467,  4.063014002129266
 0.583806609022187, 10.218745427875790, 59.227890460480587,  3.924014623499843
 4.544137023829444, 11.260310159605810, 45.970164575987596,  3.970461048285041
 2.414510799687763, 10.810319703932473, 27.427880869354841,  4.191235984897392
11.399362786344021,  8.065373855767694,  9.474620328657092,  4.051451717368839
 5.673364323948419,  4.484426787443049, 33.529884875860738,  4.026224697375174
 2.301367954850063,  6.693107630734633, 27.208496497383926,  4.043080262460137
 0.619516113140362,  7.337060106827209, 40.273113475224740,  4.113316890946979
 3.545226802689390,  3.730483572938582, 60.174702545086348,  4.049618869476021
 1.802413838881572,  9.242770555415630,  6.085100090788138,  3.774404312877148
 4.115226200055720,  7.489898988662654, 52.679071197943770,  4.234985841499732
 4.070470896451911, 10.427733222432352, 15.367686111169139,  3.889903156909964
11.122923054688819,  9.828983604619070, 37.369979442949685,  3.668999292037199
 0.089895550421019,  2.441766233660848, 37.512421380424691,  3.726567305204601
 0.392838922194179,  6.156856522992546, 46.522419189341498,  3.720279421469015
10.824730578439507,  4.355770371382896, 33.650987805116401,  3.995216908678352
 5.722394210421407,  8.944310017198168, 29.350157792974738,  4.317060056124912
 5.596650458467794,  5.121248005023165, 38.445948703886906,  4.178746579589696
 4.741230041789533,  7.198154768378763,  7.367536663898370,  3.822122644473209
 8.674558566616074,  6.034595589802884, 20.275477374629116,  4.103526023368725
 9.007060851659805,  2.804820744893822, 27.535557933866446,  3.947292557926336
 9.830829642291452,  1.842623590643605,  0.579269991881969,  3.968767207821157
 3.223030638905474,  2.357533880072208,  4.077297944273128,  4.151440418323628
11.608626289970278,  0.780686854330283, 30.036527550600134,  4.096093105110103
 4.306623003142794,  8.826877217477534, 39.496838701117390,  3.941350875125835
11.347517851795455,  9.890904830690321, 15.945135569354948,  4.205270589910154
 7.607533612077503,  9.161161534969139,  9.069174288589245,  3.875220256291497
 6.031201690080549,  0.474513635770795, 33.606556571077071,  3.666843200408973
 0.612581930203594,  0.990843835212955, 23.781707383745417,  4.050167052643370
 8.265357320998080,  2.473032734082337, 31.348017924799862,  3.838570401250031
 3.528420104121990,  5.193398782287626, 71.930573762856724,  4.274074027121496
 2.245251874821179,  7.685942958945776, 61.753779904893726,  3.949529709545275
10.224617510291806,  1.910653935697397, 19.965894499809558,  4.439094678719156
 3.374221488403176,  3.967408303420926, 23.888014032199123,  4.020695192727954
 1.178424871019304,  4.228572507819036,  1.052728320307981,  4.037314220208834
 0.811725491533040,  5.750315122236652, 21.310620450001842,  4.063352146812615
 7.180008772807450,  8.811575972697717, 17.409050677357865,  4.202937205945410
 6.140786832331711,  9.503824180862347, 55.658350938251473,  4.019389668413265
 6.601897034644159,  4.307665427965503,  4.598786309934374,  3.712500013513211
 1.490858844690005,  4.738308255392439, 68.227096882297403,  4.225685649005799
 6.272355115183324,  1.807357216222505, 48.931858308703809,  4.388139729192066
 8.548705253760767,  2.893221979671857, 12.758835631061553,  3.668497351177320
11.638631545763547,  3.372443080049948, 71.628199181988336,  3.870918909679230
 9.346361514398613,  0.515015844765118, 39.724969182469174,  4.118973700251195
 0.969092672796107,  6.274508916801827, 58.086414664657930,  4.307867181644339
 4.898763249567389,  3.978066697078100, 45.634157337059875,  3.964111002415344
 8.636197586167730, 11.653522840357912, 45.926997986612243,  4.246569425798175
 7.960661230069245, 11.675402430132408, 52.220718622101735,  3.904909519215825
 2.861541052692667,  1.158499026773421, 72.724233016495972,  3.973564796540216
 7.572952267114036,  7.702881464419761, 45.871497754970690,  3.929912916581959
 3.757870670801953,  2.159692056128228, 36.235126660891737,  4.050826467793283
 0.965510418089412,  0.804815889487862, 69.036993128684287,  3.797643286326258
11.789479628281407,  7.285120680863287, 71.222397258840047,  4.001730828882143
 8.164199411825567,  7.451420192529669, 64.810000962845990,  3.729750859704011
 3.156067802616202,  4.204731761484562, 64.326376462393512,  4.317434628201300
 3.371423325190674,  6.426848838910414,  3.644762375395384,  4.027405522224179
 7.575942743491982,  4.834301896357422, 16.062902104743831,  4.230596212700166
 5.845219729117256,  3.107930068838342,  0.780087686551297,  4.399886159266443
10.124486452456065,  1.805291943558235, 15.903115195834813,  3.690959787557080
 5.639299157544486,  4.763925732617831, 28.644691655480603,  4.154177910742479
 5.736735787702104,  7.280583615091903,  0.521107907061400,  3.941155217533184
 9.445772299684823,  5.815799271892765,  0.003702761393901,  4.093332755612700
 1.523202672330890, 11.668867903007323, 39.963329888860045,  3.979074877404749
 2.440220558009963,  0.151611612238074, 49.290545307874545,  3.988311055095088
 1.901880560367713,  1.462860904484064, 16.676870000097647,  3.787603848507026
11.505052648567894,  2.294344011812266, 58.832286420056541,  4.216272643586411
 7.283369893240037,  0.102979184741797, 71.897352720095697,  4.258554929244219
 1.750844708578267,  8.109210997325278,  0.449479012721783,  3.887542012506688
 9.362815362267620,  7.262591579773803, 13.022350511467504,  4.286023738231887
 8.333529084571282,  7.643414052054061, 52.719282224459569,  4.198587889643330
 4.328318813863524,  8.140224768178365, 65.136396714757282,  4.045565488464362
 5.742175737871497,  1.430714385039722, 62.631637930970705,  3.987672328094559
10.739627725588591,  4.141926226185308,  9.898144993374043,  3.946747834020318
11.342593004123495,  0.348927997266643, 34.231056419068061,  4.134076221868968
 2.538229247520714, 10.447543477596586, 32.070383522037275,  4.059508670139057
 6.035191184729255,  0.790246546928654, 10.532839863669407,  4.244470889252336
 2.421113933879341,  7.797121271550403, 17.494066472376687,  3.622556493225315
 1.683531466418998,  0.331329479334678, 12.858953463066818,  3.889284839622678
 6.968736172242592,  8.225416793166833,  4.241722643744645,  4.103867966598690
 9.965966715658109,  8.017523044176521, 23.462087501699127,  3.829910991517789
 2.073866200559843,  5.248538305766484, 43.293776456707569,  3.782158113632595
 2.233010726825452,  1.395402900991731, 55.954361097845769,  3.726779500651023
 4.515410628702604, 11.641669607800493, 58.941742688603320,  4.455307668161402
 7.493865826646782,  3.160929936238656, 59.438194743009824,  4.046022390952423
 2.003441576583489,  8.871994416425419, 23.731712130117334,  4.175407815499807
 5.464002529294540,  1.542265912078539, 26.215800459748444,  3.872863794974817
 2.866160702652856,  9.025874409988344, 43.161242500014765,  3.934897301811878
 1.048305056598982,  2.380865822656144, 52.383299944805991,  4.041634056851552
 3.832013834504551,  7.537649262895355, 46.530662976283352,  3.671849304334609
 6.900961298568988,  5.299730890657700, 10.269168091889830,  3.996083130741619
 5.587474419202384,  9.547626092333811, 49.421455680647888,  4.009592328429762
 9.112946893156774,  1.333802744234409, 68.529748331874345,  3.695155394298398
