BANDS
8 8
NANOPARTICLES
cell(1), 11.893
cell(2), 11.893
cell(3), 74.330
 0.351558316650523,  2.718609689634301, 24.270335384410092,  4.111641781883034
11.485391241535662,  0.587247474083826, 34.122278211186057,  4.377953035218958
 4.682275008460564,  2.580141560579870, 67.690679637698807,  3.997110984355521
11.522607561656310,  0.455132010314067, 39.234430622222867,  3.940980060568665
 9.600220335746370,  6.135737432885548, 17.932560969377917,  3.897251466522140
 8.835639032419143, 10.818985064361263, 11.831149522692625,  3.738843109806284
 9.861382545531651,  0.631066324677256, 64.337323613176565,  3.885568085822217
 9.649714081558637,  5.569100009081834, 50.116180946803631,  3.989433677631663
 9.607910497591224,  8.303182723456555, 14.638369437756147,  3.956780059589988
11.560409812015163,  4.991599054694443, 14.633776135878676,  3.731157123404130
 3.446276826965602, 10.550967702503609, 56.911319610778030,  3.906194003295240
 9.389898582776555,  8.546304981836911, 55.942266041137927,  3.802232207500192
 6.888741033011422,  9.222833072593847,  9.172424470789023,  3.580358401294006
 8.454737001987469,  4.671950110903157,  8.141333814606636,  4.063706068990874
 4.404609956599556,  1.158056092113978, 48.207437110737295,  3.770872565761753
 3.604401978124452,  5.570149968112499, 46.509564507486580,  4.446555064118130
 5.581609092750166,  5.056729609080093, 70.485945471375132,  3.684745429342206
10.785345588481613,  8.614005860529463, 40.651133337618212,  4.180796743606074
 5.467428388174118, 10.207018519445453,  5.617957266039340,  4.054561847509170
 3.275581638957718, 10.478807921444993, 33.369018278498707,  4.139493633027424
 1.539296993813867,  6.363247991484835, 17.699271955861146,  3.789633572461801
 9.189711326562353,  1.569443302465001, 55.577520914112824,  4.294220043477105
 8.899119820167323,  8.695342523381777,  3.039339144271937,  3.959498192929836
 7.036134176751091,  2.694831779633893, 40.248243372039255,  3.888429207774877
 5.462678810491451,  6.891328868046545, 17.761608941721786,  4.125717752159428
11.211545501173291,  4.761579177083153, 27.803707715448240,  3.990658494153200
 9.572963693376405,  5.931775601369027, 24.417026202879512,  3.888140317773650
 9.356597427809584,  1.380922355625544, 43.309702456129131,  4.094835757082405
 3.431536135313409, 10.734443481729578, 68.739319286132030,  4.150352954725328
 3.197778740155261,  8.656668968929971, 20.589260348381767,  3.932016367167674
10.374923212816572,  4.062765199953951, 21.099938034273311,  3.416351627282598
 2.484389276586675,  9.730446120065425,  0.872154785263039,  3.733572038655243
 6.709307278527646,  6.175888481031574, 62.077008085349505,  3.973693031382898
 2.680288632622073,  6.610890894972406, 34.350072451206309,  3.923855988944018
 5.166899303432084,  7.768542046937119,  2.587783352251390,  3.737770530114509
 0.355693762268958, 10.078232905674220, 18.017964904841371,  4.027000604636457
 1.021715148333749,  3.296093541040578, 43.974002145717222,  4.070126357208382
 4.647316578980854,  9.173345068259417, 24.217184596667884,  3.931188510402262
 3.052598430679796,  0.590816316315245, 72.438879226874732,  4.065756433887763
 7.272922755380937, 10.704809117210944, 40.950963863536792,  4.011933802585502
 9.075267185619104,  3.756059881346198, 71.556741048515121,  4.066027893116434
10.359436354040342,  9.627187094861878, 48.401880356019227,  3.793841749520416
 4.289463987165441, 10.795445936253275, 17.397474089207666,  4.050196824177674
 1.090288407970392,  9.468129031380087, 36.768103071747028,  4.179674520964503
11.459087058556390,  2.189216922426975, 60.797821529345860,  4.479887982181272
10.261177594775608,  6.599864417876836, 37.156879595634550,  3.740044495925948
 7.662140905914593, 11.541283346294874, 50.639060263397084,  4.189459407392118
 4.738860410930638,  1.435693188939165, 44.218887899384704,  4.253017514477885
 2.327358978484597,  9.733065709120893,  8.153523806707373,  4.068731257535182
10.151352237170018,  9.453624843335977, 44.565537916410634,  3.895413951144452
 4.499693149291457,  9.598423449519521, 49.475468196575271,  3.576928045487132
 4.313379616338343,  0.484696180411085, 36.775009300564278,  3.925264551692986
 7.559155997797085, 11.562591052203967, 46.585851947335790,  3.912858079148459
 5.105129524811081,  6.594203368495174,  7.216152634119901,  3.877865071100374
 9.875585155360353,  8.304295613467566,  6.930150455784472,  4.099266609915851
 1.082407849579487,  7.230128582431807, 57.285180208385185,  4.279797917597127
 9.057411937337307,  0.237869643616104,  5.705653855571532,  4.093099343693047
 2.304988127392468,  6.505724704934145, 39.311782216265229,  3.998151623647300
10.497459842476644,  9.085566981306725, 52.230495777915664,  3.939591721071335
 1.551244767048178,  4.066321170033281, 11.370314362530618,  4.025892089481627
 6.686121528199790,  0.535051673309754, 70.426634907894211,  3.919473043062523
 5.703652026391586,  9.054802662260929, 72.859239850706160,  4.340419709350354
 3.102171745289041,  0.057391595063271, 64.528827338648810,  3.995332177790714
 0.676548189399866,  2.799116821140937, 66.550449909589361,  4.343577186759224
 0.995759964586834,  7.092395165407284, 30.701953402215256,  4.163784952331675
 5.716778476031117,  2.151534994131708,  4.802952326576087,  3.805355062371643
 5.402299598811562,  3.131830239099361, 11.919671120918702,  3.975128724273604
 0.042787681906568,  2.681884525738464, 74.082667351369309,  3.861880198796417
10.806844270974580,  0.282124689638902, 14.894764063925123,  4.024893044238620
 4.614341414780710,  5.219747347108226, 30.533546762742755,  3.987831437353385
11.120053980355138,  4.487660578432168,  4.626970355966917,  3.908062248895446
 1.056712048841681,  3.036066247250043, 56.830282042920899,  4.155805569015409
 9.455532097644928,  7.673766686158528, 71.980628228841539,  3.833613267052403
 6.063555499258563,  4.095464308676720, 20.855198618640433,  3.877782346203693
 8.641578583790174,  2.519249182647082,  2.347788169095241,  3.865111032019391
10.813240230208489,  4.349662599517984, 40.479170838818519,  4.351305601592408
 7.097681057746748,  7.878012577474215, 21.363217386236624,  4.025137502917994
 7.962601606113926,  2.048221207241240, 18.157340994228758,  3.835726311259271
 5.747699167944827,  8.673607802558104, 14.212082536157130,  3.834268998291898
 0.515438505194152,  6.241833808472800, 61.203030344279661,  3.876082245332364
 2.171121595760701,  4.844430598870495, 21.274137322204837,  4.080073242148843
 1.161079126861918,  2.749332291309992, 30.388209268759844,  3.524141467684642
 5.103068947084407,  2.277462463790538, 56.333613190754299,  4.136860908388482
 5.661631542510046,  7.184192898030060, 56.455941394079282,  4.200608326452508
 5.122579349496708,  8.557252051826023, 36.694734813070987,  3.877030555562692
 3.282314017965493,  8.881112700567440, 52.956968493045807,  3.908995610465475
 7.562737075089816,  6.453455119154320, 11.613466111949053,  3.902167182907347
 1.795164869880918,  9.317455573772115, 14.257164579053597,  4.168237869402769
 2.909475986631968,  1.267611103042992, 14.256548016070289,  3.772701079510998
10.980507546310694,  4.828858302047633, 33.665479148069913,  4.211821434643564
 8.944167026167698,  2.809545866079286, 36.727133447574708,  4.123895278347310
 3.233019009553863,  2.703920128883043, 33.601576870176345,  4.104943960541868
11.585270987825405, 11.048192560053550, 57.896457141817741,  3.913834216364581
 5.535007770494520,  5.327277636078487, 24.544972581125197,  3.965984935318984
 8.468295684272107,  6.219523886690467, 43.268927061338069,  3.840574552173157
 7.206926302999430,  1.044542545875562,  9.131548471911774,  3.852085332350041
 4.700231545396508,  5.209331644802039, 42.353687598063679,  4.163454265550146
 8.984106006215441,  8.290866164368055, 64.863554437395564,  3.980519214359660
 3.677136130177519,  8.568804636320454, 61.007849375656278,  3.983760435156524
 3.801392992517748,  5.254931271711785, 74.052202041872036,  4.296676564295968
11.635436069605809, 11.864019186415227,  2.591235389744363,  4.009798475503962
 3.666199495966795,  0.740679307147734, 60.492945292022490,  4.208248342189622
10.481320474434595,  6.183199456661175, 68.303881376883055,  4.346716027490319
11.188151483380381,  8.747706103907342, 27.469037328367477,  3.856092499077743
11.130627653629109,  1.490239783085161, 47.252953896433539,  4.201729977305652
 9.302783221925308,  8.325274938570079, 59.879934100501828,  4.056682920684180
 4.647471683901763, 11.177816204770467, 11.462530519781025,  3.909985330611206
 6.172640205050606, 11.773444880434528, 20.920294736052174,  4.027588671715592
 6.362806919594598,  2.511366356741302, 64.015437161054678,  4.070078275422517
 8.736638850045964, 10.260557285723628, 37.154265868830478,  4.165883434544772
 9.301876528278543, 11.475432968850098, 73.477199865677989,  4.338893713395935
 3.164072700069451,  6.808773645966977, 68.237212010292509,  3.778298509167733
 6.188362244467776,  7.768195203311964, 33.056779522908634,  3.842444245327314
 6.951781409444594,  5.457406967128589, 66.492576943790169,  3.705929990007149
 0.677650459857893,  0.066053871913518, 11.200664567612515,  4.167610508247694
 1.333829137746682, 11.477659019356199, 50.205964205839841,  3.922341479613762
 6.900474945619913, 10.691487245295091, 62.314366043616246,  4.165322919192627
 7.011047945927568,  4.004867291997454, 33.418039481919216,  3.891213469177750
 5.242034096629631,  9.023144730903063, 44.235769635866852,  4.411148479127764
 9.823326184342779,  4.536365542234294, 63.900870559336731,  3.950433495751420
10.989828391665309,  5.433763683676478, 53.989972147466716,  4.211412237435082
 8.380251257607185, 10.362965122707910, 30.273296813124418,  4.174042750896493
 0.860354280700005, 11.811611651982995, 54.154100665375346,  4.058210326873715
 3.169675688977336,  1.832567932119046,  1.898530561986561,  3.901546960966304
11.461751363930722,  7.794791993491905, 10.880608587188069,  4.473178261123732
 7.210137425439217,  6.916709464792664, 39.608729843023177,  4.003279323421320
 1.079750231688171, 10.526263047484463, 23.349082672354427,  3.615475065029230
 1.742493318994117,  3.604240665327970, 49.869539553708393,  4.183344327921058
 9.513220068317345,  2.875089140826762, 11.929944979167656,  4.261772440630471
 4.423581972877652,  9.185906633684400, 29.591490920878829,  4.165704903921565
 1.092593007148708,  3.431407213581921, 37.000366771058779,  4.053968452337845
11.548620670747832,  0.317844272503135, 69.896882421061164,  4.232470294496513
 0.184221597166119, 10.013413848217446, 62.272813788798970,  3.981764027801400
 7.340640989982550,  2.813849819199015, 60.101463113371054,  3.923614665576335
 1.305123591563635,  5.948088536406615,  7.571687400972777,  3.857742808754172
 1.549062895129582,  4.021824204385994, 70.592531677026230,  4.196268948521630
 1.218626801716290,  8.532274287788535,  4.397694564416118,  4.122619228071778
 0.183460632420698, 10.130670613134765, 66.452121322056783,  3.881377216338191
 2.697189071739650,  3.688506349837427, 63.103919114669552,  3.841444491501308
 6.490746529467006, 10.592670447717563, 54.412146416027909,  3.918817560158920
11.188877738830531,  7.794858396959627, 21.242085099834501,  4.151372240331308
 4.178264107036129,  3.000782831569331, 17.534702461569697,  4.065514072176081
 8.104732056145410,  2.163143111022630, 23.818981980939675,  4.288114712413067
 5.494215184216110,  1.347649852906010, 30.561063559100123,  3.942351727772934
 2.260151443569765,  0.845457988447742, 20.421993483905396,  4.091361737566126
 6.255676779242953, 11.356082995842282,  1.902737823165540,  3.877023310193989
 2.314898712721066,  0.631345060464920,  5.423009489941647,  3.738601069351110
 7.327584517533147,  0.137335488917126, 33.811997602944409,  3.900748380370775
 7.097015350631662,  4.488784914364205, 53.687021949230669,  3.822464876454575
 6.343865513502728, 11.719279728597426, 26.883963865388267,  4.185071023721131
 1.368080471057392, 11.267862597183946, 42.742287054193859,  4.174469852982030
 1.896314380035928,  9.980902606530709, 46.585943682074216,  3.985150967813957
 6.785601815305371,  0.585221976915224, 14.692361050499903,  4.041290024500299
 7.683085216688011,  3.720464509163556, 46.328393197540038,  4.207549194405250
 9.444320505648294,  2.274759315402624, 30.954473593278109,  3.842571530831675
10.177147399871510,  0.182464682777967, 20.820386990878038,  4.001054813954001
 8.758019940931995,  2.500426787886075, 67.867678221647353,  3.742666731839666
 3.143044246073313,  3.447922219651591, 27.201302360523513,  4.108285471987738
 3.836580359312763,  2.940304845616460,  8.201763015208995,  4.101229768042031
 7.278290093133630,  3.758332318941463, 27.834868732703008,  4.114236652458978
 3.653342778706852, 10.139560515006751, 39.775905325523027,  3.646830449173336
 4.267007451905909,  1.385000466329838, 52.353244474852517,  4.171851631728924
 7.450589022062950,  5.463271763501367,  4.475949096503219,  3.677410865954851
 3.114501667630211,  4.972186620189735,  4.252446060083332,  3.946596459539562
 7.362715049211302,  7.759065346154538, 27.130701176723697,  4.008100427335028
11.127709418727186,  6.045699479155034, 46.397824021860501,  4.064565537390739
 3.125392056876279,  2.090769753837304, 40.222468756204997,  4.020433982984056
 3.781950893982177,  7.358822167561444, 11.042037488468891,  3.954354777878286
 4.709415457619002,  8.248910028396033, 64.908247950435467,  4.103884016287303
 6.836084342094773, 11.289481647796826, 66.557123827504384,  4.013165218980198
 1.056960548246752,  6.617749290361580, 65.031640077855016,  3.893651628258779
 3.520470492892900,  5.515758725849052, 14.507159741270904,  3.912265698072049
 2.245390157008788, 11.380560847139437, 26.893425363058238,  4.031597237739063
 7.140113844417423,  7.551550879658199, 47.689961125401965,  3.993670678784648
 5.797489703028207,  4.376543705024573, 49.961702681514510,  4.069122874050816
 4.094525299062264,  1.375693191548471, 23.921468896341338,  3.859740068580613
11.742372861599192,  2.320333120340382,  7.905685694092871,  3.982857051910656
 1.618896946603331,  6.600772444180911, 24.978393260832853,  4.157721344210501
10.333293688559428,  0.825202927878605, 27.364985354728198,  4.088886446577888
 1.541048338591882,  8.293620052268048, 71.596317741225050,  4.246209755097914
 9.881663800996691,  8.715095800067983, 33.625448192207848,  3.864600656623503
 7.748784359133186,  5.834958970796374,  0.575912559470761,  3.862316822306969
 7.054859234537190, 11.225112194329158, 58.294321967788449,  3.937108403566146
 7.403543307749552,  4.539341795416353, 15.066289341908183,  3.995600606261136
 1.384212400300114,  7.605815566633596, 49.822100684753963,  3.849875312091798
11.761866609502576,  6.628290939830665,  0.860259415288039,  4.338471924885411
 9.571486593337543,  4.993324986040416, 57.758682963855470,  3.860073875289400
 8.808541794669985,  6.313994245170630, 30.550974250860662,  3.941955313258016
 9.198500004308533,  9.977629186032852, 24.197044284356625,  4.184701646255424
 0.437390850306305, 11.036259818985338, 30.371962995496464,  3.829142987075345
 5.114217728283683,  4.495300617244111, 36.995507586912915,  4.261113240874219
 7.004847933805208,  8.246245871344996, 69.051740033522790,  3.862343815040217
 3.847299664600496,  4.802418354094659, 59.409639542514697,  4.205902369648917
 8.214281182640264,  9.900429020420697, 18.007906722671994,  4.003159986313092
 1.480795403582919,  7.318818029441354, 43.412809928599899,  3.818019927868180
 3.206122214934846,  5.024840468172660, 53.939912105769807,  4.047230421781664
 6.323121450363031,  2.245506841063693, 73.748907331592079,  3.576008776469526
10.523265793333932,  2.125033087565296, 51.828107283355152,  3.741377548094115
 6.807072958379633,  7.774735852764784, 51.736860191215364,  3.840266000886026
11.792138334406459,  2.844120121508986, 17.829906666893596,  3.977256326519583
