BANDS
8 8
NANOPARTICLES
cell(1), 11.882
cell(2), 11.882
cell(3), 74.261
 8.559303901887484,  6.266454233062992, 20.443083395759906,  3.734012480321119
 0.382333910024944, 11.874945758983435, 19.612384829285780,  4.120390514679312
 7.182864522406385,  3.188113562936699, 74.127240327897468,  4.319838004896522
 6.997251470838396,  2.984158022163786, 67.882692705047418,  3.845981977698794
 1.235022996034102,  1.224961502156553, 55.258467602376996,  4.514613432186724
 1.009821305041171,  8.303700070292230, 12.592802943921537,  4.038660451829795
 3.616386457303952,  2.313449507544586, 49.583377494475762,  4.450077019611929
11.773697020409347,  7.637106525503174, 35.600545604497214,  4.475373521740643
 7.046313192948043,  1.958321429134977, 27.242394132905766,  3.621734935111315
 9.813454176052188,  1.720727830228671, 70.337489380657786,  3.919395410020893
 1.405892563061854, 10.737374978172207, 23.511102171201760,  4.255558855114622
 7.854800989836982,  4.863086747917743, 63.771876273176169,  4.325298836995633
 4.797962841883715,  8.011654630273416, 53.122051736594479,  4.093496382677470
11.209133291347133, 11.684807596173455,  6.507684539227965,  4.372357349770074
 0.175128374720004,  6.060875568559519, 15.977623849825870,  4.251163413432569
 0.685739471281520,  6.909649651984160, 54.565460943050283,  3.924010035281885
 4.445687061799366,  0.683642493788987, 58.330345132903723,  4.029091225272412
 7.194736675710379,  4.858108250825744, 10.965356700127133,  4.094419199351847
 9.193071521823009,  5.721245479990953, 70.474615355944863,  4.110163820292855
10.081194118620971,  2.825270454567491, 60.889799918464021,  3.984392618533372
 6.107533529015099,  2.884466745999133, 55.517461362218427,  3.848562744012048
11.013097248845398,  6.867180339144140, 29.384701026624963,  3.741290289898898
10.806748562614430,  5.230387372252750, 38.979551842806686,  4.039789723506495
 3.297616999533565,  2.212498576839347, 21.778402991538428,  4.179936983438776
 9.204565940573142,  4.815719727875599, 26.055275842083905,  3.918931913599477
 7.521714915682942,  7.444972416944724, 28.208067615418813,  3.655789864947631
 6.123595620906487, 11.146022960125579, 36.436134929599881,  3.646676523423830
 8.302826549584914, 11.345563227837578, 24.598178143840666,  4.069669892519786
10.366840070228875,  9.433753188575951, 32.114808859455778,  3.857103733293199
 3.281353515170358,  1.929557745079338, 68.315594729827666,  3.907707864483872
 3.540300601372287, 10.498584691132026, 42.832018697736167,  3.944671701749150
 8.473756772965617,  7.158432173304590, 41.808983716973401,  4.226390677561475
 9.021404665352909,  0.994125729419253, 57.418792779807845,  4.068672964529227
10.615969249913700,  9.634320608413448, 70.995002027416049,  4.251270116847381
 0.897848544464544,  1.745135534746751, 63.685970725387627,  4.075052610184001
 3.788712985967478,  0.552504300708187,  6.421758740218317,  3.943008721405953
 4.096767850061205,  7.958082584661335,  1.157350587428731,  4.302835688566454
11.649844850196834,  1.291417883656324, 38.928317786486922,  4.015668595789744
 0.283737102261413,  7.576337501324343,  7.144616250571680,  4.135143728144405
 4.187480042487796,  6.642541449643688, 14.697530373992688,  4.238707252348900
 1.971640297254029,  3.930106817822729, 12.742553991895708,  3.778204834661008
 3.435774302268647,  6.499595399239594, 42.498996324822961,  3.999469974829591
 4.549477659098113,  6.080408777485816, 21.941818762904543,  3.928935873724117
 2.714811536740581,  5.836695432424984, 38.297727135333609,  3.754291850316628
 5.074454050576704,  8.734418731616628, 39.539682095249468,  4.108107283736274
 9.671637363212591,  6.505824542647513, 45.780883163442105,  4.002548879151345
 1.890372551223652, 11.308898759637410, 36.126068119638049,  3.940172592641935
 1.337535494751012,  7.860226062563730, 20.175467949838502,  4.191787227043049
 8.860674259672914, 10.227788525768265, 39.014870987585532,  4.094970925752526
 0.964314342800387,  9.235262373498465, 39.469283923488867,  4.141984748828972
 9.715267587506215,  8.724748582569205,  2.717177277233767,  4.065198937069158
 5.129577593058713,  4.961644273655588, 70.851828702295919,  4.181315679623555
 9.678419841936048, 11.367709324327192, 35.335144565125717,  3.778107012451204
 3.588512451845879,  5.595611779062477, 57.056126881874164,  4.150734227001531
 3.252444711895677,  5.217785211747825, 66.189554293322814,  3.921959252384218
 6.529654825827422, 10.046779420650374, 15.463919931108997,  4.157708837622209
11.644969736386205,  4.632720342617188, 51.393367394364539,  4.085813430411766
 5.121572489247704,  0.177161953753965, 52.881025211540916,  3.961837714414028
 7.593930243637734,  7.544038808645640, 23.852807779334061,  3.796317356297491
 4.220738812722717,  2.201752590582135, 10.081957274727316,  3.977899345785590
 0.364263695593155,  1.079741750711079, 32.739109296103635,  4.188854395114273
 6.776556827974788,  6.197138949074998,  3.788635965654481,  3.952511699127316
11.841581375099885,  8.872580806220370, 43.392000385475527,  3.966355852924835
 4.188607314505829,  9.994246348860001, 48.876635192658789,  4.143637369797767
 6.642883226690559,  8.015926875658982, 32.363464758517622,  4.127815318150013
 8.267248223815001,  8.725385536675866,  6.466162692514914,  3.971441319532641
 1.505961804693031, 10.632639257751618, 28.192058447597809,  4.274535766522214
 9.493507038051821,  0.857598801055558,  2.888731777800460,  3.898162540008619
 4.235944908192904,  0.207114501948966,  0.356441296497570,  4.114196663147204
10.414463689539936,  3.440771850377248, 18.648334066120544,  3.913908680699131
 2.742930573946704, 10.274776528612888,  9.495790017892778,  3.805381962379136
 5.832125325348253,  0.673754804429433, 40.409043286818715,  3.872133198661589
 7.730378042348594,  7.108824741842781, 74.131633067302047,  3.590062108987671
 9.695615040452415, 10.476646439082359, 46.756755183566767,  4.156963152547781
11.426253289546823,  5.041419228776147, 57.860683476008219,  3.978409617442940
 8.903557402933979,  7.397269611375792, 52.845168915735840,  4.224521272884034
 6.802949256563126,  3.552456195372099, 18.964801435022387,  3.315866616786666
 6.031571597379862,  4.641303174317323, 39.771676571623189,  3.882202754444655
 9.216897950986157, 10.927750210213059, 28.591227527085760,  4.123802080780856
 0.046596393492823, 11.412110500385511, 67.264134200450115,  4.413486484093590
 3.411915845506401, 11.476022382124851, 13.145487517584872,  3.990526199063391
 6.915750867824155,  4.033476978722526, 51.986135240807151,  3.748948082691176
 0.345148683252093,  0.787600389266990, 42.749174880695293,  3.773575698875182
 8.504874558935610, 11.097704125837835, 42.927696976782414,  3.953171946018543
 1.544566725851429,  1.374939404404837,  3.206825578576008,  4.060513550642264
 2.913421400783002,  2.273458423170604, 29.787499793848411,  3.949824415823139
 8.934990658529237,  2.707375738207984, 41.318274962423153,  3.738313679236327
 2.338149557780957,  7.420662044666329, 46.274361555461745,  4.039062832342972
 7.924211234915424,  5.727249883624321, 16.221656436832493,  4.035181190653266
 8.027154272600491,  1.682672967173509, 16.284953051876705,  3.658480250581089
11.398706990917722,  0.920291372209328, 49.703415881549034,  4.082786999924666
 5.760536910475106,  0.618823265877674, 45.771848688479864,  4.427575926068011
 1.093340257308188,  3.515970061234821,  7.763107767560587,  4.224573082041471
 1.935150593515586,  8.631158790954936, 64.835404722617369,  3.879043148970497
 2.871418544738316,  3.275036517589369, 44.591834626544419,  3.767378640192599
 9.725689718113584,  3.678088304079350, 54.668820488672942,  3.743003101181842
 2.795843565915881,  9.472278777348970, 56.553894131380645,  3.803324805563026
 1.622463200141930,  0.040639811190519, 46.360569646655179,  4.006765825072835
 2.330250914662557,  3.486615241682884, 60.321014804978688,  4.018759942943788
 1.338479592956815,  8.000144955725441, 59.944826264772644,  4.080925198415860
 4.143796698768120,  6.344838846250645, 62.486342716589391,  4.007296823328425
 7.364183218162234,  3.135477323952423, 22.744295621006870,  4.367878562706956
 1.225939154193027,  1.911976150152307, 16.060291183148578,  4.125402789478838
 8.159885453938335,  0.807309803990788, 32.052381803106215,  3.921218278448064
 2.773624544210958,  8.419500399690525, 71.403821715454058,  4.199650525840242
 4.937828037020064,  1.852697731409009, 64.606630329273443,  4.214323791693160
 2.082783911382972,  9.731804002869250, 16.544008738320212,  4.098207477706504
10.981157493806805,  5.709467972701131, 10.418962901461285,  3.733359580090121
 0.534800341764157, 10.585132980963069,  0.455246037711415,  3.865562389189545
 1.542397329666221,  5.328417946080935, 32.245134091229318,  4.312744120030671
 2.384200976228883,  9.472438671222303, 32.187784274806127,  3.942429754178022
11.394970239955645,  1.625834921997647, 25.766471482238938,  3.829163429090387
 4.828702351874568,  2.741873491152428, 14.814889809911840,  3.666135787013858
 9.963786459464295,  7.973536170529111, 65.685337029063788,  4.099922517850607
11.667406821809463,  6.628359995725348, 73.895775616074502,  4.349736484357352
 7.464389717561167, 11.539740839696549, 61.029863011347821,  4.235622293641653
 5.815850539137589,  8.811374668369620, 11.828057868071047,  3.645591598302267
 0.108867122554148,  5.651636916566990, 63.014633581294319,  3.999906249079329
 8.267523146137437,  0.344600438178378, 19.818733897948121,  3.912843979327374
11.644669621091241,  4.596394839044722, 22.609646735066168,  4.506252391276576
 1.085003310057618,  4.201697494377255, 70.726201166682216,  4.041130478830746
 1.424695066790914,  9.440656985449582,  3.918573710241225,  3.642474760623887
 9.141238091215161,  4.804510048627997,  6.791494157346557,  4.081543920671367
 3.297085370969059,  4.302181838788389, 53.247318993131294,  3.909755711874057
 7.149074620284382,  0.830671528318221, 12.427507706308081,  4.010317909668052
 4.125361880611352,  2.322534112576824, 37.374735728663261,  3.787372361471307
 6.313292445249463,  9.257266778131342, 64.321279089633236,  4.094866148952993
11.056216834991549, 10.200411358310848, 62.515013972465205,  3.944932588438601
 0.813331594951737,  3.573507680833239, 35.879288118923363,  3.874604049691100
 3.016444475892080,  6.372754955259403, 50.007486015680847,  3.793812437982809
 6.001553721548895,  0.703197578603505, 70.961282373309118,  4.065365117957240
 6.497105033959641,  4.240944671714067, 30.452693651900681,  4.326822689357383
 8.943403613516283,  0.942475247578966, 64.655822616399035,  3.999747776289749
 5.162778535535526,  4.240524423181045,  6.825274302757457,  3.932064495250622
10.185744205869598,  9.662828722248433,  9.986156569761977,  3.722784196394066
10.432262309313710,  2.935190552986328, 29.442096696773760,  4.200698837956287
 4.412349715465671,  0.810849480452242, 33.373185405913489,  4.021251780460386
 9.060368713823271,  1.924124800558286,  9.324506753899977,  3.589558133483216
10.816245273276715,  8.414349232560641, 25.846748470889576,  3.977324356316669
 5.309115727672404, 10.243956939062187, 21.854258630098020,  4.279089132479262
 2.242755701919775,  7.144299457654244, 24.644320510766732,  3.461258334688779
10.003588527740851,  9.413212075198537, 21.747976904881089,  3.601123263969698
 6.231299429566966, 10.596593814005594,  3.576078226285763,  4.027400038801887
 9.091564588762099,  7.600362701005610, 13.027107883488664,  3.729998654441216
10.288650579213073,  4.668147199689312,  2.975015998730608,  3.871153421422920
 3.426330394136329, 10.926776012546185, 61.919089162685879,  4.119477760147215
11.526844243990961,  7.935672134979709, 49.210077052321445,  3.761523465527902
 7.685827073296457,  6.376206938581938, 56.739429903303403,  4.186877242924621
 6.422059327330398, 11.080615278830672,  8.944106811364421,  3.792664854649101
 0.303325029472933,  0.897214248581570, 11.098653340676222,  3.882595512555915
 5.627952524239475,  7.818893628286457, 18.636741621009467,  3.801979879515248
10.419447708933337, 11.108435234256270, 14.339111328920406,  4.214217263644875
 0.469692440947015,  4.114335781873871, 47.479819096622293,  3.929687035753781
 9.313668641733623, 11.697790261561515, 53.326089937286049,  4.466393484928515
10.049525844829629,  3.414781142272947, 13.487242550845686,  4.041008077170103
 3.281500728398784,  4.631106885142710, 18.399506332190043,  4.128522336904116
 0.568110488854780,  0.059149640158218, 59.265400302753243,  3.936610123008201
 6.693606727419806,  8.721909718142774, 71.032296133378992,  3.694610007125590
10.610287472632191,  9.207309012825329, 57.107027769070868,  3.933869350425188
 2.273029667723877,  5.398220692892129,  4.117167664559415,  4.313390973106881
 3.469881311858309,  1.610080702692416, 25.860712936278869,  4.077922078740833
 3.088078712602004,  4.086886379909211,  0.036427297541225,  4.002701369057845
 5.330179427625819,  8.474702182109104, 59.325374367269461,  3.966405948453679
 8.057383699189579, 10.880492279706520, 73.978815604862106,  3.987712742952255
 3.902463305917709, 10.006062280794056, 67.862238768014976,  3.842896356736575
 6.567763400904819,  6.862105611169563, 67.552558120077308,  3.954979888531150
 6.116116174586599,  8.314933837294276, 45.041326920838287,  4.098315192036292
 1.735156781863872,  0.400522477748008, 71.497025164373227,  3.794422598102864
 4.248914047855841,  8.378226584299348,  6.343296618694269,  4.096064322647813
 7.512034941002665,  1.339529726655596,  6.088483643803554,  3.669032723216911
 5.277095131457516,  2.542243832679130,  3.369123431758006,  3.755764128137665
 6.418138826955332,  4.255977321733853, 43.681573643920373,  3.810939964683092
 6.524037600508413, 10.152912802080222, 55.998154612443521,  3.844955391285882
 9.421810479080907,  4.591311454301157, 33.570154804237511,  4.183660125160122
 2.705411093690901,  3.031956192192512, 40.823030011278789,  3.793084094601610
 4.076766750753054,  8.091277611596741, 35.491174513175622,  3.942967608196023
10.972694779038392,  3.951933766344601, 66.926451711337904,  4.554437901412712
 5.358198334827535,  5.133342560869784, 47.198694160394183,  3.715614366276715
 5.253395682458575,  5.224754986340074, 25.916115483129850,  3.975480866237158
 7.703745866733748,  6.891937723018908, 36.861618280196559,  4.172716937670915
 7.401498212048506,  0.479097483359213, 49.631953046127570,  3.956688178169918
 7.585971475148035,  7.751604194689706, 48.962831356641168,  3.999276970591788
 9.167739797670674,  7.232558961108027, 60.529364869679185,  4.124652945083710
 7.801457835617658, 10.665454551201163, 67.866499078665328,  4.058050579610422
 0.915751183949850,  7.350354352289298, 68.173912356755622,  3.540501122036792
11.728032654292184,  4.859603909351288, 42.829621766262065,  3.908911514402587
 4.617393505511318,  0.657966702344879, 18.166206281606676,  4.108688497904027
 5.322998507453593, 10.958801466163200, 29.839746442332029,  4.053374318978102
 9.766273392504152,  9.017977838003414, 17.897307794577831,  4.142123986279906
 4.897376441573728,  9.548584510082675, 25.968909300229665,  4.101897873656672
 1.371256212426503, 10.075236482374638, 52.157705860790969,  4.128840961314558
 3.441157904707364,  6.329795987531204,  9.885863874643505,  4.239818321502342
 3.739866236297598,  7.179534531460094, 29.140391257061207,  4.146711088107277
 8.661984310644199,  4.011615901404893, 48.635236020397208,  3.802547727242777
11.303770059232953,  2.438832410181129, 73.974081072945452,  4.061439132503722
 5.432459738373255,  4.521370944692307, 34.453058176167417,  3.970029747266335
 9.577466851535192,  2.393286169527089, 45.160563364229596,  4.077968818488080
 1.353657478332111,  4.676177454639223, 27.162306517014756,  3.809685593775664
 8.280224118218561,  2.651998169059167, 37.150896902558678,  4.030335228545671
 6.357021292577054,  3.899535808172090, 59.811818294037842,  3.814995573758518
