BANDS
8 8
NANOPARTICLES
cell(1), 11.879
cell(2), 11.879
cell(3), 74.246
 3.347462136445910,  4.127105145558561,  5.453886802669193,  3.830541439419162
 9.192461010803390,  4.264380173425231, 57.672573877974479,  3.892462599651579
11.864725877816387,  7.384866066475458, 51.659353153531704,  4.072176426596063
 5.917227907616596,  8.891582227755803, 38.787401895808195,  3.604489735718573
 7.890038267173770,  0.326187882890216, 50.325912658056083,  4.052176757307452
 7.151481207700640,  0.669063579825541, 58.341316545144991,  4.442658723988077
 5.628333492218077,  5.709875850090084,  2.855624882482213,  3.767230863175528
 5.636733478705166,  3.213066642577014, 39.589606445143303,  3.718624338051508
 9.545042795047980,  3.662739387897077, 51.523587499332059,  3.768000380977608
 3.605963156934727,  4.313799059761747, 74.164977568201863,  3.881887237828042
10.168990711589048,  8.026307897844148, 22.865678674754093,  3.893402594604075
 9.043176546374918,  2.259340331008563, 27.157777005688196,  4.142589264289815
 1.605195180502668,  3.539713801096208, 50.954069200260371,  4.195400253322212
 9.636690694847061,  4.902819032459703,  3.277662695928537,  4.020523207388550
 7.542668338041763,  2.239495676792490, 46.757843589818414,  4.040504178694939
 0.595685256944283,  7.838298602029037, 63.827235284155194,  3.888795182059198
 6.847988534833570,  7.896410732628394, 42.354162016274813,  3.977752231069703
 4.297658715376310,  6.994541820186022, 63.798945747752988,  3.596662464039410
11.305611179770240,  1.573107551656075, 30.380543720597981,  3.839950527080762
11.412680636127766,  5.503247185431867, 15.502400866546626,  3.846077539529969
10.724563722296269,  4.378968697475730, 24.165175093309280,  3.925293105532416
 2.131505666343533,  6.103612467856498, 60.709955444814057,  3.862944403312493
10.149158617614299,  2.636654646428879, 40.749131253171271,  4.343135180950034
 3.358546376068528,  8.771408713475880, 67.403008955139583,  4.215258387702665
 5.284590074706172,  2.491188466514387, 52.678824759248251,  4.196448387223947
 5.965245077554149,  9.496846639148746, 47.805009791975834,  4.286907781979735
 1.458350578042258,  0.351075926326658, 33.543580274600814,  4.061190014355883
 3.463237217384651,  1.790945753973719, 60.717400426146469,  4.506368723125312
 9.278494540145530,  7.111968448185167, 12.595815201409755,  4.019387061536877
 2.005145221777520, 10.501323140647475, 47.428372862323442,  3.914539242302501
 4.189407609371126,  7.143466081411820, 45.078570492774780,  3.744093517642089
 5.380875908876077,  5.381957866691152,  8.572759197548233,  4.024475756473120
11.774524657237597, 11.779924168267545, 63.667245036733561,  3.964590587207707
 0.740836773181535, 11.123957990999214, 70.327259336748213,  4.001102825969665
 4.586723456993690,  0.139880563814963, 44.581787760734869,  4.347006180182323
 4.160009817399660,  3.014122061193610, 64.462722673139609,  3.490428419922552
 5.101680468732904, 10.310914026690078, 70.732340007433947,  3.900351338450319
 6.140250057806718,  3.990475069761636, 67.486761524957117,  3.991334704413196
 0.462488675533501,  7.207880408930553, 69.793887213417335,  3.920237649975975
10.897107656208220,  9.642034480850690, 31.497037374902078,  4.140204680329571
 6.960779963575771,  3.670887095447164, 43.117127623257737,  3.864767545533908
 7.370243444108382,  8.894585736765178,  9.313736804566371,  4.176504431410892
 4.804204221230803,  6.965894406502400, 33.721827762613422,  4.223364318035624
 3.907845974622861, 10.771581914558018, 30.792325070520096,  3.850389493325088
 7.270592776933032,  3.749331046913952, 12.828831860868819,  3.731081427746754
10.600350878272945,  2.019710835875046, 60.551108377193039,  3.929109881257463
 8.246670367435179,  5.961798656734461, 39.220567094765215,  3.898042738869500
 1.494401120486326,  3.164487765045486, 70.860951578324830,  4.053181413574117
 4.335498314732425,  1.374661713907320, 48.912819442189708,  3.877859871441656
 9.686331167835853,  9.260019560137607, 54.292241951318637,  3.698724120357376
 1.389731209003041,  1.299109007354393, 21.352911861500377,  3.733940815590170
 4.813999907919161,  1.747604482148150, 15.137082795617760,  4.098141977981152
 1.368064791604547,  0.623893130112396,  8.788619534338272,  4.307775501082308
 6.383054130829231,  5.083226228134682, 49.543437245369262,  4.215887544844846
 3.446245048016656,  9.998553952156438, 51.278649996740761,  4.345136120031873
 8.793769728704032,  1.068953636894543, 15.148018406921818,  3.974757920649284
 6.410301904996597,  3.695577775616751, 24.162171098168905,  4.332240223052406
 9.456380576610083,  5.293235899890662,  8.910890418356967,  4.155771412328617
 1.889097644071584,  1.383773155750048, 54.658981966702726,  3.947328288846245
 7.111443504097225, 11.547553700310266, 73.986023791160349,  4.135242674951239
 3.110602155799650,  1.391077417087405, 24.733501574505581,  3.795595376588439
 6.022029046941506, 10.547067600992229, 12.906921427174991,  3.864733992271880
 8.190391460660122,  8.523496791084970, 64.099403857641590,  3.871925545487825
10.277638318700784,  5.776197043217794, 29.591421871604393,  4.325582693309382
 6.794838267552756,  1.041116011626119, 18.546062011746152,  3.910113556388116
 4.783165069053343,  9.713804791756720, 26.987097129439857,  3.827115510815312
 7.298503615084358,  4.785961879170860, 63.829797300424723,  3.825736673566705
 9.176955775457314,  1.044701636212371,  8.239140705691106,  3.948599990544778
 7.089355500131785,  3.218556630279533,  5.760922000410517,  3.850555868473589
 7.322013453815264,  7.794433616933154, 68.453014792006300,  4.205437858500286
 9.248473257584880,  2.120482394180599, 33.908491331149420,  4.394631360757638
 1.371313427415165,  6.901656228779329, 12.320380027670247,  3.954241231485717
 9.189303089534604,  0.865236301523548,  3.234368444015443,  4.102625902268671
10.968158068862895, 11.377137804048814, 18.748950743690934,  4.091280741249006
 7.270117174031311,  0.971430183170289, 62.634702255283237,  4.168513590935590
 8.138285435058323,  5.392891205085742, 20.830781238833488,  3.902857236466583
 9.242981356057197,  4.364098249731827, 70.431169607280097,  4.586164350934964
 0.076519646966729,  6.467446759240461, 40.647935716793057,  4.110188951370279
10.753562504101552,  3.673758104926916, 44.768910691460427,  4.036458507383346
11.219082777391371,  3.141277540858132, 12.141847953202115,  4.370191708089328
 7.123392866578594,  5.222434831187582, 16.385615538342819,  3.953437043680904
 3.320446390877549, 11.053399768132646, 57.506491304336713,  3.778019420229318
 1.545720356721227, 11.493511109157216, 27.880023058261262,  3.766318629816353
 7.433845021843849, 11.378176214664332, 24.669944579240308,  3.947813598609631
 2.177747417345198,  7.246603190744024, 30.561624067855714,  4.006085621225554
 5.237367686003371,  1.430910529596126, 33.444974440734306,  3.796035967416034
 9.630843774936245, 10.065294851005479, 60.778796641319744,  3.989560482082505
10.788421365309919,  1.395963087935127, 73.439984366273592,  4.055269697721722
 3.432448861926755,  1.017041598156353, 67.863318482000579,  4.081024741080774
11.611379671100675,  0.864297655942193, 37.207194001790434,  4.100505402034210
10.770168363164183,  9.665695038622863, 66.992099211406256,  4.161991392136581
10.063153287526271,  8.988152720919965, 72.677189541771270,  4.104597916879657
 1.066743062514521,  3.476312929768898, 27.340375231855976,  4.032342240889134
 7.574150036535367,  8.440029738446214, 51.334283091041499,  3.750850767225129
 3.464909054733192,  9.251109700579406, 10.054880640990984,  3.766758530514762
 2.631990116975560,  5.270665280884690, 24.007612390782526,  3.854212228653091
 1.514695673282344,  5.360802703747034,  8.802890139533298,  3.718716704930239
 3.306165295909308,  4.700313359616991, 42.248994030193018,  3.916225561550397
 7.722755399589452,  8.341240163908445, 57.585869307082405,  4.180615423051128
 3.441440348759101,  2.140365209956347, 36.723669130231499,  3.798916626695549
 4.618010944507568,  5.665025886838156, 27.579755478360639,  4.323048886061803
 6.621781687592025,  4.269194979303720, 31.063237024644376,  4.105436472624148
 3.531470858438887,  3.554215284814079, 11.690528632985222,  4.094711982118509
 5.601395974460263,  9.402122191879002, 61.013744666707389,  4.150902002854388
 6.287405333814341,  7.511444509051012, 73.450136039485557,  4.112359115992935
 8.572177946804814,  8.749359771784610,  2.418406952982568,  4.142508188651622
 7.109944231736364,  9.748787834476230, 16.440979821658619,  3.685730990361893
 7.917102095381789,  6.331659057217652, 45.903968139571091,  4.061276636711908
11.774883055823027,  7.392600983624135, 57.653294657308948,  4.136894167215248
 3.167523752890042, 11.189613699481500, 18.126304858199973,  4.168734372910531
 3.370288474636916,  6.023075715103095, 37.853638309901584,  4.289745300200694
 0.948824176180785,  8.105705955042277, 34.817857716141383,  4.110083554061164
 3.440520456706732,  8.136700174032848,  6.236853125290226,  4.170802154134144
 0.600762990911814,  3.833667932967415, 63.556923131233589,  4.025681245131031
10.908033673401768,  5.355193664366963, 48.360733167122149,  3.897935474720627
 4.171172583144581,  6.076210982727615, 70.352130492417118,  3.914484113949905
11.230333537194376, 11.499412148727840, 57.309051993496695,  4.166197550860596
 1.354990209383944,  7.822175373594988, 18.117997981780167,  3.466051377661035
 2.668146890126684, 11.824143400384258,  5.061548816992983,  3.700269394583726
 2.276812713830176, 11.754195670571448, 12.703613350240040,  3.866188375306246
 9.437515868714716,  9.185431629694444, 37.038074579523666,  4.241542109353746
 1.864929601878520,  6.467096733797936,  2.828362571080106,  3.794033562808254
10.020602049844946,  6.042967563909209, 61.162169777712165,  4.111028885387348
 7.920229760210505,  9.896614755726690, 20.541806272522940,  3.574175552948205
 3.049521382514620,  4.818865634851537, 16.933428829049333,  3.819380967827461
 2.728557512601568,  3.649590046805042, 46.072682884702452,  4.074507368782425
10.725472220000970, 10.275836682593223, 41.224488078915037,  3.969976169246052
 1.059182295580194,  2.548819916992279,  2.541357385695419,  4.221404535474861
 0.569520133140536,  5.087394914767904, 20.612878036003004,  4.097105146193532
 1.028984485366211,  3.666451714224325, 58.025137811912785,  3.663410600877723
 4.882167105895512, 11.689845238804383, 21.727585586331251,  3.865254832251252
 5.096487234860513,  7.559161944894440, 19.112045360810644,  4.286132499944275
 2.152115605384320,  8.002331254516653, 73.396007237813762,  4.191413159505545
 4.096928766562916, 10.340037257104878, 35.850261014084829,  3.876485107892459
 4.418485916076340,  3.632991225007209, 20.449148134693395,  4.086435690993462
 1.930244688710337,  9.030058365249383, 21.642821943936315,  4.042337261352081
 0.093926997487119,  7.797111011536924, 44.775216758151934,  4.557632534107277
 6.980222287572841, 11.760933112295682, 41.116115016090582,  4.085953999927296
 3.839771075405884,  7.339444878734536, 57.407739296010469,  3.723806703590095
 1.393183830547518,  9.443626617512926, 38.472699563306115,  3.707674423018930
 5.252901816413804,  1.695556994430766, 27.734460527935397,  3.598597836918440
 3.719860438959163,  8.316121915204459, 15.238468299416326,  4.049866170216492
 7.044266291761901, 11.474939943221012, 66.534117543980614,  4.112742680313425
 8.315768956622760,  6.810541866292808, 26.106824264518490,  3.929376859365519
 3.349526330282534,  6.169588792256405, 53.683252273680594,  4.132809853083865
 9.726661398684961, 11.156839536845938, 11.733832015852636,  3.953872129706032
 5.449120488082645,  0.675663957309251,  9.569168520430905,  4.000678003067492
 0.787339338401984,  4.445336316322470, 33.101493063849226,  3.966131496793058
 6.062575804151296,  5.347226954371749, 60.036934516577745,  4.230639176957340
10.147215300351382,  9.323060621127890, 48.443443581711414,  4.180997786532548
10.186419916352314,  5.635700150924775, 66.385719101032038,  4.071383510475515
 7.328688667706204, 10.158917512461937, 33.770422354296500,  3.772692330471440
 9.640942673004258,  7.609888764178615, 18.106588419647640,  3.727996599930945
 9.146283822148275,  1.627051796704732, 21.723781896076144,  4.080448025890255
 6.612053652812903,  4.325289023555787, 36.136646604998326,  3.793775063189649
 2.210340119603332,  4.818231874261788, 67.130373872670731,  4.035588637078231
 5.156281968266473,  1.737198800790778,  2.669487617781411,  4.016731576812813
11.588210649055018,  4.704069517242018, 54.614519075520150,  3.926567815577669
 7.477932010295418,  5.731032176802183, 54.280121196828283,  4.255183462056431
11.308886257906344,  1.859825618244101, 67.510510347591605,  4.119410110089920
 2.721441278718212,  6.787559125865831, 48.669877758607925,  4.046970451468686
 9.575802831052755, 10.154095254660980, 27.730057861912925,  3.907858222158046
 6.453786089389311, 11.016188573352286,  5.826509601098805,  4.188444111403794
 3.780032426745457, 11.204310372053904, 64.151044496478733,  3.948306707205139
 6.031177250064625, 10.712238167929225, 54.591528594988709,  4.173346115526793
 4.605402249467011,  3.576334383977974, 56.595824676468453,  4.035659044048296
11.322074768575371,  4.928700809334329, 36.907396919734104,  4.068343696963306
11.538551670941569, 11.577998484056481, 51.867071054448722,  3.944297882829023
 5.466357896447586,  2.388862049345498, 71.108770910007863,  4.040979839403481
 7.616189739155288,  7.028918405509544,  5.831103680399909,  3.735824188504588
 2.368081565646822,  0.934649135806534, 40.609102093007600,  4.506633850695879
 8.674741055019410, 10.690761509973610, 44.750880508421083,  4.212434125865219
 8.950102416748443,  1.699237745862864, 54.739124512956764,  3.851530990985905
 7.508952474186383,  3.722242327674643,  0.078804518662413,  4.013671586855493
11.214939768317089,  5.226073005613081, 73.974747197369069,  3.669258551647357
 9.073418635174839,  6.489032210219454, 33.706033258477085,  4.355175400963395
 5.474611022309342,  6.897208751268273, 12.109559504765890,  3.657200488764020
 7.110572557616121,  0.637455998246488, 37.183492733364226,  3.865288760191469
 0.439905964056546, 10.356477691333644,  2.239740305004770,  4.017053939143048
 0.517202217919063,  0.166829762349333, 44.236993549717631,  3.775103764140742
 3.062033710693269,  8.857949158322278, 41.852007177594004,  3.898250633051271
11.617445118763035,  9.547170480464887, 15.032593249664854,  4.294225460398933
 1.464002769199868,  9.429990296649697, 54.715321986868020,  3.668585580086956
11.598658425235724,  3.291002554749462,  6.238792115136083,  3.774029432848295
 4.461855718587724,  9.499465323223863,  2.404797299451664,  4.213946711854541
11.146300986400915, 10.625741416262503,  5.906155370714034,  3.685862944797475
 0.807428779106802,  7.750862589232801, 26.644345982692386,  4.247302988622873
 7.559105825778186,  0.350914797134048, 30.465412018361850,  4.037314603463799
 6.883876468006455,  8.237344709370522, 30.037637806079424,  4.105922905670943
11.189494743536143,  1.409047422433943, 48.266911057840325,  4.016284271002007
 5.560744860588969,  7.980578960436161, 23.329997868852239,  4.233668480016521
11.466473415273448, 11.482607509028577, 24.442264488276116,  4.127637445179761
 3.081116376949154,  2.616648092660548, 30.570684385549750,  3.770820511397839
11.600032350051354,  6.983639909929722,  5.834976378449399,  3.652498766576576
 2.944078741648481,  0.291548816959789, 73.693928440961557,  4.312140389426191
 9.922132762799887,  3.251239756063165, 18.190224699148491,  3.770643625359379
 0.801594816342251,  1.776449872392245, 15.845171447064564,  4.046741313548420
 8.687023174662643,  0.084938692223216, 70.235512541494117,  4.042405353744753
11.596569547891571,  8.732506431333453,  9.220152954632834,  3.966832898560031
 1.652682438984862,  9.915975217858827, 60.739992589044590,  3.808982115906576
