BANDS
8 8
NANOPARTICLES
cell(1), 11.910
cell(2), 11.910
cell(3), 74.435
 9.131359132309102,  0.960106859857724, 29.775217748636720,  3.862568839726462
 3.347893400206256,  8.783093176766569, 49.068411064576537,  3.688283006603962
 1.609794936345994,  6.608989910435777, 28.922918729781227,  4.046124031319263
 0.427409825256113,  3.184157957047943, 23.047537492507196,  3.730245368688518
 6.840357234462103,  6.653808792717071, 68.223907919695151,  4.166691231723507
 4.428270766395173,  8.887757449492605, 71.432652898484022,  3.995504390601579
 5.483931887799734,  0.451695222179876, 32.666187861386824,  4.039267251060935
 0.130803994331241,  3.175239993982281,  6.515292155006587,  3.994285622564191
 1.908550372647305, 10.988349010353543, 62.345631106877768,  4.266797779027550
 2.353044769287794,  0.973572140108167,  4.003794831470602,  3.992397775265088
 3.705689893214938,  2.040807199917722,  7.458732939559144,  3.721415896796949
 1.799412532200523,  4.836707179416760,  3.337785844763479,  3.915387916256273
 4.672399285506452, 10.574179672906254, 52.298765091369219,  3.980268510057199
 9.567178685160556,  9.497164442948572, 44.571893281316704,  4.081364051949792
 4.458446093001572,  0.019633250025518, 36.677788233108963,  3.922331609908818
11.041738611552521,  5.503238531106292, 39.736669672523703,  3.504710172541863
 0.349438746735625,  8.426172520671546, 71.446078512607755,  4.207402738802474
 8.908681185402665,  2.537794774306717, 39.154041770280024,  3.882767270863441
11.792486911343753, 10.517721756924454, 49.506302795161425,  4.077748116135820
 4.606321315449511,  8.584451977481161, 14.110972302436824,  4.045991082401294
 7.844180326168901,  0.856742232108221, 65.390769638549827,  3.913569446547958
 6.318684494687776, 11.442708910155845,  0.871535287789522,  4.149963376392107
 8.265358098037572,  4.322066141186190, 49.209193532785953,  4.377384997508805
 2.706407909619974,  1.371502841211116, 25.767191371217752,  4.236908309755540
 5.481736684787207, 10.630378336618776, 46.483860702294621,  3.949366403127104
 3.533572667537237,  5.807959483693017, 16.659365834105504,  3.781919268680611
 3.319808992336568,  8.586478599414823, 19.344580829711056,  3.956381376059911
10.351240291916097,  6.946566229114676, 51.746588776909682,  4.030874036458058
 5.530972976782602,  8.372342811946508, 35.251484659128607,  4.027566794884470
 5.691316550875023, 10.878945559156495,  4.849227207967656,  3.976331731158644
 6.280735034293571, 11.777110883427314, 24.497014966052543,  3.919560759368291
 2.476932479344923, 11.104772533524859, 40.129487309428647,  4.203671966094658
 2.743189896802930,  6.397261166446375, 68.720132261625110,  4.103265935820202
 2.401349325160529, 10.175470155515564, 23.235426855241101,  3.787605723933463
 0.086761306695658,  4.596040206501089, 36.154343583622961,  4.093511002745278
11.088753241882277,  4.670739534252369, 61.152914349343042,  4.186030939384061
 1.559924366489609, 10.615015772067135, 45.378548020530360,  4.195079910908754
 8.442877301499102,  9.401472905827074, 54.532575415926196,  4.169823213862534
 7.279948774995058,  6.388724585739488, 25.389303907569065,  4.065432896759323
 8.162125878365373,  9.000109657579170, 65.391912589533987,  3.645067306171889
 1.102849664247540,  0.026177490477917, 30.298946269138671,  4.185798705578939
 7.039312985042123,  5.362773588489768, 13.697877497255897,  4.062371930246099
 6.199186234745330,  7.209150586938135,  3.078644943019918,  4.186413632341763
 5.846132074817196,  5.174911573788542, 55.793382800360177,  3.999086055751234
 9.072944113819450,  7.013699284439258, 10.646278562300431,  3.977448113399404
 9.476198789145178,  5.415166028606992, 71.098048658770040,  4.004834542366882
 4.084437771588915,  5.994428221408061,  6.606728918741898,  4.389638522416885
 1.328767574385833,  4.039541846575291, 71.823580910264766,  4.099387845691255
 5.769605740561056,  2.569429252657394, 17.066699204623774,  4.115877601515531
 5.299921035934246,  0.827181454490201, 71.631084097143670,  3.901388254562209
 0.409883427174319,  0.196449577355532, 20.642376870720341,  3.798713409875574
 2.539870362197829,  6.391703108577028, 22.549429472593982,  3.899673861448987
 2.599729585045508,  4.027511387900375, 43.371523926099428,  3.769966176726376
 6.150658798879802,  5.770075444469260, 19.555515850687879,  4.023139877458382
 2.050466659361261,  7.700497146882858, 37.896847979161606,  3.926921480021612
 2.227359436281548,  5.628793041970217, 53.447126613321288,  4.674063542652502
 5.486684210862711,  3.529395641994260, 22.934117933038699,  4.188899241891631
 9.811433433423838,  4.302267318696857,  3.560986504751197,  3.742876522616511
 5.358209796800073,  2.847617974949119, 51.999294492796288,  3.896610011625162
11.809003512427347, 11.050900475253826,  6.646886316132891,  4.090755379533340
 8.353395484674566,  9.721513262182018, 70.627770637185847,  4.183085743420331
 6.893530840142555,  3.861816053673866, 31.111906904902540,  3.938163332706023
 5.502965721971991,  2.745195071439489, 46.459405633893446,  4.030897586353258
 8.363799845812741,  0.185434606307617, 51.294544645314922,  4.248141971421570
 0.672839459894908,  8.519588328248702, 15.891582439001944,  4.245929849088180
 0.789007496767148,  9.851097812629185, 26.798492852972558,  3.873279337053377
 1.833486963037812,  4.570913456621975,  9.865499089604411,  4.023305273336612
 0.432018401886675,  3.247370091086152, 16.510909771469525,  3.703024134842100
 3.650347524572010,  5.203961204216016, 25.973732340901858,  3.657027480802042
 2.658943204676650,  2.994348032115365, 61.961548294557915,  3.698674320262612
11.115208641380846,  3.786518523538534, 31.988320229662360,  4.312424612135502
 0.378962874654631,  0.402181728903667, 13.890204859215208,  4.027219224092095
 1.578346395065281,  2.797462300899105, 57.614029012724380,  3.736594618962918
 5.291207320851704,  1.878261150739561, 39.837129196028933,  3.592429578527193
11.661421031821586,  3.848376680477124, 68.193424937618190,  3.825057194858317
11.158582233157944,  6.114139074706870,  0.321362116282455,  4.152794116133146
 9.810653118847705, 10.902671137583997, 62.689562731983521,  3.737785227371682
 7.658161202497340,  6.868864382885151, 62.201722852928050,  4.078393122717718
 8.214650682292239,  8.940130759436581,  7.257406396075377,  4.004077387182798
 2.698476956574763,  3.417606705069044, 19.772902773097222,  4.243635333815557
 2.533347580555123,  6.945868736887335, 61.745246056422168,  3.995016914489532
 1.719031415052114,  7.470464042970878, 41.842227603027766,  3.962933908909545
11.884298194907048,  0.760143247013789, 37.329963911350248,  3.931551277304091
 9.298146456877792,  0.391678807260643,  3.631264207949196,  4.146062164232396
 2.386854146588066,  8.821831905427084,  3.668908400175428,  4.157774220573287
 1.792859192662079,  4.975904929547474, 65.093938431086144,  3.913040713844878
11.684796839713442,  1.629173536323425, 64.750041012692563,  3.929223128227238
 0.637522840588653,  2.662617487351861, 46.624645598149058,  4.302063567663211
10.592971860207674,  9.877106889026388, 23.638244010155944,  3.706938073108028
 4.796492152155780,  0.051152023594925, 20.783234207391907,  3.939701540958200
 6.268639915081360, 10.621669329479531, 11.064709646327310,  3.987774866631699
 0.787115778253120,  9.708618118743797, 53.444997184346974,  3.970537630567500
 1.387397509615486,  0.689401021093500, 10.111439322855308,  3.804840874967868
10.648184669442717,  7.420958350702597, 68.020805487054446,  3.607866897856839
 8.139254807184734,  6.974254300778219, 41.442625741724200,  3.803230135051070
 8.883918442313405,  3.686711678542767, 53.622778111593860,  4.036938182500626
10.827972689364215,  5.370112105314657, 43.881061804512179,  4.132792734796102
 4.952327785137882,  8.855776989943266, 59.443843872055538,  3.697887585070197
 9.968123273309448, 10.880421168011287, 10.077335802806196,  3.687579820794751
 5.107814377807078,  6.871307553789925, 10.542365738673137,  3.928349201128094
10.264863220893917, 11.718163979053001, 17.328533735007365,  4.034873829267040
11.800968740019735,  3.086521024534938, 28.055133942257282,  3.769585752938016
 5.168256549032094, 11.505532649771109, 28.682258271592470,  3.964070436217895
11.807393877218351,  6.482773279983157, 19.475587603077937,  4.081212054375897
 2.671343111329701,  3.819557914762099, 13.583436855475300,  3.742165643895124
 5.673919742267367,  8.836242037397207, 39.171497946547021,  3.861965894038619
 4.778638813532663,  5.436861259518022, 40.640063288806942,  3.756901066495160
 8.541644340782849,  1.695304296985934, 14.261690753138939,  3.930871532521240
10.249795817757414, 11.715452055451340, 33.599540055750737,  4.433627121418321
 5.508595319036274,  6.692774310967764, 28.962977142004906,  3.682933434292561
 7.168678312178299,  6.358983613036834, 45.624593396266391,  4.093316551575350
 7.601336765154777,  2.677376357569826, 35.360324393136395,  4.132320015894207
 9.127067093563864,  4.658945545248536, 65.294685010717174,  4.039791694492747
 7.808863067900244, 11.342128334307697, 41.384136038021246,  4.069549501964032
 1.827696356250057,  3.094400159904255, 39.813000545369761,  3.723939620607056
11.393039577735367,  1.311309880789606, 42.627408669136514,  4.388182187615210
 3.275378925545070,  6.805155870971237,  0.224300783780579,  4.019277832044043
 1.629798440055027, 10.708738840137935, 57.247639546571712,  4.059826719846749
 8.096823255349225,  8.716929180336891, 48.863355107224258,  4.090262104965284
 8.409551215808763,  6.201406543729461, 33.771631240477205,  3.765718925272494
11.302719160988744,  0.957347529398972, 59.942366495538174,  3.633688939053937
 9.144704886038676,  5.074153019186858, 22.110442905195921,  3.920860877798053
 1.140856361488354,  8.507507195462344, 11.497771548258662,  4.579049588861453
 1.481275613513882,  9.784363838916082, 66.441944822742016,  4.289956927652105
 3.204409777453610,  6.955320023584179, 45.739073873476286,  3.857022980917480
 9.827341896404901,  1.343817375963818, 25.262397201784953,  3.903163659118302
 4.491140356343441,  0.819291317981353, 59.311908862113100,  4.065204941334738
 9.192468444969398,  9.664292616600045, 13.710985764166008,  4.125954835761375
 5.189126857285836,  8.849712655918191, 43.016289764886068,  3.863054480870144
10.498143962061565,  0.179373001117073, 68.175715355026469,  3.870534765701321
10.083068996881330, 10.055695768267647,  0.096551956632751,  4.014120971792008
 6.838121894967514,  2.890662198592970, 27.277165659640925,  3.931083085490688
11.261887274943026,  8.601024310848816, 59.880665475098603,  4.078064032196156
 9.419562504248997,  6.146893289737171, 28.901723322997061,  4.166202204672482
 4.473550889914436,  0.561447907334327, 13.948307072778103,  3.738195625008160
 7.965095120698292,  6.036732906124030, 37.619749118048396,  3.979856101792853
11.610406831954082,  6.707421677907227, 47.792997410272726,  4.279427653648181
 3.312823977120905,  0.720705575002553, 49.153473462253977,  4.006637348775233
11.767281095113352,  7.070348034279653,  7.415153516549625,  4.014920343375374
 8.930384751576003,  0.651925865670416, 47.203032911747385,  4.051979950655917
 4.664560955298465,  7.657784907120349, 64.988397395543657,  3.883038665373531
 4.738870716126850,  8.911959986157948, 55.755128892812181,  3.689621504634767
 9.247883918109627,  3.651206221952121, 18.547771229842301,  3.747632163980886
 1.616911311308726,  0.237561070624025, 70.564109088710325,  3.841018200797735
 5.982564221225618, 10.572400221672751, 62.704771035066969,  3.945860375180159
 9.952607698515260,  2.958288182284163, 10.576603874748752,  4.315138381480629
 3.551325816197398,  2.412229650867938, 67.748881079027697,  4.256264508594827
 3.547262480296778,  9.921465613797917,  8.146644147177234,  4.113588652028526
 4.350516334209178,  8.808670802031667, 26.121231196634852,  3.651784433049888
 5.816967285771539,  8.530726812659086, 22.372506500473044,  3.891022783861304
 5.405436912857498,  3.774509723931120, 64.405627811421937,  3.784578012961695
 7.679829776463195,  9.200694155071726, 31.182030966352507,  4.209281711613841
 8.269347333684880, 11.062465304093273, 37.254038790684724,  3.978358411416075
11.226392599017395,  7.615126536722676, 63.819898882275936,  3.757594193913887
10.186468260197149,  8.232067652874679,  3.758420136778022,  4.148020307719315
 3.491967847615535,  3.130278489439085, 29.334415456827458,  3.870199014970578
10.707214267830576,  6.392101499171631, 55.791821658842586,  3.769957873532946
 8.142014285002761, 10.985211334907993, 58.760099698929572,  4.085007205851303
 6.256982241417496,  6.819848040372126, 52.050067318576176,  4.179675790886765
 3.865831928408368,  2.803519233850859,  0.355884361551372,  4.072342980887862
 1.941064607086804,  9.822982070229116, 34.622869529769872,  3.813899425039640
 7.322441886357638,  7.399576778762237, 73.694851680865000,  3.778146924521813
 9.009287964960372,  9.271651110173895, 20.209091675440430,  3.925260344823209
 6.410982390825890, 10.392566192237398, 17.311085490842071,  4.113652295113662
 8.681632931508078,  9.859501829764799, 27.138474418766609,  4.183056929142269
10.651345562794498,  8.289708985041395, 35.966861448664993,  3.771520169988036
 7.520508590282605,  2.670059513681560, 68.909338048500416,  4.029085891191203
 8.795013589266624,  7.137554182506317, 16.866102280510582,  3.995748761142569
10.700163275398387,  0.647741640981315, 55.258890798947178,  3.721698838364912
 8.344046281840949,  4.873746828264060,  7.172061700386020,  4.133241261038147
 7.422240339723976,  0.940225379372922,  7.905277924635606,  4.077500792620729
 4.372894184862836,  0.679831604057676, 43.328236523208048,  3.803044355275555
 6.272159382876599,  0.986609069150702, 55.533289320115081,  4.292999711395214
 3.706945845490228,  9.146720228614319, 31.352669705990959,  3.727735927281937
 9.959504110906037,  1.436494165860194, 71.982961461482176,  4.195029363753942
11.411929572344997,  6.359195853823383, 25.226512292774022,  4.184350418260835
11.054324110804799,  5.449075405248167, 13.683559876247651,  3.906027006560481
10.785688419482884,  9.227610813374010, 39.714682005476263,  3.959295563067612
 4.140873834323872,  4.394735747775116, 36.880831809434049,  4.147140245701551
 7.816392595796980,  3.670812543008438,  0.277353298802740,  4.004082622493521
11.870464400550203,  2.192238159535073,  1.069386484973887,  3.957821594111281
 5.326522702973846,  4.803532394332157, 71.557650709312639,  4.030614410498968
 2.536936250313576,  0.057808418598300, 17.310792844425691,  4.086022751592641
 8.023447682316384,  7.093551844377878, 58.330475634586669,  3.702644455755652
 5.391772646077757,  2.869038070278772, 10.901843984815436,  4.120833659266617
 9.080398050768917,  3.306496793175687, 57.716957590858385,  4.193755631990362
 2.399599739502648,  1.363878442168546, 54.133685595801460,  3.968555726535352
 3.246611959905468,  4.844940667794435, 49.182059526340389,  4.192939534442877
 2.028471967643252,  1.734602682751876, 34.146403443526260,  3.888376962018536
 2.249231746206111, 10.839491403604693, 74.379724021749496,  4.283115217198004
11.480343555336972,  7.944853700786320, 32.134943754797149,  4.017942700822761
 7.716222743660459,  2.184322302031650, 61.543102465740439,  4.229706642829876
 3.418142804045602,  5.379464634831016, 32.801702594684656,  4.363600843391185
 0.008215982693745,  2.600938436158074, 50.918103920512088,  4.375182853308624
 5.232371279752533,  4.863569855967016, 59.707409811316502,  3.947332233218613
 2.229299800170108,  6.660986047182346, 57.714713360655686,  4.101112730322989
 7.366250802535809,  3.293414541993674, 42.820989323150243,  4.207963464508063
 8.587410831349864,  1.145674063387414, 21.479094335342857,  4.067057370180239
 5.424675175110530, 10.549393975689574, 67.770136725996082,  4.166323675009810
 5.985385629050177,  3.039468219917401,  3.995437993824225,  4.358448639876427
