BANDS
8 8
NANOPARTICLES
cell(1), 11.909
cell(2), 11.909
cell(3), 74.431
 0.716168499521086,  7.205066543548018, 12.319105668994499,  3.697836284683388
 2.223206556129144,  6.572484479727613, 19.396288396029906,  4.033266602013954
 9.967370301784406,  0.592232682376047, 61.498927188125009,  4.383533238730482
 1.660703192923753,  7.016031794742926, 26.633572526674214,  4.046027010212390
 4.984983178876484,  3.226327275178808, 61.394749117207958,  4.141739923174686
11.592906019946575,  7.692834814146707, 49.149334749421769,  4.000170317549202
11.540955415233901,  3.651818811065743, 25.850534829406929,  3.965489691632527
11.289995018674665,  1.717366989610429, 57.648235248888049,  3.804424042757788
 9.262831313967396,  5.528761998020223, 18.037081745010966,  3.992191358113144
 6.379857233089135,  4.478127444367691,  1.232195944468336,  3.942986750333985
 2.083836121394444,  7.781499113132823, 31.112283458691252,  3.977842990062368
 5.781556552463966,  1.738313726266849, 33.189718193456251,  3.872082631614595
 9.428336279253317,  1.003432308837793, 29.876079961867337,  4.027913914166273
11.141856938205779,  4.336474787101613, 68.802426556906042,  3.946489748621918
 5.947023816365136,  3.466547628607356, 65.252481522307860,  3.821770284643515
 8.555371864191684, 10.037357877653807, 40.069862569579776,  3.922930142941217
 3.476181781509173,  6.398788518121478,  4.207544807567142,  4.228786873589418
 9.389754587225219,  3.681338900674874, 47.907345065162666,  3.766213701912931
 1.584369639952536,  1.576573598567726, 23.140897990800379,  3.884495912186372
11.297833240586813,  0.805366343892842,  4.824568695234002,  4.242404383772516
 4.676551846556238,  1.173375899255636, 10.464007373324469,  3.788427672290105
 4.525617730996633, 11.369539962951256, 25.347570216627954,  3.841308442884436
 4.938284931365119,  2.999735130478446, 41.107706997264309,  3.935683255623103
 7.976174657246524,  5.764772647254965, 51.477803351598666,  4.079072473716434
 1.537115123299700,  2.833664351308177, 47.549515679792506,  3.864901458099757
 7.211802188864123, 10.265148161992506, 10.014152590297126,  3.833569439591315
 3.248840590663498,  2.311519521767995,  4.843679102117745,  4.043235485301046
11.710096818260736,  4.108878021496681, 51.056944993744331,  4.093448516511276
 8.297868036538784,  8.615088490221625, 60.566028157381538,  4.274938032808896
 1.879421463123377,  0.827178763341602, 63.146845686337528,  3.935887203055859
 0.562724574451163,  4.187084645977557, 54.960546350840758,  3.861055570766297
 8.866283038369373,  9.760728995502475, 51.227610861445029,  3.927541503787364
 7.180708355784373,  3.494629490369045, 69.156153874944437,  4.158316284463671
 3.933229050033657,  3.264065631819468, 25.751800183862098,  3.829514803259714
 7.845276623015703,  3.557527596275890, 27.252357984201300,  3.935711790144212
 0.815874288695898,  4.453615575004789, 16.152414363583311,  4.172247575348140
 0.851401159545630,  8.973698724818686, 38.492843463785356,  4.161370176180771
 6.096972862950681,  6.987972111419493, 63.622562863309007,  3.919212845079903
 3.395198475390069,  7.791094127100870, 47.301528577054647,  4.282549923749981
 7.927710443498973,  5.690849232814035, 22.770708495723937,  4.207131966629909
 2.624203084041302,  7.440685173977291, 55.823411955055242,  4.020848932270603
 1.637315440602913,  0.752878893123073, 27.539205557687950,  3.851473734990772
 4.948238909976903, 10.956885899305027, 41.402602675767724,  3.984652370616319
 6.893301642232253,  6.505121321203412, 40.749146187825154,  3.972224322281033
 6.552110551965043,  8.132508276471496, 54.431359365838823,  3.991838178546586
 3.626483447731242,  2.596057988168480, 18.457392859576103,  3.988635220526500
 3.626266097447194,  5.058635393406253, 10.667934334761524,  4.250386268567485
11.411777809151705,  9.646340140293702, 28.769150625223066,  3.926865445910499
 4.737841209498264, 11.808358056435681, 21.423588100941043,  4.027673183962704
 1.144893100115749,  0.521868686844722, 12.017316757281710,  4.024810888642765
 1.670939278218206,  9.463414793450479, 52.296557512907995,  4.219813799711374
 3.730761753600126,  7.183037241040567,  0.250725613642413,  3.844470793881313
 9.880085606314035,  0.446024725562000, 21.957522918315927,  3.815901125194871
 9.532671666012373,  5.860921560147533, 14.096920986717711,  3.923939816606167
 8.716642570744824,  9.889993249329367,  6.398659363386347,  4.030265041047730
10.660485635055853,  5.691101940387146, 29.258232876885600,  4.166170905529849
 7.408646011270579,  1.705489243799993, 50.743495773342097,  4.190521779584315
 9.047512237692029,  8.501111853105481, 31.757548834925949,  4.015006386693173
 3.855460582292803,  8.112986144178597, 22.755365188202820,  4.022584744329036
10.505421393960914,  0.774826745588205, 53.728684278319818,  4.386361032279693
 8.878959272602414,  6.609772118890188,  9.548758428996667,  4.218690553111547
 1.169543874107901,  6.629522733860347,  7.903339172036117,  3.777477040711455
 8.804264333109652,  4.645939944844369, 61.659272010105660,  4.020634031519847
10.737150002464558,  1.867812095850028, 33.531612494945477,  3.926704945681601
11.844722832219746,  6.995332651281591,  0.678251212784295,  3.794824695324148
 6.215368802274367,  7.597424456619430, 19.566300851172748,  3.976834398890579
10.821327736334760,  1.950297617443968, 44.821845722661791,  3.839077787487929
11.849900134199498,  3.148580443900066, 19.923609936674829,  3.985158601542187
 9.425016246633513,  9.792150786781750, 43.906533970709397,  3.886958968335255
 6.266664905965165,  3.859411597905737,  7.414487905234223,  4.462671578672435
 9.679349557075433,  0.071622385632675, 25.929638801638898,  4.095856400068977
 9.049102605485331,  5.421136365690871, 72.740310479821218,  4.178435079946552
 9.940336855008058,  9.989137140072405, 13.241709899353484,  4.250912007282554
 1.797669205912597, 11.280056873623568, 55.872884171751252,  3.802668676701920
 9.084577097573373,  2.960378405194144, 40.770477851919935,  4.337699430329029
 5.868355835683473,  8.381870286833205, 44.163554713021583,  3.777561974382692
 3.057153185985523,  6.276280498755552, 40.359582120418892,  3.741530393684043
 0.112587508808956,  5.970887862176099, 22.706649909217266,  3.903056212262334
 5.320219606488440,  9.815370753353680, 31.813885594587681,  3.764027507784873
11.623773734061496,  0.799677166894285,  0.796040249063772,  3.837651375845499
10.308238636752510,  4.411346200803470,  6.436165716256744,  3.900427019482217
10.631068375743876,  6.068036957831041, 57.972823113506173,  4.130383354410074
 6.220018144888797,  7.571201082417947, 12.709703083023143,  4.029948360397925
 4.206496841302585,  0.181538092342403, 66.203683364797428,  3.849785648226647
 2.496925116798091,  7.434665862478771, 35.074974158079549,  4.019565367918397
 0.722354774607733,  3.778573973826397, 60.712373810064896,  4.052612322580692
 0.000976305995152, 11.783945164796062, 41.456033412957936,  4.128637155530203
 2.181276757147524,  1.376197378660522, 69.348869960061847,  4.000773182154638
 2.821855604302080,  9.061945248533876, 64.093721283143921,  3.882998067952470
 7.680785494605192,  7.636666227681268, 47.716992275406191,  4.332174993051731
 7.224588350234999,  1.029654716923638, 43.829942613812932,  3.757360783987495
 4.666039086441874,  6.021999454895070, 16.161100833998670,  4.140383687124341
11.428713937759548,  9.851547120866458,  9.380141841138782,  4.028177223118426
 7.435765880618706,  2.214727205726668, 58.296818171395500,  4.011477998752068
 3.371430995420763,  7.080891910698742, 60.489963646114624,  4.384464895238387
 7.354680036583992,  1.416270451231273,  4.244608432332743,  3.815635347901663
 4.318993290474952,  4.306866912051562, 37.099635540298912,  4.273511881578175
11.475134896262334,  7.659964544149831,  4.506317003176195,  4.008233983856063
 3.959410039984902,  9.405926054471612, 28.358919893265430,  3.419991339690943
 0.411744588339598,  3.174079470377280, 72.322509340286686,  3.792743931981612
 5.328737414445683,  0.982736999073043, 29.214455171812904,  4.259604905086495
10.143267921040128,  0.615811332687931, 70.081700501672401,  4.169797571126401
 2.991093811909086,  1.079127397234357, 44.289668758673187,  4.083812176485030
 3.792553905139366,  2.714839088292901, 14.020943666717271,  3.929190659847040
 0.158395819139741,  4.644374918850272, 38.093976761951154,  4.303511772329312
11.341933232206435,  3.905441664801805, 11.145720612931870,  3.755624051641806
 7.934564348666585,  4.938306152052871, 44.398049028331627,  4.235566227575934
 9.142943238203086, 10.146436671263963,  2.419421269004371,  3.975841244514628
 7.568754007718310,  9.663423041685183, 28.331780379098475,  3.792887576200064
 8.257987111992923,  4.177993232659726, 31.879563386033048,  3.552652982065827
 4.850619416245050,  4.585396300902802, 54.185655952593599,  3.879918035438135
 4.973120125277303,  8.763329577430508, 38.008116096270541,  4.096823951574261
 0.021631226048261,  5.941441483689896, 45.419166849724000,  4.251771189516328
10.252546831648527,  9.824134664257752, 73.062891000527472,  3.874845766943779
 7.445988355915704,  9.704435804862948, 23.408680265704536,  3.895781985968384
 2.771583216782495,  0.586222294727452, 59.369648314484472,  3.840127491093764
11.554534710301661, 10.026057798875904, 34.356207926852107,  3.807185824832843
 5.404209782090905,  7.960695679821790,  7.445387501917129,  3.914988786846014
 5.544110519743680,  9.892240405317409,  3.931846672054081,  3.797974563028322
 5.803842006636367,  6.401294408850027, 30.167274987004674,  3.874076308977472
 9.108957599267672, 10.159826410333739, 56.795545912460845,  4.033688626571164
 8.859692544609434,  7.175776864708678, 37.344793998311395,  4.002972001959064
 1.880587846922305, 11.888187489452319, 31.528731718798728,  4.283953262941833
 2.331775154170543, 10.787862333841570, 72.727309549832398,  4.355132700782695
 2.745441923928739,  9.457082288409417, 68.623671855492617,  3.867666274944938
 0.255327773867982,  7.347795793236764, 66.485453114292227,  3.921652569178117
 5.510824373786793, 11.827668750033812,  7.093629787128299,  3.585949101256237
 9.144430926896607,  9.248781214077773, 64.499586368162312,  3.869009787558156
 5.492233070315753,  7.151169037500444, 70.855035836902587,  4.578530293635973
 7.608190747881077,  6.559424797336225,  4.407867652090957,  4.033294919855122
 1.069311087666948,  6.964343947109856, 71.295025511856622,  4.161836761427033
 6.333969834485380,  6.579262657285597, 34.165158384417602,  4.048372379119501
 5.863437635530245, 11.292165579338077, 62.680045882749667,  4.088583040010298
 0.967964024029448,  3.666557910244995, 42.100441972833629,  3.796116705037446
 8.574594563305576,  5.965943050714704, 66.384416411289124,  3.772554473011005
 8.568297698111254, 11.703930884614023, 47.280803419411335,  4.039010392405146
 2.069234071836863,  3.840684332221329,  1.343860903051667,  3.931546754531456
10.635026154870742,  0.602961815953922, 37.468113786329219,  4.343302663817402
 1.469244939539889,  2.143483902898243,  8.403620636219086,  3.922323741915787
 3.544404681452323, 11.201048575199668, 35.132114165797553,  3.769496532341909
 0.481529578289429, 10.595484191629359, 46.384004060746641,  4.003185000912591
11.855176666460846,  8.460101330523999, 16.604770528364124,  4.054283470696677
 9.718077677966139,  7.643832150904059, 25.847758777872020,  3.913244099746865
 8.078902944788805,  1.477136164047773, 73.567377817900919,  4.102953394054365
 7.540085528218178,  3.436894549129750, 11.729305356411777,  3.933342121101012
 6.611817628111538,  6.066977006467477, 57.841422043576259,  3.907909257879207
11.521692973158071,  0.381940852372128, 49.785354448831448,  3.789089911425671
 6.515960664301242,  9.743060224140963, 73.996633123139986,  3.818339093782817
 1.345787822159273,  0.314371180143296, 16.030740059319218,  4.014548456243280
 9.536735755806676,  8.390822213882435, 69.377498485136897,  4.160253967784733
 4.839135011838598, 10.774641755757923, 17.500272868998824,  4.085871357367687
 1.087437421047137, 11.247492896379768, 19.891911394962662,  3.957092991685232
 3.293403035610468,  4.026753016359515, 57.701165438230682,  3.878261635704090
 2.360959009192605,  3.729684257052609, 33.457967985062375,  4.059748625430616
 6.121833058708532, 11.441415411678655, 13.732363750401959,  3.978041315194695
 3.354691639161041,  9.396293922183895, 10.535562100169221,  4.030972618780720
 5.607816814861573,  2.662927012348668, 47.079675877829906,  4.195858340662088
 2.637557363255183,  1.606675275730242, 52.704461409096517,  4.108927756541412
 9.422011453615980,  1.399270537136886,  8.857726629366738,  4.026665703729026
 2.594786115885718,  4.150466234789572, 29.397280381155646,  4.115042676587046
 0.339063930548930,  9.792723134042669, 23.705857174612849,  3.982364034432543
 8.604925189629759,  4.189479246038326, 55.075399660509653,  3.875182286495761
 5.744613542019255,  6.854181410652237, 26.168482239011364,  4.174910077640028
 6.263507334635261,  8.930697550130910, 67.092052379587727,  3.877282652885478
11.647143069862278,  7.249929843420029, 62.383174288197395,  3.808576379359705
 5.846449723814754, 11.545685036093609, 70.284774024265175,  4.311103510102667
10.120433532832713,  4.011386560453346,  2.506638157313250,  4.003709083222840
10.883077804899099,  3.094035334344476, 64.862074743126072,  4.192231573969774
 5.228620911533873,  8.474843310438061, 50.814409223500455,  3.735192608999905
10.851716284488683,  5.799435681747521, 34.134632165592606,  4.026838739613356
 7.296281014990895,  2.680956096248159, 20.045619634916296,  4.010348248633349
 5.220121019256799,  9.802921301061701, 57.841296204199359,  4.049994884697636
 4.438359066298622,  3.125213152249536, 72.321755665601898,  4.241821261887675
10.811380450422782,  6.951237314581014, 41.501164694531234,  4.054875468887961
 6.954200249255659,  1.984220155277448, 23.854701655416186,  3.744838485149354
 9.420315890125387, 11.792981443859784, 17.721490353674078,  4.407323897980631
 2.527415525713507,  5.074593889151211, 64.113280069559735,  4.066513586751123
 8.092108464760551,  0.495677939723681, 66.572403315160599,  3.962946638867325
 0.034730805915070, 11.330589124696500, 66.412928689899715,  4.038615827598660
 3.846456176129026,  5.036076818200739, 44.292410745835745,  3.923187006526743
10.484555920174644,  7.503726019696122, 54.122613427800566,  3.965647156092900
 9.994998579618962,  8.637895140505105, 20.525174409869926,  4.085728549884154
 6.238909949240276,  0.471110580307150, 54.673627940328892,  4.366790354548845
10.158545893605604,  2.016367320523113, 14.247355732797764,  3.866420344863212
 3.485435189570099, 11.602881934984364, 49.131667598447571,  4.171279788592248
 0.232310072436756,  9.556143949473817, 59.312412045298167,  3.925033295520174
 8.162955214880558,  3.532558180216979, 35.966130354678533,  3.889327478692071
 4.712260325340154,  0.838076638355862,  1.362991005859529,  4.056223157738717
 7.704820670203124,  8.483366782500788, 16.151758921398105,  3.675000732474605
 6.582532093135845,  0.940315072037454, 38.297815964760851,  3.762043830451427
 2.727085674152872,  0.803615676216237, 38.601272882120959,  3.966029367662670
 3.074502496778155,  9.168019269279368, 14.404663113023815,  3.717886710850673
 2.099661920365709,  8.753236036321086, 43.205562900729454,  4.024078416736679
 2.195721112753625, 10.081202889851239,  6.364385347492574,  4.046353291348092
 3.832450048838993,  4.769400171969250, 50.262863930797764,  4.223042533953308
 2.002221898202403,  9.968629793171910,  2.363096200469649,  3.948128874586738
 4.217764484907677,  4.224916362053023, 22.011906400956125,  3.911976421864794
 6.966982675667517,  2.809750203617150, 16.177447011178099,  3.748015400718951
 3.046922300226804,  5.041527673603181, 68.080394586721923,  3.932882973243768
 7.564842085137049, 10.485904081383477, 35.135924232290861,  4.363764820094161
