BANDS
8 8
NANOPARTICLES
cell(1), 11.902
cell(2), 11.902
cell(3), 74.389
 1.817227892521711,  2.045477323525164, 46.018201944831979,  4.258660378950805
 1.293720760006906,  2.861017864052757, 42.002565503867714,  3.984560101258217
 7.767340903259585,  5.154716930873341, 58.094507737837297,  4.493133089514769
 2.490781244306888,  9.072453796841520, 38.383795505323981,  4.075674506740695
 3.587259212847930,  5.524069700817451, 45.097922831316062,  3.731131986621027
 9.700310891511812, 11.579339237843588,  2.691471062369651,  3.967053925422235
 9.308392974903091,  4.370710466449340, 21.465858368550851,  4.056028920684784
 0.688159586630812,  2.808259313082905,  7.564765243636747,  4.294805000972802
10.781122533959204,  8.257820775555262, 73.737588230990127,  3.897133407259618
 8.614763552284884,  7.634670573381614, 41.796922829646221,  3.827663831089999
11.873082741586854, 10.611966918468797, 64.813760103094936,  4.055351467427823
10.873022910423966, 10.955628493960807,  6.556291808915597,  4.201285733948852
10.595236696675171,  2.128889776732729, 35.096340384420529,  4.108957539682721
 7.016714830732867,  9.414363307607413, 73.919597899014448,  3.986889008163435
 5.657019103549903,  2.036083849213584, 23.505088893506027,  4.034924397722591
 5.352749107630721,  3.512388544973340, 54.450180033270122,  4.077475385775438
 2.132362848220517,  7.275688070960923, 70.059919171118750,  4.262871295424164
 3.025643726103616,  8.120201858928967, 25.820825556792013,  4.146711678495384
 9.183709621817940,  4.750480510950077, 67.426559319686064,  4.257403254595718
 7.337885255488191,  7.608308569700295, 19.918439877453569,  3.979077693096971
 1.786049918770319,  1.707442784774907, 11.381243563346455,  3.919320004320284
 6.310580395404145,  1.072420876757088, 45.668588340056303,  4.204037649246763
 4.580968900679834,  1.912054896883995,  6.307249338747200,  4.075039631769403
 6.621387372522989,  7.257679016648139, 54.721528012215764,  3.774186947128149
 2.819117360701990,  4.721249882765073, 38.849438570026678,  3.907399424590049
 7.481296201758311, 11.637888942578821, 41.865085488089115,  4.182132178972338
 8.944937764505893, 10.365362398097204, 34.466249310120354,  4.023860038833291
 2.978545183666471,  6.668341820381405, 12.807438420043509,  3.916079170964916
 0.945454425705531, 10.703724404034960, 35.063637157732359,  3.896343144375053
 6.029479453684099,  2.984505405569042, 61.378118787385318,  4.109358740637324
 5.786777846883996,  5.297354313452309, 10.219868439553025,  4.191443619171848
 3.138522388467489, 10.647751537638241, 14.077476479274569,  4.102376821847035
 8.605155001140805,  4.533474281614753,  0.023971707927774,  4.230021135732490
 4.979273132091267,  6.772047038366184, 36.295650916392930,  3.881173856404532
 7.450374693477186,  5.011544041347591, 45.121661565975749,  4.056835506130544
 4.923307547934210,  7.066388238798620, 60.632094895949052,  4.031538481985017
 0.303327330322055,  2.499729967486792, 23.782004426808935,  4.128017731247382
 3.644512766479147,  5.990480640451818, 57.049939248422014,  3.872759096313323
 4.989470007377822, 10.451189371135097, 17.704913587782187,  4.034996530647663
11.760153079050010,  4.188374092086749, 31.795718282342268,  4.003485478414951
11.019821065092719,  0.005793697483351, 14.023735569988522,  4.306496626096977
 1.695807376697141,  0.427247947427998,  3.667540473542275,  4.195321420585872
 4.234085617026822, 10.327791643601062, 64.623057390529240,  3.800955273546455
 7.671879334619468,  3.004420008520432,  3.811525407918951,  4.136738944844276
 7.512404193190689,  2.662064932513148, 70.492752132780922,  3.852923334417043
 6.377680951110318,  3.145898740322659, 36.153988255426498,  3.880921899286420
 2.767775145125655,  8.103085823344985, 20.288779946520691,  4.229975573511838
 6.254255681068484, 10.751560028656714, 31.075017157785616,  4.145193717565029
 0.022184877999493,  2.503039986333262, 64.542576045744354,  3.448836896957204
 5.490577615643919,  1.100580415895727, 73.376366515280381,  3.848769456216727
11.728796964530259,  7.906159312819232, 14.837123308797944,  3.979269888320189
 7.696705569396056, 11.020154270359074, 54.629180818753106,  3.983634911615959
 1.095694218648797,  9.425602866351163, 50.984725580179742,  4.040048211145335
 8.786783828314089,  7.985844374653507, 11.855160961235811,  4.124208307351396
11.265403051737316,  2.718587613146715, 58.130782754356247,  4.018961704888840
10.338874700250145,  8.864700996760085, 45.135525532834798,  3.873213406157019
10.302698275040219,  8.664595243627510, 37.924115528236641,  4.146595186767426
 6.678065945754085,  5.214673582638035, 39.457468342331580,  3.936802749383263
 9.292926775959401,  2.652916246308988, 48.295168675488654,  4.117703866477042
10.164980594062337,  0.771604615520658, 44.624676282699383,  3.786566796628645
 2.155311404151952,  8.960762344451117, 46.095312793348803,  3.800946829816611
 6.374209516116763,  8.923401903270218, 44.790798454987609,  4.082582311957552
 1.190160846993034,  4.431655050762860, 67.417569904939796,  3.563185480610211
 2.906407116925925,  0.366556765913927, 53.414833075984234,  4.155656807957667
11.733881543430535,  5.386364458028594, 10.732500525159363,  4.043871389424901
 8.897031939429846,  4.510646784892300, 29.275069880781590,  3.651430680901718
 9.182863536375397,  8.475409929509492, 51.920074608056041,  4.018998914021262
 3.297591544685191,  4.088115838712339, 25.916396178642419,  3.856555625398463
 2.676892957846413,  5.307370208398867,  4.950101205803388,  3.959885258269245
 9.170885386283524,  6.699095777767642, 48.337305576372451,  3.970090711317658
10.262263135375152, 10.229466825049945, 20.715301294894886,  4.026242692144876
 7.121730304257005,  5.176039809107622, 51.315171225608040,  3.850899770437922
 0.603213444239499,  9.312872984064731, 11.210512614154021,  3.870371368282084
 5.039617918012096,  7.490950029824404, 48.431947240537426,  4.179777537372222
 2.523753007534070, 11.187168686517660,  8.442603258730719,  3.835425014094257
 8.231756756320841,  6.975049346686119, 70.880704601190317,  4.176415040485340
 6.647234987800040,  6.765263258050919, 31.285298522805348,  3.874728219915107
11.347309864084847,  6.676973483384506, 64.542774635761631,  3.901933229044286
 9.349633239302348, 11.669547181731776, 10.261933403084667,  3.934968877689593
 0.677260520955697,  2.257065632873867, 28.317111642519674,  4.119271241707054
 6.432876702476807, 10.023891933005656, 26.445890514434748,  3.743555674450587
 5.650828736338579, 11.506207541752179,  2.697530108482260,  4.079547670046029
10.796763237032732,  2.263870480357948, 17.872946105135902,  4.092386046851449
 5.765798616148459,  0.688384539334156, 67.491639337878283,  4.122011173648048
 4.735870467535869,  3.188377739988583, 13.572689824863687,  3.999691096308432
10.038041886833295,  0.028855453532544, 61.389700809548629,  4.126964382330918
 5.125963231235611, 11.440965265947865, 35.134048318496625,  4.020093690785666
 1.260177661098487,  1.554090786379340, 74.091217657333303,  4.049925268922675
 0.332141561264447,  6.557664562350047, 41.174839325899597,  3.825554759985137
 3.310941418795998,  0.241541256711997, 26.127919520651954,  3.827041632184126
10.247033666837943,  0.263629333508694, 52.015498025855990,  3.662546659899059
 5.128120253254966,  5.998387010651371, 22.951604950221181,  4.035895291365954
 6.472124028297833,  9.066033978246088, 38.985441597946540,  3.791514475842640
11.376603029995232,  4.007764555250150, 71.129168664641298,  4.427310858699757
 3.402688575106733, 11.308666551400865, 43.032589768997681,  4.309651588503897
 6.059949499924778,  8.031359744995051, 14.769706175770631,  3.858538525168771
 4.202396730033566,  4.416397151174460, 33.189405241347806,  3.889715480502688
 5.175546159290793,  3.183557824331090, 42.422692537058190,  3.849873070584668
11.416728309983085,  5.151988804305235, 44.677994764655750,  3.897901239224645
 3.118383428480247,  2.053638164921288, 17.051025491629776,  3.999858611802696
 2.368086238782154, 10.649854315510787, 67.889784446805635,  3.737860519754524
 4.109629148960022,  3.213322170552401,  1.937633237175802,  3.913003983570455
 0.297404727780598,  1.075104972135964, 38.624728005453299,  3.912681155779390
11.464423522148286, 11.652798259366888, 55.540451676144535,  3.863897706806204
 6.520002929563087,  6.369514914007159,  6.143303224443138,  4.363380957586481
10.774184024508571,  8.441452258858098, 67.943818036636927,  3.845589828651466
 1.100391972150111,  5.952442754715487, 35.349568193615539,  4.270099509649706
11.485936872826029,  6.188175002975342, 26.957750134577989,  4.060955796414516
 6.628334960095741,  1.199524025613195, 51.461581932713443,  3.884085688431293
 4.842627194312626,  5.012037768066278, 72.472794375855401,  4.276987571502752
 0.813554085613724,  8.225142647085633,  2.836463784100085,  4.069359531360401
10.422376638175889,  4.612638994962583, 38.291892161570708,  3.991641417604044
 5.597795693275059,  9.996321784370082, 22.638849753998660,  4.037684563428297
 1.431357805511789, 10.626004270628233, 23.146941571427487,  3.844851966834226
 6.839916099707135,  6.009234109203227, 64.127906997764796,  4.215202408429855
11.449807273749544,  8.190415431482002, 32.160261355492509,  4.053927508483923
 7.036927498800647,  1.957019905216965, 16.541427487109530,  3.905052413092460
 5.096243984238992,  9.309824238074944, 10.739613337750443,  4.016646894222157
 2.606522167819421,  7.173607473547511,  8.459964700498652,  3.964329461895930
 8.747735070300878,  6.200461332331866, 34.768233945514453,  4.329175334687508
 2.935321823899567,  6.026873998708835, 29.565881927086039,  4.435811640893718
 0.567192704285446,  3.935411854063389, 14.506819735733288,  4.124292491072519
 2.743209180520225,  9.778365600274102, 74.025682844662214,  3.879302636206994
 5.074314123873045,  9.732866939064662, 57.479417597266149,  4.165140487588384
 7.863159694769121, 10.521088693436736, 48.661409209436059,  4.116089777432013
 5.346707640935723,  9.481371485256361, 51.903211376034690,  3.844527947083870
 1.682142200158603,  4.048412415058526, 20.242540455405674,  4.047882275753972
 5.012352377614597,  2.293710586996012, 29.119272873944368,  4.145692058842255
 8.897499956578086,  9.807149722710541, 16.947790782401718,  4.029595322801907
 3.183279410592863,  6.805553535291448, 65.470376520524241,  3.734960882993073
 0.313578699757121, 10.830495360390019, 71.144945253841271,  3.945479610770386
11.509216637576337,  3.813234033599036,  3.037254694806693,  3.857663835587015
 8.738709825395944,  0.806147016153163, 28.139139588035100,  4.099187261097859
 1.238400424522282,  5.702640167018495, 48.310086268916834,  4.207086136949191
 1.397906125907979,  5.472931845098701,  0.099003484839387,  3.757396951192525
 1.252236610677909,  3.841911633348408, 54.771515562829002,  4.005196622581852
 6.846516091527473, 10.591357503273658,  7.344585804269390,  4.033662082148354
 9.166829231936589,  8.054897890854418, 61.534631281398404,  3.821647917030067
10.891030140822650,  6.650595549833108,  6.412048501706864,  4.413003580113307
 2.548007636365944, 10.232439988921131, 29.478323543975861,  3.930887494178364
 8.732252701072463,  5.397489664142887, 15.810298001798126,  3.882358308655137
 9.304727976385594,  2.884755375764574, 54.624426705806059,  3.929979271236932
10.379496917303461,  6.608332913967597, 55.177556193151361,  3.856091955521679
 3.256714970217540,  6.056943976685950, 16.728110140351323,  4.034319620598258
 9.234067310370877,  3.416664988405999, 41.894899449424287,  3.958270174185350
 6.326076613589855,  8.478558574046207, 67.480785435838456,  4.173960440793842
11.074956885220262,  6.851668685292055, 18.664111390122105,  4.038058869043154
 3.747687497530609,  3.001296227481811, 64.776515340038586,  4.068806045362808
 2.048020776170367,  4.505532119015904, 61.519434462688473,  3.858002304573118
 6.977054634470490, 11.541407229248055, 13.405720123509703,  3.885452965152237
 2.512543027663007,  2.275498761190483, 35.797062086206566,  3.656721548124997
 3.475959802832551,  0.634372257035360, 20.618038918839648,  3.697822648467994
 0.903782827895178, 10.634254442454584, 17.589764684504907,  4.052731952075115
 9.971327832363162,  4.159629573955842, 61.726168252093061,  4.138187341825629
11.210914981695119,  1.164091932288331, 67.981803929322808,  4.056434247922335
 3.498253012669075,  8.424623692206138, 33.014649910905618,  4.038811239574290
 7.602778574680484,  2.528216849570449, 32.329211104665902,  4.075944242796437
 1.544398436922781,  8.514908222159468, 61.918573674286080,  3.754468065729738
10.980908719661524,  4.960542679354507, 51.671755537255102,  3.882869606101069
 3.556754888980308,  1.897905186406392, 58.010778429201295,  4.521272984876252
 8.249621355708022,  1.953492443891055, 64.606862573196139,  3.890359303536058
 4.818114131511702, 10.242817281265857, 70.771898838602283,  3.858442233008787
 9.099942901014611,  8.760443640928589, 28.949318387063890,  3.984220430112844
 4.687007053400609,  7.191687430836578,  1.993233471001230,  4.118814697882272
 2.809543518339904,  0.954575988418255, 32.321083658412235,  3.759181224328624
11.758231796106312, 10.534763648408941, 26.675247860685211,  3.858995380758238
 4.706445402356845,  3.378122642396093, 48.722868606127797,  4.093221028627382
 2.215852250389058,  0.512763544399630, 61.895835750000884,  4.136249795206859
 9.036213935769418, 11.863227454205896, 24.175768381720374,  3.994280144906821
 1.855505643862972,  8.605857466172514, 54.797334096590106,  3.871817784424004
 0.112183667299391,  6.637451315689359, 58.786191413744589,  4.067315115699038
 5.471026480166524,  1.284116471939874, 10.160953501000195,  3.855462028026929
 8.720360177318680,  3.751450037516908, 25.395959394589863,  3.937141037800375
 3.711125611242139,  9.259021081181865,  5.333664019370442,  3.851585343365428
 9.071430294190847,  9.143611203743641, 57.820862140378843,  3.900471949813316
 8.410123161228059,  0.332563824563773, 37.946712629319308,  3.922066129669406
 3.249551833411370,  6.063074273322609, 51.975052065253593,  4.177076502609058
10.975244585747127,  0.256553779869660, 31.484581868919246,  4.016441643021321
 1.158744220175900,  2.010927929502409, 50.098224042259517,  3.988880826512121
 8.783424685612237,  7.692995094479212, 24.107613269666011,  4.344916471619617
 7.190030141954790,  0.648716784921745, 20.145302885495422,  3.757343566353829
 4.430337892252794,  0.891081218574235, 39.064645617183913,  4.407053132780222
 6.133436799858611, 10.833657052210576, 61.265208787126184,  3.975397251488427
 9.353585419827985,  0.670500888113837, 73.277532109746460,  3.921382993765824
 1.335514892638069, 10.352054268588756, 58.650382010299531,  3.752581510304098
 7.690779655211989,  0.916696967555342, 58.187607221866365,  3.983710307285118
 0.611908005751361,  6.390611798796506, 23.186983721545268,  3.764879537394655
 8.095634258666246, 10.114530192592756, 64.428678033459434,  3.596602962363402
 4.162427865560912,  7.393302302688775, 41.709594532584418,  4.087658003531985
 3.834265270715135, 11.361104871226621, 48.668454527870431,  3.937079828048148
 8.510144748455351, 10.886433935631061, 69.874181475810573,  3.848436794589200
11.610260000741112, 11.146485182952388, 47.842996874452439,  3.628606223158009
 8.677772622990963,  3.181960780842421, 12.420896021525435,  4.212256224159699
 8.364732022827415,  2.935991585559635,  7.914346038695011,  4.174047571314885
 6.330234254620834,  6.288870457715722, 27.177052444590888,  3.866536045664330
 5.602533799453341,  4.085114621759510, 19.495785495988969,  3.918402873916983
 4.903245279368587,  4.693028998735834, 68.302026532194688,  4.075662124690865
11.436522537653389, 10.420366308839720, 41.620077362801112,  4.106607293467360
 3.001345848918977,  1.810970925867947, 70.416049203429552,  4.001508179763076
 8.682508169339112,  7.667253842818686,  2.762225941273372,  4.072673280612245
