BANDS
8 8
NANOPARTICLES
cell(1), 11.879
cell(2), 11.879
cell(3), 74.246
 3.347462136445910,  4.127105145558561, 68.792079128222568,  3.830541439419162
 9.192461010803390,  4.264380173425231, 16.573392052917281,  3.892462599651579
11.864725877816387,  7.384866066475458, 22.586612777360060,  4.072176426596063
 5.917227907616596,  8.891582227755803, 35.458564035083562,  3.604489735718573
 7.890038267173770,  0.326187882890216, 23.920053272835670,  4.052176757307452
 7.151481207700640,  0.669063579825541, 15.904649385746765,  4.442658723988077
 5.628333492218077,  5.709875850090084, 71.390341048409539,  3.767230863175528
 5.636733478705166,  3.213066642577014, 34.656359485748453,  3.718624338051508
 9.545042795047980,  3.662739387897077, 22.722378431559697,  3.768000380977608
 3.605963156934727,  4.313799059761747,  0.080988362689891,  3.881887237828042
10.168990711589048,  8.026307897844148, 51.380287256137663,  3.893402594604075
 9.043176546374918,  2.259340331008563, 47.088188925203561,  4.142589264289815
 1.605195180502668,  3.539713801096208, 23.291896730631393,  4.195400253322212
 9.636690694847061,  4.902819032459703, 70.968303234963216,  4.020523207388550
 7.542668338041763,  2.239495676792490, 27.488122341073336,  4.040504178694939
 0.595685256944283,  7.838298602029037, 10.418730646736561,  3.888795182059198
 6.847988534833570,  7.896410732628394, 31.891803914616943,  3.977752231069703
 4.297658715376310,  6.994541820186022, 10.447020183138770,  3.596662464039410
11.305611179770240,  1.573107551656075, 43.865422210293772,  3.839950527080762
11.412680636127766,  5.503247185431867, 58.743565064345127,  3.846077539529969
10.724563722296269,  4.378968697475730, 50.080790837582477,  3.925293105532416
 2.131505666343533,  6.103612467856498, 13.536010486077702,  3.862944403312493
10.149158617614299,  2.636654646428879, 33.496834677720493,  4.343135180950034
 3.358546376068528,  8.771408713475880,  6.842956975752178,  4.215258387702665
 5.284590074706172,  2.491188466514387, 21.567141171643499,  4.196448387223947
 5.965245077554149,  9.496846639148746, 26.440956138915922,  4.286907781979735
 1.458350578042258,  0.351075926326658, 40.702385656290943,  4.061190014355883
 3.463237217384651,  1.790945753973719, 13.528565504745288,  4.506368723125312
 9.278494540145530,  7.111968448185167, 61.650150729482000,  4.019387061536877
 2.005145221777520, 10.501323140647475, 26.817593068568311,  3.914539242302501
 4.189407609371126,  7.143466081411820, 29.167395438116973,  3.744093517642089
 5.380875908876077,  5.381957866691152, 65.673206733343520,  4.024475756473120
11.774524657237597, 11.779924168267545, 10.578720894158195,  3.964590587207707
 0.740836773181535, 11.123957990999214,  3.918706594143542,  4.001102825969665
 4.586723456993690,  0.139880563814963, 29.664178170156887,  4.347006180182323
 4.160009817399660,  3.014122061193610,  9.783243257752142,  3.490428419922552
 5.101680468732904, 10.310914026690078,  3.513625923457806,  3.900351338450319
 6.140250057806718,  3.990475069761636,  6.759204405934644,  3.991334704413196
 0.462488675533501,  7.207880408930553,  4.452078717474419,  3.920237649975975
10.897107656208220,  9.642034480850690, 42.748928555989679,  4.140204680329571
 6.960779963575771,  3.670887095447164, 31.128838307634016,  3.864767545533908
 7.370243444108382,  8.894585736765178, 64.932229126325382,  4.176504431410892
 4.804204221230803,  6.965894406502400, 40.524138168278334,  4.223364318035624
 3.907845974622861, 10.771581914558018, 43.453640860371664,  3.850389493325088
 7.270592776933032,  3.749331046913952, 61.417134070022939,  3.731081427746754
10.600350878272945,  2.019710835875046, 13.694857553698723,  3.929109881257463
 8.246670367435179,  5.961798656734461, 35.025398836126541,  3.898042738869500
 1.494401120486326,  3.164487765045486,  3.385014352566934,  4.053181413574117
 4.335498314732425,  1.374661713907320, 25.333146488702052,  3.877859871441656
 9.686331167835853,  9.260019560137607, 19.953723979573127,  3.698724120357376
 1.389731209003041,  1.299109007354393, 52.893054069391376,  3.733940815590170
 4.813999907919161,  1.747604482148150, 59.108883135273999,  4.098141977981152
 1.368064791604547,  0.623893130112396, 65.457346396553490,  4.307775501082308
 6.383054130829231,  5.083226228134682, 24.702528685522495,  4.215887544844846
 3.446245048016656,  9.998553952156438, 22.967315934150992,  4.345136120031873
 8.793769728704032,  1.068953636894543, 59.097947523969943,  3.974757920649284
 6.410301904996597,  3.695577775616751, 50.083794832722852,  4.332240223052406
 9.456380576610083,  5.293235899890662, 65.335075512534786,  4.155771412328617
 1.889097644071584,  1.383773155750048, 19.586983964189031,  3.947328288846245
 7.111443504097225, 11.547553700310266,  0.259942139731405,  4.135242674951239
 3.110602155799650,  1.391077417087405, 49.512464356386175,  3.795595376588439
 6.022029046941506, 10.547067600992229, 61.339044503716764,  3.864733992271880
 8.190391460660122,  8.523496791084970, 10.146562073250161,  3.871925545487825
10.277638318700784,  5.776197043217794, 44.654544059287360,  4.325582693309382
 6.794838267552756,  1.041116011626119, 55.699903919145605,  3.910113556388116
 4.783165069053343,  9.713804791756720, 47.258868801451904,  3.827115510815312
 7.298503615084358,  4.785961879170860, 10.416168630467038,  3.825736673566705
 9.176955775457314,  1.044701636212371, 66.006825225200657,  3.948599990544778
 7.089355500131785,  3.218556630279533, 68.485043930481240,  3.850555868473589
 7.322013453815264,  7.794433616933154,  5.792951138885456,  4.205437858500286
 9.248473257584880,  2.120482394180599, 40.337474599742336,  4.394631360757638
 1.371313427415165,  6.901656228779329, 61.925585903221510,  3.954241231485717
 9.189303089534604,  0.865236301523548, 71.011597486876312,  4.102625902268671
10.968158068862895, 11.377137804048814, 55.497015187200823,  4.091280741249006
 7.270117174031311,  0.971430183170289, 11.611263675608518,  4.168513590935590
 8.138285435058323,  5.392891205085742, 53.415184692058268,  3.902857236466583
 9.242981356057197,  4.364098249731827,  3.814796323611661,  4.586164350934964
 0.076519646966729,  6.467446759240461, 33.598030214098699,  4.110188951370279
10.753562504101552,  3.673758104926916, 29.477055239431333,  4.036458507383346
11.219082777391371,  3.141277540858132, 62.104117977689640,  4.370191708089328
 7.123392866578594,  5.222434831187582, 57.860350392548938,  3.953437043680904
 3.320446390877549, 11.053399768132646, 16.739474626555044,  3.778019420229318
 1.545720356721227, 11.493511109157216, 46.365942872630491,  3.766318629816353
 7.433845021843849, 11.378176214664332, 49.576021351651448,  3.947813598609631
 2.177747417345198,  7.246603190744024, 43.684341863036039,  4.006085621225554
 5.237367686003371,  1.430910529596126, 40.800991490157450,  3.796035967416034
 9.630843774936245, 10.065294851005479, 13.467169289572015,  3.989560482082505
10.788421365309919,  1.395963087935127,  0.805981564618165,  4.055269697721722
 3.432448861926755,  1.017041598156353,  6.382647448891174,  4.081024741080774
11.611379671100675,  0.864297655942193, 37.038771929101323,  4.100505402034210
10.770168363164183,  9.665695038622863,  7.253866719485496,  4.161991392136581
10.063153287526271,  8.988152720919965,  1.568776389120478,  4.104597916879657
 1.066743062514521,  3.476312929768898, 46.905590699035784,  4.032342240889134
 7.574150036535367,  8.440029738446214, 22.911682839850258,  3.750850767225129
 3.464909054733192,  9.251109700579406, 64.191085289900769,  3.766758530514762
 2.631990116975560,  5.270665280884690, 50.238353540109230,  3.854212228653091
 1.514695673282344,  5.360802703747034, 65.443075791358453,  3.718716704930239
 3.306165295909308,  4.700313359616991, 31.996971900698732,  3.916225561550397
 7.722755399589452,  8.341240163908445, 16.660096623809352,  4.180615423051128
 3.441440348759101,  2.140365209956347, 37.522296800660257,  3.798916626695549
 4.618010944507568,  5.665025886838156, 46.666210452531118,  4.323048886061803
 6.621781687592025,  4.269194979303720, 43.182728906247384,  4.105436472624148
 3.531470858438887,  3.554215284814079, 62.555437297906536,  4.094711982118509
 5.601395974460263,  9.402122191879002, 13.232221264184368,  4.150902002854388
 6.287405333814341,  7.511444509051012,  0.795829891406209,  4.112359115992935
 8.572177946804814,  8.749359771784610, 71.827558977909192,  4.142508188651622
 7.109944231736364,  9.748787834476230, 57.804986109233141,  3.685730990361893
 7.917102095381789,  6.331659057217652, 28.341997791320662,  4.061276636711908
11.774883055823027,  7.392600983624135, 16.592671273582802,  4.136894167215248
 3.167523752890042, 11.189613699481500, 56.119661072691784,  4.168734372910531
 3.370288474636916,  6.023075715103095, 36.392327620990173,  4.289745300200694
 0.948824176180785,  8.105705955042277, 39.428108214750374,  4.110083554061164
 3.440520456706732,  8.136700174032848, 68.009112805601532,  4.170802154134144
 0.600762990911814,  3.833667932967415, 10.689042799658168,  4.025681245131031
10.908033673401768,  5.355193664366963, 25.885232763769608,  3.897935474720627
 4.171172583144581,  6.076210982727615,  3.893835438474629,  3.914484113949905
11.230333537194376, 11.499412148727840, 16.936913937395055,  4.166197550860596
 1.354990209383944,  7.822175373594988, 56.127967949111586,  3.466051377661035
 2.668146890126684, 11.824143400384258, 69.184417113898775,  3.700269394583726
 2.276812713830176, 11.754195670571448, 61.542352580651716,  3.866188375306246
 9.437515868714716,  9.185431629694444, 37.207891351368090,  4.241542109353746
 1.864929601878520,  6.467096733797936, 71.417603359811650,  3.794033562808254
10.020602049844946,  6.042967563909209, 13.083796153179588,  4.111028885387348
 7.920229760210505,  9.896614755726690, 53.704159658368816,  3.574175552948205
 3.049521382514620,  4.818865634851537, 57.312537101842423,  3.819380967827461
 2.728557512601568,  3.649590046805042, 28.173283046189304,  4.074507368782425
10.725472220000970, 10.275836682593223, 33.021477851976726,  3.969976169246052
 1.059182295580194,  2.548819916992279, 71.704608545196336,  4.221404535474861
 0.569520133140536,  5.087394914767904, 53.633087894888753,  4.097105146193532
 1.028984485366211,  3.666451714224325, 16.220828118978979,  3.663410600877723
 4.882167105895512, 11.689845238804383, 52.518380344560505,  3.865254832251252
 5.096487234860513,  7.559161944894440, 55.133920570081109,  4.286132499944275
 2.152115605384320,  8.002331254516653,  0.849958693077999,  4.191413159505545
 4.096928766562916, 10.340037257104878, 38.395704916806928,  3.876485107892459
 4.418485916076340,  3.632991225007209, 53.796817796198361,  4.086435690993462
 1.930244688710337,  9.030058365249383, 52.603143986955438,  4.042337261352081
 0.093926997487119,  7.797111011536924, 29.470749172739822,  4.557632534107277
 6.980222287572841, 11.760933112295682, 33.129850914801175,  4.085953999927296
 3.839771075405884,  7.339444878734536, 16.838226634881288,  3.723806703590095
 1.393183830547518,  9.443626617512926, 35.773266367585641,  3.707674423018930
 5.252901816413804,  1.695556994430766, 46.511505402956359,  3.598597836918440
 3.719860438959163,  8.316121915204459, 59.007497631475431,  4.049866170216492
 7.044266291761901, 11.474939943221012,  7.711848386911136,  4.112742680313425
 8.315768956622760,  6.810541866292808, 48.139141666373270,  3.929376859365519
 3.349526330282534,  6.169588792256405, 20.562713657211162,  4.132809853083865
 9.726661398684961, 11.156839536845938, 62.512133915039122,  3.953872129706032
 5.449120488082645,  0.675663957309251, 64.676797410460850,  4.000678003067492
 0.787339338401984,  4.445336316322470, 41.144472867042531,  3.966131496793058
 6.062575804151296,  5.347226954371749, 14.209031414314008,  4.230639176957340
10.147215300351382,  9.323060621127890, 25.802522349180347,  4.180997786532548
10.186419916352314,  5.635700150924775,  7.860246829859721,  4.071383510475515
 7.328688667706204, 10.158917512461937, 40.475543576595257,  3.772692330471440
 9.640942673004258,  7.609888764178615, 56.139377511244113,  3.727996599930945
 9.146283822148275,  1.627051796704732, 52.522184034815609,  4.080448025890255
 6.612053652812903,  4.325289023555787, 38.109319325893431,  3.793775063189649
 2.210340119603332,  4.818231874261788,  7.115592058221030,  4.035588637078231
 5.156281968266473,  1.737198800790778, 71.576478313110343,  4.016731576812813
11.588210649055018,  4.704069517242018, 19.631446855371610,  3.926567815577669
 7.477932010295418,  5.731032176802183, 19.965844734063477,  4.255183462056431
11.308886257906344,  1.859825618244101,  6.735455583300150,  4.119410110089920
 2.721441278718212,  6.787559125865831, 25.576088172283832,  4.046970451468686
 9.575802831052755, 10.154095254660980, 46.515908068978831,  3.907858222158046
 6.453786089389311, 11.016188573352286, 68.419456329792951,  4.188444111403794
 3.780032426745457, 11.204310372053904, 10.094921434413033,  3.948306707205139
 6.031177250064625, 10.712238167929225, 19.654437335903047,  4.173346115526793
 4.605402249467011,  3.576334383977974, 17.650141254423303,  4.035659044048296
11.322074768575371,  4.928700809334329, 37.338569011157652,  4.068343696963306
11.538551670941569, 11.577998484056481, 22.378894876443038,  3.944297882829023
 5.466357896447586,  2.388862049345498,  3.137195020883897,  4.040979839403481
 7.616189739155288,  7.028918405509544, 68.414862250491851,  3.735824188504588
 2.368081565646822,  0.934649135806534, 33.636863837884157,  4.506633850695879
 8.674741055019410, 10.690761509973610, 29.495085422470673,  4.212434125865219
 8.950102416748443,  1.699237745862864, 19.506841417934986,  3.851530990985905
 7.508952474186383,  3.722242327674643, 74.167161412229348,  4.013671586855493
11.214939768317089,  5.226073005613081,  0.271218733522684,  3.669258551647357
 9.073418635174839,  6.489032210219454, 40.539932672414672,  4.355175400963395
 5.474611022309342,  6.897208751268273, 62.136406426125866,  3.657200488764020
 7.110572557616121,  0.637455998246488, 37.062473197527531,  3.865288760191469
 0.439905964056546, 10.356477691333644, 72.006225625886984,  4.017053939143048
 0.517202217919063,  0.166829762349333, 30.008972381174125,  3.775103764140742
 3.062033710693269,  8.857949158322278, 32.393958753297753,  3.898250633051271
11.617445118763035,  9.547170480464887, 59.213372681226900,  4.294225460398933
 1.464002769199868,  9.429990296649697, 19.530643944023737,  3.668585580086956
11.598658425235724,  3.291002554749462, 68.007173815755678,  3.774029432848295
 4.461855718587724,  9.499465323223863, 71.841168631440098,  4.213946711854541
11.146300986400915, 10.625741416262503, 68.339810560177725,  3.685862944797475
 0.807428779106802,  7.750862589232801, 47.601619948199371,  4.247302988622873
 7.559105825778186,  0.350914797134048, 43.780553912529903,  4.037314603463799
 6.883876468006455,  8.237344709370522, 44.208328124812333,  4.105922905670943
11.189494743536143,  1.409047422433943, 25.979054873051432,  4.016284271002007
 5.560744860588969,  7.980578960436161, 50.915968062039518,  4.233668480016521
11.466473415273448, 11.482607509028577, 49.803701442615640,  4.127637445179761
 3.081116376949154,  2.616648092660548, 43.675281545342010,  3.770820511397839
11.600032350051354,  6.983639909929722, 68.410989552442359,  3.652498766576576
 2.944078741648481,  0.291548816959789,  0.552037489930204,  4.312140389426191
 9.922132762799887,  3.251239756063165, 56.055741231743269,  3.770643625359379
 0.801594816342251,  1.776449872392245, 58.400794483827191,  4.046741313548420
 8.687023174662643,  0.084938692223216,  4.010453389397645,  4.042405353744753
11.596569547891571,  8.732506431333453, 65.025812976258919,  3.966832898560031
 1.652682438984862,  9.915975217858827, 13.505973341847167,  3.808982115906576
