BANDS
8 8
NANOPARTICLES
cell(1), 11.878
cell(2), 11.878
cell(3), 74.238
11.864620133584380,  0.300468739476751, 49.589564910398714,  4.129013820750341
11.126750647710397,  1.459574312638999, 23.060277094610161,  4.020094875263863
 2.950899428848873,  9.555131539630214, 20.671932959180271,  3.961162801824728
 5.756232326771228, 10.872220569340035, 58.325523780941566,  4.080409336357032
 4.676381149801403,  0.971806100895479, 27.915220942556285,  3.846007587909634
 6.046414398277854,  3.776866087091029, 51.861675435632726,  3.828054757333493
 3.038144977697291,  6.516577467157410, 18.339505211333275,  3.695622490237073
10.439099501365000,  7.093272150802997, 19.093431553605342,  3.876785743252908
 3.569656193661019,  4.924823685126612,  9.607464403991932,  3.889105876753073
 9.761013177590440,  9.680472669779164, 63.301687825337275,  3.867699530142310
 8.137515587073576,  9.377887297333887, 55.524817795480558,  3.656113575552971
10.149818125871512,  7.092027587454683, 52.687754574196944,  4.147015415711024
11.231842133823617,  1.042395102385189, 64.448551393103699,  3.605084028590182
 3.654131544525921,  9.525883757968245, 43.537538306535765,  3.912342012815191
 8.353710197047604,  6.840706267279226, 42.184314422806644,  3.893903857282363
 1.163124681186248,  3.487329122807102, 67.122690172099539,  3.909494832245277
 9.313762113622964,  9.069642261279473, 59.361864300942237,  4.151277628036224
 2.893744575521093, 10.065765616222276, 51.674891169713398,  4.176626419703323
 8.045101846348405,  7.351745429983225, 73.459221653923805,  4.166703971304336
 2.247583683194042,  6.357785516001718, 73.870982489876923,  4.006591173830087
 3.863242066691878,  1.783502239151505, 49.121794047525384,  4.201379902646363
 7.839365205813213,  2.941017226630997, 43.245372007630777,  4.247167746254624
 7.825426141355734,  1.484967860837904, 30.040074907625833,  3.815362437345976
 3.356028126590894,  8.079316926596375,  3.358552259125334,  3.923286174055165
 6.670306264032368,  1.163929545567417,  8.746920583961497,  3.784381545150290
 1.302258910313448, 11.301269134420345, 39.201818289932817,  3.987405763142667
 2.763629136983710,  0.365471670458856, 65.613882359371658,  3.712119523728191
 7.758094106122564,  9.236878890112170,  9.393934485769503,  4.035081615360922
 1.053318191655970,  4.764404283970721, 21.323723531736135,  4.264681215697933
 1.366169039708983,  7.084795297614649, 68.827031274577848,  4.045204012932373
 1.506811696729144, 10.659653433219274, 62.429304182296420,  3.830819216216815
10.125474027066907, 10.294518572163394, 29.710239567875430,  3.881477631705421
 7.293941043551390,  3.999393250804437, 70.871596758866190,  3.899202341838725
 8.800563324611225,  3.233738673940100, 66.920102166742666,  4.595931034073205
 8.587538373199873,  4.308555631524539, 21.755524619893375,  4.043821118578938
10.345666951169582,  4.322665287637345, 30.270662230339287,  3.787033364656286
 7.222146294472697,  1.856851353210762, 15.627502914871972,  3.987431715879800
 5.028880675882610,  1.968186002764988, 73.505461505149711,  4.106872340394036
 1.520721806521150,  6.088420112657712, 28.564414213779656,  4.038624877641608
 0.118135562505533,  5.478531019469210, 15.673972108135214,  4.297774366788472
10.771317778995863,  2.393448169903559, 46.194726107739491,  4.134571991492813
11.039447709310341,  2.899178817051580,  9.137968734948624,  4.237013690240192
 4.652408773845148, 10.944798711898882,  5.967826518675672,  4.208240148428172
 4.869629397865709,  5.523881155324986, 22.239843241825376,  3.727084427571338
 3.882620977822613,  1.229457734344713, 41.746220643138507,  4.109699559782731
 6.697796349250122,  6.614354055187547, 38.687877534231276,  3.849294137723648
 2.601009723482333,  6.734691284183274, 46.061874765740271,  3.900752993279005
 2.167373832877541,  4.320275996737772,  3.070495529498150,  3.973924808994952
 6.582228376343762,  1.356970265549474,  3.047562862387433,  4.155763473593990
 1.802500560830544,  3.721455317302189, 63.207376113682464,  4.011823439577297
11.450206725122916, 10.683319491877612,  8.565722546799824,  4.064019355109926
 8.387025158037995,  7.269008212375781, 68.652937772783943,  4.220449601207742
 8.980808774209230,  6.910765152844015, 35.554552384379278,  3.915874214418244
11.641443358622213,  3.189250451259146, 55.803203369090340,  3.852613082972878
 1.087468327383637,  1.406436859566249,  6.001384175889157,  3.704914433721524
11.830918360709861, 10.952077187755608, 54.719725227082286,  4.241342215444138
 6.202131400622632,  2.954137264184765, 58.123822519900614,  3.889360068425310
 2.590620766601371,  0.321048718274015,  2.546024622432164,  4.133040291670143
 8.485450105763134,  7.036873028003853, 28.121687728214443,  4.071292322582736
10.842315191698653,  9.148659606607142, 71.228082565530045,  3.827633205731207
 9.720308324772079, 10.264598087326730, 46.580333532151577,  4.182577611884562
 2.456672936593872, 10.502631423897768, 47.034892148927170,  3.721803657755661
10.573188630094355,  6.408860871803401, 45.445148486725699,  4.034003273085387
11.611509708138906, 10.016148944430677, 35.572084769564576,  4.152084958039755
 7.085399758509374,  7.150272839256812, 64.741649316804015,  4.023390002010669
10.981395227525550,  6.660781629111002, 65.531201394001044,  3.984018662044338
 4.564212560678419,  3.216093823633539,  6.120680761155886,  4.083196010748620
 1.428452927621895,  1.923867869775547, 29.790926995760703,  3.892634612734026
 1.189930155271041, 10.349617160343684, 58.577084027354466,  3.920930806210145
 6.167790569170873,  5.367790646040580,  2.824176088234029,  3.918790502644021
 5.245364424879163,  8.872367345991570, 35.563691790461469,  4.384879906569494
 8.041306853830234,  3.259465038013400, 34.256940386870738,  4.028437715058105
11.138046478878003,  9.280244185774722, 26.033387002353802,  3.999375478545915
 3.253581561192669,  0.725142991223047, 15.068009326546040,  3.818313161799075
11.478259862694358,  7.538247253874762, 32.266743127093470,  4.107559068022760
 4.675868286973547,  6.236607588929557, 49.273167752758795,  3.805697113726018
 9.145573479539378,  7.366888949971273,  6.115805718089966,  4.003845671960772
 4.126215449267382,  4.752051661885101, 55.159522830469207,  3.964804769224770
 8.028454599044805, 11.839309181452903, 36.468107828631076,  3.907766130604772
 5.902982554087433,  2.993389550228172, 12.074381280637709,  3.922294801872667
11.146718406061835,  9.491578619047461, 22.080846716505413,  3.914668981161245
 8.412217614455599,  9.890063044430958, 33.155534116860551,  3.817033088402673
 6.364935163180144,  7.860232660434882, 19.605831843965746,  3.891354678751665
10.400335159690322,  5.269887791801139, 39.005351472185708,  4.046099814119877
 2.379764665564112,  4.693035225168435, 58.946395121607935,  4.375008680790733
 7.968266487896620,  1.722994635040803, 49.072399049886045,  4.004850033752156
 0.094755971485271,  9.591145813760745,  0.696422870577395,  3.968473206561828
 7.851786810150649, 10.840088150580579, 66.593156499640912,  4.087352258838202
 8.691407069378045, 11.552244317457744,  0.070277332106344,  3.615214119813468
 7.532343302453049,  5.158460701913928,  9.108608579773467,  4.103127938271720
11.691664033089593,  7.129675523380653, 56.552090124144165,  4.169189352151394
 9.862090340664258,  3.136338457778743, 18.220884398747625,  3.826276937597372
 9.787208960092745,  1.402114328182439, 39.947382958630925,  4.007969277732529
 0.332355350531084, 11.661338078148114, 43.430537209565209,  3.982265072548992
 7.446654091857894,  9.181676479998512,  2.892552983130859,  4.124053248016237
 6.086379963733742,  4.014604578385338, 46.623245041465118,  3.656618830200043
 4.302988934862812,  9.459751913973955, 67.696348690752529,  3.821600186870235
 2.655326780131338, 10.740320076209153, 32.714966566481870,  4.148226170234436
 1.261970936893140,  6.356782911935221,  6.555614219323877,  4.281026162736797
 6.120705674868669,  5.180423378174208, 61.381628706734894,  4.000655359783641
 4.614928676751116,  2.476076496378092, 32.175487006768670,  4.137981528277634
 4.120050706836904,  4.521448026384004, 15.249893787877769,  3.971183912611215
 9.556638240138394,  4.120448961265875, 12.685819327946600,  3.802155486534590
 7.812536175077049,  5.988939871119568, 16.227239586723698,  4.203883340725330
 5.293056662316769,  7.044225354728722,  6.498759129382761,  3.735895480317275
 9.630694557522542,  9.288801753381273, 39.140564856825605,  4.138767606441686
 2.864484978758195,  1.089709381991626,  9.363738205049135,  3.920123723565872
 8.602712519455237,  3.484978065030320,  0.280301219573900,  3.904476880380008
 3.785411631717359,  8.219069858395450, 60.532351557403572,  3.848597166879142
 0.588396224429565,  2.609165485285282, 74.038732933646898,  4.053375720223754
 1.536465360104245,  3.163494960260405, 12.514166831196702,  4.027127138622429
 8.639963049702478,  5.779672225623216, 49.028240663015431,  4.189208471030068
11.761468955409750,  1.704519986082637, 60.378146223731129,  3.922066174322391
 2.115826189513550,  6.156156938668363, 52.119937683303903,  3.841221645589846
11.833002504403856,  0.243230038792140, 19.473073071766393,  3.604626996067438
 0.232461079954168,  8.073539618496570, 49.178660224347361,  4.126999441498006
11.160116274210212,  0.987522516687309, 15.132053994033672,  4.132266651984413
10.486210501522274,  1.336374416339737, 27.067162687054022,  4.028135886167654
 2.979799172997473,  7.483264259597105, 64.441913379298811,  4.234209984461040
 3.459004368060755,  8.885095419028536, 55.598734967388715,  4.078624778976723
 7.168468373028205, 10.509070762786829, 70.902042031566793,  4.034670266066410
 5.801243700490547,  9.851007793892705, 30.215996727861999,  4.039933971940784
 3.642545028955618,  6.792273251251484, 31.980136855927881,  4.119232366207016
 4.755568434660914,  5.249014296253987, 67.346642287875994,  3.908147753906018
 2.351117299598986,  3.797281290717410, 39.045538622673170,  3.940009250898130
 7.627658538298127, 11.584943474647918, 21.595903725835193,  4.330359144397419
 9.222117490535908,  0.647384133590641, 57.368513916683341,  3.827327655361401
 5.952629107188125,  0.137912481724247, 45.831008258015501,  4.259652119455017
11.764818913751586, 10.621347894118518, 67.605999333967574,  4.000003876936752
 2.959137593342946,  7.702570411755393, 38.951766414249697,  3.951194068727315
 0.684546691782410,  4.164394025981048, 49.223065366612730,  3.742688907341349
 2.298326245461067,  2.721484766086192, 18.123497499530913,  3.725452759268277
 4.628389837013105,  9.728529035000729, 74.080871157069410,  4.246995172749220
 5.066984194364653,  0.078822559493735, 18.404537163189861,  3.881514220336679
 4.342821880234707,  5.497372458500052, 42.401752133504509,  4.571040769323138
 3.009356980471523,  1.324832091349103, 56.684806365456630,  3.832506839343361
 5.293513798287644, 10.894253480087627, 12.151400985839199,  4.067990462114101
 5.536390105219244,  2.590340296281369, 64.290158382204979,  3.872297464922656
 3.868637015248121,  1.677642049433564, 21.945819800747216,  4.181644032840479
 2.463617888404886,  7.022259550664839, 12.698473870051654,  3.883041801778758
 4.861893990018782,  8.940579094312628, 15.773605598744650,  4.123036796753899
 6.174873354263902,  2.690184857971107, 38.697790448149071,  4.051664160455256
10.500904485130777,  6.238771942649135,  2.455003000510712,  4.051216257178044
 8.750612525650102, 10.878006681483072, 51.940607422225973,  4.053089801347394
 8.074370548058344,  4.584559022025748, 55.098299314692127,  3.935269457927743
 0.059895662020790,  9.829294344992864,  4.664391597092667,  3.981252781153966
 8.767727094560826, 10.488628831756749, 17.618403975816836,  4.229622706732560
10.921395324452455,  5.292712065434286, 71.511749256026263,  3.905763179620416
 8.379304489482303, 10.757840498804159, 42.727852147135472,  4.008007889293304
 3.240481021888845,  3.886361286700807, 25.494502775458287,  4.251654703193380
 4.878317192751005,  7.154816548156534, 70.836444064127249,  4.047827623866697
 0.122725010867863,  7.001181945935989, 61.562689047948339,  3.932530177229788
 3.581382012689772,  0.819683892673722, 36.198328978638756,  4.051211653417515
 5.159108397269857,  1.405232525342864, 68.594573744701009,  4.213189065539629
 8.844543194125196,  3.418279445259365,  5.717827424307964,  3.948620719403521
 3.233791087364592,  8.883571411384059,  9.267502677999710,  4.072782427668241
 6.078040075716024,  9.806461487499284, 49.231890140168360,  3.853088761102561
 8.626867084995897, 11.422855250927007,  5.935876668197802,  3.790142058706598
10.583853158173531,  1.236074813625591,  2.993105946999671,  3.850557134237611
 7.081270566710588,  2.239033570637036, 24.967465828719199,  4.170280009004687
 6.533293003237098,  7.759765857922639, 45.695595862971068,  4.103952147475571
 4.516299656632770,  4.717286661888274, 35.600097203620948,  4.049598898947774
 2.801366022144743,  2.689449969937811, 45.320604529387467,  3.889987749002033
 7.573109563758917, 10.627023033292348, 26.817664169415352,  3.777902488629766
 2.206687281653108,  7.612274937491903, 24.007078040468727,  3.891396115097835
 2.324845568890351, 11.283520197164528, 70.930771479008087,  4.150669824016302
 2.069682572684467, 10.052474432503605, 28.754821115715259,  3.973451680850143
 2.639593792194140,  3.804914525873810, 70.781893788672107,  4.004220707802388
 6.368811235537128,  0.946824084183898, 54.618087472211670,  4.091787690493046
 4.705892145449326, 10.362392331975995, 23.957936407260263,  3.535687295101083
 7.759200281623714,  7.862590300591879, 23.838217194385091,  4.358954031520415
10.744624480406472,  0.984281526141798, 32.530962638985137,  3.835463938492644
10.398322875326372,  1.291887882179670, 70.620674577061692,  4.352000295566511
 0.152503406514526,  3.742936294026328, 42.459644703745994,  4.179593483648274
 0.341695349641772,  7.856608495427064, 42.011565012035433,  4.102894513906857
 7.950147101426154,  0.993711362610720, 61.025258881970174,  3.937256502102998
 0.890129225171929,  6.215363849221533, 35.996512505016007,  3.835915738211717
 5.815061887124683,  3.831236354751193, 18.985912815685676,  3.845243896223578
 1.914394118575664,  0.156785762424872, 25.493482641842000,  3.653795903390518
 0.904455163240102,  9.455813815988348, 16.832470516737658,  4.131453340314191
 5.767235054932580, 10.440864944950311, 39.393371733506484,  3.939544637967295
 6.400675989650683,  7.031558547004390, 12.519136808896301,  3.998252586164703
 5.366358049400300,  4.665291117035802, 28.888363295018166,  3.902038785693414
 9.856706070340081,  8.835065645699805, 13.868454288223100,  4.243187707219836
 5.503865895864834, 10.582133533290442, 63.247157076713492,  4.102239345896827
10.224329762099002,  3.045097090766872, 52.121930274272373,  4.026746345243505
 1.088484881278999,  3.996990495326677, 32.956961775989576,  3.697967670183482
 9.639424842833513,  4.653004315825342, 58.976521949194279,  3.786325811311173
11.547862998269553,  2.306469703893154, 36.293863496595144,  4.301355490855200
 9.669780785197275,  4.071119105899927, 62.808881348492712,  3.957909142681578
 3.839749208596019,  1.365173172922305, 60.834203201251228,  3.806050061534672
 7.590457061521168,  6.372582172247773, 31.907495080011277,  3.819685500870435
10.945401653059770,  5.127326080514841, 25.202611537159186,  4.464959415394700
 1.248182924312100, 10.768609640903142, 12.244604653912257,  4.014313068014993
 6.251187512549529,  6.897021269773318, 57.766043695677979,  4.006570965800035
 2.191667803674936,  2.060317413210097, 52.890780501164258,  4.059356083653898
 4.818208881023235,  7.958123903402371, 26.872077616714652,  3.886819174198649
 6.078156525894089,  7.649333668582928, 52.678728075840290,  4.061959409522028
 9.058203139341312,  0.372919539205505, 11.715936007784943,  3.976418225328969
11.082093759270046,  6.952804808263554, 10.293903869782998,  4.179293595419158
