BANDS
8 8
NANOPARTICLES
cell(1), 11.900
cell(2), 11.900
cell(3), 74.376
 4.467113126500460, 10.853940853488224, 65.917770279013027,  3.668956822202285
 4.321489406881415,  1.975140838132366, 11.697494469859937,  4.146706784494747
11.895597825043973,  4.425532629104533, 34.893833704380185,  4.055225258427916
 1.059046908767005,  5.978291124425297,  4.642670258897609,  4.109380181506381
 1.415856978139515,  8.741791823242778, 12.951336630923420,  4.536911017528867
 1.311825153551277,  1.325113308135391, 66.668098005275979,  3.864796737725528
10.547962507843389, 11.528419254580200, 52.579080005320606,  4.491858605852919
 1.737768872575624, 10.782474715612986, 46.144432881489450,  3.803188194135728
 2.358528179334212,  3.309406617580449, 39.599470512877474,  3.983800462725832
 8.789990177840370,  4.592710182244059, 56.569711421690428,  3.767637804714535
 7.318932945098015,  8.482627555351458,  8.173545518415539,  3.967708408116167
 2.699349816513405,  6.700069124167150, 47.183723000120899,  4.226794048400214
10.408464460964819,  9.129656647353121, 18.796548136032399,  4.115197523001521
 3.144354998506376,  0.820122492737339, 27.657007152367161,  3.915137707883326
 8.878667099917060, 10.073052873514333, 29.997701186207145,  4.268229849889170
 2.949909721226908, 11.028262380029942,  5.075544450017694,  4.145618090058736
 6.197085420061364,  8.251124112249338, 32.804754354424787,  3.718947958251895
 6.195231094717627,  8.974234069658957,  0.556295952287079,  3.738313755069145
 7.415659862476501, 11.472680089863763, 71.622217858530036,  4.112188759164377
 3.896382991521529,  5.439566535839985, 18.039132101908365,  4.153273328705081
10.212159513225284,  7.428308676284329, 58.878278161375889,  4.062963821368924
 4.112102072131280,  6.758396101252027, 29.594721106087682,  3.659907341100405
 1.970961003731230, 10.716306266014698, 33.250009577312120,  3.763568665906034
 6.514007025486070,  5.924633805538337, 59.426893903967169,  3.990439484762776
 6.004723418824526,  0.561986791959828, 62.617660641939104,  4.256555201038638
 0.198686446718269,  9.142234727243144, 49.386810005603948,  4.033413127782098
11.540087877675004, 10.863614134032076, 26.820244417612454,  4.165442454581700
10.293024163747402, 11.525835086141640, 33.493470023684118,  3.581980550519326
 4.008304523331595,  6.771530912559785, 65.873096024194112,  4.055171803498434
 4.168878108487407, 10.630491357179924, 49.218655533951242,  4.036497910755507
 6.914162908980305,  5.068182176875627,  0.674055961389014,  4.202654377909391
 6.280036092809278,  0.910388330278681, 46.484228391932362,  4.129397885052466
 9.730026410728630,  3.855476900525412,  8.008034915515296,  3.933136303273719
 1.914718273229000,  5.819591745061610, 51.337677188967973,  4.400579635739008
 2.250290102402300,  7.221709210544732, 40.007862629714722,  3.873214068225424
 1.440240445198865,  7.225593707431908, 20.686168439542669,  3.825429700722851
 0.645473140118361,  5.237022718281209, 56.424585110035849,  3.831265697822460
 8.971556223174529,  1.270728441142191, 23.949596978704012,  3.791245711018226
 8.635270195199594,  2.968627455267315, 43.800269345771284,  4.079506238575393
 7.848671683261815,  5.992307007243758, 30.218632534390856,  3.887886682540588
 0.123402160732949,  5.824396305233084, 23.928191887832792,  3.680059308277307
 0.015711893422116,  0.782699271932185, 36.853765272922772,  4.190579857266923
10.007467382650928, 11.689357221413697,  8.103411247271756,  4.137376486177308
 2.296195146079292,  4.583143994431119, 69.027382914913517,  4.321504399866110
11.784554725144652,  5.353783315755032, 17.688654712612006,  3.892730461604421
 8.528033746824539,  3.084935078011772, 36.279760586903755,  3.673573733581857
 5.128564288463015,  6.609924179349760,  3.933169174640034,  3.818283495874764
10.013925922803804,  3.465135340544899, 14.921927411764528,  3.654486826880824
 9.519736275476591,  4.724192597946342, 61.873375312804022,  4.122670936513321
11.177491028919059,  2.356373133226795, 58.863280941821337,  4.192973330861128
11.274338277935840,  5.046143309257487, 11.599514452072967,  4.122731971996283
 3.654024967414526,  9.102740516855608, 62.645072229187811,  3.928835037133422
 0.903559390675387,  9.656941225818015, 56.714865669911667,  4.013419176896770
 3.989839978793368, 10.099907592515230, 43.191132059915716,  3.718078575946009
 6.453672876133919,  3.754238743033798, 14.499395557407549,  3.513114565249700
10.554185670434999, 11.427263433768976, 15.267669207947460,  4.301872491881007
 8.095399822817289,  5.192195436597143, 24.398995386968469,  4.284047013491958
 5.161612351661939,  9.333436095139110, 11.263438260255883,  3.758541183320902
 8.477593934755296, 10.611838558286319, 37.083823211393749,  3.808385709646462
 9.518180588863700, 10.996579801679491, 60.841190672553424,  4.115254648166013
 7.151911890181294,  5.202398624953313, 46.830768097403094,  4.012471994897615
 6.406218753432429,  9.942155740469280, 52.730385362942343,  4.269111616779424
 5.736645300189513, 10.227224151321417, 23.863136271140352,  3.832575323595073
 6.644969758315765,  4.779062091379622, 39.460769978132440,  4.106978953573471
 6.270188287406569,  4.505480066165471, 33.519324408077260,  3.906020984071476
 2.114815319670270, 11.019475467805348,  9.233294016696515,  4.293647234614030
 8.307689522416007,  2.554216852494026, 49.976683706010746,  4.495263572979563
 7.853632393786198,  2.628131591041248,  4.316559870605445,  4.161690103619090
 8.688916498298585, 10.635983134980243, 56.543105126208005,  4.435788398594879
 5.282537573434568,  1.647142123923184, 41.854778874800608,  4.083662185512495
 2.358593973211741,  3.442458366821192, 21.260190763904106,  4.017217904857864
 4.718965689690890,  5.907640457761964, 43.271424395412346,  4.719467928595944
 2.088052188810514,  3.997480019814008, 14.573327973333431,  4.175469537371360
 3.006943583046795,  9.053923848633421, 27.081136532229390,  3.493153672281021
 0.742272947883506,  2.160672854427698, 24.628156178570844,  3.871369718026147
 4.322521783055691,  3.422610045120469, 48.967135446189246,  3.880706236904468
 1.158203142096755,  1.604539649489099, 17.886430216290101,  4.029436384086872
10.744905275773800,  5.308318423222572, 38.809700476319030,  4.247450969384176
 2.297823163933183,  9.161406541218840, 17.181052114926676,  4.123302991337695
 1.962625327690612,  3.564636322231556, 61.940560000837145,  4.319961002753407
 8.063501613391304,  5.851531011748928, 65.971318429594163,  4.262569915009338
 2.354762917974924,  8.627025119941283,  1.652497613053365,  4.269431541245587
 6.199412117150483,  2.812945641384150, 20.768336302316332,  3.792770999359083
 0.995589103546060,  1.860038089889881, 71.891049724028903,  3.945271635379870
 9.632658187401523,  1.853926648684253, 64.753491852458581,  4.011668259464117
 2.777128074402360,  0.204571204236387, 14.754628770664727,  3.522126777949164
11.710014428053112,  8.052358448583819, 62.554974590381605,  3.956769355584801
 7.184080688661288,  5.883701512449286, 11.331790738140016,  4.214192482732924
 3.798109137634564,  4.332449411501576, 54.580801176257751,  3.640723741613162
 6.413198186866628,  8.726419097084660, 68.639791788469083,  4.238938171755690
 5.742839600658480,  4.542700783119440, 62.965897039050787,  3.745832907245827
 4.343853718833226,  6.991513967993789, 72.103631320778177,  4.082032579172509
 0.478776717963482,  1.317717107898841, 12.153318977436921,  3.695342615914088
 6.151299432301013,  8.881703641290548, 39.899928771989387,  4.186873041452755
 9.348570510236181,  6.525002993523147, 50.151891965770538,  3.677591047033869
 6.374782657927550,  9.441301670940174, 17.780112752209334,  4.036002396089135
11.875741753033513,  2.002089173925527,  5.137072996975836,  4.118845632150202
 1.255400772422731,  1.514742172385489, 55.384409940239550,  3.979891239759514
11.530514443609551,  4.601520364041412, 30.862457383438443,  4.025544404029215
10.837839142875772, 11.439248900523065, 69.408634956506717,  3.988526032088126
 6.488173303594148, 11.485204834163692, 14.259884951595639,  4.056893266416647
 7.098938446782090,  1.899670975016311, 58.843037943372629,  4.003854824459547
 9.182464048327919,  0.316810308211552,  0.987037551331163,  4.293904852157709
 5.948580425757700,  8.866331694576186, 46.160825205497936,  3.810408037863517
 5.747014989318385,  3.876973868642659, 27.598387992892604,  4.045754366487442
 1.372726078869789,  0.740174726052114,  1.538607328416822,  3.996883370522649
 6.944454354991032,  0.151290094052269, 27.023725436738758,  3.850445278813753
 9.826723530033995,  7.948525787107601,  1.449670623378570,  3.958921341055452
 2.279863035432304,  7.020819569257238, 59.512784461421447,  4.008202165047054
 2.693666267193747, 11.175529333956602, 39.662082950814572,  4.097286295168589
 7.229717216810855,  1.895722859920192, 54.096508203548211,  4.065194354852435
 3.558378123877536,  7.711593207307969,  7.286251940154286,  3.902422351497011
 1.987170954641220,  9.571020768883455, 23.627327587122192,  3.765213271532593
 3.798931104924713,  5.703737319956034, 36.709463584238932,  4.012770049858114
 3.432897321174669,  3.286535608083606, 30.990798850793873,  3.941784877799767
 3.238293526272053,  5.802915929482085, 10.635488928221992,  3.782380383969504
 2.753061339865555,  2.637116579944012, 45.408163969229470,  3.984647077818916
 0.888966686446473,  1.297554197554208, 49.251391151665516,  4.198083498446605
 5.620654051637212,  7.045793672451086, 49.938209424043229,  3.819602290084740
 9.197616514615381,  9.586321247815157, 11.656680943757646,  4.240114002476813
10.922021997311861,  7.372006365231126, 68.767973938352796,  4.247790127715101
 0.304728373874779,  4.591628096999106, 42.777890069867368,  3.926707251603119
 4.606632167598562,  2.973859073202815, 66.121455057536721,  3.545505844316045
 9.199599184521636,  3.090434226630724, 72.350700282896042,  3.873223000634328
 2.461879976686379,  9.540417000803147, 69.578034990259226,  4.015596618060576
 1.830884677853607,  4.489180561336493, 27.574658802371506,  3.880104344049520
 3.627576591640484,  3.584522004344152, 58.230049049705400,  3.803447208411384
11.187973860417694,  9.628028282553643,  4.649495125488104,  3.741449996212337
 4.681683895811660,  0.032689002776461, 56.308664302743935,  3.623347771233586
 3.809894961035750, 11.395533458370007, 20.436324000249382,  4.314265095275458
 5.087087339227514,  1.715893101662731, 17.276392643549926,  3.806823428560054
11.157541948877315,  4.304401561805917, 46.796084743169288,  4.195315920388428
 3.353183203307486,  2.139624596242519, 34.834425198977662,  4.051744247764309
 7.422210082004692,  8.044672125127692, 62.611991624550434,  3.849710361079568
 3.688010888666631,  1.322924805397319, 52.238833280795802,  3.981621806703806
 7.224764978685760,  0.841210730234226, 67.784171289265544,  3.964857811968572
 0.310579707381485,  0.743037900240779, 30.376116905929649,  3.862313297159059
 6.150538755326562,  4.956140861087089,  7.212875295347303,  3.664160861679509
 0.676746870491233, 11.834097676626813, 63.177396287614798,  3.691748041080311
 7.135042313742333, 10.264585786904100,  4.344719703516982,  4.480656617334592
 0.255897612347652,  5.238248789702198, 65.400610269467819,  4.090785459910268
 7.951526439003405,  5.802700316504818, 18.837075707137551,  4.139483671916985
 7.853533186409421, 11.301329733452098, 20.866081986825705,  3.747973003529424
10.239478831635385,  3.339988233520351, 68.407362101689031,  3.962432288647726
 4.722298832367897,  7.913136494222904, 56.180608199265265,  4.413448630084779
 4.397242201940485,  3.176628437657277, 72.632681143979710,  3.390972413007286
 9.098799246192538,  9.871329658152963, 65.689101297329586,  4.046326006443953
10.313415276522241,  3.731057745482483, 21.312856557736801,  3.838304964510518
 7.056010619939688,  5.868835975570889, 53.360038882761749,  3.957329873222545
 4.692119157469321,  9.738596494337678, 36.094215232496559,  4.103325176939966
 8.883727738596662,  6.696038266880978, 42.246705971588455,  4.002097804547544
 1.059051609077324,  9.387185645503189, 65.957445212030308,  3.749651366884316
 8.513297502769984,  1.871540140521576, 11.427152874961269,  4.238106117633925
 7.615429632659581,  6.954410034785298, 36.244442794094773,  3.872822497998226
10.534984318066472,  6.883356594814155, 27.374199640817299,  4.113133516331644
 5.068427591387058, 11.513707381223053, 30.959000838327171,  4.097841162873465
 8.934844122046531,  6.495606551960528,  5.061223843358573,  3.989248831528529
11.417642268670797,  7.661137464322977,  8.228430800041682,  4.390141363023101
 5.691358683910285,  1.234292254464459, 37.924791543348057,  3.850191853020775
 8.244674886144345, 10.276558195117035, 49.023467746620241,  4.032989259514680
 3.674266523338202, 11.114843476113727, 73.014670121334206,  3.902733298402246
 4.038751887747240,  1.109045956147630, 69.796880352418100,  3.586238643508364
 9.794933662261784,  8.004627181555277, 46.062245965361008,  3.778693194826026
 8.444214739477014,  2.090451568873260, 31.272301505447285,  3.969109546621820
 4.630356707624170,  2.046180256006723, 24.223904365941948,  3.949985502827171
 3.990355552209758,  6.168240420187268, 24.605509930799887,  4.163952813085920
 8.136686762947038, 10.705283556885918, 43.228903401652019,  4.377344650662785
 6.800701156010586,  0.538468248611551, 34.316660708099448,  3.607895125638535
 9.286511156434443,  7.348924691277883, 15.214012320119934,  4.166555416287018
 8.934596682460919,  1.928020719190331, 18.180862943917973,  3.866740072920153
10.822445983801900,  9.571948469679739, 40.127506972350105,  4.119279188846351
 0.204476543678658,  0.535379422085770, 42.842586175104763,  4.176930280411175
 9.733333289924175,  9.011409063596359, 23.529909290998887,  4.203652966627267
 5.113242654189193,  7.292922238454826, 14.601384838189640,  4.017596719997393
 8.409181628497249,  7.516745012867493, 72.076750155595050,  4.049182180634169
11.779441998439212,  9.997610884782887, 73.011786384802136,  3.998160797228328
10.026299238650441,  7.587135734936295, 33.146962655708002,  4.071572405462118
10.194366025334727,  0.431428238999093, 46.349338400750099,  3.756062742344383
 2.147921007617570,  3.154014172831642,  8.208977552410012,  3.723389976770624
11.705720505297245,  0.053683729679963, 21.433402009451921,  4.005348447632699
 2.701970819815243, 11.844313038735249, 59.741929271540435,  4.271920465101197
 6.070387232035711,  9.740943733285176, 59.529819030344598,  3.670294331920025
 3.857899890456054,  3.053287025004154,  4.776297164984395,  3.918103968404471
 5.228031555198501,  7.624326695625562, 21.095501473101855,  3.816144225820262
 0.659385126152797,  8.468672839798034, 36.409935018046909,  4.375565610155026
 5.263491151200528,  1.440449531012487,  1.444767999555892,  3.909401402323264
 2.605281937218507,  6.881670172059738, 33.088802427527902,  3.950217234270236
 5.859294255507026,  0.931061624434145,  7.800499882631102,  4.484687419060905
 9.168898690663948,  1.499387689712571, 39.962153619731829,  4.207733322048246
 9.904496480972707,  2.783523452349697, 27.540861129603336,  4.101612770491665
10.466588241300405,  7.653228788810844, 54.211970740431106,  3.917513310931335
10.677218637806043,  3.815084440666474, 53.271357709044821,  3.985612669708650
 2.350368504963077,  9.584734220540222, 53.035668443739461,  3.879699214747930
 2.862208970803344,  4.568171757351994,  1.287181252719989,  3.934967621074270
 6.663501227653044,  8.117691254354515, 27.051715050699030,  4.033425075988998
 0.870347590271924,  8.783671934956974, 30.113672322365794,  3.902767706536474
 6.507091732353639,  4.428787439213561, 69.640661281560639,  4.194622860711399
10.768322076819564,  4.079161369241951,  1.783223203709590,  4.025180348003002
 0.667535223233973,  8.354527634436860, 43.450187780040849,  3.752027334483475
 0.325112680469189,  5.871033691796879, 72.659553261721300,  4.331979608811034
