BANDS
8 8
NANOPARTICLES
cell(1), 11.901
cell(2), 11.901
cell(3), 74.379
 9.562162956511969,  3.009968418752794, 38.840852728786331,  3.925827329586354
 2.779246746517574,  9.474731351110485, 21.851138230023530,  3.899781660014873
 1.727090489211035,  0.889109700505099, 17.792391292050336,  4.026296122503350
 7.389967371290641,  9.662608930077095, 48.502712753661704,  4.099829219494261
 4.720527764777136,  6.003701580827911, 69.631500853357110,  3.776275196380929
 6.332173139653117, 11.473542519401636, 44.995939491470146,  4.056077270808690
 8.038124702355775,  0.698970710257251, 41.604913265699338,  3.858100632674377
 6.558021095466450,  1.821887537463652, 48.290217428315167,  3.931944182261628
 3.141266924724424,  1.456414108806289, 21.481326914592326,  3.924009174242107
 0.492666385589900,  4.002939027764399, 20.029801117760961,  3.974726168253980
 0.015844409204969,  1.564811044149140, 41.747431810469152,  4.092593302202266
11.242731834340249,  5.333478877579787, 41.280773970694064,  3.593298404754294
10.573602694609905,  5.551268760466083, 16.826239612147550,  4.003024985367698
 2.097747469378301, 11.493942233945891, 39.082062082939075,  3.718577880567032
 4.410928686262275,  7.968923828511056, 38.562097085653122,  4.351420345763467
 7.203760963180356,  0.701154830911419, 21.068464864371656,  3.924029034959134
 4.315464926570385,  7.077111556889968, 48.735658147233828,  3.935050408863760
 9.251132783336493,  7.343296463086826, 51.279917184073987,  4.021085996393347
11.876719186436466,  0.739584866536132, 36.391279326607190,  3.412859499431744
 1.689294832254946,  5.481001916524963, 63.026560835514253,  4.131072888961367
 3.095419551476284,  8.000689853746554, 10.466203078664316,  3.717519587155198
 9.134433948233541, 11.404449251668229, 31.420371646393473,  4.165520680291674
 5.824873395825867,  6.919894063763504, 17.472827311064524,  4.190748533294955
 9.660619064825404, 11.287398321220987, 51.405745622883408,  3.908255134143515
11.818650993490902,  9.199085779730778, 49.009234876360154,  3.773617980098220
 7.831479100827931,  5.605208211650135, 58.868283910765875,  3.967690850465095
 8.350671989722116,  6.769461263151279, 23.817171116630114,  3.758434329318353
 3.374821020799394,  6.939660617518863, 54.813864338748090,  3.986165527139164
 3.123182959800376,  6.031674498975875, 35.057821077456680,  4.038609397861627
11.267583275303503,  4.591671128169417, 54.457375752517486,  3.960983670600674
10.116597565706895,  5.259342856176683, 35.698578803149694,  3.846007817676790
 3.871110300743155,  0.659812738706052,  8.905508703563106,  3.890993589846052
 1.928910549772356,  8.318353206258710, 60.344823940678147,  3.682757096813674
11.532300866865313,  8.863638959939118,  3.416982415689867,  4.372860549763052
 7.794488629006913, 10.878620452195028,  5.106123892032255,  3.928898558068326
11.306652109664661,  2.100523933672486, 69.360159282490429,  4.109301057751575
 6.119930956942143,  4.098551219549858, 33.351139781873037,  3.754316668521415
 2.176645098501193, 11.845466247076782, 44.957395767412358,  4.285834584812513
 1.122704174918501,  0.649068047497840,  1.966014716755872,  4.071469420826019
 0.145850442649665,  6.771378093517387, 32.394209746040481,  4.081204316927599
 4.490758740738414,  1.305437298973632, 14.736382278587099,  4.236290328224796
 0.283217702457932,  9.197499541613794, 41.967874474501215,  4.464387888361533
 5.256538505646598, 10.921431944977980, 18.067632583680243,  3.978945584926671
11.730463364283763,  1.154664216715931, 48.176678974009228,  4.026247223901551
 9.375098186996464,  3.323357997654314, 50.727345476539611,  4.094202063410478
11.565491168361680,  5.081297286149395, 47.937102440693955,  3.818587431294929
 5.730891594409912,  2.117240280009783, 72.938115098588881,  3.824865617665989
11.366641205182766, 11.265919009584675, 60.049549803352811,  4.010297706900642
11.396295497904337,  0.463160868452099,  5.650629746939452,  3.929694535985182
 5.995230974230241, 11.778623054803692, 38.390290859300087,  3.903797966752592
10.260895045378410,  7.468848510169897, 61.390992414621032,  3.935558282357275
 4.017027064002426, 10.630573964907075, 62.277809353093112,  3.647792417111507
 7.893933157080549, 11.645434650003747, 70.550611873462969,  4.175613553473506
 4.200032318678399,  2.205619333885636, 41.384728314755279,  4.399331833898169
 8.953628303840809,  2.127738349121901,  2.873787488946067,  4.129303024732201
 8.413223222340298,  3.338716244641595, 30.325338943095492,  3.939591236450164
 1.666670308454844,  7.743034858613073, 45.766536932057910,  4.125526552638034
 3.732187038019748,  2.269380148006537, 27.183416690817303,  4.058547764814693
 7.681963335620011,  8.932763948016545, 27.274627355444085,  3.902087719213210
 2.083533254130245,  1.828192149481467, 61.562249806143527,  3.777363191872914
 2.047449739789964, 11.382722345684970, 67.623330106411004,  4.065174624965509
 7.561979163712554,  4.746715455416832,  0.411035043792389,  3.575249429730305
 7.728229129233546,  2.432428834444443, 67.389400991340437,  4.086991003834086
 8.423937066593920,  0.304432756616981, 14.004063860116879,  3.975206565455383
 3.269677580321106,  8.432052817289463, 65.249506566792164,  3.893009909992494
 3.669086914605664,  9.537932359563468, 70.775961569236387,  3.926633040957576
10.612502855621246,  6.863191519170862, 74.289530615790383,  3.904561635580392
 9.016866632675461, 10.576523532338552, 23.948617600258871,  3.973938831029338
 3.154666572930174,  3.505814335430267, 30.961616790765113,  3.893705559737255
 3.911274602788480,  2.719574545805145, 55.130372893460333,  4.538814989760009
 5.711920857984008,  3.921682001180280, 37.652912420689916,  4.332889892079254
 4.766449068263957,  2.803233049489853,  2.484869569899642,  4.365050901069893
 5.652515798420277,  7.704254516721178, 45.260974100392815,  3.614101104573832
 5.453716307274098, 10.461899284081744, 33.526326808843095,  4.520437632454981
10.708963252247885,  2.989943676027220, 73.735232863825161,  3.905172686258450
 8.461378054191451,  8.158882140072439, 14.470262521173151,  4.170601844583445
 0.551615935086606,  2.793704333325317, 57.972662966282257,  4.262830682343881
 2.143537318185435,  4.567741807217830, 67.032353565020045,  4.078030115746086
 0.379304079340601,  7.907833841874416, 67.527060175001225,  3.538917176352460
 6.078935132288618,  3.026103855300192, 61.368109224253040,  4.023457369993888
 9.969444964000024,  9.269210397494351, 34.820269146729387,  4.026692181974005
 3.522543746213080,  5.563390191629220, 73.541815029237497,  4.448320094758940
11.185512203510950,  8.820481653635964, 29.054947685867891,  3.925439152644786
 1.323611376456197,  6.329285488372198, 51.353201094607599,  4.149627028110375
 5.856365676607151, 10.408816027360606, 11.595175302074297,  3.925200331346475
 2.570389987194805,  4.912087839680591, 15.751226555229085,  4.178119101725278
11.516263246613843,  8.385840648754911, 54.209044488497319,  3.659568649863542
 3.466526316741157, 11.108231718248064, 48.976939496919826,  4.277810138838530
 9.249013371981910,  9.359184940405347, 18.323553169033474,  3.874567291681144
 7.932669147387458,  7.108513533675377, 10.079449106756957,  3.807886193753971
 5.381632464512370,  5.919892018953627, 12.858013574439248,  4.099026720081048
 2.376983979868300,  3.468355207415146, 11.691046999876969,  3.987606206228805
 5.168853187593077, 10.766399487136130,  0.633197782226419,  3.955325351849752
 0.217474871714937,  5.799146414568280,  9.396421840539038,  3.838319187746221
 4.377993798162890,  1.677193270013315, 64.926920002581383,  4.305847730291044
 5.644109518218662,  0.795043147877196, 30.146156010190683,  3.581151591693522
11.349954719401433,  0.361069044539727, 54.837003971178603,  3.973318572907222
 1.255879190471253,  2.249656201091157, 51.794558706480139,  4.038967518596135
10.080261702190770,  5.446191184141790, 65.381845462915706,  4.320423880709356
 4.888830722604797,  5.045172438211536,  8.947470876239095,  3.821537996651684
 8.277846328821211,  4.280583867310018, 70.925169905516100,  3.959247614096640
 9.020434459622757,  3.684240138300680,  8.851028965563616,  3.735941782452606
 7.915048650361776,  7.296495671584521, 31.553120128861270,  4.406054861304900
 5.468291696287048,  4.378215314125812, 51.474820022309721,  4.069869317477155
 5.106131836490163, 11.471812691208610, 24.431760581013002,  4.105665142182371
 6.411869912304139,  2.375683673545803, 11.311861200524021,  3.897770351315550
 7.745177078928624,  5.507713467040728, 47.721694790554977,  3.871605161980102
 1.772990479030820,  9.872806965624168, 56.909932517899250,  3.859347350319627
 3.886850987399943,  5.844607731797679, 20.877971364102063,  3.924720486887308
 7.546175292009893,  8.033907554676146,  2.329244645455351,  4.036311061034589
 7.493051113213022, 10.264118541245606, 60.651181622205144,  4.059689438020558
 8.024873923862621,  2.387349603248922, 54.354109015647026,  3.859366832851032
 7.540189884721267,  6.363864874758960, 54.876434148410098,  4.176641034139882
 4.302963155810851,  2.210763780868855, 69.382441805933823,  3.840769124861286
 7.053883799813555,  7.966830682116174, 72.537469960195708,  4.326340828768936
 3.714418994796713, 11.372954004746756,  4.988056019553251,  4.228667456857631
 0.955884403946578,  4.727270667625286,  2.520370904146081,  4.164223845032622
11.466619989555277, 11.603144820491714, 20.966492287171835,  4.009021139632170
 3.584243650554981,  7.810067061987531,  2.698104473952203,  3.920448341083071
 1.157907573842695,  4.015669356766402, 44.597014948616248,  3.751487150319918
 0.923887758982836,  0.088726214200673, 24.918778935064985,  4.370900961369120
 3.850701554259996,  7.374349404074020, 31.302586603763483,  3.732082721938919
 9.270870864510378,  2.426685727293179, 45.166168955155989,  4.139006417832951
 4.443495536023191,  0.364050430034799, 58.740814383989196,  4.139369757964986
 1.374997282450161, 10.836945365332459, 31.945872457602846,  4.255350674745802
 5.635577064572447,  8.265598784286132, 52.063827896572100,  3.600646679407652
 1.743916058433610, 11.333993009052906, 12.131017603414600,  4.208772320092875
 1.756785897428539,  5.869695453979191, 28.096392921410118,  4.002887784846793
 2.256833002070388,  7.560238812972536,  6.464064533388897,  4.079119409854603
 8.263687547103721,  1.383379871227811, 35.340513635693860,  4.214634210148616
 1.837323070153112,  8.199250289962768, 18.192660786566510,  4.050783465962705
 5.590916585122562,  9.219638380253860,  7.873036037011217,  3.881612357400204
10.288887324434324,  3.410522789825225, 61.549616734474526,  4.184621469896551
 7.614213063703864,  4.592079268003548, 42.110530776799550,  3.992043626995477
 9.970175662030265,  6.361096932085116, 44.689759592343023,  3.826542240571436
 0.340241814844932,  7.293957597631820, 38.235728766919024,  3.914465599116818
11.853870968234993,  1.503553836532108, 28.871588636250841,  4.243844516833676
 3.411762417151623,  6.283177243690540, 42.314108832167300,  4.104591459973548
 7.908110553665796,  8.723522142069411, 42.322851624776199,  4.025386791762108
 8.132542478074694,  0.028560151930277,  8.800511018695596,  3.776340001951732
 1.590469143503446,  3.514556528137265, 38.328739403464461,  4.046949894073745
 9.953289245273769,  4.672420258473443, 26.796742315772633,  4.202243373006066
11.602325415821914,  9.883984716501788, 70.715666459814742,  4.037335795288457
 5.901599346782230,  3.599139711629453, 23.646236320410345,  4.254010694744805
 9.638438679553275, 10.937343225940475,  0.028896667742425,  4.368119411876631
10.426713237776246,  8.928647072158055,  7.558072157602380,  4.163596629992233
 3.706163257567904,  9.005226064387168, 14.760939468664178,  3.771711663009799
 5.926423845906544, 10.520660387086593, 67.203266019579289,  3.904922787431206
 7.861546186946298,  8.736637119336855, 64.308275949988669,  3.896891272243235
 6.007160283357969,  0.429176945862106, 51.813794911611147,  3.708575600891894
 4.278972260138186, 10.087629585496796, 41.995236498891906,  3.720813959062005
 1.676887357541406,  9.320564562633475, 74.078866383507048,  3.791125691450271
 0.112078676774206,  1.795975185425404, 64.915105301284527,  3.991632366521120
 9.814780485044801,  5.409095917805688,  5.341935007416128,  4.241715118676542
 3.048707165706448,  3.432030727525794, 48.518311898392980,  3.790267452456154
11.681248088070808, 10.282993740199021, 15.490230131494364,  3.797894173597170
10.200559637311709, 10.317019950018764, 45.592365391775878,  4.088747580674257
 0.102533866474410,  9.996053594919012, 63.727531028881714,  3.778820693038074
 8.176315611666155,  7.497780263260895, 68.515777792940810,  4.075086428059609
 5.204138693187702,  8.396063285664853, 57.985970256280559,  3.886373980055709
 5.909234238779764,  5.506638167153667, 65.489198289251092,  4.001821649143386
 9.060944719281588,  9.648769722082939, 56.924350908647213,  4.083763044127115
 1.622162989347996,  4.370426505682134, 24.084980167497875,  4.460095077009484
 0.106828591143356,  1.536046105002846,  9.235601735656049,  3.642677556363854
 9.522307132940881,  1.496602961733113, 17.788991028401046,  4.239461640614137
 3.338469617155611,  9.975821619985913, 28.100719366333177,  4.543366798986700
 2.304991071587017,  3.390127612772800,  6.291830558812385,  4.264033983431849
 9.927354990248293, 10.887270252588118, 67.004921814645485,  4.124452745804401
 2.025151568514387,  9.726591450362678, 35.763458049878210,  3.796577524256254
 5.087031108005689,  3.886418882601086, 45.180693239509971,  4.083421179286648
 2.661542052384175, 10.529977278455627, 53.065616372765419,  4.126225885260148
 8.421826043959184,  6.765648439747493, 38.903945266786529,  3.909888265993151
 5.040077193243707,  3.008936838445903, 18.415227353821162,  3.913889103934320
 0.505342075069652,  7.295397679793002, 13.167185612591602,  3.881667952061608
 3.907374915170487,  4.879188460168241, 58.719550770691278,  3.735604773584603
 3.193635397540716,  1.962540014813979, 34.896501593915133,  4.092149873186590
 6.547753136185559,  8.743679995679880, 21.079668253906142,  3.881990702772303
 7.922174627346044,  1.044156959535716, 27.045547683630343,  4.118424011452501
11.735124844346975,  7.991524388114851, 25.245818478457178,  3.941540626315597
11.835869330055715,  2.146719322287134, 14.518767760542698,  3.845276666687596
 5.836534043717361, 11.006016279871732, 55.266997086355289,  3.654382348504035
 5.779218317342093,  5.588577095158369, 28.318865901133467,  4.063938116317255
 0.299606879015631,  5.859022756720647, 70.750286552629191,  4.099173706048592
 9.835343628245155,  2.505256446488125, 23.359480667962991,  3.923804917185636
 4.588858765966185,  7.403177171970744, 24.831119552087021,  4.135776288869624
 8.235018541305013,  0.720748439655818, 63.789671097324700,  3.927470261131954
11.230558714136588,  7.606042350527274, 21.305180250015287,  4.007160677359638
 8.402025117074468,  1.603815572603999, 58.279341884059356,  4.174679200860833
11.600741556117363,  6.744367098271386, 57.771109043519836,  3.814138572180493
 8.288575041023593,  4.800640940852481, 20.261152500365998,  4.371085138428109
 5.307234508231179,  6.997840130051469, 61.765309728484667,  4.105510571570222
10.028486376877565,  9.952168557569049, 11.340349396060212,  3.692705512207636
 9.605387208392038,  4.620996862289949, 12.524518396938054,  3.913090994528244
 9.782322987554032, 10.536292101062903, 38.692936320991400,  4.084931115336259
11.496363036383208,  2.667837209561633, 32.928325522630161,  4.226821863885815
 5.855650307221569,  6.236063629704647,  5.428181076884345,  3.847631322699916
 1.978849734711648,  0.961949036603787, 72.355235513669371,  4.107425747041051
 6.329909661975879,  2.448390539784726,  6.349082646653814,  3.996290005439762
 6.825761287146637,  7.098008682811452, 35.455408853851949,  3.705718366027680
 7.364227094067607,  3.893287084205380, 15.524376502524268,  3.634279961875008
