BANDS
8 8
NANOPARTICLES
cell(1), 11.925
cell(2), 11.925
cell(3), 74.534
 5.605501248052626,  3.767487244127157, 45.678912746914413,  4.449364406388335
 1.379126527820894,  7.494754961890242, 53.624702183165603,  3.752081311936271
 5.808771704724890,  7.060744154887066, 55.921627722304940,  4.197512772075028
 0.431286034495669,  4.406860739417977, 51.304703241609261,  4.195192557131997
 1.538511197528848,  0.742568346882751, 33.972452978891894,  3.819944788306521
 6.398013325828099,  6.739951541159745, 69.371067837859812,  3.976690094201820
 1.738419675808749,  7.788713102554773, 15.163355677924979,  3.792920243860379
 5.209017471556224,  6.201495097766504, 36.315854364373372,  4.071471804079419
 3.867636875197860,  0.741894543569404, 43.384923670996493,  3.900640999119211
11.832157396945238,  4.131440167265448, 38.943531863072529,  3.949215442542672
 0.084774671667632,  0.001823075642633, 72.698030919151336,  4.342674367278553
 4.702527410197709, 11.311453113286326, 19.188496447969868,  3.936020835900911
 0.220793506133756, 10.850596619929137, 43.507511901575207,  4.251534756013964
 2.354744617487844,  1.045032262786768, 69.224560522206886,  3.719120732155818
 4.893341699342908, 11.073191738178181, 65.903003187036461,  3.905510770611423
 8.254548471442504,  5.129125504968631, 33.666744008654753,  4.278843945696289
 7.245903858073921,  4.800923701187192,  5.471106138663487,  3.855452134524574
 1.211164479572449, 10.504362798027218, 26.219353999123129,  4.085633853563991
 4.422902987652831,  7.420166210875034, 12.370788950795067,  3.970639422057524
 1.443352850948585, 11.654877532302111, 21.272123768409561,  3.812251569706303
 3.008171244901976,  8.974832509763168, 68.725006809950230,  4.074313516595637
 7.144838819829543, 11.387203972564786, 22.223004833157272,  3.848386806148545
 7.868938217857689,  9.417230665745759, 59.142804450054648,  3.921975180277320
10.214069529563400,  4.751593192605528, 28.543952912429688,  4.014193124919842
 7.737066368061618,  4.730093232541885, 10.458854935587611,  4.060975045873398
 7.023538829009800,  6.709496458563899, 30.020585900277673,  4.027560424386015
 8.212487367428540,  5.369557030200980, 72.859420569949819,  4.258760973637616
 4.028504489679872,  1.207465892152723, 23.727683992333439,  3.902837004471755
 6.539684149348291,  1.987222032423920, 52.352659788319059,  4.156471074474339
10.087317121232525,  6.834232513163674,  7.651269110891751,  4.380297888673097
10.010215233674167,  6.983107325401952, 36.899317359537932,  3.956783695358545
 9.013951721241520,  1.451961684992370, 44.585907596458171,  4.072856116247741
10.265877991882716,  4.753134508329046, 24.678003969693510,  3.715963068718302
 0.843358762235209,  3.290104930487994, 43.113563796629926,  4.012828824324433
10.458689266551705,  2.067288499645317, 19.927219801469136,  4.119208873066797
 5.094895154601255, 10.766106095156079, 10.269781883261086,  4.039589716356424
 2.371739524838473,  8.451381457972204, 34.364731783929372,  3.751602206269048
 8.344633243597341,  1.108755395358439, 34.440592301853364,  3.904779257669084
10.617191667359734,  5.741924386188129, 69.472349808422962,  4.080310259081614
 7.353139446270817,  6.487837453727349, 26.179001910159652,  3.696300244252550
 8.591075916724455,  9.200372143574819, 65.892474325890404,  4.168969784783213
 5.657842629852842,  1.766826619729649,  7.555973286362619,  4.019145876838192
 1.249814568555365,  0.378260949907863, 17.267370086875882,  4.200521578220582
 7.105295886064639, 10.946633242664745, 42.075789200413119,  3.885709934858800
 2.281687873118224,  5.287346631425119, 57.137328991654094,  3.794067529786323
 5.022820029147708, 11.681993057718783, 58.189171736659461,  3.597346129823610
 1.844056759734955,  6.896799637384533, 48.761104651544812,  3.458331999704262
 4.245512759795238,  6.856734028842623, 72.805417841367685,  4.130388301279993
10.505195398390674,  6.733618188939638, 13.296209947049746,  3.806239211858013
 3.791823690468419, 11.029822663529016, 14.269305380658695,  4.055759926767207
 2.600723363817632, 10.067006441393978,  7.216035439141734,  3.962877816329917
 2.420523198689238,  4.115683045538071, 13.734689639335880,  4.190658752633325
 0.889872063036073,  6.672849064430923, 26.507322650533201,  3.625427992901389
 4.228916159617086,  4.931228331090834, 28.106245600970716,  3.620396158494291
 7.288695990840153,  9.153489588542536, 14.433383099313097,  3.887508913320900
 3.422691426492662,  3.069141643070684, 37.662413250434753,  3.624130673801779
 9.043396146011366,  2.030176324451535, 70.434010663485566,  4.151904199694830
 5.031088618725223,  3.060323998178255, 71.744953460194679,  3.905126353919672
10.608431525390412,  3.141276907983047, 55.060527551226166,  4.443186985579025
 9.084709742503312,  1.005236878746278, 11.205830024924794,  3.997896479644972
 7.881997647625106,  4.492482831779401, 42.165186326599709,  4.022734297218236
10.130083632484885,  5.347908132125067, 45.541169503400390,  4.253758039167255
 9.776902564202416,  1.406025609390378, 40.740590135976227,  3.755469770400917
 1.756804881895969,  8.017918343712015, 22.930506454733056,  4.191288564035287
11.446740546306044, 11.389270104380667, 58.852248236422312,  4.269155934465091
 5.259874833137564, 10.718341655930137, 61.920336518854775,  4.120736638372595
 5.759236840474177,  7.396366917964582,  8.097974967262921,  4.071132511371164
 9.965612763221358,  0.703130910070048, 28.024087035468018,  4.160254455432357
11.786578327000736,  4.273432482338408, 10.522131606824260,  4.029827419747728
 3.049162854931561,  1.954505740434765,  0.626617198476768,  4.289853618413156
 8.481852557651289,  3.350991669827447, 48.892919457182451,  4.216374389911660
 8.297486171976498,  5.138282751167614, 66.218284135516058,  4.002153800293139
 1.660660568246883,  0.807155607768522, 40.124562731746494,  3.928724414989736
 3.710538959061810, 11.136881063920661, 36.986795425145409,  4.216985046609949
 5.697473541980233,  3.901056719505296, 62.862071906009874,  4.046083893084663
 2.986479381919550,  2.411549504734359, 65.263586124507654,  3.755122428854149
 8.207172751741222,  9.390837922366686,  4.916225594938690,  3.992205937882545
10.951141147155447,  9.745889040314909, 39.668226867139744,  4.086728321733161
 8.557698953309677,  9.506537088838687, 72.515449272411161,  4.071936391305344
 9.926056131362472, 10.126478360898801, 20.008979433007916,  3.673645638735080
 0.601048608871275,  6.780424028081339, 41.512229542195286,  3.558214624427833
 9.701766451353587,  4.238539206657514, 62.614487489413953,  3.936300950649581
 2.177049772332838,  6.143424767740866,  6.824612915804140,  3.932535064777755
 9.637631379693827,  9.191465666921433, 46.239199518108151,  3.607774382080870
10.781018639275386, 10.895588531004499,  8.141858116440405,  3.916602082474452
 5.561073825848420,  2.052332102113399, 12.419841519983095,  3.744442920362348
 6.757283222017703,  2.638378779609496, 26.289883943943174,  4.093266883621173
 6.705121524127132,  9.528959162163936, 34.773055060695192,  3.849040758135901
10.849732632513888,  3.161612827878890,  0.885809152704503,  4.314308744184850
 2.575099307871267,  4.883333749006757, 68.339995275911761,  4.165761795003778
 5.953296426462268,  4.721113230091777,  1.743580154634257,  4.035915494825385
10.941965536349231,  9.796996226444081, 69.224199276694691,  4.070512286850826
 4.250613092975700, 11.001330435833964, 72.146875189686796,  4.249521253376445
 8.469748944899269, 11.815074022293263, 56.255236081022446,  3.677129651494462
 5.070152557534684,  7.512467655931481, 17.523364869998975,  4.388738578048839
 8.278800994872277, 10.455777899497253, 31.180867975779012,  4.208069556612909
 3.142335042677881,  8.412317853649514, 29.012291735943890,  3.877304204578348
11.248340253510985,  7.315559057736440, 59.425519247598572,  3.652445172094987
 4.279393300979615, 10.783053197071428, 31.955688577781814,  3.960098806295812
 3.799406990426149,  4.374893579118414,  9.929717025891268,  3.915934078936944
11.884066375264579,  6.943689844799722, 65.938280279732240,  3.793686942849170
 2.641042120157220,  2.282415185031298, 30.405259375709075,  4.058582184782694
10.135497089596965,  6.996713313727345, 49.213992315671923,  3.797482164665668
 4.312897812088425,  7.184228898015773, 59.979241687515682,  4.147376825834665
10.498866788321402,  2.681770102320395, 14.691715479960376,  4.238059382370392
 4.703870353377043,  4.721855800302158, 49.888125280881376,  4.059696165960869
 4.620857034581738,  7.039248805733643, 65.358516884865622,  4.252364668384171
 8.043980563496968,  3.530864942022954, 37.670546388255566,  4.131325045490866
 8.363813886245826,  9.809644297883429, 53.198358178809393,  3.637767691667774
 7.030780281075480,  5.104590097576444, 14.525979738812334,  4.227999090755736
 4.772206040508380,  7.392788682965527,  4.373489023024874,  3.628322646398928
 4.809198192490446, 11.765647001044744, 28.256932488513975,  3.758675007198272
 0.635208580123132,  0.601128903139580,  3.743921608554502,  4.038755801758150
 2.196599298883804,  6.623818300120071, 44.998367826474727,  4.107151524495863
 0.891687467643849, 10.786243265437701, 65.713848400970875,  4.126696749373248
 7.907333469883945,  5.432095970210229, 59.078342805947088,  4.049430112751002
 6.219250601126210,  8.873570140759650,  1.188548874898888,  3.957742522210317
 1.422782852061784,  9.335036482430198, 61.932149643890625,  4.033453701095699
10.394321142648920,  6.197161205523242, 20.909142296118922,  4.343357858235071
 3.686158140395595,  4.485253539515957, 53.689188933140393,  3.823008248793133
 8.088681664488217,  0.176811907074793, 17.082361494709286,  4.194511140221906
 9.673528730520385, 10.499931317809665, 62.328732123437106,  3.708308808610451
10.286277141584897,  1.047555849188871, 51.573673083362827,  3.715012779334917
 1.275693334527650,  0.511887692408163, 11.335346082728714,  4.170145198035207
 9.495261924674724,  8.832811121371350, 24.048798887369390,  3.867597289260794
 2.260562284564028,  9.759019825495141,  1.099944833031231,  4.149387964054169
 7.954651066289596,  1.456940102502092, 60.192191282629572,  4.206793404409648
 7.453771651578522,  7.426218142764339, 62.470345192547015,  3.867559893887195
 5.903965285862461,  7.456926260469608, 43.820924740298217,  3.830120902566804
 2.412716275766415, 10.203455955659116, 47.010348736502415,  4.110158891612688
 0.887645426967509,  4.711406509685540, 17.651921724929910,  4.294457617075069
 0.929813258258017,  8.360263469816864, 10.521293280469864,  4.150487770789358
11.768782273031045, 10.941667524263771, 54.491642011184787,  3.988239579504211
 2.451481646155757,  9.176935147992941, 56.948405526132440,  3.998147079125866
 4.722015167175041,  2.488518456139347, 16.706515846178103,  4.000965582839835
 0.962970484822662,  4.684736227156097, 34.955360962897053,  4.372775436282503
 3.953784433929882,  5.181813249608534, 41.241341122933513,  3.825398551561733
 7.213127305374390,  0.944633982575015,  0.118720111743112,  4.338008365991207
 8.120301996086798,  1.223729190136898, 64.752593937401159,  4.103327700430400
 4.780600059276643, 11.624150828747979,  4.000551358793226,  4.389230255098501
 3.533107016485220,  9.288737160267184, 41.164125014860517,  4.178608227098847
 5.846707679290597,  2.437488462576658, 67.909491021538145,  4.033427318280889
 6.952672392660265, 10.810310227099354, 69.156748913465165,  3.811379478044505
11.340551509564117,  2.523292430883910, 66.999668702815995,  4.165046741610166
 2.567166889752235,  1.018750002293103, 52.230297797329399,  4.022648017201510
 9.931290474508378,  8.628386476965801, 27.943314631929177,  3.840973737586133
11.459094918028347,  7.004344960995661, 31.696267520210583,  4.123099750821490
 8.624667374538134,  1.398634139700329,  4.023807312267563,  4.010365643566026
 1.299984469309801,  8.593270252612493, 18.914563195904897,  3.910871341738789
 6.375677118893435,  7.467823378750898, 21.618722549447984,  4.196038119198557
 7.844198703932620,  5.983678346318481, 52.375778723475257,  4.248846848755904
10.140501821743683, 10.377318428901397,  1.503006434625516,  3.833611685606492
 7.106617569259541,  7.678665889193478, 39.678161691367634,  4.194886815292835
 7.921234319810704, 10.547171969663115, 49.472941904150126,  4.008261812949300
11.410314940077539,  4.219587890209947,  4.779523398548771,  3.824639129179147
 2.019420464850887,  5.754494133945561,  2.119221215794691,  4.128421131946744
 5.053980962481606,  9.460372169889203, 25.045640213546719,  4.153475283637714
11.413679593417241,  3.546105206674397, 59.146490663230011,  3.914135701720593
 3.288433589251532,  2.692966467992255, 59.869448656287474,  4.004994524596316
 9.969144431967491,  7.337358581712715, 55.740586065334462,  4.146158030771009
 5.034329142686728, 10.904905919763459, 54.539384879739316,  3.864926255350368
 9.432487186423467,  8.087869372295282, 42.798842998493974,  3.621817166905496
 2.390024975470098,  1.544806184426181, 56.172826518639468,  3.929149810937014
10.539751224195758,  0.821687207056603, 23.889609899110855,  4.187255088799930
 1.379736173429088,  2.750258896226100, 26.461141961017393,  4.273563729578037
 6.235192627694127, 10.797254660677034, 45.885591320353342,  3.934524874487361
 7.635548283230269,  4.441851991118231, 18.452489404837234,  3.824671222028284
 9.490976963131029,  2.584545567847507,  7.654195447744756,  3.814048713964704
11.045104982836806,  0.384325653678919, 47.833599314435169,  3.877766262707401
 4.147833562140897,  4.412182027503118, 20.122241968817075,  3.906709467884287
10.817117927907917,  2.497652633145222, 31.749586182479586,  3.913798894159269
 4.519539433338204,  8.745043944627707, 51.088945665892723,  4.338857338144336
 6.855379199563256,  2.524826636589898, 30.514543804511337,  4.360447049720332
 5.648665430872093,  1.989309378120873, 40.310529975327718,  3.606622907631051
 0.265917440655776,  7.762176150473109, 72.687595155676149,  3.994788867941050
11.008142658703465, 10.521008572315198, 14.233933654874104,  4.047451279394318
 1.533995029996722,  2.085532228610033,  7.475932427237268,  4.179296065994611
 6.661508003792050,  7.309027224476709, 47.599528396183075,  3.880398646036152
 0.494725404870772,  9.860303426993703, 50.639634658733748,  4.060117024218977
 9.336309995491453,  6.691547935315398,  2.291018214893069,  3.861457464216979
 0.511076995266049, 10.809301474328324, 30.697077045278462,  3.976499862500011
 1.191544091646478,  3.568679529580342, 22.486361087381216,  3.847967426493784
 7.392327227363853,  3.473841562268277, 22.309145450641999,  4.139304919987283
 4.740198365675662,  0.873109980038475, 48.940333036293801,  3.858098548765227
 0.174040247829926,  8.580373741612501,  4.407028806395718,  4.014906944101567
 9.863466854797629,  7.671430307331825, 17.038067337283866,  4.004930270157731
 6.122985224900567,  2.967181992845598, 56.394149631195639,  4.064114345326563
 3.838346308536673,  3.517569940589820,  4.688961523972836,  3.592652604876145
 8.612731303404727,  9.048843983621360, 10.795752912448387,  3.857172623757493
 7.641363755003395, 11.441427522127372, 38.112278147743183,  3.974511637605234
 1.825202376847318,  7.436939954282973, 38.011721775273450,  3.891045794980131
10.747703561612177,  9.929406320526770, 34.376962206555298,  3.936727072161430
 1.762638518231135,  5.274370358497395, 62.733408472018240,  4.268217530936303
 4.820749057452403,  2.842884793655752, 34.136712091052694,  3.971940863144137
 1.204473670560810,  3.948515974088296, 72.052235043029029,  3.959126447088337
 3.639718453831534,  5.839159188918216, 31.880478029589952,  3.885162478412873
 1.733531418936247,  3.363977672475291, 47.437179297014403,  4.086806677077401
 0.502034015549905,  1.315595553992317, 62.452957159308561,  4.059003943551136
11.185473699635228,  0.789223035937298, 37.054216777161095,  3.836133512349534
 4.278531012503511,  5.128716480438005, 24.318223700232853,  3.964156972210559
