BANDS
8 8
NANOPARTICLES
cell(1), 11.921
cell(2), 11.921
cell(3), 74.505
11.887889472172663,  3.277796517831510, 27.312821163039697,  4.036446794338827
 8.389859918699299,  0.481344423496792, 46.170117600863364,  4.030565031621266
 0.369133349276303,  3.627119636754542,  9.028345284765594,  3.941077706021716
10.123117575056662,  9.208709140287683, 32.475126794813775,  4.207672913734678
 9.281622798345614,  1.821359620290265, 65.205305021621683,  3.849028202564639
10.744577356379541,  0.695071737314990, 14.525546339039860,  4.141118699480572
 1.448097824026773,  8.837913225315690, 51.173695654707302,  4.187794515900515
 6.546419892808248,  7.189409570292043, 11.423332635104636,  4.089911466631996
11.252683334338366,  2.318156642339602, 43.710426058753100,  4.363789408609569
10.230375161164034,  5.773846619468668, 37.963366611042062,  3.665204584665620
 1.002489809486518,  3.584619352608529, 31.259599225582470,  4.137719963139554
 1.583140060966839,  4.068677047486522,  2.147766836356354,  3.832492676480856
 4.084230627795122, 10.913498394407208, 17.300000738484041,  4.159162246616575
 2.264432831526566,  5.069852385062077, 58.111185808807583,  4.124563610346880
 2.399889211363952, 10.526979193898795,  5.248362078150954,  4.073156960854400
 5.601675437245420,  4.770539352714573,  1.929547709203494,  4.335690175848956
 5.547718942198582,  2.674298565977370,  5.637967495209376,  4.173675570791695
11.458609238226778, 10.830251218938558, 21.485987957557573,  4.155452771452192
 8.348063654349170,  4.162543238822737, 13.686993254877484,  4.284185603684429
 7.446503922165236,  1.036438353529991, 21.372923122214260,  4.030077830252826
10.305030354172393, 10.778988694432316, 37.183979911907173,  3.873917730772948
 9.880612041894409,  6.351738237149164, 29.261589844246291,  4.274666166930930
 3.390986882463309,  0.609895780332920, 60.577141032693952,  3.993113508593594
 8.261930518790473,  9.943782300084351, 27.917217265895324,  4.014532512269339
 0.961983275619447,  6.158771019973085, 21.842897199750400,  4.281885538775610
11.904987751075913,  3.865928247675060, 66.949739383269375,  3.656533221650869
 3.242681132655752,  4.718277374481032, 62.596577216993715,  4.002549504870895
 4.007103442169819,  3.017524315138240, 20.135860895458450,  3.960493136181246
 3.994823595296265,  3.547868328402196, 66.659130616698008,  4.408364717989979
 8.246938561079270,  3.400012882531278, 48.737661145484360,  3.739717587603105
 6.691720803137380,  6.684288322506125, 55.709719654643663,  4.564162050868154
 4.300023204646553,  5.043126147266236, 70.455983355006836,  3.673780745560655
10.513434673809108,  0.555813743268191, 30.029339402340675,  3.959343234861203
 5.869738418571401,  7.666094306067369, 67.148518262128462,  4.023060438106221
 6.479160356798468, 11.784319468719399, 37.730767805196351,  4.112371488384574
 5.550022380614852,  0.715374098117571, 69.983805676438394,  3.634699925808373
 1.246552347115244,  1.328633426253848, 64.060993253542222,  4.309970114131946
 6.017340983736322,  1.677412710055252, 11.400506523769174,  3.900778969917095
 0.547674908913876,  3.170862737817785, 51.656434205201847,  3.979824436228963
10.657912397180610,  5.440782932869539, 34.128570499004361,  4.060411686080643
 7.212402275780835,  6.871472514822833,  5.062249694517988,  3.828848614756771
10.910546008347733,  5.073347825102248, 70.383824340522736,  3.886699722518530
10.395973332351403,  2.497576220304527, 36.506625482773480,  3.512730108514400
 7.935599571246527,  2.534978278461226, 53.769066563286067,  4.387555911566295
 4.462986868234362,  9.556645100921735, 40.365943563862032,  3.795278885676971
 2.635600275631730,  0.474542050347849, 49.730818771201079,  3.843582269886248
 8.629268950255767, 10.431984438400933, 18.436735328203248,  4.050649232112277
 6.827196144623364,  0.685016597933483, 15.005722699142584,  3.745789966613909
 9.705010964851905,  0.790893650280584, 58.105347078124026,  3.952107282238552
 4.581081919261824,  1.687135279489913, 46.377948092634021,  3.968795555171855
 7.967635267533606,  9.205496137432633, 21.994200248456007,  3.582991640083883
 3.975981841001527,  0.877336428632842,  2.222242783258473,  4.120674953360924
 2.740938305466707,  0.311761710927665, 42.524045674808214,  3.894218829832265
 3.995927680525629,  7.215236348790650, 19.138424102154662,  4.082238284463484
 8.705657867616278,  8.692728987897853,  8.312892965387507,  4.057970497197185
 1.951358501472704,  7.034959310008062, 68.065313868974116,  4.121571970812165
10.785238618029544,  6.129503469272312, 49.716745724237995,  3.837122813710303
 4.465572673786444,  6.358019463312378, 33.973913159317888,  3.975036093224123
 4.580387926990356,  2.526774710613592, 32.878460108063344,  3.994677995371346
 3.369740063907939, 11.007782610578280, 67.077707211065913,  4.322410553911530
10.187931475632125,  9.220833959766352, 47.558408870421168,  3.783565896933947
 9.777629105970883,  5.655734339203753, 45.887241143981250,  4.133638317551277
 7.543791416711501,  4.408572620975851, 68.599928457949346,  3.836402730447587
 4.932821441111433,  9.669026328674754, 44.922810555272065,  4.383317323930529
 6.106627911238313,  6.854362444687120, 42.321995822519767,  3.624969762669478
 9.058275521319866,  7.182026393464382, 61.412192360858711,  3.740123523856076
 8.892612081467805,  2.325206609455741, 17.672174660350301,  3.744551435230113
 9.375031125342012,  1.112796593109430, 69.803373889181003,  4.059468874373911
 7.518865240129558,  5.337105900327786, 20.793185234073452,  4.558093416875165
 4.684473638824358,  6.187169531765034, 38.112231656491410,  4.319552348990745
 6.073426278280302, 11.103312729046868, 24.711008950476447,  4.051023607138340
 9.707643507588587,  7.442535661283588, 72.929825459288082,  3.466858832027365
11.774591881413762, 11.632882242666463, 53.613849446582321,  3.881937335829829
 5.655509453801602,  6.390159067490422, 59.835247486576066,  3.925872436698411
 8.870003187882345,  9.797553741278049, 64.167305753040267,  3.862623798852863
 7.510555413541765, 10.598312124188636, 60.603339597230992,  3.925955961291681
10.461358263637971,  9.182212062813559,  4.610899844556450,  4.193916080996473
 2.544165481907424, 11.645691694046970, 30.668256206102345,  4.204957136605647
 4.312378478944652,  4.557328017712034,  9.147918517772380,  4.163793525164552
 1.809540053015786,  7.609389745805418, 31.223018671831003,  4.067604654574957
 6.771032524389219, 11.847346312272975, 30.915110125643402,  3.668723124581620
 8.003281800336300,  1.337589505056219,  1.682879917907968,  4.055579375786217
10.836159751581352,  8.530696735877713, 14.300012787871134,  4.002088681162784
 9.902696513861786,  5.814854753986895, 41.803474312134909,  4.042481174426436
 4.638062896635966,  8.714898415524811,  8.138425884283652,  4.079314372036794
 9.751823576022788, 11.146510511673441, 73.294696262913590,  3.909872823913383
10.379790804186923,  6.409843422618713, 11.069197822739463,  3.723339698596293
11.211590241445043, 10.935338640982138, 67.005136005912860,  3.837299879116169
 0.601926907027963,  0.833051850944846, 18.120289788966868,  3.883741233019443
 3.711164166109154,  8.631847136634162,  1.808917326259846,  4.206669764260034
 7.278375422106792, 11.321813222582405, 67.127990622022978,  3.516088241735887
 0.388469372014865,  8.786706336937176, 18.037406778299967,  4.037972978668225
 6.915160331153628,  6.496738414811557, 26.361015879976467,  4.014288564493532
11.215128596755434,  5.368697741869511,  5.434261643261900,  3.748218054424012
 2.224324825483185,  7.225798745502403, 11.446311117882532,  4.016851275020929
 3.461769750191751,  5.732878912357918, 52.904969351443789,  3.974677561045362
 5.203117399234984, 10.361709490340104, 57.367478928387605,  4.031980202981286
 7.700921143512642,  9.348531860663277, 70.355889787333069,  4.092151762121166
11.361167586584836, 11.783170267281427,  7.435974717263165,  3.691460828211238
 5.950339814183028,  7.306049534343149, 73.258059689908322,  3.820523977704504
 3.119059719680310,  2.411878557300148, 15.990624311220410,  3.411636467259555
 8.398286914331511,  4.549957802685417,  8.155313874083321,  4.244484409761427
 4.235130537218869,  4.926071860846578, 29.073781163060513,  4.091917382702673
 0.514263978610961,  4.749405873696673, 14.147103806837714,  4.023947142085333
 1.929902233137355, 10.082731231999263, 24.608773187741591,  3.844203180629013
 5.664205660548025,  0.727726919492220, 63.932940245883835,  4.116801442817836
 8.380726923119973, 10.648499335863137, 55.148872603348615,  3.728221477318037
 6.904834823057462,  8.496039912207225, 15.289060894852353,  4.097906111137390
10.742456299540841,  6.826570296568256, 53.866593384096966,  4.338496419040682
 4.442057676267143,  3.860958785807945, 49.620387311397302,  3.833917285797717
11.806427449895786,  8.821915199133469,  0.945947637665976,  3.643559369562877
 6.408826355674923, 10.676349589431918,  5.016293586236229,  3.935576979701962
 7.344532434155529,  3.503005979424841, 72.628048777757826,  4.377735219940301
 9.898277205227220,  7.183011407478618, 67.013404801120302,  4.094006723419698
 4.249564748039403,  9.189383300653146, 27.798503101567583,  4.077506522907186
 5.916374628310775,  4.580589367778757, 16.899445968683299,  3.806955162967129
 8.376307530014770,  0.459589025735678, 34.245758551474545,  3.792768237358327
11.859652114524554,  0.517204978571506,  2.543710476159657,  4.010396695591073
11.323497476943626, 11.008186501695153, 61.201522291317282,  3.819273784333854
 5.041814626453051,  9.844237464343099, 53.127293535275932,  4.236845716366485
 7.424699694190428,  2.301094621033272, 27.504239938487018,  4.742001241098619
11.206724414249139, 11.002446600442461, 41.027451540782309,  4.026143635724585
 6.341564931772396,  0.702025742217060, 50.499573372936503,  3.738245139883442
 8.273331356287127, 10.605128519988101, 12.199861538186200,  3.719316947873541
 1.519266019020571, 11.864881279484729, 57.145632211827454,  3.936622255929441
 2.079056485248066,  3.675602145903430, 35.890785814840633,  4.165036163892405
10.625764668298629,  8.611784676421179, 57.898658475310633,  4.456809472831127
 7.187554355905519,  3.387537246455191, 43.568467541972929,  4.047074607543589
11.358196233670647,  2.829656949559468, 73.594109496918477,  3.950238246298195
 1.096380165639798,  8.132066785257194, 43.489136011309945,  4.358373286916251
 8.361668224549769,  2.449119576727905, 61.450905200117411,  3.979108150936170
 7.739530759695987,  9.239289019840784,  1.594555971524430,  3.926421664827926
 3.422354060183395,  3.057376817035845, 73.528195293837328,  3.693834031840214
 1.137755816585047,  4.674968874696243, 18.049330231940782,  3.869622211422851
 3.071069862037526,  0.568458060428657,  8.834360705875087,  4.209695255979144
10.838042569661953,  2.859836470439993, 20.862062193726299,  3.719710027842629
 0.447710827417773,  0.411439997531453, 34.076868261103989,  3.834624367844348
 3.204210280813509,  6.142418968249418,  5.205682537967558,  4.232592395907655
 0.063024468390174, 10.594693877115327, 11.053710987434432,  4.023505579508149
 9.530665771045051,  4.665309985866559, 58.457536751117232,  3.805142336097787
 3.001047150170814,  7.597218555730436, 15.301974917502934,  3.881135213288202
10.405731862343400,  7.944979595910954, 24.773623032719371,  4.180950909489440
11.663682880439442,  9.321091821783963, 70.461348670642877,  3.831461451975260
 0.277847574294375,  9.509923880806193, 28.068425880984158,  3.907686082958184
 9.575340296144407,  4.059873299813733, 24.223274799226690,  3.837902580686337
 3.844261995061502, 11.144404814121188, 21.361432402529918,  3.987961965682292
 8.263317343097395,  3.397399148749205, 31.637662476744662,  3.967966802149891
 1.653188830802076,  1.836053368132215, 70.052395351197148,  4.474688877816853
 3.276943867153066,  1.070693452606672, 26.876202998480476,  3.967103388974080
 0.911252578475846,  8.403698420308523, 64.094369024131055,  4.528873647259182
 9.744446692964093,  1.745827501092963, 10.979141931080187,  3.491084183045477
 1.619836353666853,  1.833900520267155, 23.370910060177827,  3.926578298208838
 1.139326798452556,  7.833968287669090, 39.379151088874721,  3.880658715948117
 1.596352771373064,  2.414685593222160,  5.562677235111942,  3.734169589505771
 0.696827082753531,  8.003955294644939,  7.855110950383240,  3.938046977880523
 4.340021442520010,  4.556069960198267, 13.359948239861804,  3.796808333496744
 1.075703722291104,  3.503279466920755, 47.448079409351855,  4.209888147003946
 5.817900190743646, 11.373868486540520, 73.487133783554327,  3.831264018817461
 1.700331116551337,  6.498295218325373, 72.955539261289047,  4.077892134844277
 2.248359679848867,  8.286041891437009, 55.672697733934214,  3.937236522113965
 4.988681448374918,  2.647584313285316, 40.274347933558417,  3.995097740121090
 7.061718457059002,  3.896131871651946, 35.641343758612038,  3.919306720711996
 5.165873332296139,  8.575017651533063, 63.215300298727122,  4.165220111984490
 6.868160386024766, 11.806203035086032, 42.071030397350221,  3.582430588033088
 8.991383634748120,  9.781760639075230, 51.327095572371029,  4.203042469118347
 7.189082775025025,  5.091634831915222, 64.284998026265995,  4.114892651630986
 6.486641575606666,  8.017129199904508, 30.957865231940072,  4.008183084006981
 8.989312608331213,  2.300865804766463, 40.010527231415580,  4.048511683816289
 7.219122723203355,  6.027169951243716, 51.458077591208301,  4.097236785909859
 1.228054877655742,  8.518295626297743, 35.376304642057427,  4.241251548227889
 5.148362954192494,  3.615238690579927, 23.955591080667276,  4.062912377625878
 7.794820227790445,  7.947246637135021, 35.757741585834296,  4.213611067754380
 1.235684164918512, 11.385769479281667, 46.168137072410708,  4.071288841269065
 3.631165605483352,  9.398117082190922, 70.906926681122101,  3.995938072331731
 7.765342057436321,  0.569705110811105,  8.172416841621796,  3.766806281882578
 8.967384990151087,  9.162336793170615, 43.849252400240474,  4.022578491064822
 2.379883277857212,  8.663786525954979, 60.062958060569379,  4.058114431437892
10.805141186180281,  0.690446198555699, 49.209022139667510,  3.740737397545838
 0.997685135432260,  3.641711647604353, 39.960982817070906,  4.254275494517112
 3.560992081617965,  1.792782999894823, 54.107739189759492,  4.262342658726663
 5.582914841518303,  8.962779369727945, 49.071392237498792,  4.132439633125587
11.044802526384563,  4.714164763126534, 63.434929001655696,  3.773959886376634
 4.799772643815144, 10.483003958487037, 34.099387058200357,  4.302031122151923
11.677076028408644,  3.133656349378771, 55.567726009274381,  3.999450011774238
 5.890150236475658,  2.677973512027740, 57.766095372663244,  4.583679572378029
 2.078070630937368,  6.371711563345332, 25.961517316064935,  3.911737384591996
10.488916433206882,  0.093235125934688, 25.279555868444774,  4.020392201406517
 4.673308905615694,  7.600209213522887, 23.160645095039321,  4.101684919680218
 2.144013905633261,  1.582571826666073, 12.578056059959714,  3.751163971240398
 9.793919642498087,  5.525622784793045,  1.736507861766297,  4.177691037201046
 0.151376466011046,  2.717271688842573, 60.434148385722928,  3.717888032731190
 1.714239866121769, 11.544710973126755, 73.603809511492884,  3.879995606744373
 5.734143265904138,  5.824977714698753, 46.457589867877040,  4.039124214144242
 9.531129090913925,  6.073433251559032, 17.127040124486619,  3.930565674812120
 2.201488061424054,  7.426034586249433, 47.432608961822453,  3.949585866610792
 3.141561551567047,  4.338117830830176, 43.575205722829857,  4.263084402409610
 2.270587143269497, 11.866383397478737, 37.881084089998410,  4.255782888966898
 8.180226781008527,  8.757352145749302, 39.755821302884890,  3.905204138431457
 4.332299209169272, 10.338789792435648, 12.803680983544607,  3.943069532139687
 9.441924876158016,  2.099990585085824,  5.204841981675941,  3.702595610333662
