BANDS
8 8
NANOPARTICLES
cell(1), 19.068
cell(2), 19.068
cell(3), 119.178
14.079338765717601,  3.651600092852735,  9.446945211630313,  4.107478795990084
 4.900534911133034,  9.759834565155032, 19.507298480800628,  4.318459735211856
 1.700149402983170,  8.801561146436157, 24.664069778019641,  4.166361780400304
18.308467080006302,  8.108461633538823, 37.602543270911923,  4.454325606865769
 2.425048099061550, 18.741589049728915,  9.208903691783634,  4.329583623292208
 1.291222042653324,  6.776266913590932, 57.392209147803968,  3.411580715879243
 4.622486304561777, 16.031714442860210, 110.969745834790913,  4.017570817235128
11.322060339311085,  8.793609586158597, 51.582493011624003,  4.052825751141085
14.900904203316001, 14.043484360768623, 17.796363791136550,  3.689310145028303
16.991093827721166,  3.059512486064037, 28.601060046423342,  3.933715830291226
16.734383185471298, 14.025813368994690, 37.704611252637491,  3.533094442669213
 4.606312700706807, 18.435132508234183,  4.431643519188925,  4.145449776997061
15.867280244570027, 14.400227589475495, 41.460002613298180,  4.098204758659715
 1.936626335386265,  8.517459483238660, 81.327733175936800,  4.003573127365669
 5.762386569137618,  4.324334484400535, 91.723828550382336,  3.820213865643409
 1.867225016170242,  7.056863524217319, 77.166337685897673,  3.998513324176375
12.453594244383453, 13.994169315415750, 73.521221756748787,  4.185207934029350
 5.184280641718568, 12.038572779647255,  6.395077204389374,  3.915215219874502
 2.264315675937415,  2.054032159045736, 77.377616522390539,  3.950663430889365
 2.650629490412658,  2.794142786624287, 66.190995194758713,  4.129327399520290
 8.393237575229312, 16.546126983500134, 18.578453539132351,  3.619870526661707
 8.268918339152197,  1.224574613297611,  4.738629167417969,  3.874561721949366
18.016057159963786, 14.965682017545330, 110.010532452134370,  3.873045685475495
16.044951417877037, 18.199426319822962, 64.475687359193060,  3.862241285331546
 3.130258579653177,  0.854428429118609, 53.959785407467002,  3.966595872886059
18.228951035259673,  0.981087323546441, 15.131176961274585,  4.127341800008409
11.587557248632477, 11.894832913609910, 24.941328540943736,  3.931564114999758
 6.784526222360394,  4.832259395017728, 37.273683979287952,  4.339032699395595
14.457058740388005, 11.472476803675695, 10.443930157808406,  4.149306569174199
11.124142515165424,  1.545472856061984, 43.196044583867284,  3.748292769895618
 3.344157661300322,  9.891815076077053, 95.269487463660795,  3.842111205206670
18.433445576750149,  4.254212117761913,  3.920956070540640,  4.097519657243383
 9.864713122523387,  8.833616240516740,  5.035345923396097,  3.872521948055188
 5.267073679813826, 12.256269649572884, 118.674798365213036,  4.096717453548520
 5.076163512320209, 12.910151585162884, 27.039641532656521,  3.915603904371059
18.947946778278308, 18.999813557253862, 87.861863046375902,  3.886495094577033
 6.393514618492561,  3.688230628965308, 110.852686248460984,  3.823744467136577
12.666612003647616,  7.105506878132021,  7.813160247009915,  3.851043726285901
12.724609052167613, 16.279625709763039, 58.815020511305654,  4.303186408230890
15.803560970555703, 17.952446222206067, 28.174976969934708,  4.290751736022262
 5.192373268252441,  8.848335405967241, 98.572330209134734,  3.792007179903277
 0.911252320019182, 10.937587301280837, 98.702689497982476,  4.113678365934047
12.018925328520274,  7.561013899564018, 21.040004964669301,  3.919401779740036
13.379830096970405,  2.329983417583066, 63.599565841877066,  4.269815294532768
 1.401716533750260,  3.604605154920443, 23.681874302722985,  3.931723974398514
 1.600323281002700,  6.126508821638677, 70.035685402352598,  4.035101181014957
17.077826324765830,  8.734064594080779, 22.566408705970790,  3.974667451955358
 2.806110311106659, 16.392475095473390, 67.769949926418903,  3.742559628020841
18.854146079344048,  3.702996830081296, 54.613364682925180,  4.224465942689273
 5.565281174434261, 11.755196288657405, 110.908627543691622,  4.027745687147034
 2.571537274270785, 10.310958292855045, 43.934293864524292,  4.128448844673126
 8.514249967358461,  3.998065930685489, 78.138511932729017,  4.029647650011508
16.011080304397563, 10.887719467830266, 35.449180459818848,  3.872628329216937
17.373364785147299, 16.366214144568694, 117.224920393143094,  3.912101430021163
10.916364966886452, 13.481965609314784, 94.147722884459426,  3.752509697735188
17.493530791064881,  3.831535279467129, 76.732016876799676,  4.348205010103605
 2.235171731040607, 15.567613961941040, 116.223108486762698,  4.027058426155311
10.516379590003419, 17.579126827082234, 45.392039413135642,  3.620660529396945
 8.829077576628348,  8.199294172888646, 36.346830421098204,  3.752544227473076
 5.558583783574511,  3.432642571144506, 83.621270037003725,  4.057343228387746
 7.862820370635567,  1.633854952513510, 72.176153050034642,  3.619481399704187
18.669130318481255,  6.293584370888968, 66.450963827474041,  4.108860996425129
 1.014484147147570,  6.135231983813740, 107.364707885306515,  3.786201130825850
14.025639668233405,  7.263409857447931, 49.009241896172455,  3.983281029672269
 5.863182309736730,  1.026506217539394,  7.716971337752445,  3.622396116377240
11.513944395694940,  9.329519445861299, 67.603473295834320,  3.801825825059355
17.311523975656964,  4.926611045334976, 21.675035423631915,  3.834338955199299
 6.117477869434016, 12.082684128123212, 81.329679544279955,  3.947982687391713
13.004919664242813, 13.046405307663964, 77.375517497806598,  3.783403971329666
 8.395488050229796,  8.980290376725854, 118.574327902483944,  4.097164754228623
16.534714920932263, 11.174729385341719, 78.164367315455593,  3.673789103806707
 9.754108110240947, 10.361077448767862, 61.267073811236770,  3.843678141578666
 6.884413567069032, 11.115833204051393, 77.505109104788744,  3.553360957970703
 4.432713984259508,  0.687123054117540, 109.082569589772817,  4.149788290824011
14.479487465725262, 16.928287992736276, 38.440763473878413,  3.954822563512248
16.259630228033053, 16.309027336988265, 55.177712055211742,  3.856175359368275
14.483586004542323,  0.863104872257896, 76.136195600273282,  4.158325380967994
10.999202021608983, 17.458822782188964, 13.005669138480805,  4.149262279779798
17.402902204563318, 11.424441674051319, 61.156755245418786,  4.230197143141937
 3.028673671771327, 18.877991744778058, 45.248484517068427,  4.209186870179907
 0.253655680517197, 17.621544775844015, 60.355978871862980,  4.079128040058042
14.649124304275126,  9.460635326472291, 84.464091196411076,  4.328774934024216
 1.075555250674786, 12.018009957484072, 37.809845267451458,  4.124435492358410
 8.362266660017331, 15.092826351827089, 91.660877698333010,  3.979543706676431
 4.788054870458270, 14.757112153035566, 64.657840312958001,  3.851796642851456
 2.352625650872161, 10.123393395920070, 113.660801005372747,  3.926819848848925
17.894764327103029,  7.136252368217264, 72.792289239392758,  3.920582989044951
 7.450086613656711, 11.535090205229428, 85.319344831606799,  3.846730142496889
17.276866100579610, 10.128266482846923, 26.207657193805524,  3.765025792227092
16.953077329255990, 18.473855276370205, 35.713157618313915,  4.017875129246386
 6.821161931050648, 11.876576322075415, 10.827314307174156,  4.280513705685349
17.960704999402900,  7.865439947853369, 79.277173120665395,  3.444040098837271
 9.986511713701701, 18.533225278613166, 29.036110488138910,  4.055693805909431
16.419324241490649, 15.662302205180660, 67.605850399197536,  4.022709083982911
10.775063849682290, 10.286211422828092, 33.521233484381654,  4.182428174541914
13.738584585230621,  1.245363478466804, 102.166395506298116,  3.990356519353373
14.738575021352359,  9.763572495566390, 72.639692568941811,  4.187658624413966
10.047332125328239,  4.625714661398770, 18.782054397651347,  4.022471109492741
18.186666067145506, 13.851678862356716,  3.785856203969587,  3.586448139006261
11.006512877666397, 11.482817937515099, 112.218582957166817,  4.284786284261133
 3.925627537285632,  3.513748801284699,  9.886173519036848,  3.970753520631952
 7.809809994680089,  3.535150469154873, 44.237900422785408,  4.082690188592652
12.205809060937986,  5.727502414406444, 12.637902731193567,  4.148204682175959
13.229947529759508,  9.095126302664019, 57.931128829348502,  3.739210735314713
14.323971408662647,  6.013593281641516, 101.927451246421867,  4.209008458511178
14.495711739239209, 15.776673140324556, 34.904504611259298,  3.426929344642820
11.824811405055703, 11.399923737521794, 48.528774074002676,  4.021956921046789
 3.128816809585147,  6.394754442518698, 32.668543258403218,  3.939463491982456
12.381243146684195, 15.673263954978980, 91.310680334442708,  3.895981198559026
12.840582247176155, 11.012224305975559, 64.293629921108959,  4.029544481344063
12.390585029502986,  1.134143714185601,  6.568887169624304,  4.138241941713289
10.639526820555883,  7.487735329042534, 16.045718321828566,  3.972539808468225
 7.371221693804435, 12.614355792139875, 33.317642767921114,  4.053159887257059
 9.253798191054981,  5.400027535228890, 106.978215676995717,  4.186192526938186
12.743084597465582, 16.360336016920126, 85.203813293598415,  4.108248370149302
16.560610757911103,  9.225660618641726, 46.422096637258022,  4.166457492629101
 8.455003204146607,  4.513945703173301, 14.243825186978476,  4.170470303635208
 2.444894947858892, 15.062630769138051,  5.745573780846501,  4.276938658510926
18.653374676668484, 11.087529213400218, 10.261562247658167,  4.278264801628701
11.147380313292437, 18.869868224777488, 82.308014127392980,  4.093352088814433
10.909626815783721, 13.754739569703936, 11.186212260523506,  3.984202629565422
16.116058963073144, 17.451607630627677, 90.745286824466945,  3.971329869152337
 9.851846928665781, 16.412819336235934,  4.916437313319403,  4.193618961757633
 7.993612968142718,  8.719469729494097, 31.023268875106915,  3.869670095349304
 3.530659701307855, 15.512669216754844, 71.639595961286233,  4.178889058363981
 6.765202807386306, 13.001201806772668, 61.700276109374862,  3.955341489367447
14.025539268704978, 12.300550248476158, 52.075771443323838,  4.107489081187081
 0.890582640193914,  1.162487964074489, 33.755503015018100,  3.942270182087617
 9.512204984274803, 17.958214165548597, 56.742809006535651,  3.912945456149606
 0.558959784629367,  1.625424596993749, 42.481990985501184,  4.033341729965929
13.155562889712078, 13.110255015460018, 37.055189211003153,  3.811058213578998
 4.488861885170893, 17.021372170984826, 13.752561357454775,  3.872236736314021
 3.126366462685459,  3.863159958688793, 39.129153714661776,  3.991722378922255
14.717194862198260, 11.010389080398275, 43.331201592620488,  3.838095913136645
13.139690434367104,  3.558615202477331, 90.761878902009911,  3.937041969521090
 2.371445035015280,  3.829104253961566, 118.653234787747962,  4.004891495767179
15.333156243917118, 13.278966428180350, 24.922602345477369,  4.019329013379256
12.592956909067889,  5.867778283677324, 84.557895086473806,  3.908915961468716
 4.870788954855772,  0.286727900940962, 101.377709608713388,  3.956890077045343
 1.367780517401057, 14.186395439313147, 41.358633832150851,  4.171592113801033
16.259640366191938,  5.594988467838495, 51.970163167949238,  4.088338398722516
10.277687682192592,  2.204556337744830, 114.488827355930638,  3.775332103997380
16.362437218145555,  0.238446440006996, 69.369983157141021,  4.046363142133603
 9.266150811674320,  8.073149757037342, 78.276442517808505,  4.204560762986802
16.917163113870785, 12.892836444227969, 64.871431322164156,  3.774403260562085
15.794033480571921,  7.800776812054139, 76.161947327480320,  4.108313361559192
 0.141594304360422, 13.763675257332693, 84.848382485359181,  3.848348819602351
18.114995144580842, 14.305754746732426, 58.225064191613988,  4.107397559689003
10.881912366150070, 11.387060792640543, 101.456766588172968,  4.039764074386998
14.389982100957688, 12.882120148663217, 56.659146208068975,  4.399195284569850
17.286425373089386, 11.628813204325683, 54.132177890940014,  3.664012806401973
11.906845778083101, 16.886257783419186, 77.433643152831365,  4.165947632742111
 4.134151250601395,  8.572932692964651,  0.787320141531085,  4.007454052339476
 7.210154679022540,  7.920142975907983, 95.288536714177582,  4.036828165296788
 2.814283127487971,  1.028083871236325, 20.961993599932264,  4.020767765906347
 6.038288799060597,  7.724120505630219, 104.622417123075380,  4.354343618543442
 9.700213134976419, 17.888340120414799,  8.863826371384839,  4.222775176600950
 7.970649940889520,  2.911130061003707, 30.310198777621657,  4.323260755871090
 2.508204652463914,  5.593876708684380, 103.879216346928388,  3.843466581605188
 2.293799868127110,  9.245190945738951, 105.010315281462923,  3.760257847867682
 2.988045231123214,  8.514443994961420, 73.285945076231684,  4.242350107421566
13.132434984432008,  6.536946665463275, 69.992145548759041,  4.165439778050462
18.029246199141536, 11.583403892234195, 87.991049738604701,  4.130625448743681
10.406305392411905, 14.466172366819162, 88.040086611009968,  4.110919498775387
 9.512221906054007,  9.296261500405476, 57.664244952230725,  3.544005712227648
 4.119783309855432, 13.154859087349955, 22.777682648470467,  4.067348132521726
 6.411884531866803,  0.660116563333986, 19.075140536005847,  3.914560168250034
 0.856370918906164,  4.536908592417127, 14.778936461959930,  3.775624822158227
 2.922474444798407, 15.929042282858422, 75.668564660007306,  3.564870827413895
 3.036538678076671,  9.505013160018438,  8.602139376790385,  3.990424061706443
 4.601147693353215,  5.060790143951849, 87.309382315884164,  4.109794248049218
18.492452283474837,  3.468860103740780, 59.460887240630115,  4.589923418127408
12.663317257726886, 18.386540371506491, 66.661277011833789,  4.195902627746433
 3.868516653877844,  9.595594048962200, 12.470370320329657,  3.846057985523996
 4.664457393149336,  4.429903385599535, 107.131662842817164,  4.264090305372497
 0.120847575438755, 14.716682166895316, 15.805398962717874,  4.154083689703786
17.504997010205745,  2.556235464699633,  7.543518958801134,  3.960064417230858
 6.142189077409306,  4.228491670193852, 47.868170790372908,  4.008475208031834
18.011510768632778, 10.881327422387390,  1.379956170718336,  3.777542190991067
14.141055695299967,  4.325641043191577, 59.877867197745466,  4.269162204868675
 8.715223206706492, 14.957920625991912, 97.147928380294886,  4.239629133166233
 9.447925469501943, 12.328714630542420, 36.609826682361707,  3.645472935786473
13.506490294890417, 14.752156720191300, 65.205047943968040,  3.735662290295699
13.834106050540106,  2.058500479870471, 83.995510426829853,  3.672641818991195
 8.422188510901789,  5.621324429346906, 33.451908137830706,  3.945158731300351
12.814669482414541,  4.800935137663696, 109.057123930470496,  3.900654103130671
13.923989317282899, 11.221861298903120, 21.501006766549683,  4.242124399134896
11.790338528946906, 17.943201978003316, 112.120006356098145,  4.213007148954419
12.704692018759154,  8.743513681458266, 108.435040461273715,  4.010522871226732
18.797884751179279,  7.623428045523524, 60.627201802258455,  3.856028244070989
16.344599565105959,  7.618660386068160, 29.097926318149160,  4.102241449546213
 3.651770853476878, 16.555080861256624, 106.848375668620434,  3.780681490454938
 4.730815401200831,  7.866268424772627, 48.250144565153988,  3.814381626680938
11.317495632889726,  9.173965911644018, 115.722795033347893,  4.075552082132041
14.832174996188247, 16.827540212578750, 100.621347753953785,  3.813377653431628
 0.507387048660516, 11.505587291758953,  6.334437056566572,  3.829463842347806
 9.562404265521506,  0.521680958504194, 64.113218315894187,  4.162144198799904
13.522796823425997,  4.689537285794769, 77.455285980151032,  3.877949007306965
14.860417160854281,  5.667975524159550, 37.561350126636242,  3.982290103392215
15.804607319585882, 16.906933976975353, 73.516736810416063,  4.095028673698151
 9.618049273964806,  6.643446957157330, 54.759458995189256,  4.267399680834401
18.847647821998567, 16.815348204331080, 106.552960569225348,  3.938474841204956
 3.209876232562756,  1.380205711290109, 60.772348349794925,  4.079888155029602
11.598992960049777,  9.796322433692513, 95.241235695953037,  3.945316128057922
15.300527701587436,  1.837477208751493, 56.929028717577467,  3.708283751692915
 4.637166338482773,  4.612774894340365, 79.492016964725565,  4.137362809779951
 4.259872503006100, 12.772363255499069, 92.234164754083494,  3.663448193335027
14.690600537592795,  4.674593033357440, 73.525951681421517,  4.278956062549675
 8.195324108416663, 13.431512443141177, 54.160764456770451,  3.634670958904068
 8.400985251831287, 19.058207378006252, 25.341944300012766,  3.985612686700799
 0.077377888309941,  3.512477835262185, 11.042370658293216,  3.983731050051756
 4.951388014843234,  8.949233603485537, 27.144604912477412,  4.012619963870670
13.943032142497147, 12.853920920617298, 32.442230445925212,  4.248767520591199
 5.959356724977797, 14.159181567350572, 68.370652980233089,  3.996015918153950
17.566565622045772, 14.762623600074765, 51.509557081207930,  4.511110489888963
 0.851030168631721,  9.471193047461474, 63.978786535696095,  4.111082675434037
 9.867431673881851, 18.988006313924366, 86.072914725218254,  3.807708392323393
11.313846921164906, 14.062143355849734, 19.649359601582468,  4.292996313268651
 1.669355391246610,  3.734360825524767, 92.172761909978817,  4.470599366735444
 9.033420818754104,  0.931345742895276, 68.428479487559059,  4.299444184864503
 3.534348078333892, 16.436023720823776,  1.046782961666096,  3.873311550312609
 8.656334418109301, 14.813458369424835, 75.843635618133050,  3.988290897109826
11.440294614110590,  6.513752902803360, 88.751161038288956,  3.915159630335158
 5.771347031627786,  1.874844221513766, 63.801248374994373,  3.899237792903659
 0.532502590475028, 11.660733972290039, 47.968055414522659,  4.201049586685696
 6.117858463671535,  9.582909254556256, 23.458821561565358,  3.815516465349614
13.200138013341228, 19.031554599942119, 10.210060411045081,  3.600778805932361
12.083687296650208,  0.525175464845012, 50.344857535770373,  4.038425120672470
11.380063460200619, 15.060706925841147, 55.006655659990166,  3.716980193186165
16.948528068901059,  8.214736060868983, 108.600090090435316,  4.089809393160831
 8.114310611879054,  5.474025148358526, 73.001065894271804,  4.104041281054013
 3.716976770611171, 14.029975298675291, 34.326532557505914,  4.012371695320915
12.498987183269577,  3.036255002689468, 105.523325403777250,  3.995584608836283
 2.787372622522613, 18.679781245792935, 17.079837311774586,  4.241683050677641
12.145166065748503, 18.363254413779387, 35.507318561605153,  3.632410791278965
17.232016832691063, 18.406834016203149, 103.291115480818135,  3.940921842357060
 5.005438995323680, 11.029847937885277, 102.412046389497021,  3.799079568446560
10.924274344745967,  2.847675724937545, 74.815970472968900,  4.373927810635749
 1.185108662742283, 10.863193599305724, 91.232463286510736,  3.766146371913873
 1.201044390862489,  6.613880869062838, 50.538021919263166,  4.181508586112384
10.084611046465508,  2.379941074379139, 110.596885219702514,  4.003572641911456
12.406006662873031, 11.565309220509072, 91.043966622605836,  3.984451570146511
 6.498641918938975, 15.067284963609412, 87.360713686345804,  3.907986741848775
 3.174176539268744,  3.447583090249616, 57.127309561160864,  4.182217069584994
16.712355584560012, 13.146995552447478, 97.926770470605533,  3.842134589544933
17.047354330015871,  3.915630096643299, 118.881159367039089,  3.913318114604001
17.766539577144126,  6.010494021167277, 25.536464297528429,  4.186766652007516
13.930507961417787,  0.991597440796926, 13.685848819077371,  3.746101923451256
 2.708783779289634,  0.183233949344277, 73.587182475303806,  4.097622558205672
12.415599032705282, 16.618649117641407, 42.159413431135064,  3.983084858794336
17.472817419280613,  6.940697908972373, 82.800981376617486,  3.822140490117159
 6.003728963186554, 16.183956164481454,  7.768857131847829,  4.192802437104571
 3.928620966366636,  0.191513152317050, 117.335678817217712,  4.227106985987324
 6.112610722286155,  8.496837118930372, 38.949915378075161,  3.719047562150798
18.010894126974989, 12.787507142564037, 44.408084202762716,  3.842972981065215
 5.733906526153971,  6.942035399698708,  9.761758855582483,  3.743360409861375
 1.684852945037770, 14.606229258467788, 19.675728433179856,  4.165433764896775
 3.885568190677516,  2.235081890290371, 31.273265952686369,  4.093276634291240
 2.990738520055707, 18.836714230535812, 113.352421525728971,  3.980511608269521
15.373551640175183, 16.192519009138696, 45.279463185503360,  3.981828166514386
 7.555671122716140, 15.872425153626430, 11.659873804994387,  3.893311816391528
15.627630246811565, 18.838210277918503, 42.394704780174145,  3.834319441083890
 5.245526473051603,  8.061831969833140, 83.790424105755761,  4.152109500455974
17.627221751058247, 13.019351375501644, 114.845427624107174,  4.226249489199667
13.364270121937015, 16.897835094191329, 104.287943375514772,  3.999839155990156
 2.409653856317297, 18.868560295157163, 49.510245201987921,  4.269918118063571
15.752516962713427,  5.258843628522727, 98.169691618623247,  3.962604564382823
 3.709036181757586, 11.535797155738861, 70.526902879937566,  4.031570073886845
18.048815024077573,  2.404221913644332, 111.981299001743437,  3.436641430130032
 6.370985673921751,  3.177483180890194, 26.544167950647505,  3.865577681203447
14.975683413732364,  1.809908766197229, 53.001654352278543,  4.106139517646822
10.460433451813421, 15.853514687643655, 38.476186185076841,  4.343893792394076
 9.157476336001832, 14.287821007370573, 47.353440977420000,  3.862836236910155
 8.654307936485193, 10.730396837436817, 27.538949287211427,  4.238739502120914
 6.498855965029112,  3.881240422253253, 53.886933013713559,  4.172196818434947
 9.920130333044249, 10.782794014793966, 21.589100787471875,  3.810230348173528
 5.825624686565181, 15.912674299718093, 103.488078791788354,  4.253222217403175
17.125342068553831,  7.318167598504512, 14.915749366923855,  4.113034436436564
14.019248723025973,  2.648475832161755, 112.346774683299941,  4.309450899509826
 8.688779602517943, 10.230207132979743, 18.030890856585035,  3.761199364430100
 7.625385214105387, 16.445409148152120, 62.947946565778146,  3.559186613831267
 5.132187671860116, 18.923571263011606, 69.773748140109831,  4.132433852122161
17.580884924444252, 15.338527257144833, 80.913638931393479,  3.945917074360870
14.181640773478849, 16.961645032641091, 20.113590352752212,  3.802435776231265
 4.178471173018457, 16.503875673799698, 61.207431189964986,  3.968078790901355
15.688640533362213, 16.804556478236634, 15.134866736199887,  4.080062154036073
12.194297038266278,  4.833118179294176, 51.769732239765816,  4.030314876389468
15.166225078639133,  4.792639804833106, 31.798881299763590,  4.055473473486385
 7.659625228711706,  6.885696795378637, 50.969996222516251,  4.206327649283150
15.980774217626724, 18.587279507679192, 49.464119542173016,  4.173396152444083
14.657642515416592, 15.828111632876853, 107.938654904310283,  3.951461951181734
 4.777574171265923, 16.841848011712461, 98.249749648614156,  3.936620365045383
 1.449509297228432, 14.217364663541261, 30.983122185636638,  3.923025157568904
11.789961803914403,  7.471889364566421,  1.828865445340385,  4.040766761840695
 2.915253108112738, 16.701356129203045, 86.869837708677409,  3.981935251731011
18.560685095791591, 18.773090623655982, 52.707920118946539,  4.051104157208899
18.759487823973533,  0.146395091999240, 56.701022329835155,  3.952594104635078
 0.075756483276306,  6.677930460641631, 111.866703124362587,  4.241527495710685
 5.314518826540787,  2.728492495321108, 15.983386837555265,  3.828365676510084
11.532730362434776,  0.039738811230466, 89.600367963528484,  3.953131791101014
 4.934812373349359, 12.870310841088012, 114.740988045527104,  3.849883450913071
10.520506635600162, 12.537211045570919,  3.720581796550608,  3.959902642260720
 7.567527913112545,  6.846785986198867, 89.389269004544872,  3.934379220484241
14.354289393735870,  2.491196813091026, 35.093620363108030,  4.121928541512887
 2.012378921905405,  7.312859654691913, 89.816861455753568,  4.034807677600580
 8.670580589155721, 11.625134632640112, 64.942485308433845,  4.006920965330796
 6.566136163195060,  0.773813589241372, 11.573659997775044,  4.231691391118869
 7.037455253235491,  9.876886506325306, 54.756473991662631,  3.902358466866494
 6.450224287014721, 14.988662420827424, 50.793499063921374,  4.223343339310291
 6.076625865638329,  0.146751584166774, 51.418070564630810,  3.856291349224316
18.566960904508260, 16.812564844514689, 113.486442610227016,  3.982600677785528
 0.202824120209954, 13.688454527370460, 77.572957721126528,  3.821137783634482
17.926710497535638,  1.066155895019496, 21.905078383698193,  3.986092320208639
 3.320561296435204,  7.139139433182961, 36.574786153833784,  3.967870974708818
10.960603371550171, 14.744735712672318, 109.421700085956346,  4.293955648364958
17.640078825529354, 14.167164810418752, 28.172856690413816,  4.113589241711084
18.625315988509769, 11.378215817947115, 106.771124626101027,  3.950870518426572
13.453467053631844, 12.000852290935857, 60.565826352685363,  3.758825093654530
 5.553853963851137, 15.509550082473050, 94.575277950000412,  3.981222496510357
15.859999800379715, 13.517035337507910, 90.809704209650036,  3.861744001498509
 8.790623033628876,  0.157197248692518, 36.890669307236465,  3.791928392777540
10.399667293627337,  4.036637304154264, 66.010204809840047,  3.884948252552305
 9.536105704038953,  7.043732940884615, 44.029909897382808,  3.715569151648430
 7.889178286004424, 10.533646526982436, 68.753863974548722,  4.055049360292336
 9.573491876171607, 10.018915323752953, 39.695252904017721,  3.971008601690729
 4.563673952318079, 11.786326837302781, 48.913911676436491,  4.077878052917258
10.377033137792010,  1.995596439650117, 46.990877676081091,  4.028685378165180
 2.438146271891511, 13.332765210683030, 108.814431845810205,  4.098694468203045
 1.282391875167084, 14.781875556241623, 97.249447335714123,  4.125318899213272
 2.804961004965750,  1.498057391806745, 13.211872507152712,  4.032783090933982
 3.768645133738949,  0.568697500192080, 24.996160393796806,  3.995939847425157
 8.400922900122005,  9.298002392408121, 47.227682926261657,  4.301333373756845
15.797093352354771,  4.354302267968996, 93.940691716857714,  4.095282986965647
 5.795349512895558, 18.876759252588254, 28.545862306967148,  4.020267822772902
 8.629551334471545,  0.133106352292733, 76.853558901617504,  3.795610322278360
 3.687148680141453,  6.411954657372013, 21.829615633056424,  4.140669188204098
 0.742331349191787, 17.194844083329542, 12.667016697090858,  3.936676773500650
 4.328825627526488,  9.132684892949889, 51.964211829853802,  4.018609666484464
 2.000564447759170, 16.721402667770292, 79.273439724623188,  3.878681966403327
 8.005254612928454,  2.268643379690439, 99.553571751215813,  4.206203973370262
 3.001364131657978,  9.840039276148678, 55.778477915372406,  4.024070618823896
16.643815927089012,  0.895436294385319, 115.181699769105975,  4.132483272219904
12.698522043057650, 17.502236621985976, 62.693724309615909,  3.823323257550228
 7.950594172710095, 17.981249749943384, 89.153663215216383,  3.506638442699726
10.209155417302867, 12.976644875705210, 58.227793795748148,  3.947421727747757
 1.934104484105530, 17.215673871387146, 103.271132655288554,  3.948871766888845
 8.805907497361789, 10.829120918391721, 97.954840105585333,  4.079249779326843
14.374614780420625,  7.354785822728297, 80.343310583892134,  4.072848031314129
10.500673551688712, 14.152311214051160, 51.177935849131693,  4.014829426839623
10.162435327521155, 11.153885063718519, 14.296442056373420,  4.059411929084797
14.977825230902061,  6.627282463966066, 111.819857686848835,  3.937880346749042
12.575059023521668, 18.920881186687620, 25.656425122919263,  4.099968522045482
 6.025186004740700, 18.697574839196953, 85.177897530411698,  4.039404147910910
18.481666729265502, 10.382926079485808, 57.434950829672289,  3.748892409759956
 8.086084447888371,  2.085600544792717, 40.332218634956767,  4.218701541953353
18.156086495555154,  0.982340604697656, 46.252734433193361,  4.083064187592446
 9.862743570974386,  7.034869523402865, 110.881642452272729,  4.189725782360212
10.676244684432580,  1.930762360120137, 95.582192806259272,  3.891026270287846
 6.304994694925798, 12.392209364706064, 45.192753422285719,  4.208371421959761
14.886151199828502, 15.645873001766420, 11.201289891863093,  4.217614999456377
 4.442289931538533, 13.050179875720309, 53.799801116262408,  3.799420611107265
 2.199716094529111,  3.614074905350106, 46.981912816385211,  4.098828569992077
 7.246001826127717, 13.257907902949544, 20.173688881652104,  3.998959432586113
 8.807193734390866, 13.870497369595927,  0.444404829095447,  3.894030448024917
 6.398449886646266, 17.924884280188245, 66.133184464626311,  3.791852443760037
 0.116887123375074,  3.281551087239102, 96.405993091984726,  4.493193572450532
17.060490272181646,  9.531272572233561, 50.638210656191170,  4.256191845890475
18.948456487261822,  7.368783251238400, 97.464716987120184,  3.605266378064107
12.448881973330206, 13.535529811507052, 45.226910618757763,  3.915154627253624
13.517285820164201,  5.156556612774017, 27.308311981656914,  3.820864464452608
 4.378074835822397, 17.996397353753935, 33.663079793409587,  4.120165153797388
10.639450954897114, 14.103533739244385, 62.370266306993265,  4.126986530518702
12.620675798631193,  9.139254671876300, 37.102166501329521,  4.187754653997992
 9.624927134068553,  3.247990772385875, 83.920618913961704,  4.095713743029407
 8.133086239384998, 12.476012774910030, 104.612504114011912,  4.171611783225380
12.300755311424963,  5.738256085051743, 95.717990211130044,  4.159258332330702
10.686983260393333,  9.525230270838096, 71.591014613547543,  4.153376179709269
11.827058400621913, 17.221364235224179, 17.021510737767599,  3.958784705640968
 8.941858044737396, 13.210111811126726,  7.438647977922231,  4.124976814764713
16.149945493791925,  9.137052413832546, 65.283797657829069,  3.813350198180994
 4.424812269657584,  5.686416875818412, 13.357831802525494,  4.242889582464977
 6.740236217039575,  2.130186431213643, 34.158174418219730,  3.898546961649628
 4.702626810395462,  0.573711424211854, 37.343441592684457,  3.966865056693026
13.720414546128135,  9.259082918104465, 13.932810122993514,  3.935044227436082
 5.855101217637733,  8.622365798159930, 34.147988976172002,  3.641231264076137
10.293054053975458, 13.019954382814371, 30.523667010047273,  3.927030926349829
13.362045671111646,  5.038769511125820, 55.766090981148366,  4.121777248743022
 8.111584164089765,  7.499695622394563, 20.741991491490079,  3.864207225249437
 5.226929653383833, 14.470652901994788, 78.313806473763165,  3.887656015116980
 4.929796391299663,  3.879627252860327, 70.882540926802406,  4.167047368968398
 6.128171003244749, 11.560840212684200, 15.236973898599087,  4.242416918240655
 7.005132837171452, 14.414791287923462, 108.109142675046357,  4.042309768796163
15.818056619345615, 15.602338186567248, 77.384694102157326,  3.804185970925032
 4.865463134082736,  9.136344558416532, 87.674424369294243,  3.914800729114672
 8.878639866794574,  7.122759881988324, 85.564255078617052,  4.137093836183454
14.728606532089840, 10.224468375315409, 113.749506763606277,  3.976477997577307
 9.007941512557110,  5.921732307033921, 98.068754309848273,  3.675827675481818
 2.581585594845392,  3.481352411041343, 111.301696828346792,  3.861302796795513
 1.683290772973157,  5.201779783572154, 63.045398398877069,  4.023686922580012
18.563096226647680, 11.121939758200611, 102.629621419338307,  4.236305457950295
 1.620571556886307, 13.054084355473600, 66.187739044294815,  3.896732139998890
 2.771481582085718,  8.035111191973369, 16.310127279892669,  3.954415812420515
 6.379964610564862, 17.546050319734473, 73.888224150726941,  4.009840694555587
 5.815275961912346,  6.852948307248714, 76.150163609967365,  4.161334243192521
 9.156576122365347, 10.871151054518094, 108.414255721983508,  4.263187216718383
 2.722636768712695,  2.607021126144748,  6.120172132816212,  4.075475176680884
 2.385193726137987,  3.962654211833988, 18.274318523785322,  3.936058761118721
 4.804312158805144,  8.294568292240458,  5.320815745034971,  3.828834066221048
13.941876222198225,  0.846284502602857, 22.234409689138943,  3.477337734897146
17.433489688484723,  5.294441905862301, 46.952784116976311,  3.934949842490810
 4.688543408327508, 10.972273372025288, 30.712442690633260,  4.114447444542342
 5.223501698554665,  9.090281533714881, 116.142585131476423,  3.869739686974188
 8.785506921694250, 16.232058961732900, 70.273051521711835,  3.965508225198905
 5.987465185394031,  5.483346062078357, 41.238989479447696,  3.780783829457828
10.512747075041771, 17.814849759133757, 73.612203674872788,  4.178216068308299
 1.901087969091705,  3.205689281277325, 27.856183969860624,  3.975769616175733
 2.498563910124792,  7.625097129366222, 40.600184572153402,  4.167578902721255
10.420355522299843,  2.190652798360213, 11.507790868900409,  3.977501277345207
 4.004358296841988,  1.186447276532744, 88.974091378967088,  4.221624944020441
 9.757091226387070,  5.143475690161039, 92.414016450631379,  4.197658595704339
 0.738058122856288,  5.490625896283000, 43.645683569927826,  4.019620685043351
 8.512220999035938,  1.148333302367751, 92.365218228249006,  4.019211690547806
15.914484353503504, 13.061566436088125,  6.905768172678761,  3.980463480854367
10.991420081896704,  6.923486189891678, 60.044918605465952,  3.780237977273917
16.768496247877177,  5.054153586902761, 63.079772469460366,  3.909353416743370
13.714548424262029,  3.979744415324572, 20.244515176955684,  3.951372245829373
19.051641002221157,  1.458468144258241, 63.241310171156314,  3.996799496922729
 7.014186068352658, 18.514660681516286, 43.711202260113730,  4.308099651530386
 5.115987639731257, 15.052281667791963, 42.412063165237086,  3.749925693543126
 9.334622429994463,  5.702185467551551,  9.880996264412067,  3.773657837387030
 3.970554286805760, 14.802756133814324, 38.289402961406694,  3.958086015200859
15.142020265245515, 11.945716861577653, 108.800356189874236,  4.057029978077048
 0.737624338226785,  3.915690612508261, 87.968027167125143,  4.031921389734298
 7.269749802769227, 18.964431907368986, 95.979400174719203,  3.990976470271165
11.296918516093903, 15.364137216989187, 101.277204036835457,  3.904445109110815
 0.025877691630170, 17.452897987584119, 71.292110543664066,  3.577937271312823
 7.366572080371335, 11.876229830850191, 94.297178369395880,  4.004591569511203
 1.208835585384178, 16.934817180705529, 23.154313055601385,  4.251405333232589
15.916698699410277, 12.726917587751609, 74.941922551621261,  3.491944163058037
17.209935461224898, 15.459957761862581, 93.993195214481872,  3.851358882955084
11.338247985409048,  5.342165411007632, 30.621837134184652,  3.944675435678748
 2.371347472809488, 15.821985574266716, 26.947554205273914,  3.986108844083486
 4.596616843452482, 16.440364564266716, 90.692504229876590,  4.228472219785397
 1.857928614496795, 13.830425353268254, 112.694927616300532,  3.784298114878142
12.562383132132227, 15.019004590432747,  7.749983645896140,  3.961667610137070
 5.062608224018674, 18.435661760290522, 77.732497479531929,  3.708110649420614
 7.019176411089465, 10.657582996785285,  2.985809457283938,  3.994841909269097
 0.753832768058904,  7.375716514198901, 11.681401828580137,  3.960538966373538
 1.237202003789215, 18.605781654519539, 91.546309800339472,  3.904157480338190
 3.760384082136641,  5.666257117650138, 25.729001447097474,  3.483545092720640
13.210652675221738,  1.893223280165529, 29.675408647194125,  4.115827583713120
 8.782601537691081, 14.811452041437473, 15.212407953498561,  3.875609317744676
12.541549441315436, 15.147957668338808, 27.842559299285057,  4.232519095804252
 7.972142646230656, 11.010088777753094, 51.056467118373881,  4.026839070585577
17.147961755028252, 17.412328965825953, 97.461356412816812,  4.090491720510499
 1.271086813384117,  9.595544473750941, 68.011076354676987,  3.886039294131669
 2.560405313140759, 11.873689945289954, 17.018888647847646,  3.650679018264484
16.824607631849638, 15.960929833949438, 31.821344789206467,  3.938157837328877
 2.527481731094056, 13.365308328552681, 104.619789667585650,  4.291278228510209
 0.326280502166244, 14.199341321803413, 69.584105621838560,  3.698980371896904
 0.715153123254597,  6.014051515239481,  7.746098999623836,  4.289095737059937
16.405106348448498,  0.924983404687091, 31.988274926760862,  3.932534597129357
 3.304244104727916, 17.837017860628880, 57.552250800879520,  3.956184473303605
 9.861491642407907, 12.213333948301564, 79.734226750313240,  4.161666025857072
16.841039337293765,  4.082454172643174, 108.729922862711916,  4.172635516491620
16.952415204419065, 14.125640614517474, 21.230415646654549,  4.099249786520703
 3.434383971123189,  3.578243452944582, 35.210924756676746,  3.610585140627884
 4.493192025014353,  0.708410521208528, 105.177776312357111,  3.597734238563191
 4.609579654232597,  6.891406604669289, 112.501913688106896,  4.182337361405018
 1.100005850438107,  2.171081837713582, 106.843285584876199,  4.172350814333944
15.888630668207014,  7.358890444225539,  2.642796161399697,  4.291076229778150
14.434656923742180,  8.729985745432367, 32.518734713913290,  3.998600366574749
18.346188113135497,  7.543201481332927, 86.773107508066204,  4.128761986664849
14.810086202862292,  4.705319388443819,  5.583024951930280,  3.897206109652522
13.739015093860536,  8.736504105668052, 25.919362619091906,  3.849133171729668
11.195503111352291, 13.008404409379153, 69.255081204684984,  4.206400901390416
13.706787473712254, 16.377791647280077, 52.097303642589011,  3.926102268319939
13.438451164494669,  2.855716843420727, 68.411163173515277,  3.817491072864285
18.729733729213443, 10.474646150604434, 41.213159462403191,  3.840077326789781
16.002978118744789,  4.015684694629318, 13.223764088331176,  3.635880851081090
 3.673122679674063,  6.663164532606190, 60.097103168283184,  3.657320552803282
 2.592644468722667, 14.182885109434791, 45.291089411885196,  4.013596708529522
15.407780339774190,  2.526524274596793, 25.109213017888976,  3.727900908916422
 6.077114009834251,  3.893417424649258, 59.755538221633280,  3.693898724331962
13.737608759882114, 16.014465879473253, 95.837714197699299,  3.905542226875757
 8.376524167032793, 15.126165483555514, 27.492915474015756,  4.079304749622807
 0.137857857788386, 18.555329951609419,  5.550948189258611,  4.101595957122655
 3.637342906924930,  5.233240349291807,  3.085316429311068,  4.060267215494028
15.496481048678241,  7.723636824548951, 18.811326725624930,  4.336729414507665
15.915362658834878,  0.452244399989273, 106.982144780084724,  4.049984268372224
 6.545025265325228,  2.320767096976152, 22.686068741481975,  3.983937888651019
 9.049408955269151,  6.594651909212172, 69.121125883158896,  4.138819279121571
 4.478896316946421,  6.167875469673699, 44.773776717443909,  3.909520246923610
12.455407176622000, 15.742263223936408,  0.017705396769933,  4.236022414535985
 7.524341739578968, 13.418777770039934, 100.751274293264657,  3.866136174312703
10.640157547988920, 10.289338514250113, 87.631160488608344,  4.000837906138792
14.709827640973060, 11.605124688148562, 67.818886236875215,  3.788792273162609
 8.292137479262065,  8.263789545232425, 101.092144748568018,  4.086289612690354
10.385023781578482, 17.238236473872657, 94.243942746379631,  3.821807141368385
 1.113680328995774, 10.820524178214720, 21.140267240249187,  4.018325028468293
 3.537951023249494,  5.848087752736203, 95.708302664436999,  4.115705106902673
 1.057518274032078,  2.748555663657551, 115.117809163779853,  3.733852920186794
15.698664983499841, 10.904380579230279, 117.613166096772432,  3.673207500913112
11.965606919982685,  3.657676678246489, 99.319315621990810,  4.178062846638390
 1.334979899207489, 17.222752807816441, 83.212082337863080,  4.003422827796233
13.743530160956560, 11.298501557296765, 80.749784103035964,  3.916031117657883
13.259058585308772,  7.699302557632426, 92.245509172521594,  4.024041131564323
16.030783291889133, 17.163800123512960, 23.942905774953282,  4.109578247471240
 1.160700832863719, 15.660631392302955, 54.817001649660945,  4.163367295156872
12.426475128345860, 11.134279027937076,  6.944274524797561,  3.963786413197503
 4.940992887683842,  3.189324875851620, 114.572571445257509,  4.148482575878837
 0.067546930376372, 14.327203914878007, 73.608252685503288,  4.132704632947699
10.692326666917914,  4.703879323715819,  4.934556637362596,  4.390370287355502
 7.103032800023744, 18.593878918286485, 114.001590488391713,  4.217307661828962
15.020542592166512,  0.117978160895930, 118.988107586522986,  4.099937902039789
 6.347032493387609,  1.070328905683265, 56.704961111187551,  3.772429106471019
18.048689110135804,  7.536804067477716, 104.456484515487688,  3.765515503761039
18.639194424881314, 13.655661099930972, 34.445576192504468,  3.924133766479869
 8.696458994271614, 17.870636913217425, 48.847074090785469,  3.939114527345606
14.071393296357558,  0.980554444159293, 45.781315558952620,  3.941953937742822
12.039864355141921,  8.227997187306352, 99.078753727927605,  4.192882117064025
 5.553100658425495,  5.666654509693654, 63.268218227243288,  3.760869309675513
 8.233190316093424, 12.770078877278211, 72.056125394708332,  3.883622884094566
 3.720279846908657,  3.422883233167124, 50.952369362546115,  3.956358842375324
14.195460412364204,  5.754804119551347, 23.615793540276851,  3.636299089732339
 1.554279442726101,  2.099043928816382, 102.497155348802110,  3.906900803838850
 0.025695071438031,  0.610267435471545, 118.384445985319417,  3.883762200008174
12.143096123617442, 12.838971838631082, 40.882160209463841,  4.013262336039258
 7.634307295062014,  1.839170856822824, 117.270804067529028,  3.841455078656665
10.659092710321758,  7.484890988713901, 63.986057768835884,  4.098864465674570
 4.935195325545887,  5.593086789096697, 29.271544594623425,  3.910557928366411
16.413096021978031, 14.138113897934280, 104.662520963045949,  4.189085926784979
16.403753064950852,  8.785218122695561,  6.829660300290142,  4.551433604376922
 7.907632759154941, 12.950142832082960, 24.081245854300313,  3.904517022306876
 8.132989182510915, 17.896479695878639,  1.173224032975521,  4.355934992743969
18.811617086468001, 17.017820333204551, 43.651276645007151,  3.776234315225994
12.566326930328584,  8.213583644554305, 41.764560490623246,  3.844183080847722
 0.088218661230300, 10.176730788721246, 75.581247956475750,  3.824071567119800
18.886092685356129, 10.799965144276994, 71.530893011568978,  4.000888428067134
 1.296328986352001, 11.665607939991295, 51.951893876387892,  3.872594553590185
 9.377800645402965,  4.182607827763617, 58.008603214775754,  3.755167822471796
 7.305253920895021,  7.505438838043378, 60.508427625675218,  3.729111351358650
14.597383186813289,  1.544024463241798, 96.828489312256707,  4.164610796326666
 0.414859197139981,  4.056947061842735, 31.323189995736413,  3.649218405038022
16.503179304608807, 15.685253112707153, 87.080848643850118,  4.079050176129203
 6.161563820498409,  4.492588872361062, 19.391490062545181,  3.779435502853171
17.544314710120890,  1.593326421344248, 73.107414136972039,  4.161765811511381
 0.550418665318126, 14.180182402311981,  0.287160045695861,  3.724730111415078
12.847039646605646, 13.142026485522461, 115.884673846799757,  4.168089633587891
 8.658955060125678, 16.472996821359200, 22.360980607791529,  3.920516784531197
 5.851288310144647,  6.672970862123684, 56.893898534974113,  4.050105874076508
15.314436515426420, 10.982749868391101, 39.508133418815433,  3.825150363440268
16.713183673486895,  2.679375613202377, 66.221604631307557,  3.942019636677013
11.184908990045248,  0.308494850423827, 117.810304081910957,  3.931447560899818
 2.470061781603633,  8.372813123889397, 101.223067525507659,  3.707832015481669
11.772343845003784, 11.157684725961737,  0.131341788562042,  4.012510341214474
18.169253872029302, 17.310598699836799, 39.829911518077246,  3.952136796103683
10.723425477096052,  3.552788213350613, 70.883305792912381,  3.598084267899791
 3.206469759157208, 13.310260536602081,  9.422152400552744,  3.698997955562848
 0.722615977616597, 18.423767081334958, 29.930987396004749,  4.452645508730765
14.025232507358172,  5.869170188498066, 65.921911845506273,  4.085440049806839
15.314164020351724, 13.603513900307441, 83.725790943841162,  3.981152723812672
16.625862541993332,  9.889893515234100, 91.881059663063155,  3.808916720112043
 2.964770440670071, 13.343170315912639, 13.249521974093811,  3.934222642468778
18.742898145770575, 18.164606239047636, 76.253715117462406,  4.212020681609512
10.049803815945136,  8.091784067255713, 24.464867175054842,  3.939197518684816
10.421003981242807,  5.520009287922796, 117.628545935185841,  4.140185276597871
 7.735732252508037,  9.419541563656276, 113.230056379144685,  3.621412657575592
14.714863665290533,  1.071807995979132, 17.582150131271980,  4.125378281117318
11.074462586307904, 11.078887065101956, 54.825071175085270,  3.796151836459754
16.265036271153161,  3.564702024675095, 43.497080532738892,  3.975810854302635
10.151495449391398, 11.039583077430024, 75.430588357185727,  4.162204970720939
18.038211116523719,  8.816891553640394, 115.303499988592677,  3.794914231405587
10.858500149789462,  8.711448105891710, 82.165124380292497,  4.263682589154312
14.808000154093458,  9.825042981114995, 104.035719700135800,  4.088293728673182
 8.284556488705364, 17.914143062796512, 32.614579557802806,  3.951720332125872
10.527353758065713,  0.594970315675740, 20.203223184241367,  4.451650650858998
17.228822354277192,  1.915162596523404, 100.111455102510149,  4.219928649313566
 2.136919251396805,  6.389772427907461, 115.661013005111101,  3.847017749464988
 2.973301951575060, 17.955696002582801, 40.679390659787970,  4.070174223923691
18.758644703270786, 15.340726614416161,  9.084905212402784,  4.370752223884422
11.685779588670369,  9.110024521490610, 29.748100394677980,  3.813283007426643
 8.072541991315832, 14.512389925165508, 112.408523859628829,  4.000745838123343
 0.747793585149674,  1.091012648983025, 37.773934427243795,  3.775726512189115
 2.665756288601044, 11.883011038710137,  2.860614055071526,  4.300841224127139
10.468008881173583,  4.131152497616828, 23.081425449576450,  4.431533466712064
 2.074531201883003, 10.184689163242370, 34.003359931405718,  4.366414636591712
11.931556494498675,  5.686028319559300, 113.991974308751523,  3.730965100406673
14.564645667256695,  8.725316953668047, 54.186975811697046,  4.236350174595199
 1.839872211197731,  1.423410818109907,  2.478991518543285,  3.752626100297002
 0.251639506287029, 15.151470646183059, 89.918059843105112,  3.977934315267366
18.538420686602443,  2.813681848526462, 49.995649353486705,  4.062161978603094
13.820525171490306,  4.819267384685939, 16.269336967262028,  4.002712318729539
 4.412780797998938,  2.256047682625911, 42.435688987064786,  3.737509784546803
 5.192171809752254,  7.846153971403324, 69.913819303690303,  3.871245496894530
 1.233404923631159,  1.828419189105130, 70.002681714973789,  4.156271214169471
 7.655819781700814,  6.448251785753497,  2.547223348709622,  4.053658100776373
 6.414687352188985,  3.611185665333211, 103.328062549560073,  4.265396167693891
 6.867293606569372,  9.332756311740646, 73.025740725776942,  3.670380371971897
15.668553886381559, 17.797687347309996,  7.520858082497444,  4.102945581280322
14.652781342148975, 18.479320794765364, 80.061938375883102,  4.069649273004831
12.613117792371471, 16.101676212090705, 48.272425756822322,  4.012799172479982
16.500735335354410,  7.032828279203218, 57.483550555613732,  3.997609549285710
17.663336363569201,  2.844753951710933, 84.300348026966063,  4.105349217917003
14.624464196207112,  6.334817633375902, 105.966503897562191,  3.823870905564814
 7.196459399551439,  3.862933253608540, 95.345418186307228,  3.992409499087317
12.281408058758744, 12.949129474159420, 97.941374178948479,  3.963070445197501
 6.498057812100006,  4.135916486664470, 66.996072028634131,  4.044244995253107
15.937037833317300, 15.336758043576239, 61.644593673898136,  4.172706509955048
 8.679453967479265, 12.269148188201138, 115.896087193224076,  4.059745657807099
 9.507648175471548, 16.354111557176019, 105.382283296844534,  4.061314951341598
11.827395291676694, 18.811644506029410, 107.917061091621619,  4.242447917350170
14.624345097520788, 12.809224301517965, 101.237745211833015,  3.943261884258274
12.509806869125999,  8.781440856981618, 45.635664696781738,  3.876980772890098
 8.703666869377159, 15.727575720159463, 83.913183274182032,  4.314787162088273
 1.274813590531073,  7.810058818448825, 46.717811948576788,  3.740380602983245
14.631039640916345,  3.320888851138604, 48.938180570424691,  3.917431799987461
 8.074049545301232,  5.752927955151123, 114.321936275928792,  3.962512969388539
 8.094271098298453, 17.397836062994052, 100.393789040516879,  3.823204468054110
 4.827703237671019,  9.589928145982389, 62.789634815154429,  4.175897216606899
 1.928665296762410, 10.168478355401419, 85.022364604231001,  4.079436099444693
17.021102594252788,  3.475956407521789, 104.194663764485057,  4.428931324490362
 1.299764501684666,  7.195822946031126, 29.207606280137739,  3.961386499491713
15.852550540839625, 13.513110634067779, 71.159294383053549,  4.141882728874192
 0.373665258902030,  7.606730615719608, 93.580059823866932,  4.100744817080987
 5.138156685026066, 11.045385254518475, 106.933946634133150,  3.914587768396150
 5.170716256790600,  8.924480574144850, 91.866077022245634,  4.105373712742525
14.959143309832644,  0.426598299042147, 87.400952925921160,  4.162748318140957
17.788463605823360, 17.218250594252659,  2.000770397565917,  3.978689926543202
 5.632050580036302, 11.550820940264009, 36.715360710002166,  3.830418980471288
18.324097219107152,  4.581750189681631, 39.990926776129470,  4.050262157916283
 4.924059444260501, 16.643577790423166, 20.993378682286949,  3.923937392179190
15.581380405083628,  0.281131655511898, 60.537006461482868,  4.026634043395862
18.745230824893859,  8.012589492763555, 54.195974801595739,  4.134196607300060
18.254783683496683,  4.134076088321147, 35.900231253813288,  4.018345388354816
 3.070548759228720, 18.328923592128074, 64.433107835838342,  3.698098934750757
 4.600270017939620,  5.371712665102160, 100.112699342044721,  3.894124335873453
 1.890454577966438, 15.337388924349463, 93.430106840954153,  3.676897118157110
 2.420210956732220, 10.055892149607688, 59.521848074462532,  3.564540506510941
 7.580663763404673,  8.308132967976118, 13.019333996385987,  3.975518561696383
15.604784302769657, 13.054622453298292, 48.018910891874647,  4.165212277370217
 7.503333607545851,  0.868855232616342, 80.624579472831456,  4.185940221951998
15.468238937842791,  4.637150664269617, 87.294503264801307,  4.092790878799391
16.982636009614996,  2.348735101734877, 90.508403048657044,  4.132010005058872
13.419921207513436,  1.072002523512104, 71.988716993854240,  3.942844192679456
12.650851158695543, 14.228509911052228, 14.665598361626580,  3.782210262471243
12.363306316334507, 15.534655972958506, 23.412408191111631,  3.958717520810749
 5.035091454473265, 15.081934162679557, 17.244672767475482,  4.118002479490289
 5.556109109242240,  2.073841240032643,  1.406770783778726,  3.942324775694869
13.042624931594206, 17.362588435740740, 31.666955754850942,  4.108291018678424
12.690274350176059,  4.763990520563086, 45.012875259176084,  4.150694510705788
10.812217769164775,  3.501235276357841, 37.347016536786001,  4.071967536724673
 6.115392828844015, 10.728181576392270, 58.525706955272639,  3.940159713241921
 3.091646438318220, 14.537362734784940, 100.822771757235017,  3.664524145614439
11.496550469768110,  7.105947537006003, 74.856555596323972,  4.123980752104660
 4.986131131520651, 12.769032454763433, 97.625587247611293,  4.277580856761144
 3.236104139399357,  1.121861752216351, 81.225014786128853,  4.046731394163144
 7.920418835249938,  1.479772856740496, 106.799621398730991,  4.094658456193539
 9.589525003705372, 15.469888059015950, 66.211449899818220,  4.254660472473097
13.997794895336888, 12.478315458696786, 87.433931709949277,  4.021366390876246
18.806409151186934, 11.564838751487224, 94.823258957488861,  4.083312601976637
17.198049438097200,  6.265611170745014, 90.647211028144753,  3.709907211910138
12.270759230289480,  5.955306819505259, 34.459008905330037,  4.016441973968586
 3.229367280124261, 12.795423049997686, 88.419767044189896,  4.172145839677380
16.153001093765337, 12.527407347126369, 14.073996444071616,  4.081851853088076
 4.626983522868044, 10.730849962328568, 66.620822836776682,  3.688609699669167
15.734084613300631,  1.107034800900988,  3.951516281617920,  4.181523695501380
 6.336933772077479,  4.662013926641658,  6.202294424274236,  4.236320607986833
 2.168327238403787, 13.005007789013648, 62.088666433614229,  4.268793396713976
 0.350976182523307, 13.031873260155947, 24.524981778586650,  4.196623505518424
 1.580565338874161, 11.183799000751833, 28.021284712650932,  4.058255341482091
15.748814994050180,  1.647290096126995, 38.854267979492178,  4.063791122493939
 7.084855887745626, 15.791092649568418, 35.888456448206561,  4.119260039187684
 9.762840306084657,  0.856345954626356, 103.154002344898672,  4.100119054524074
10.400976763882557,  2.924001531907240, 27.013809282639453,  3.758546923631002
18.679187172967659,  5.814465001653238, 100.975419752048637,  3.800633714463234
 4.064000236742320, 11.387101644985645, 40.386105076680828,  3.835598744315971
18.144328050543933, 10.820191583626555, 31.180890805972332,  3.913440920582714
 6.389039204292295,  7.796171161731284, 108.815088964747247,  3.984080676883275
 0.480997102185336, 10.431411836969735, 14.191216207819945,  3.877859185431642
 0.511214442362901,  4.231714278311236, 80.364075416126312,  4.063444240763535
14.330180186488040, 15.738298329399909,  3.993483206793492,  4.441635127216466
11.420025007435644, 12.420131158496316, 84.213084841356206,  4.193240131845339
 9.435727463622518, 17.715366162710929, 52.758380607393242,  3.840082145181651
 1.972542260683638,  5.441520812377705, 84.099635969868771,  4.218343383881115
 8.626782215794604, 16.124133011950928, 79.686870639797561,  3.925488618656320
16.412161350790363,  7.511843110056937, 42.508194856717388,  4.104610869088345
11.209447419726244,  1.103215900671773, 59.967514883967425,  4.360526219467064
18.845050456574320, 16.150950697936324, 47.563448238749338,  4.209879636921476
 8.923299165072715, 14.835614148117676, 43.172733088851672,  3.995324588088923
 1.881153442996553, 13.246605312717108, 81.126555002240735,  3.959041413952090
16.928689242895238,  5.018711847282137, 114.980598363711550,  4.060553163267039
 2.528470009590946,  9.216540006089206, 109.504713889491796,  4.244533636828024
 6.165766297833443, 15.827168494413248, 117.078334153030340,  3.923956662743646
15.757757613434565, 18.215780903706847, 110.902058461253773,  3.930611546401689
17.770511400533930, 11.243131671606978, 17.800054225722857,  4.234389684533262
12.795052180721548,  9.472783461439720, 77.661088926140721,  3.384361173931039
 0.214853132017783,  7.346617274697945, 119.116767080220157,  4.260661640134804
 0.493504807620680,  7.242034686209864, 19.520942793545373,  3.913490145565476
 8.598142135951731,  6.398042230549022, 27.824116531278907,  4.125312464314984
 6.332727925285655,  9.063995100677037, 42.786975299838076,  4.004109692398542
 5.644508395545615, 16.216488982627940, 24.828951499436361,  3.800000462571639
 7.328828264276994, 11.758120876128157, 89.549203384659776,  4.176361623923145
 5.663866398628639,  2.736247231111509, 75.185773004107602,  4.133454495084880
12.642264219613500, 10.661339666267716, 17.562764610955657,  4.112805782793983
14.363874410475665, 14.466478679877858, 112.114672648956727,  4.375957469278785
11.499484941055636, 18.177401164675814, 98.425880400609557,  4.060238917125720
 9.150635897614640,  4.147077828843075, 62.180802029120414,  4.065532080588926
14.712280537704322, 12.313827644655174, 94.488765074808313,  4.201039897591380
17.498899987039479,  4.054901789290673, 17.817009456652080,  4.010433968284104
 7.131525903761273,  0.232070646338855, 60.437469681463256,  4.029776573131973
12.504415775232196, 15.116571581394407, 81.199843418160938,  4.141777681033640
 8.801907270180608,  2.926003886466633, 50.607239735495611,  4.059091859200974
 1.466337142118189, 16.740918052124254, 36.038658576293571,  3.742198827610225
16.167261842460352,  9.366620406790556, 99.570846195335392,  4.239353465916254
 7.149355112132133,  8.060021317018199, 65.771126379761554,  3.764641132655679
 4.119629255759738, 13.645693620071167, 84.449650710249159,  4.071671883723359
 6.906941916172481,  5.913562676270127, 24.010415347886397,  3.664243424170698
11.873647428582876,  3.022601980185577, 87.144811324888295,  3.773952140698678
 5.685786802696152, 16.129567751577156, 46.919568120081614,  3.920951360059304
10.452664481150190,  5.814736367065938, 48.190621431155051,  3.898337743950594
 2.462382781739733, 14.910079350213316, 50.267774621500749,  3.782559893973220
17.876296729807276, 17.611774005522420, 18.633885240358779,  4.225017583900375
 9.958457521729180, 16.138386289303270, 115.787614465653775,  4.077310974875795
14.454451152265973, 11.361410340974238,  3.329382932284338,  4.250178274063108
 8.160903175071581, 17.891050862684533, 109.970964762648492,  4.163533693030918
 4.777766904394158, 12.495337791946270, 74.466961371801560,  4.322436989458468
 6.088438489022917,  5.555020831418873, 117.945047476388680,  4.238131709757443
 3.067604338064745, 10.937087337348270, 78.065368433586173,  4.053622406663882
 1.775153451121923,  4.394608587772662, 73.906367028542832,  4.419975706883150
15.563143634839140,  3.415631713026346, 80.749700815936862,  4.164042546763095
16.829588886483855,  0.292141030142785, 11.210103261256322,  3.951776304467503
18.277247172156660, 15.015057353595338, 101.030229581899590,  3.996763862452051
13.146852711782607,  4.021843128652132, 40.906397373893277,  4.082898878996867
 6.213338960904604, 14.681781411429586,  3.511484301621047,  4.164032572598039
 3.574394194098242,  6.840839657033970, 66.415631730703254,  3.858873377477865
 9.424429996777373,  2.905223655042116,  1.396550700841888,  3.939547288039102
 3.102297280703586,  6.004477811054922, 54.033952371133985,  3.811017507153488
 1.833736085984657, 18.581056268536116, 95.518143824957093,  3.972848454322313
15.916772586969701, 13.899300979654161,  0.624814115351208,  3.692549900966775
11.623725926257379,  4.731053012326748, 80.903063567920967,  3.606217496251948
10.546877907886399,  9.592908686618239, 10.348493395768807,  4.375637241800079
15.761760577118135,  7.240328685453930, 10.929469452038580,  4.287427721933322
16.643278440515516,  8.466675369517885, 69.179695312721648,  3.929220422524157
11.982828190342190,  0.018705030852816,  2.542855068197040,  4.044470742156024
 2.347788607516244,  1.478394616262933, 85.205703158180242,  3.985965427116521
 9.013136584505274,  2.581722786578430,  8.098280955232926,  3.436033277843074
 7.396478925687345, 13.338751766208924, 39.754517283533616,  3.963163932723326
 5.502440497326660, 15.222937464467872, 30.584925382768358,  4.355776369394958
17.331782729142450,  0.326019239581066, 93.972411913792328,  3.906457748767996
17.709627859909702, 10.855759126107909, 81.867451432846281,  4.113468514148235
13.048692191717672, 18.412684649758440, 55.347544413845988,  3.714444885978233
10.598139208727588, 15.039864164075063, 34.039341864341921,  3.915124522307278
 5.588284836986239,  8.466102409849666, 79.835096498051740,  3.818842399626666
18.713269847157349,  0.630054357516549, 25.788551541185004,  3.949429788784981
15.713667937853959,  8.357663263552022, 95.498444883271773,  4.190887918847976
 1.421964948367574, 18.547629256281169, 99.499132541891839,  3.983540384475205
18.308193569825992, 11.120774078546956, 111.227990237359009,  4.042958112849725
14.505298032618738, 11.597280212860516, 28.533098025558999,  3.999239563236127
10.308146120178666,  5.146315528687136, 102.833474998458314,  4.107847768736028
 7.945203748394632,  5.945245370774155, 81.506983023999993,  3.834011601807003
13.153379255828916, 16.467531003527636, 70.300824581067204,  4.012791349843424
 0.569237617475642, 18.674748440491321, 110.026770281419275,  4.072509584034166
10.646958961756779,  2.133429279685776, 33.414423314376570,  3.992692998090728
 6.803618187995566, 17.298532366389136, 39.756656013088808,  3.899184934624981
 9.334686859449613,  9.219499411056209, 92.033351175429772,  3.972062500679860
18.174845415490026,  7.243945740928512, 33.171601205856291,  4.149303481913086
 7.478469246645155,  9.454650982027927,  7.798501688951689,  3.518171756419888
 5.728902994095957,  0.596113886010645, 47.749682236718904,  3.287732559743932
10.572086109545211,  8.866526355746391, 104.834501026611392,  4.350365237458914
 0.135054408686731, 18.814887674308135, 66.742904163578032,  3.744431364561775
 9.698203493024169,  6.012975541450956, 40.276156433577285,  3.941050193221184
 0.097311269661485, 15.953385822091104, 64.050016612848438,  3.867631032915010
 6.612127257393991,  7.229781441958060, 16.703127164572500,  3.920647334997999
13.445499543491284,  0.336906209706001, 93.088631504272570,  4.010162542950969
13.392259301279596,  3.724987517444263,  1.456436937024244,  4.141098036431894
 0.808600782854519,  8.183120381800062,  4.064915464080923,  4.228444770049357
16.885845865138464,  4.396284171605624, 69.917468149501772,  4.163376968204428
12.314538961889326, 12.974622041819318, 105.624695511633007,  4.484887209482576
 4.205749314419421,  2.090107643986247, 97.731222800175345,  4.224609507430669
18.458551996428241,  0.395332832431863, 80.589991057304715,  3.766374662383862
 9.839173127962956, 10.923672659805193, 43.617607079326163,  4.068837324845256
16.368651196401125, 18.047447529884256, 83.741540488438460,  4.073215611181134
 1.542993169313015, 10.957954330183567, 117.503705719886213,  4.074423586393417
10.390827677467508,  2.261313869118092, 54.518792685045639,  4.297758713457950
11.015591113629229,  1.904760017495915, 16.026372460882030,  3.942540352823368
14.422733575220166,  7.091550655277992, 117.743769876093751,  4.358255597902405
 7.739313660881369, 18.679122616407962, 15.392729965099933,  4.089597994845250
14.498169089993240,  8.209394949236785, 61.691313819040595,  4.305069278727385
13.860333137792379, 17.053155019506153, 115.522799968520374,  3.930970427436234
 8.024657930141123,  2.798813249633664, 88.500761068789288,  4.316362486487709
11.761116158642769,  0.452814732473116, 39.611485682227276,  3.754889908115691
 5.992788132739277, 16.682890377649340, 54.670909308811325,  4.212085338929787
 3.197892929867499, 13.617009738041466, 57.958511560352648,  4.281601331477014
 4.633449200416662,  0.708182949554135, 93.033749730835837,  3.854021313551712
 5.185164501762634, 16.567865538614491, 81.737738989982120,  4.117617378933646
13.561935971442514,  3.201897271589898, 116.506772747364053,  3.980424939839581
14.838163000804963,  8.663251224294962, 88.589807991025538,  4.055105846732493
11.594091092533423,  1.488994106274934, 78.790077484835550,  3.666418954681989
 6.970483711906302, 15.413890336295202, 58.487468065451722,  4.053744831871176
