BANDS
8 8
NANOPARTICLES
cell(1), 19.079
cell(2), 19.079
cell(3), 119.245
11.370022111788456,  6.307638614167452, 43.087726878301787,  4.052785468760582
 6.704157637449210,  1.375441212474295, 48.574282727489518,  3.806276227841437
10.954761567152890,  4.793296909847407, 69.639900718871587,  3.771157064738890
17.701858015199178,  4.259475767905331, 30.559198953624584,  4.089125385811561
 8.451043433026916,  4.914214419767994, 61.878816614070736,  4.189548544527052
 8.251086041846021,  9.683631510806727, 33.776687639488323,  4.266083696682005
10.817614630918639,  3.494577914423744, 30.048736520448848,  3.634598391526414
 1.477311168669900, 13.008540521272339, 35.827507422355211,  4.002331371093026
 0.883824385870060, 17.323862115317066, 20.754585395867341,  4.022533785397814
15.718293666181994, 12.331659368273030,  5.510821886719541,  4.139213628330329
10.408058259153718, 10.107232525203329, 41.826945429206361,  4.100108836123928
 1.615001831753361,  1.397457839474679, 18.626786686866364,  3.680011511093713
12.677465995489463,  6.630060801387375, 11.775019257949666,  3.806577367229889
 0.102915336737849,  9.493569477174530, 51.204687994567813,  4.493317682879117
 5.682328108353853,  7.525124596746913, 63.844882089923800,  3.668318531625279
15.036648550600299, 10.431865220129874, 23.063024055717808,  3.937840886570917
 3.910254188348630, 11.282118017472204, 50.083317047930805,  4.192371217198446
 1.197242262090916, 11.954950980943584, 46.961495214857067,  4.170179219848485
12.670629008259606,  4.190197933279847, 24.090283047752092,  4.190762315345658
 8.481718347628698,  4.106045982713906, 83.459709628520542,  4.346799353997064
 7.780535470483056, 14.111463109553007, 48.829555850492248,  4.037591914829172
 8.261334315896335, 13.159836269198276, 23.207724611968146,  3.710910291282306
 2.118444336517710, 14.761477324391658, 56.430101580533950,  3.874974081881261
 0.181376739364434, 13.183087319017032, 27.845942252560597,  3.994890696427249
12.779317215055151, 14.702354683218367, 75.984165769889671,  3.670240291909909
 3.297651380032103, 12.022308059519744, 39.202965425306139,  3.907493679374917
17.084646396210101, 15.097482752384536, 11.117712494133308,  3.737609973749754
15.406366438575708,  9.167254612521557, 58.070120006315967,  4.029981554280739
13.771237433217415, 13.017335881980216, 68.438827894926717,  3.917252984584186
 4.948416474843489, 14.982791855070051, 91.406121826062019,  3.848072246567786
 6.764111123838536,  2.439913325173646, 44.739086083331280,  3.808932625618916
 3.089544037556473,  2.712528401447349, 67.167092121588297,  3.805563144584120
 1.684887875621102, 11.709328828131818, 21.417050481931014,  4.058853687528411
17.531079887390714,  5.147955230819237,  6.009454375837962,  3.867043740692095
 0.208580171233057, 17.701794249480205, 65.872211234620892,  4.107622340400893
 4.742495731168536,  2.311606862711263, 56.046785180592394,  4.233178695457330
17.337882462112752,  9.683196218571450, 85.150874510442989,  4.213553368859937
 8.862521217419996,  0.693746446205522, 117.948299091755430,  4.103617850899985
14.417442995165674,  4.331492166203316, 28.035685837894039,  3.970072834819913
15.068662704730002,  3.698791601583634, 78.354743242305233,  4.276089287752258
 5.481017306898456, 16.130570426926166, 84.977289095811471,  4.074956492772675
17.301385867574414, 10.040523540931080, 19.448058272186465,  4.577390699663287
 3.055080085787945,  1.812366772605178, 43.210046143946279,  4.242234648905615
 0.066626244394809, 14.741943501453310,  5.173701731316103,  3.823504395697969
 4.365717545247021, 14.880741011484991, 33.916938346808806,  3.633666851125251
 9.651722479274996,  4.415005681361447, 52.980060133644834,  3.711826170753099
 1.941969263992416,  3.432579101838068, 117.318503296722099,  4.367058332783524
 5.512877932258967,  0.182937663181017, 70.061019816553227,  3.862435190789874
18.726587760706611,  6.571974734932944, 26.980596407778037,  4.083525735862374
 9.353671092285921, 10.519004740059323, 116.463112886442502,  4.185150536629591
14.515133719512548,  3.848865715389649, 49.524380640405091,  3.988643297812359
 7.281831982002431, 16.057115741396270, 71.174784075934923,  3.771819710663302
 0.533218853432657, 10.262070243818208, 96.888204126225205,  4.177835594930424
18.914383819697619,  5.322332244571357,  9.657570986630606,  3.893273421067715
 6.511538521006635, 13.892954536156200, 81.860167793754556,  3.555376109310726
 1.040714180983183,  6.158167318252155,  1.043924893323394,  3.881354426685506
 6.090175578782228, 13.290744453766949, 30.379942649072859,  3.678889188514654
14.110734504192170, 14.205022437333810,  2.379150003749151,  3.809160563107845
12.697850968470229,  7.193194345842469, 72.496944637379883,  4.185518439804035
 8.546721893716132,  0.716107378264755, 112.326716482863816,  4.260167844329694
 1.659622421193142,  9.292258719126435, 116.369702528286467,  3.786573594424715
10.058400442566807, 13.642746100579407, 62.271822967581720,  4.190328309139652
 6.231129153602865, 14.661909064559655, 43.399985925020971,  3.870177189093962
12.227020419778560,  6.602876560029716, 77.174332892782544,  3.988714203752114
 5.471088245613632,  1.592006404891465, 86.807124851044421,  4.107622877894949
16.954260681303673,  4.721805516301123, 46.465342335711121,  4.019336855793313
 7.998044739810739,  0.078261140978489, 94.265574482152715,  4.421600626492835
 4.213160569143694, 18.872464494203712, 33.908233371181829,  4.277185815483568
 0.579116793977948, 16.010658319523351, 108.414810717454515,  4.029027402691636
 0.783006045926414, 16.722514229376667, 47.528062617422989,  4.341251080781309
 9.639052890513533,  1.212250362180631, 108.253495365598553,  4.110860070825609
14.392263708826023,  6.387684613924824, 116.623598723368190,  3.991155271840916
 1.282923911687698, 10.942240024749355, 87.813766700568593,  4.125430942191824
 5.442972492311028, 11.124116545980106, 19.861698967583429,  4.148021927517277
 2.275080639997872, 11.857560904934086, 100.399593284007906,  4.262475067671255
16.540024812424758, 13.754838235345025, 84.846151432013116,  4.045601630355834
 8.936164663195004,  5.776762997034359, 57.798850454505875,  3.985247729041614
10.175043295866361,  9.883934366335504, 87.843496206339793,  3.959320588917295
13.893782710182867,  8.640207801328222,  5.236999382173956,  4.109786180647875
 3.981732699356360, 17.405708693203103, 88.567790614751445,  3.844780574875922
 3.690296869123869,  4.651884342951803,  9.939275207661391,  3.931784285232276
 1.303000101292296,  1.928250740648795, 63.917921398542632,  3.674698223795640
15.928872059746745, 11.486791838648559, 48.307700705321892,  4.013029372266561
11.562976710064332, 15.982344815464536, 46.659157841088621,  3.644145129559285
 9.519920818662412,  8.569821334568280, 14.353989945738158,  4.286995406370917
 3.535229145023100, 16.517510451412601, 72.311512077857799,  3.927340809593398
 7.866905916455602,  6.359820829048539, 86.842612565576658,  3.694435237222295
 7.221676046375290, 12.382634500984929, 102.258904183926575,  3.700090192394343
 2.182973902939650,  8.392632780037065, 10.299127546781200,  3.896881497450292
12.076332020528190,  7.741208524100448, 56.200373289275632,  4.040737170911307
10.882566030312118,  5.978433724396768, 27.203163477339480,  3.815576517180947
14.190886619577018,  7.729680593001393, 45.935181641629434,  4.080316754860402
17.431755960088037,  0.989135806664971, 85.169327475317161,  3.977909679393793
17.685986464574057,  8.331230208819427,  3.469291387440482,  4.170516769173276
 2.233355734006425,  9.107821273092396, 18.428616189166561,  3.900525826587933
13.639521117274066,  4.898013850074125, 97.152743737962226,  4.025021948450950
 9.380702706979537, 12.929587426154153, 108.796748419042032,  4.305210112410340
 4.125879943201340,  0.001207576165186, 46.418929747322352,  3.408416241042030
 7.197524091791566, 14.534815604700885, 65.168149636654420,  4.102212358671949
15.379997331142286, 15.160441170108172, 106.274102146480345,  3.995884348370919
 8.048054664274485, 13.369900112536877, 12.431722668419072,  4.230617440617433
 7.229378241902677, 11.741656918758041, 94.172664362361175,  4.056633779769783
13.643397485183407,  7.584642621790457, 91.450131734056626,  3.762746747646235
 6.507766830723238,  7.586677312396295, 91.126443524757761,  4.046434114161256
 3.074105696819122,  3.923255876296977, 77.054504792939426,  4.115800576232130
 5.466162127023383, 15.058834389067535, 117.881507587345581,  3.813775779351877
 0.962517693195367, 18.775318800460603, 40.355198324410694,  3.935561622441383
 2.455029152629259,  0.761626355266844, 49.783892993967939,  3.971637784578905
 4.536630111886860, 11.215875370551784, 11.937231636900350,  3.955400670392127
 9.500885900271021,  4.779648242729310,  0.144961239124493,  4.220351022118014
14.689768412739697, 12.445694760912469, 16.746971336304238,  3.788036374563385
 4.778989098364708,  8.524421207653756, 40.013108279553443,  3.772029480769381
 5.426662318370719, 15.604589409101569, 39.582150691503294,  3.969733327172721
12.759504666883492, 18.411005622275859, 79.875456552684597,  3.952792458779537
 9.745707027855445,  5.918821963880120, 21.923494944822210,  3.772633879494876
 1.513321171189496,  4.860177735722838, 24.039384319800710,  3.646218304582380
16.714505243046933, 13.147975680705146, 88.814854726365112,  3.967172194913281
17.072806040209390,  2.285352741694654, 96.806701665495211,  4.439703585308421
 8.071241210363928, 16.030498696218931, 59.544104802407773,  4.040757274858052
18.629533151957002, 19.066832444992819, 30.293232121609751,  4.342365679680269
 3.989412992682553, 14.445980949436910, 106.841627562068595,  3.971754290165413
11.579443991939408,  6.691037365645157, 49.019783719493773,  4.224644811372620
18.148827314897090, 12.228782434872087,  2.075799292614966,  3.973137494255845
13.999445409857726, 15.891727312214130, 86.922760634744066,  3.759382862954102
 0.501378955724827,  5.133117335705361, 36.890687503796855,  4.099178215459042
 5.345163611093266,  7.177201476355933, 12.643913155235756,  4.103517474918227
 1.708424850349309, 15.742817754141006, 98.510835717044657,  4.424996992498092
17.025867876670258,  2.006082847059414, 100.974197287617613,  3.840426299065836
 2.880373056791667,  3.243986314478730, 39.449906911766398,  3.751202772620206
13.133047766908684, 12.690622802767496, 59.481989128045505,  4.300530927294615
12.895651981100631, 16.733835181437939, 99.416262821810761,  3.456671069733889
 0.964051769077087,  4.965120516119214, 69.649135914263766,  4.020595203866962
 2.929382153625084, 12.086446144306795, 82.081403167325774,  4.143344250954229
15.347916292208591, 12.213033263637019, 12.640137791176597,  3.603136064793611
 5.159020266298113,  2.186012448553271, 17.477561315812398,  3.767894095993026
15.505253251713729,  3.438468664968555, 104.480726228594875,  4.067568357896874
 8.743269822693904, 13.980441657755309, 33.281683316904505,  4.262559871170572
 7.986992680287538,  1.037929824236444, 28.256746905532985,  3.790465687261098
 8.312492713138314, 18.887754448382765, 73.719596673574060,  4.114110350428756
 4.912799595758149,  0.229591850383923, 38.170868673607522,  3.942827685217482
 9.103274998083336,  9.043918925399691, 77.850538806926494,  4.005022308386113
15.127413781365163, 18.636568471937746, 76.460649130499505,  3.905151308974069
10.493689741710554,  8.400487474294941, 68.104500811837582,  4.112691006648660
16.082873413598620, 16.046071412811649,  7.364686597318851,  4.041611245922264
 8.676147499133705, 15.881023083620185, 91.821335781673426,  3.834671780776357
18.313435731210756,  8.052798200109160, 67.719477319000532,  4.032599951316925
 6.552294590496006,  5.652093918237441, 54.705850947410248,  3.711643926195649
 6.838779988305229, 17.817986644528009, 62.854496369973788,  3.834184051576487
17.503048860324473, 10.169330681811502, 100.646167886843060,  4.122105080096370
 1.605265752592897,  5.426996375051677, 44.385162679452797,  3.890078258978396
 8.313328017235422, 12.700939536982876,  0.581596173003237,  4.036146682474764
18.356046233184806, 13.414947691136071, 81.299666063057828,  3.724391628176093
12.154050095146214, 18.810630033327552, 19.062684637024670,  4.053868336441204
 0.965520545338575, 12.967559491232370, 110.740197466074349,  3.663140049923235
13.355205603736580, 17.693282510658690, 24.895347417468574,  3.571913689915086
 3.731532423881082,  5.386505146917784, 93.230737882018957,  4.174114414532919
 9.579005859735684, 11.275997723758547, 112.495900969817100,  3.779941641703117
 2.918430290003981,  4.488508793643136, 107.455032865757900,  4.301353197930450
 6.647871810856906,  2.026241261827096,  9.143162928244809,  4.116053452146408
17.631646690542130,  9.430049352243486, 11.434702712573641,  3.878630412215231
 9.526326745172758, 17.178141930601221, 25.923213938399901,  4.189017568295851
16.196426006599442,  2.647692246134606,  2.869109853498935,  3.716722625509801
14.460270140004230, 17.951299232387967, 11.335664094701139,  3.800176720016420
 5.995949372071023, 15.923754076981162, 22.572803551457092,  3.510989166362214
18.294346118479108, 16.800523034303044, 83.031451471294389,  3.840241700130597
11.396847433381060, 17.374522430353405, 61.414071066198524,  3.756340467096562
13.816383123363764,  3.967894053316051, 89.662909886544568,  4.202181092083504
 1.367230472349739, 16.392163838171893, 104.752261988331043,  3.456227211049742
11.304263513553231, 16.014464796581979, 102.742830332043340,  3.990695153320344
 6.488478603957474, 16.018654862632271,  2.382372362759141,  4.178766072959061
14.932105841451538, 16.151595050587879, 17.833527341262641,  3.936196746402734
18.211737814557697,  3.000852788504148, 16.089970988868981,  4.070328830946660
 7.807691742534769, 10.144372088280106, 29.499435219958450,  3.701118364789268
 7.634492920269146,  7.064901103230350, 115.806465022595674,  3.603320758877001
 2.924296070999925, 16.468881202993686, 81.931684100934319,  3.900931842803850
 7.101873783951729, 16.631914662662918, 36.047746136157109,  4.066967778337239
 1.042549742830164, 12.100010823314028, 78.170444270603269,  3.871685944379245
10.885508645359529,  8.803921584237195, 109.748555027587869,  4.013827232960244
 6.972754636144519,  5.368526637635250, 109.011073788784159,  4.137999012554351
 7.653339170929315,  1.018966843251111,  2.708631896148255,  4.184831182964441
 4.928677902011344, 16.507131659360947, 95.782056166666123,  4.112648294703137
 5.333365405047132,  3.498793090997192, 96.539231543388595,  3.728035427534619
14.422604024711809, 18.041115962928220,  3.768566343566527,  4.343086692538728
18.681840925809468,  8.535665540035644,  7.476053295408418,  3.696253561607596
 9.743612503271674,  2.683707732612207, 42.223770064947850,  3.974636956463767
 9.238961262983990, 13.037020940831525, 45.199057389876138,  3.840252072121851
 0.316912772082368, 16.249554349147125, 78.395738397420203,  4.413322662380385
 4.674840015460244,  8.507693155786782, 69.170321483571129,  3.739774194984199
10.860574127264339,  3.142667476433402, 104.132860427689153,  4.043713412739048
14.885215683600354, 11.812827713720532, 103.313349568218641,  4.004667618020834
 9.096707068833881, 18.796698501354012, 39.153891481487598,  4.458410151086581
15.904814391878613, 11.308455129849154, 77.422950830029578,  3.915530587884725
 1.308467767380544, 12.997065465864249, 117.728192117352719,  4.011395227297776
 8.089828806488578, 13.357758520173427,  5.203637445845885,  4.164582928740115
 8.836607304854907,  2.413591221574047, 55.995975404352627,  3.640712071842000
16.906043137813416,  5.543488264871974, 64.977120490228245,  3.898491915529967
 8.783966043778840,  3.350587273248912, 25.241762190373670,  3.956814007742110
 9.299934504360749,  1.346842147304023, 12.472445915947970,  4.186439201119846
11.744160767604152, 13.709581991319657, 114.913525918201088,  4.108634300269660
 9.347135743354452, 10.834158158086842, 18.425621101481891,  4.191265523009124
18.759675377093259, 18.241404683965598,  9.203571916595418,  3.770043985199800
 3.886192035488008,  3.723494355482824, 47.169460488076439,  4.009022144500339
14.166881123631672, 14.180195592364383, 72.254337488216095,  4.094762085102429
16.972720994986314,  2.644572765472624, 34.451111524322911,  4.320019859360963
12.911871778163899,  1.555115837187608, 71.087795861417376,  4.181717227961131
 2.134737731255778,  9.158735889144653, 14.430273472705583,  4.013687904885221
10.926015433069155, 11.034362584905860, 102.216424246160841,  4.177020677468479
17.307293616244319,  9.936284585276320, 110.187337731437211,  3.807739494113939
13.383317006369349, 11.201795557430888, 89.914918288056526,  4.015400008639081
 5.805527579167877, 16.492702089633863, 17.448662837589069,  3.352030070028148
 1.007239985888170,  4.431896469792236, 56.999703672851027,  4.200379869268300
 6.735616720094301,  8.024712937818194, 60.084850722334977,  3.725009562132561
 6.554797851788822,  6.942550440648121, 19.517439420123072,  4.196762679114369
 5.295765491041647, 17.882667124402531, 26.720827660498014,  3.704623896158161
17.649336179909394, 10.673400756450860, 15.109457585237417,  3.813148012011348
16.429779359644201, 17.730807814208074, 98.769913432932128,  3.907076991855028
 0.241346543604715,  5.438281283461115, 95.273372782498598,  3.795925267727593
 6.802450268441715,  9.291175511199485, 43.123071776762181,  3.618522653467812
16.690924160706068, 11.214356405826067, 61.680849902201466,  4.253130563283188
 6.350091622828068,  1.374043260325840, 77.065697339506173,  4.140008998080292
 2.758889260884102, 16.708320825975044, 43.569889955656194,  4.131443709231065
 1.591713556442488,  6.553254860680008, 40.690965284238793,  3.767662763142313
15.987764680856946, 17.957310004944013, 72.494701470019621,  4.078596023379602
 3.229936889882145,  8.868521158197485, 43.968304866209415,  3.662041476175503
 9.871226271661429, 18.661125541365287,  8.810954870124331,  3.978430257627632
 2.944388816514278, 17.670537771095699, 62.714719024696876,  3.908429224569943
 9.030896208500987, 18.698269098516565, 104.582106046126725,  3.935905372539018
 0.761149012642377,  9.928933541560991, 25.063842466464827,  3.898697195300409
 3.939028665509916,  4.849960125495269, 103.313358394651132,  4.146631687960673
 5.149821753864934, 11.097277070730373, 117.719888798711892,  4.130380875735034
11.287092518130496, 16.138745318339279, 65.504673085827633,  4.329577820673515
13.284792705127584,  1.017205306044495, 43.085934035482609,  3.814456110481630
13.160802361492120,  9.700004189197811, 18.890278012907867,  3.798593567257617
14.655812778353978,  0.242512996661854, 55.631470520077386,  4.036111373239406
 7.164273320804016, 17.189988384088963, 115.245306171835011,  3.731891586294538
16.144772267524509,  0.091592377294325, 119.125521749812620,  4.103965517824474
17.673877168187786, 14.675441254387957, 15.249328331296386,  4.113595226258914
13.801256934029869, 15.055131023710764, 90.734829232379866,  3.900611307713084
 2.078098744262750,  1.821034222251825, 94.959631775838162,  4.166224299960303
14.455545573550873,  7.272100411576282, 110.528647396650896,  3.891922575500899
17.257654246022316, 13.976186437080518, 99.489269451805768,  3.660565635509157
14.442972053359796,  3.756302233414023, 74.213139477566457,  4.049116729040287
12.282474418363849, 18.889439339871082, 14.831731905559050,  3.959614736214915
 1.267626402608122,  1.057423974933190, 36.603803061636860,  4.066095794309454
 7.479317267799566, 16.639120536959108, 101.647974280403844,  3.873455767257945
 5.257204889096800,  2.455185967678201, 63.300167522156912,  4.266533597758650
 9.531474264105610,  1.990327193368072, 87.236602929231836,  4.079177239747231
 4.777934002182963,  9.568522898401822,  7.432674425215524,  4.162504931116527
14.467455828784930,  1.286099322095256, 60.570957610872206,  4.044687899594321
 4.383039506121632, 11.303738065489974, 75.920691438024988,  4.239499049214069
 7.862292740510659,  6.835174739150221, 70.608241084384616,  3.761305625475239
 6.998222435353577,  3.358037228415756, 39.437561536021960,  3.923649621867975
16.150650345979280,  6.488489189911316, 107.166477579265731,  3.740053957225649
 1.988889202585047, 12.705892927441912, 16.608836462296214,  4.164662634846760
18.192596111436604,  2.828510031466669, 107.447101755650962,  4.000477159239006
12.403815414248671,  3.459516417135728, 55.915210577440639,  3.737908178942575
17.668293682297239, 12.738603452811459, 113.798659248977572,  4.082570052133649
10.923599000832768,  2.757801599234988, 59.462335896893684,  3.896210335897128
16.272474691066108, 12.510270219582404, 117.669735359536261,  4.146382052796759
 7.916819239006327, 10.033553779534280, 49.533712928234323,  4.124579328400398
 6.464290715378902, 15.035048990181936, 74.918559783427483,  4.146012069049946
13.643306363757818,  5.465428029400373, 32.317853228835460,  4.280162279172206
 9.863456552557260,  9.505933374122900, 105.900669601189364,  4.045250585873038
 9.199512246000950, 15.535353823576608, 112.219295387351011,  4.130080644311346
 3.836787820278052, 11.199347181890580, 27.782751936751474,  4.261586521375630
17.896228853767219,  4.731118942435633, 114.585999592195719,  4.172128406352020
 4.716656425659135,  8.008027200794391, 30.081054333367099,  3.713758693077070
18.949095426386624, 17.773156576073653, 101.715663936433828,  3.836739063189254
 0.199523493860579,  2.038345922219368, 81.708684408178257,  4.135015028041214
 7.292705047971056, 19.072259638393358, 90.076037624065279,  3.943285575098756
16.305356194451722,  2.704422835022242, 53.058418300240575,  3.773882399251290
11.390996025880888,  4.396094210847587, 14.824687148745262,  4.139584612788568
 3.205380015165695, 14.562867011283283, 65.126898959141698,  3.855325011301234
10.894815273220047, 16.576001529276258, 107.329201580570071,  3.891287027137443
17.341114235937862,  1.874065695765995, 89.125040669179015,  4.065432792756321
12.182810119358056, 17.923269920437605, 73.974711356866493,  3.832478552288928
10.284478475245914,  2.736942078063217, 49.543412003007305,  4.036177824102325
 5.669588176206282,  8.545130810118616, 102.499983154374675,  4.114864984167712
18.060188848025117,  4.935822680003320, 75.333041126565419,  3.833157697331220
13.152856982316164, 13.765683017142058, 25.016927170852139,  4.167012794450569
 2.250148929289912, 17.886636322043032,  6.324875011789666,  3.883903033761892
 3.522728412989560, 10.612888819377401, 64.953748160007493,  4.026616364132641
 2.065525521441870,  9.972934011255232,  0.905585867615341,  3.871872325758694
14.725386787117616, 16.258865829937463, 113.351343042787107,  4.331523078945421
15.550510345668927,  4.719537775810550, 93.494164785630517,  4.235917162708153
 2.397817225507958, 10.420932402441993, 104.546234013707291,  4.407788273251635
 3.104045563659338,  0.575242584566662, 79.327708334468142,  3.907836321949739
 6.097110606089080,  5.575454573609247, 23.376502274291781,  3.948184063764130
12.570658577608228,  9.425344633020309, 27.923950808177938,  3.880543809059412
10.226274962993546,  0.148988590514929, 100.554203336486609,  3.898079533924935
 0.690631669794733, 17.323238798987170, 12.889812543736985,  4.054245309204481
18.658107326146016, 13.791729934119695, 50.490883335957214,  4.281131222383745
17.857124482488054,  1.110317500277810, 58.027592118664245,  4.058102370307032
18.804606109919895, 14.416066286409409, 72.117945693550283,  3.826074561665588
18.482304861651915, 10.174395225364579, 34.222773841374114,  3.672324239491736
 1.384976894531026, 11.142581234829059, 58.280381989827966,  4.024102631334816
11.012951894977144, 11.218960172493325, 31.044059661299578,  3.491457400755555
15.270409159807489,  0.292577069189984, 68.233329554722857,  3.580697817250504
17.006458385184587, 17.322614199245372, 23.538044159740831,  4.085459369907962
 6.026495484621864, 14.711461584613815, 56.266824798337993,  3.939956643034120
 0.238679033945363, 17.339401081847001, 74.476586950485810,  3.721939658950668
10.369979455406140, 18.298446313233043,  4.968974667105551,  3.535031430772740
 5.413936109287359, 13.635931714864491, 68.719523993393139,  4.035270710549214
14.523158888828661,  7.104155182897368, 83.304996654465199,  4.243103450247883
 3.713909401597585,  0.872623574587548, 29.704046911778466,  4.158038793144156
15.311585691257436, 17.764840316930716, 34.172371823234130,  4.262010735536633
15.751496034276524, 15.765466713356860, 47.745903022940652,  4.107466583276968
15.132160554948163, 11.075295118940364, 81.821626687458590,  4.238649031020667
 1.621079058115315,  2.666775720979173, 32.673813891708228,  3.845055260418827
 6.265997452394515,  2.118245732267348, 106.168637652449590,  4.008919345238043
 5.234399704927742, 10.953259380303274, 23.889301926925928,  3.797183685312114
14.070218142278176, 14.659424182039398, 37.841423369310917,  4.324302530650783
13.062225112893019, 14.335248856818191, 83.053738376248390,  3.820891850881522
14.020409630072383,  3.929106338613896, 113.328439088740097,  4.112047935112519
 0.619796014934551,  9.366632015070600, 29.968690219930856,  4.285943831966925
 9.499506279053739,  8.307148332812210, 64.131079404659076,  4.048353870382422
12.080303897557785, 12.559415336161800, 118.772991956030367,  3.741948699298060
13.154934491325990, 14.633432296246413, 96.242726902221762,  4.070809165995137
 9.844655583837650, 16.554128703034724, 43.149586970086204,  4.245433425518091
11.491762640213512,  0.903197251667145, 83.525033340832920,  3.983692349232256
15.622712737500690,  7.769905393198250, 79.312748850501961,  4.106550256871314
 4.514298053372117,  4.078228551945189, 35.833472358908516,  4.086705655925842
 9.485261105619523, 17.663857488893431, 49.440421394211810,  3.882103459167608
 7.203552876529648, 17.150700077929123, 46.235295421000522,  3.847800256353962
14.666324332079411, 17.742736634948944, 83.642031124953462,  3.720935473986861
 2.420064170504278, 15.060185963470252,  1.921744047382931,  4.222823215758664
15.407484917400303, 10.705172597401175, 65.644110852258621,  3.972735755936643
 0.927012634274321, 18.429539074912999, 90.583184151151485,  3.719090618313146
 0.531869190326602,  1.736709454869492, 46.431552445997980,  3.906208153722807
 9.394971744822863,  4.897663672841871, 46.177916544746580,  3.787885736262238
11.880709636083314, 10.614557458896579, 11.424991521824452,  4.159074921125514
17.934505747085577,  2.759402308071684, 42.870570132657583,  4.100140431257428
18.900008437183672,  5.288329202234382, 79.203985229955364,  4.084408341669475
 9.525472357089596, 14.688485833478268,  8.813192185622361,  3.957496146470511
 5.653890155930695,  3.034931008997342, 12.884997788181970,  3.839320707679999
 9.927601859554636, 13.688315217154175, 56.719792057467920,  4.164126799530179
 5.506560001128139,  3.639338785094949, 80.397832645594505,  4.073974825882238
 6.979935040694158,  5.985568403102278,  7.831957843985685,  4.178589634105308
15.278290499348564,  7.097363645305146,  8.813205892388879,  4.112609665832760
 5.941798730897144,  9.668095435252145, 87.697876319721431,  3.952910406016066
11.361718684736287, 17.320181322580687, 35.694324923539597,  4.232185297804975
 6.278093229343044, 18.476058211353354, 42.341870832656390,  3.995500743159535
12.781396609238604, 10.109353910253251, 62.671496058185802,  3.933207721818502
18.089770184731133,  5.571788210850421, 110.502236972676627,  4.118033921663930
15.775147438281339,  1.052663254342601, 45.927166579061158,  3.710111199081769
17.925518472600800, 14.362468597059987, 44.589859407512527,  4.028854955725507
 7.949962158492618,  9.468218505442882, 10.229762322675608,  4.284661819228000
15.370973761232991, 17.216566307337523, 52.182603138674054,  4.094774253776431
19.037357771467242, 12.426021384983201, 65.738772875220420,  4.000746851804324
13.728109888591060, 15.326089702761857, 56.193794793324372,  4.172436268965495
 4.761811481866081,  2.820634935693107, 25.956671629694622,  4.036640987327776
 1.218475584477825,  8.163972251156400, 76.524279259625970,  4.127164375570354
16.817470485674832,  6.456754161121766, 71.838944711420055,  4.155924706680432
13.658153235125429,  0.148075259270604,  7.741748889936893,  3.968440808891434
 2.914874139794109, 18.934866787356615, 23.842276683714221,  4.026639559436048
14.629993805335971,  4.437282171053845, 68.139416651256667,  4.198087347183544
 7.521427567271478, 15.938884457526251, 52.639311709859165,  4.017884269110596
 1.471727807514634,  8.942127737948258, 37.509242565537356,  3.734049754171334
 3.730209998069265, 14.743141362740809, 19.906759622995413,  3.846187341299549
11.928247250749642,  8.649971488911566, 80.602662683919277,  3.836017808206916
17.808078746066482,  7.342519878951209, 22.801738846378662,  3.988019257875331
14.941927379860719, 13.130027702979751, 52.501066896063165,  4.138024356538019
13.490912494080238,  7.600929266852659, 87.394200103641722,  4.072847018378413
 9.495401910923560, 10.671324305982656, 59.448626358708523,  3.989519340520125
16.685477310407670,  6.199298735990002, 101.707937723821445,  3.958737531549215
17.464593258266532, 15.742575907119411, 91.776036366255155,  3.817041473697172
 6.818354732031040, 11.034486197665478, 62.602338702424902,  4.093856028360746
 7.459791784295102, 10.776826830103932, 70.736360623461721,  3.976123216263301
11.619293385831703,  7.571604469083975, 35.398512491324794,  3.882904723629307
18.527069239394795, 12.333239365800051, 54.528813729038440,  4.250839650505864
 2.506859129077482,  6.277022067734360, 53.071251734569351,  4.348291284634425
16.288377165103270, 18.159089472277316, 109.127256977550502,  4.081077398390996
14.358684109415512,  0.267779901631014, 91.316315305431118,  3.869006122482883
11.619583965732836,  3.213551508654928,  9.499054925695146,  4.155177139062046
 4.222467861911523, 14.615250017745813, 46.738670242552011,  3.866596324659116
 6.919714532392764,  9.588911640841079, 109.462359163122215,  4.047584394807664
14.588531591300510,  1.496137782873828, 31.037935537332942,  4.266138173988455
15.369400210911680, 10.386249909787578, 72.602493177774676,  3.848594410763444
 3.704139504618349,  7.194485393709829, 110.796412786957731,  4.140263379050177
 3.811866894339904, 18.686100900195598, 101.730531250414600,  4.221532950777340
16.503226586926637, 15.466468604928219, 30.942130345316052,  4.013957006747218
 1.904989705780112,  8.137793342581396, 90.603842192152115,  3.871393922079863
11.534665708029046, 11.088351446298896, 71.254838328133744,  4.188321366168587
11.062267756019327,  6.652558323822368,  3.308342943836609,  3.696570377563625
 0.313771613887413, 16.496575561277947, 59.702982950964369,  4.348540943205563
 2.359613044124797,  1.775547403809241, 60.068255217309428,  4.103399059000689
 9.511239160706241,  2.922199646655752, 97.623446933465331,  4.284605285215824
19.047439364161352, 16.310538239979003, 112.363678169302403,  3.968807144424817
 5.035070299433672,  8.176143250603440, 36.103126675073774,  4.051706245437414
 8.523634695970197,  4.928996930166125, 77.673438748442308,  4.134399748523928
 8.901821602737350,  7.416251430367206, 74.277599162861520,  3.842340936075301
11.794517606127240,  1.388455196081236, 26.978927147859984,  4.007265174185693
 3.885715778977675,  3.177477987487099, 99.838070508791091,  3.414841620815435
16.365745270799685, 14.156648181042254, 110.071042285736610,  4.102054755556336
11.153839435914454, 17.731215126699599, 89.162447920616117,  4.205650876732838
13.430264021653153,  8.732597412654593, 99.574364884652226,  4.262211979061757
 7.376100391726162,  5.253233443589331, 15.809082954556576,  4.111577759380124
13.399239788614651,  8.591929553412140, 95.285588049214624,  4.099692111010175
 7.765442539692900,  8.295652130300931, 25.996280594999234,  4.204401266758481
12.685437188257861, 17.396585079468451, 40.478974582007680,  3.685641454321090
15.155030433747072, 16.307588779886824, 60.489104510004488,  4.155954831221315
 6.584091427582070, 13.103180452414778, 16.343067904011622,  3.762403583412284
15.091371421504364, 15.150281175483302, 79.410011599027825,  4.084032812609244
 8.472477543528610,  9.146165505388039,  5.295633027206894,  4.160264965072547
 8.053692045155543,  1.857286966836634, 35.732542136461817,  3.860384490275631
 4.216878317234137, 18.625540958665955, 92.455379002717990,  3.837742380932361
16.622678503748208, 14.756856039007426, 75.539122968008343,  3.992712707354046
 6.520741548784361, 19.004972562485925, 98.607485140524417,  4.037143490842202
10.644194919670271, 16.592035355839094, 12.085175816947466,  3.901097976922419
 8.292113703452065,  6.896746207996987, 40.597502435400379,  3.929922659833633
12.362965942924394,  3.683022982467955, 19.985759702363929,  4.051891001241750
10.479868240579526, 15.499971097811580,  2.548910726538698,  3.804225624433375
 3.623725782950578, 19.008153600489944,  2.741942006797056,  4.098507595727182
11.618895396621854,  7.449526172204981, 60.083003453946660,  3.794969795681570
13.059260446243417,  2.746504578090680, 118.177006374865542,  4.228748931039113
17.307109640212229,  8.581559395661078, 93.778312306605287,  4.229028463413838
 3.966659142387539, 14.375592528416758,  5.695926195439002,  4.031953850978067
10.593850866588671, 11.338385026530046, 96.581910361168582,  4.068369639978624
16.135733059320437,  7.350809690295016, 49.330478745275805,  3.722214275142437
14.912178529607013,  7.269032256673605, 25.434242893270930,  3.792813132956411
 9.806058567512896, 14.594152277133984, 29.243509240135729,  4.081158523457721
14.598430181476173,  3.458271995277621, 109.265717234603414,  4.147782824670301
13.437980456255156,  0.502173021790599, 106.529838872884326,  4.131733012852514
14.344130687348740,  0.248865002750791, 37.741249909146880,  3.737742342522793
16.434854501021540, 13.505236383059140, 34.514990178882812,  4.137392215397668
 4.523276084245359,  1.026222375899740, 114.350580470457558,  4.224835836676622
 8.397985444010034, 11.323654792777445, 74.612425290934567,  4.032638323255388
18.719149785996215, 12.422922446480255,  8.521835215180031,  4.303281563663383
 7.597131859493530,  4.185031930528012, 93.569376919538698,  3.852139942315077
13.196585095065858, 11.704892798275031, 44.815457122414976,  4.363255527276706
10.562418781770608,  1.064988584413080, 22.544079642136737,  3.740353610409043
 1.949617138517332, 18.558905158587073, 56.164414441933864,  3.711406510559903
12.743680716934525,  2.183095585718520, 34.742183490267188,  4.070146911424955
 2.494267378581830,  5.474566868630671, 62.397320386191829,  4.098614271617739
10.252498737119913,  9.241370875367974, 92.699582445403536,  3.987838440130237
12.728238957932907,  0.095310435828072, 110.941913425442820,  4.118966144526842
18.288251144935739, 18.138650166052798, 44.140649039354571,  3.604878831200031
 5.487572438895914, 17.471121187213992, 105.058984056900414,  3.607896381315126
 7.202272217475957,  2.470948849626330, 102.155091286708711,  4.222495042142555
 5.984178793352081,  6.832086546857925, 45.864042555711812,  3.897143661059479
 5.975562656440122, 13.122148427117462,  8.850880874459740,  3.802334194346221
 4.116506231172057, 11.244063431124054, 90.953677536110064,  3.778944068994036
 9.702403305105820, 13.988555514744091, 68.875815786806953,  4.082477990101156
 4.525162600553596,  7.145332233022841, 118.645717742370479,  4.013493541170952
18.915660237034576,  5.966642456484133, 83.432373849152540,  4.448752767581823
 8.343365103883697, 17.729551862224344, 67.896387569060920,  3.854302442813354
12.791889375565281, 14.831795905058151, 32.522998599349769,  4.137239035542320
14.260617428408018,  8.879408052696208, 41.941288881493037,  3.927072813987654
11.801769541911638,  4.673749467807553, 80.591609797873375,  3.824895200887354
10.715672895994008,  4.434127266694341, 110.762863392047961,  4.300355304565330
 3.684725049485027,  6.331012343171555, 114.789959138410708,  4.005474407500216
 3.256768486920341, 14.651508951958292, 52.498054597346467,  4.191853235715516
 5.596357480133389, 13.307411951864889, 110.920309385429576,  4.317273399011328
 0.820289183019652, 16.994961690626056, 26.741853848721064,  3.899686890418051
 2.629140775206713, 15.378043394910703,  9.585533868642633,  4.268575372838033
 9.841730379219788, 11.767328612806558, 26.380105685005454,  3.887653862614326
 9.309123212205334,  9.776919517502913, 37.860829894131776,  4.118949852823565
15.964085068648908,  0.433614593883825, 27.022745625438539,  4.070626173935710
11.097893438795721, 11.712666755084086, 65.852743042291053,  3.919494223518686
 5.192840916612220, 17.013314272918130, 49.635282289554780,  3.877946137236989
 4.382733571164417,  3.737228180520867,  1.506739059894325,  3.970762956131346
16.278788322806140,  5.457627560444157, 55.856468402068728,  4.002828453903565
12.705509550827930, 16.796659884703953, 69.410682849205557,  4.058933162017814
13.810988917854054, 13.027983358698656, 29.008157395578916,  4.003343900121494
 3.925883256746836,  7.599089779075441, 57.187959543256511,  4.309417365312148
15.178473989715210,  9.259423045752120, 35.831424281281770,  3.858459882803730
17.849107897996078, 13.285663393697808, 23.991737488504601,  4.176727915794079
 7.870342155180955, 12.332390725177543, 90.121972441064131,  4.135808011959357
 0.637310265968869,  8.066095624108806, 107.756804861177017,  3.971270573982233
11.419485731947274, 17.147754696549200, 53.287887981553503,  4.083407244158195
11.925954125253510, 17.140838870942567, 93.376779059310024,  3.762562064119485
10.907331078361915, 18.333968062275890, 57.364258317985332,  4.238143897081183
16.668269393410203,  8.711227518427844, 114.053019892736145,  4.200384327531361
15.612781711093264, 11.319390641625811, 97.243353646196425,  3.939280809278999
14.922495528926504,  1.948187924035711, 64.682824045624713,  4.274730925854822
13.109722862156309, 10.760302266067832, 38.756943201812255,  3.773277643745031
 6.461389446566363, 12.089758820614570, 53.244524167161337,  4.046345208953928
 4.730859879383918, 13.421225411442542, 87.836269083464458,  3.902770480498126
18.207655624675542, 14.156191804480871, 19.167309951039940,  3.801138964611326
14.540804513792066,  8.708874543301002, 69.089122408629109,  4.087493917871247
 0.012462598041748,  4.748814196410778, 91.369325417974338,  3.996141625545196
11.766988455246967, 14.024326939910681, 18.594382006475890,  3.785416867449958
 0.101822788848794,  5.511481671024386, 104.638925277526312,  3.786534240018655
17.295469057762876,  2.478245250120418, 38.879298665803546,  3.887239563636497
10.270905786368552, 14.627554930947584, 73.121011940980452,  3.881747509636770
16.923007244633311,  7.246535722640267, 97.812907692122636,  4.063504154816912
 9.834232401495761,  1.346462340821758, 63.416110683761865,  4.051238359068304
13.315038239397305,  9.819603603291533, 50.802880088944931,  3.722907735309043
 8.231027842624325,  5.956396414673149, 36.830617582299624,  3.808542347183964
15.839584032435553,  7.761432774378766, 29.611758258599536,  4.028986969916393
 1.582857634395190,  5.140670170279559, 13.480886764319676,  4.211672897572861
 0.686253447736267,  1.944147146722154, 73.519844926359582,  3.814351729220953
 3.232628733346167,  6.845064848575691, 97.528544601449028,  4.199552520146367
17.520166732267988,  9.021235247886121, 104.544527417156928,  3.971975774716132
10.094178397883230,  7.170626726016790, 97.432459409837449,  4.250950598065427
14.023781810512247, 15.885893511581330, 117.436091502012445,  3.964033361196258
14.140689934005524,  2.458762544025150, 12.636350333251301,  3.850388504696942
18.486841904956336, 12.314098017982374, 107.018740207846420,  4.160960755400785
 2.593814602917181,  1.360676438350539, 14.667582580826226,  3.965836821657488
11.749402196128315,  1.693915597155980, 76.707011673589577,  4.054399260217173
 5.810234676001640,  8.408769251562594, 52.361800828038511,  3.591301177027952
10.310222632848971,  0.762620813993632, 45.858052238009599,  4.311387045706646
16.553305534765549, 18.688545025792585, 80.272014007230865,  3.696295333284195
16.103937999844078,  4.608924161912887, 86.265167563927335,  3.975753681671406
11.525462223752248, 11.443603564310449,  7.284295788215918,  4.097066671231760
 9.072486495788882,  1.484004486964879, 70.277273588241286,  3.657354184085410
 0.386778212663147, 10.223870531738580, 41.320354103750390,  4.008626810613332
 6.587631804070420,  7.674358489029541, 95.232591053819391,  4.053956461461055
14.007287889818780, 13.770083345646349, 63.457542882253072,  3.944010195325578
 7.368138974358722,  5.377595107107012,  3.706779005262091,  4.138619710089445
14.672859508598027, 10.690936466146129, 32.140705754697329,  3.994420677753645
 1.569065479778351, 14.408771893350092, 85.382499435552575,  4.268729286870041
 8.331893703685585,  9.492436361566190, 22.123907422427148,  3.828364180141111
 9.893185054497808, 17.109906350836013, 77.192179903599524,  4.197690641744569
10.341616248228688, 16.474060041532525, 85.250103783214712,  4.127526786400754
17.803983663566452,  3.723936974286452, 61.356817478418051,  4.340136264870269
 0.733741126894357,  4.431007114585144, 49.669993192271825,  4.116951519893895
 6.523250682827882, 17.037845865094049, 10.624736801897601,  4.256922587884786
 3.195502263642058,  0.558079290807510, 10.743179185584053,  3.920199287337223
 7.576437202825038,  0.113131796699381, 83.581053917539961,  3.823155709686992
16.359496353767014, 18.598116263413200, 14.855314932837157,  4.189194103640723
 6.345316946378539,  6.166184687726331, 32.936206345061024,  3.798003195387626
17.397101463810323,  8.387611566602979, 118.471125379702031,  4.040546401965138
 6.178081619326321,  3.728265869742843, 117.091382416907905,  4.113769362513497
16.882282274618067,  0.413216641116154, 19.004441842048305,  4.089481710980746
 6.995180400906477, 16.924917947010133, 108.786690113258985,  4.457143472148185
 7.262899259540084, 18.243761175420200, 55.839308942050749,  3.570614113480623
 9.369941687858960, 16.148551357495815, 15.998271720179087,  4.329962360568254
13.727966708633238,  0.967404455762922, 86.824773088242821,  3.922741050638850
10.137651023875231,  4.683963277935848, 65.813062896675149,  4.042050161591402
 1.986099174851347, 17.009137420352758, 16.799411451634604,  4.177938595560027
17.908182038770484, 16.047097668075775, 116.255466951024871,  4.127339902750032
16.131923964156414,  4.232040457893255, 20.870009994375184,  3.632437002384965
17.497663421668928, 11.691884586916087, 69.471483390933130,  4.147124301328994
 5.590138050345567, 14.243561807524610, 99.094462931652444,  3.978424430193543
16.192827537739415, 18.586475031913743, 41.083657687549220,  3.801306361800913
 6.857394301582769, 17.225463003835944, 30.907508891928376,  4.372835014890298
 3.197188817924992,  2.548630230223633, 90.097073169050958,  4.019475891254300
17.822855592584887,  1.312485384411089, 92.924931981991307,  3.665034163422370
11.514326684905186,  1.046325168650827, 67.169029896327359,  4.155896673260537
15.663155765756130,  7.866760352452548, 75.402499097299099,  3.707556287580484
15.583066843603977,  3.170958305657702,  9.199786488955990,  3.728428806847309
 4.765473210520277,  2.740197628574227,  5.523645750650991,  4.032277261700727
10.473983759376749,  6.809945217773778, 18.081330713475051,  4.148004085882204
13.851147385314993,  7.063582115814035, 21.545365947683884,  3.731517681411863
12.523372750595474,  4.584750210019983, 62.580719938710814,  3.975209449017102
 9.595036325560264, 13.930169902000252, 99.589261350934891,  4.019055135710111
 0.337993446793500,  0.557465541989237, 114.628920047783978,  4.014070348687055
12.306932879447025, 12.185698101608962, 78.882307303378923,  4.037554471073018
 2.633559226216828, 13.217442120937063, 94.418193965346177,  4.300989025852910
13.486721225569299,  5.796490728369152, 52.921690618427291,  4.053064269057733
 5.080843874787305,  3.086879790606097, 51.881766451513741,  4.156850934439944
14.994346159106692, 10.992871184886594,  9.094124016618554,  3.634580206701476
 5.119119371622515, 11.660503929972089,  2.887075451478886,  4.095400548955544
 1.708887802620263,  3.102481384145951, 86.022328863515042,  4.129777319358489
17.546833772179713, 18.853108574099824, 62.493210644481927,  3.804092889768270
17.308221542683430,  0.912704717267644, 49.644363978872427,  4.104179431627735
16.194713526594992, 15.544661671642700, 27.013360128314407,  3.862325639868564
18.852354095825849, 11.876540799563175, 91.897964335055590,  3.757696326964129
 2.626223265962440,  8.906118744407680, 84.598540269937487,  3.946061946186453
 7.537200800144944,  5.851284966200810, 49.915953959544183,  4.147220169254123
16.273271114161869, 10.676248242865595, 26.860984384831813,  3.995737235732945
15.304843942359662, 15.728007761658102, 102.324051773101473,  3.936687422973613
10.632109447424238, 12.707368498373491, 52.577086805651433,  4.460800005269979
 4.083965097354789,  6.029229514071488, 87.914450070217740,  4.146360093601422
 1.536490410925097, 12.617512968758302, 62.044619614705056,  4.041776237844558
 6.123962100327121,  4.519878281475349, 74.385259707828823,  4.043327898167083
 0.983055542780140,  0.483052009757044, 110.243064840641338,  3.923288949994737
 4.384696876545084,  1.072658930141480, 73.578714496260787,  3.721893542511824
15.549365761025516,  0.805403927709747, 115.281537808394873,  3.803050779893282
 9.944167988024647, 15.886604753173698, 81.187165928847691,  4.021745445515035
14.565863108498540,  5.182355279593148, 36.953143012189983,  4.182987133948782
13.468174102712441,  4.399616842696371,  5.779472876942743,  4.396979068256916
 1.001712072127660,  2.015170887296121, 103.307780284938886,  3.754597694739565
 2.097991358546250,  3.675311820160177, 112.291204767979337,  3.921246630849430
 5.476548731927534, 11.502495983150107, 58.692145758390176,  4.154561778131598
17.761904656936007, 16.912710665607200, 87.704119746908745,  4.143625980937876
13.153485531659546,  3.862740848158429, 45.689858930818737,  3.901039711994552
 4.182324881256512,  7.694540328332786,  3.291953541527735,  3.692563636358306
 7.749450821018648,  9.250122862706359, 55.960325033908227,  4.223188796873314
 4.958634137237158,  4.139118923423935, 70.385667683380291,  4.143456521562632
14.411033354624175,  1.018517276193368, 22.133306228502637,  3.900163161608692
13.704240333682355,  0.294246134229187, 102.459424623318483,  3.999358278869761
16.879225486613336,  1.701921150986100, 111.899399183762043,  3.641163899380357
 5.552483923389792, 10.842135994341897, 46.353323583788040,  3.963716803628556
17.589571321567213, 17.026468611860775, 37.624211839112242,  4.127665436879079
10.401791971520769,  2.272885701214248, 91.355299253501812,  4.127523593129569
 6.944578044107938,  0.290726015045404, 23.568953005998146,  3.906449724528144
10.236225099934332,  6.208065689838120, 89.979804179317853,  4.149099231208466
 9.821502266832589,  9.035975757638660, 45.898861114275668,  4.305627697547683
14.719307516576853,  6.262485921894561, 17.832661414176275,  4.024778354179330
 7.138091997124115, 12.032740334953271, 40.436196214278809,  3.976175072298044
 7.604330083171016,  7.063596495091354, 80.851771985196137,  3.730886132186873
 0.722458985590772,  5.405325431098852, 19.942751538271374,  3.946219876859306
 1.409582421338953, 14.572052771229517, 89.604414052545934,  3.940490695831308
11.568952662336907,  2.316252907759596,  2.731029443134090,  3.905941623175302
13.624880523942421,  7.930794265199807, 103.723920859039836,  4.142464281707608
17.008114847641323, 13.400948638198697, 58.206256553792272,  3.971463138026229
10.084470590673828,  3.622725378195995, 73.436394863620663,  4.233651180747024
 0.771663961760641,  1.991837292539251, 26.628447324740915,  4.090927804456475
 5.450371845606506,  7.489889211196825, 77.051657349938026,  3.930249813575479
10.123648235484829,  8.318486205020097, 52.608968546557058,  4.173194125615848
 1.612215384342753, 10.900670823230458,  5.005760496981624,  4.212666675668737
17.184274364681411, 10.268110596730752, 44.656508508201817,  4.052062259427851
17.465507045606266, 11.731831771846473, 38.070875682219757,  3.965538258609041
 4.128913153709846, 14.988485503394894, 13.684731379176160,  4.385349572608162
 8.131273697419614, 10.094768563586218, 99.403586174755489,  3.806444213993044
14.643715901694135, 10.259383739537361,  1.524551099248709,  4.015261160171801
 7.882617725876718,  8.713485754468422,  1.129112437463966,  4.045641564808928
 8.290311693965629, 13.280462751275850, 78.333884716481521,  4.323312195929608
 4.871770436680748, 10.718166946578018, 97.296882193825311,  4.016807517329076
 7.170325952350646,  2.265231866146300, 66.980039662924483,  3.948374835247166
 7.182799477149707,  1.104500691323069, 59.626830934008304,  4.191359648439742
 0.111913042722931,  8.196888980586840, 55.814734460147228,  3.878671782821405
 3.433483812592303, 12.515396992374979, 72.077524935362973,  3.926740494131630
17.147088791869429,  1.261017104653875,  6.295334993471987,  3.837775087985617
11.071856611898465,  7.235507496100306,  8.059601167843647,  4.309442690615388
 0.202941183502818,  6.257975981665743, 87.706857376714865,  3.618310686461475
 1.183010919577788,  2.222805967226157, 53.382797235499801,  4.193461011633576
 7.774947881817832,  5.815849323983834, 104.897085457827316,  4.243825437833830
 7.802355870797160, 15.779108136946906, 88.158324518289689,  3.674624054278326
11.270453428664510, 13.063653537130874, 92.916972622900644,  3.876807127546678
 4.654558275378793, 18.159140913973502, 66.317038119249972,  4.111163427660718
 4.117129698569189, 14.708488095500673, 102.797722230392480,  4.033143311209472
 9.308646774628230,  1.536500740480108, 80.066773980010041,  4.237009129349771
 4.952803351386923,  1.702275014869203, 110.086227316749330,  4.295799270076539
11.215241737676372, 11.536282619839962,  3.235715594029104,  4.018243808299165
 0.171909561851295,  8.615935771409795, 63.772770592689540,  4.123602086281342
11.864989200469427,  5.955977459604701, 106.962566871090601,  4.179136458757919
 2.883432813384915, 12.851740515730281, 114.040270641467202,  3.970681718571011
 6.729267193438197,  5.699548612840834, 99.490647029775076,  4.107985858189659
18.667164734382961, 18.211998834594667,  3.175674805851616,  4.170317045635205
 8.005506208207507, 14.486650134294331, 19.623591483399348,  3.904074492308202
11.997254180224610, 18.294586136205112,  0.533560301016735,  3.724567771782374
11.066180347721357, 16.064653472806977, 22.050426525039526,  4.344270109653638
10.889557543362425,  3.490115001959996, 38.554911229931747,  3.880002933895355
 3.848374246522480,  1.201611847993072, 83.149365900547707,  3.884240049876354
10.833581853035737, 18.297092003532715, 96.993067877748217,  3.561717616751852
 3.603835843939020, 17.504618049683433, 76.150800830838094,  3.792525031827712
 2.891943874520165, 14.079771624205376, 24.601677498605724,  4.101001888128529
11.618393289058890, 18.606981825414213, 115.063215025926709,  4.143851025643134
17.676062058136644, 16.558126057611894, 55.744132135677070,  4.130985712061959
 3.811610978359792, 17.088841999880277, 111.629434780955989,  3.996968791649968
 7.637396719015439,  3.001997791469971, 20.432066425104551,  4.002422920581353
 3.187828758454672,  9.248209724889197, 94.043739273637030,  3.727252969482818
13.289288805742840, 18.997746157093964, 48.890021337805983,  4.254423049918238
 7.985874627989676, 12.640263741063437, 85.856067700424020,  3.842760815991207
 6.956849108841923,  2.368177465861145, 31.914236824895227,  4.131798756508001
 6.628687030630945, 14.196885880918684, 26.620630228939696,  4.122100610977840
 6.468138437101596,  4.287243191419415, 112.859476842940268,  3.865913542332157
 1.078332310407683, 16.973771188090822, 94.223618509515134,  3.819991920894814
18.185622238446150,  2.040725155673014, 11.987920543065336,  4.223809050956933
15.894801367636182, 12.578210490635712, 41.625528197150722,  3.980397823276008
14.850957405302097, 14.063179832883105, 21.258781793335199,  4.054800424727923
12.667465451520501,  1.788013339092817, 52.529951090203411,  3.801326770296643
17.075112099644183,  4.076465796621267, 118.603840177509213,  4.031758360640578
 8.197900346651707, 14.881253220206741, 105.065104041988889,  3.865221863802945
18.601433146240812, 13.519206478493912, 103.088055130637784,  4.056249835561262
10.452558560902190,  7.891214182824107, 84.284174423008992,  4.182167961340282
12.360469195192142, 10.326731837562066, 75.240133652557873,  4.059034470900841
 1.185532954426045,  9.677930161649229, 112.562703146590493,  3.759627060468449
 6.522530904638745, 17.894307093880901,  6.314593781857969,  4.441615674408742
 4.350986779966936, 18.475493706409768, 53.234995061657123,  3.837037983268635
11.940380754435402,  7.118022073009108, 39.262268130732409,  3.790813403615107
13.748127484748343, 15.286740761140960, 14.137658831055015,  3.937638675943694
 5.076751140968011, 14.542716966806010, 61.707646694176439,  3.921421334251125
 6.185167766151463, 18.534663045579276, 14.431736881398521,  3.944898284535202
12.531175193204469, 14.842764617426488, 110.332129595776308,  3.640433299882536
 2.461898992264505,  4.758076088035702, 29.303798390150199,  4.032388989690338
 0.833667696105006, 12.621666513007060, 12.515725077277420,  4.004566794014942
 3.701773555088576,  3.093450224592866, 21.383578845768852,  4.011495223667819
12.111332115391916, 13.691845377761851, 41.316578501513831,  3.873795291919588
11.659203755523279,  8.262366231366451, 119.002341922267462,  3.979124939698012
19.039998461350180,  7.509111769138489, 59.769539507050801,  4.154145040762410
16.422195613108485,  5.816780087474710, 13.074418196737682,  4.258814205171850
12.676687029706196, 15.246744455582631, 50.097782091248810,  3.702102028687507
15.659132632078180, 17.671218155273102, 94.792164700562509,  4.196377613866166
 1.648051711620088, 15.028176180580818, 68.685430029427948,  3.968409093699415
11.794169730837568,  7.407573136929633, 113.511477243145222,  4.072158032145935
12.814446847265424,  1.678285116391235, 94.728503134879105,  4.112254311444079
18.642415371756535, 11.348849307431518, 74.550489202221897,  3.961315853673617
 1.123747578844590,  9.004693080189227, 71.450372990138447,  4.311451070473185
 5.079572914568873, 18.895822131491769, 118.333768763276652,  3.664373026269225
13.709711658093626, 11.236824486612676, 111.883518214426488,  4.556113263188617
10.191190231422503,  6.907113953198484, 101.630379733006677,  4.142986396798106
 8.315373226146098, 18.274054726683868, 20.079905613465606,  3.731057735907395
 0.429278489259168, 14.651552285310951, 40.644587761431303,  4.382602562663164
 6.965326236788827,  3.875296682988053, 89.757662227772130,  3.869220877035666
 5.163323720252461,  4.552683688693796, 59.570287323894945,  3.797006828392309
15.398176356808529,  7.271882278756723, 61.745117579240933,  3.977621878330767
 0.384777435156550,  4.571231980089408, 99.374786553950727,  3.924830242991716
17.795122406549627, 15.123777024144255, 63.200071719713492,  3.716062729003291
10.054314839590628,  3.800821050179064, 115.155529617758972,  4.537978296456165
13.410536548475207, 10.210638289893801, 115.991719429223892,  3.926965309095216
 3.574943848563176,  5.672546836304372, 17.109978187147338,  3.853424523586111
 4.455349293505773,  5.327081145475071, 83.920822253555059,  3.980177414072557
13.365167365065599, 14.350564546293702, 10.078779339831094,  4.056272295828981
18.292789379801849,  2.499106251839502, 67.058571685436462,  3.937068044719735
12.365717280106187, 15.207683687786105,  6.057550819013181,  3.992377254297114
 0.394574180684299, 16.592832898944980, 33.825151863590271,  4.395733456732932
 1.346657822868869,  0.796042253521068, 98.767003915776115,  3.830785908634498
16.951161169732426,  9.000740687106145, 89.476417334654670,  4.398301963224962
 2.362578380393114,  5.983575905254247,  6.385456152397678,  4.055562943458425
14.456163978575185,  4.397777494383130, 41.119140705435534,  4.185872835736263
15.295798148253375, 17.030294814420671, 65.326864420447933,  3.848741212065083
 2.806647221144408, 15.686136191838541, 30.169768164264671,  4.402284817648317
 1.690426647635444,  7.745213014538906, 101.392566078625009,  3.929924451032790
11.538237974509947, 11.778360726791433, 21.758397881656311,  3.909589478494641
 2.804250750363661,  6.628502150467972, 66.284410067467562,  3.951207567211478
11.328968620174498,  5.390434887927448, 93.876763095748544,  4.011449463181294
11.245798856700510, 12.063885091110157, 48.471237756788106,  3.932690415555016
15.750358204370775,  9.167604591866260, 53.865586771969483,  4.186511759560656
14.130767387974501,  4.845629990720016, 59.028789708058035,  3.722365226683291
 3.844526210608639, 10.975900334301583, 32.901683277641972,  4.500310643694366
16.668629248397256,  3.821760679282613, 24.805597187219981,  3.960800072536522
 9.793289664066357,  4.677965369070510, 33.589784278706539,  3.825599968091337
 2.996317018335473, 10.321202816691034, 54.148460053877301,  3.913321336116701
13.782404231773040,  8.999900390544420, 14.857186333138266,  4.267094819707770
11.885882697101326, 13.235848453797070, 105.535230353552322,  3.930410158823367
 3.698249376801908,  7.238432399912404, 26.272023797886167,  4.181995030483256
 9.920334545218887, 11.751865091735752, 82.351971324544948,  4.316077561086185
16.708762700574336, 15.797669278466605, 68.939947089332648,  4.214215551350577
13.475017360823886, 13.189167384230588, 99.905661682246290,  3.782906391484659
18.986101295937598,  1.937911456054734, 22.123781487138906,  4.026632978505968
 5.747836514037629, 10.396731442072086, 79.770562566417141,  3.884300559263695
 5.804619367831821,  9.235444435030155, 16.157835857840542,  4.073523498882108
 4.814372261390916,  7.917237410122398, 106.677428502761671,  3.682961835408330
11.021398566994765, 13.809079385975474, 88.163037938780022,  3.843674289926018
 3.260232465673808, 10.905490088726994, 108.562229662378584,  3.841522006078407
10.611319058762819,  0.013052244993170, 31.885001414495854,  4.235256743263455
17.160272883929355, 18.612326570314135, 105.166693051308869,  3.967152866359716
 2.352775634471499,  5.517258827140014, 73.380091460168458,  3.998778295378122
 9.400816027404478,  2.678549631380917,  6.125227136359950,  3.975222145505822
 9.085478941603117,  1.489409615280385, 16.832701260423089,  4.290580992372734
 2.249450726727536,  6.785313090482574, 33.160944808065196,  4.474748683921093
 5.011202080936716,  5.352782894453889, 42.301151824745965,  4.032871614845229
 3.766678967095394,  7.214210271310692, 49.215914204830256,  3.894722287273669
14.618358149671074,  6.056303923581371,  1.931937337916537,  4.021338733540456
11.524485867071673,  8.633754115739332, 24.170556872704974,  3.930833374803869
 1.460238150846654,  2.329341793186835,  7.730045461284489,  3.830190311833689
 9.778212151583489, 15.840925060798240, 117.773827145820050,  3.945191525981299
 2.569313018892500,  0.401213478949495, 106.558636046323159,  4.083960151518755
10.295233638687954,  7.438804843140437, 30.831901128047843,  4.027249666933248
11.788149922633485, 11.616425377916265, 35.063508668076629,  4.194939365531944
 0.320664014241741, 17.493118562136711, 52.193234747438510,  3.970600022214086
 2.976478090251940,  7.893595862498095, 22.177668443685498,  4.029072116128992
 3.391327366742983,  7.249066135671190, 80.489271703714962,  4.091601675983485
 6.383530680121130, 11.448885645084731, 105.866768576208855,  3.914643675951806
 0.296786449548280,  7.927177604067531, 47.200569020300321,  4.081668658856463
12.193626163636747,  4.366579834517977, 85.366632439117140,  3.972775354016411
 6.444023789102858, 17.611364136341383, 80.127293408065086,  4.060377667629800
 5.195603464789462,  8.371193082381772, 73.064416747959768,  4.078638820355831
 8.893596685761226,  5.440060903391227, 11.638985176837940,  4.043765520440783
17.121149391164856,  7.688653635266889, 39.110429705178916,  4.160289284380998
 2.396852999605439, 16.469970463183905, 37.384351210421670,  3.703013504469282
11.166575071233581, 12.383746868115013, 15.072220822821009,  4.003180559106140
14.920020553234517,  2.961076310971018, 82.574757360860175,  4.197437214398700
14.329579455662833,  2.496249534738278, 16.774153798954870,  3.830978451967991
13.276922778165790,  4.235708082274917, 101.096774790056728,  3.996289788952022
 7.233570152082248, 10.627567586288663, 66.692397338016818,  4.081400432516324
13.077146521759559, 11.463020238196224, 55.644236553112002,  3.697117844535509
17.543437673313811,  5.986901896316037, 52.297087069367215,  3.371415460880947
15.210131902860891, 12.334010636075321, 93.365124197631417,  4.109459882978582
 6.646760459296393,  6.073138545006476, 67.126021496535770,  3.715552446944282
 5.682906873870659,  9.810723622864066, 113.520745269174256,  4.343661827645968
18.467573703144428,  7.038450535563235, 16.504868803418038,  4.062716406781765
 8.853104672816063, 15.180539119050609, 95.763955115663506,  4.141586826853123
 8.455495607523122,  0.756338207099648, 52.538202680718413,  3.886754824295851
13.514419723461984,  1.162379416419757, 98.595327351601185,  3.775718767744545
 2.897962065517111, 12.596458688837627, 43.291809237885580,  3.934864569597944
 1.029229997445493,  3.027976627869415,  3.738069611541302,  4.197622041767893
 2.398587104318310, 11.342311239677795, 68.555989445488237,  3.546431707728339
 6.249548173593047, 12.393544504195102, 36.370780761430268,  4.193559335650326
13.342623146190622,  7.262230019455350, 65.346162928755689,  3.891035420980067
 7.024236350526088,  5.011859730060353, 28.669422877697919,  4.212848667145256
13.062503135408269, 17.121697701128902, 29.010410047621612,  4.173876758224760
 9.779808136824789, 14.075590906760729, 37.970690056160535,  4.247276076611754
17.287223922937237,  6.677242771199972, 43.021210026258160,  3.841856745895137
17.906582711540448, 14.183868353540129, 95.677959443260519,  3.885015834955694
 1.729826450012101, 18.319743952158245, 85.712402909012397,  3.586664783938949
 1.188805383342464, 18.546731959773219, 118.628755007873295,  4.086033175588424
 2.802063934344080, 16.551209067060487, 115.467626330290202,  3.959943795961336
 8.347177618788585,  7.305018923639352, 112.063042820812854,  3.397911679510751
 1.980690586921547, 14.237112240667008, 75.155849278603483,  3.461576753144127
14.245673342631154, 10.180502058557522, 107.420669968959416,  4.431980032535405
17.230814470736512,  6.661984620841761, 33.757312717308558,  3.790167128794923
17.183797839347012, 15.602438547070141,  0.750199004646074,  3.515657686441231
 1.238586048827097,  0.018360676706192, 69.867312028897970,  4.516729682239632
 6.540262291044031,  9.583533233999809, 83.687917878726722,  4.134212893326239
 3.289030103250790,  9.207003963353721, 61.204777083072869,  3.774818192754193
 0.302232396536778, 12.944598961194879, 31.894145383572717,  3.781841101937483
 4.574273716903170, 18.522588353092193, 20.155351408347041,  3.736131136831830
13.288416914322832, 11.519026729102185, 85.800498093738938,  4.007652618371457
 4.249824999158124, 14.470444165488528, 78.692666769070328,  4.114288464326233
 4.325136466230384, 17.342371781154473, 58.928781127892236,  3.957968421414244
19.007190082989492,  9.452805521742050, 80.953779575871138,  4.102572726359679
16.877846778605697,  2.498453397487457, 70.955283710660893,  3.955963067722271
14.288470741208481, 16.144514532814000, 43.873900917096158,  4.141397607132477
18.675438859322149,  1.517900622166116, 77.439932623343580,  4.234673256222180
 7.043415710924764, 13.385890060690766, 114.846852132294998,  3.749948069304377
