BANDS
8 8
NANOPARTICLES
cell(1), 19.070
cell(2), 19.070
cell(3), 119.190
 4.716773667534472, 13.142574735368083, 70.894121365991509,  3.711456654278115
10.641046465061631, 10.478477912987289, 28.909060030710190,  3.550557219004053
18.510424724098030, 10.962740935213212, 79.543163127244313,  3.834821868313488
11.238192798986310,  4.427207010544392, 77.321447702214499,  3.642707938827244
18.073673317003777,  3.408406637975810, 85.179297457618134,  4.183439997628371
 6.310273253179816,  9.665379416339993, 77.222062979685305,  3.757694889128425
 7.712786369577358, 14.640981451916366, 30.605541548961039,  4.181784171014078
16.127065343357749, 18.135921273160911,  4.187955735368378,  4.242743249530734
 4.416268246492000,  2.222851741593411, 36.357019831456455,  4.603601168679414
16.791011896530858, 10.612567184297031, 54.620411269601540,  3.907301446269093
10.368834741831785, 11.553486448082534, 71.375045936829267,  4.262347917673877
 6.224268174925214,  6.183949823664667, 35.579120170125975,  4.220656991485930
10.450636857472361, 15.590111233461851, 33.461416977506616,  3.916228761680437
16.374577771237711,  0.817472075176135, 14.779374855328843,  4.153980807156335
 9.194389137867070, 16.476935024263359, 37.273579412812296,  4.097712284892435
13.570561889570104, 12.819896273080403,  8.500695370686293,  4.161558520433257
 3.067263204207008, 12.273289740483957, 49.277956102655367,  4.130156568072344
13.654090639606514, 18.072604342749123, 52.487652468015106,  3.957857826243915
17.783187096454245, 14.631726942978998, 93.860772716337749,  4.258873690119660
11.512144260408087,  5.011636770596250, 17.669220383938740,  3.938991368272480
 4.316701922305771,  1.504214488135394, 55.213704997517247,  3.984720112790917
13.143458441399369,  7.384647749927641, 46.618641738785207,  4.298045740808143
16.570797889723721,  0.936866629430333, 21.754308047965036,  3.950989786920750
 1.777266543683495, 15.390996646433118, 13.149091762297312,  4.085839468808934
17.752312237725423,  7.564928451450123, 77.160574596267793,  4.310862737672650
 8.589270919549113, 10.903511018913951, 46.177599502160234,  3.757550638650060
 5.317907405950919,  2.187772768440700, 58.944430273794978,  3.810044035834244
17.461943111881279, 18.160498602960498, 32.913339324429984,  3.719339980714593
 1.364628562212923,  1.372040805754316, 89.959086611282501,  4.069246973870232
 6.613230478434646, 14.156312203391559, 42.834677516724298,  3.936521881042410
 4.740013310330615, 11.268492423475536, 109.630615050726888,  3.533549417586586
 7.986602106700609, 13.853745070500407, 68.850223670518986,  3.842367234123839
 7.239439130116113,  4.634483212782949, 91.534607928213291,  4.080236988394520
 7.511847111109729, 10.249254126985887, 15.671337607623343,  3.822717498710674
 5.242350604459212,  6.178374381079174, 108.942814395238628,  3.900417427352183
17.587974813345568,  5.077438307896428, 115.992087735354886,  4.373152205468450
13.344112549959119, 14.679564148512934, 59.426793421547856,  3.672028746639919
10.403333966516392, 14.556199025465551, 86.820145056117553,  3.712922828809981
18.720262904284080, 15.037616722210588, 82.940431265959361,  3.406267168024361
 1.419061756536836,  7.320503085121633, 25.910660158722912,  4.087436152926929
 2.334788523294375, 17.501553867337396, 113.221562281626234,  4.018473237330390
 8.935640128451181, 16.576733210051934, 48.710361691308997,  3.989942921208567
 1.442291790143836,  6.760100517038787, 72.856101775173371,  3.743780816856402
 8.313990980586826,  1.453724588983051, 56.467615874018335,  4.071025010397860
18.482577095490750,  8.616486076292436, 117.867633647039369,  3.699625673389434
12.017330508520503,  0.112368098821476, 69.669785724256030,  4.003921676291778
 0.672073114554719, 15.500457800245314, 109.803240881734922,  4.316153293962558
 3.736751756776568, 17.352187157933688, 27.200196330965248,  4.143705389906288
16.552151814383762, 18.579845883746099, 83.754836746035139,  4.354447367300327
 1.701515020189648,  5.110883727919097, 79.043438267034247,  3.805646418927104
14.799292331489063,  7.062242519879658, 113.267033613303525,  4.001557605950104
13.522889128465660,  1.746838026720945, 86.556561207169281,  3.930925979822950
 4.325306368307646,  6.281237637654054, 97.320979530003441,  4.339259508061535
15.657403853144238, 17.877746237682754, 18.550684037549392,  3.732189882034196
13.533321376325823, 14.263783689907136, 100.616373161821272,  4.037834988248806
 4.894828479986455,  0.426295803556457, 68.356002002464933,  3.789484074074721
12.249739980941248,  4.833385612490409, 10.838835483219519,  4.023812503445521
 2.375169634022793,  2.784205286923855,  2.471617022469188,  3.901376952322581
15.714176809789709,  0.787657457289760, 39.608127438035403,  3.869528436236094
 4.212364522050621,  7.589311175565880, 39.027913484962937,  3.943907939920482
 9.906113831034535, 12.427200806139412, 36.537989509338203,  3.967826965585758
 0.759624652394762, 18.676674419470153, 117.214888591017967,  4.123604009823600
 9.015817966392257, 16.970263951744901, 27.705256832023643,  3.700477007546702
14.297029530673420,  3.208413964586972, 93.986509974243930,  3.703694454019556
 5.053797419509890,  6.891013357294092, 80.492598622372341,  4.247556413665455
16.946193389404996,  9.163898230950988, 28.650354629061873,  4.075241171262415
11.823259996253142,  6.792721514730861, 29.615660697765108,  3.881755457201753
 9.938923103452479,  7.739489153872240, 91.874864030759468,  4.137023860899466
18.786504758061550,  4.011508192329147,  8.834249786158344,  3.814611999585462
 5.237770714898476, 12.296894396548376, 98.801122547167154,  4.024481497458383
17.096777988482739, 10.546681700558899, 93.760988588648004,  4.015538685162557
 5.333082851519591, 17.327383679840619, 37.690507254254385,  3.846517908654535
 3.866170353437074,  1.025346193199993, 32.259804394501785,  3.955974489575393
18.412719302841481,  2.903887542570841,  4.941549688340047,  3.789761370149543
 4.015925512569285,  1.781781746376518, 18.678669472219735,  4.219613301836981
 2.928795166368835,  4.040793750853808, 11.046834102528159,  3.711741055490714
15.269772277476321,  8.561099424455012, 38.974796183353291,  4.145900492529917
 6.148420273160639,  9.373654411805596, 49.045907579230679,  4.337337034024282
 1.613090903835275, 14.303493298809355, 79.860792052903108,  4.042636485765228
15.821265304485552, 10.006875263530416,  6.072354301966999,  4.128469710594888
 0.681032187961637,  4.843175029887097, 51.676807464651951,  4.212007263011254
 1.404101898885424,  1.093299078034922, 98.819349996654239,  3.667296365858657
 8.247793233722655, 10.578164365743081,  1.173500197917396,  3.749470145742434
 0.384129732558685, 11.624931826230537, 46.192506517192371,  4.059084512587225
 6.991315686180346,  4.542246328208462,  1.941416602966507,  4.004311175580056
12.166894478202918,  1.657543871473605, 106.566428613070954,  3.893099542209109
14.654190212183551, 18.481556865987073, 113.670652910333217,  3.876131843533433
16.752768737020428, 12.267605066894983, 37.553095248923640,  3.963682941141543
11.014088797177770, 18.768370925066741, 80.871549883280167,  4.167015642274976
16.742234025661990, 14.503189245994580, 106.947427513002552,  3.982808740144782
13.556593784108143,  3.411526849273878, 45.661665802478304,  3.912451713539063
10.039551075528507, 12.132610501499348, 111.779937601747307,  3.815049755115652
 8.488782878129117,  7.145449892610708, 17.331380557169712,  3.442953700340971
 2.998325811052482, 16.017498137327944, 103.908974221758172,  3.971456356079292
17.145363325613758, 13.519908551280169,  3.969325633514928,  4.369594669704725
 2.225171165202872, 10.694783470794237, 86.973261061518684,  3.804881670590818
 2.921662518138636, 13.328001919726672, 106.965508590415823,  4.105860293890177
 8.116408737177947,  6.764775864275741, 87.929603459980171,  4.273108766430704
 7.153738955149763, 10.756582311622546,  4.815853888651843,  3.592516682732963
 7.244504884639704,  9.231564277715602, 111.671190991940719,  4.058221574543653
 5.939400156257714,  4.170581785247285, 69.167522612507042,  3.801171145052243
12.970660871938083, 18.151070541261266, 62.416825052555645,  3.592887610880407
13.624707799569480, 13.171624844768109, 116.657063566796040,  4.286510752589787
 4.092414956876066,  1.419825788725322, 111.125004322324557,  4.074962981931422
12.832001745094098,  5.827006550719255, 58.029805053953133,  3.817253383288107
18.946678252766795, 17.937834875778442, 57.376166152122416,  3.923442181275444
16.130572738791678,  7.196229137128962, 91.809830331537981,  3.900062371816126
17.234132105942038, 12.004565064301087, 114.953543346357336,  4.016334196790676
 8.468026646600848,  5.864742617828158, 114.963132332863879,  3.729345029240628
 8.733778900094309, 10.192836759835711, 67.707308661890906,  3.920072744638321
 9.857357697031926,  8.719347294420549, 11.134110879122952,  3.844668931177716
13.621251643800438,  2.649489481562383, 36.696037603205120,  3.945933130455400
 5.821950180131666,  8.100910028114034, 69.432680330722363,  3.912809312885574
16.365501034878967, 17.496215209083829, 45.546443669393099,  3.750661970575527
 4.837930258767579,  7.473364516600506, 52.495469700319312,  3.893741854426520
 1.357828848491571, 13.445893571368707, 68.545145380825289,  3.857719543920461
 2.862651136451739, 10.655547712255208,  4.786959352410345,  4.298345466357999
11.031529765886020, 15.124340451142881, 75.476229891344801,  3.906646922293014
 4.884919710209246, 13.605710521822164, 10.645900637449742,  3.840653308309942
 4.221708444776776,  1.528160279323344, 115.254101222901610,  4.134826571279469
17.781100208064650, 14.167444633289495, 43.324391323740549,  4.249798042299469
14.700834191981022,  5.088589231160764, 79.052755935387481,  4.212160629514393
14.321052034805279, 16.561274586766462, 76.806879644275000,  3.747417761891253
 2.778555399776394,  0.552516730721951, 82.077092219934528,  4.063673005067056
12.466291598185604, 17.403297991846877, 84.609835849254196,  4.170468852488861
 9.225128816896692,  0.258191971252676, 23.084499907063353,  3.714442657828752
 1.182628108500970, 11.456775776168536, 12.120988546671052,  4.065381335722531
 7.993075636104742, 12.851934669172033, 108.520621609426129,  3.959930883801509
 7.562852189617668, 16.353555473053927, 99.450877568779376,  3.811924706438623
14.818778377712745, 11.070976656726740, 15.347896217214060,  3.951978625578189
 1.014768608984153,  2.175236267288815, 68.261839675773345,  3.973891067220064
12.124989930523340, 12.356329950695260, 47.572626294128128,  4.182299148351095
 6.844953053339140,  4.919872412261219, 54.982677097628468,  3.858594846986069
 6.734227714153358, 13.746336555811542, 60.597342563369011,  4.200807493459338
 2.768250697206590,  8.623670978281078, 35.242670431048332,  4.182171764528954
16.956704398424659,  1.069200672246724, 96.017442193685568,  4.161764909730409
 4.585415750893449,  7.503285928383704, 84.720982572667040,  4.133892376059117
 3.471742946705226,  6.254603249315913, 22.268044281828679,  4.322609536545949
15.269694129043899, 18.097708425917332, 36.074628139182771,  3.820151361503741
14.767657239331074,  4.580491376239396, 23.213946311470789,  3.799132414988113
11.656023051025528,  4.295709697514647, 33.131375042329395,  4.048112129490669
 6.532155860786585, 17.833286760955900, 20.439607260930686,  4.342938258622451
16.504924343535578, 12.991036832800743, 110.689956076516339,  3.948052755975934
 4.958229393151720, 15.114997237433041, 110.284899268925926,  4.279441181194636
11.893285953514690, 17.781367008649269, 99.086781210568489,  4.261019646121194
 1.898279049433867,  1.239716200996217, 28.991834571455055,  3.650720978561020
10.846106027722648,  5.458956876595609, 106.313605202720836,  4.114717907704303
 1.434275621421010,  7.540951970003436, 11.180590087239729,  3.878941282637176
 9.200626829301177,  7.304149885788373,  3.941694259940049,  3.755219098726305
 7.003685531437917, 14.546078765616274, 96.094837023257952,  3.781378078243312
18.951882135540220,  0.389074676094258, 48.045312924013743,  3.874598955235906
15.269424177737301,  4.033122097613540, 106.333158152224783,  3.904724889634627
 3.569433627149914, 18.411867620813140, 11.112462986238778,  3.955355052503078
 3.252645941539653,  8.395003440043427, 15.152800068885723,  4.337482135054459
 7.371289993103352, 10.438227477665992, 95.356184090395715,  3.856342150793648
18.445649707001586,  9.469836443824441,  2.704389673864705,  4.111723523460578
 9.897372676455797, 10.291073540820978, 56.152070905314460,  3.807829855662001
13.977895355045108,  9.763187110150291, 58.820633005545702,  3.879374001620227
 0.906123705807022, 10.564635034331722, 56.847254268910767,  3.843830365025342
 0.278159092462876, 17.428264589930809, 20.161049949930426,  4.054413045462409
 1.162296271837166,  8.179364645583414, 103.321591090317128,  3.845693406706992
18.629828150049025,  3.414044111932307, 73.334882023702875,  3.852193447986481
 3.368430187585547,  9.627421307523370, 112.794866720828665,  4.030717686154976
18.382945858692739,  6.425086197198192, 106.867722194125037,  4.014797050069826
 9.847144347382841,  3.969704162747886, 36.524083573405498,  3.648675367802208
14.040618584515348, 11.661448060312246, 29.440891746967541,  3.712982923216821
17.313412572237233,  2.187071865825563, 44.755375090251079,  4.158494747846362
 9.702244808827936, 17.766620806693879, 52.414644750575860,  3.904152221898424
12.914009236026134, 14.593440523297307, 105.056998832130645,  4.237671016721618
 0.058474799951182, 11.872186492894624,  8.044494968976318,  4.401890748540021
 6.023047603638195,  8.762569483719574, 115.687192067740796,  3.953578505133357
 1.543208450745683,  3.188544707536007, 58.760802071947616,  3.943005496733986
 9.580620716558414, 17.441726134235960, 14.052998241304387,  3.910822568827478
12.299616044894247, 17.745057548082368, 39.756915468941664,  4.061333474768804
15.762899947576070, 12.777591275267181, 81.744347377658528,  3.945564462921922
15.881570023869326, 13.996454056774127, 52.591520725481203,  4.157467864702747
15.645673206046295, 16.178956468989746, 21.872260922177869,  3.702191421605887
10.080690175273819, 17.317789296868366, 106.351578347283393,  3.890378967619462
 9.487424379586926,  0.144610846638078, 63.277591653128354,  3.882469673287468
 7.520121296504897,  8.913724649229950, 99.065111357302570,  4.153160913895099
 2.749668049282615,  4.230610179811918, 14.954081680983769,  4.060667325089153
13.417451102952677, 14.616793471121094, 36.805413737777187,  4.194426344666374
 6.214518195214764,  2.926904495291495, 102.653122591829430,  4.076489894097278
 0.182366525533697,  6.240858130458182, 17.226232352957435,  3.777817157375918
16.800529152628791,  6.205209097256850, 44.610910928122195,  3.916066952846872
16.477519730555731,  8.947693994012237, 70.080083185276280,  3.965021420651515
 3.577768406639285, 13.986313663069213, 24.846035455223301,  3.831405318335960
 6.390836487111168,  2.436252220367150, 62.672900587829417,  3.891792614798767
12.884987008143833, 18.792199722103852, 95.116461993162588,  4.149661534093773
 6.327315136370577, 14.378217427642310, 102.520657422779337,  3.837996080844204
15.097796255591390,  7.892708423637715,  1.049054569962422,  3.790039119686142
14.564978476168719, 15.261400636222209,  1.292749861702069,  3.806298867250439
12.066858829586941, 14.001611210605306, 90.152658296423468,  3.774631379759921
 9.527928326045105,  3.107416375967930, 69.769279529993426,  3.727432297374154
 5.396462225441837,  7.578992502264379,  3.929589723453417,  3.845463622827012
17.245708027102282, 12.538709415146805, 62.282343992939538,  4.070062308563780
11.062083479741032, 16.504261799252635,  1.561927538707313,  3.554868110508747
 5.346064259767007, 13.396246547554984,  2.762620359438413,  3.990173194551260
16.613312445882350,  6.715968915449150, 73.330559932905459,  3.791766732636199
 7.214756473654044,  9.420938692425329, 59.671096449058709,  3.912029418896910
 4.679962074815584, 12.823703861589047, 89.091340761735694,  3.939951295158816
 3.199660386483559, 17.494869864392747, 23.054616089089933,  4.066109654663570
 8.310336976707950,  6.792552103519015, 46.105470540937723,  4.395840388053526
 2.819788372960966,  2.879395562196073, 25.670282287852224,  3.922612109466902
 0.306858574334711,  2.314680277343441, 55.027465397309228,  4.072796433422659
11.561363262298308,  0.414268710777083, 49.429268743778849,  3.865311686531022
10.319819720054364, 15.294032588879235, 62.100647635186469,  4.163068523897808
15.522384082005445,  6.268020354179288, 16.329295679394061,  3.780813798523326
10.933962686063163,  1.112185563250969, 26.570605571044212,  4.103659572337745
10.885531621803064, 10.262749174132065,  6.117916097224683,  4.076088825284072
15.247187949204209,  9.393152329592711, 84.002941709640226,  4.175703803764078
 8.451928335060536,  1.095769444598790, 99.805838480964837,  4.036482165488429
 9.914198820320918, 15.467537458264301, 44.819512830870309,  4.108301021582921
 5.345739465743104, 18.765024312310985, 85.370907464585102,  4.333157553613458
 2.303442089673251, 10.929701175359515, 116.484845738163060,  3.972960257111934
17.433577475072525, 13.555952543814175, 13.814644273542962,  3.703700520961756
 7.253861300555457,  9.555718516643143, 73.379061960678513,  4.130649196241039
16.046540252476579, 18.408236532013934, 99.726765178357127,  4.182258128633288
 5.578064918877566,  2.110029336079024,  9.038443967072379,  3.961358548816404
 4.230026129872118, 18.492894615099310, 100.986637710646292,  4.063911856122711
 3.080647120615512,  2.918783561297154, 71.587498466003993,  3.986696936009734
18.647892451045383,  8.470799341191681, 22.096215468745886,  3.865227985140069
11.955160191184603, 17.906851653402409, 109.743741039459209,  3.929627223374557
14.297270480119645,  6.591790433917406, 19.957652248979613,  3.798599317897551
 2.777497757941087, 16.569721246996561, 54.334742603102775,  4.156892701902248
 1.411503258693260,  1.920412118862276, 21.930849011490732,  4.095326644437765
 9.352154937784420,  1.672907885840413, 18.522260574805088,  4.017967368199542
 6.890282517242923,  0.268104009663734, 81.452853141786207,  4.142802594088860
 7.349106785308489, 16.048090954728256,  0.503728647539475,  3.882609240515642
13.423854519254375, 10.560921854261915, 35.886431031123671,  4.071094313518002
 0.795014123421761,  7.493545121764165, 94.039788116867584,  4.170537813727955
 7.126486996428202, 13.978531366972481, 34.426619328495960,  3.650654945595516
16.935963682979263, 12.836616449233992, 70.752211228046349,  3.844631481830715
 1.598857979345280, 10.408298129204585, 28.707487026290512,  3.735715490674112
17.419106752379058,  4.780683906056654, 110.496673399250284,  4.108187436439267
13.721683665627078, 15.319713442846126, 43.302282418992561,  4.018574059489351
10.325060093511055,  4.109134684332739, 63.677138015023033,  3.971011023311733
10.823812798555030,  5.838962751829960,  7.157813005662768,  3.972897583232811
 3.292018835986116, 15.753264438426259, 83.255824088008751,  4.035967121093682
 3.408799897835460, 10.729611243425506, 79.588409790662482,  3.952266952475413
15.772838004197471,  5.646094424590295, 30.460832319592271,  4.176477870249208
 2.391847350590224,  3.824472225642660, 101.442276329251314,  4.130581916275025
12.193676845848245, 11.549881511472949, 12.364500609995268,  3.886356405915031
14.441879466642382,  3.012081441273243,  4.021983227750910,  4.299767672548423
16.836170151846645, 15.607934437110123,  7.892183285941687,  4.367236756049185
 3.734685650298723,  3.646288899158460, 40.416425721909803,  4.019149298297121
 8.931577655425157, 15.791237807127640, 110.930408748601778,  3.787237480376702
 4.694981731958240, 17.615604468253277, 97.015365317037720,  4.096366534558824
 9.846447473448224,  5.974027504238071, 13.995113644187917,  4.033440793930723
14.853071719464889,  1.111652144056315, 25.387125304278584,  4.044162004222883
17.566595088158721, 14.433903490902376, 99.853577842437062,  4.033501934394162
 3.199140563136626, 15.007316843074426, 40.246871235102084,  4.224472772743133
17.970836228974527,  4.048770265963334, 25.575967987147912,  4.149511789478524
 8.006191775926503,  1.101330377933488, 38.476574033588733,  4.027229691257479
 4.355261623663012,  6.143223423352181, 47.200470607252235,  3.844264113841148
 4.741487232829109, 11.448477586898701, 67.156252730512932,  4.447295562891351
 6.978705744088098, 17.916509767648638, 89.042641273112750,  3.848187773052943
15.075725468452175,  1.003151152407913, 48.163122506915329,  3.659495952233620
18.875479900074886,  7.701695022504677,  7.538809832014929,  3.869444472220085
 3.459232501337880, 10.073720241250589, 95.773869478817119,  4.011831781395798
 7.112958859720447, 10.373387942929268, 80.848858239564166,  3.803586450611346
16.793448399319789, 11.903709932222494, 21.489114300179036,  3.936965183999999
 9.281992353085112, 12.733602591590543, 99.648134567249755,  4.182459999721691
 4.004106129884875,  3.354872704704992, 65.802198042492023,  4.116067607667453
 3.107722852135436,  4.517538867323324, 92.384102234264219,  4.051396019928414
10.598984424498987,  7.980308125699501, 20.428663783810684,  4.148964554310769
11.141959005371671,  9.431039885145276, 109.120676639234603,  4.040171099817855
 9.188040744203764,  1.234332144762161, 84.986166328501540,  3.882655075813611
16.918830117259411, 13.997642041005186, 66.964245766960161,  3.914718847791676
 0.718592355492412, 14.957371975027280, 51.209942407313704,  3.961649132930988
 1.160604347867989,  8.484535629285222, 53.554018192846371,  3.899075955981573
 7.709439302522197,  5.230644030405866, 39.602535964030459,  4.214092852667722
18.133344692790040,  1.681211576179194, 36.282914494172225,  3.995790612344333
18.940866214350912, 14.943539871349584, 23.598405963477646,  4.039722442911935
 8.124346089348236,  5.085868594550791, 10.320664694039285,  4.262096442758001
13.212147197630435,  5.590129406491873, 109.756820498201392,  4.229174783454447
 6.717585014799122, 16.695222484413101, 55.875095431154989,  4.263510586047818
 3.589485596818678,  2.209329015945103, 48.097517407871408,  4.252933345939850
 0.784140192030454, 13.047956447757320, 90.457909864736990,  4.314516666820959
14.844606703139972,  9.231376699250296, 116.599111159407897,  3.890943893744036
 1.158372604395862, 13.414107646025261, 19.995456697240336,  4.138015945509055
 9.203184700608128,  6.757762465723782, 57.337258958268087,  3.751101039892276
14.351193780095494,  3.635912709668673, 75.185612887550448,  4.026941182871504
11.694433725269789, 16.597902023713125, 24.643263528700178,  4.176404116594064
18.152191341344160,  4.764552567570883, 103.307005863066223,  3.607365846967320
 6.963776978598884, 10.947486065347515, 53.145894322581960,  4.206558182557372
13.816277447393746,  8.935816587810015, 32.214682498004137,  3.881723680783467
 1.125786065086173, 18.934464695291037, 85.975201788388389,  4.192313875008324
16.923962359845234,  1.044108422164929, 88.205542013338444,  3.733030653151917
 6.995873694448957,  5.293644982460178, 105.644929402002262,  3.700882669199717
11.298034199689013, 10.776923294101456, 75.397193861260973,  4.008831795793697
 6.169369345932086,  3.750270357484299, 83.942407389181668,  4.123342871563581
17.140216195572535,  8.184528102335721, 96.951810231485069,  3.754420947844080
13.739381959708304, 12.724830980232078, 94.170736102047456,  3.866141345544470
 1.032201722744387, 18.679936763249248,  4.267265223557766,  3.697257092326468
12.312324756300375,  6.729887623932138, 82.165684157976514,  4.253699391171447
12.301450915182382,  7.301756313212939, 88.499195946380127,  4.111158242147038
14.032255565813886,  9.290728733078252, 22.706080629417251,  3.832169635367884
 5.681804044487347,  1.385258414678369,  4.125759358308926,  3.956727321478458
13.432235773620464,  8.377807139714458, 55.035823369651716,  4.109706985385747
 1.550599059824157,  4.320977493883552, 112.745413407553727,  3.732716819699832
10.473014528101531, 18.731883631812373, 113.453115921131470,  4.106317168211568
 9.930727734763153, 15.667458516994067,  7.054527963751482,  4.052004732474667
16.460156877645279,  7.986099038580018, 103.516367891921377,  3.680404675732650
18.942406048829383, 13.835694972931796, 27.608689157242225,  4.193931096991576
13.006570494780604,  0.726492819617314, 91.150091818481158,  4.033455818778143
10.755989142300912,  7.649503954401494, 60.865897258485916,  3.961828692915518
 8.476836364750721,  7.613426874417187, 27.505262284889497,  4.113802077604025
17.491636779569198,  8.406628631825759, 47.884463810541867,  4.068517446875760
 0.293641294041118,  6.275472667925368, 65.610763296692582,  4.054486143390848
15.838283754025102,  1.225538679151331,  7.725337219142713,  3.832499676064122
 6.912828466995915,  0.807024796706904, 26.394199741346828,  3.772814883305280
 3.340041700553968, 16.870166202548102,  1.463052512655129,  4.332908744991903
 8.758104042238156, 12.758057588928761, 49.897305189610208,  3.979379079197501
 4.679135143189793,  3.026083739247442, 79.800700230140805,  3.609835980270621
10.248221268058103,  8.964888705990152, 49.076213352231015,  3.892624890700219
 3.475610592210241, 14.583560559260059, 35.509952716331881,  4.030528539635040
 5.653188181918642, 16.032658766896411, 13.486971605538464,  3.788186286463304
 4.906441989909567, 10.774135523551623, 62.902911551946424,  4.104958589283600
 8.678378407956355, 17.937380650312214, 73.977728429808224,  4.006768451071659
17.888320048707072,  0.749395946983277, 60.769775707801152,  4.082932070310676
16.774403533710963, 12.087043027360625, 119.168345040478641,  4.017429416257402
 5.056908300955897,  1.417935131690919, 91.145802343992983,  3.676646349060719
13.077902674151103, 13.169185030775857, 22.573463420946243,  4.137320134337130
 9.644504198788120,  3.528873441598004, 81.728205004360760,  4.113505179215966
15.280602615183019, 11.591481683084341, 103.692253119217369,  3.877998402807674
18.810929613085211,  2.860450119274674, 40.947246255899969,  4.026288277635360
16.999434502081485, 14.301926662956266, 78.360770616241552,  3.756526754771071
 1.502251586280041, 12.812112776938815,  1.439002476122924,  3.959812422542790
 6.343821818538058, 16.557214458434281, 71.041317603767169,  3.722168829109609
13.031655572154257, 13.075827670907575, 78.580366562285107,  4.428080909578629
12.362445583957266, 13.110754818975904, 26.449042807225791,  3.729280080014970
13.403865364777930, 11.442706886602219,  2.805363143115372,  4.490322279350917
 9.764178379123919, 11.675506018445654, 32.564890170540345,  4.008646197883894
 5.923162730580600,  5.947022865002497, 13.527802541243810,  3.585127961386283
 0.607294252664525,  4.984364223942430, 29.239489451383427,  4.061078119494065
 8.258807775447682,  7.221242083876455, 118.498227162923754,  3.819122419964008
16.171537177861641, 16.225793084134686, 103.168965985621099,  3.969522368941527
 5.177338160588170,  5.952616016031106, 26.023600291910800,  3.824227150741101
 8.182748036402508, 13.070584352297374, 12.934043862321763,  4.062879429082015
12.417011052097402,  8.610462586803271, 69.166100582111810,  4.155140292324206
10.446219360336048, 18.711737433066347, 59.479263611741672,  4.000545531824514
14.928326420553567,  1.957267238574555, 71.631816037248285,  3.907025764667864
 2.446908939935209,  6.853634241556532, 115.917897881260927,  4.165329742415173
16.396418767164754,  1.250960663692417, 103.390645204985987,  4.093422244309711
 4.396150999829201, 10.594717901201642, 45.286238415746865,  4.296398769142924
 8.798233405617992, 12.631313986369396, 78.057172419889028,  4.120489444112530
 5.283067791011144,  6.058490318185102, 72.899579102336148,  3.943797789248877
14.629201142177072,  4.095240508707066, 41.782779839191427,  4.234822647243805
18.316024509654003, 16.491677572846044,  1.183330905127133,  3.846900419069711
14.859219367848334,  2.792395606189889, 18.538618365774333,  4.174891798818162
17.591084400325723,  5.070741620389501, 69.854818070232284,  4.065718783569292
13.135499154879696, 17.703636623296962, 73.361755344164294,  3.841998668063201
14.534610104623283,  6.862778924808969, 61.333464857563904,  3.730362376956403
10.284124152210174,  0.027367024144575, 30.674057703294839,  4.027279283525105
10.458926209968801, 15.828557952833101, 71.114763312153471,  3.921846676097678
 8.995652111421453,  3.776231296588167, 59.868627932076620,  4.074524176393151
 7.140100596613732, 16.718380055468419,  4.351750130033634,  3.926090009065787
 6.160336123426940, 14.050976563336340, 47.008929110191772,  4.183323567231705
16.904579492704769,  1.917284567051978, 29.049998982218426,  4.040786663101501
 8.408759299864284,  1.834075584220689, 106.051465686856275,  3.689573763117989
11.531374849608458,  0.391999456433544, 76.691640267357315,  4.296394992020566
12.505646236518473,  1.189207601985574, 65.741137740366796,  4.175223343383577
 3.483011885427445, 15.779304349540842, 17.504903313449862,  4.152062020431655
 8.091386636703428,  2.343843581590480, 78.101376838036117,  4.060003579907153
14.713577683521205, 10.707650934365841, 66.389480822680810,  4.067515892902396
 0.202013532956391,  2.231772748177601, 32.101638405067519,  3.681912683326275
 9.179960571898452, 11.683803947921987, 19.119682310083313,  4.154623917142545
18.838119413238058,  5.105664315146197, 89.017049700323852,  4.131128839508207
 8.337759277307722, 12.910498596505315, 26.783730359427263,  4.301300574621416
 3.366433502000073, 11.294757446908934, 32.164423125495951,  4.048888163381885
16.443404236339184,  7.677954571056453, 25.082847050699026,  3.661355953319276
 2.959189238610007,  5.004554142626174, 33.012623827550719,  4.321628727460588
 2.287279572948176,  4.491110828015476, 82.857686584217134,  3.992905869084974
 0.527928151354798,  4.456688846888557, 96.885271705076363,  4.066284783701412
10.674187879501511, 18.647461327517679, 88.185953711272973,  3.822535698906071
 2.887335138693310,  2.948208647923747,  6.338617175642089,  3.821528086212413
13.160054823839575, 16.452887694050577, 47.491554815595229,  3.949089646200237
 2.941605564416081,  1.090620607575254, 104.558295786293201,  4.196945890715189
 7.435937161042028,  8.455802814384825,  7.904781665625683,  4.119845640366363
15.726117474837775,  2.810726926400647, 11.287193373727813,  3.936330727429235
12.676205015523017,  1.892162696646329, 116.029783783961534,  3.992414106072674
13.526966320565183, 10.910206968041287, 62.552944000588276,  3.955948359679888
 9.940772065289540, 10.873087460820594, 88.706468617167630,  3.827194485070550
 6.268876623996475, 12.778822496563425, 117.567236306489022,  4.200736827934691
 6.797570572605763,  2.734528609465074, 87.897431920177297,  4.060821666783849
 1.382951565352403,  7.641265163216207, 45.201668259979485,  3.915740331600368
 3.750860596372202, 10.807198155450324, 22.108085765758666,  3.738679086064529
 1.685119856951973, 18.099319018342602, 34.921644800063646,  3.937671614409918
11.275371209819260,  4.117690507804187, 113.001561226056765,  3.814524380061933
 5.346573663343217,  0.746730288585979, 75.407655850332461,  4.145265798978519
15.721558293438648, 12.898873366081039, 90.775098309874181,  3.880579255764422
17.808946557009261,  5.235095178021942, 34.223760134983863,  4.207881289353747
 0.311735898417668, 18.141056841038075, 101.969517506617407,  3.792907435521084
 5.990015957403420,  8.711557766986447, 19.639641552806175,  3.965066834625230
15.415796108879135,  4.620688268717943, 97.368844873487461,  3.894106774425475
12.634154594792486, 18.563871901400553, 103.163922528055551,  4.158848624257057
 7.894968059858057,  2.210551043012956, 66.348043022645541,  4.042203612874400
14.130119924721843, 15.484495410005637, 14.741564417375210,  4.153262397157384
 7.356823279122089, 11.977190198028191, 22.935085723682427,  3.782627001683120
 1.269955906223534, 15.723400826072130, 60.527211888933316,  4.211774798259089
11.049034211213829, 10.630760003778287, 81.363955018357046,  3.943886983625921
 6.724421734807732,  3.957696704725080, 16.579616671445880,  3.855362489406720
 4.303643989610666, 10.044484062407165,  0.738369991584263,  4.004281100086745
11.206013908136098, 12.475167393982320, 65.759446035802554,  3.844422157398974
 6.832135365203630, 13.474050110320023, 38.897705922480256,  4.039705978614768
 6.211990415391614,  5.886005787750914, 76.728769249109348,  3.815551681838214
 4.997012778906690, 18.890609567696544, 41.473074889271530,  4.250773216882342
 6.034461555618126,  9.522863056015982, 11.991966391917414,  4.143514008698602
17.761024760050820, 11.725244637665137, 87.343874180323738,  3.570508203444690
 5.854687415553656, 14.625443093387881, 85.933547967922834,  3.633351336636852
 6.501995784125713, 18.516676748289257, 29.982372386737385,  3.655397233466540
 9.519883311266772, 10.918492404834385, 115.585391141309344,  4.230947186341932
 4.693621357630438,  3.582388853441422, 51.852048714219542,  3.921519493128262
 7.189900128044990, 16.904049278125484,  9.883392956535749,  4.189485642968176
 2.811209519868202,  0.522464279691312, 61.496766922865099,  3.996319733389306
 0.312649615240289,  4.876774622007399, 47.666807351693471,  3.776303233475451
 9.344983610318119,  7.502622282692430, 79.001221230381276,  4.314621012552522
 2.560574273486416,  0.027302915797325, 15.114794936072792,  4.180088696288845
 0.199656674095761,  8.962138855181193, 90.375301023392652,  3.813598825807007
12.813607367222932,  2.954629142240656, 60.755176644208447,  3.915174814112129
14.126222905698130, 14.732274882408566, 63.986937040221001,  4.259338540995172
17.556991166287151,  3.024766897332205, 100.091592022390145,  3.715481010815467
 5.094111308743232,  5.927788241458951, 112.920484819442137,  4.038895717726732
18.927069586520428, 13.271675039437341, 103.533714805798553,  4.141075323255380
18.600630306669753,  8.481819055281347, 113.475210737774432,  4.084050943965020
11.197338242368152, 10.671924371956134, 96.543050968450359,  4.162047230240747
 1.732233089569492, 16.849450483987479, 92.044455579873699,  4.040455223728202
 2.875689448145542, 14.208558200800496, 95.132259965638710,  4.280444931091504
18.336254941922078,  1.168181154781810, 113.551952414698604,  4.191307082480104
 7.030590622042807,  4.680095355066808,  6.185822387251878,  4.180580422780637
16.071838452194761,  1.932324041705260, 67.770008345933903,  4.032755489960251
 0.978059504694421, 11.315953446755726, 109.947599501993892,  4.013350244431641
 6.284899305856563,  2.475801084974871, 94.924759068472071,  4.132467046857894
11.842018739744102,  6.302833382581755, 38.946339075664874,  4.042116541269043
 1.384530655543994,  5.209349314754233, 37.435635278471651,  4.078854970197831
 3.330134762259464,  6.193051793091811,  0.842607458138974,  3.870727776784851
 9.688519441188092, 16.927011229751148, 17.942446944422542,  3.701360998777445
 1.781599207355359,  3.403921239838852, 117.851861503195408,  3.839906664840981
 9.937662294083829,  7.011646542637451, 74.917474384343436,  3.833882569465989
14.954715063532200,  4.117642422620847, 119.135326594294696,  3.981943606095087
 0.127340862286985, 15.609158166857732, 47.331609222854681,  3.935124831222164
16.710717188521159,  0.197198037498962, 74.964432695846838,  4.310662562490296
17.792887607880452,  1.555571302946572,  1.283293884529449,  4.094550534023190
 6.772280459704828,  9.902468234559187, 90.595672274225620,  3.795101647567936
15.550715342358384,  1.027932206531875, 55.361138917810855,  4.019869117101353
 1.834125262012843,  3.637650810313275, 108.914938293489072,  3.627009866933241
 8.937848935229571,  8.468764580033286, 42.118011494395191,  4.282168686542488
 0.407372569321719,  7.426210516206657, 85.405837283915631,  4.278500736144581
 5.753591251084806, 13.760964852429501,  6.789657967849939,  4.032819088464103
16.516033222287827, 17.009738798942035, 49.933193342773343,  3.965196120393567
17.080896969736436, 17.085920495140929, 11.889856721598122,  3.998366171306353
 1.697760527874415, 18.973554731323954, 38.930877780612619,  4.077985380993255
12.995363098906347,  2.843661080314209, 29.668865655596441,  3.870643958097173
10.253094648293006, 15.560384953907411, 102.176236780786994,  3.644082171462280
13.772299810137053, 11.539009592132425, 87.404379328130801,  4.338917112745648
18.309668726081650,  2.479979490043211, 81.001591675196238,  4.179556138416839
 8.537500494629205, 16.509505830291250, 84.018968967926696,  3.930153719850928
 0.068694210106070, 15.513769999282696, 37.522804730433606,  4.071286083153086
 9.612537479536883, 13.507196916325000,  3.556377008145367,  4.183450161858560
 5.704000925233371,  6.013754940432272, 58.657325977326821,  3.793494277293974
17.739037268760796, 10.336200522364839, 100.599053011939901,  4.183782224813495
 8.133369214305054,  3.702979793625754, 74.284991622960902,  3.755853426847072
 8.779827849694362,  0.394976747776343,  1.856119066112511,  3.941054415647964
10.170679273840390, 13.463457232540316, 118.771125625754451,  3.832951160411442
11.552645962253695,  5.751414202786236,  1.273332548627332,  3.941377528330076
 9.069757159636858,  6.071382405273257, 109.957419204770346,  4.001937789294518
17.820166307103925,  4.819551022622658, 20.660248635868598,  4.141641086216249
 1.824789754259241,  1.132240105768454, 77.976575685644676,  4.077455800451332
13.154064817761297,  7.149627325006458, 94.837145057437567,  4.556735615580227
 8.236298095697329,  7.089325055452242, 83.080530121422555,  3.895472500831907
 7.175720962060272, 14.263246547556555, 16.668274394338443,  3.982212181743290
11.301581589038426,  9.232210550620335, 16.000860655911268,  3.938057705075945
14.516139615231468,  5.473628843905175, 85.509171405012026,  4.046579846365296
 6.517133485242436, 10.217230436658083, 34.374863918647776,  3.935456651094797
 2.464254012457682, 14.945327560833659, 99.937648863628581,  3.969818705776810
 0.775589332456851, 12.638225691402685, 76.268443373160210,  3.952090454844680
 0.499412022761824, 14.533525780047365, 117.109434903052403,  4.068740388772441
 1.634682398742887, 12.693746677020632, 64.447132866355830,  4.081432831668862
11.815825224049942, 17.012653400914292, 116.972569100914953,  4.129154406060081
 4.232401656915079, 17.252126363435099, 79.221304431151438,  3.905740191572139
15.508904102509112,  4.833057364459330, 49.025380732698586,  4.158304674571351
 8.697253164467304,  0.540870155388059,  6.793424800224023,  4.208409679271901
13.043314945238761,  5.574964346654062, 71.875411588695258,  4.055981129155215
12.140081099204163, 14.660381595570264, 50.970001766287155,  4.005174669773623
14.781821126788317,  9.272820919505486, 79.776438664811010,  4.275575078022046
18.018550007374731,  8.645012008687589, 14.203359579921502,  4.175792399415813
11.559314142829953,  9.348398605797021, 118.797406129292483,  3.957735010204967
 3.507266665994642,  5.156829060547869, 62.021347459246442,  4.120225981357694
17.655033716909582, 15.789436104411097, 113.541834779288791,  4.013669220268167
18.450661792534543, 11.087753079751987, 50.933633953267361,  4.225304441895430
 5.962720512456292, 12.568583172701279, 113.498447416681856,  3.921160963595514
18.832489830694779, 14.021525270906196, 55.317959644210362,  3.851981679778016
13.067623396694604,  2.892970501891447, 52.050913162364189,  3.941049465210880
15.813137327838813, 16.883720118489119, 110.142233630069626,  3.985255127988105
 4.610556843335018,  7.428817005045517, 65.315811516269775,  4.164450720931877
 2.038321696169311, 14.845076427210715,  5.113904942401310,  4.259026101922595
14.051937412387598,  6.528505539002244, 35.560948165800774,  4.042100886532962
14.179053146784522, 16.876308123374649, 88.529039973338570,  4.051317118771918
 4.197328032645713, 15.455851572489831, 63.260282617439252,  3.802734618777410
 5.619802014537461,  4.773285182124983, 117.190145690193077,  3.819925725239430
14.055642614411266,  5.268659754951191, 26.871587604205505,  3.704728601758325
13.213413511528037, 18.728241635676401, 12.205631623073096,  4.258839031281433
15.811726927066180, 16.493221224380019, 70.969156910827550,  3.720217947893218
 2.947099104068798,  5.141892659704280, 105.438017137233260,  4.046735366643194
 6.222206479010010,  3.170602678942862, 44.993262222113444,  4.013180106354881
 8.632152183414272, 16.998223608903725, 41.160344832666304,  3.736505121497006
 2.462374909754582, 17.126444295925413, 70.444063207620303,  4.134149771825552
 7.587785094505953, 18.130188607697360, 103.308939467730198,  4.091661002514007
 7.704774281223481,  6.849727275906890, 31.403615220392961,  3.954291082192883
 6.373281776234346, 14.315758112655152, 80.969544896796407,  4.112405290243967
 4.168130841259578, 16.157733944858176, 31.915140784318861,  3.935217459038882
 4.917790229204463, 14.222675557990263, 21.099061661635155,  3.667608969108064
 8.034584960860434, 18.682721637438803, 116.767278432456720,  4.057472945491437
12.477555395712120, 13.348912989438348, 83.842406339877101,  3.913154516321664
15.639089506601119,  6.856552834208346, 66.822573890147183,  3.864650115657176
 7.563643270878737,  7.943016779049237, 23.396894194593344,  4.304365780414262
 4.034678183518163,  7.601836233534060, 29.935317567738604,  4.003995481181339
 7.673457677160197,  4.973272780561976, 99.617654002873834,  3.768505329245769
 6.049385511123370,  2.031706029028444, 13.108030393145501,  4.191201157642535
16.371999938947603,  1.402413767313832, 116.873749743559230,  3.533701873383724
16.017665266952903, 16.695881093038377, 117.117110851813663,  4.049123230066514
 3.650383480364421, 17.846917309414160, 58.158257288491839,  3.686378391985879
 8.404050524037844,  6.282118928543563, 66.617039451508390,  4.098422991178037
16.515510957068891, 12.755517188367472, 58.337547921414313,  3.957013349754514
 2.936100698923696,  3.571532925469455, 86.737163759145304,  4.075171039725743
 7.821686929738071,  1.779250362352694, 48.555835266674961,  4.210247718523157
 9.684827088171913,  2.159003175963139, 14.667370496614609,  3.716259971334789
10.274030175357913, 14.857741899259624, 80.998026036882763,  3.659151985157561
18.961863598789151,  1.957336616431518, 17.866070574507546,  4.170163316015410
11.576642716585289, 10.244957316632883, 39.508817418058555,  3.902529331566800
 8.432794106321738, 18.487468019314029, 68.816991829221863,  3.490021786828791
13.207722479206419,  7.422932874020542,  4.454008422159463,  3.889876806243613
10.922922269919439, 14.733154034202347, 96.491488287051837,  3.919799818472907
13.723798583582806, 13.267901037130596, 73.144996317740507,  3.975340549009613
16.761514007268968, 14.665062948722957, 34.340896446952534,  3.953613338301691
18.902780861161730, 17.756577519998984, 105.881174216041103,  4.039998541444570
 4.445231132450632, 12.425210765428735, 14.381320939541023,  4.016963755630109
 4.037871659475656, 10.422066169572242,  8.673591179953270,  3.806928422046606
11.408848344821054, 11.751740090904386, 43.404768010863009,  4.323695944416182
 4.980439778171358,  2.511925780902759, 98.687068555246555,  3.743861113124934
 1.841058311784638,  0.623820342893642, 51.601677409203880,  4.152259395295268
14.533157411828709, 10.105543943830009, 49.948741205779662,  3.890249019772722
11.633205131276986, 17.520512855268635, 55.864361488069555,  3.973075821021318
 3.722425718580008,  6.507981294015681,  7.906802496024440,  4.106383177745189
10.293777984812069,  3.311860879628816,  4.113210308860801,  3.914094814864053
 5.329227484508319,  7.602379613047027, 93.399108849158353,  3.789644796032976
10.041036556551896,  2.250832516876343, 109.789106572850187,  3.874550926388885
 9.608969257456849, 15.092386887804846, 21.400096192255123,  4.059860666884078
 0.198965003754781,  9.045259514157550, 38.394599018982042,  3.913552689671635
 8.817236579176498, 15.007243322233220, 114.917548069569733,  4.100088587061999
 1.759794881832839, 11.659339635166257, 60.482216589325127,  3.830278879422095
 5.953034782685036, 17.063477076318392, 93.013531452564507,  4.326548666529718
 6.551668782010539, 17.922935412612876, 60.842036240288550,  4.140500219505700
 5.036685154458862,  3.630671430387375, 29.326743249453806,  4.226248190636283
10.130477948504726,  8.002727098681310, 34.690466587929038,  4.507238001664789
12.555563130351779, 18.625736655532862, 20.993552143461205,  4.255370016472969
10.791010373164033,  0.385361286850576, 34.825057738017733,  4.191318133185232
 4.286010286920426, 17.878314557158916,  7.026776437466085,  4.181621667651439
 3.237213838794530, 13.764320275199212, 57.401275029989698,  4.097135655294069
 3.540390542150565, 11.401225608284076, 38.021293565537185,  3.812132872803880
 0.537317665758216, 11.981967877282427, 34.867049417520107,  3.881844582218811
11.339390964774481, 10.131815178467440, 104.932574476253734,  4.423734267282724
 5.693625399617908, 14.744069594081047, 51.790198968979304,  4.224645763944475
 7.108919580539390, 17.810196396754460, 34.052180682947544,  4.015867739274313
18.113170817858954,  3.794650247557974, 92.978893726659081,  4.268603206063601
17.107687737773180, 15.058339636838978, 74.453410400262243,  4.098285697332917
15.408904121581507, 16.062373544320671, 56.179872945252463,  4.066842035266441
 1.249244648460172,  8.055047721423218, 81.467035019847145,  3.873493494974790
13.718931450395019, 17.553890861736839, 32.577805193959932,  3.875113773261819
 9.013919809990190,  2.667872395641956, 52.449178979065017,  4.102413082590783
14.293304610048686, 16.163592991926070, 92.422202273492388,  3.864763695847198
 2.030717020788633,  9.103884253184560, 19.073401953141829,  3.973923459607409
 7.556648937073685,  8.962973915402749, 107.055604760377165,  4.203352992521817
 1.110696058594690,  6.598416347052852, 41.359944684841714,  3.870093594599772
14.972937151528274,  3.193767812076659, 113.214119408119799,  3.685473880242372
 4.849428008977130,  9.201255047127024, 56.348247120959108,  4.215982913343412
 1.456501445950103, 11.371799827372540, 41.558234273137352,  4.227204971945055
18.280025463609881, 16.505473085161682, 88.759187881560891,  4.005736921334290
13.388521210174728,  3.589555413481469, 14.458005578127729,  3.948748559213275
17.992466128058471,  4.553567442477364, 13.940929063968037,  3.835722716876230
 2.123318273185265,  3.711614961119165, 44.254298539282999,  4.216155379584009
 8.509620230744584,  6.292270764650695, 95.718102769432278,  4.498884070487488
 0.257645185291876, 16.869191074528516, 97.123931512043598,  4.079367177178939
12.177376987639228,  2.210831698072427,  7.952923316917829,  3.761637934014532
 2.103556038225250,  8.223244896116398, 49.691623828105385,  4.045239261707840
 8.802901010162891,  0.875013933100381, 91.940795555564179,  4.043538022580779
 5.516548243871033,  2.353446616056578, 22.640285678215008,  4.225321152039754
 1.535383811658258,  7.298691983772778, 110.085151474740101,  3.996733231529894
 7.577440167100855,  2.918718507839660, 33.022226038196081,  4.490032224858886
 2.601103285094102,  9.340841985020097, 99.665247625768941,  4.045991332484715
 5.933798016991659, 18.869859031586916, 51.879657701526980,  4.019592363542409
 0.652223756962984, 14.297305903051814, 31.650789945398085,  4.006102673098248
 8.498470714380032, 12.414532720855595, 84.016737354971369,  4.223160197141793
18.735550081881698,  0.551631989539856, 109.495771425397123,  4.000533137619944
15.265786900045670,  3.892510195924204, 64.022116378136090,  4.254945742177320
15.324257093027549, 10.833348681758212, 45.139075772182593,  4.378138571246274
 6.545204951386588, 18.060675245969765, 45.466670926151778,  4.424468663700302
 3.130760219640111, 18.209855197278078, 108.059849888300420,  3.753176324439320
13.817698122933072,  0.288631523360647, 43.144046411236360,  3.955415345606616
 2.695809177056930, 18.414063334851402, 65.325570159472761,  3.996958727338765
15.126976540320809,  2.208129993288241, 33.014694935730773,  4.051617844229319
14.567469686404257, 17.130857145719897, 67.397429870573092,  3.932914526847208
13.333572470068233, 12.467499111200535, 55.792587971231157,  4.160347116745308
 9.621121825951409, 15.191239466396013, 58.160723421027875,  3.648039805937510
 8.229685407245023, 14.288668480064720, 89.936993938677631,  3.893041353488278
 2.887918062856944, 12.138329069393375, 53.508975714188729,  4.167362290991817
 1.030705240414138, 16.550919461337134, 76.646381740626524,  3.848993175155858
10.707782684181305,  4.767756035600015, 43.126405776865319,  4.159743887287134
11.155502373346776, 15.235519013269707, 10.997420993887072,  4.200093767940850
 5.266618184938883,  1.303711800882693,  0.113105043667802,  4.089400409177182
16.676249394090817,  6.780070061243761, 10.710791135105469,  3.953837861769464
 6.525165509381981, 10.307285586367676, 86.792691977582933,  3.780560054745789
 1.596621747467011,  8.634362540782520, 62.755398640622275,  3.734782087418302
 7.076137084752457, 18.696514749238077, 108.991506789083857,  4.074650818175314
10.782164668367962,  4.085078332229774, 93.103677566341105,  3.712927688832782
16.268476895276400,  8.204234101012235, 87.946483971443953,  4.026552053985070
13.752577795925708, 11.042701236764564, 112.952192191719561,  4.170920064854119
 2.424960070403630,  6.038057131179229, 69.071327134246189,  4.066674039514967
18.542830298493289, 17.593677818241602, 67.617334442479404,  4.021066753806104
 3.646393384731809, 11.161646855503108, 74.087648154341295,  3.826478022025884
 9.241657050657835,  6.776741589681629, 71.035538081916997,  4.055857554643061
12.246952808959652,  7.655246916556330, 64.720074014784146,  4.129973265617526
10.742091159003451, 14.016134408949819, 40.061105515518044,  3.858646405452726
 1.631653803060389,  0.302767888531344, 74.069261366353501,  3.764901016190715
15.097603532168518, 11.402195010393719, 97.661572753422305,  3.980673815754071
13.282399547634489, 10.909029485281186, 19.113738664544524,  4.130091824509825
 0.279197916478105,  1.387514128020764, 12.013441737780161,  3.957418463791546
13.300865249385218, 13.594726138466038, 69.060688265638277,  4.243466294816952
 2.068386515078409,  7.519293821815351, 59.052810929932001,  3.939151563413518
10.577959049323796, 11.748995740878023, 59.838004733384821,  4.224608323306957
 7.580787865653717,  5.053869712097612, 20.340041494156861,  3.967321764012070
11.237809759280010,  5.046070130881277, 54.624171530768876,  3.682080810879994
13.365050594513820,  2.542818726728125, 100.255633172496360,  4.112149518402902
18.504582771695201,  5.566043445892030,  1.080588489230607,  3.947840634526192
14.913118656164073, 17.956701182667484, 106.460042957834332,  3.875738508376952
 2.938207738123218,  4.105368972828816, 75.433998717679572,  3.989304390346668
 0.294645178205778,  2.387045520012253, 64.208183928467221,  4.037635078928190
 7.520553991432337, 13.781930556543903, 73.756314366995625,  4.268621307309901
 6.611542671867969, 17.599374543917197, 65.377307332690975,  3.917594692721810
10.561341072347691, 16.491210628121436, 66.167352955248560,  4.328818802588988
13.443976111597189, 15.131820659395233,  5.123453161241288,  4.021272231969538
18.778589324831081, 10.092169598379952, 66.978363265023930,  4.022156634607945
 8.780861863686606, 12.221204775966557,  9.002466265535702,  4.062964004359996
10.320570412290802, 16.287336874863207, 92.798258924380335,  4.019886659544800
 2.057937839905620,  1.107876155247795, 94.707860359415477,  4.461204892914638
10.934019217470269,  8.077226911652167, 112.977369748763863,  3.978878504718874
11.536682025257695,  6.751199664257245, 24.236353094229340,  3.870869725946052
17.041835978266796,  9.092576619230929, 35.215944313518612,  3.840386497090321
 9.185688728736055,  3.852363025722901, 29.115066130802202,  4.076336123193339
10.570652961385514,  3.498024078860639, 89.229943893464622,  4.086314117480362
 7.581741916279484,  5.616077703782625, 50.051104039117760,  3.952845883666336
13.442685136116552, 13.139035983622625, 32.879068743318676,  3.850294597489882
14.814734451046274,  5.034916027994200,  7.622479598068009,  3.990904728180483
17.939043954355359, 10.479912193174771, 106.411704609476089,  4.041483027582853
13.806843089678118, 18.251988276748556, 28.673759816474185,  3.853685877893477
10.616944686233813,  4.795452391366709, 85.439830742489846,  3.800692309958890
15.935170540911994, 14.690712223305438, 85.529064814770052,  4.140475406197624
15.834806413367314, 14.981761929569910, 30.360430684691007,  4.000541618786339
12.316762815282406,  6.037262082261616, 116.437458321029595,  4.242255349230181
14.940192146320227, 12.065597818972126, 41.093520661716255,  4.000646714967949
 6.368555346720883, 17.803976841899015, 113.168568692035052,  4.035151942935912
 4.499720680067621, 11.945641304659860, 18.261303093119828,  3.656447052695981
 2.334401323332781, 18.679869939279250, 44.974892158425021,  4.045089547013920
18.313961839499939,  0.173664032111686, 71.162628179518208,  3.690002459014897
18.534300267461902, 15.925279814088428, 64.072946743161381,  3.705246943792278
15.130951785405747,  0.961674232778941, 78.797196182136545,  4.082411542542594
 8.577476334799604,  1.517324878913089, 42.317142580795981,  3.748876210172440
14.404721316237822, 18.849428421277928, 58.980539699103574,  3.970777158569213
19.062117699963853, 11.297794697088126, 83.676218889323195,  4.237481057182698
11.671394141545525, 14.113352525655367, 108.876701981050786,  3.815302591295342
 2.871914062079285,  5.467662585253967, 55.611199326289174,  4.133192294244563
13.441669909904094,  5.545811827891426, 103.098010650156837,  4.112766158409487
13.545101605864810,  7.323398760168338, 75.900394090679384,  3.598327003546665
 9.481234844481254,  6.948530600460684, 102.700455286122306,  4.107196883103705
11.137430894971077,  3.525165735321961, 21.786042681299826,  4.264695995189752
 3.302584837721147,  9.152524353091945, 106.657399576796138,  4.256648178283035
 2.766035336624505,  7.989139569081049, 76.528051990263108,  3.982018181072476
11.326502093763983,  2.055389576448234, 72.982862543475960,  3.715090591959998
11.453408837345085,  2.519488702782693, 39.887934978297878,  3.769928252203632
10.930105176138214, 13.317383762616709, 15.856317318339455,  3.890211671410602
18.325978258291585, 17.575146732100805, 79.920219398920423,  3.778839456246159
16.425007232753657, 16.187698756051663, 60.964998696774423,  3.670857961775341
 6.783825133429331, 10.614480718973017, 29.974241067809587,  4.149310428887902
15.888802278172669, 15.804466024719243, 39.939813853994416,  4.037126797019561
 6.971264861610774, 12.661892892024699, 56.761611178943930,  3.784766484960727
15.960635822430358, 11.781872714973819, 25.459502001579935,  4.170461508907044
 3.355125194869589, 16.516200500978488, 88.398374442557611,  3.965349935654354
 4.815488741407186, 13.710931430261409, 77.118117191242717,  4.276898487456238
 7.548493390432077,  2.617265468176630, 113.014435633033429,  4.054448483175137
18.982860500857843, 18.841233467506449, 25.567883604401310,  4.579423208681081
 1.701264615856966,  6.105267034387765,  4.435859294242201,  3.920613174280065
 9.721156225265052, 14.154385452642881, 54.267162231672778,  4.195371986028717
15.163696099030020,  4.798397880485069, 54.627574961466379,  3.700725593137247
14.451625606401127, 16.482368364654409, 80.740574342680233,  4.089840070892375
11.422700360782498,  6.340397349873379, 98.975781360877818,  4.229527717414308
 9.466980811602294,  1.164975230933595, 10.832422864771017,  4.082749597348927
 1.116539803078550, 14.255316962775472, 86.169489058223050,  3.770991502224705
16.938444391371647, 11.424911380007398, 32.006299923641670,  4.013387539829581
11.825304892064038, 15.010391490990928, 29.792943511647550,  3.982320340068136
 1.799136777642362, 15.454496918526125,  9.177472736317684,  3.824708654141760
18.718035033420101,  2.510072574189802, 106.207420943802305,  3.614083047549827
16.957922934775731,  1.772667192439348, 51.563998357624556,  4.076250111058187
 4.039821845436629, 13.563770882327878, 28.804727549228964,  4.098190464728311
12.576231771569383,  0.017912580344317, 16.374591443683983,  4.157795221064112
18.383123328447667,  5.531330848443799, 61.568018641713621,  4.326731934828729
18.026142234858739, 17.566668759675533, 53.563309855126455,  3.883291006139951
16.634085896843157, 13.581020324956052, 17.833111594755771,  3.987418976634144
16.167924813531197, 18.966640195688598, 64.296088894808051,  3.935129790227682
16.439054116143474,  8.817347852612309, 109.908898827084045,  4.249971733128286
17.002979369734710,  6.137686831219379, 82.301173298263677,  3.965349437125016
 3.888729850084175,  5.797378255334515, 18.288374775390238,  3.650050748817260
13.194159630357925, 17.512417854713000,  8.321947072867880,  3.848854557810656
 9.031290428817799,  7.568020300844681, 53.053525907739413,  3.694720814273650
16.946551720795352,  6.343802191240174,  4.544522623830184,  3.687212030766529
13.851682654767892,  0.160916307984267,  0.742364408030196,  4.296597028805479
13.272884743675597,  9.936676523991055, 91.369748216449807,  3.892508774946401
18.453606304118345, 18.118989585458682, 42.194810056905467,  4.024294905831515
 4.812054886885453, 10.146547355496986, 26.090962285707601,  4.539075335406299
10.617864088458553, 10.499476829634846, 24.281196488423909,  3.812397980478292
 5.094749981268548,  2.645721021491793, 107.513791771293356,  3.697193560834869
 4.993565865279302,  6.781163546161144, 43.103025381217613,  4.497784197284737
11.928787328988536, 18.766313556565485,  4.432196933528833,  3.947218634102424
 2.832819517271664, 14.539319616758510, 44.458047002163447,  4.237408261222972
18.725076765151556, 17.410223364752103, 29.479880066843609,  3.746084761654063
 8.861442573431367,  9.883841635518982, 63.679180247544856,  4.145952285110275
10.022649331392429, 11.907836030107598, 92.825361342140411,  4.014617673131780
 4.507356950844226, 16.506997778506296, 116.584398738427183,  4.149246699820930
 8.574914834649537,  4.128896986116545, 25.074374594313174,  4.108738994944742
19.054548934750461, 11.871915412275667, 97.041029761141530,  3.979447488977944
 1.301412302723143, 13.796403018007021, 72.485591320699541,  3.871578165610118
 6.925815476821059, 16.265419783803353, 24.409708565071792,  4.226612648592970
14.248798526970189, 11.502366297451802, 107.643146986679056,  3.919238317523989
 5.458388187425866, 10.617502564642107, 41.312566994616738,  3.920316834330058
13.817138462571773,  7.873368603554001, 13.244371599304419,  3.958911537427138
14.877266711884625, 15.522830862978475, 96.903224705141881,  4.181377214747994
15.423739374554328, 10.793372696941608, 75.987596167576669,  3.931302699220073
12.163876171787503,  2.245996013857671, 56.939256112211261,  3.738270700404897
 7.666212843563930, 10.634975471525676, 102.829740988645952,  4.081965507308197
10.787091635411134,  2.802361654470904, 96.817998211057542,  4.043395734293851
17.234614468803866, 18.844906193230216, 91.939967268399258,  4.063254381366272
 0.862428927279124, 11.126157263571063, 24.685419891485093,  3.977557911672855
13.705321558026657,  2.626983922757777, 82.519908787540260,  4.314869717419779
15.704447475500903, 15.938746314148291, 25.898249511642298,  4.144984241217838
13.298537988756976,  8.554205285083896,  9.058648387094728,  4.185273724343720
17.174048402286267,  9.358914617785352, 18.295356907991152,  4.014355943800083
 0.907550566342225, 11.742328097844046, 16.217548775221932,  4.065563769484723
 4.305382533097365, 11.614214968552192, 83.592567176193938,  4.343593901826702
 6.203394363579820, 15.705545143065711, 106.323977403653487,  4.074513907827973
 3.671001742662330, 17.050830607389884, 48.820474297193307,  4.247079758253911
15.224606580489860,  7.322833350169585, 100.060084925017591,  3.694255089253510
14.792066372639525,  4.096969918567331, 89.581338678813296,  4.117919371685952
17.851428782943842,  3.500718020461362, 77.119413427895878,  3.812601931619316
 0.386514010976899,  8.208671636526388, 31.784904136062959,  4.135457723646431
14.790075542853048,  1.707129848952501, 109.600039141848399,  4.109308764425988
18.455836502998672, 10.204604251762843, 73.368254874848176,  4.094064099493532
12.963729893047107, 15.023058633621769, 18.884102732691659,  4.099913343540343
 7.728200437612803,  9.404937775788401, 38.178369266571735,  4.082309536962213
 8.240541450981118, 16.936809091631840, 78.077636270245861,  4.422934856082156
13.810193675278761,  9.384394925630700, 72.808025356046770,  3.646176393650806
 2.318138897916365,  9.958784610640494, 70.433056541368899,  4.207344045618614
 9.140077406511601, 13.498137045681215, 104.956002508095963,  3.591184583776324
16.973500377602420,  8.839475400951894, 63.695535275059228,  3.857050226996034
 5.952198842149788, 12.954261956867651, 92.789015945046515,  3.845124919136683
11.426228977083392, 10.818595987161672, 52.412197727753203,  4.078123793890933
17.405674685973587,  9.099861605436805, 42.159589623991081,  3.576363831549926
12.523921300027187, 10.199942614985874, 100.721947296187281,  4.292071291508968
12.533220076200459, 15.167849968278643, 113.072125886140554,  4.082082248968197
 5.171553566028485,  7.135587288060528, 102.322283311846647,  4.543318513764788
14.353689023152400,  7.793814025744785, 106.594648710808684,  3.782825743483813
 6.537923540625675, 18.590357787989475, 16.325557995406321,  4.008329646575609
13.349019145478641,  9.005959837832933, 26.813603789253172,  3.868709057468436
16.550110379286711,  4.788891141760857, 38.241161064049280,  3.937676226313434
 3.923781132504470, 16.296687328831105, 74.081479350345276,  3.862193738946743
 7.336947913159137,  6.335358969004561, 62.471553079047681,  3.856930559417657
17.754155740728756,  7.185074192269658, 56.455130214586084,  4.001091730333269
17.715367667200830,  9.292438999007683, 59.866711349685737,  3.908805612009352
16.258015342742592,  3.689673085538835, 58.378705234173459,  4.124686542513450
 9.337500041583629,  3.374016755504490, 117.954043547942021,  4.227907179800423
 0.491127974093373,  0.044209218311823,  8.091756176914011,  4.010008022996575
10.499977867457241,  0.592509102714129, 45.599684952061907,  4.067876080551256
11.130591974052246,  4.292979655952002, 48.687923360449133,  4.038805851954097
13.155619527803953,  8.002846995040166, 42.460684084580102,  4.027196805111578
12.560680250174851,  4.663753186494866, 67.931529581526377,  3.976096336351350
16.190620870479624, 10.844624576330416, 11.122101284238040,  4.232073633618948
16.548468826200779,  7.446737881645346, 52.132189986341082,  4.080814299824974
16.053573380062314, 13.391000230032756, 48.358264263724152,  3.966074952986009
 3.819449703018752,  7.188793783229792, 89.057679005121599,  4.590183256689429
 4.198498777174222, 15.501116013625252, 67.365650823504595,  3.538384279652709
 3.573982938280096, 11.385879225738661, 103.090496152564043,  4.150992400992388
 7.514757195325688, 13.674790598732391, 64.731377208882719,  4.129509906437801
 3.324579890931588, 10.368102104876305, 91.933399388963906,  3.617113456240084
18.500203234774709, 16.712037987494014, 16.174224612133742,  3.956221796534703
 1.922840897581104, 13.446889773469467, 113.320489185630663,  4.121553624713533
 6.704807423860263,  1.350472547568250, 71.666398681465324,  3.828821348584854
10.954634158954365,  9.285586223688179, 85.178713019581565,  4.038049206952367
10.282427727952982,  2.927268588261685, 102.896123385466183,  3.939988674997328
18.921931945247525,  6.545226007278770, 100.130268825368674,  3.756255904462891
 8.798830541389155, 18.287113062861355, 96.121467488504337,  4.256741956787286
12.577575968451082,  6.853019109428909, 51.424026847693192,  3.884780818406240
