BANDS
8 8
NANOPARTICLES
cell(1), 19.088
cell(2), 19.088
cell(3), 119.301
16.974910039305836, 14.188891399580999, 44.650596055374436,  3.539509644279099
16.758464626948221, 16.852597928912672, 21.372307746300393,  4.180813912127501
 7.820266550212726, 12.246510643041180, 72.175728260226521,  4.009163842728436
10.666361574219312,  0.240845063114098, 81.785589816268583,  4.051515787100384
18.400694308889623,  3.299364545302265, 40.602800515215378,  3.996116341340905
14.674745810631265,  7.020171215079551, 117.524570550481215,  4.120791884571344
 6.724681604244370,  1.178665092531764, 114.420222377961309,  3.782545884919616
 5.828434392064676,  7.344703161177479, 10.141195064981712,  4.026082454789497
 2.962068088961253,  2.076941446008347, 30.693562072051126,  4.220900922854844
18.839315159513681, 15.632115515574597, 94.433184849390514,  3.658441828303726
 4.147372190574310,  9.427534510078139, 49.217801530512631,  4.213634232663649
 8.207892289158490, 13.789404183772247, 66.072875752391511,  3.831327485591437
 5.961842457487167, 11.263820039276920,  4.890739470820755,  4.020337315340336
 8.712402016651158, 17.852272796927938, 99.310168107530643,  4.177307864008380
15.532714357089725, 17.386409845563289, 95.793286464982003,  3.905824868480347
 2.131761401597457, 12.757278475499922, 38.713432419441489,  4.108809276545171
 9.371100238933177, 14.670725149031528, 113.913641828989796,  3.963465204952040
 7.409003661406904,  2.232142523222728, 88.759719091449313,  3.908371382157102
 3.191844849630669,  0.397482835009698, 112.639114880112984,  4.189639667592977
 5.572363765500385, 16.758914255003230, 85.864851856048773,  3.887888436759622
 6.019311172536436, 17.696648053883546, 106.569044465561944,  4.276758222748897
 1.634700288914522,  2.563420909664529,  0.374713568228531,  4.107333900150999
 6.883074796794025,  8.275263373344742, 101.240825086183577,  3.923099055426096
 2.166843098447794, 14.798173624548030, 115.345209344758288,  3.946386463629270
 0.754261826375756,  7.269951220280386, 22.602328555453482,  4.250395547893142
 4.678956254414592, 12.433416707823881, 84.536616192018187,  4.003129039537816
13.217263748825285,  4.494683012083197, 21.077669353407806,  3.544457759167016
 2.326388792919388, 17.508619263547821, 32.440093882623813,  3.955837565362526
16.342633125827462,  4.255712112534822, 62.411063808983322,  3.784087726717345
14.357492565463764,  3.528314337209313,  8.823102734401145,  3.943631145822031
 2.912028350027219,  7.693466957189418, 13.467335049082628,  3.877060565944257
 0.311099190916413,  2.351439223971656, 86.935883054410013,  4.350332536851492
 2.493673133151094, 15.424932812598206, 57.758353657645010,  3.818244421969032
11.268711290046731,  2.046623640201943, 99.953036048842279,  4.122870198260512
 4.041803587402596, 17.923167895924752,  2.581777172847382,  4.124625633381779
 5.032009079490995, 14.027097117915348, 19.678574154912848,  3.907557532182425
 6.086415948887061, 10.810180715689077, 13.311868962891850,  4.634067770787071
10.952163649437434,  6.136987443117127, 115.763480005513486,  4.292300653691955
 7.226097179465770, 14.034044913862322, 29.146126768058895,  4.084477603938629
 5.003465320011704,  4.158395744089511, 101.916337390783582,  4.182834307925122
 1.790922012689808,  9.373670679959815, 52.751226703688040,  4.095246534964324
16.778636942060992,  2.052773403296572, 90.332048058811310,  4.203538498569278
11.823078987405815,  1.129613265262891, 77.884781992084655,  4.133346403172716
13.318385139148743, 18.604614433734554, 84.768644613611770,  4.041586017044527
18.523281327280184, 12.238016517833968, 100.576396514811435,  3.931117411084582
17.427591485274544, 17.501742960528304, 103.299283968942760,  3.691027174159248
 3.927842248450580, 12.978342905708599, 46.886522888744302,  4.215627242304393
16.656468291869515,  1.611217634449404, 112.971866443197925,  4.082269387118755
12.985045761481848, 12.430777285628336, 37.642074490024285,  4.071941850134311
11.616147087657382, 14.440181732900136, 108.524647072397968,  3.822628303563051
17.933400113237468,  1.840518248037908, 57.752664638847889,  3.630120992623405
 1.887830833388648,  8.618751667633317,  9.800455549995695,  3.918267492648651
17.350839350630832,  7.098344814419836, 29.298592269724789,  3.975290100000646
15.303608025635061, 13.677717522661649, 73.836019155151391,  4.055994515615749
10.410443875284901, 14.958511447010141, 31.402425628280557,  3.888136274398040
13.748859331085683,  6.251673998676631, 76.311962700540306,  3.970323597202729
 5.060770173723675, 15.074818786882927, 91.618773528523135,  3.886299147528659
14.997001604108130,  1.174920244970363, 39.796334822039263,  4.148528187744107
 9.273785447368395,  4.351402364026751,  2.142685946062609,  3.795418967265356
 4.847078643123294,  2.304754631187721, 26.808726031067067,  4.163713592600584
14.269784212784243,  8.626231417017827, 10.989148635808483,  3.993299683181989
14.214627853428384, 10.054689523936579, 75.181652782126704,  3.960832159686869
 6.232997268710633, 13.879999029684312,  1.735342241621844,  3.999222452559146
 6.666930332704453,  2.852796692027935, 50.029758262625585,  4.019715723632642
 3.712768476384059, 18.990225345640379, 15.172171656205945,  4.102907060178169
 7.476141494894852,  1.923056099658724, 67.609626140717722,  3.855290899546940
 5.960128260741621, 18.990614775492173,  6.394840236289325,  4.233062798206678
17.909656691048777, 14.207956402810012, 88.136243015523846,  4.273108947347070
 0.832239318941813,  3.601337880733731, 110.821283967071565,  4.343227690208380
17.311305807988479,  7.677602916438135,  8.514115449837961,  3.622762254363495
14.281792406697067,  9.070925938624596,  1.727769874905998,  4.006247590682211
 2.141858628876931,  6.073973985625789, 31.836770084066668,  4.176574198112286
12.285261513334937,  7.754653246513930, 101.011008132744408,  4.153017886363540
17.662359036865510,  5.430142009021255, 58.885196790715447,  3.834797699428755
 3.250660544901150, 10.875585010294104, 114.481872258939447,  3.600011568181043
 8.671952149987728,  8.989469195602984, 70.006756282466668,  3.877751545767139
 1.606507694203065, 18.051877872083384, 71.383394821541827,  3.952978214057520
 2.533383249040972, 14.365606830084774,  8.511117594212255,  3.791461175299495
 5.311154246199714, 17.327428867485430, 42.361756005963379,  4.069548308054627
 6.247312212555884,  2.909031201114437, 58.650317832521544,  4.248153631315719
 0.080532603001249, 18.141446849856603, 24.303719204884267,  3.675235303708083
 9.732006448107338,  2.551204079591721, 108.883800616271500,  3.935382959338356
10.223344088034892,  9.772504067119893, 74.376002523222638,  4.158219440279335
11.831997063087897, 12.904804329352899, 76.914748516124661,  4.231352463663940
 5.193056983786430, 11.031148428267752, 91.825572497280163,  4.125430987305486
 7.498634798341180, 14.450496482891525, 79.634418393196967,  3.969216876390298
 1.655945144059110, 17.287656516468541, 87.152659469427078,  4.264820284570058
 1.432070119842380,  1.652042118304723, 54.867478667323134,  4.075568530070995
10.798181818444556, 10.808179129252240, 114.629457817580573,  3.883596217676367
15.469154490532329,  8.204307624501640, 68.454344101738741,  4.084899899617828
12.954322246915611,  0.623155184425484, 21.021936350515499,  4.072658307895534
 3.648146528129673,  0.384120846712288, 23.274543077696062,  3.983392250087149
12.098585210648372,  6.504286774358230, 72.667086539167258,  4.036252556314424
 9.920153433665316, 18.057326203872289, 111.586812710056051,  4.237198370623747
14.014723697864021, 11.762263773385467, 59.876232876610068,  4.079184520229291
17.821170019017238,  2.562053859637547, 82.988469239088360,  4.131541093544184
14.176381757709084, 17.953789239508325, 13.570196845364139,  4.040935842470557
12.303897382776489, 18.194057682828642, 97.643775813235692,  3.633663520794418
18.950554879083711,  5.555136164562813, 80.006606188424541,  4.292752044655860
18.055980529822328,  3.431651173009855, 31.065819413886334,  4.209980516097110
 2.980458964289879, 16.960894239128006, 54.144984628753697,  3.877871518254312
 7.910393464395923, 12.076583909644851, 62.530594621470378,  4.028586345739031
 6.488696546764623, 19.057915146213315, 92.815470707728522,  3.665575543271737
15.002294902936233, 14.731085206596841, 80.881093503069181,  3.800220395582343
10.561191594391543, 11.139895490352133, 26.965140840058396,  3.887883416576225
 2.321541660935301,  7.867467300946267, 75.234904897749942,  4.273774048474175
 2.859901363483668,  4.212917753269225, 20.660152260594316,  4.119523675106601
15.631274085893143,  3.106019967437021, 78.443516571038387,  4.504882530913548
 3.141073803618929,  8.185429729160958, 64.973919487601933,  3.961412955142002
 0.183870153116124,  8.520796518048769, 93.483585457651344,  4.041637844883743
10.062226192269987, 11.651360882139127, 59.168883369437623,  3.952858776739301
 9.722816204987380,  7.115888324833027, 27.185264827229059,  4.316733910085095
18.559477171526336, 17.497675806853064, 110.963589229440501,  4.004751529826722
 3.884980929458802,  9.128205722972613, 38.740291455210958,  3.707401370632815
15.168481448923401,  0.599207524456393, 105.343885398676335,  3.687879939507414
 4.958995961239710,  8.869332441474249, 78.682890108926813,  4.152076731579183
13.361299795701681,  9.653171827735624, 53.502316323512744,  3.889749657856466
11.431775851370780,  8.737976326646297, 37.611588477989010,  3.648211351660865
 3.565116633825178,  7.184972361908939, 91.456634680830220,  4.234424102650980
 8.367865240401487,  3.530770711532764, 38.898632295780608,  4.170928440779868
13.889260462483948, 14.977374037027021, 70.136571231331985,  4.257991895861935
 5.440699337934452, 11.242898631563730, 65.548548739766730,  3.724084437663282
 9.730180278887641,  6.453247473950285, 93.992608227139812,  4.320975589475732
 7.266345147485543,  2.441629385387299, 72.550378921282743,  4.150861492929609
16.859347888513319,  9.026147140587291, 45.809925523075968,  3.961494613522962
 5.322340283365464,  0.898650801433420, 39.336133845141063,  3.895632775330820
 9.107468109657242,  9.228850541511532, 16.091409996773415,  4.049501985551432
 1.099880009432159,  0.531420339846005, 101.539097856365274,  3.779062386967507
11.450096753325797, 18.090965832784203, 47.804305782820265,  3.874818139118390
 9.689963328157077, 17.380435784227842,  7.659342849942148,  4.250598136398166
12.054743991974131, 18.882596092937842, 58.757661889925387,  3.648605028577702
10.427424062034387, 12.924916720433304, 69.187650364403723,  4.001256423682369
 5.254929659742072,  9.524812508513936, 17.444099975965052,  4.096154659368553
11.348680327641015, 15.399734484802195, 101.246589220817469,  3.957710563510841
14.166479996776088,  0.279608139617256, 33.267260834823951,  4.120158565377284
18.687101371967223,  9.841433849888640, 114.783373475853637,  3.930250938499231
 6.667154106143274,  6.605824450788326, 14.139897149500610,  3.997457103686288
 3.513028031720458,  3.285570228194388, 89.679147335628087,  4.277817737043556
14.657006991677633,  9.331715353110621, 39.676912006432737,  4.047582603706178
17.335034110741905, 12.604648856806810, 117.634105474098945,  4.428105276592430
 8.095899361119598,  7.062944493464669, 81.239800600566099,  4.076310772118528
11.086149336290802, 14.470982861653761, 44.196503605592760,  4.153285197873910
12.124977943123683, 12.564539237861590, 104.077454166040653,  3.971860044933514
16.457888276279693,  3.920780463357354, 27.003278147637463,  4.064046106925389
 9.571957422197189,  2.176951046930390, 92.074800747132912,  3.877735284052747
18.129154201372494,  3.664784972393838, 66.303054468566614,  4.165885965482819
 7.025528066480825, 10.977239357923514, 81.474521377173375,  3.920955108818617
 5.533262961320442, 13.294716451008549, 68.996859932613788,  4.087613297242635
13.051189370145849,  3.395925761859406, 90.917727257058019,  3.723964834123310
 3.801965927885769, 16.381865993504892, 38.878389401614342,  3.720829604034569
 2.079085193980277,  3.902479176841946, 76.888558828990114,  3.951116081428593
 6.315833128342430, 19.028022076730714, 117.998474240916167,  3.701207833846095
 8.030199444622541,  3.056227367658543, 54.008133911200204,  4.392106315698831
17.256561647742068, 11.685337177697974,  3.115555077243324,  4.355127987325664
 7.224480972106768,  8.150431446902465, 63.861457722648275,  4.143048414970467
 6.519372014949500,  4.459832161398101, 92.072382678256318,  3.710021843295590
 1.737319695661845,  0.689650534442113, 65.048070305470972,  4.237741528810649
 7.058242700549915, 15.904301511341872, 95.017075730844795,  4.064590656360687
12.889004963089993,  0.021440418088653, 88.979711745408054,  4.055575065967853
13.295359852520571,  8.412234145486028, 65.225370672400942,  3.711169798937610
 5.912050456336012,  8.471643504473381, 84.420752445605117,  4.126659663434610
 8.934687179353690,  8.398101675555388, 43.756068289404659,  3.686609976226164
10.523661143101709,  1.505557173859503, 50.815221997867560,  4.167989915649601
13.133648217849897, 15.426031458455578, 34.582163266713188,  4.361927316859403
14.398561596482326, 14.281752807081483,  1.000877606548759,  4.172304080295880
16.185881873267551, 17.533369453828048, 27.198470580104697,  3.824787458761319
13.020010861681822,  3.635795491407820, 69.970197241308483,  4.050459154309273
13.364012513350257, 18.922380766449539, 71.277256287691273,  3.844665343736753
 2.475366982768508, 16.723610808573106, 48.220947023933192,  3.564680992927149
15.011615642032831,  8.142136867519623, 21.144857629763010,  3.887956435032346
18.007910071087124,  4.904264557908744, 117.984891379206459,  3.814043995309198
 6.179714465390819, 18.357041726433721, 75.218982517066351,  4.168871661447851
15.541789545383804,  0.079661473232976, 60.435942626533837,  4.021228694963258
 8.800065994786147,  9.115146221234001, 90.764574339446312,  4.183062895964957
 5.177130639385213, 15.299210743432758, 103.189126505834366,  4.177528404837241
 8.601772349657212,  3.112447371101754, 12.859588426873556,  3.925697934316418
18.231892601100260,  9.972528107148495, 19.704596399394369,  3.996622157344135
 7.051744009933776, 10.233163825570328, 28.176724106236151,  3.691257514581112
11.587034600185712, 10.605275282369170,  7.753236534660357,  4.113937927259062
15.031823047120616,  6.571505961768016, 81.448348256825710,  4.102854176180963
 2.064128647798440,  5.891072556453686, 96.122766256882286,  4.229355068312314
 1.308740124507752, 13.144583678760979, 18.769545061181223,  3.863517549005530
 7.700651791575067,  6.234339917817120, 56.802292560446290,  3.894287650449034
14.644243516867592,  0.207337648810575, 75.054553400824361,  4.056993862154822
 4.104151319314661, 10.596152733795153, 61.898716404602389,  4.070778304117087
 9.940482980599320, 18.242498091592662, 33.712128938252690,  4.164735677866156
 7.074336370725603,  7.763653402546749, 31.527442851404743,  3.966753906884424
 3.236735193839067, 15.524596354835099, 74.091495576646963,  3.990150656043477
15.433116798871044,  8.002961475963129, 61.077249546338798,  4.182098088308956
13.311509734462803, 14.629427873448687, 98.000363596502652,  3.776554564394485
 2.548572696441077,  4.314955312353112, 43.366600465386860,  4.360554643229235
 1.841266251975694,  1.805406633449935, 38.094929143189354,  3.684358526371427
 0.107040666730602,  0.970397470180225, 27.874218174642177,  4.094357710577082
 5.611766653411114,  2.564330664352315,  1.577115622788920,  4.195813905636320
 1.915152323931630, 14.109312156503028, 97.303247437501810,  3.919402168149771
15.743730672491351, 11.046615600062603, 13.970443862944483,  4.164814915495592
 2.448085089490764,  6.405478698477629, 118.693543187372242,  3.962048154540607
16.680875084959265,  1.720161498595356, 108.844665739846207,  4.114830234065638
 7.093983736478882,  3.591522600602882, 30.936289057424062,  4.425215614859803
 8.577124678823651,  8.953098520725677, 117.139907655762187,  3.521900498207604
11.077734368481154, 16.057101409721660, 11.600991053511024,  4.131670323749105
15.382130230204780, 10.724086904112150, 102.509381297347886,  4.020245003826727
 7.125292093418511,  1.936389687083538, 16.622157435958954,  4.298752389980889
12.196081259723190, 11.329744942223284, 33.661655085511562,  4.096216114742509
 8.526524013037237,  0.445614203728080, 102.975305354810814,  3.896038778959974
 1.863514019312017, 11.465113981982268, 34.794270578928966,  4.094534520740716
 8.520655081074111, 16.270926670882776, 119.103805919840468,  3.660223766739144
 8.583559671486874, 12.770987296203225, 117.483241193055960,  4.054623544405886
 8.830262666536610, 13.787749049236000, 91.985924739437721,  4.081873213079911
 9.122463953319768, 13.686428979142876, 34.963440667668102,  4.063940891338047
 2.013499263105875,  0.865294041986231, 45.660677593203083,  3.895262978889089
 0.878759690784419,  1.577686567569942, 79.757710506369364,  3.794082158901454
18.853962382367115,  9.318663880707701, 103.024098771965512,  3.539577797948635
 5.152724171122212,  0.638304323428306, 55.552181559566399,  3.692243613880703
 1.131788340222011,  5.730871186993764, 35.845202122919851,  4.009561261195759
 6.006107065573358, 15.606279995222106, 116.148517507099911,  4.044575013917166
11.449609553043640, 13.418814171032396, 72.960635579572042,  3.742003625276199
 5.086233257730688, 13.115670332947756, 111.805730891520497,  4.239771639332699
 4.237239408726649,  0.403383856298464, 19.224544359423287,  4.030892786801870
 0.223999382977178,  9.234258589334992, 37.617922716904907,  3.765343770782891
 0.193555768451432,  9.989528811989317, 62.965286218658996,  4.004317687315377
 2.966595542159780,  7.719513133815391, 101.792637127669579,  4.016867459512017
12.325687098639879, 13.780315088440668, 48.153874438518251,  3.686305915774077
 2.535674434122009,  9.231226395747436, 105.581734960429827,  3.930275441861279
 3.273145893327819, 12.116470784436428, 80.575030721044286,  4.054710231809995
 9.128277211469538, 11.653997986320533, 38.349863126817382,  3.821430888504537
14.643329232583747,  5.065078228043410, 16.612099929853937,  3.986956056708338
13.872612197368801,  3.777194447768685, 59.039443103999467,  4.401424556646682
 0.760266752585316, 16.441427596606353, 80.417357697457632,  3.925324604529099
14.083728510763628,  4.416745170818864, 107.220838780785911,  4.045102139359762
 2.187379337398212, 18.875003924264107, 76.189925564749160,  4.102779091191337
 3.360178698941525,  5.504184465045801,  3.251373405874733,  3.918622462019604
17.872004408268552, 10.803571960802342, 59.348892974347194,  3.909079311703854
 5.958366319828768, 10.952543856830134, 104.095722808462540,  4.096531758984714
 8.858782299415301, 12.500142119059376, 101.869562422075333,  3.772707875817056
18.820813353966020, 13.886711381514187, 47.902655268765422,  3.935085354624236
12.673331447949041, 17.649625225118164, 42.020946169327374,  4.133285135675239
17.437555829271663,  6.791080691510856, 33.198801526777430,  3.828097686176959
 3.457705774980720, 15.521456552901213, 118.952249106408061,  3.515240571246000
 6.878759684134971,  8.925089730608297, 59.539493675520745,  3.943090490357408
13.146701666844233, 12.471260131547844, 29.789117716609599,  4.168684739568088
10.527287614898469,  5.680789341790061, 30.823304907704973,  3.578676611026002
11.361142971405380,  2.375934871506569, 73.716104214609317,  4.242980101466780
12.455414182112504,  2.590672834235825, 14.035041253491251,  4.125003429337438
 5.398337807591576,  4.749616308629016, 79.081684369344075,  4.129094479729453
 6.737924269763753, 10.052293637259236, 52.460311142338149,  4.029738005928502
 3.011283263273365, 16.319376827442426, 12.092235340462622,  4.150760467493034
13.344838037147772, 17.933239814419760, 51.838070018762203,  3.823746493581058
 2.024928588941608, 15.979754406998016, 21.586332954295642,  4.208021545992824
10.530976399777176,  9.441572844722321, 30.491398630178718,  3.926325936617279
 6.093934591931250, 12.905670844449457, 23.454605055612053,  3.946515343122566
 5.346157205133117,  5.124142347630226, 75.032344285664223,  3.892853209817808
 9.978003870908207, 17.868096578872922, 107.549952408635875,  3.793179223090347
18.858073410556631, 16.199862966262227, 64.286811115142967,  4.010269196154555
 0.103332566093946, 16.148626039654673, 51.379137574362495,  4.210189372522245
13.633529431532537,  8.102489410118237, 105.266697894626589,  4.278196058298148
 6.923518626780175, 14.194394199826849, 75.633101545809595,  4.109553538601681
12.491725276114044,  4.108946250524454, 27.561549186995808,  3.837013768674497
 1.518987218339954, 12.883702598225440, 69.306394236850807,  3.931938664149230
11.966572679372849,  9.080956954296239, 78.567251751683756,  4.067274595969575
18.570104155101607,  7.413261093724503, 99.662832587600235,  4.146239944053486
 9.589164190955719,  5.231606773896133, 49.291804512181223,  3.658713298623581
11.457040366314924,  1.678038297960982, 105.321140306064919,  3.996804976235230
 5.435197723225697, 15.182011580859314, 49.924334055584701,  3.822850957459679
 8.257005125641754,  3.195911134028133, 81.215708250104626,  3.652774165315217
 2.457639413889229, 11.830862498194564, 118.246337295517947,  4.157120847371690
18.946713286699072, 16.722649975352326, 38.874023044104476,  3.984775177507997
 7.180910901905891,  3.342211819030011, 63.756423281553417,  4.003383752965165
10.301634253995209,  5.574855810015227, 106.288704639928000,  4.057806052552657
 3.984049022830482, 15.650206035612035, 78.014514222214856,  3.935755645008224
18.881623869718133, 17.209473698040679, 59.884892197652377,  3.792397203011775
16.714138246275976, 14.406810844823578, 29.429095014628572,  3.877169580388053
 6.327360555955277, 18.933967809786282, 12.032018545657756,  3.936273144432838
11.982836486091204,  3.378408906272662, 96.039496157155014,  4.226337823986674
 1.319971125691705,  0.515842738530041, 108.113911980623570,  3.852667154191106
 4.217652291227438,  9.176373945539329, 24.869096803133960,  4.003618074632405
 1.203182305555258, 18.948139483144107, 91.074142225454551,  4.161852479784582
16.822375530532216,  4.714854251463702, 69.913642265203265,  3.778484124466926
 5.404712125306585, 14.046070049209888, 60.066791743329162,  4.026415807997628
17.529816657258078, 18.377406266804211, 77.760631791297442,  3.926830525945281
 6.483172652767291, 15.961025159834728, 71.866465157870152,  3.904209367920172
15.634040177166012,  3.724720232744195, 34.911743748693361,  4.019491435358436
 4.304631224052388,  4.428384858621787, 55.315647123606126,  3.963462617157047
12.880989605629784, 15.798380719106781, 19.680027914250818,  4.188274621228793
 4.180676440661308,  1.288838037022079, 86.182945434436135,  3.813186201005216
 0.658500575769357, 11.209420260268951,  6.744088990001973,  4.295265058595254
 1.467187918256589,  4.965112729214709, 27.746348928793644,  4.286751294612293
14.786613275839676,  4.900119892088902, 41.553149362996358,  4.098145723786604
 2.635213511488342,  2.235199353712520,  5.554920267809527,  3.881565597808254
15.018351545222908,  1.399931903142205, 29.529640142005260,  3.595087480810987
 0.917518143927027,  1.682034307486038, 34.305102364668620,  4.009166511483348
 2.809362270826016,  3.316457298942368, 51.539756734835855,  3.830050473659206
15.415695138181633,  0.547022498984074, 48.915402942371742,  4.080013518150392
14.724630563647878, 10.710353819818076, 81.363412129974989,  4.120699223257806
13.708534010870485, 16.381748373528001,  4.574799992895572,  3.876702878365169
 8.743419393808587, 12.530321643060441, 84.751988383749818,  4.048761803233173
 9.576971652938159, 18.174508871953094, 115.979275649464668,  3.906049214531806
 9.138769531615820, 17.626447450921141, 90.417514361410582,  4.032704444504046
10.668429380156878,  6.544534584242941, 40.759457360176505,  4.088453849221556
 2.662366354993539, 11.345477903468799, 58.028919442842671,  4.249801332390719
 3.747430243616962, 14.068417856576172, 15.578017217790348,  4.277012455555987
11.489080451195459,  3.496919546662178, 87.339087157621648,  4.027673293410014
 4.701616990964607,  4.257838010385756, 112.235150560485877,  3.992005905333793
 4.807551378843303, 13.580548729763834, 106.989910006444461,  4.040682799567517
 9.161820835186196,  0.921229477179904, 85.449038577324416,  3.875665639838555
17.544232596405230,  5.888602111715271, 85.348694235934474,  3.912118527937961
 8.024154381603944, 10.733896224804095, 20.338880414932625,  3.738740165610114
19.054454348110820, 14.325321702329903, 76.972460702801456,  4.300849611528970
 5.576051451187454, 16.568755465034261, 46.258458091470125,  3.780497434875044
 4.295346784099139,  9.297527611792455,  1.689339646352540,  4.156739995602815
 3.269675478510661, 17.378255769767090, 94.312994937727282,  4.048219073292110
 0.463713434672299,  0.763756717740868, 20.770747937860449,  3.992600701243464
15.861487783130364, 12.845906811150329, 32.898838279886697,  3.612763598923514
12.136986833645112,  3.811204557979842, 118.921013172380725,  3.893428357076619
 6.087477447831997, 15.928216178641524,  9.291216477488904,  4.123622344299703
 6.253137696653685, 16.039009237716854, 56.617383186433919,  4.119466272024330
 8.725516721526789, 17.975581702263007, 29.365288625501481,  4.126043660854270
12.303348051126060, 18.976398838675710, 17.080941249335858,  3.963031977778222
 0.352675618462402,  4.978967391649828, 10.251246886524743,  3.990379308651414
10.872246893850978,  9.334004240094259, 62.334617355173641,  4.032377593861598
15.583294425323302,  6.789870155568342, 110.322206567531097,  4.069339965899703
 9.099023270813980, 18.884097533992520, 19.749997928918038,  4.148652970002345
10.448321801907676, 13.616803441165860,  2.003105968275273,  4.024274053694911
 1.083653804773705, 13.646815677984010, 61.226314726599739,  4.237589517201962
 6.700516647111217,  2.273307066946636, 43.030878920392418,  4.405357868717360
15.656033770769969, 12.382758045979848, 77.906575349503157,  3.722064810887745
12.771006807128471, 11.253514464596851, 85.185330114875981,  4.319177599255431
11.820377312152456, 15.166946175038831, 117.295262863701652,  3.935824062469398
15.404955336817496, 14.780879697288585, 101.343363226039784,  4.115541087647084
16.398422778009728, 10.769611928337648, 27.919997292574298,  3.981426565320473
 4.571561668952572,  8.443904603124823, 55.631017978657198,  4.093813303461351
 3.577185779909874,  4.607915239645947, 16.347058822792444,  4.563260670296609
16.052897065604618, 17.518818638667227, 17.189311040211244,  4.045645200258502
 1.898671951348422, 12.159923055461292, 12.083763903734575,  4.381745942255758
10.357167455040424, 15.557101156058220, 16.499884969228685,  3.752219117302934
 7.278572650724856,  3.517335882995547, 95.615785745840284,  3.741049826714574
 1.922183319769311, 12.903571115952188, 65.194615017208577,  3.959503953707414
18.577946766565269, 13.859610841578339, 15.249176510770743,  4.188924029486611
14.221624578451257,  6.810324760507125, 92.782860045762902,  4.268935637680326
17.766793873464131,  8.411222752284425, 16.285922161823425,  3.564749967802057
 1.090037672702816, 12.754407319865519, 104.277367623408779,  4.101499810740981
16.150558406563380, 13.659094352392835, 105.377948606402924,  4.242560575030588
11.480978814717826, 16.461041815637195, 55.189712327678635,  4.294111990404511
16.192556842601160, 14.751218308720162, 61.569194291050103,  3.937861313719772
 5.526432411013203,  9.487598087142256, 45.290875955750799,  4.062641129733925
 7.445561113329233,  4.809992620844638, 24.660591908214204,  3.826937346542185
10.371869276049473, 16.876930172005672, 75.341184284916707,  4.640610366723021
 7.539260255864245,  6.162355715845322, 18.016622176320798,  3.799802981360664
 9.308872718691955,  0.214445807611516, 95.479159661971607,  3.995937785218331
15.380649826471007, 10.363385065792819,  6.998607658744507,  3.525937886321404
 0.688467244288034, 13.068716517876901, 112.162696526052528,  3.877244812974669
14.973712656172424,  5.205101343021357, 99.308158917765851,  3.988151610965188
10.466034751307514, 17.551283936017853, 23.400160312010325,  4.045042762091451
 1.818840862643270, 15.435618170288970, 35.729601958506791,  3.848236270144241
 4.010021737187670, 18.696316373320659, 35.843047029785403,  3.893811537857290
10.385020874292147, 12.234065022097759, 88.543314097557555,  4.079149882157590
16.899003752015215,  0.042274251288589, 36.321917849768063,  4.086558824456410
 6.629634806306079, 16.775676517282196, 17.114652317084708,  4.182433800135078
15.688483701673393, 10.074171582506239, 94.731467168601128,  3.803940785237145
16.359059702168402, 11.566292055501551, 55.585926481272899,  4.210413732900638
18.507454896273082,  6.005324421179929, 107.497279370749041,  4.205417117273147
18.027574207186760, 14.243908906467802, 57.870684684813064,  3.530971571755099
 6.921825308442842,  3.203801991545932, 20.703911368472472,  4.151684884585305
12.869824789977667, 10.191526630916798, 71.116243390979406,  4.095080237549410
10.585172962033264, 15.192289467432232, 39.415223797787270,  4.052182732341357
15.186829003726617,  3.896480914187586, 73.420696659166339,  3.964737524044858
16.470662318363797,  7.620960728575728, 25.649663270912232,  3.596477073373010
11.033638771321918, 15.155578644694598, 27.342567502976813,  4.202974121294694
 0.656004218810951,  2.886133904881273, 24.233153535250043,  4.012764929578535
13.425878853026539,  7.055068618384589,  7.398210876659002,  3.876204216399747
15.437742768858353,  5.575663786885434, 88.893160615145149,  3.853307097045119
 6.997167601326188, 10.874845224686513, 114.485137109786095,  3.710345777153644
18.772132518320131, 17.104868219321727,  9.681094948933559,  4.204414067463447
14.096158656566558, 15.084400599438085, 86.713899969369479,  4.053249365280360
12.937380089487021, 16.420866988980794, 105.287517600638267,  4.174189488238591
 8.991155746191470, 10.744368455388376, 94.629151735701910,  3.969155521712709
 2.098993482575880, 12.800532285807453, 23.893094781193678,  3.605412446440006
14.017358781806353, 11.847803680457714, 45.348174550099522,  3.914352284395848
14.008925030656961, 11.185207227462779, 108.156003307189366,  4.144403477869826
 3.405257568721529, 12.010235594676669, 76.538290311833109,  3.977900825377395
 1.451817503022268,  6.577303197683293, 50.007460551365980,  3.704929723670944
13.567143724372759,  1.368536615739400, 44.946666238554592,  4.103135785070438
16.679238115335838, 18.258862715655848, 87.355246341627023,  4.035181236688991
 3.666926749468035, 13.027878241584977, 42.373899947317355,  3.835897885147940
 6.773408601012624, 14.225524601665018, 40.205479805302609,  3.946580277370520
 9.077513777739021,  6.853434438146219, 52.693015087621880,  3.829534095043387
 0.191902436471203, 13.337404165599615, 73.065190814061523,  3.769970071398003
 3.095393354139518, 16.542139839265396, 67.679156968735924,  4.437520058069301
 6.126179710584833,  0.395666393015774, 82.867048301712487,  4.051598242317347
17.333000315256726, 11.133436865151511, 10.139030369404885,  3.965812935303088
10.092416094932851,  5.543873486056439, 90.184312014838710,  3.465150772643501
11.454993613454404,  9.764310273425894, 21.814145333931791,  3.968485113332820
 7.308207029523287,  2.958537238447046, 105.674335544648173,  3.796124432020582
 9.239249995507659, 13.508819470309916,  5.907564247402675,  4.128410619265927
17.684274340061631, 10.821786350487448, 23.730417288505009,  4.194282488897106
 1.451235849870740,  6.541045888558812, 40.023708746982912,  3.819684021179154
16.360674222016620, 13.568815368014603, 18.799244242847326,  4.179352839361600
 7.242956573673817, 16.229693097995934, 25.611417947796873,  4.185782752062957
15.476696750057409, 18.190486444979648,  1.556121525428973,  3.884859251608211
12.003379122247710,  1.653848589256243, 55.051507002549513,  4.119036481573415
 5.000991204744369, 18.925673706335189, 101.030479045850683,  4.200512710755311
 7.441654905495455, 16.850599410900177, 37.100411763554632,  4.274597725694449
 3.637559627865678,  9.723363497954871, 68.514801450565642,  3.717266279659309
 3.804157883565167, 11.796376531393301, 72.526872649054113,  4.094159409314518
18.336551840045235,  8.908353846708351, 82.650750958476536,  4.257062472596091
 5.439255985705213, 15.249999626890052, 98.926724057981346,  4.132377836689262
 6.291572994116334, 10.062240456197326, 108.068296573117706,  3.833003284738386
 7.223316782998714, 14.545072154428283, 88.595641860675286,  3.555738103799580
 3.001986425248870,  7.294341339358604, 81.925704712533204,  3.824968225872850
 5.340658630992363,  6.348758904314713, 51.657917272450845,  3.989055172351861
19.055911662629235, 10.659740331224267, 96.912078265110580,  4.035059317982026
 1.469042871823866, 10.646797148092647, 90.124342750470234,  4.060104430249979
13.230283468720490, 13.426862905718107, 51.944938265987524,  3.915198344338582
 3.130775562567019, 16.078595003582041, 25.600375386089326,  4.042806571700003
17.443929386328431, 13.496290023824267, 66.836544421481577,  3.877690333886399
11.817542777448207,  7.259916335262527, 68.863996148822352,  3.472881943793753
 6.081229141210816, 18.837512011701371, 32.380574380818430,  4.002824032664690
 8.651444778134437,  6.876793004725059, 77.005924001528072,  4.258824339472933
12.654753321447020,  1.484238209380366,  2.790601451576790,  3.815468739096328
11.790992994557982,  7.498407748554392, 58.827982440083325,  4.061219556596219
17.728777077183270,  5.860135442092744, 19.187765992756169,  4.100011841155565
14.486196206875521, 13.629722184281778, 26.347690405314783,  3.563415055103329
 9.733340088044622,  8.139594897016293, 86.167884452909234,  4.260658716683985
12.712173823836103,  7.336358315243213, 96.731833021877037,  3.916777048218223
 5.580697348071802, 12.048135472158080, 36.525373965323745,  4.168430597437395
 8.778650328144744, 18.591760057285153, 40.632152567557789,  3.964199878514424
 4.962016568433573,  9.065394628447319, 117.109612068744852,  3.633363302956101
15.562682957388752,  3.145436259292739,  1.011337464588595,  3.615693265452942
12.415836525718897,  0.085689497930727, 26.838065061278851,  4.339040197483524
12.172867751044118, 15.160881125517292, 83.339522990267071,  3.712753831064897
16.814932938874648, 17.364304887070119, 42.411505923176044,  4.196008366142546
17.006177621010476,  0.988943219461033, 71.512627420349872,  3.802272016783946
 8.172763578585814,  9.576070604135397, 24.167442842809962,  4.031853342038529
13.688359789133083,  5.149269422930216, 113.174891594705059,  3.477248630819941
 1.709308753494721, 10.552862176130649, 15.900426044102845,  3.856179317232506
16.544886333753272, 10.673028529787969, 111.405386262617270,  4.139532820927474
11.766480693897417, 17.199747263920198,  1.370754561619231,  3.691096270202156
13.769813718386590,  2.807143778504814, 82.424744001439265,  4.035444374554236
16.624932126792665, 14.081108466933397,  7.336425408361444,  4.189175989369295
 8.808937896593541,  5.549831643525034, 60.855685329430173,  3.924415372267303
 1.388665537597066, 15.648319028218912, 101.410500034386217,  4.034204937536436
 8.674508213967387,  3.982203522354844, 112.449648090186500,  3.954089181240734
12.444205533446238,  5.675736189568997, 62.469960978357733,  3.867936288024075
15.269154068967968,  2.751602775317497, 86.168834563616016,  3.997632690688237
 5.858785050067564, 18.579831687420128, 64.715421485808790,  4.358434456852114
17.937412108725560, 18.734983388236468, 67.893455748564392,  4.083812885406985
 6.393042788142408,  6.876055005718333, 105.063024023099388,  4.262100331459852
16.848225836022181,  8.945395755988121, 90.326441113824174,  3.941699043890163
11.303968681949634,  1.861016911463817, 30.718546434123969,  4.160013250007832
15.316865173659412,  5.282160849427278, 45.519101212406269,  3.934573719861650
10.246313495422042, 13.347041671432956, 23.504432281351587,  4.302504359575934
13.601073525346045,  6.629119218037960, 85.499060628794084,  3.937383571151843
 1.176796576756259,  2.165362657298288, 12.997676584079938,  3.945689773711993
 5.983821087943987,  6.352358805468482, 41.995430294518393,  4.034970482082415
 6.221089367400881, 11.617134213633348, 32.321765167621074,  4.080628143419848
 8.276834096814451, 11.009870823127159, 77.734794840602632,  3.952782165847762
19.003916512459842,  9.838570398192465, 67.116004599857732,  4.023489795272608
15.013939369660209,  3.329751307028070, 116.188951522974065,  3.716629719113615
17.109478541217193, 15.223207070625495, 35.468163775721067,  3.761216742038721
12.918624294292805,  3.637985093653555, 48.256287442095505,  3.975096788368260
 5.176399648692516, 14.657429467707908, 63.951059316707564,  3.734199596428865
 3.876926393943807,  8.047909246146315,  6.340194494835838,  4.098973694351845
10.686721442803121,  3.423074902718410, 18.371966035293422,  4.166462099275435
11.571773487498310,  5.855915507466977, 110.153800782674494,  4.018052454061836
 9.739198507429093,  9.259531042373208, 104.020017059949353,  4.172256239931060
 8.419743093671427, 16.196414128077716, 83.092650313081293,  3.945432393046988
 7.337505555450728,  2.536104300884564, 99.186297853072048,  3.641430690733019
 2.393273817634151,  5.514306922131277, 85.272586045512057,  3.649877261314303
18.020403560043881, 17.532657098507137, 46.450120987065240,  3.958914757304067
11.177797050867722,  5.201069145447638, 44.794849977761302,  4.379046325437105
16.346727897174713,  7.729914023755151, 72.533227745237127,  4.224320850943873
 9.531596272605512, 18.637392429438609, 14.297002382843242,  3.906710819602973
 7.645224059346879, 17.103490119467590, 68.177461016451161,  3.968844766737591
 9.143756020944332,  4.749355337098740, 69.719456321208028,  3.899089427771504
12.556713393715885, 15.185454805985309, 90.572451066820861,  4.250034992761824
 7.252605731542404,  7.424119181135094,  3.982921120749416,  4.177665459565730
 8.241766667628633,  5.351582559749122, 34.812977618977648,  4.367005612878489
 5.601449354423290,  1.134485320882151, 46.695667253104588,  3.560439469700459
18.125267929812342,  8.708257117575164, 119.247982691799706,  4.153284387193471
16.971450737019218,  0.406885391154607, 52.925363636063153,  4.356134167467151
14.465210347232196, 18.505698697070066, 80.367443261420121,  3.826937033651288
18.649883013653852,  2.184724079368662,  7.771340758442360,  3.647043104801077
 7.765131438247392, 18.210094580159346, 49.059240015867594,  3.874583930804193
17.768374091513277, 15.796109309979704,  3.767867017337216,  4.031735326643785
 0.540780586006289,  7.869592863146292, 111.166204057504061,  4.191473480618789
 6.180913713140420,  6.937322533425809, 67.582354873955722,  3.946884900271658
 3.503419270116294,  1.372810939636010, 104.626067610510688,  4.145530527119347
 8.337525811759736, 16.872733384943768,  3.683805353338765,  4.121953762607577
 3.115533102507302,  2.364923253450953, 73.108757197441463,  4.137574350416741
16.971826839604894,  7.264088071265017, 64.770786130396729,  3.950786761446462
16.665907645098603, 11.753709415637612, 70.405785521966465,  4.214318358480242
11.506874217942503,  4.992980181194788, 79.640929689142737,  4.366018653621949
 9.816022556145072,  1.717815375109365, 61.188802438563165,  3.977511916109731
16.317665757524473, 14.139678052121868, 113.777240662731501,  4.030215368123020
10.897980643405958,  7.426501725979213,  0.415540480806580,  3.913556191483233
10.247707791175131, 16.598434760519901, 71.074983152963526,  3.867063947244827
 6.576923175087118, 10.345515109767550, 41.335871574316634,  4.098748329595399
12.204342347681109,  5.789118954246685, 55.066972032841413,  4.139438707087633
18.528468276366624, 17.778038347978399, 13.927703586888359,  4.037556503093850
16.447718532830798, 18.391599085217717,  6.575304889014324,  3.964162049097594
14.590942398122099, 13.833271446604577, 94.285025173372432,  3.973553614718647
 3.496689744531056, 12.122036188055782, 100.935702687662442,  4.220671006576618
18.720594994238461, 17.423184715857111, 56.074247700460340,  3.844791967927514
 0.810345879821469,  8.538623740092362,  3.606909392085976,  3.895457141996062
18.106232648374199,  6.497635187358389, 43.073813773521778,  3.851288886039717
 1.014624797256862,  5.306292702123159, 63.038745843962154,  4.049252699340879
 8.864713649777261, 12.570227257344508, 106.451185853516662,  4.014677195592363
 6.177118536079549,  3.838515774465759,  5.442124824880314,  3.842557830367728
 5.078603259122266, 19.072832562097240, 70.280497202541710,  3.592144729501726
16.171027178483751, 14.684956283449871, 11.919877164037677,  4.188230584244085
14.374892878376627, 13.690256532221676, 41.816069201416717,  4.036871771375510
 7.514239463104761, 12.821694312744167, 16.822845640783875,  3.932816301262097
 0.505442729348929, 14.100050465831053, 107.974358250647398,  3.695957996590649
18.811612090936208, 16.303527335955135, 119.102297828062333,  4.020845598619426
 4.578838811222296,  8.084580706945319, 34.875881810700342,  4.395779713288538
 9.356346660625496,  1.623914201249113,  4.901881319357840,  3.931409441508671
16.171644352109009,  1.882971564441039, 15.086957801101166,  3.650605779316940
 0.844946446479712,  9.341705809207374, 71.196654130988108,  4.037335838626001
 9.505030845430907,  5.693979509636928, 98.250805573824422,  3.706620245426244
18.908012658273179,  0.584132572419140, 95.067524178692040,  4.358983937860013
 2.554806129600014,  5.301233442178082, 104.973203914555953,  3.966009807056598
 3.425649804557212, 13.680140360355667, 88.265951568975055,  4.054732431879860
 1.603803088750700,  7.767383887617573, 59.849608231829897,  4.003033139161770
16.573688222129604, 12.840793527817574, 84.365175078051422,  4.080601109260429
 8.254571178125177, 10.337048575415825,  1.330387927862838,  3.896931022440354
13.760853207851028, 17.637501419386123, 113.651768649293260,  4.356227353820489
10.266940832418586,  5.662011724682553, 15.148444544337375,  3.656142600633864
 4.246947136969296,  3.408151475508857, 108.241618271067239,  4.188865828205076
12.912016175685505, 12.368773609189988, 11.150055861084580,  3.953005843491745
 1.695654342303819, 17.446376541908808,  6.039055799610459,  4.127437992263098
 1.110959858201626, 16.971458139317285, 17.651682604187751,  4.083777974043048
 6.591014608738933,  6.250558286764145, 119.256494782025925,  4.085357016676708
10.519977483276362, 10.267065800837724, 50.607892837217179,  4.136221986311983
 4.718241152334328,  3.645736158730846, 69.642118612599631,  3.810974505377536
 7.348779678824141,  1.484366006227879, 35.614941184213485,  3.730962099406498
16.383899043435470,  7.439102904936040,  4.885895417967951,  3.866755459789966
 4.468695603824746, 15.769834178384368, 82.101810346761354,  4.192935193736005
12.792636273634821,  4.311594963977989, 37.984262062084625,  4.158538010409863
 0.670717044104218, 11.596273938591924, 44.670956504243826,  4.065767448170525
 5.354290864535065, 12.223955138733833, 96.003396202555493,  4.203127197861374
10.045017900553756,  5.601123642427583, 65.790731943908241,  4.299351730991448
17.939169943727936, 15.556718729366565, 70.239793426532103,  3.809619632933207
 0.334188501316138,  6.114020328931058, 88.934058370388271,  4.169251453712099
 9.896868064393351, 15.662493539866105, 59.035148000671370,  4.063732586266311
11.572402711435146,  8.442427661274237, 82.483913991256657,  3.794627023179153
 7.236030332144583, 11.970399822967533, 49.080277910597566,  3.717849290719188
18.310558573995522, 10.002386825238959, 41.329804318246453,  3.880944133456822
16.809564514815698,  0.455495777999415, 64.197935394080631,  3.764943733017118
 5.661234760376678, 19.035050130488774, 97.010338533750030,  3.769269155069126
18.757960238863742,  4.318712225057521, 47.347793554442106,  3.917517783877681
15.743584449161448, 15.546066561111987, 54.220060329532259,  4.051350373580853
12.268448033455403, 11.349461914543792, 118.379606102703761,  4.001646436101630
12.641408752705445,  6.596778184327506, 51.105146460397002,  3.866568868633729
18.620063748015081,  2.450269977855538, 105.181836351909269,  4.000678435569047
13.686190249238697,  8.325812234409815, 43.471497712484897,  4.019252056988644
18.462529489967448,  3.475800441263574, 98.132924806764322,  3.983080044127049
 8.165503310278169,  2.691713155787017, 76.627606829806197,  4.187077441119373
15.366366456422886,  7.844409489089607, 56.869380953751737,  3.905999395827662
 8.733795702882245,  0.131244209819021, 56.926975131183603,  3.959272713178191
14.722790799652739, 10.420518904904014, 115.089911654153269,  4.053488870025019
15.746636710172137,  9.736996217912267, 35.578976490892082,  4.449569084605860
12.435282353107189,  6.754316487906496, 34.223000614985438,  4.426347469866900
13.650276257686714, 16.789888415803762, 30.074661178558706,  3.985480084141227
 9.709242480626319,  5.360496487853773,  6.771042815343124,  4.287382073209940
 9.205432761728346, 13.186789466082550, 53.621008772818129,  4.256379484400429
15.244984016099925,  9.609976366426356, 98.674112430532190,  3.903799727854277
13.769154561598015,  0.488363556019873, 67.183726334083261,  4.426021987797547
10.879525285510407, 12.204417858097626, 81.098999028479540,  4.142855391179506
11.095334247125779,  2.891523842772593, 23.893714368403579,  4.075757711954841
 7.106399695957694,  5.423405828588093, 45.966218738521171,  3.930919890716967
16.616539779343423,  2.233547375295759, 101.517613013255527,  4.111132270951893
 9.944479476301630, 10.178501135310915, 66.192303458562961,  4.058647629130138
 0.482501919219735,  1.766909236033844, 16.902721168326583,  3.890265964550366
17.067588597704248,  5.888596676492182, 103.528811701160251,  4.230896229322466
17.020252721563107, 17.321621498209989, 83.276702502460168,  4.266553333126524
 7.384871156948052,  6.319204108485763, 109.205682251163054,  4.287858828631304
18.415232579236346,  5.040535161634566,  2.528679367851411,  3.871035996377473
16.162768093169465,  2.086562809499425, 18.971804513093776,  4.078911974046884
16.528414998876794, 16.916734777721857, 91.404867331450276,  4.272549255143695
10.952455378277206,  9.188524562156381,  3.987150038975127,  3.968939416703441
 3.429914492955076, 10.600120392961701, 21.009630806512330,  4.101419347919515
15.684685940974067,  3.147114413034942, 94.194511792386166,  4.019901581423328
17.302297105963760, 17.788497968163796, 99.347219671417136,  4.035678564590098
13.812696187901084, 11.795579633478813, 67.240027004435191,  4.106009183737775
 6.164386807826920, 16.878693172683253, 112.484229409096599,  3.668323047584858
 3.416588040308353,  8.316945649404511, 87.558728667818272,  3.862908487215572
 4.409993822221145,  3.700203267119842, 34.315544396120714,  4.031669767039197
17.542635135663801,  2.015838644766911, 44.328416015384946,  3.995135036690816
12.008598932771100, 13.235081934074923, 63.743861898238762,  4.109918446657586
13.014814872711144,  0.047316057595355, 93.133170450243753,  4.203823466601128
 2.969089886778160, 17.175414450357813, 62.099708978640038,  3.900955644433240
 8.728209112675218, 12.674044341605006, 10.136297270363775,  4.363019149349939
10.214954851921334, 16.353479108949994, 86.695565280776975,  4.089500939868580
16.058585719565816,  4.189387832565774, 55.235710471258606,  4.152469300424510
10.443335863670052, 12.499023066172400, 14.200382631583775,  3.896962613194299
14.412100861333236, 13.108119116836535, 22.373818147839110,  3.989639101447239
 6.564199568157476,  0.981834020695472, 110.520514445976261,  3.853879315157414
 3.381131111817712,  3.355628344911496, 82.296204923087927,  3.906218239774756
16.062164796552032,  3.353966057848770,  5.283713285998093,  3.881874649098696
 7.140837999193207, 15.139875140654432, 13.251685849035457,  4.178300580281703
 2.657517400126972,  6.882617324079695, 114.660975012659165,  4.151239965113170
 4.737303798159299,  3.833903348793768, 11.914970387445749,  4.059875618365998
 5.329032586492211, 15.218679057629206, 33.936166266639027,  3.993647906250476
 0.725994282687598,  8.944210928904774, 26.788016109646435,  3.923491998800954
16.841497088756078,  6.529497197505488, 96.010649043146742,  3.992631444127027
 2.307062938906654, 13.048762588222713,  3.073024373596590,  4.265769788955635
 1.785693313910880, 18.952044332465338, 83.349964686592728,  4.011761772699953
12.682300935979917, 13.274493646858513, 112.156831631847155,  4.034459566514850
12.539387503447385, 17.023579198448243, 62.103608723480214,  4.003247193046183
14.539005502743716, 15.956397568479668, 77.153448460602078,  3.823640387665039
18.145176627750338, 10.547691019250710, 75.496221702870457,  3.967115935636014
 6.583620103059588,  4.223889338188085, 84.705317206005603,  4.287639370814977
11.414794660401558, 16.034621322921485, 79.596338768968437,  3.992738474769785
 0.577858007201322,  5.616557532694018,  6.271131807643211,  4.025465278355970
17.185868397028155, 12.612006061869501, 51.727936075009829,  3.836659732157359
 3.837802533646898,  4.186123885314181, 65.846282356503053,  4.052551525458723
 2.883229868333272,  0.112462078689470, 58.577612333546405,  3.922445831459771
18.022835745377645, 10.299765755197875, 107.193487533437647,  4.205836285893453
 0.716254374470816,  5.474232997846014, 54.307664402358014,  3.777814281878291
 3.609349957177943,  2.475457015493897, 94.080955424685214,  4.285038267403854
 1.667099665401280,  6.283558476351121, 68.664806834687425,  3.998773572523732
 4.500901238749187,  7.244825187088177, 71.570408663519785,  4.335429236750686
11.112167059180880, 15.783463194387718, 94.727841902802098,  4.043743245766217
17.575531865112580,  0.809761063103959, 117.705930864409638,  4.062446058429122
10.072086949577320,  3.542904098716804, 57.833438310286787,  3.556589211631289
 6.668496632508586, 18.071268874888258, 60.429421668811450,  4.412203603656240
 5.077076932354349,  8.772275986196648, 111.828731156180325,  4.042513113033183
 4.604153093525794,  0.768111197813420, 79.236932907772385,  3.828866484691647
11.418168153098000,  2.794452649307460, 34.573674442752143,  3.771034737827014
15.610765049415020, 16.216265316362751, 116.972083244752966,  3.670122177070697
 9.200626489252876,  2.194233738696086, 46.975698081933032,  3.964091807668515
 0.960858283548876,  2.569685397928822, 69.737575277728510,  3.856684663217500
 2.519005899097069, 18.629699903087499, 116.913231326070687,  4.148555423063111
14.116841916659645,  4.648270192530632, 66.181389602235427,  4.070232076470405
18.149842728601211,  8.044666165603102, 12.518297780195734,  3.963713245426676
 9.055064782446342, 11.737783503931281, 111.194573007332266,  4.039432167603666
 4.731211141111023, 17.430232914749247, 28.960690670250411,  3.846023126184667
 7.715468151733852, 17.873043949915299, 53.134857071962522,  4.265394917291847
14.739153730735589, 10.861938840602093, 49.469241116765076,  3.644480715014529
12.855911420559195,  8.400413079369450, 14.774866838871045,  3.827311635364009
13.155015724456975,  2.366204262471026, 110.842396521021143,  3.764896126004214
 2.519747351447292, 10.996991681734196, 109.256567731865360,  4.132169131669402
13.799722421038526, 18.491328059992281, 101.910313397433640,  3.904733177324760
 8.166890983131571, 18.310775535533981, 78.787409822155169,  3.985062902313628
 5.479181769319541,  6.516635182464738, 27.829827960758596,  4.301185998859571
 0.118274953117011,  1.737080358090877, 61.390141524027136,  3.978087208930171
 2.362859606674009, 12.804041846639450, 50.690850352784807,  3.965412615919102
16.488802219188823,  4.859771078015330, 22.942016729075416,  4.017268107369618
 8.782863873551110, 14.913473733696218, 47.384770908422318,  3.659895803841446
 0.795677020809565, 12.505201493030674, 28.324600816848076,  3.723947294194415
13.198033709874784,  0.139794465604668, 117.611982466360629,  4.146604031207364
 8.834768951130515, 14.829107118246045, 19.982417480479100,  3.837012895600711
10.053535633476402,  1.136099014372265, 70.197745486940917,  3.565137344137274
 3.390067592087096,  9.693576113550813, 29.874012914636218,  4.261747497292800
 3.556506468019705,  7.231301108112667, 108.670216038777127,  3.612261282269573
11.677334626999684,  2.260064671691955, 114.460751101612871,  4.003639472880613
 9.284442605051996, 13.744291110313835, 97.863383848177477,  4.276440669392782
 1.749595966152394,  7.714168006014045, 46.040998200939583,  4.406503907558655
 7.395509498904960,  2.704594489575701,  9.048256425257120,  3.983473560794263
13.741251888218278, 17.830907026654579, 109.196545766860254,  4.275463433887472
 5.756127641638384,  7.165771353873390, 21.533302240922040,  4.234276182635862
15.081238879775766,  1.620096476644807, 97.836632206121578,  3.740982176843602
 9.936779743778020, 11.210558373982821, 46.397638535724347,  3.981094022720689
 9.040204916522855, 15.927600520664329, 104.372792977022485,  3.843201649982400
11.447220819571445,  2.484001030665127, 41.501711399680161,  4.143222315238029
13.274030595883394,  1.861038573477443, 63.224338368468892,  3.973922356331027
 8.006905581736332,  8.415286672426724, 48.208340176436913,  3.715614493467291
12.783204519492154,  9.302620607329027, 111.653298759148328,  3.868941526977907
 1.303200930662539, 15.020395772401146, 91.187886467179496,  3.637483244961206
17.020657264018027, 12.762825237421453, 38.638201241742472,  4.236749831809287
 1.062523183390516, 14.670761960743290, 83.998060124629617,  3.886429565274981
17.426836749882426, 17.195065219756476, 107.154120620809650,  3.927991591293809
 8.221469941545463,  6.554588869038484, 72.959429514050612,  3.677632049749783
 9.769365726175044,  6.070003443042637, 21.697014932415275,  4.061802623075437
 8.968259491219975,  2.390922483293996, 27.326546052846012,  3.985118771181371
 6.129186990654637, 17.024687140361827, 21.721110241779819,  3.618681724459998
17.084675855751513, 14.174305179286351, 97.473961940255279,  3.866790711513614
 0.442837755828799,  0.831474232464120, 49.429887931816218,  4.211962513454210
15.738731456362229,  0.996096417530388, 24.133254003623158,  4.179969267013256
16.068613874463214,  7.135304122099078, 49.178735013503818,  3.852137436757041
 8.605926150387575,  3.064193258413821, 117.291350498551424,  4.014664068027137
 2.223904201909205,  3.994546272040006, 58.674452303878397,  3.950327940671646
15.429177346033194,  5.006515082551943, 12.483893290343781,  4.135908412284270
14.683047454637228, 16.277901949503590, 38.578959810517659,  4.200807261015862
18.333362723017167, 12.615530044481750, 80.706754279500956,  4.037935961221050
16.635370457023217,  1.239848303280399, 11.281678999005395,  4.122432218577001
11.426710298572750, 16.005338306859841, 66.754621591050139,  4.096343611394772
 0.935423691947835,  9.352938999456379, 78.803654295979925,  3.860013348042410
 0.989627219822224, 16.311854701817428, 28.932230964291996,  3.889220812673785
 9.191443713694703,  7.928740457903211, 112.526283242085981,  3.850046237488143
 5.649608755822926,  5.867537005480109, 98.305198445301798,  3.907781970827593
12.313531733267387, 11.728047322844636, 100.264327454124214,  3.835273699310893
14.294953817139680, 16.578512064232452, 45.617342920716951,  3.892722064260697
 8.664245440103727,  9.594521851432564, 34.950656817805829,  4.152915664608025
 5.023738051094584, 11.212115238667884,  8.831356189108106,  4.013854362930285
10.587769635763802,  4.775538145896359, 83.714722770889239,  3.860704430070208
15.129948527104403, 18.746975655448352, 56.528933589979232,  3.858833379483640
14.403007983892833, 11.782294105193637, 88.967158028534314,  3.943971906254636
 7.789163737068354, 15.144935696440063, 109.383079944472712,  4.055370623164405
 0.897504529066798, 11.105283340610315, 86.015731171244099,  4.218464817957415
14.012364974668950, 15.482783295422589, 58.349434695365645,  3.859704420939710
 4.527764517608269,  4.764435618349804, 38.212030240761010,  4.000096745553980
13.632454867902965,  7.913902947376417, 28.049625636088720,  3.776354069704240
14.332120542066376, 17.440636037124076,  9.643251049621560,  3.719901738022329
14.093156710682337, 16.514742200984230, 24.249513349229083,  3.601060680445900
 3.298429448869203,  2.646220831782437, 98.515368466096334,  3.997400465379195
15.533194315147618, 15.582758624577602, 49.456146736291615,  4.062318907272757
 0.926306794591241,  3.011691661091199, 115.048999347120173,  4.191718053144099
16.095697229748748, 14.393393327478014, 109.696075892403556,  4.069926218591903
17.608218152265419, 18.263571821740737, 31.340522122195392,  4.030558024404600
12.488647539454000, 12.551444302692454, 56.214662941503001,  3.858494755238335
12.782945346593060,  0.695972882285444,  6.601139440363731,  3.853234782550072
 4.935306433344741, 18.342924459718720, 89.415397557997721,  3.933830051004048
 2.989268590248177,  0.736476721654575,  9.525530992581620,  4.353365749638622
18.467376603803018, 17.380306474730506, 114.838348558608601,  3.710270518233307
 1.930486187564861, 12.333321864621588, 93.810111008526761,  3.918040975035037
18.912118096285678, 10.035814261211913, 49.168972871197653,  4.113621194854294
12.538939328514513,  8.263375009569103, 89.214213069422968,  4.005367410532468
12.411261112344601, 10.907393307254562, 92.419983132294561,  4.176299712582485
16.759362284875298,  6.181266313795845, 38.018174744257728,  4.208293145665139
10.023663154956107,  0.390304951389424, 65.014096513596485,  3.992392949073877
12.644062363710168, 14.528691857218728,  7.858356566588021,  3.884379884630157
18.147383358468886, 14.532959864326260, 25.477327180779412,  4.037668102673686
11.895146202380712,  7.345566643062424, 18.484779977108523,  4.042795189850739
 4.302026212862656, 12.540281512344693, 26.902012083208504,  3.824856611168428
14.286398318488962,  4.991820581680137, 30.892762484555348,  3.925482724847047
17.798244006456322,  5.875799421783169, 75.945094359662903,  4.056897426655840
12.448248422639681, 11.237910519556589, 96.445188478890387,  3.858099513636958
 7.125771365761357, 13.338213459014582, 44.263251164231932,  4.064746196989708
13.351175654016666, 12.440023592542982,  4.538727753011651,  4.033276362756391
 3.595165525012993, 14.028801348728624, 30.621031765523554,  3.747206989827855
 6.739151412740608, 11.910772313329396, 56.870033879054638,  4.068011796726223
 5.856465231905267,  8.098063835686625, 94.896608855441684,  4.226574177138498
14.735005814692059,  9.052002266436473, 31.575609408211719,  3.874779094154075
 8.007768967682930,  9.089725078328780,  7.474517880369370,  3.646214723864236
 4.781814759698588,  5.796413089544652, 61.415038910130967,  4.085724204617602
17.863300359218119, 17.140788090004666, 74.040443000892282,  3.902247433031207
11.182483527823724, 11.101997350497943, 41.736729930167947,  4.176245818662482
 7.514034126078875,  7.640239200287152, 38.394017477604649,  4.077839860080350
15.565378096102076, 11.331093670878531, 63.605474303417473,  3.960118585730408
 4.589461626005512,  3.300553873138071, 116.944000097113076,  4.053224751639179
 2.871820160207212,  9.187848788659494, 42.368637705698070,  3.799108088138017
 2.138048626362335, 17.983956871149264, 98.163086140999226,  3.863752490475271
 1.074559132815433,  4.276608303010661, 101.573937809711083,  3.705648156720377
14.023462986926681,  3.097735318087812, 51.954491361464285,  3.810185634425121
14.738063215527859, 10.007719096602381, 17.749507895799194,  3.871886119428581
 8.914185887910952, 18.001271216142047, 44.634403723060032,  4.115825856177233
 2.146732416119533,  7.602235166809921, 18.819373008905458,  3.706667548312596
 6.508644423052684, 10.803491267055383, 87.748586523229775,  4.054190134111509
 4.257245249743544, 18.805118879042777, 50.876517552720472,  4.016039960305282
13.684081566813992, 10.404604442568441, 24.973054821690361,  3.627522623515802
13.326925520892660,  4.230635302485686, 102.840815366135644,  4.020733201665418
13.991917641023484, 14.392680557350742, 15.617225505546777,  3.911863403902841
 3.325431281416737, 16.407615246506328, 109.717261220078484,  4.301223633268386
18.618683854844036,  0.796557978874106,  3.475050547176777,  4.124532776310782
12.897028627201507,  6.590976494857941, 24.348045543993660,  4.191658977614936
11.544088708871987, 19.023820552254890, 37.609154788053154,  4.241071512905495
 1.941386650475324, 16.695024309065925, 105.401604853449555,  4.140205407536569
11.253789835973601, 12.027279850651375, 18.334677042929723,  4.265508142292330
 6.153084458812481,  9.354500789763129, 74.759251836061054,  3.982965554482057
17.516552905841063, 12.457066765549165, 91.991899034667810,  3.929815426777977
 0.132043589779578,  4.473888008350965, 92.732992141561255,  4.069987795353875
 6.718021525678445,  6.208425119548274, 88.485461709886536,  4.175372056330116
 3.704811047184596,  5.295976730741241, 24.433772446549540,  3.723297727256966
10.091866604399844,  9.089533530935560, 11.936881742543875,  4.077337314723832
11.141668237259941,  1.193413198570995, 10.334522565658384,  4.074159461612825
 9.930026367350244,  9.459987723117232, 55.677674129489731,  4.233224843544934
17.275587663362746,  6.076839173752089, 114.186019604325281,  4.196166507324968
 0.047851523508929,  8.658488475022205, 56.329312691740860,  3.875598787411328
18.309711474588266,  2.093982105391176, 74.960973018960146,  3.773833813164363
 6.694527353462353,  6.252821272232681, 115.122504718860043,  4.059251023863954
12.587702865284486,  8.284394652908437, 47.451161836814137,  4.175735614324897
 3.672832008588507,  4.349637083486702, 47.725260610582289,  4.026206906273828
18.536377807715585,  5.004166875255140, 15.052210934751304,  3.804070477129050
 5.039350302676164, 13.537691053993200, 53.574238718061544,  4.000742577747104
10.343046882904437,  9.214433899052889, 108.237373416762665,  4.087824973332265
18.604511225149555, 10.312779306995175, 31.542973313708689,  4.239923290955838
10.370537556295833, 15.768578566757457, 50.703042863300659,  3.846637690040390
16.252942587765357,  9.414769422223578, 86.439180179990430,  3.879338131953231
 8.945900121744412, 15.991139325783450, 63.109432601118343,  3.653715252717341
 0.542880065813291,  5.349297455058675, 72.477683296572636,  3.813813010003646
 5.011310349958679, 15.106302050659478,  5.439065917106549,  3.968077003201498
 7.460745171748239,  0.958215314949595, 24.014764266368115,  3.835057126168420
17.734858549719821,  4.180096429322812, 51.239541870817135,  4.041295424644479
 2.089953283945301, 15.999014638699673, 44.499244826709514,  4.044114208104189
 1.602593481340993,  0.060386192875848, 41.695940361917359,  4.228557318900878
16.156945223039429,  8.623756659232518, 78.231346409810101,  3.793851526504088
 9.251379373380145,  5.016119247321470, 102.230135307921572,  4.363529746850304
 3.730930290195596,  4.643004875274468,  8.259304156915409,  3.664109190127195
 9.490712217413229,  9.593888089406201, 98.519421344209476,  4.046677054713690
 9.139245975645213,  0.718678574543728,  1.118831482657444,  3.726412195846700
15.014715732442166, 16.144516394747988, 65.014732471127772,  3.793722068003798
 0.999458402748554, 13.337085990221222, 54.547029442153587,  4.269939041246099
 4.019941333636602,  1.872954439546869, 61.888391907048572,  3.857779207486098
16.957062671873032,  7.960733537350616, 52.951597088114234,  4.073137570731818
11.337803566383178,  5.309712230202354, 10.818493553929207,  4.119310026218928
12.942333436698959,  5.519440080978450,  3.588203028016627,  4.377877786722657
 0.203364555771832, 14.202962593825118, 32.476485278674133,  3.805461231510435
 0.094754135526807, 14.130487845173050, 41.752677708524494,  3.696474082276848
 3.526491995661895,  9.205488609805636, 98.068160683166113,  3.942586715550194
