BANDS
8 8
NANOPARTICLES
cell(1), 19.076
cell(2), 19.076
cell(3), 119.227
 8.794380165686672,  1.808088036755896, 46.343665382156068,  3.993647800880558
12.881218092578422,  8.785492235973395, 44.115888842347367,  4.082298555778441
14.114154876678448, 11.326639323303613, 11.285764840955910,  3.687932257265154
 3.032087429798857, 14.748085826454577,  1.098034154036106,  3.932850143662022
10.743168304446201,  3.441933723012153, 66.303323193281742,  3.869642495270447
 6.854805203093640, 10.558558894187831, 65.020961148353720,  4.015428090616153
12.812478741993754, 13.414070117513932, 52.470472225168628,  3.898666188551040
 3.956741082132864, 16.544370155894004, 12.282191910467271,  3.812463319383666
11.687197663701035,  6.964251915118190, 25.276202210479219,  3.987641482242759
18.256496240729728, 14.752261698827958, 63.241623147469895,  4.030749213573948
 8.212661820168128,  8.012319504084513,  4.173939987092313,  4.408017554857442
 1.909176289218128,  9.946647694589974,  7.420487609074072,  4.185136225376437
 2.491153511928893,  1.636898964044257, 90.984580595709531,  3.985229905606310
11.996642742409584, 12.545227024679349, 105.202542808603880,  4.156780648859841
11.204938110043329,  1.889313750881474, 12.048000595740620,  4.102752078228818
 1.117013886202648,  5.985585619740787, 107.077906089066772,  3.912611719949166
 0.186682142830041, 10.802436205827835, 82.165194329546779,  3.902096847316697
16.268339860077557,  6.242228875219332, 34.051460555782263,  4.184278681819701
12.886799808978315,  3.074089228150568, 87.362291388549565,  4.036505376328737
15.729175011748334,  9.862037905041218, 32.258186163745279,  3.823648717336742
 2.588630550355729,  1.304420736511039, 18.988593723788057,  4.405932552992554
 0.762243845876633, 16.705903673932578, 57.272984350717273,  3.981257373247754
14.542084965913947,  9.789424791232301, 84.831701918216098,  4.003802121677837
11.866312693999083, 10.890142157429887, 14.622327412615562,  4.053031022114969
 6.689264754427659, 18.617353202190195, 84.248005525525912,  3.741218724744281
 4.513302998678991, 15.453999560953545, 49.937167723323718,  4.314344042816015
11.556599120275511,  5.803036236510475, 110.048905621537656,  4.247241881102561
18.594315897298198,  4.965927612614225, 12.914600976740699,  3.897013711857665
 4.399819738459033,  8.007230072711010, 112.597976083227934,  3.719521286684656
 3.897773843820037,  4.499591546660477, 97.783541896207396,  4.021858330511341
 3.007871824349157, 15.898148726544525, 67.880648812144287,  3.417145536422495
17.959966177210397, 15.045608476388727, 44.079388336540674,  4.182536370673003
12.470881612834697, 13.539616965934535, 96.852070929811347,  3.997424671906429
11.322106760252971,  4.767857850653751, 114.530239238541341,  3.819348537648628
13.264755760022240,  2.036170232426800, 74.074887140412400,  3.869343965363087
 8.979623030421548,  8.791477263765263, 44.577429313453905,  3.767651003683328
11.718417896520744, 12.195151873400576, 82.984795659633761,  4.196556182426487
17.371280593913223,  3.672095137575625, 74.158822526536966,  3.987309821174852
 9.128658120590583,  5.669055091899666, 17.685176310993835,  4.243468120346908
 8.296245927910494, 13.251361990336019, 68.527570277718823,  3.703780318421636
14.201442661960366, 15.859330781716748, 99.677815893087470,  4.077926843432733
13.074549449640566, 15.306691587587045, 80.441965000511516,  3.965816057968252
14.204639015155463, 14.152109539900414, 14.119505076490247,  3.989069622536185
 7.404225658079159,  3.864165032487954, 95.866520725769746,  3.851221837981416
13.427498746309505,  9.824704435032107, 95.472415006458704,  4.137495963170019
 1.419663032351588, 10.360842932326916, 106.846843570602829,  4.255669658206721
 8.310581583465899,  9.338114445038359, 24.666521778607937,  3.764954067190872
 8.552165021910499,  3.948418551105699,  5.752359279091587,  3.998262124266256
17.933895052989996, 17.781290130196389, 47.440647343395753,  4.472933323851509
 2.361007427977908, 15.548755236944507, 46.141907591856963,  3.813660672780695
 3.900324099538247,  5.731659551352180, 19.878094849723631,  3.723244717182950
10.886263247288269, 12.785544128395392, 20.184563634857462,  3.883089389555557
16.292855884655125,  6.362676571318900, 86.375287015045572,  4.038991777589929
14.207702930796259, 16.112429317878085, 105.601568793128209,  4.094286918831721
 8.151177134010096,  6.963880956656426, 107.918113962259085,  4.087094343755082
 9.103682147094860, 14.973793836115467,  7.103169154468997,  4.340704901597678
11.528901330004754,  0.881746638579765,  3.285552163215923,  3.857615765482717
12.664738460806209,  0.480342222705026, 68.521769577958054,  3.940923794513501
13.774098616622709,  8.038663016823781, 114.966606107896055,  3.932798618065767
 4.725405812987202,  7.683836912587059, 94.800786135682884,  3.912042737856102
18.219973239805473,  3.634723784079781, 64.254017141787642,  3.881067308747827
 9.796207491044512,  0.976000419946506, 22.659673390571044,  3.861438865249522
10.618160195206350, 18.656008086781792, 55.977150249869602,  4.164277127392136
11.716126291234767,  2.792737973711470, 102.497818995999637,  4.096944367834703
 5.439107019170219,  7.426799826578476, 104.766415967110788,  4.244059312659117
 0.996296813505681,  0.457295996237804, 33.925472464282372,  3.787602732334425
 2.090631639365993,  1.964065140265971, 26.344780550812466,  4.277849571914141
14.635756046737223,  5.228421275038462,  5.670527492362190,  4.059625247845466
18.886524411173930, 16.039399247001359, 32.925533153566093,  3.816297689824120
16.309891067756645, 11.475238229651969, 27.059349487704520,  3.991277152109916
 4.297569349580390,  6.291203631470538, 35.403673467998857,  3.922678196522392
 8.710183302547259, 14.355723312249564, 111.618972606693220,  4.235609183218743
17.618915188038443,  7.161266357338541, 114.527491151834496,  3.995198994455562
 8.472679250060375, 10.112124782698839, 81.624315612106102,  3.827469487056512
 3.063182242166857,  5.476141924764268, 48.497726677597399,  3.859810772029528
14.205443750757551,  9.744448733278855, 40.376614772528598,  4.001684340788834
16.907872224433003,  6.316293714493177, 17.012805453031142,  4.490708554403296
 1.152158733864993, 16.670209371829838,  4.032759899029706,  3.986071201421866
 2.294489767243725,  5.950294368603495, 27.390969210552637,  3.973240346970544
12.790357210649661, 17.081896464102069,  6.571102398907443,  4.137419728378262
 5.675000975873852,  9.087615058954913, 32.947571162997328,  3.898684781787441
10.194647056857482,  1.459007979384302, 35.891908005848840,  3.710682374528596
 8.648426725427102, 16.540580268246661, 58.905774486898203,  4.053367896833049
 7.760448386055186, 12.881672295029983, 57.538131608842313,  3.931676854549027
 0.102334130414108,  4.068144974532376, 21.146631711503652,  4.151467265156999
14.941874630673791,  0.299477215888929, 114.418126076730502,  4.174040314058926
 6.051158992977966, 17.936877683129364, 73.764341081170429,  3.856244650406496
18.522264547284664,  3.202587159391813, 54.212531598268534,  4.180795635922217
 1.846277319594556, 18.233108212072825, 118.320748218886109,  4.359752154166850
16.047159233626527,  3.847032316516399, 81.015258212508925,  3.830318070148969
18.824155583533493, 11.853512106923645, 39.467598336258185,  3.917945702947115
 8.534151909030035, 17.993291571521478, 49.255151482859709,  4.155405972783293
11.292535527134017, 16.850899477874776, 10.463019767296432,  4.212069525232875
 9.484117284856849, 15.996361720966675, 97.562035864724919,  3.747722983117110
13.443013879537421,  8.083355181845604, 81.342621623522902,  4.009984556760492
11.609094942629634, 14.932267680701488, 16.949094172104406,  3.832845739622069
18.511202738392704,  4.819815571049146, 25.006785889854754,  3.636098490282331
12.884296022350961,  1.537757710309014, 46.704517626829848,  3.925344606946975
14.609289018480160, 12.518067152797716, 44.377005408135361,  4.099435086500203
13.167061140864972,  0.968305948557641, 50.708444322153049,  4.150117397953814
18.512767823890044,  9.742467219110699, 86.237212679741006,  4.048440427932785
17.299241895685125,  7.737476639409805, 74.729282292833673,  4.079349952016235
 6.408443397565177, 11.512503370928576, 50.810610044148468,  4.398630012684341
17.558115268121551, 17.793686480099890, 107.391031076340852,  4.188389371718404
 0.475567414211386,  7.411701863919970, 63.944816344088466,  3.799575078235686
17.660480088892509,  6.192310542287552, 78.406278385053014,  3.649224129766628
15.939588883685980,  6.744967361762827, 54.732163513443389,  3.742572841859014
15.717767934042257,  9.870769258514260, 14.947545876293912,  3.907355871550987
 7.299880523380878,  2.582201752534774, 73.124243153725672,  4.094592099720720
 4.834751480431601,  0.966845223097274, 103.690665378078762,  4.061293129172681
11.941085498203950, 11.022792229624997, 101.185158024557367,  4.255101869092461
 8.130638993291251,  2.246351888351898, 14.699553808009380,  3.891315476723618
 8.477480136683395, 16.763522125599799, 26.907161612955719,  4.044281492267298
16.268384808702510, 10.945259464277926, 113.516159866308655,  4.077290807251075
17.107328909930150, 10.247303620002663, 63.013483955345308,  3.847397262825352
14.931205216899071,  3.854501178863050, 77.344682107332545,  3.827817983291840
18.369797934452471,  6.360064219960610, 48.012694253639111,  3.880875025776920
17.109855563153246, 15.212312561374636, 28.248383969424953,  3.855518965822450
14.020232013340221,  1.095449317100696, 99.590034689195519,  4.023216826287429
 5.769884516589368,  3.728847092434686, 27.650216680076920,  4.217711969155052
14.656133417264849, 12.801400845193346, 61.159514019058534,  4.095671271718490
13.325733946368443,  8.740334741729152, 60.567533798696402,  4.039658135711818
 8.963431005045081,  1.971652985996637, 92.633589505268688,  4.136118176786669
 4.480853144870403,  6.457823178801514, 39.467863642802996,  3.626944213311565
14.432452152825945,  3.359106013032428, 108.136632099193676,  4.179426777183513
10.696932011986114, 11.462634196695664, 41.684436146059156,  4.050340222575456
12.216165292686046,  9.406244850940059,  3.080407114866976,  4.102837043017806
 1.645970470814781, 11.974744730888547, 97.230405028865846,  4.254975859286155
 4.966467069398218,  4.437387783585978, 110.835656607154760,  4.124910103434044
14.400359941991125, 17.309254446028500, 44.676445967138804,  4.325913464236458
 9.272487884400878,  4.766075411165065,  9.727382021687401,  4.117387416641005
 5.140307122556929, 11.951771417948606, 54.745001254527196,  3.905691925421797
10.484428211440278,  5.357601946104592, 21.716965532287812,  4.136899318942505
11.153687427033145, 10.928215342719922, 31.756729389360352,  3.757705652699495
 2.563271370908339,  5.027960283603279, 10.127690121629099,  4.344346395014812
15.393065127343093, 16.446016911243220, 51.230806251600441,  4.359357115360946
 3.911787077749429, 11.866618477277614, 117.858057473079072,  3.831481630652123
 4.545415169380463,  3.754531593594694, 106.735969022475544,  4.159472255895596
 0.450845928925850,  8.813484378509264, 32.733352056641827,  4.105284353658444
17.155288135118742,  1.252069927651061, 50.672416267674521,  3.841472624301760
 8.781281937707247, 10.979366749352167, 47.597413480795488,  3.587313759059987
 0.310115527975844, 11.249131601506440,  0.179984300312823,  4.104309679396542
 7.867331341635814, 12.277310687597154, 33.204818283609150,  3.856851104628282
11.679599009748134, 10.980517078821940, 25.900166059750681,  4.081868739569232
 2.417849735892232,  5.277385547465117,  5.977442049748871,  3.935340992512400
 6.414978289847759,  7.190512869205008, 84.586864692722102,  4.208271214656169
18.092545817207608, 10.014159488650940, 53.663928919584777,  4.266300164885429
14.864074103583730,  4.314204500548123, 57.659038730206724,  4.070374351081046
 5.911947452485901, 15.016694083917713, 91.680989156691766,  3.806837592952924
 5.802753456608919, 15.075447797781113, 70.977753123348265,  4.127255236505733
13.531618407832923, 10.544829062694189, 64.057609971345499,  3.581470323459646
11.686257631804544,  9.016463917142270, 70.649248344680572,  3.646504258428954
17.299837435168829, 13.860386749992102, 96.463230548171779,  3.699226743616330
 7.653729720360272, 12.236660399741401, 89.407970777233757,  4.070211689149674
 7.227224095276869,  3.525368432980820, 20.498858180056715,  3.661290551932323
 9.874069328502037, 10.487782150860918, 54.970936357433381,  4.159039719424656
 7.854671644669836, 10.157382364035200, 101.027669257093649,  3.614664749871445
17.708175978188365,  0.032621757412005,  1.867292807336503,  4.198551006516176
16.434370816886656,  8.873191879524457, 117.966353372140006,  3.969121353005915
 3.249643395379427,  4.455326598203367, 55.594440270897437,  4.218137626040267
12.989694520644763,  4.890774865449517, 63.226824572107319,  4.183719387049911
 7.707200406377495, 17.926149184714038, 12.568576766277568,  4.150950657343043
 5.786628987198663,  7.752390006881130, 27.552987359430464,  3.820321110333182
 2.049858450840753,  8.583738074451317, 46.129572947348720,  4.098071829616491
 7.916911936702217, 17.916710099290430, 90.297603884828220,  3.690092587704844
17.878722234355898, 12.467655028472874, 34.444402955019918,  4.108447952007874
 2.411550123347021, 16.617185859115690, 90.919156465659313,  3.933540723121407
15.119273129915237, 14.816284447760838, 76.940880419067341,  4.114735398225736
 5.762937326785082,  3.116779284423678, 85.714763696504619,  4.116461859457833
10.763891730080237, 14.882730400602867, 23.504261653925756,  3.716886917951971
13.507627651593547, 18.974703677651725, 36.879764420257501,  3.866311424236747
 7.445813272888657,  5.506513200165425, 76.019768157105972,  4.015378016546257
 2.879879005583756,  4.398609774083780, 65.255481519157769,  3.801051227653147
 2.553124437854178, 12.930988827091429, 11.779518529726719,  3.896190590364776
14.098871971972729,  7.626943562487013, 77.149209624524431,  3.881176175416466
 8.565669262030337,  5.936467418632438, 62.903318046357853,  3.780554360338129
17.496648524981538,  0.987054692479116, 24.154184889597580,  4.388915487083795
 5.497635620757457, 11.662601235898803, 18.473059858790116,  3.944866727274441
13.947562954704631, 18.928246471745421, 118.463862087620058,  4.127893770134751
 1.309210527366137,  9.862497327465729, 93.452374199514793,  4.419801283246395
 3.494370036443443, 13.573856443971744,  8.084601189674734,  3.765829915232249
18.901375233946755, 18.462298956035127, 114.617847168393723,  3.945073551764249
 2.585111828345748,  2.227618057478132, 30.589649773401785,  4.208762419357430
15.615138386373989, 15.093113825318213, 109.822423613533573,  4.047342299184220
 8.537870964794891, 14.283021783052039, 64.668752050214380,  4.128233570706203
 7.028683496152166,  0.357827935286965, 42.511743545566951,  3.935518987730475
 9.282969608399874, 18.106860063105007, 80.281864249168422,  3.719245957663986
16.583944730896672, 17.363865717621099, 15.069212541722454,  3.806989360193533
13.773280294431526,  2.975193530322940, 34.419374083311801,  3.999881720234057
 2.466478377715978,  6.584370608964123, 23.422299540005493,  4.021818211545547
 6.387268587358466,  8.471207153469686, 53.531700892984844,  3.735964982536355
 2.215012448310794, 17.025335163110032,  7.642213841961710,  3.540390225498919
 4.283743137691916, 14.010604064143699, 64.731621119180460,  4.339007308115481
11.466558154969450,  4.967187100055966, 45.057162650341041,  4.074049586579084
18.905272241880720, 11.880532104039174, 46.308178538124288,  3.752477573783604
 9.647487682763618, 14.361881548645417,  0.095931331935582,  3.631857371612245
16.822233661834616,  8.273103276635791, 107.445388665876919,  4.214627089654395
13.349474682652748,  5.163693794244487, 83.995536537526405,  3.878948307048182
16.115534541847691,  0.259285847964995, 57.877114275127830,  4.224393841903481
 5.727243351219740, 11.223019737622039, 44.387740364559249,  4.036549566487035
 7.843763884563798,  5.692516620895792, 46.621734901633843,  3.871440047753055
17.532070081010218,  3.437845649933658, 88.676715071304500,  3.741915300190799
 7.759169700969640, 15.135530134957804, 19.210770817284576,  4.089784987321971
 0.078282935993748, 14.815133515832853, 104.899014438643121,  4.159936370478818
17.235712277464280, 10.595662340424765,  8.938888694427407,  3.993667631907422
 1.719758907324016,  5.410025586819970, 112.931529396372696,  3.749537596826456
 7.094165245009901, 14.703563238246268, 107.577810729951821,  4.306240460874872
18.155488870985550, 11.988281176606220, 89.915970267927761,  3.860764670229018
10.626004344433834, 17.277452921683686, 62.477735564445204,  4.232270668932189
17.099874016045039, 15.564924782375806, 91.200947560704478,  4.009781085741221
 4.748990056751719,  0.760830404558921, 66.476763954030005,  3.883550565845298
16.606433588295022, 15.943059175474046,  5.650444773209449,  3.916383772952813
18.651183900648839, 18.801595390593484, 29.061425246488625,  4.081154185891170
 8.189625415672301,  4.313678579042376, 42.658357853484773,  4.115825166906972
10.871883372580895, 12.970181303954590, 10.098585638982419,  3.617835084730143
10.316351418903452, 13.346284249886924, 28.849960653610051,  3.926708141647066
18.728146134907806,  5.956314116875656, 57.498527983297706,  4.199555469196666
 8.240107640454919,  3.494170518497235, 116.939218894949690,  3.843630985916631
 1.947673078627584, 14.100463168955034, 108.422796226395164,  3.883129770301405
 5.071563634856139,  2.121292585794844,  7.048864268224467,  4.266303670919542
14.361732529604291,  8.548339487869040, 50.416470263402978,  4.233152588860066
11.577727322298724,  0.260903036862383, 89.985644250688551,  4.049522542943597
 8.178507463898420,  6.377180652410279, 112.590950086908492,  4.150805754357526
10.225714357574779,  5.189934750505905, 90.043981160378465,  4.187939908285900
 5.436497804240985, 10.543183803649951, 98.017094956293676,  3.902133532860079
 6.576782006935305,  0.857283966166923, 24.865330438859708,  3.915691589246598
11.791274752420929, 15.394050655883975, 42.063410525712342,  3.971643958101109
12.726932402645438,  7.073610140950754, 118.836611782016845,  4.309895403112205
 2.541142251263855,  1.242479995217802, 62.109084179679627,  3.609443370120081
 9.215169695689767,  3.836507003894556, 25.292084885952907,  3.968429973734845
19.073581691445579, 16.226055133939091, 12.067800279014032,  4.048126186790847
14.738174812637604,  1.627882658282986, 54.329050332587720,  3.845163887844513
 5.963540481553363,  2.857971433207777, 63.235210706032184,  4.163772147533524
16.619361143043726,  9.742291358707348, 79.339877361441992,  3.891684031686491
 0.404916671371266, 14.276819505799493, 49.234196104626449,  3.862317839990847
10.156201561001847,  9.443999065406192, 62.872821220992414,  3.901595984680656
 3.808151587908309, 17.181244966779733, 106.899670252976549,  3.929134961654943
 7.249821967594113, 16.449687964464314, 23.050629673620779,  4.022357094587819
 3.910219994973693, 13.121280335516721, 104.866488718257770,  4.153186089317552
 6.371426964149442, 18.945460470351748, 20.018846642397527,  3.843669197585916
 1.018774883372452, 18.814170209996572, 104.285464850149140,  4.009300147306428
14.742038924714583, 16.488815360031012, 70.305248726686671,  4.174159084106622
14.226073147126579, 13.127464404851747, 30.288721653185725,  4.343110933268429
13.285855821028097,  5.237270460107541, 97.045210398626310,  3.866218321139285
 4.195856436877028,  9.963652520574755, 21.911056580302358,  4.142598323272123
14.688343720641454, 12.146869585319976, 37.306427695408225,  3.816112577979183
 7.823625683414146, 14.359374042913156, 74.712974867174893,  4.334034424738388
 3.789466978261308, 18.825574516132061, 70.404425802924408,  4.431745148201678
15.124174610218871,  5.582290371814373, 30.263171835384437,  3.838565023363231
 0.981731141149203,  4.561824301351754, 33.857921420456215,  3.993902848414728
 7.665456169630836,  3.307310640452482, 68.995770867135349,  4.004761181228645
14.204255642471090,  1.163882703809812, 17.230712925527015,  4.202633654288869
13.959296139111636, 10.093136569617691, 54.189129118070383,  3.919582455409132
12.909336611416681, 16.806911625881952, 92.812608838313523,  3.838588728343749
10.701638468619569,  8.466476057608039, 84.621242102423651,  4.112098348791920
 1.775644133503868, 18.787235323270650, 14.540147427776905,  3.901234511096047
12.681238074850041,  7.529785423994345, 56.814194878433760,  3.844039683520763
 9.081156958896441, 16.287621471326993, 93.557837540180387,  3.954887460333400
11.246311276586908,  8.717292699206219, 74.485031115122155,  4.087645505326159
 0.920400736242350,  9.994203553247516, 77.006867871203511,  4.211188431317028
 6.504816133951584,  2.350090664004395, 31.323479809732977,  3.702914840669353
11.533166933070225,  3.626665148307750, 55.392065033787794,  3.960438031134570
11.475460716040745,  5.327985409623797, 105.806130176460456,  4.232998009786868
 9.730755959557367, 12.341025714034798,  3.884886313567070,  3.736834117998780
 6.451732294726768,  9.596337822050209, 72.835103609652606,  4.318210503481988
11.074122749708694,  1.346595287035728, 42.960469661944607,  4.160794732914955
 1.861288457292768,  5.453634565498399, 80.276532568301448,  4.003671154197062
18.571112175034507, 18.730206893254181, 89.095111154641444,  4.132148172884741
 1.682861995686205,  3.725815203716817, 103.816955433193016,  4.007072042953630
 5.366052766267569, 18.365191740983221, 46.340687136824137,  4.276788075412443
13.789059741127364, 18.492110017794001, 108.826127984723271,  3.854747946152870
17.803320833219253, 18.148425861680021,  8.744834977884533,  4.034518447620427
 6.039682562614285, 13.504642761676870, 100.580500368632755,  4.009039596769293
18.849814995062488,  1.083320764079728, 81.166757733616478,  4.004575421129209
18.041065740567102,  6.976744004025710,  7.315598509568957,  4.088060419828412
17.532655010461731,  1.452834355371198, 117.456587223146229,  3.578562674024187
16.826542035311100,  3.007561497920262, 27.793781650672504,  3.810141047240362
 5.008531957187787,  9.921636907136682, 10.361677772833893,  4.307729615591064
11.854020895244982, 17.144276244221409, 29.307622328751641,  4.228737243444004
16.007320762619489,  9.258948793552626, 46.673441306873656,  4.038994385241561
10.768734015483348,  2.531358270690710, 71.226540080372700,  3.753831608019358
 0.913115636066326,  1.899516694790610, 58.315224541277438,  4.233317899840864
10.730167500336147, 13.261226669907153, 45.288625717781557,  3.978447526576224
10.474253750577454, 12.251528949843410, 93.320986039011004,  4.445140443558206
 5.302716969218431, 18.695639521646360, 93.126733007767456,  4.142953235149527
 2.866785570058966,  0.172592761765194, 40.369015436122758,  4.170358959036141
 4.018883266321716, 18.551460004716255, 59.216410320973637,  3.756246599623963
 1.284251169009027,  5.837334948260837, 95.066672094998793,  3.868592187685382
18.482352442896101, 13.378275828018177, 79.069675279857023,  4.266826873797343
15.213453120212961, 16.183555101354568, 10.946186710266129,  3.793064729344656
13.957260891569121,  5.953154003423730, 72.962102796272845,  4.224649721798356
 1.874293508325284, 14.130642953331062, 36.640909274024679,  4.131606207305995
 6.665455741868115, 14.243104560661992, 82.447140175633379,  4.099550819272415
 6.244829731717148,  9.246405252596164, 57.166226751461302,  3.670231470056467
15.340330751702661,  9.444531192687450, 88.815395362394057,  4.037219114556104
12.623290847334054, 15.991098321727305, 58.909861156293559,  3.845773106463859
15.609337823640168, 10.342442159325097,  5.334106799101639,  3.881353291250292
18.195874290318056,  2.186669925190623, 16.234555868159667,  4.100116982859656
 9.183484336016356, 17.977593594356925, 16.465398708780608,  3.960631133894824
 8.755075793784567, 12.048731485760573, 116.259611908011593,  4.227897117077237
 6.840186785423340,  2.083635062774241, 99.225472593909544,  3.752502117782278
16.938925689829066, 15.037241710907368, 113.707628282190143,  4.143531159898266
18.528488762920762, 14.006759727189005, 100.329848219226577,  4.312937878109216
 5.662302817807258, 17.589905771410056,  8.877881995919630,  3.833636775121452
16.415986584666385, 15.439564480661316, 58.721781626148648,  3.760862196861911
14.228029444466403,  6.398591781757196, 37.814610615915562,  4.174936844777839
 9.932501116524728,  2.237640632986927, 62.628653428447294,  3.931030638115770
14.308378553813098, 17.397869199995661,  2.920396410153828,  3.688791984526187
 9.818668635427715,  9.036374698905611, 104.743213435634289,  4.153287631835933
11.134183787812640,  4.860702871344800, 28.498155491394151,  3.740745986172674
17.584673747894819,  8.387018379280990, 29.213870065425787,  3.891281514584834
16.874303545361350,  0.993523029774963, 110.750168533201517,  4.038943187044055
 8.996718932713584,  6.213354697713449, 71.729071942003529,  4.379945241623139
14.872655689644333, 16.933939082840919, 62.179895276749868,  4.282170634768242
16.481684280007016,  5.969416093083159, 61.116096465049580,  4.211827146055244
 4.957985743161341,  4.426493584984757, 101.639835129546825,  3.933374274443684
 8.005465545827246,  3.407968650809034, 104.502262375369511,  4.059637282956976
12.956609622124041, 11.425878194629300, 79.008813556300723,  4.185891983401762
14.322242960332504, 17.025525171580195, 22.885267320710206,  4.248161651514502
 9.268686987276713,  1.675795189703378, 52.411881899429702,  4.329119523584207
 5.965611502611572,  6.468177627426043,  7.813490166182550,  4.221311809932718
18.318187358732285, 11.139682573784464, 103.496007954103561,  3.845468502963251
10.333451134417281,  3.041426015239043, 32.178627237797201,  4.001414433481571
 9.364730152207544, 17.953054579693159, 109.740971401887819,  3.742507147945391
 0.661309400475470, 14.966199591646527, 87.528853052856476,  4.320320706545469
14.775445637172586,  3.269764144836226,  2.083740025699911,  3.980991818077614
14.900501520622152,  1.253438441754481, 104.612590055327544,  4.078299089358158
10.703593013724150, 10.300877245987076, 51.005688674316879,  3.887237695295879
 6.273093443615581, 16.297703162714956, 103.814149101235003,  3.965936429598685
17.098675522730854,  5.795441170283851, 97.269218658590546,  3.802402415259435
17.732753016834284, 18.506295744887915, 42.028875336809421,  3.674213493750774
 3.129216870661697,  9.132075849178847, 80.290308930740238,  3.774658659253403
 1.545732877231275,  6.904633881816852, 42.405078499147898,  4.090783166193411
 3.416705714110016, 16.382680373430851, 84.194624441695069,  4.173132565047429
15.338874628712851,  6.304029921217633, 93.834585156143078,  3.982543806492297
15.122530927153624,  4.736651172799358, 100.352796213948707,  3.635410111212578
15.451809146885649, 17.615669735267257, 31.106475694994455,  3.838197991975574
 5.407939562010914,  3.666488313983792, 17.085591163011120,  3.839380033422607
15.214828832457888,  1.929331324919277, 95.776418066592527,  4.139785920216915
 9.834442563774726, 11.144093174785249, 108.798480806610584,  4.154218791620892
15.908574708285309,  7.610085004997711, 11.597720973227791,  4.061447160619487
15.244236409997566, 11.034010374392379, 75.652965280575472,  3.876692550729034
 2.095128131418319, 16.299687144430440, 97.963677108047463,  4.118063554129557
 5.067795984097883, 10.730287396557770, 83.102024431917940,  3.637458711955906
14.944060232468509,  2.678798005332917, 39.359731529971263,  3.813807929766060
14.199007187094638, 18.186059390807095, 40.632598908312985,  3.906003251923654
 7.578737382331649, 10.448859321685626, 112.571474160526719,  4.077338812788491
 5.453773659179332, 18.998701073226552, 80.535676179190006,  4.037388228682040
18.969283241602451, 18.492020762477566, 84.892582994535047,  4.107025124838351
15.318677488079055, 14.604934656466019, 47.595164589824201,  3.673209758666835
17.566744937101550,  0.869226115260026, 12.345585097839567,  3.913197249149555
11.232354023193016, 12.387616975394586, 35.423815217708778,  3.969657180750833
 2.772101550129574,  8.813199072425423, 54.945225644053885,  3.961785877182334
14.120555444112561, 16.699583039830085, 55.208816759441106,  3.989812395742884
 4.050403199135886,  3.244170385301519, 94.120066673352312,  3.714653603132593
 6.382750679070695, 17.320172403302767, 39.078989887903980,  4.200072270385598
13.111597883479416,  0.778512500759614, 64.491959180624391,  3.931137280004046
12.376775690796391, 16.974092560960845, 48.239472304807471,  3.882379549812122
 3.004067813579093,  3.395404617165612, 13.917186451550773,  3.950666238520925
15.462372017835078,  6.529710518153102, 26.429827569391470,  3.894586656601611
 4.730156754839832, 18.178899708946290, 87.880705784159474,  4.212847959704841
14.893437565626133,  9.497574973534384, 23.805187446686734,  4.085270926705646
12.768733339382695, 11.686557267192647, 57.680665425139189,  4.093362696068795
 7.586789387769103,  6.111295409792556, 31.071896164683377,  4.072464536779670
12.221448753358445,  0.871666263793713, 59.580424783067365,  4.127291179170692
17.497382713399993, 13.719947172219147, 16.484884791290455,  4.150846166300279
19.055215808761812,  5.190069404419961, 30.274966031972522,  3.449060867456405
 7.360263532408628,  0.829082338510496, 60.214608282840771,  3.604371719149876
15.000101237764047, 16.322020138831885, 18.704107209773273,  4.284201051934683
17.290500858179080, 15.260651055754108, 37.161493831289135,  3.579507828734840
 4.728577685372364, 13.439848132503224, 39.700325056544081,  4.322687367448422
17.034482100050827,  6.035245881713267, 44.272804992153539,  4.006117264718778
 2.875353078027489,  3.169055654468213, 51.702457898863294,  3.999139387182630
 2.151479085855824,  1.457772315613669, 48.051157210892576,  4.173227068893174
17.620336506243898,  2.158353595189845, 101.728669217564388,  4.052260702040924
 1.668291613986917, 12.980947815364827, 19.017985245432317,  4.186983572171887
10.337792472385171,  7.382879874277315, 41.208022353102990,  3.844599834046692
 8.300333532847265, 10.621160470435191, 76.339754143130023,  3.783958410615468
15.168728871641489, 13.363089043152058, 102.695711970280854,  3.964122292371336
15.661415472304308, 12.524925227426596, 81.970957584085085,  3.972505718193814
 5.101612736805778, 12.997634815639815, 114.385374875489177,  3.822372096953872
 8.365811978307606,  3.412624035958173, 79.352790348143003,  3.880051175444067
 4.401929814747973, 15.084539451591995, 57.559815920291122,  3.924741399928271
 0.137348868469316,  4.039288156416113, 83.975972904448540,  4.171643739387071
 9.476445037302547,  4.821483118879837, 86.003662418355319,  4.027468025847220
 1.031084881293502, 17.364643532483043, 110.805806412231732,  4.336677279105507
11.704517911897437, 14.847741916311730, 108.611516139689286,  4.085427559030973
12.649266655542370, 16.658192135063015, 112.221283994597727,  4.175312503305123
 9.660821224836170,  8.451056193925838, 28.392679291849195,  3.961366785255916
16.317738130323534,  9.860196278904557, 92.613942306065823,  3.782349097720267
 6.441510030699862,  3.183963377927238, 49.536905478141591,  4.266877765637364
 3.407173299583467,  7.161469516572049, 58.686263419931258,  3.995247802978434
 8.647312458795408,  0.095138950109129, 102.461445676461722,  3.813807690801756
 6.961534349456064, 17.544347532498321, 113.039001375671120,  3.474055005643401
 3.181834762073677,  9.121612062670851, 66.286371873969856,  4.128639350446989
 1.209857815050410,  9.749011084043422, 69.964276105284611,  4.254721287562086
 0.947787945526893, 14.141210397886018, 116.545397793690583,  4.086970525265058
13.897691021006194, 13.049500646127658, 22.505408453822291,  3.706478449009768
 2.765086003930275,  5.690052174720982, 91.364759749945392,  4.060112313534708
10.409049288524431, 13.099596341270285, 60.888128719649082,  4.355049662686612
 1.152907567254693, 17.771005329796406, 51.108192893752722,  4.171443299907994
 2.149292806994331,  6.438892778025832,  2.169074986587306,  4.026570507936904
 9.233519520277815,  8.869216313099889, 34.582978686039851,  3.872630762735886
12.570968813567079,  7.169718017572887, 87.679344102974767,  3.467550050392090
17.239115402697919,  2.953392364484957, 36.258282627281204,  3.842239739578678
12.834490419202522,  8.727347786295089, 107.477069658732205,  3.809421256949515
 4.191544883424577, 16.248864030297106, 42.774680618396729,  3.961794611494636
16.202758991303636, 17.107626741229296, 94.813709667526012,  3.866837449772535
 2.205626474196320,  7.707240283714089, 83.929690871415218,  4.223141948408452
 5.786028085743538, 15.596600375984888, 96.017158036333427,  4.289541015176935
17.581052326034428, 15.222266160058332, 73.649585472990495,  3.786454191684167
11.092596376474035, 15.640879404357561, 71.539080030258333,  3.665556823934272
 4.041846931868309,  0.558027806506513, 96.844001983498075,  3.889847971088818
17.084155400760256,  2.386495439251375, 32.037863453077343,  4.210972521215093
 1.675700524537178, 18.923672284749301, 44.336888463552185,  3.942029743844519
 8.686787424809772,  8.911806611423675, 91.539974287350873,  3.917006044376915
13.551146847644842, 11.565636159979872, 110.138089782641913,  3.682776645451847
 4.689547537693782,  7.808892184928514, 69.669382088093258,  3.696648772661101
 0.182854421541216,  2.037172382628983, 71.023619095807106,  3.956684977479889
 7.317886967994204, 18.901511259690210, 106.613568845814314,  3.859601400642105
 9.726539777942572,  9.306565957048752, 58.903095955183140,  3.971423116709204
18.696594031490818, 14.567054872685818, 53.034128586230203,  3.907666744649367
12.815863998832425,  6.963120376579709, 15.332553751230892,  4.118907685377682
 5.427875733627348,  7.189518653442464, 43.781204728410117,  4.137899914777142
 1.009150169001178, 18.399416379222139, 94.385504715769841,  4.244211931138346
11.394117377806561,  1.213342330445571, 77.708919303087143,  4.223702851719559
 2.445391833218870, 16.275874942774688, 73.766956258799283,  4.067342260542342
 3.609001733012633,  3.970469345104781, 69.275085886631516,  4.230959579803955
 4.180298353906593,  2.384839487676699, 34.214643589323025,  3.657124055850026
 8.264838040787275, 13.070823983372133, 25.598478894631612,  3.689550491456626
15.734932163911688,  1.103878091211245,  5.616734768142203,  4.454505749150369
13.672514682948627,  9.075186255375494, 28.919822952468184,  4.018098358356047
 4.131634325935894, 11.395397850264169, 110.478147002745672,  4.146293955726721
 5.526216642501823,  6.577461961015612, 13.053506878858151,  4.312408756179491
 3.338216838976447,  1.934880449522296, 74.048496750848770,  4.084778540550771
 1.072497691780918, 16.906544741410890, 25.589316910889224,  4.305792498148091
18.775060454293364, 12.498175851210675, 59.879237757220814,  4.115059801883318
 6.025906740541331,  8.881828473864163, 116.079199173580449,  4.055975284273613
17.696935879835557, 10.143030660584101, 42.975826945273894,  4.133935248122633
16.830718609708697,  5.702251603068420, 103.948946212840326,  4.439507937527242
12.437217853079430, 11.177999649740048, 117.962182618704972,  4.031692788257024
 2.031731605257760, 17.031402987245116, 80.425210712742640,  3.845186879569325
 8.795724375794213, 13.693093779116014, 38.524850312748505,  4.112182634211791
 2.192195974566669,  9.897860778696405, 36.254785188992614,  4.012063102690021
 7.060668792069510, 14.360009726602380, 46.717206449853094,  4.181448038599458
 5.138186373649163, 11.021130580249567, 14.483945862868634,  4.165022637203468
 6.237524807916620, 10.708603838015341, 107.033428039331042,  3.816887197828183
19.075098537217677,  9.399914909187167,  3.789405060499453,  3.932178817749160
13.103315067096368,  8.975534031311422, 34.935634364450401,  3.871659587837166
11.042723024549003,  5.579187259959106, 35.531881367240224,  3.826546670754614
18.285491769312248, 18.816024687851584, 38.248533750449660,  3.947522099662579
 1.170225508903067, 10.838270482219265, 15.437211512678591,  3.943494108634273
 2.174378011846955,  0.714547845419400, 10.450155154712141,  4.312936270186750
17.258131869942225,  7.299565188837629, 82.441764069150835,  4.016286199900273
13.434030773252392, 14.701283635504538,  0.347937510027062,  3.930080115305800
15.876092349355812,  7.026859437489322, 64.874243642176395,  3.677432857134929
11.079942315114607,  2.284408688984501, 95.994604064192032,  3.764402239038340
 2.540713072262372,  9.715853183638128, 29.093618090671256,  4.194939761515980
18.307396989591812, 15.970984598190086, 67.204188425449544,  4.078921459149188
14.415134212322375, 15.043570112791345, 34.291099189619523,  4.516910850374613
 3.074017692644743, 14.406601942354570, 77.396322491784161,  4.049537725217417
 9.806331862684273, 18.416235306947907, 119.155742033606117,  4.264355618570409
18.984009790719345, 17.023364703347962, 76.996289562843984,  4.170673293499299
 2.514530961404529, 12.270023326193128, 51.746967804356316,  3.704166948332703
 7.964085911917905, 12.643222466172288, 104.046226336858751,  4.024465221400900
10.920961425839796,  9.361678010594815, 18.217434557310302,  3.946441682723051
 4.261042492722968,  8.312877822132181,  4.719294457129006,  3.577705572095822
 3.537295534726262,  6.224808133747442, 31.224041973727086,  4.005478304113846
17.673315021803436, 12.419746989934316, 12.546266457503036,  4.114444014330930
 5.800715838636887, 11.819014283806570, 79.165734518120701,  4.127491631570041
15.106061629230012, 18.389041344260352, 27.147202540779261,  3.959490255360643
 4.484290281128112, 17.769313668964482, 32.587887095559829,  4.084106578573080
15.308799291269271, 18.941802549527488, 77.024638752421112,  4.113947618376064
 6.666800307510814, 14.028526648593864, 10.574680694578463,  4.304224980302592
11.897275086958926,  2.280249567219753,  6.809989688958431,  3.751018218480457
18.610079002405769, 11.443682260814089, 73.426422519571403,  3.968591756959791
11.524216243485757,  3.093887388084080, 119.029108356519984,  3.967188686738122
 4.249329584308952,  7.731617520066997, 108.653559457471374,  3.889435481951456
18.121856813606282,  3.174766476120170, 92.854644340178297,  4.364702292705660
16.395460811886576,  9.521922211772351, 57.650610551993935,  4.327582415913890
16.014735061413884, 13.177642629500248, 55.581848151795754,  3.994553429586943
 7.067721537211662,  6.404962520548853, 59.504817109294727,  3.642933456916680
13.303833649137445,  2.913489221370104, 25.580670305215655,  4.432181310544125
10.496302017182419, 16.156912055009808,  3.313904346561717,  3.891465134784700
15.506247175238673,  0.289019996560637, 91.593551291112149,  3.805967920153239
16.720972353281347, 17.297614071173708, 102.588061415750190,  4.071170827168139
 9.542411353369065, 17.139417545021630, 45.008211352329006,  3.991403962572110
10.450349512363278, 16.048906032883330, 83.277210880108669,  3.885167516864331
10.256571775223037,  7.878345024934144, 78.633088921822377,  4.342129679393353
 8.659355778961098,  9.472173426160754,  8.649453576457596,  3.778924602097431
 0.830373932226222, 14.132719015123694, 93.651590463312814,  3.909894413286420
 1.116424117540471,  5.982330078793241, 87.551591726529367,  3.929953992170544
 4.654847305588010,  7.165728008136979, 62.710604145466966,  4.410024187312064
 9.818152582650864, 16.162723577142927, 115.411972437402255,  4.410335067456410
15.256255141439977, 12.068422331018349, 99.076815903438543,  3.695669360472655
 3.902698628888704, 14.136857775217537, 22.395682949856596,  4.154273779208788
 9.580853487743211, 13.441445914187225, 79.809782643918140,  3.838987027328297
18.044512505456130,  6.886275493645339, 90.796545592651626,  3.976907954019018
10.348933445920117, 18.615425277555062, 39.318001471135815,  4.080190632293744
14.139021133164134, 12.128729714061910, 18.110635355935461,  3.936743891772850
 5.175264973207073, 15.665444798819824,  4.979733175778733,  4.377282584285836
 5.178368151396682,  4.064124628215402, 81.893228230853936,  3.819333402762638
 4.829644964852140, 15.283868259690433, 26.174529860890143,  3.942076946180042
 2.317385876798321, 15.458265918177091, 29.602904858493069,  4.497430765744682
 9.953895658661251,  8.139712411619374, 115.958141994382416,  3.938383862510026
14.455383462886195,  8.391706853431002, 19.863524076557528,  4.073445096080329
 7.423599235440167, 15.102979841977653, 53.239328037677218,  4.397643625381230
 8.169023319707829, 15.741688867732107, 86.705874622870567,  4.290446511289968
 3.635947534158633, 18.115121292622689, 22.663974787671481,  3.831710122597846
 6.325935621825008, 14.046760452637027, 61.087015691306917,  3.987159601383292
 0.938560567765029,  8.670053020446264, 110.779205181520965,  4.173461409674377
 2.092087607872577,  6.921660200883931, 15.263850360398241,  3.797985706632117
 6.736387322581882,  0.033934400770561, 35.514420402077896,  3.745875758803165
11.398382747336694,  5.288372930709711,  3.176803979512338,  4.063098152084305
 3.696630880770773, 11.420768489026813, 59.337963022565212,  4.172474094977949
 0.336175482333599, 17.067718499233724, 17.721374681499992,  3.822575183683353
 7.986311341736919,  0.079253163059227, 96.070519626107739,  3.815170856526631
14.089016643856791,  9.114084693425864, 67.614527059459789,  4.033463323123943
 2.045095264535427,  2.098135229813860, 87.041882383800484,  3.994800858421631
18.157087283348865,  8.153851563048603, 21.692505644934162,  4.117734443586056
15.785300642392235,  7.461474388525823,  2.455379321254869,  4.079280918670191
11.471239205592310,  3.451731448554172, 15.577819738960793,  3.391468357224972
17.792348981183519,  3.256554950025257,  9.053047873733005,  4.097008930598996
11.382050177523343,  4.915607729238660, 75.959844930515899,  3.946180171267232
11.590906815602482,  8.201409484523758, 11.228897747207679,  4.324491610831253
 3.051579440856699,  1.649753886969867, 113.340653364712082,  4.235215948430819
 0.671112618487462,  5.993336709226288, 71.786202369238183,  4.136087539067240
 8.839917920495058,  0.924116795565602, 87.142174747580412,  3.947687761811495
16.240774472166478,  6.320291922537082, 69.586997279086944,  3.916779869556999
 0.042551119000334, 17.222488280259029, 70.830231229994226,  3.735498539117510
11.251274397022280,  9.342148759473311, 22.147063065244726,  3.897394876561472
 2.513074167432354,  0.347267182086973, 54.708904356335658,  4.190653382632551
 1.039625344218264, 12.699651956295247, 26.591623347676226,  4.058703603510526
 2.960513995990457,  9.829879958073722, 40.173215638348005,  3.768078711872388
17.597015770768120, 10.206470462524978, 18.331985546244898,  3.787224955707200
 2.081831329473213, 12.554098384334972, 42.997309541782926,  4.179460783118176
18.439392889163411,  9.126462118345813, 100.173461514713409,  3.874199558861211
17.727333849744426,  5.083273067147103, 110.316284520682245,  4.284070899395199
 6.459332375835679, 13.010196057828869,  1.907128422030113,  3.890705809572403
 5.074648464511442,  4.965948760515543, 114.984238470725103,  4.078251553976922
18.850531679230134, 14.671899287111685, 83.304402287239483,  4.033727532463485
18.170518445860374, 12.133008114692176, 110.096048474619622,  3.782755460519780
14.327786590276544, 13.177870618870928, 89.629844343365548,  3.830865306589551
13.596659245278653,  1.723973237425418, 21.298355735997273,  4.065032192302055
11.193498588866953,  6.877167458410722,  6.865928620410418,  3.936131911938227
 1.739172076021005,  5.874964810141191, 76.033999860709741,  4.241605185832077
10.561494994328923, 11.303440231509812, 66.284263969671713,  3.751060956459327
15.198386887339240, 16.531216782705059, 84.058208100857186,  4.242944048419931
 4.760673565683922, 11.656869057079536, 69.038323915077413,  3.982851068778377
 5.610700545860539, 18.276137981931257,  1.414469529033469,  4.361851727730948
15.179476217133299,  2.728269028299213, 70.757838259491621,  3.912567472640000
15.833332704956584, 12.944376497824276, 66.030828886540846,  4.071874601939902
 8.357858838933435,  2.965885013583598, 108.880684427587283,  4.130069454472288
 0.726210039241197,  5.342250688593393, 100.209421880768502,  4.118918360520903
 5.317462577701018,  0.261516837735700, 110.027125015849180,  4.091294652766209
 4.972996352120928,  3.307692232073580, 45.854948415769670,  3.629960583845914
 6.620541548480394,  4.659649332546065, 53.396275044481378,  3.791858469238622
11.094657030400823, 16.939337456245774, 52.295274607314312,  3.949906994904119
15.642156051334837,  1.933880285957723, 61.643343539270589,  4.025320483789891
17.021941130905908, 13.017621221476842, 69.966826570450834,  4.088195837149341
 6.502131912395592,  6.111195993193951, 23.356202211802959,  4.068801505828208
 0.447959760045903,  6.497415485394056, 51.908774240327006,  4.086198194383031
 8.450651958813223, 18.139128463924909, 31.876318777706423,  3.987630266911401
 4.671282446390964,  5.757653809505485, 73.011134845041170,  4.143788473360045
 5.744037173610762,  8.788429375123922, 47.584356456521157,  3.778137332900291
17.196326599345721,  2.779416408261802, 47.114120431229026,  3.795543858625340
 5.574253226547283,  6.101357595792099, 88.468380771874180,  3.999861650344655
 1.129287926158607,  3.736782618289723, 44.867940676611177,  3.914695826109603
 3.752782152237403, 18.294302025011426, 76.959312062516432,  3.880485214774819
 2.473839953650264,  8.925576362689393, 73.589732687230267,  3.585803053492288
12.606278248408790, 15.348502841464935, 38.150782235675500,  4.000104109351683
13.855071670407014, 15.894204185897566, 115.948439920585344,  3.662065768471648
11.642155809805177, 18.353176068249756, 25.523723366589245,  3.545722408714653
16.251757314012558, 12.275357737522441, 50.615704867774376,  4.127558306892317
 9.168158722733013,  1.425120923680670, 28.584159242863493,  4.124475916356493
 7.976392347496925,  2.802899281743616, 57.012064152172258,  3.984315424581390
 0.906320643410088,  1.502615130298841, 67.082225820392978,  4.018529589210676
 3.686784119393487,  8.457698182400671, 50.847163947747880,  3.747831241486061
 8.088954830617721,  2.696496131747708,  1.915195386001967,  4.123754682265718
 0.564633805771475, 16.171835997709263, 21.431832877883522,  3.775404343895421
 1.952084078400916, 17.482090892748761, 64.647775696973795,  3.932537849036702
 9.492864404946443,  5.640405245803889, 13.551017403433031,  3.688739787351200
14.451260842806049,  8.176013557845963,  8.153602167600360,  3.488353440621337
17.483835577590835, 18.161771234077339, 98.607702211875846,  4.199654706041013
 2.652930440746074, 11.556776084413755, 101.347714309007216,  3.922990865817928
 2.743780642127727, 16.003282351484298, 101.989715403475358,  3.948458965372684
 1.699226105930853,  2.255674533918054, 109.404089275413938,  4.155300433890520
13.123783619064394,  4.801759230867150, 18.710513907493311,  3.920765248723519
17.364850631382691, 14.705011227917806,  1.800706586411444,  4.182283390666107
15.346261280566315, 11.280175113863795,  1.588535331944955,  3.771051385352317
 4.821134477730935, 11.213132964674447, 25.814390264175309,  4.113957083457391
 6.005095032362432,  2.567462253960174, 11.224937672280280,  4.270016071992289
 4.866018152220844,  9.079952999319143, 91.145385393212194,  3.735973409988216
10.963551544472384,  3.768029705141088, 39.203324159909464,  4.356525746443043
13.568415014809231, 13.689182816984564,  4.303904982993401,  4.086286840583051
 9.776453071621594, 12.007468472399996, 71.964306206442203,  3.878605887813265
 5.067220469373328,  4.496338274401292, 119.028209548380403,  4.003091812555239
15.011991370865982,  3.627147630454345, 66.758670132380189,  4.249793462379365
14.734694438258137,  3.971651211971580, 116.520181220683639,  4.178895075526269
10.804706459594199,  4.164392911874845, 49.153249827020545,  4.355669006797737
16.206080444273592, 13.140803196527800, 86.188164102588843,  3.935427111125923
14.529937657668860,  5.301680142176450, 90.128375550944625,  3.777769763610370
 8.670431108479246,  6.477897658919381,  0.193566354517262,  3.926250506379591
14.744589975992037, 17.213391313127996, 88.214366931174766,  4.218855046868939
 4.041837965607239,  3.706035366075310, 42.138099687201269,  4.013076880540223
 8.358492880321188,  8.576727965803528, 87.697913867754352,  3.508124968968269
11.458998183250957, 10.871621512529694, 87.981238482731527,  4.221940348921157
 1.259172847454818, 12.622917253684232, 67.050078265820517,  3.749300239655425
14.710824980555714, 13.571921989847777,  8.131389855037378,  3.892664520286859
17.266482647093273,  9.119459632508375, 36.904699719676969,  4.144017218824427
17.696957364556280, 18.165924459802625, 54.248050478049308,  3.932041182859636
17.879036305588677,  9.616218921906151, 66.719691928680376,  3.818312661953447
 5.821896297966301, 17.618002063053481, 63.041139609434410,  4.177659611314445
 8.066355691976337,  7.112234837816343, 50.303494453602390,  3.971543125698041
13.545030801067417, 14.680459984887449, 26.327458424305046,  4.200185637018008
 6.186950900172695, 15.051379298308253, 15.353519239801608,  4.163071078109676
10.716465845906905,  7.384338587465042, 66.233002830548372,  3.997420571434042
 7.521785273254185,  4.016687323688741, 34.740893190544270,  3.846310777658036
 1.004236173217243,  6.316224049132715, 37.882828894272130,  4.016768224610233
 6.318773106477971, 11.533379753455291,  6.011012529826269,  4.297708577742243
13.540782507047130,  4.629316525269377,  9.706790410580339,  4.356195745546207
 8.670590239625524, 19.054072284468315, 65.792318963192244,  4.230142022330514
 5.860292294854141, 15.007527819256364, 35.533067240611715,  4.324325811283544
18.627021749736084, 14.251031235157054,  8.622227848640465,  3.838401078637173
 6.421583881647796, 16.228383504269978, 67.253388546699910,  3.551972357755373
16.113406978742173, 12.431828355034929, 106.672069946390820,  4.221632451547107
 7.895614017540304,  6.826233473810062, 37.734244732646381,  4.039626834909554
 0.946254580283017,  8.863803461851777, 11.663249616222195,  4.477265560164566
 2.964172947970297, 13.371685690912196, 81.450886796074485,  3.761146716103708
 1.890531161428185,  2.502185428817919, 37.220225842629212,  3.898944403730453
12.523392387170732, 18.005863139365772, 102.507477504271506,  3.735242495774171
15.262001701171940,  2.265249724842711, 43.387008367676621,  4.306162180972440
 7.956154738492931, 18.876232951357899,  5.000648753604189,  4.094386684411106
10.759683174735700, 16.187746613007192, 77.161931068709222,  4.128043033950069
 3.220453391177395, 17.940342841856793, 36.589688275396135,  3.817298999037536
12.452631457344379, 14.085819390519626, 64.311128963264082,  3.740254676106640
 2.394850009024692,  8.097476031521806, 97.899749451114829,  3.704637094874101
17.435187002049197, 18.905598649379392, 64.600954741643093,  3.726675387093174
17.826186071875618,  3.164484138449401, 113.975401262129608,  3.965130602728952
 1.591108204851686, 13.730177326644499, 112.607308325479977,  3.832876007848666
 6.128517104706622, 10.514413687842243, 36.644871173594176,  3.974724367901302
 6.213846285729753, 15.261455721071867, 117.627182496196482,  4.200322070929768
12.118480497618952, 18.762425101294205, 85.480351682133985,  3.803388286256434
10.385810191006602,  1.907507199528617, 18.829308179729555,  4.002343373911208
18.043199388880517,  5.117584397756954, 119.004162019822942,  4.336614935313468
12.399868859038785, 12.727483671774051, 113.953460231229585,  4.341790085786068
13.321487395511012,  0.199677035910085, 81.301420384869388,  4.165329145139232
 2.196757259990757,  0.695936762382924, 100.457793342104893,  4.217386462693347
10.611297901686445, 14.925450600900087, 32.470872344535209,  3.845385503753038
13.538817655927494, 16.857911349907639, 74.043261312649093,  3.623214970874238
 1.867523661959584, 11.077299309204856, 62.968090619817971,  3.947017454898241
 8.267150210422457, 11.712113639741581, 85.379037468146421,  4.139668918273525
 8.217245657541007,  9.329971194431179, 68.869197301372253,  4.140957511499347
 4.060065251170042,  2.996870880274106, 22.619573152898131,  3.935243364034267
17.163476957736496, 14.251865407427848, 24.296469610253087,  4.015449428218271
 4.581443443280932, 14.055194884857748, 87.349145691309374,  3.735623594296879
 1.823014728828223, 13.761047700686440, 70.710042442159249,  3.942629395303188
 8.274905192844294, 18.413790298012877, 70.023240543690790,  4.247061511585842
10.836309448970880,  8.248647655337860, 98.266180624283976,  4.094798172605143
12.216973963939566, 18.619396231160756, 33.134650320481533,  3.959097223450377
11.312287826734988,  9.215303596904489, 112.203104171418786,  3.781347834016734
10.873575680130116,  9.652213385942749, 38.161353639010002,  3.802150106839243
 2.998137970707705, 12.346300532637169, 32.841716739210497,  4.535026982342051
 9.628647453945298, 16.620449661428442, 35.841966565146635,  3.880538504012254
 6.225820125435045,  2.393301941408100, 89.719732058016746,  3.895609995087568
17.176355926514145, 16.766412170355274, 117.628975132492954,  3.756227603101436
12.353708941864896,  5.453506057593085, 69.277313646595744,  3.844715409973561
16.552442103358256, 18.520161905115405, 34.646715854023157,  3.652486918092990
 8.229525440068294,  9.390525187780641, 95.417874935350270,  3.915196712078655
 8.974591350234354, 12.156588777278284, 98.056545334770149,  3.870549831172501
 6.994210085978149,  9.776826857243222, 40.650841531585151,  4.241846303619853
 2.932387208767169, 12.654335720342138, 90.610918085391930,  4.038928635545060
13.811574409144074,  5.725084756679107, 41.757350532388507,  3.829000643205287
11.971662152062228, 10.866960485788232,  6.932675750873281,  4.130681496208277
 8.924380538195260,  0.776174432508363,  8.855814523168375,  4.036402107610499
 6.567515509742783, 15.041110627755025, 30.078558208937267,  4.087571313302325
18.058076448602055,  2.706554290477194, 106.526103930575943,  3.792764206639486
 0.670934731299303, 11.680749764540703, 22.777409622216549,  3.850438160151961
 4.573765902915382,  8.207040029567741, 100.935877148063184,  3.709545144907503
 0.637770843553454,  6.362419818769996, 67.758861838405110,  3.907895083638227
 3.932341581545370, 16.286835584733012, 18.738934978607343,  3.773770610591870
14.165196492917314,  0.540908370677643,  9.501239475369742,  3.922794359923168
 1.015727617127767,  1.307648696980167,  6.178207324188389,  4.127285682291024
 9.799759655940642, 14.446211183745364, 13.481973944155399,  4.041017668113450
 6.785141457944574, 10.995249151895138, 29.588994956893568,  4.069055187792177
 5.359914629786561,  8.855410594789380,  0.977302074773300,  4.285802799516961
 2.260588899492989, 12.276473659561031, 85.010943837539841,  3.667918921646953
10.397059334510702,  6.098070651923475, 94.251881019550680,  4.229743198114496
 6.448278653548174,  7.187360356655778, 80.057301165386846,  3.850614921829745
12.396374700417287, 14.479281073044451, 86.281938892487972,  3.917785181072702
19.061326003370986,  8.907000268442221, 25.586219336809325,  3.965498576266093
17.321191806901407,  0.542334975612802, 19.929342240620397,  4.099703972398191
10.879493101347476, 16.022548646149932, 67.573984811125925,  4.064484509949959
 1.940725544323765,  3.121272705889832, 116.969784604123447,  3.878448842177753
15.719961566881786, 14.222270822239031, 40.619850908165475,  4.214181684618584
 6.341394503874414, 18.270375446896821, 55.935928616004176,  4.167602115229660
 7.508709866241819, 12.251953100068619, 21.960685476710509,  3.820888239230131
 6.739251130948520, 15.763631225723564, 78.478510405682329,  3.944013616435045
 9.648509497578399,  1.933341823787234, 83.019430053643219,  4.252748945143296
11.519353566874273, 12.619928579795699, 75.405174803549798,  3.917165519912753
 6.084519715824251,  0.222862116843907, 116.600729442083448,  4.020869778720090
10.830475033507073,  4.936411896634270, 59.458190885258027,  4.425810745787591
 2.987224662657984,  1.265817257589166, 83.324129657064731,  3.734476965452743
17.375266734309118,  9.606790214959739, 96.425716536549785,  3.970347036792729
14.267481301152936, 13.466838027704600, 72.843615938483268,  3.705321991383932
 0.339310869512359,  9.847934337812044, 49.538740264193045,  3.936656226458524
 4.867519476977455,  8.616465829600646, 76.671863084605661,  4.149651039747491
 0.084122296197046, 13.043286258258238,  5.043442430343744,  3.762582837527231
10.099659388324689, 18.655329256829663, 73.827919636791194,  4.132422907732747
17.040858157836745, 13.301530521081403, 20.466576606789630,  3.780871019929803
11.258824701782531,  8.082438034625234, 47.744929638060313,  3.972433197978156
13.059206082993054, 11.611875612201040, 48.087249433738670,  3.881563781010415
15.232766463191895,  5.308834309382032, 22.627163765150687,  4.055166293633733
14.475143583790500,  4.478380010137487, 112.549579101433139,  3.627571884799284
 5.473551598046257, 18.991358330659377, 51.852508179249064,  3.944951885005928
16.576331676078055, 18.992246763393602, 73.121243143490560,  3.947404187834571
 3.162316149847698, 11.537652668471017,  3.268874372060118,  3.761962589652739
10.737282075300657, 14.963023669783842, 89.984438683456119,  4.134897100151258
14.690064757307052,  9.480176811231486, 104.016027852744003,  4.184673903110937
 1.389338267599143,  4.802557182127621, 61.209230329584649,  3.976378336214393
12.649048475367930,  8.429748080818738, 91.656771250714627,  4.033538172105591
 4.513592683722283,  3.154475948709715, 77.912815269559971,  4.353245358025032
 0.380499913535437,  2.487394900966997, 97.111194730860973,  4.141631477280032
18.845854177575390,  3.264002426219036, 40.852622677803602,  4.576312849734662
 1.414719983898806, 12.678417850412698, 56.090506551486264,  4.099251938550705
10.174353191837222, 14.870992507910806, 101.287101685587146,  4.136981029146401
 7.039978771217362,  6.935795779718524, 98.281718976552099,  3.938350742637207
 5.436519246872434,  7.792663684554079, 17.004896509976422,  3.906667533142619
 3.746937100312952, 12.471626768421999, 73.872197280063460,  3.837624558784536
11.131401025354640,  1.051424223283235, 115.567631032522286,  3.871517525719730
11.119504424232284,  1.150369420354387, 106.310544583376881,  4.195489365564387
11.704195360318893,  1.736598017373515, 111.514230278148261,  4.371814161471433
14.889619074346019,  8.016613182736165, 111.086462472397926,  3.991331552485524
14.537194337237132, 16.685730032085196, 66.283874250563130,  3.801936593872427
10.256961329136541,  0.323819229959106, 98.998904393091351,  3.569552042110894
 6.678035812790478,  2.755236168535854, 39.095511308727644,  4.209576012017127
10.085043940020991, 16.373255159930991, 105.132892402083556,  4.083073589062497
11.145413848452726, 17.230208344352295, 20.189425392121834,  4.091236206409101
 6.534225466412883,  6.336603574233886, 66.484324608965267,  4.164875623304826
 4.647383582878811,  3.337318003133355, 59.298041214028672,  3.993552503541369
 8.629462414873231,  8.757096488691317, 15.314158254377947,  3.523291430833319
 3.481421609809800, 12.035047691724690, 47.753177130677585,  4.048389240704281
16.143482239944561, 12.866912394837184, 117.179531081153470,  4.178448165654275
10.001777521857258, 14.035623642753173, 49.662376193800540,  4.144006821526398
 1.448848600010592,  7.769998493342801, 103.434791310713948,  4.077576623489700
 0.441714119906272,  2.044301946341891, 77.312011501218137,  4.049279058284927
11.477388007306363,  6.670731060267836, 52.761140425058919,  4.087010996807601
 8.260584285207786,  6.493992685993630, 101.975398587470082,  3.888131556739520
 2.096727699587843,  8.869351141866062, 18.680698676556371,  3.830393525590846
12.706135723234336, 17.895705107649686, 96.572769218774496,  3.927167687315830
13.471902455679160,  1.952508516231554, 29.796489510695267,  4.159476561621574
17.159511740620900,  7.125984498428773, 40.442505342084914,  3.811867977763565
 2.362283021333537,  7.214010473280177, 117.279537880672535,  4.326540243314565
15.388028901851003,  9.653447244742376, 71.647047186929697,  4.074374009685904
15.556610646257470,  1.816467970305496, 84.437604946767678,  4.184636736553221
16.633626157302874, 16.906127487461365, 80.269760542876412,  3.834628191875017
15.085852227574975,  4.536110342656979, 51.583748835859971,  4.097028219870365
 5.437191280026132,  5.002873808677210,  3.649002268189607,  3.685258731994962
 6.857227515123478, 10.188137336746182, 61.233558996811745,  3.587819286182843
 2.501544494776826, 15.173123683933621, 61.041503517611083,  3.920563670096167
 1.072330267236592, 10.346621652649519, 114.705666598580621,  4.119505228713367
14.758192514327874,  8.281346676069681, 99.054085249093973,  3.900790964472171
 0.749846814509182, 15.640031016960419, 40.380735719284111,  4.125390594553251
 8.887337163590930,  6.624379071424886, 55.998943782120541,  4.076119377019848
12.828169540987799, 12.715249984349494, 69.239436655980668,  4.183360059356526
14.752640376184132, 13.323912312122950, 93.570326628153566,  4.006992991187587
 1.615911951532235,  9.255404405948198, 89.386093758782792,  3.629685294012931
 3.569622287422949, 16.719707585922151, 114.629648890131747,  4.182152437224049
 5.143281310702210, 11.848678178381340, 94.058046067893258,  4.224557058017126
 0.258881615716749,  8.672232494405641, 60.382430560495031,  3.661088305717666
12.671371752288810, 17.850371011614936, 14.211046518453134,  4.008334283683676
 9.997437804395691,  4.361712841825819, 99.103056295063396,  3.992754578550076
11.603304309266838,  6.959632596627970, 31.801788551684254,  4.105114686458237
10.812276416280284, 14.604270066393440, 55.740855643069963,  3.897616258843236
 4.823922594113853, 10.083314782277894, 87.259937485108310,  4.205294851631425
 7.488502969232730,  0.287999285436749, 77.115793329726344,  3.889612575261479
18.761588028329495, 18.000926677809339, 60.908773482409785,  4.014284579418603
18.606792062859384, 12.171336362024489, 30.277307600612168,  3.913222166379369
14.531059663150478,  5.568526621988778, 47.626451767649300,  3.922981284398984
12.886014145695940,  2.947914738988255, 92.668971718792093,  3.881574867814856
 8.611064596920084, 10.864471386234673, 12.263574513878094,  3.852313258242615
 2.517022446194546,  2.226813754490363,  2.264114094560579,  4.386891142743549
16.508725062008732,  0.205154761612480, 68.174380005252630,  3.686501764391549
 5.785401982120835, 17.448768653138337, 99.810414987220582,  4.032460064313535
 2.149638886291940, 14.676888281598199, 15.260869194527018,  3.916255416801052
 4.717420483706398, 15.407799633336877, 110.914989282006715,  4.004598238318176
 9.148690070478976, 10.330609110414571,  0.634353159021267,  3.746938494401729
 3.234441916374578, 15.475369025168540, 53.844367033339338,  3.705366045529793
 8.800687049785315, 12.312296713483263, 16.590106960516728,  3.756884647546328
 7.628675485128340,  8.557529551338179, 20.327465127407070,  3.902021686853445
18.220122348436348,  4.184289891104136,  3.903956291919748,  3.979483048221881
14.808114732395522,  3.566936363873482, 13.693102929836847,  4.258190383330404
 5.121838770782796, 18.683328736256730, 28.466310644462641,  4.220592966106611
 5.355730187825459, 18.942932749162345, 16.160769457058002,  3.930773547247062
 7.822960848637030, 14.336748399392912, 42.527384047131576,  4.211076749936849
12.263900013605317,  6.862612519793744, 101.881600698162089,  4.117877325619681
 6.748028000483120,  5.417278299013357, 92.250912043924913,  4.008812538859278
 7.676338963265469,  2.237074457357497, 113.151873495313609,  4.189999888531072
 9.220877620684066,  5.790290155032996, 82.192109547448496,  3.678354742071310
12.214576542181621,  4.435145954181772, 80.158087812174628,  4.031256867024325
