BANDS
8 8
NANOPARTICLES
cell(1), 19.074
cell(2), 19.074
cell(3), 119.211
 6.385199828619445,  1.830455517004627, 85.021440319124650,  3.848118459423734
14.105003426248899, 16.157940230339371, 59.173379109499045,  3.942849391598128
 5.503793166137683,  7.074770286606040,  7.074849314306863,  3.903212541962557
 3.396308976775773, 15.596204760053313, 46.215255555757594,  3.882394748907878
14.094908833535213,  4.781353419836238, 42.760493671754084,  3.686249656619302
13.070777240254893,  3.443033404301894, 38.571567759502329,  3.962566217494336
10.822268684882271,  9.803536388519877, 82.133183639108495,  3.875940646165915
 7.127968836600497,  0.587739509777876, 98.578572044808439,  4.088153175518680
17.845716742438313, 10.778346633714300, 82.170011639130394,  4.105515683638693
13.717944336180452,  8.561246025219436, 84.675818849308598,  4.210848559311227
 2.945031650593696,  0.028786993601374, 85.962310645785067,  3.679765539072964
 1.578239647869200, 18.715730425747065, 59.903048527580907,  4.171482582885456
14.959282384462627,  6.422587422934305, 35.733512577119448,  3.827959269962914
 7.685968724903082,  9.025196957469122, 73.123064562692448,  3.703762502477334
 1.183430685813645, 15.979407867770515, 31.213382807950499,  4.119384898036367
15.643963208999166, 11.352402560132038, 43.736262039697976,  3.947563516891990
 6.627811728781661, 16.649167533980393, 13.443804039988061,  4.255541445968995
19.002288750296753,  5.358374655743458, 111.479849939401191,  3.787419840756508
 9.772892364725235,  4.115388460304402, 21.859519135830201,  4.166165073129065
 8.995914870322656, 17.031874339892557, 50.217449290162101,  3.537720667461729
 5.115344539392892,  4.244447045161744, 65.237011848371282,  4.033757897330631
 3.673881461261589,  5.079850760022093,  0.867100613930125,  4.171997935858760
14.011290506274570, 17.646110279019375, 89.516663299233770,  3.827609775562657
14.246242691328961,  1.173700071014136, 109.933772546080917,  4.005592710983698
14.932292156423207, 12.242078616853886, 19.533509854433873,  4.107214852732974
 4.604969636881165,  1.437806201083118, 67.875400139257607,  3.602270710694979
 6.592320984834815,  6.401172823590165, 42.666725953254534,  3.896770824040314
10.196503447802963,  1.209438612905924, 33.093998986881715,  3.944473884017305
10.710796503850915,  6.950767761839042, 99.488593924982609,  3.776094125173561
 5.179446988164081, 10.957620866917672,  6.256447872725305,  4.047175875493210
17.885974095784547,  2.768779700169178, 26.247182612206178,  3.859221799046946
 7.278788741737436,  8.004264487723422, 76.902311524286233,  4.075418964103901
18.445172934995337, 11.407636850023426, 111.129866677424587,  3.936430786241623
10.753639476640053,  6.707338800293696, 46.810764051759399,  3.947093902849143
18.084046311970088,  2.627363695235015, 118.027513460508914,  4.444344951402255
10.683497800246545,  3.452807500892896, 25.997949865357025,  4.252773138598643
 1.506469457310241,  5.907485037950813, 81.303769089612999,  3.968905637098094
19.025934622042357,  2.702958535995100,  5.430011322045067,  4.330697123020820
 7.889226014087707,  2.032543216836813, 91.422515488333588,  3.894146713359660
 8.873575616576751,  9.094711010331579,  7.277959679223566,  3.951026369298159
 8.809057309441728, 13.805944028271581, 42.367702265812312,  4.034672826285957
 5.887903446831047,  6.693222606520240, 19.028578859973308,  4.222192779733510
 1.243535163889590,  1.762906545273032, 43.141746954613737,  3.808781309533460
14.003676378029207, 10.489637374625755, 55.332411463837083,  3.799117478873567
 2.150465109103980,  2.053034501258987, 52.618110806289337,  3.887791661708003
 5.326597434133038,  7.358719481858429, 38.805693680048968,  4.358152658059532
 3.476161792850522,  1.464141930893620, 23.173310132586646,  4.030222671943062
 7.665745066597792, 16.813926496276665,  6.590760487145506,  3.790288053448657
 5.434475837312909, 18.266928486846219, 48.781435010744751,  4.436923353367932
 9.758476110975263,  2.797294703724594, 104.758570562418498,  4.326747484288047
 3.811298461259987,  9.564472522713164, 73.474175291865038,  4.122198945223874
14.603680842573631, 12.799943029573257, 87.702706188278995,  4.216454622831298
16.765617132309902,  5.226215009904836, 55.316641707438336,  3.760919771775670
 3.655354743377272,  4.545292794677074, 44.695768663843729,  4.125261321766660
15.508149501915559,  6.354833356840405, 16.519888536732399,  3.996595859862270
 2.022625239078724,  0.468593569329556, 26.977548029713009,  4.157247675302377
 7.724419088144152,  2.544871484394150, 42.816784292102781,  4.017097471727975
16.126714050985626,  8.048572463250032, 111.509093991386493,  4.085762188092995
12.900692847040734, 12.748204740164319, 68.388254360984575,  3.922224031513041
 8.649530233402452,  9.388124146285287, 91.598663932892450,  3.895518888035037
14.099827228302226, 15.967756597936834, 63.381787399402420,  3.681719449072856
 1.581684444999434,  0.214491174902850, 16.760445715657262,  3.961786107663856
12.964070352490911, 10.986098950693211, 110.893309737601200,  4.033265565452703
 7.527541230085884, 13.371730548265374, 32.879473066861465,  3.892200644868255
12.284787082026979, 17.934258255171340,  1.997517430902284,  4.456672727910433
 1.753904152499336, 15.661989726639776, 87.034717801462406,  3.752977156014029
14.098833207351667,  8.934733746458246, 69.811302832405872,  4.242472450259628
 8.033744172586493, 16.406710274036712, 92.238812515683335,  3.795762366141256
10.866589469309012, 18.149156364189786, 63.394812784870197,  4.014240120773198
18.651727458691340,  9.709202804362283,  2.174070159538286,  3.879178222175873
16.681281341802041, 10.898473603623790, 22.912880202075868,  3.811691879417105
 4.564671012153344, 18.240868328491970, 91.635341415741635,  4.135165715745192
18.965215035994579, 12.095228702693694, 19.702816573694484,  3.940379229911889
18.945353487159274,  2.420786372491283, 57.257538042546706,  4.215940345558465
18.176026119526163, 17.495350923031175, 39.918368752645868,  4.134647727408783
 5.408070838044498,  3.303510374881808,  8.881136554846282,  3.664787513023392
 9.800558121419588,  8.213224924969273, 20.458001430413848,  4.193534478652708
18.219152153670688,  4.697486460629845, 10.900144318922752,  3.800688615670916
 5.635662367935602,  9.170230464893987, 13.732781694067359,  4.139140724138101
 2.009590558769240, 16.179081955456777,  8.737861106955659,  3.853469815089447
10.006568446768105,  3.909532520627824, 12.538817107467517,  4.342080921975491
15.984843215449754,  2.720030485432100, 75.777488588860109,  3.562258844777485
 8.761995688687005, 13.413625188842660, 12.020300763517170,  3.893644323863187
16.006594901856801, 14.732781402081089, 91.261637138670849,  3.955580571071269
 1.286184509784331, 13.173052663466438, 79.176989881954455,  4.393964276153503
18.347288146619395,  6.702917178069101, 91.568254233493647,  4.434291234650288
17.158545366846973, 10.134277279590146, 86.048045970356583,  3.837436450298750
 3.074507269331344,  4.808233600482170, 16.468239888301675,  3.808682845671612
 7.148096968916656,  6.517331151394193, 10.738544451968989,  4.186856249046694
 2.373772322762577,  2.813434381354197, 78.979419011357095,  3.936859229564370
14.543974409742269,  8.592878306816937, 60.874954579823175,  3.982599627446111
 0.856395732877551,  9.148390728656928, 95.233334357668028,  4.057369335704911
 9.619200913776771,  6.511162099648307, 107.131442967143670,  4.251913546496650
13.705001290182045, 15.503452748900495, 33.706976642942159,  4.024062145438878
17.897878823115274, 14.151610353128801, 107.783655477238099,  4.260206525638968
17.374685738018304,  7.359760521285557, 27.323437707249568,  3.637085464299522
11.788246543974692, 18.178690387260502, 56.413304416190023,  3.855862410144899
16.962543183217232, 10.947611224825716, 78.001083775903851,  4.058916414945177
 2.309369030338798,  5.797343659250186, 72.679237942602327,  4.066546101771779
 4.379904852033001, 12.518138737095560, 16.516575667228661,  3.860362518357301
14.243469451770649,  2.806813572296975, 33.807303807144983,  4.136265444313445
 0.336942725286477,  4.562631159280961, 29.330468742101178,  3.887828207685793
 7.853821505625620, 15.083106895716327, 46.935621499171127,  4.189127880766182
 8.005278832118265, 16.833372753735475, 56.198175041415588,  4.134469893116819
16.373245032785245, 18.007669819609479, 66.870705079777693,  3.888981318306184
13.755208968079012,  0.598292734938505, 26.854120197189612,  4.281352730660172
 6.294727842119981, 10.748533556853124, 29.967390638672892,  3.996471952196925
 4.244342751821815, 11.177822939266257, 58.424195170657931,  3.809563610941625
 0.712278573536641,  5.132067355218099, 95.267009839782929,  3.913884540453195
 7.572505384870037,  8.304919897370317, 53.172455524392966,  3.783246165194346
12.468264374844299,  3.521546499084300, 16.061468577863270,  3.958129718491429
13.171118379489982, 10.106767345010745, 11.056907797065406,  3.948878184754526
17.413466951118167, 13.565974267523664, 33.073115478538526,  4.051929660865544
15.920615070344054,  5.982070895813799, 30.612260476658886,  3.966572576932460
 3.174457499433631,  9.346195796009784, 20.905579377593394,  4.102643267373239
18.778122989927148, 10.663424876833478, 26.499380569637971,  3.515196776595628
 7.613652766990761, 13.938796613619825, 68.231758457769843,  3.960193896080325
 2.586161473570881,  0.949604242213633, 100.840880702968590,  3.548694180339428
11.229196256135625, 13.844422142483474, 98.248076116681659,  4.126883260133477
13.283800488770902, 13.425788624452615, 47.576052473581278,  4.198494470439132
 2.266453583315973, 17.273151982099709, 51.414320032891368,  4.031485153652686
 6.807144223721194, 10.136198270890745, 49.469888901322541,  4.613409288619592
 3.304332995763273, 14.454392412541026, 71.956196557393653,  4.266458726852620
 2.357120458531909,  3.810113183900071, 85.256645218910791,  4.082341457730966
17.744577110767271, 18.565385764921434, 80.476575316293079,  3.822877251401265
17.084835074766840, 11.853655733901693, 48.737956315962435,  4.318726535208202
12.633459225365501, 15.346822645501843, 26.557103498898510,  4.231690524759295
18.316357789600826, 10.298117001035974, 30.655886080906146,  3.844495815300525
 6.815900449502013,  5.385907219139191, 15.104047686879765,  4.233950457903414
 4.416359522464811,  3.649889562178081, 40.690749822162957,  4.138259386204751
18.324344494646084, 13.669555194571405,  2.307695353608798,  4.055999469676667
 8.611700629595953,  1.556904596169450, 56.708157143751507,  3.595107087644906
 9.901693169509254,  7.075718209176669, 84.920322820682870,  3.988494290250142
 5.960417507050887,  1.834881527762420,  2.002895726689879,  4.022830046435564
14.457141248605888, 17.472682321542568, 19.989293361161717,  3.502357647864062
10.089601819335570, 17.888126190029737, 83.620078525892978,  4.263308104648218
11.899802334063748, 10.760731163667005, 100.786164721426815,  3.819166543666051
15.111774713443891,  6.819376846105865,  9.507643141906712,  4.020493372613651
 6.670622475503024,  5.887379726246610, 90.505159057090339,  4.127350436539671
 9.614033181738868, 15.669587901467890, 23.975033835579321,  3.714462308637289
 1.264149296518218, 12.570211226797824, 51.295699998497440,  4.023553382718073
 7.799019590865090,  1.549499754310077, 81.087392621338054,  4.136032205024937
16.864343011221298,  3.679298786113117, 51.873229204048442,  3.628420316384425
16.270016201395443, 14.033294185917475, 66.120067762361842,  4.195005958892592
13.714674416154132,  6.567772323059192, 91.850502885798633,  3.950144995155282
 0.389089583671267,  4.143671908800243, 106.545187848284698,  3.962403424735144
 4.838613851138541,  2.704214567604139, 111.936683371377910,  3.932093501581114
16.928130875904532,  6.957880451982545, 49.725283459893859,  4.204968521343197
13.854043065546151, 18.901348006440745, 52.833790678596493,  4.125883428213649
 9.733439759357159,  7.013485509734937, 70.473124799989847,  3.903453150672882
 0.017212388316293,  4.621455854492016, 76.383857998100538,  3.811934311206950
 5.330101962945315, 15.781148275330475, 116.897300447992833,  3.976652655351711
18.704558315361883, 17.230693238022269, 14.136787084209631,  3.717372394830907
 2.395339466357588,  7.493859264811507, 35.878449421505714,  3.837558723816068
13.698344935320407,  9.544903516981810, 76.404389641149805,  3.716136955212821
 9.701814457750483, 11.735984109039856, 70.990126241638819,  4.121433730958018
 3.642980986504090,  5.644811454934421, 12.541042127410821,  3.858876283990763
 4.216510055394386, 12.203665392174402, 115.205316693598547,  4.220753656291426
16.390265591931801,  3.159210261127709, 97.752099596755770,  4.130995607920630
 4.934768467673491, 12.990155978909582, 12.680599473399816,  3.884554843399131
13.073295397606804,  9.454635185298020, 17.191628418750550,  3.983940427308378
 5.391565375675998,  0.162932173133335, 58.379206303293167,  4.087069547885640
 3.275060025250899,  6.967875330525448, 92.871778114513162,  3.977222647325423
18.947948803803150,  7.174271963774091, 32.911730005264353,  3.943151610867747
 6.881359142474479,  9.659295758426831, 83.439997244690332,  4.353170342957518
 1.628904836879224, 11.518718921081819, 92.071236753217107,  3.988210960745755
 7.946628395522102, 13.338575325803511,  4.090432531603084,  4.384682692220643
17.175449599164914,  2.048540574569439, 112.340565575342694,  3.624318753458655
11.323950883540883,  2.172874674364550, 66.589326223555048,  3.921897810618883
 4.525352800052465, 17.179801137379826, 102.531140248895539,  4.067527805417897
 3.005744569287254,  9.247952574127254, 65.654080461338708,  3.925497620519367
18.134936308988252,  3.400881002964908, 72.781713028975773,  3.853995093480175
13.968830380344730,  2.871997600666023,  0.327699000658850,  4.168198249925503
12.863331654853146, 15.908172614397621, 79.307380227334519,  3.854862897561492
 9.789495277552117,  3.311691037326794, 71.759792362511490,  3.835845053843800
11.617442694884858, 13.888103930175767,  2.240383384612816,  3.678131017158064
 0.020311147887536,  3.677657924228825, 22.715658134488482,  3.795067729514951
 0.275027122593228, 11.262161800496962, 60.032709795541976,  4.416592265214494
11.346535152109489,  5.166075105704163, 35.532037322373107,  3.824045780037960
 1.537638237396040, 18.827305410888133, 46.753221139854666,  3.644462226695621
 8.160056761863412, 16.370427660359201, 109.056500438093224,  3.897338870900037
19.039933847464624,  3.782089364033898, 68.868958767750925,  4.072389367232067
 8.611647290803592,  2.716125047960479, 114.956836922903037,  3.943547341902882
15.368587664739598,  8.349194251844231,  3.887931821461590,  3.966091355376960
 8.178026977139833,  5.720544675391388, 28.110686342334315,  3.606263364527245
12.369256259202851, 15.460129916995394, 41.718327542923603,  3.873299562719313
 6.436796106408793, 18.571146163151536, 105.799461486378405,  3.952592058452354
11.324423376519746, 14.642927127176774, 90.353188866798206,  4.359779974022290
 1.431995308687467, 15.365356876139908, 75.582512930463750,  3.966900983303898
 1.740905954898589, 15.495547653303573, 115.534575893766913,  3.703454358833250
 6.762606351749045, 10.872003591334147, 19.327134550610083,  4.172031021699126
 0.033683398319917,  0.188507369850846, 98.175080183368877,  3.884072704661088
17.485568443470921, 17.619391500506435, 57.552289296257747,  3.986727628764989
12.887340161671274, 16.980372064979012, 75.633993181995805,  3.783049233486324
 2.792490582584256, 11.911277928010263,  3.100642773071836,  3.982705678106704
 2.880223132074648, 12.415376878651866,  9.228258139597827,  3.860002596189997
 3.231742338766999, 11.761030633036286, 46.795792669379495,  3.880427343831634
 0.165708475599546,  6.648941510300407, 14.286510364281591,  4.132066201280064
 2.495221055185639,  8.467441194858559, 69.332024707298785,  3.650373660512595
14.589824560576732,  0.240894632615532, 78.270914082454610,  3.952121560892558
 4.422746725245121,  9.687814686984774, 42.139738934181601,  3.940089800960576
14.455537916599797,  9.685295187149464, 29.658626984857626,  4.217589191919276
 2.098924051580632,  4.117414487949728, 102.899750988353460,  3.869117555401561
 7.934255892211477,  2.441535929735240, 75.373495180386570,  3.979362153528673
 5.589335734138218, 11.653954694351873, 23.149040152173118,  3.934229053545348
 2.788241714739911,  5.939661813528953, 88.850158332825572,  4.275437888742031
12.960298955264024,  4.872226332949481, 102.527074951214914,  4.307442447342885
12.662431396994641,  7.562773659120558, 32.716759501917473,  4.014104552134529
11.743442805383346,  9.050053696584744, 73.161257647451038,  3.802177917175595
10.237408293765618, 11.640663936198758, 54.016731664948693,  4.497876986016858
14.581951757029376, 10.144512235756119, 65.805810463848573,  4.097931896432182
13.758474793677754,  9.196576985762196, 47.987706436109946,  4.173464552755514
15.316413698451226, 15.315661419789937, 50.957749428544908,  4.470527035413679
 7.697311071367481,  5.512364441563256, 118.894847817634130,  4.247227003041903
10.644217941745394,  8.071069135375005, 117.486695171025673,  4.030886098364754
 5.256462806766177, 15.327948293151090, 112.773371187347948,  3.943539686702191
17.994889305881895, 17.766501820428104, 63.052969619317075,  3.968581854481213
 3.614632657813242,  8.706838654936627, 10.121568549790236,  3.869649894925583
 8.267072347954361,  0.390505458755459, 111.584071573780719,  4.033392218172720
 9.369099618500849,  5.008467862146705, 18.072829632566044,  3.608436133427064
 2.764327889413800,  7.896262467321536,  3.868762140733246,  4.173093671701796
 0.375264947823884,  0.521784511982853, 75.942478358038287,  4.435783392615966
 8.962517185863343, 13.493376658075672, 111.952991019631810,  4.348974730333429
 1.927797378151330,  8.105838016724240, 28.905353245728254,  3.885333667579770
19.068426922567483, 13.578441759057890, 44.786092387234504,  4.475000991768983
 2.848940626333393,  0.125072356033618, 64.545310941528982,  4.284099087313074
 9.089732280804933, 13.603468269700796, 82.891350801699389,  4.513873967938836
 2.696668953538641,  8.860390351178825, 16.814067076695835,  4.151588285997224
14.200831906146426, 18.694601517772274, 96.898144485477587,  3.926415856462319
16.034439917999684,  4.337071234251376, 19.980425581254412,  3.706420813662356
 6.163455321950544,  0.088692897824528, 26.372014685327876,  4.130898157517702
 5.339586252836508, 13.335191422431899, 92.104615484601936,  4.260698348817268
14.274052879265405, 18.387026818495865, 40.075153744756541,  3.836519550782770
 9.145089202106057, 16.916816705847420, 114.719795812640896,  4.233365197636149
 7.476548196328929, 18.837476329792878, 35.959293460906835,  3.952095237119273
15.017934435949986,  5.709699421394272, 46.344343175340221,  3.930420809094136
 6.410617889772072, 16.676683168177789, 80.633999230574574,  3.816400976749453
17.798792677198545, 18.206376014040366, 91.042055049177264,  3.872294391521200
18.299805678351895,  1.502318452839975, 94.486639138012492,  4.063423013880311
 7.821004407014977,  3.928148054892232, 68.334647414036112,  4.155801463611196
11.791739690514733, 10.193727759436392, 106.849132784090102,  4.078495069381820
 6.090840772116059,  4.393143326060724, 78.437292949983572,  4.089549752199724
 2.590554372819521, 11.559877087133323, 107.119124863903991,  4.171509039262572
17.428165748132766,  0.649772949465062, 106.705201191166196,  3.984928317460146
13.049583511941712,  8.318031154543542, 43.959198922922113,  4.048643799424327
 4.669315183737187, 16.948837885359275,  1.739610491497541,  4.277586828068538
 8.459447422063166,  6.149929372395664, 81.319299945575125,  3.953568117939168
 8.553995157792668, 15.461942767989511,  0.300657596112629,  4.207199974671142
 6.906875848055764,  8.816586396847050,  2.755512726790648,  4.499093259106496
12.401928443117544, 17.625988565221810, 49.311279477767819,  3.490130661036547
14.757418482817009,  7.639047079034864, 52.971813832094035,  3.704347337744186
 5.679160529415095, 10.922004999152968, 35.886616133013064,  4.199267905082261
10.770036856827014,  8.885463304263764, 50.802119876837047,  4.035857002245999
11.200518140540970,  7.402517891634175, 54.895019616468538,  4.356388914742272
17.897491883513048,  3.490380696076096, 32.682938906947186,  3.611981707434263
11.327911131141104,  0.575928038881365, 117.050901976783621,  4.125158889734460
 8.632664239494307,  5.004226559653876, 39.647349408664631,  3.862683956597780
 9.027815092764483, 16.614780764624886, 96.204492002771346,  4.007864955620548
13.908339350661116, 10.605739568765371, 97.332820489132160,  4.156141941896249
14.842343549104594,  2.173812122419238, 115.390950708812184,  3.950490572541575
 2.197043974343987,  2.792155397976608, 19.645486782930885,  3.834259524492877
 8.126334331426028,  1.752928836246518, 29.587185277198923,  4.077346673781624
15.791420716617470, 12.172993295645369, 62.413105296156658,  4.066831130738157
16.828509767589409,  4.647441325408891, 63.467725004815691,  3.434909177485292
 6.696573620316088, 10.990317390243106,  9.875483847067988,  3.764154478983130
 3.965269543620623,  4.018827695486960,  4.923450977539473,  4.171854682906194
17.481480532596493,  7.390915876253921, 105.357849704369158,  3.910346477057644
11.615818235417050, 11.601401648387261, 25.574510838343443,  3.714453781759295
11.313965933838192, 16.911742284282170, 111.306947326048501,  3.763478854821092
 7.798210680725258,  4.694247894641543, 61.868640670254734,  3.630347033842493
16.003858009931520, 14.048043391860855, 40.665416719287613,  4.135289519764536
11.183998880026675, 17.776464518125110, 99.463707726451403,  4.040580208626351
14.562990133172120, 16.806797639726369, 107.730648672785094,  3.942854679120145
 9.954014595286957, 18.792470992361061, 77.852470954647600,  4.396820292335013
18.524522237571173,  5.506992199129582, 43.260569889516162,  4.452873309960528
 7.285513616544256, 16.773593596381453, 75.380283927276423,  3.789313638641262
11.059314035017266,  7.748540034596267, 78.682050359554722,  4.103332668247461
10.640596419603257,  5.016827311157041, 94.001222791399371,  4.109091877514664
 0.730517573525875, 17.091862313927322,  3.745907180576534,  3.821196629792339
 7.789710305481245, 17.300801191020746, 31.533365122788876,  3.986424989352631
16.660614191944095,  1.220079923710597, 60.353983582673813,  3.798638656989018
14.531914430893552,  0.733474239619715, 92.902511182790931,  4.239104181126966
12.749050020897423,  5.885281213734927, 19.194306368449446,  3.709753765148680
 5.459948441964129,  8.697731477497104, 108.081184195107539,  3.997936936859801
 5.883817098075712,  7.736044684636585, 63.316345787258435,  4.058922022695556
12.631741866362542,  7.163556888166482, 109.774735890640912,  3.811970980277455
17.526412303029339,  8.479257473170598, 63.566104055406200,  4.006093317509973
13.069780306536041, 14.680015889496573, 37.665683162884520,  4.109830186962894
18.599168925345541,  5.565105402049303,  2.089138498084211,  4.411300148536590
 5.857090515813207, 10.710307594935639, 70.108119682088088,  4.028962323497669
16.103016103156989, 11.404278022223487, 119.006266933818523,  3.869727450534618
 0.457126608363713, 13.102028758777566, 15.811775741242259,  4.032123762180345
11.668103715000921, 11.661559089634167, 40.237381182487006,  4.250430695170136
 2.533399182455436,  2.926097086071566, 92.288280351951386,  4.320115251952324
 8.296747013731583, 12.161757031937197, 100.443227609696891,  3.860883624977507
 2.024830840877486,  7.705227498963286, 61.688168097110783,  4.168873755876328
 9.481801980181217, 11.707591255308904, 22.426089763278856,  3.839956041817242
 7.875846955018365, 14.078251580200796, 61.905111409075516,  4.023443683173895
 5.657453673728346, 12.490591149219018, 109.870806257647047,  3.504324358981192
12.603088352423244, 11.692420091233441, 116.968066225820948,  4.054647279638365
 0.885354318451084, 14.043026987859294, 40.803829436649437,  3.663615853454553
 0.417616844448692,  8.527236037320806, 113.682134642865208,  3.959913543877166
 9.957274761454014, 18.295462514176226, 27.130399444944462,  3.796473231503657
15.618342653956686, 16.778498458965025, 100.198406209264760,  4.194718501024133
10.642578574262799, 16.422126523374146, 20.110968271146465,  4.209144819354205
18.608041380804494, 16.772409700871854, 118.840482861524649,  4.040967960434251
 6.595739159031200,  9.301531376922705, 104.012005930894020,  4.535351185683219
13.570694960290149, 18.072863694763431,  9.496022057218537,  4.227758571905975
 8.074375094125232, 12.476973852779896, 107.133695938328117,  3.757833668479761
18.961020741248223, 15.617500561496346, 48.556100731323134,  4.066843336385654
14.440233970994159,  1.776787568020191, 49.272869686781405,  4.030717145060487
 4.493809317094295, 16.660174217023016, 68.268981496558069,  4.130752294361073
 2.593853683029768, 13.388298100599176, 95.525316362603462,  3.804801921506278
 5.448391874876641, 18.871189995935783, 114.478072552189829,  3.864588968568652
13.488275873294633,  6.312235328054573, 96.704824305602642,  4.090183855058549
 2.624887642523380, 17.712548819346274, 37.956872863764772,  3.901452318716038
 9.982038969381776,  3.131944413164492, 84.138757588038331,  3.992427094399597
 8.698765034410997,  4.319019373009287, 53.669470160667771,  3.948299857246810
 8.545121286994119,  3.503522313272976, 87.883298604004068,  3.796360230843543
 5.403094795044965,  2.156665409869038, 103.124823838173540,  3.828277344974373
 5.006493344913675,  3.148493665408254, 116.664956856747651,  4.061573641939153
15.340248597152954, 12.212629265148445, 26.358027445687256,  3.979335820836236
 8.306480720129334, 18.572461639759926, 102.356537060563923,  3.843537932537636
10.705941415329423,  8.222433398656642, 103.495558002219809,  3.945136475835595
 7.968943671105997, 10.523969235309035, 26.093270987018240,  3.928018823582899
14.989844262445406, 16.325831105364177, 13.306855146972630,  4.100522344462897
 1.208269270067224, 14.832607501122329, 57.820796021484973,  3.926121619446610
 6.832387198571150,  8.490919573964666, 99.325773878831370,  4.279232614237031
 0.368953756461427,  2.357228375805938, 82.228906265250103,  3.671047875781730
12.537487864828655, 14.168270085579721, 10.709501874119329,  4.196017550652376
18.306961670046558, 14.976171117223059, 112.803801101703627,  3.782690444048008
12.325365158307930, 14.910372790924551, 102.121189424106205,  4.101193687723440
13.771271493210392,  4.933867201053741, 78.059619250344454,  3.741405903075925
 3.030947156274703,  7.418140088224233, 100.810888617792870,  4.141256314288261
 3.472025637572480,  5.336378356486422, 108.683530142754307,  3.864254730915965
 8.778710938935921,  4.959098735999084,  7.400460664972380,  3.840639202731257
 9.246647901879042,  9.338180012611799, 42.948205395677448,  4.030387844211812
 1.324753310681367,  9.557519688123802,  7.190866192884509,  3.731545649871365
 8.558628561643555,  1.757801678897728,  9.588692340687864,  3.456322665587668
13.708930263113414,  6.742899368857366, 106.111623377560491,  3.853760919136126
 0.299794051766715, 12.862271699527680, 101.195959897068079,  3.995035812422037
16.128198505945686, 14.880203775371397, 116.142185697965502,  4.189032830434376
18.530585871900929, 13.113698802899917, 88.632002694927522,  3.803606648207318
 1.334299747760368, 14.421908868280649, 12.160697534740436,  3.876883385567603
 7.461058787540270, 14.733390325729346, 52.782143350711088,  3.957048160017962
10.143992906892427,  2.505501108551132, 100.623402929165962,  3.963330869039097
 0.702385177124500, 11.226146561566201, 71.414667833105398,  4.029737364015287
12.144754484727027,  6.902408182964582,  5.957073036655661,  4.153100147128137
11.185595202241363,  9.651529087279521, 63.374753451790873,  4.284071623284889
 9.304795389969359, 17.798236388285773, 42.497377531676982,  3.878678752064910
 1.295891116789252,  6.372358951034329, 39.525777488574910,  4.032084037263655
12.379540620698426, 18.625475204739935, 17.022516540403370,  4.085619673186441
 0.962923652935205, 15.741488856136932, 65.834492197649752,  3.998118959720342
12.548406683523396, 11.638779141177192, 33.026029989048126,  4.078705839034845
14.394305407030764,  7.895471808192898, 100.236465020407678,  3.799793942094830
 1.508600916335408,  0.002550103268797, 104.441686164144812,  3.799811636545453
10.044993474242908, 12.033025332575336, 103.857730741284428,  3.757591616354318
 5.851319177584267, 12.318312675658238,  0.583786445469810,  3.939737927738071
10.830775430186579, 15.587228957523054, 70.281259772762596,  3.951126217330023
 7.920639874363553,  5.530954868036291, 102.089950637538962,  4.082979560724184
11.648152151144769,  1.900700187068006, 41.956048745914465,  3.988910584575190
 7.055454864893976, 16.270058588155241, 71.484519251182078,  4.067161779066031
15.366065436292299, 12.664339575289814, 100.584488133829069,  3.971342943617179
13.915619486824925,  7.594728465471227, 115.115750279914053,  4.089925374122195
16.503246667939759, 12.373846394224927, 36.880231721506242,  4.122315188868673
 6.405437184908100,  1.162214664565705, 71.976894635321173,  3.880459723767472
 3.730583369925230,  2.118563530498440, 106.643837584302162,  3.743253866372085
16.946067156014230,  5.012812699332260, 101.319271630520632,  3.976282282202006
11.518298065672473,  0.287529501296280, 23.161179029427878,  4.292103425962020
 5.154273611586524,  3.029598799171718, 55.366828945805374,  4.138964218595602
 4.018285442990866, 11.270703625832313, 62.331464037253333,  3.812537731926819
15.980923114811436,  8.591158445583554, 94.498941181112983,  3.931983187876466
15.995412902841180,  8.898233208073762, 13.536759155735343,  3.854034144743401
14.530467187926050,  4.719732090738349, 26.788808150692834,  3.953971058280869
15.204773250223596, 15.179506260235575, 44.472867014665198,  3.892014887590059
 5.437912412787055, 15.626140134166972, 88.592218987206820,  4.069926379469969
 3.073742858598175,  2.685756015901149, 48.724535362029329,  3.990425124548253
17.195617767972202,  9.084112919876302, 56.896590181756750,  3.751482552517807
 9.601666673506559, 11.313285452975023,  0.300105184864901,  3.836520079467522
17.852342014405568,  8.602124511336259, 37.109389679949608,  3.812354702662873
17.779348114642694,  0.450066942342217, 53.811629410279252,  4.055142762877801
 1.275146990197573,  1.058463614414289, 30.985586943303993,  4.072096319532800
12.104876589699575,  2.718380385612424, 75.073885227039682,  4.267072569481184
 1.754822370302348, 15.316632363974833, 91.072972743824579,  3.860826824265266
16.499331516748867, 10.437421940119176,  7.337943262815114,  4.257878508389583
 1.168455488159225, 15.873573014223343, 18.783590441909709,  3.963335700372340
13.561768778686215, 12.688828047842206, 83.255438910139617,  4.381112152771314
 1.705862495894767,  5.209267793304559, 54.935070056837979,  3.889675259526009
 1.558422735437401, 14.668684141851347, 104.606550103686700,  4.069352183700158
15.892470407058733, 10.302465423935292, 107.936734199686057,  4.365218916925978
17.145435292158346, 14.528694352977318, 73.400835124824511,  4.184948333881566
 4.105234930043809, 17.854158221685349, 33.750696045141609,  4.340129325380028
16.007883539195664,  9.697723017064124, 33.806711355267360,  4.004383445111729
15.060100132056670, 17.203248601162617, 23.735712613633627,  4.079477808409502
 0.422340641459593, 12.026778522329645, 64.268979775114403,  4.112083414339775
10.647108844165354, 14.119530048677088, 65.160798115347319,  4.405896371284845
 1.443066618961679,  5.552066101790060, 51.060166045881346,  3.892312037163991
 4.994281302764763,  3.970878718080773, 99.582707467371279,  4.119816209690103
11.904551395365816,  4.461688424242729, 116.533482648522067,  3.781979819920699
17.663624686053140, 12.888130516570797, 94.406477825445720,  4.032844721627915
 6.276378162142765,  2.025739394819127, 32.941086679013914,  3.475935508986046
14.587479745857500,  0.849914990425245, 63.786404740630473,  4.157461977283694
17.366038918386725, 14.378123908178265, 84.389340659907759,  3.794207799832439
11.196079666428499,  3.302189317910218, 62.759853863087457,  3.874224690182129
10.727580905895545, 14.666532489882734, 31.098463314896840,  3.873109062617845
17.918237087254234,  6.634798675385204,  6.529006466482848,  4.005251751177229
 2.435922088538339, 14.068156320231536, 119.006314730452232,  3.891806314300033
15.590541802219994, 12.319395933956164, 15.417330980284751,  3.935242111048515
 5.603180278830082, 18.708775424811723,  9.436899513076412,  3.749266939070917
 4.148377179469066, 14.982471833141265,  5.505922844726468,  4.235808642283265
 9.708590966190432,  1.425738937503271, 38.637089832010865,  3.749994011916745
16.589270075192893, 10.685424687648448, 91.102345359570151,  4.129893040254059
 9.207548877795226,  8.172635909915011, 37.206213694438773,  4.190432190859818
13.920127026234498,  1.419268242935349, 100.419203267053646,  3.894854136509497
 6.394611498754746, 13.661030677325558, 103.755186608427252,  4.126459492278275
16.171977061387508,  2.189438047066801, 29.695664176038150,  3.761421086234049
 1.154444986499114,  5.602380693640714, 65.268875667175422,  4.287707494463834
 5.879874873320243, 14.895016886076537,  9.412829788725334,  3.885695684047580
14.336484805876090, 13.599677469247112, 105.526593321336279,  3.629394119721904
12.725561860593064, 18.137769976823733, 30.664846091841657,  4.125088367458008
17.368226841327722, 17.566195252898705, 28.216134810350393,  4.475502793786315
12.358881872202167,  5.762597039008767, 67.863573146977245,  3.907258971649981
 9.063922029770440,  8.736224665018579, 16.231751860245854,  4.127254563683234
16.034634666908509,  3.702233999423836, 104.822571293362756,  3.705525119026846
14.454118409361319, 19.043839837378439, 44.028772136202512,  3.979266873703946
10.052483509364247, 11.052969834788716, 76.110563055863139,  4.049583110632810
10.501701517463371, 18.478539448753079, 90.569051398127613,  3.458668571575939
14.383600974284734,  4.465658946280432, 60.619611901614924,  4.065536399259154
 5.126343962917766,  5.505615129716269, 52.218298599438548,  3.826702963947759
16.406429744822965,  6.508964779448388, 67.042807561103700,  4.284083680474904
 1.067712862802142, 18.919665847668220, 68.279104068914961,  3.960318234414173
13.735548613240729, 12.379443766686681, 93.632166915693787,  4.030354666555580
 3.352300271342282,  6.797064414706678, 76.525896741960196,  4.140122449986993
 9.736262119825842, 15.958621218880788, 105.155643430548096,  4.134110059468988
 6.047102307117134, 16.213687497561409, 43.598820408871930,  3.665842480447697
 9.328464941500863, 16.976268614672644, 10.218525047812246,  4.147218001418694
10.750559162421540,  9.457830901717445, 67.504128613685452,  3.896532353872169
 9.291216538594789,  1.238717508932265, 19.053634899047829,  3.864451804384630
 6.375106295832222, 15.080554062836342, 36.177294116502672,  3.856120641910539
15.015190970830680, 18.317526568740661, 118.031082871447381,  3.944570782717127
 0.147728456705625,  9.912672663077759, 42.374885125669728,  4.154868682415582
12.284026955099868,  3.238152792791833, 30.009230209321061,  4.294565040504851
 9.395061867829352,  9.538572870922602, 12.304459572478367,  3.902870047170930
 2.583364719643644,  7.786838883904128, 105.087772041798928,  4.294222099862183
12.400796427895628, 11.160773577904141,  7.233636660953093,  4.018701078247180
 3.541498424566792, 11.310905567734492, 26.621364733019334,  4.149594749772537
 7.360944344486805, 18.573375637672257, 22.330484777176711,  4.316017834471275
 2.401929336519305, 12.394978734922468, 30.221262378833661,  3.701931291762924
 2.369138750415682, 16.057276275302840, 22.738763600757363,  4.169269989730481
 0.118448895885411, 11.854464243990716, 116.368527783397113,  4.296544854307480
14.625747429686742, 17.274165207697635, 82.741068923038384,  4.297787009344961
10.373193549599428,  5.497997518901094, 43.084166406982689,  3.883996182070721
 3.183358985683432,  1.928228337169276, 96.409835435473894,  4.056685150748843
 2.653183417114160, 17.280257657996493, 41.976026872140444,  4.074210249927464
 0.274202299392730,  6.539764415904132, 19.657441983836154,  4.245147429451324
 5.618764391042144, 14.620310998617407, 40.019279291140535,  4.028357064544917
 1.449037181012205, 17.308486236145718, 107.948342050090176,  3.948134475050604
 3.604442017912782, 13.711260452023065, 33.640771189783933,  4.002400536215843
17.699118076225353, 17.974807084998989,  6.932032902062709,  4.010621848447875
17.886111958267506, 11.169500422969065, 97.965867009232852,  3.867541178645035
 5.240320228943749, 12.945444478983944, 85.355646032414242,  3.887892079108864
10.350732999510790,  1.924160800392283, 49.538522361246486,  3.900670891290239
 7.991062257055176,  1.714016437629486, 64.391721778202708,  3.775016204442395
10.926042527210603, 19.027059123157102, 107.805930958200918,  4.155672634037884
 6.644818797585116,  9.364423022915993, 117.150460233902905,  4.084060864207961
16.808937101822046,  0.885079957272880, 11.692620652614497,  4.456214079852472
16.775308326705446, 16.963670712598528, 94.582580148375470,  3.678226246955667
18.105086943871161, 18.505959815611664, 115.143620330445998,  4.091323571460141
16.947508851682301, 16.372799348193801, 77.032479334406432,  3.923365683794403
11.695761977292147,  9.919175023730640, 58.429320608412603,  3.971374331046299
 7.778132709547634, 17.155314158997054, 65.799892271824277,  4.018893702810947
 5.985345560740853,  4.300950331700076, 94.214749542751548,  4.019697040608999
15.004976399476943,  4.483983858606847, 13.063411978848473,  3.885664988704672
 5.932247942826029,  5.646940872088764, 85.978416775317910,  3.916532482545669
12.682648335086665,  0.767076644385007, 60.022158033688278,  4.127707773863221
10.375889233575739, 10.858530667639778, 29.416812011068036,  4.226454133292542
 3.159119952357253, 11.382419814521217, 103.213885476217257,  3.596290877626903
18.566122621430818,  8.166353240351633, 53.378655661470539,  4.011409181847830
16.292843219550516, 16.716245199832983, 36.475441457251527,  3.864917346482368
 8.250285831628293, 13.391806356161950, 16.104626814554418,  4.077401938034024
10.369284129629596, 10.130819579307913, 114.015826613999337,  3.951053004416878
 0.536481412246102, 16.883280218579380, 101.296298030996724,  3.986412701738110
 9.045282605225683, 19.066758134456830, 69.184806945689374,  4.135037473550101
 4.824075134840421,  2.385918793351018, 61.679956888860744,  3.908385788670560
12.043910941742277,  2.876752600337501, 45.946293577625532,  4.248007505555575
 7.338990021419708, 15.891357529914821, 99.748395916301703,  3.814848343720137
 4.804328611581925,  9.550158770259346, 90.344796523904222,  3.847263739813605
 7.419314329619333, 10.981448241598278, 39.697006346166717,  4.106776499361843
 7.727533885932393,  5.036987452634734, 58.019423434175842,  3.994485230987837
17.353084321103381, 17.810638958525178, 110.351940856763676,  3.914519691165511
16.243942695269556,  1.474404017315225, 37.251824930237518,  3.900468132731782
 4.769383481654532, 15.113708269698476, 107.259711968497925,  4.099181129136920
 8.497755980114089,  4.291498444914067, 97.422538728343923,  3.976126009064441
 9.755008038259529,  0.394946004130036, 53.218838044374131,  4.106950188645031
13.072268113059083,  9.796078923194479, 36.662395209788663,  4.068377353660153
 3.677076980998363,  9.325164231261791, 52.592297268032198,  4.350927653758562
17.515548872684242, 15.044738566305652, 60.435626783651323,  3.621481244002461
 9.923445916958430, 13.169265633661167, 49.986616124340998,  4.083335111480319
 9.461322704420597, 12.805132074500483, 94.101429727737894,  4.604365003887337
14.675263250385360, 17.566866983771018, 113.239393892313288,  3.904881472055764
15.680230589579768,  8.337736217917907, 19.944842931806352,  3.866363444885448
 2.779148561129070, 12.654453776657116, 68.028970323986570,  4.332947089291226
12.040677562771471,  1.509460943211409, 81.066827833340113,  4.020010441813545
14.341148250705338, 13.401533634347981, 76.158108111902962,  3.996178365813655
18.708799214522454,  0.801030951281926, 49.894381059274870,  3.922094690430179
 7.243031652398684, 17.071868084182924, 17.722946729693547,  4.158835148039717
 7.815247126528615,  4.860872713682517,  3.676988440328683,  3.793984004811551
15.438081725238522,  9.918250901080299, 39.983970898274805,  4.051590159303765
14.145745621140581,  0.320456632945603,  5.585357878809619,  4.099304324517536
 1.356538181290954, 12.175974182530489, 85.401204886197391,  3.909486195286852
 5.386474775181243, 16.117822045942290, 94.980117474518707,  3.729848088519198
11.324276393529487, 15.727419369131912, 52.933180565833233,  3.967758210833495
 1.223376816149247,  9.067221860390299, 79.035175968234299,  3.802836092577927
 6.255570240057479, 12.976570820848794, 97.165080322174745,  4.018872909465605
 6.102368630720552, 16.858404592400547, 84.636467738991499,  4.213585999083652
 7.706261951190012,  3.752320961583382, 35.978776416658519,  4.003275071763310
 0.538671837795546, 17.621127316432354, 72.130683083085373,  4.098656615239114
10.401703248546612,  6.173782213968231, 113.316244956420590,  4.061152367884419
 8.393295152657938, 18.156062521959139,  3.163504042410927,  3.639917558703619
10.567487927322828,  0.074504557741217,  7.126856907639428,  3.705272128705181
16.243784732488372,  5.816671816830988, 39.563263395744684,  4.200273184834923
 6.053102868017677, 17.678129044997327, 62.148542576196277,  4.050684713414864
 6.511344597765106, 12.747657748222512, 74.326967385553175,  4.377153154722126
11.732939862500668,  0.820366586976483, 87.050040181153847,  4.186232686086201
14.405049441399543,  9.063442450312671, 80.567180423327883,  3.870197426288056
 2.487542425352182,  8.313006063497941, 45.187355637099145,  3.777500466786067
 4.022035295148350, 18.420422409360572, 19.826350661006764,  3.948335249422351
 5.996603170168176,  7.029512790289695, 34.522896284055498,  3.900586479241440
 9.782285116888035,  6.031219286367983, 74.559206129601904,  3.787564264025915
 9.533990400734270,  6.109555496196762, 65.015728514157516,  3.927863734159915
 0.797188811609263,  2.154225866952363, 39.180833805644532,  4.191036752438325
10.102335728023272, 10.735871205840466, 46.771007786942505,  3.947712545958440
13.427882820970023,  4.995607992316617, 71.668990198388840,  4.086609862015289
17.133662709745664, 15.211592229930387, 21.059616530429746,  3.731334232906103
16.818445149073231,  0.447839093085033,  2.381230399883212,  4.244751926037318
15.135413616434956,  2.617639694975031, 67.382269815653601,  3.902262716436954
10.920365759427687,  6.587717687110983, 60.543980332422308,  4.046296898390339
12.946365692037544,  9.722182045067553,  1.097482904248205,  3.727304001930261
 7.098095050874347, 14.621238753329370, 21.046572153454399,  3.932704538647214
17.515143433121430,  4.760053299264464, 86.496339630863417,  4.224761017549572
17.476757888983432,  1.112177535083368, 102.283750872018047,  4.081545685029849
16.769540586190782, 11.716728951338601, 52.867016392103068,  3.953989270578777
13.084923309055277,  3.123565630312736, 106.886874504981492,  3.560959641151682
10.726356078099558, 11.966027482194409, 18.887516849592547,  3.679796903913062
14.643919633569215, 15.864591026852832, 55.274044423932608,  3.789345946075427
 4.920762501859139, 14.754798614394662, 77.611436797514443,  3.854306756027696
 0.489988247776240,  8.233491642252512, 108.766111133161942,  4.194399522089538
 5.447170207947773, 14.639392243595038, 29.859451517100911,  3.821062637661709
 9.267521304877228, 13.481969703624783,  8.032165983082701,  3.932273083134658
14.892420899939106, 14.396336300652022, 96.745329744182925,  3.736045232889108
16.610791803354306, 18.344179075467824, 32.524773690137216,  4.394080957900168
15.396864996624133, 14.552507756658747,  7.606735948133995,  4.164862632679116
14.869932207476094,  6.721958155167795, 118.957347949012430,  3.797741478436102
 3.113119856803181,  4.130652147494351, 33.353532426667087,  4.053691201956466
13.399543083460854, 12.918787869130101, 72.305707838479833,  3.977353347239164
 5.068744651977517,  4.397033718684798, 82.326880513294469,  3.931572983444687
 0.885728788048203, 11.214928215316338, 35.122097408110683,  3.932534375897222
15.007879276221093,  4.235423308351979,  4.301026810434901,  4.286227377445855
13.196394601876802, 18.737200276544694, 104.127050193580146,  4.389855408684304
 6.390159736012516,  5.380994779794202, 72.575784234809888,  4.104834120231147
17.563624641460624, 16.205901141718929, 10.396086514071285,  3.620471370162563
17.840340502875272,  9.465171069867603, 16.935853638163906,  3.801828560319414
12.392783068894643, 17.469449197087808, 67.036106730430973,  3.958561222793530
 9.141991443297830,  9.601289316617480, 110.030739259894247,  4.270856054877548
 3.355693719243623,  0.007916259298696,  6.020052828468404,  4.173036071114939
13.351710538404763,  5.721678841593540, 22.973748998557934,  3.922083331897737
 7.151118781324602,  5.859905725876818, 110.628161178049936,  4.271059242127789
12.958902528154931,  9.985325522023073, 22.252311842236018,  3.879519017661327
16.417272478401564, 14.223810001241144, 80.437145338445632,  4.059517538658648
16.531438747322955,  2.150359092289657, 41.492062896421366,  3.890145618845524
 9.001938240694217,  0.652829275091636, 15.032051842575223,  4.050817093170132
12.606292881717296, 18.697674293729495, 36.253695522645955,  4.421044246778157
 1.737502825151120,  8.176813219730487, 24.549545961769105,  3.996652302680500
15.839109516096345,  1.018863888719177, 86.978261894956546,  4.018085906178296
10.154442452689411,  7.404686446594260, 24.710510083966021,  4.088481535266411
12.664058412242499, 14.191120446693557, 113.770335484146358,  3.991860983971713
11.205499114226470,  6.306342191110920,  1.906718838003671,  4.072084624156719
 0.718401378624628, 15.991918289965190, 35.117054684378409,  3.708747100810502
 9.006491436942724,  9.422506307292135, 33.157941959891275,  4.228933784844855
10.072204546469042,  3.853014031587635, 78.513764598898632,  3.929472841498413
 2.330153135707613, 18.476267819303349, 55.648668690038001,  4.131961696889070
 0.828368741198812,  3.157708888962155, 61.894443088442259,  4.042496543408032
18.413620202942226,  3.582830262054234, 16.898812989381391,  4.028434605193262
 3.970592756550793,  9.369139873083062, 86.439328585831234,  4.000824657625448
 0.617925722167869,  0.933502848321597, 35.085752497913916,  4.236159228033000
11.825436805717441,  1.190038248168041, 113.125898702684012,  3.842130340059129
13.032342853269242,  5.524072089666575, 49.867064014181665,  4.020113328892814
18.164983244708782, 14.824491365986395, 24.967166485059444,  4.100913254553965
 6.342475322801762,  7.708103301104241, 67.528329893578970,  3.943205977251338
 3.138192018298502, 15.980291949179493, 15.403864514634103,  3.819080337901045
 3.766674735566296, 13.332027715150568, 43.175329653480787,  3.730634903382367
 4.790310815775201, 14.069097609991738, 49.755824223350494,  4.215163856808670
 3.865430685212762,  4.942534957789390, 69.047513691340328,  3.920928609194834
11.803500746317015,  2.955290711931868, 90.631609968871970,  4.060227493646233
11.624382207079115,  3.908001759802286, 57.483132472611189,  4.177908517679038
15.505390865968568,  2.338718615411009, 83.117274255744306,  4.147094491228075
15.608284340560216, 11.249982661965714, 114.103523344948158,  4.193639832625389
10.579268298029803, 10.272086151920467,  3.933000062064216,  3.701216096769313
 8.023088787440866,  8.974708837706114, 57.076612718244562,  3.933572359384290
 3.108292784941536,  4.515508561224126, 58.767546432373997,  4.045635696678056
12.023339270683758, 15.691763830263424, 117.405552695450424,  3.914128155813442
 8.662068236960080,  1.203445719440230, 60.492718834774074,  3.955338321655966
 1.332468613306091,  9.107014961190918, 49.100133961095032,  4.064692612991336
13.324456590122077,  4.616612687802937, 86.044232930646231,  4.116349955534774
 9.860370293180857, 16.029450464328349, 34.611568704737344,  3.845484751471213
 1.038739442306515,  4.122172517386187, 99.062291100142644,  3.836721924842405
10.964872947928079,  6.573129394925164, 88.866304609732907,  4.153794348456742
 8.785638480428586, 12.930320380668855, 57.921607495183970,  4.210892552678973
 8.721041740673977, 14.301251088765021, 27.592183218168145,  4.115087804947094
 2.841958864029194, 18.110372519908864, 12.132508528198167,  3.999088634873412
 3.566713183232348, 17.317199812108761, 98.253828376824217,  4.106286315760723
 1.469398310342699,  2.924769126196571, 114.404516715849724,  4.319483085447787
10.738959531341290,  3.585062768855040, 110.028703827891690,  4.256103087643724
18.466697520692744, 18.312749570005877, 84.421790781116911,  4.105450039672074
 2.095648817751464, 14.903810829425076, 61.782538405588895,  4.147746998114609
 7.378504469956442,  0.034093478270846, 117.910260590266105,  3.986544518995163
11.984441068643951, 13.143463198651892, 61.034168408803041,  4.244014677657252
 6.068438308656033,  2.879201674192758, 20.392148677293463,  3.761923296107598
13.982718299343993,  8.512272415450187, 25.746254635437282,  3.967872401179776
 8.393823237194164,  5.701311210350803, 49.933154973383296,  4.019286695132406
15.723380748617911, 17.609943693962386, 47.435372195994326,  3.813016135633919
11.965501353645841, 12.519892384606790, 44.046464029042347,  3.549563445565359
 4.848500698009175,  2.205085053956404, 88.744754171401908,  4.214359770352648
 0.742774604109079,  9.482727464860199, 88.783558030307816,  3.896510612398640
 6.715447825641679, 11.645542136784618, 44.960988589373123,  3.902257240363412
10.529321099015345,  0.848278571736672, 94.256543651402950,  4.198881677899356
 8.105537816564464, 10.697364064813550, 79.607112728178336,  3.706285618036613
 6.574134625917750,  7.841896644088900, 22.904845000470935,  3.934658995666962
11.563937432038568, 14.023985237721320, 108.426375452381009,  4.199548022147398
18.705813336128625, 18.983106075409243, 23.678722970756972,  3.990572291844032
16.915529751190828,  0.764956214796518, 70.233063526840056,  3.753576349253088
17.753207988100733,  7.125296679825448, 71.117991951787829,  4.262656345581468
14.551571268972380, 13.877757544417760, 30.020723282861290,  4.197012559276932
11.165910666942210,  3.138139787322186,  5.039986868307993,  3.692090538454577
 2.979365266063110,  9.517204099544495, 119.073807734028421,  4.068334558804380
18.208767812321096, 17.679656364565155, 44.015210197730624,  3.973854200770847
15.304174070072921,  2.199384108133323, 23.250519988402235,  4.131351505024116
10.749344960781412, 11.349139781474673, 86.362433833499026,  4.348972792282842
 5.213340241710154, 15.084864332317879, 58.849934746236741,  4.262541009338062
18.581217208509852, 14.801312775008928, 69.428056606347340,  3.969078715451913
18.774562975247505, 15.178244817089567, 97.658261725691418,  4.211953794011902
 5.842036750978325, 15.280419459192068, 24.784744768599168,  4.029750848181066
16.523408421460804, 15.822824241755200, 17.186271489096249,  4.113208117140294
 2.546861481270825, 15.351624554789014, 27.199302147281617,  4.116782362765012
 1.635612510730533, 17.246960213110654, 94.600388998113942,  4.123288267355895
13.343887121956316, 11.739713981303595, 51.181957802248910,  3.639337369473412
 4.246134006577470,  3.134563453603624, 29.317446332593825,  3.895781762156988
12.571384716939674, 13.355173516157326, 57.184431660161877,  3.514802568756409
16.068046730680770,  0.558092202352057, 15.851591346600216,  3.905307849727824
 6.069274242521590, 11.728349315977821, 55.013077179799950,  3.969505341217348
 0.728050181472687,  5.530164438630951, 47.231389647393925,  3.859039440549806
 5.015240741348442,  6.964009542052899, 55.768130938327509,  3.760200932265086
 2.235281571372530, 10.281855743383575, 38.837877904723655,  4.067935614816151
 4.497992237599889,  6.532302685055995, 48.282694638018498,  4.217656443487563
17.033321626488018,  3.165245658842948, 79.371080175820339,  3.960213103691298
 5.795732114523944,  2.046866443714539, 12.609507004309339,  4.222908671648789
 3.480850563080480,  5.429661077361120, 22.218772852730940,  3.966468100057891
16.371207893324812, 10.364343527936175, 73.587694406160551,  4.218929598842386
 7.882406968186713, 10.211519161250834, 60.868669148735307,  3.926468754930454
18.264385461503348,  8.918792674921391, 101.658360781092512,  4.235784575745862
14.218291618417068,  6.882354232687963, 57.491029742089459,  3.607615393038544
12.863148080667159, 13.941221177729251, 22.654842853901439,  4.062196656416946
12.562699726874197,  5.529916710699601, 81.880822499559827,  4.237796128953773
 9.319594082262570, 16.265333940928969, 38.652837479558592,  4.139497370525659
12.736696312603875, 14.625591824650533, 17.150788889232690,  3.783408329334219
 1.303738250195985,  2.548287095686169, 13.465467169642336,  4.102385121651731
16.822691934911497, 12.349075608002646, 11.303065972027307,  4.418085273290132
 3.882081403459861,  0.478415361816764, 82.129613583534706,  4.239352950366877
15.934534620398029, 16.142008801466083,  4.042293642346976,  3.490891045235295
 9.945327037230170,  2.400128167924816,  1.388897850300643,  4.115562302697889
 7.250033550730326,  2.613167906453014, 108.063989162718087,  3.895319475292450
 0.190629062230021, 13.505156079850444,  6.421514898881140,  4.035800952148957
19.037527254512426,  8.091650655331605, 75.250060491018743,  3.465909168929227
16.717454935462953,  6.352591251656968, 82.616835014010817,  4.218409868899093
 4.362154893784956, 10.804089400749540, 77.470425861802767,  4.022267842538541
16.299132668942100, 12.013507082459421, 70.165451035602402,  3.337220332539743
18.035845818862018,  5.926336930644958, 59.374352939474100,  4.151422936847146
14.763167968855821, 12.354248139545494,  3.960307836626566,  4.115067032622080
 3.853013631030015,  2.899774465614807, 75.173311237335383,  4.078029143632642
 1.166948780385267,  1.476755561170162,  9.239878594921288,  4.034225332620656
11.136965407922515,  6.913703373641073,  9.896468263467598,  3.960430362088164
 7.533433909404132, 11.052893399523448, 65.260486303716505,  4.303789106633162
 4.873746964994131,  7.874342097354452, 80.192933016180802,  4.027946416795869
18.290768948206722, 13.550258647972505, 28.668624264423965,  3.724749308721286
 6.801486660640870,  6.165942029841013, 114.846956188764437,  3.762518372657121
12.297486162085720, 12.073318770453985, 79.270161108413063,  3.891204278448748
17.106601816349773,  7.006578802324524, 23.444063442176127,  4.050673230269557
 6.558764945660962,  4.041927390271603, 24.733688639858258,  4.416275712486879
12.759779822981816,  0.793187781663818, 13.144204534597788,  4.045699337346061
 0.876526973946764, 11.546207630088100, 75.495071218757886,  3.640462848177558
11.755144782284489, 12.076221069571684, 14.285877356580258,  4.061977812881461
10.230498617216085, 14.556723793365864, 74.088547029985378,  3.900467124772980
 2.302050045462803, 15.486388065317112, 82.946932381626297,  4.478195879781166
 4.915369211192641, 18.680432208354627, 109.456024929300540,  3.967074519191006
18.543287765569413,  4.767533717679684, 36.263204809196672,  4.074455619034963
 4.065792074568372, 13.814670552740880, 100.416323654850359,  3.918042007402438
 1.885508232721092, 10.493519152777189, 13.230254555243397,  3.765381723943733
 2.215735249303969, 14.152761210010890, 110.333629764448730,  4.106116252932798
 5.105493889101224, 12.768996480601217, 81.103283234779170,  4.131811724113243
17.378336939514924,  2.208019617265206, 46.147031970658013,  4.510918708746935
17.273021268558306,  5.434509886349493, 114.982275541573827,  3.886568084985372
 9.067868707403976, 14.508147392495246, 78.343162719017599,  4.406526886419597
 5.337635256415335,  6.692710784324425, 30.512803405489699,  3.875360842874518
 6.115315134687828, 18.836076699866794, 40.002906599506815,  4.452944971883683
 1.155630905867986, 11.537123447471924, 55.368059347658225,  4.248201947627877
11.834632615835055, 15.667312272363938,  5.739604940181116,  4.173708392143186
12.091393541301098,  2.737810227791662, 97.333631271477046,  3.625049993665210
 3.939609532796738,  6.823510940518733, 96.865674164959074,  3.999479548140946
14.881774598638128, 14.941920960265412,  0.740085716124068,  3.788314982277149
 3.516424950977163,  6.353727265640789, 112.445263847291130,  3.879656842480760
 0.609298301824514,  1.766239574843803, 88.666652569658098,  4.130227401204841
17.745033371414060,  0.538551284696507, 19.657097335963055,  4.229409995159640
 7.860079722434874,  7.780679249623553, 95.217008026370067,  4.063052630631579
 4.932240407811755, 14.366112880895002, 64.784105899574882,  4.173037462228259
12.245704260834547,  7.222343381383943, 13.862342030299908,  4.037167960640182
15.962233440639679, 18.524212086462992, 73.783939381565176,  3.987365853686817
 3.952609114347721, 18.124662057675216, 74.045125863654462,  3.792138227647698
 4.696700280733666, 10.202491654738960, 94.696600388678718,  3.942960348766500
 8.294336343077180, 13.005687653174423, 116.105121644234231,  4.116696285002387
13.469155833777711,  6.290444140239536, 64.093708075209378,  3.958100860467997
 3.567784786274339, 13.206639344860587, 20.235009966214431,  3.764101881377783
18.705896074278780,  8.629940947982305, 10.567956356037694,  4.024939134273545
11.591745991758327,  8.999027250247423, 94.258828385001650,  3.988254610829759
15.973648983849227,  4.552884338013018, 94.124921678339405,  3.598655396999092
 2.468606454659491,  4.410362178273576, 25.986031707027642,  4.019602135278130
14.654213426155975, 10.015181763827961, 103.752629911494338,  4.358165234500776
 4.708097300466105,  0.581054015461003, 44.696456224957849,  4.029212448898093
16.677676222365445, 13.051697224367206, 57.205599929471632,  4.142771907307196
 7.188969554785970,  1.595599140975132,  5.888949168510165,  4.088507602222885
 2.140379115345980,  5.352977083628001,  8.405729554369280,  3.993162718939396
 2.601813249605404,  1.975573329577025, 71.365495703180471,  3.984223960041479
15.786154436801318,  3.625006033767435, 90.089212544223813,  4.045998254932750
17.093597868232596,  7.008644960122123, 78.616510896326005,  3.825017987733285
 3.738296412635601, 14.883484922866662, 54.310690449726081,  3.989641803314160
13.368456538899704,  3.925260743066993, 53.644522488796454,  4.210620963725669
 2.818361714832047, 10.016252968908113, 82.631159802799985,  3.647262488671811
16.126684774701960,  4.914030953501062, 108.745873942324394,  4.116449286200842
 4.125796063670648,  2.250519026224093, 36.823119544955439,  3.916910725642747
 7.917449654542669, 18.718543777432970, 87.887766574679958,  3.956005616814696
12.464593851113028, 10.198839796253869, 90.347766709965470,  4.231828289226828
 8.042392465730991, 12.400344877362969, 89.270913996704763,  3.780731587601108
12.946755358633412,  2.201695388195171, 19.895735390009939,  3.778289731359250
 5.693841720327200, 18.543797490931166, 53.248792670995179,  4.098280013174687
 2.654956204441418, 13.857047851638821, 37.388063696726590,  3.630291267323483
 1.858976852116705,  1.382115128095343,  1.830722379680259,  4.209084849364378
 1.860254624464762,  8.212475736471660, 57.657023562168604,  3.938514126765114
 1.412070601869310,  2.048586945533139, 109.839943684086009,  4.078622564206449
18.350727812286340,  1.915050643653035, 65.313393092948232,  3.820815766757039
16.828543829655768, 16.395781667488073, 104.266707245838887,  4.201263470662139
 0.820076312911969,  7.667711210450342, 84.814992550246629,  3.841749035329324
 2.539720981257040, 18.968190452441881, 117.193422049869838,  4.080113235690630
 2.825978491489166, 10.706356957137714, 98.391618773158498,  3.892967307843752
 6.503384623140086,  9.552497736583758, 113.117785732947794,  3.818737659129753
18.397126931544964,  8.006066675170072, 117.803736123827676,  3.962199940459338
 5.540354043048568,  0.296559352314032, 77.852414133315492,  4.117586655480462
14.900208767636700,  1.548253512961058, 56.656815692327193,  4.037167018276375
 6.634675753823467,  0.543330173070909, 94.674851818859864,  3.634110146609564
 5.135904154299948,  7.533533927854200, 26.649297945565259,  4.031874298895879
 9.728575174518811, 12.346439159168677, 36.390208737335392,  4.335131571982640
 2.766319052321764,  6.510503148154186, 116.324292083395591,  3.998408263142867
 3.147011987956647, 12.510296108915606, 88.700279010361982,  3.619012935344781
15.256291048439902,  7.615707586693399, 88.360465785673028,  3.946349470138104
 8.908309666478759,  5.159896600453039, 32.126634371225421,  4.516248420482007
11.702594597688556,  6.938954845983757, 28.475497901426813,  3.785441371507896
18.621832012613300, 15.332183590172139, 54.020685342030632,  4.423270329990562
17.117055941821800, 16.470555272005043, 87.647580769675457,  3.722682337478887
 7.750618392813669,  8.853781872281925, 87.760795349511056,  3.934208976352537
 7.397036047978761,  4.166119465621463, 46.446564627701605,  3.831746819939725
12.008701741471878,  3.160086021976191,  8.922280406133254,  3.983959303556117
 5.924278643438148,  5.392143999001483, 105.606919136900530,  3.964824911469137
14.856795607636817, 16.336534856954657, 70.270776026151836,  4.217339925511235
12.545247315292844, 16.247042703324190, 94.144791178308580,  4.088222839009993
18.392798479399886, 10.185362640441181, 67.707954956045498,  3.986172267008628
10.876574400888263, 16.224099314446196, 14.003090126509923,  4.136989130892932
 6.771663982091403,  2.362978901372160, 50.949113641661434,  3.599219236985619
 5.413949048956315,  1.568533360328066, 16.730317118889154,  4.087300236245357
12.687730170868010, 16.036373273603285, 86.236250120298081,  3.834863078118861
 8.991323697771373, 15.061525301377179, 86.786746619216643,  3.727952357626013
 7.316698194067974,  8.031594230441760, 45.971086872187229,  3.600322512952976
12.225442762868843,  7.287548842435482, 40.017340589860119,  4.104047695368089
14.137304589449574,  4.628953419102161, 112.416315032649010,  3.888570283112514
15.594719519592964,  6.447517126641071, 74.843726322180004,  4.129370190000394
15.117160526223973, 14.353938783519670, 110.701916583646707,  3.778691430232849
 1.437573258256180, 12.061577736698739, 23.295318753050321,  3.859277180595038
15.926138791521582,  3.057334647052319,  8.175616319786579,  3.970188871425675
18.364992949080268, 11.424330607810042, 104.820751993725779,  3.827454796159446
 9.953449135772230, 10.210209670684989, 97.532316175926567,  3.699057316077228
17.672897943717697,  8.699733969752264, 46.042863215642363,  4.060314636189945
 4.485681577273460, 18.338881179287558, 29.797879450092523,  3.656873145304972
 3.142420323487661, 10.075626581004242, 111.244917991432402,  3.941962014181356
12.929094064409421,  1.025669490112293, 70.393719575904370,  4.198017197091794
 3.493125745847417,  9.484510522901843, 32.656974369994927,  4.033561163673318
10.137190186064670, 18.535927446990492, 73.179591253039831,  4.208856575197826
10.135744161602460, 16.627794939788437, 59.720460998282306,  4.063417300655955
 2.194937553114352, 17.320776019554131, 79.046192887528449,  4.075608703705551
 5.294851627503095,  7.679619130124563, 59.438738433804907,  3.729487725892397
 2.048434726447109, 17.856697303979374, 112.357110706018304,  4.221911713484134
 8.595032708147555,  0.389956025139667, 46.148594530011394,  4.100370119887896
17.525316981299273,  7.132729740842820, 97.923448660622370,  4.088621399665310
11.589197172635606, 16.735153370627831, 45.587519326522020,  3.979045158383676
