BANDS
8 8
NANOPARTICLES
cell(1), 19.067
cell(2), 19.067
cell(3), 119.170
14.002585807893524, 10.964504581663908,  4.236185134141382,  4.014647259120910
18.334078012036997, 11.649813715499194, 86.921290259845875,  4.105850286481046
12.881146881226305, 17.679544665422682, 65.971950419578690,  3.556528597147995
15.045738678466938, 16.023144266048405, 102.036462054806506,  4.098957717248958
12.745572450756033, 14.589874155559714, 48.774948802044328,  4.213635059525656
 9.831780133952078,  0.520182425783473, 14.333046820018577,  4.210611922615813
11.755887017341147,  0.888270313498416, 35.955922388647380,  4.050216599737982
 3.669888256465842,  6.420542522143798, 89.948693421052226,  4.356055350735460
 9.537303804220654,  6.551109768120685, 47.883285618503749,  4.230114274811445
13.968076944789861, 13.044860349120967, 96.197851061554672,  4.138334592622205
 7.971416673130821,  8.475804693538331, 89.047585196900528,  4.197897449201676
15.164622289078933, 10.983618946904109, 69.798794497942509,  4.194552511590622
 4.624809142582842,  0.782206743657976, 30.663019916846785,  3.686441139762614
 4.961555123582507, 18.737646483075558, 59.292543754766243,  4.418556020485656
 0.406084330689640,  5.793820060390979, 78.459270227521770,  3.967207049648686
 6.693196606108810, 16.832246076061452, 23.905320579159294,  3.859921485932843
 8.936689726871766, 15.003040807467794, 26.567816876101464,  3.952804141203705
 2.291878561137180, 10.480678646707322, 57.321984320386477,  3.816717273575937
 4.538003462870422,  8.012356416432382, 109.457420348441232,  3.932433360596368
17.068045295758409,  8.328827772794197, 20.566604907005921,  3.950735608235333
 0.813242225407123,  8.819963883940474,  4.147892632729140,  3.665283118099560
13.050346022871846, 17.391328555914914, 118.390266863775494,  3.762620639430972
 9.888328364625101,  0.164850101993333, 25.334642777221156,  4.565980664913908
16.315800589957355,  0.289606848889001, 65.877541615707855,  4.043341146557529
 6.077148883966728, 11.235332593236137,  4.247163680418914,  3.907036632974625
 5.574268896715229, 13.288728645509362, 68.081193578058233,  3.927063956485761
 5.832388232276196, 12.499491338719796, 77.897465620928969,  4.029199309448436
 4.705086472907858,  0.601223956122660, 64.522821945624386,  4.142351034409337
 1.596865614412054,  5.712401146147080, 111.082617172963822,  3.969056809960071
16.490475217984500, 18.614059511724967, 58.692863663717617,  4.244598541549215
 4.354660123052419,  7.635646115101992, 20.282811411536478,  4.142772030558938
 3.764758930186216, 18.952320028555594, 107.548031491636422,  4.140143057087351
12.748114971713047,  7.681182354984344, 116.408673408728816,  3.879716216463669
 7.646873074382651,  5.562297495462262, 102.107384125771233,  4.280379432470380
 1.100486695099100,  8.052092648897393, 18.023324201977644,  3.811136904208181
 4.827260754114834, 16.026788305353453, 83.005882541482961,  3.958154233698905
 3.329821190335732, 15.411298021085344, 47.744510940449466,  4.079498546872256
 8.508281429423908,  5.241105903861865, 22.927975448827343,  3.959267040463027
14.693007465793773, 18.099872819865112,  2.620299114313771,  3.919794601470400
 7.455284686595016, 13.397338834000776, 98.140312960508027,  4.260675730514706
12.515505815012750,  4.440047644645595, 30.758947139022762,  4.036471672557806
 0.355756049885473, 16.226331563190424, 45.075914245418382,  3.946720761868149
12.664390182110902, 10.996869352139592, 110.239784467019206,  3.640147588423393
 3.896327775155235, 10.869598231682899, 116.942637805695568,  3.971326667015007
 1.988653673546589,  2.441941145525926, 24.579735276658958,  4.217719805145981
 9.924315557718364, 11.026427923673065, 101.883695512310538,  4.284294667268854
15.599598641059684,  1.818743421396835, 86.550491950807398,  4.147969518657419
12.914005295372828,  2.217211103771953, 64.690769855667909,  4.014813465220928
 7.182944581691228,  0.129666131690748, 42.161632553093789,  4.130384978324297
 2.801124176419537, 13.447989538186766, 114.009867260392724,  4.099580787791443
 0.491569281448939, 18.151751186872595, 48.977159682744343,  3.997207276595015
 4.370916042199961, 18.622523245146414, 76.751221473339569,  3.969915249193834
 6.382027605472653, 17.509295136082851, 15.793462046140942,  4.217265617521204
 7.686724843180714, 12.091861414867770,  0.301365437175241,  4.111049025456786
 5.679488418308948,  9.997884817372885, 10.600562943779797,  4.551224444594023
 3.233982089944225,  2.702463660001984, 74.758425317489326,  3.708066651528151
13.506189873380656,  2.961136265767274, 105.726730523458272,  4.109456001886998
18.818109936703507, 18.187768808125153, 40.048710741478359,  4.120613288342782
 8.938560966603267,  1.071710632127792, 32.804447480460574,  4.208556858025416
 2.077275175914214,  3.885300208318106, 64.836870585518724,  4.203996352428829
15.001039364870218,  6.635714134779676, 104.665856838272560,  4.098547263320738
 8.094163768336381,  2.902823364739910, 114.510374170351540,  4.026051874866081
13.074143454956285,  7.383123415512293, 50.492155401686773,  4.162851109048061
15.237829580113186, 12.876961407254504, 25.444060865250503,  4.204844363052867
 7.379784564243585,  4.891618885912127, 117.983413920180851,  4.032345097446584
18.221884530702759,  8.712707266872393, 109.996486695970859,  4.063504334194666
 5.070356250870856, 14.103385660232455,  2.194223332592033,  3.406398591126305
10.312396611501928, 10.835974993793291, 116.526326058697691,  4.015397415037251
 6.071810159608734, 16.820525863579441, 45.166443546027502,  3.805444105308031
 4.892857350398351,  4.481752761676226, 37.663940183868164,  4.224022689504636
12.965672681672912, 10.573584805627071, 105.547827298613612,  4.064070877717330
10.494054217639309, 12.155266048134408, 17.094945669787091,  4.175221792022188
15.985722794369686, 11.223939647846747, 77.182494716703872,  4.018883515878819
12.279668983452376,  4.722329126715515, 95.402204987736823,  3.801787391817883
 0.418221838048510,  3.170432844926817, 81.652589938216025,  4.256306457250608
 2.484420044535141, 13.610992702200493,  5.110987769512179,  3.991427975690907
18.726174224009732,  1.527765074288635,  6.734243487440057,  3.879258445839899
 6.432198321501631,  3.257106281689933, 77.181880875868927,  4.104489688658622
12.287222903118414,  3.706111905230213, 113.102379974945649,  4.171841327855541
17.479031837468710, 11.210963057359329, 52.485786212620276,  4.191426130895174
17.300330408059963,  4.433797110847574, 23.564565006097702,  4.154592259511425
 4.195327468603857, 16.408244577138461, 51.637677665141752,  4.116651371530226
 6.951636092523986, 13.396699393323605, 103.668499300547978,  4.097441662249642
 8.277347293047633, 14.030702257493090, 60.264147118401738,  4.047335097617255
 7.385281884489646,  8.624480861832792,  6.924343071866240,  3.965247761556327
17.024956089181696, 17.147074045234607, 118.769040763769723,  3.943149423276812
 8.344243025512771,  1.212570852078855, 18.099242493354144,  3.986570653736298
 3.866226077220429, 14.017349059486166, 56.711013557422937,  3.950532346414402
16.220231831204504, 12.284620239617436, 21.125492087191880,  4.152861339526112
15.850897648935481,  1.600979322666089, 41.621492908774407,  4.194394777564377
18.604993820653043,  7.108336863972943, 47.454449375854388,  4.367949120391394
 4.625754873866747,  6.614320505793029, 56.352040366712643,  4.125402909820742
 9.473830535191242,  6.271916011751243, 71.601256294588367,  3.858510724197078
 6.055406655717964,  3.477363731946480, 25.592600546637183,  3.889865155457471
 8.741373716526216,  0.423895179181536, 45.904428174365833,  3.830709264564183
10.209815096567077, 15.382610928882666, 64.535408618496461,  4.039736741351124
18.503974555833896, 14.425871578217501, 17.887358929156960,  3.681741770013797
 0.693285164993645,  1.010519041028034, 15.191834879127429,  4.077458656477603
10.908033301641781,  0.168063524882231, 10.273432963662666,  4.151835788415021
12.457556944344562, 18.325447878268193, 46.818225741132501,  4.143155166920502
18.810224676791385,  9.001696413849679, 14.173956960018032,  4.279782346543247
 4.531022063787189,  2.235714344202544, 55.311223998103081,  3.577653449803427
 0.646870370966674,  4.619544874376329,  9.215800156718085,  3.979310699464347
 2.435693848374415,  4.897827639201291, 107.030638202147927,  4.432710627780795
17.999097637571392, 14.039669656161633, 79.238043273773528,  3.982388064734291
 0.000928690390172, 14.237982427692435, 41.489005315830724,  4.224445651448116
18.147924310867310,  3.593122431391613, 75.301630161832691,  3.874951770233385
14.875809390966428,  6.180475806390803, 17.974243390092411,  3.948476137443587
10.796496628461890, 11.091460527476483, 97.711232685812305,  3.891404674808614
 7.446342924309768,  9.214111309497891, 98.968083523138560,  4.166858511397337
12.156279234076582, 19.048675774841133, 102.404897314567563,  4.084926929656529
 7.621426133755352, 13.749125454428432, 10.279938888174858,  3.863071562743337
17.421315626288237,  1.562210458861425, 33.469205628439312,  3.591035971260612
14.354824016949875,  9.151033231964206, 86.448046637965518,  4.330701057612154
 5.288149494544762, 12.299519683508841, 37.931197559549716,  4.081841941178538
14.655616000597796, 18.048379927533560, 69.423949263459193,  4.212771061034625
 9.671342523144713,  2.985312655141622, 74.552372252980334,  4.255948508647008
 6.292761997542508,  7.146121620127476, 69.007530385800990,  3.672051480657924
15.906931130026056, 17.911224507260908, 92.194756814536404,  4.017509818158764
 9.017286471786308, 17.956233049349677, 59.223170810805762,  3.685485648688962
18.180643758793771,  5.950402748784795, 92.898833758624107,  4.418959286267112
16.163542631389827, 14.619406297030441, 105.674028952732755,  4.001653312389939
12.233121676721003,  8.644774607115213, 12.358730853353530,  3.760802082794612
 0.273716974982837,  1.832742961901052, 101.190784633366221,  3.675581831126886
16.625680893644631,  7.484036581091005, 33.970851926956101,  4.238541398278403
 0.903083056327705, 16.481235794613763, 83.158229275336055,  3.931272240722414
 3.884962540554902,  6.354487408093454, 116.386991313834869,  3.891248162106829
11.341909426603044,  1.400044603937660, 82.317516688585300,  3.890518261869676
 6.758478347965237, 15.850980757095224, 86.225634359661257,  3.535742915000137
13.225390293822613, 16.289033904182919, 35.562441521785807,  3.878033398772357
 0.476590226463254, 10.944608561521203, 43.860337323788208,  3.721348800854576
 7.375042958662729,  5.666328932736667, 62.386869885697287,  3.886153948132865
11.385501596783728,  9.154842398688809,  6.836464201734189,  4.104441912045362
13.126382262197808, 12.752178352618921, 37.557730701440903,  4.063611144442827
16.452401219594464, 15.289187706181377, 38.078204172182858,  4.298175642261992
 6.051954879627431, 17.367116811392830, 104.551687966064449,  3.962120877137247
 6.074603565761631,  0.987168494094433, 68.159241909098654,  3.636568721212021
18.729860587821356,  5.844084192676575, 61.717994503203940,  4.105897545783867
10.351544666764802,  4.407848688992762, 26.502051986767047,  4.196473947094956
10.244129241740703,  4.912055718938883, 36.378084570618448,  4.038252055903397
17.447080947055859, 10.029470591469460, 27.377904171414627,  3.725418101641570
 1.848584979003087,  2.715428604251659, 113.690319718985606,  3.963145984458607
 3.266764822678733,  4.511474914002234, 46.732939105955111,  4.273359190760226
 3.501309750322766, 15.843326316324267, 63.190939775086214,  4.008745854658301
 6.584758059968897, 14.048577172338430, 34.510341359657723,  4.003785807548224
11.008575979637653, 18.651424199280850, 62.344445003807913,  3.823118353186116
15.502546498491160,  8.997178365148258, 63.514550551901046,  3.934462410732462
 7.378994904911973,  3.451269071966760, 95.071356555917745,  3.889506450703275
13.355654494556170,  2.139849740526553,  0.687208203201302,  3.870123839948142
15.539427729255975, 11.893856893848369, 102.724314720682187,  4.003672072074584
 5.894833051846719,  6.127919126627001, 86.369790014715576,  4.006479669838505
16.894065017220793,  3.630132758131348, 58.849325857165937,  3.950725267097276
10.800803138075418, 18.912541020618665,  6.399334140548701,  3.530526702685134
 6.502101198760289, 15.722300810060903, 74.576261506795589,  4.258882180013360
 7.074713690832732, 10.478134253897926, 43.851813838339346,  3.851869553752884
 9.934936392520340,  0.474280000895948, 98.883227627946283,  4.278801079846200
 5.841539940832480,  1.320570285889293, 98.594079162919172,  4.096490565385120
18.518148198016629,  9.976639012722451, 80.064424831442537,  4.032300291124686
11.701398840794385, 17.382124619118109, 114.764080312104909,  3.883388570609948
 9.460494105536728,  3.560716053521706, 105.316492233684784,  3.684707133577641
13.164286703979133,  3.210172283127071, 98.843150543905708,  3.906215751885858
 3.774630926099019, 10.225373410537232, 41.348864559778747,  4.389892995234597
12.639579874741248,  0.240355085151829, 17.879162825517426,  4.291132270291863
 8.168975386092095, 12.276282280192452, 87.289328050572024,  4.146371318967078
16.518676510525470,  8.638193360876695, 44.217240288743852,  3.901074101396201
13.460956287091877,  9.853569161497621, 19.074571126116464,  4.185908438202653
 4.185951243565245,  2.715671359050114,  9.132460270958347,  3.955436767108320
 5.424572230565012,  3.127610230956686, 33.750639752665748,  4.122139611442109
16.559546259416074, 17.997432554083677,  9.791476979949159,  3.975910276054163
11.894199560396071,  4.917515086496977, 102.347225743309210,  4.272034747577037
 6.720524598406962, 12.323853224341113, 24.636244173803771,  3.872428045839861
 4.437169053948201, 15.542373931373126, 31.324814752056348,  4.147301080988179
 9.225012326152743, 10.439877087232126, 59.001538276304537,  3.779461093987405
 3.429930417587812, 14.449206819912291, 23.464898761209831,  4.269214676906579
 0.900048285091666, 18.232482650999692, 64.922853368914303,  3.822912117991744
13.515607323039786,  6.141758877433615,  0.974578161412647,  4.141100448349108
 2.018026306448883,  1.780977192557055, 104.566673438640251,  3.510484216636249
14.164908712844555, 17.524231286351178, 88.536382311379498,  3.889722447042328
 9.806338140662541, 14.880985600076398, 76.977778871151344,  4.038942455534382
16.296156594760760, 10.050558457917088, 37.363277235183723,  4.268120604964238
 6.870614786613518,  8.483019991199830, 73.223709659075809,  3.691297544452594
14.693262769617014,  2.784683298523075, 52.788883610690263,  4.269605589546901
 0.968092943438723,  0.768280465225769, 10.326253368743531,  3.904092555388635
10.563922996031801, 18.390736830093484,  2.289945722052334,  4.296709584185542
 5.829358979457582, 15.479537445798085,  6.671975011530234,  4.203529819377738
12.668452486772065, 11.251132482289453, 92.828532858599985,  3.872404750112510
18.393409294759799, 12.770333810154087, 83.031378929746808,  3.986454489825581
14.354950294814822,  5.638647499513253, 13.895410025952360,  4.126189390614070
14.368069694503143,  2.269441699210551,  9.909972904122105,  3.872804730456124
 1.848577567293579,  9.906868921898146, 84.379564745851084,  3.693803759760120
11.270831618714992,  4.063572986893673, 117.072910870558431,  4.043756982104425
16.874949943137047,  5.661053232828712, 55.141936884310063,  4.339979211122129
 8.178062582998631, 16.424192776236993, 101.173203194765463,  4.118826231094544
 7.327082818500724,  9.978459747703996, 48.066411766709074,  3.928000076022111
 9.140969297396996,  8.805352794657757, 51.452699918191023,  4.061348574301411
 0.564191813577024, 13.676251551332388, 58.916021360517085,  4.002295153283848
10.771668545529741,  7.013738456494026, 39.851714189459486,  3.811608323731858
14.515552840884851,  8.105598816677793, 30.239933948225115,  4.371013252986740
 8.477924025887537,  3.726274454196019, 40.380035093503977,  4.269724475030834
 1.574622973522609,  4.208927785830882, 54.125923922867891,  3.905045365316168
 4.721701176347500,  2.038941454272412, 116.760447101775853,  4.137004245678344
 8.571114428954232,  2.585298032599355, 70.558247705798664,  3.955241651681210
 6.590967323119099, 10.212808574518215, 81.019499076837320,  3.825749905633313
 1.387121125591315,  3.682617935501365, 32.324459081477734,  4.102475733546973
 0.699497657246845,  5.635281102883725, 36.175412097334714,  4.256715639158908
 5.002343143905007,  4.787171315501548, 112.826588951574067,  3.775787086085159
12.257269220069617,  2.243109906556745,  4.261404591618900,  3.519428588370121
10.447624946227606, 12.028039354495119, 79.908554903015286,  4.004446643891018
14.456777160617561, 13.680925734381239, 17.544887410392747,  4.169797062398130
14.094880553786984,  2.898886690690665, 27.416951882700506,  3.962570623150441
12.346957291034544, 15.807350810642040,  4.917379882401807,  3.865794520926104
 3.718063078674269,  3.836392173642530, 101.578986969199732,  4.289482533024048
 3.456936542413266, 11.127363687093485, 64.118568470436159,  3.720883636093541
 1.295922711339626,  5.122815002899322, 72.265502262902288,  4.138299809707851
 5.938559369348995, 10.804969209321420, 57.486528578708011,  3.494207330433050
 9.868405898866826, 16.554785447887422, 68.664462020732529,  3.932564723575409
 1.388231214649666,  1.618572236267646,  2.959325227798001,  4.129415497424912
15.901753979327307,  2.745710357515467, 91.271376066626701,  3.947996327720713
11.742435478732112, 14.478645960091113, 52.692534444995587,  3.848284708130454
 3.795233417065064,  3.634780006743411, 20.851704093778388,  3.936026204519862
 8.642829243204318, 14.725815956040368,  3.530551379714357,  4.316645320550791
 1.117462332947941,  6.882422009575626, 96.328042322744565,  3.738975442075865
 4.196117108685001, 11.480819965466690, 100.046628351216981,  3.920364059711595
 0.161933854098654,  5.199408997712380, 27.197214558904729,  4.211835669874188
17.643275602356663,  5.959168375760899,  1.410306189219580,  3.975452765624421
18.889984702909455, 12.115005791704681, 24.176729141385234,  3.662876437210159
13.236767621901212, 16.664571282868526,  8.481137767523899,  3.640331512523276
 8.843789423790339, 10.796040384096736, 27.422506166616294,  3.749773188863968
12.044812037321750, 18.863211817162433, 91.551153327285434,  3.917968011458389
 5.876439794024544, 11.356378987610171, 14.409145002054219,  3.464846060234922
 1.638466386952049, 16.842958470044735, 28.624260867202903,  3.867223752365649
12.330308802338466, 14.821573228865509, 90.980389911150581,  4.164070855923161
13.227981791459490, 14.369171604463567, 112.270210908138111,  4.179444795051972
 0.642041035402158, 13.187341808113494, 62.775810143490297,  3.721537198094748
10.872725430380818,  2.561272372538407, 20.889286416627289,  3.995616173733271
 8.779222808233472,  5.291393768290045, 32.453318485835176,  4.203803372286865
18.546949908823450,  2.510286200562681, 51.130599036141717,  4.103801620894696
 2.321378575078290, 11.957668497236678, 53.630897001587464,  4.074602252060311
16.763792190547303, 14.586662529962076, 68.742607775241694,  3.936898296211786
 2.505605386008258,  1.185310795895513, 67.644530062499086,  3.580129128184022
 1.766169626883187,  2.854053501463200, 57.928849116644734,  4.124464872040853
14.960694845749446, 11.500848703582784, 81.345416702427556,  4.053517812303938
11.216496367395335,  3.476382480270432,  7.739583075525370,  4.128454228560140
16.783895545329369, 15.988958577748299, 75.853451837155902,  4.138731339428541
 6.200522168775567,  4.254275328348578, 66.026476744122448,  4.084731974694935
 4.017620510612485,  9.934159505895321, 75.171093082626413,  3.683844332899709
 4.252363702551428, 12.755793545546648, 72.274967587003573,  4.384442253285942
 2.473354552216028, 11.276651487712883, 103.672342863454787,  3.997895278277357
 9.204056361130514, 13.604907122102919, 37.953757582429411,  4.000243111037261
16.264710598196750,  4.789054971510809, 71.938225094452761,  4.102886923140911
 3.812351630439433, 14.799424269926453, 101.863937109848536,  3.573262230138061
 9.130796592935125,  4.862201643798389, 51.476835379709094,  3.743424027383055
 7.396302982592186,  5.102340061581066, 18.993721547531457,  4.176942986672787
12.827124267730488, 14.037110905099876, 116.450595386788152,  3.910935492499860
 5.603650009324736,  2.248340328081309,  1.533059176837855,  3.907904367888850
 2.715618313020324, 16.850952613663363,  2.832543041742866,  3.942064231881174
18.833657098899685, 15.460637969521191, 21.664665022049512,  4.126197809554791
 1.774549104272459, 18.702208370484492, 118.534440766439332,  4.088454809842253
 9.669259858412058, 18.870581968930377, 49.973354000424656,  4.158853456034908
14.953178446792007, 13.092718276857212, 85.098376638344249,  4.061381919228931
 9.320722010446266, 10.731738058504204, 13.641885711648950,  3.652995088086602
 9.677540036163975, 10.161275272581772, 20.972891305025719,  4.233629053753456
 9.834344434150214, 12.814952234412175, 45.044288144468567,  3.699629006079611
 7.700870396139941,  2.712431735343247, 29.213506030170294,  4.050968306495551
 7.728271826977782,  2.458333816627423, 11.178867383889189,  3.883539708790964
14.298544747599060, 18.801122800104874, 79.957805196990975,  3.959830509255856
 3.909316762373181,  1.017436571476909, 17.842303336823033,  3.913688504269828
 6.961765731802917,  7.097724372344642, 26.990822901899818,  4.015146326161531
14.117732568296505,  1.310518103531329, 115.975800413604361,  4.144955750977172
 2.208096194337961, 11.643209630704010, 12.356110244382279,  3.800897796832234
12.938232586452656,  5.912257228822885,  5.001166535524388,  3.935335383335762
 2.499573401907932, 16.580632922409691, 15.723810369602301,  3.626071719849266
 9.186622324861647,  7.405377204119871, 10.260733902770848,  3.990064185012285
16.296180923728230,  7.798773356496423,  4.568150484621477,  3.797847342301455
 9.073494384166342, 12.819347538074064, 50.290756343031042,  3.948960727370560
11.324972022190533, 14.619318168444627, 10.976129527813731,  3.730387573230181
 5.195339172881571,  0.894262422125605, 112.565015501366247,  3.969143511001000
16.512529154688430,  7.683252169494565, 67.374522960533170,  4.320563044474251
13.479443041005778,  1.057367749969344, 56.584490273545896,  3.648507993643550
 8.284039829085609, 15.248163631784688, 106.913968592060826,  3.796174793227442
 7.371682899921612,  4.623444180059948,  7.855359590454064,  3.893161224641419
14.801340290284383,  9.533454501956172, 15.159140591685393,  4.028668670818201
 3.408918314315559,  8.492015047855428, 113.178796985689544,  3.834388864871654
17.171412287993956, 16.468790434281480, 86.005647846437313,  4.052422123932172
 5.361186702966148,  8.807969169669784,  0.882872200458168,  4.017747634163069
 1.890597774002206, 18.372518141198970, 97.463721665708988,  3.852963482796051
 3.853899738405422,  8.125921163015709, 14.468939778163552,  4.099219834871912
 0.909700713036928, 16.778571910649916, 36.410078245993304,  4.002469526600125
 2.403175116788155,  1.303500326387199, 90.816638175338625,  3.527537450699162
15.766407437187384, 12.890171723470216, 62.569524562211818,  3.880858332323593
 4.442174358398835,  0.768182292135670, 94.329916965931631,  4.113839633725240
 7.741055853950868,  0.954045136639064, 80.607092840264215,  4.031680722781744
 0.061972393919509, 10.393698650039866, 98.085612357267621,  4.344385625070607
 1.586278032746274, 14.441589522021484, 98.565288962194487,  4.324353170191736
 7.167053021617148,  8.637823087673032, 77.355758615440109,  4.202449488340395
 1.407377679759229,  1.666887753274436, 28.779877211356908,  3.920406590957642
10.515647742750172,  8.351338838213804, 74.826789855905346,  4.023123545091299
 3.394354157646837,  4.930999795780894, 17.040354665221127,  4.127855720890568
18.663682164936990,  4.818880558625953, 103.728560983403909,  4.249444183929609
13.563739585481763,  1.961390540314567, 60.296176175616054,  3.980113471154186
18.675874100183933,  7.931775286736499,  7.527048196690425,  3.656856836689896
14.625294307781717, 12.786688335016352, 55.152481356713849,  4.208695968014834
18.142337634774840,  8.459818316935021, 71.240329809948804,  4.104760204346994
16.413256151640905, 16.731885330082310, 24.549705156220455,  3.749637641096040
17.037514210002922,  0.078970230775041, 82.863449266084956,  3.990533504209078
11.109945680058789, 10.932744605148983, 54.140053652880390,  3.843442225794568
12.769930430978128,  8.500677674019231, 95.649226793113954,  3.785818949319806
15.001663526411919, 16.870878785944296, 55.310933170303251,  3.902997609990530
11.205820654925013,  5.674231759250932, 107.877525718134763,  3.777076211199081
14.663297816277009,  9.229914713419122, 73.701308076886477,  4.417731050130603
10.403649872162562, 11.361080346348137, 63.675263657770721,  4.151731038965223
 1.414179265584336,  6.536217467058868, 67.933153903965945,  3.892983675732345
 0.427581073920224,  8.672757649080154, 64.598529469673807,  4.043975157513533
16.991774689226300,  2.210378327783355, 98.179455588482995,  3.977239916962518
12.953541316592258, 16.563641094160438, 14.279735629275496,  4.426608739739835
16.156382453047211, 17.269691708159165, 16.904810068583640,  3.858180714018893
 8.101339192851837,  1.250783724610250, 102.537063168993939,  4.021739243330334
10.289775263386701, 17.675298563281103, 21.387945030735089,  3.943030445883521
13.626401824672790, 11.452258702110518, 51.206330368840220,  3.860339518075386
17.407151425605527, 13.089871791018453, 34.723342230467381,  3.945110238552740
15.609012488222147, 14.512196650186690, 58.855321947192692,  4.149779058083465
17.020517618126384, 10.051411164058155, 105.999951252305408,  4.045212139528729
16.157705742273052,  7.213534435740064, 76.980381065894477,  3.829070330375310
16.494999525349719,  9.376829037849737, 116.498881218191755,  4.298842256091532
 7.046241870336492,  8.596831863236943, 116.457966233681816,  3.813409782754331
14.024492031825552,  9.287447026312567, 23.339718403691563,  4.458924443441670
 5.477890153050511, 10.813992332786167, 84.739034792421009,  3.797117927420352
15.673331139482693,  4.557593900144223, 49.104003725428804,  3.984839125130647
12.246855261116787, 14.068410820884774,  1.402144531842261,  3.976160916066768
 7.228540426304813, 17.169948551509403, 62.531681944867394,  3.972610323598534
 1.803493494761363,  6.367904730304469, 86.043206549869979,  4.083391789852251
 6.376348128690310, 15.277522485013479, 111.699942211938406,  4.193054667426800
 5.747902978376399,  3.178380145973454, 109.217337436317692,  4.202475272486318
 1.574393527609034,  9.339536703785440, 93.323289205636186,  3.872472157217738
14.293538227235240,  4.297995434389986, 109.679461263932495,  3.827328694832451
 0.204329934627434,  2.967326957759271, 18.958159714373952,  4.064167293523812
15.385074035911591,  6.652690650353198, 26.413287177635013,  3.981827281924116
12.993101810482777,  8.323146713712504, 82.671599516087710,  3.848022441085378
15.275138941749599,  9.692344462639223,  7.813385491227200,  3.985521623076746
 6.948561419239101,  7.962445688954374, 112.300882682406993,  3.508262798023172
 1.388977266087357, 18.342424446566550, 32.448287447057993,  4.265144370134021
15.297671616153846, 16.352551242374677, 109.337202377046893,  3.989044399333895
10.689690248396895, 18.829051908538485, 87.413599379550433,  3.811136030581209
 5.034104247653779, 10.391571650055646, 33.950895653453088,  3.990169376535094
14.766396577576916,  3.218218656399296, 82.332506971020379,  3.761810854940178
 2.320525903342133, 11.448254749969017,  1.681261795005889,  4.116182650777840
11.359912748264993,  5.094967273729138, 81.781864906979862,  3.573829577536031
11.217224350859908,  4.033389056555179, 16.422420293213818,  4.220716140342855
17.386391257569528,  3.098745049100735, 12.415719554220242,  4.142022857655954
 0.962906037679236,  7.093951013377423, 82.142889626285111,  3.690651615131503
 2.020731328378118,  5.647029536013914, 50.487238872269153,  3.941159752824961
 0.759746699387646,  6.896471213333852, 57.916560218889614,  4.055978209899477
 7.207171927810111,  9.208890771319115, 17.468778746040549,  4.449325623608629
 1.861009175391665,  8.082080970753886, 10.759695286127425,  3.959959283390020
 9.768928142947496, 18.568776398668827, 105.681743611911330,  3.884859588598909
11.382799486139916,  1.121629725064479, 68.268688089622785,  3.788870211397824
16.640207537323036, 13.685189825692170, 99.146080049784658,  3.917756575198296
 6.635642671158694, 13.658963073096738, 17.296248922604629,  4.007361341670875
 3.103470262202777, 13.276769598489983, 92.276697812698998,  3.836979309442100
 7.758430327229211,  0.511561033343922, 56.039728700344376,  3.834890879909002
15.898469582772865, 14.024169245863190, 92.829037465602767,  3.804407088737959
 3.942462075602085,  6.421411683985911,  8.030367873801818,  3.624909670355943
13.740257538467697, 14.678810512237872, 78.677822013404196,  4.494919722846733
 0.017307913926584, 16.881008369433683, 108.033722322701564,  4.083420788698804
19.000317877662862,  1.573998026651834, 94.215134737052779,  4.847824331627231
 0.689159526477217,  2.797524393258871, 39.404086214674955,  3.557088930750716
 6.712850979764210,  8.748680169863947, 23.281005044097128,  3.757114564342116
12.791760021911720, 13.856212487134250, 107.708629689576924,  3.771038540349740
 7.072507574610488, 10.512709775333326, 70.226993522734915,  3.532186106066996
 6.051883197057454, 14.260923013004271, 116.421209642960321,  4.035304120489884
14.887750194462400,  2.857920764788147, 20.346570239861812,  4.078767859501256
10.009352865395032,  0.412659712824979, 111.959759414742038,  3.797975696646168
11.248998836620332, 14.874117885618066, 103.911835349673595,  4.666993547551920
13.595784261515023, 18.157804443708560, 39.018663816749715,  3.877561783174191
 3.896968409882549,  6.177483735106541, 76.040113010910474,  3.816046164715867
16.867058821473236,  3.095841106298467, 112.827714683129130,  4.321694306420137
16.510767173634299,  1.483564083989827, 37.355416765703872,  4.343939307105351
 7.560266925724493, 18.489529349862440, 108.998016543401562,  4.017693259978127
15.862718848163079, 10.456204436215893, 47.878267624524426,  4.256988789799321
12.983747447197304,  2.060059967767467, 71.929403452054714,  4.389858513690185
 8.257252668012441,  4.505468125541372, 55.209941122873744,  3.861451502116279
15.578919377104445,  5.745580288714111, 88.593522279221872,  4.031472069611215
13.786502276227601, 17.243431750526589, 73.355555981671401,  3.974917557421015
 7.441818642699694,  4.922640449260107, 81.786793523437652,  4.183273550184958
10.346596565947625,  7.636454469807703, 29.311879317165687,  4.194669483334706
 2.900248302139179, 14.663683521292176, 118.626238753099358,  3.635807763980694
 9.657297737567985, 15.819976350818719,  7.867046897911319,  3.663923268825987
10.423875887322616, 11.079860870389549, 41.051348938927028,  4.136584231743930
 2.937108375742782,  7.788006105680020, 99.713289812003154,  3.906942203112770
10.740311503909671, 12.203978504976286, 24.374441788507781,  3.959384102438624
 9.139848489902686, 15.806495541458800, 47.419569427718528,  3.864116034543265
 8.721758834314176, 12.318710219208441,  6.873089163741049,  3.834941467819992
 2.320112464014539,  4.649039604155576, 12.957409382299575,  4.078011063822450
 6.220101693926260,  0.590727189380538, 73.180711829664887,  4.095032140276054
17.357461997776230,  4.760177852283971, 43.830174087677818,  4.012496186920536
13.985225764792416,  0.864911753652402, 23.894834951529472,  4.087288713132461
 3.339136572954051, 13.608441455900218,  9.270422245191680,  3.847602499582785
18.574686365182483,  2.606375582749673, 47.044739381742296,  4.058387347330996
13.036257917684358, 16.831636801088546, 94.846390213998120,  4.073470628712882
 7.320810461932473,  8.930637034666871, 39.296616975646714,  4.130948462684025
12.982548826158178, 14.926371285981636, 44.751009933887268,  3.869135912087535
14.307807632988039,  8.640695607437605, 40.825002409656364,  4.187318275894573
17.146829739105712, 11.593715593946396, 66.089543259082532,  4.002341595261954
16.494570456170585, 13.081876700417542, 114.720800283740815,  3.856052757945232
12.252159911229610, 14.019763278601028, 61.148201925549408,  4.013837366365694
11.986055430215952,  8.383315618684511, 57.102297530223780,  4.076103864680449
15.608744648008271, 16.514534577997502, 42.044004447563658,  4.080915813360289
17.755665078849507, 17.889189646183343, 52.475523090426833,  3.871121882333096
 3.300134328941646,  8.622520196566828, 79.420523779366562,  4.026811399445175
 0.868587815657258, 15.018134918311507, 88.699001558320717,  4.156857471799037
13.439796433414502,  4.735811008328291, 57.400424457012235,  3.795882651967999
 2.817101339174202,  5.334975084732174,  1.546602254814337,  4.308949577893297
 4.464778763853444,  0.158973490642728, 26.887148150424949,  3.874970580445412
10.300974342973991,  7.909921130257648, 43.846891361750231,  4.294762153872211
 8.809346418446099, 14.487539628406378, 13.965416044336148,  3.949104427901243
 3.365445871776027, 13.632830563620196, 44.000451369733199,  4.154187334018205
 4.953901635376707, 12.503891484735831, 50.279637214635706,  4.279077367353372
 6.125360499184680,  0.483638542999262, 84.231804233429116,  3.932692245274187
 9.812111222251040,  8.196610752973212, 80.519583280921324,  3.789070227075150
 1.592196544735645, 13.520647075120547, 66.509384864486989,  3.980873331548819
 8.500239472946317,  4.497399769645473, 88.835720084373420,  3.819583587918777
 3.712908782504726,  8.603392850715403, 37.392248222378797,  4.006138044643270
 3.941455371246323,  3.783418620900245, 83.753713315216487,  4.032073719051642
 0.085900728498910, 13.125138368403555, 94.883775321276218,  4.050500691232011
17.582903184543611,  9.991174900339640, 56.419674501578832,  3.951633144446859
 0.211435629170401,  3.997555503117396, 89.131743547964547,  4.181934236831554
10.872204322218696,  4.214724708841220, 62.088913287022102,  3.686315022199215
12.378736926260611,  3.074834712820368, 89.074027732372116,  4.267400258340135
 9.495563353342661,  7.137512450537719,  4.172152829316214,  3.522945002958907
12.484859001006788, 15.870623056126854, 24.277219690241150,  4.146324108823928
 8.124134509153608, 16.148525733942527, 52.586380362019810,  3.938051234922320
13.172015631689424,  6.586274176911256,  9.284204359237398,  3.838376197995500
 5.381068560119104,  6.171321341470811, 41.709489778095602,  3.956873740310139
16.826604764204230, 16.914048354752307, 33.939315369879210,  3.928624269808133
15.199151904410147, 14.403001640240900, 10.863281176282436,  3.868253864713312
17.804013423949307, 18.495880699919393, 104.288048383963130,  4.445718945058786
18.378541466517795, 18.897129767079743, 89.101422513972096,  4.030235816580501
10.587591987423616,  1.235928295459268, 94.921685058515592,  3.879155144318982
11.667528311461528, 11.347812304667173, 30.807672227971381,  3.612105159530899
 5.502977703458320, 11.709635559436386, 20.783235217291601,  4.272087635121951
 7.126138105381119,  0.085251506610137,  8.000266608502516,  4.019333973240599
 6.438990053362608, 13.312788794972688, 46.458860819162815,  3.671970084302095
 9.741680889786918, 10.404631280357117, 112.610748121390941,  3.892250720024614
14.160443369107494, 10.777963332091236, 59.479476902138217,  3.894377381445176
 8.750216718649234,  1.049718742909527, 65.282308625193139,  4.124582144209691
 6.641469450806462, 17.027152454710716, 19.889520049985244,  4.047284766563976
 6.730073055270923,  5.674487184362232,  2.503399341972044,  3.535408466126289
18.504418432698252, 14.561827647146590, 111.727695197278749,  3.935744549566186
10.147298617227790, 13.891240382999703, 94.531822614877001,  4.163937362402348
 6.734213158161018,  9.895051411533087, 66.183334460007629,  4.053755031141153
15.522804713455056,  7.220031063854623, 112.877014696951335,  4.288650681993706
 7.067745266876006,  1.446614523192705, 22.146918937760216,  4.276540224056352
 9.923056145066962, 18.053799879273523, 72.495616679129981,  4.022950024604229
18.957092574978716, 16.756689643455342, 61.424079020931565,  3.961934814610996
 7.202597266941130, 12.325145611032429, 54.068691381298514,  4.295583109251000
15.499472521855042,  2.464781227681622, 102.081540398673724,  4.208752818228938
 0.578475948100670,  1.812597926652142, 85.602094505938823,  4.081168151507194
 3.051929399609240, 10.080482663960744, 67.782952641573019,  3.854020657372197
 8.646121444381848,  6.529188415437201, 58.831760144390834,  3.823457846336483
15.851038028104377, 15.547839937329172, 82.208268099415776,  3.698425010852804
 4.093804821204870,  4.085987377195264, 69.412550626518296,  3.895272894807570
16.588652350213167, 13.308191446254941, 44.700161652731659,  4.028752238747681
 5.718547785671069,  5.765669700087164, 11.262859166431600,  3.806245396369481
14.722559952105321,  5.410159318637302, 62.005113021398060,  3.937706130537974
 6.607761556051083, 14.339677607788044, 92.957147217151416,  3.608236865159530
16.660007123971980,  4.355430191078242, 30.458294877885070,  4.184781147576958
 7.534828825845868, 15.546773406655014, 56.632310262529124,  3.932126241412884
 1.694114027546185,  9.048431476235892, 106.927856054638283,  3.906821058756043
10.031792355101331,  7.905347875330976, 104.666996255420031,  4.057651020012583
 8.943593967254790, 11.764994395762061, 91.277177542399286,  3.948803616438540
 6.373830231289480, 11.328401194157804, 113.976466164402922,  3.558501400206814
10.271494425699649,  3.902594673755247, 44.850335082629876,  3.948846000589049
11.755950934834141,  5.796802504975243, 54.080892418867776,  3.874396906807646
 2.343308607447372, 15.064615409822768, 75.361187694961743,  4.030819915272049
 3.112559931934126, 12.262496803550395, 81.437345027762390,  4.242955931319085
 4.420550450459798,  3.669882874938157,  5.148764099568391,  4.209494516469833
18.287142684664698, 10.041116284838960, 60.609323510432553,  4.347002601500133
18.928478410970161, 14.246237645661303, 102.488880735307461,  4.239156993181327
12.706961603247137, 17.264446205873160, 58.987502431469309,  3.792828908508857
 0.512683313709771, 18.000555568239545, 18.611196040776935,  3.896088458670243
16.243471658877809,  6.643338753288113, 80.972276794522969,  4.147328212816909
 9.786113452600439,  8.665637559039398, 68.488549903881022,  3.825799385804538
10.628680130780889, 17.334128311889646, 80.066891344095040,  3.911874943486544
16.135647191859150, 12.443836512268650, 109.147493431454947,  3.920579774548453
 0.499703661945793,  5.057593755483021,  5.078704593090297,  4.094956524864071
12.093169792671286,  7.360681300553854, 33.564100860629523,  3.916345193776361
13.059314926763715,  5.064107713977624, 23.379032003735599,  4.170304115543563
16.115476842818762,  2.127986302452173, 16.561115604273915,  4.010132528098167
14.093131434136252, 10.871501189873843, 33.845276450486558,  4.159449717017845
18.177924730130634, 18.425677999128212, 79.000413786438330,  4.056453061716407
 2.415519997896006, 13.499245642164997, 34.457722741162073,  4.193694141318103
16.799873849901058,  7.107056915244921, 10.861444303235711,  4.117341837824145
18.452590094682723, 14.681144911305230, 54.996735816766645,  4.286007560388960
16.716729602978170, 15.465251491458412, 48.084255004302896,  3.956102875578478
11.342944459400176, 10.910142157858816, 71.537071831294398,  4.119725188028836
 9.033981460770814,  3.069436077682254, 85.147697415992596,  4.051388601381394
 1.110933144971173,  8.152927056304982, 53.980383410338767,  3.911415224445913
 5.251114354710939, 10.880544137509945, 106.610000251149160,  4.089106626270276
 5.353870181715025,  4.633283015964107, 52.457926575233145,  3.989568446219477
14.591671146597010,  1.532377641682660, 95.037175415421999,  4.042063268619434
 3.439003487319580, 18.678242755817713, 101.719759654765468,  4.128941248250999
12.932825894862178,  9.885690742008453, 66.498999577567403,  3.930065493001835
11.856593618006132,  3.200672899114878, 49.089730914055657,  4.106961034762339
 1.249425703511548, 17.418185127562104, 57.548844274723130,  4.067595959830995
 1.119820936839910,  9.530900485173079, 34.477191352024320,  3.990283041649285
12.891926866533142,  5.190599723382221, 85.408000346780611,  4.258298056376090
 5.217816255773706, 11.618220750793801, 28.155288803641845,  3.772452920846225
 2.956689372236757,  7.314160418047996, 103.643424565610772,  3.928197707256128
 7.717948311922020, 17.722139388121526, 114.793776244342382,  4.096362456561298
18.889938835891176,  8.228089419052008, 24.165489786248099,  4.007936731297594
 5.477612365716444,  6.796483701174274, 49.190159680366946,  3.757030073121956
 5.727340987984448,  2.952012588314075, 91.197367894310617,  3.881378351899539
16.084845725979168,  4.736820117274704,  7.272639226228530,  4.120783071219218
 7.666924717019953, 10.667171705802756, 94.898652719408034,  4.001729759148166
 3.366126780051817,  1.863847964682302, 49.964222953223434,  4.061964775111563
14.837701533299940, 17.104735204103282, 62.526932984222476,  4.435486071037713
 9.857137904148855, 16.181887772075246, 17.564742306825064,  3.993316136840078
14.853913705886770,  0.447558983243037,  6.397011976799528,  4.098355351776379
 9.078471267714603,  6.986290143621144, 95.875167539291837,  4.092905198862063
13.284737906741144,  4.998977042843297, 42.465983124183836,  3.901196577181521
15.807178990813476, 13.403634030435136, 118.882928321504622,  3.877616310226405
 0.614939092959629, 13.100807889874638, 106.739179999937576,  3.926604689673609
 5.012312888315443, 15.347628876990068, 27.216738295055553,  3.908882474411828
 3.585432804593808,  6.451024684501819, 24.214602606160675,  4.171953585709662
 8.805489294957649,  9.566424431321396, 32.686280786121522,  4.086807841223214
18.158065636446949, 17.367244604763595,  4.460338637764249,  4.060174001998460
 6.202535820743611,  3.535190393120252, 58.352384481324755,  3.823690869321032
16.445258034998801,  2.992375040348586, 78.869133227443953,  3.948398133682980
 0.572083038357835, 12.146331755385125, 70.210657512082690,  4.084636666277016
 1.166025811757786,  3.812031899917612, 117.331931708194674,  3.750648232845052
12.857585769912404, 14.317931427613074, 69.898750936625319,  3.884533795079487
 4.883097858802355, 14.012321001683107, 88.870312691371197,  3.913636326185181
10.067959278113415,  4.073943108247332, 92.335900596906811,  3.845888372165129
11.289845842120327,  0.773191495520451, 29.404529911722765,  4.078093046560164
 1.694190084768898,  9.735090086196452, 50.125641250951411,  4.255214389008018
 5.073092153025802,  8.807943085591793, 52.669883235900365,  4.299009787018589
 4.373134262974688,  7.680141108952844,  4.523577800646747,  3.844591195082840
 5.944276351427380,  5.413673917092593, 98.260873205771006,  4.113509971922359
 8.182191494711827, 13.973288633383627, 71.239794815759353,  3.968923652791451
 4.316191870771598,  0.914610308393945, 12.974372180593232,  4.316955500797714
 7.712039051142562, 17.310312314130329, 95.989556854168526,  4.129985553790885
11.417911371260985,  1.996692239947188, 78.351433842600940,  3.962882434632997
 1.145364633831317, 17.549161353020761, 24.825170933467124,  3.882158462733527
12.014821774374528, 11.405999435121030, 88.917659991173352,  3.827739384477789
 8.216125490325537,  8.534972769268828, 55.420616604793409,  3.991515863980696
14.958843002975794, 14.165093191472625, 31.560217550380017,  3.952192806840473
 7.008253616465828,  6.476445130931486, 92.475568203577296,  3.927260976811208
11.489633332946200,  7.528977143346942, 99.167912700245623,  3.803121389428353
18.379573591816413,  8.822831939129701, 102.095591394339991,  4.381078845217542
 0.392464638116960,  7.430628056263390, 30.943105539490059,  4.028132085379452
13.109625886093783,  8.833488371539882, 102.166867064261467,  3.439112459207288
 7.030462682573503,  7.312088011154066, 35.567129267325953,  3.993395544971108
11.280935373504073, 16.316569969857134, 31.584652818527708,  4.164236258388854
14.506218388225767,  8.878336227473227, 54.020478389465708,  3.923283779509300
15.610096928855071, 16.948460553152543, 114.323168444525095,  3.954364258407888
 8.133296543084898, 13.412384422164809, 30.524518326514432,  4.469820628104893
 1.202202701117977,  1.981603917987606, 109.831417219909426,  3.876848380568951
11.329610832847331, 17.158072944043909, 109.127456761407686,  3.981292922136458
 8.454325364993998, 18.709991255793010, 76.732323946595841,  4.067374214014771
18.357785951486687, 12.110903212500293,  9.469046785026498,  4.368459950407854
18.551122511011194,  3.229922197968795, 68.958294918026283,  3.994268589164804
 8.306931050926178, 11.826805295060087, 74.706256597563950,  4.134553633456919
 6.939201485763270, 14.111539208756589, 41.567869419293487,  4.544571310876797
 4.670168824261677,  7.534627763556402, 82.921256728468478,  3.759309296584524
15.957689012064700,  6.037751000021812, 96.728948630479920,  4.420533841301776
17.530379181831325, 15.299452142846906, 65.024525119612022,  3.737539117141607
 2.595413709532767, 13.563573434314810, 85.307620273133864,  3.966978099381812
 9.596141416817634,  6.539333944859282, 114.474951906239681,  3.836759135348059
15.668710092909260, 14.726000575342569, 51.778052021238771,  3.824079749251668
 4.017012999330418,  4.818902773915259, 29.135646246422514,  4.288376540327824
 9.700055203712095, 16.572794220970874, 43.726154419893128,  3.700438364212825
 0.440529040027766, 12.528497065370917, 47.335272345177536,  3.907364793546700
 2.602434306853384, 17.092030747510290, 111.241605583435046,  4.148444361285418
 9.690983336218904,  7.962227517579447,  0.361528054878328,  4.221365345892135
14.063100040173907, 17.922247879633936, 27.321340143014073,  3.832757577338893
10.812958738392428,  1.930657687879630, 108.504387975374456,  3.847965385628870
 5.793476799895702, 17.424523246398774,  0.063411829704905,  4.413382316725076
 6.811825049194679,  3.669884033948374, 15.136306101999978,  3.996803775799773
 2.321163384303776,  3.342451299911797, 97.631213438953367,  4.069442568549409
 6.513033119134545, 17.098790537296793, 70.109476530315604,  3.445480342347760
 3.159301260248750, 14.904297660129997, 19.233302094361168,  4.211334542952254
 3.146582750279572,  8.827286812638713, 60.769846643981190,  3.746972342096263
11.242281205939340,  6.430063822666686, 19.876769455575499,  4.028705334013746
 6.427886974729786, 11.444242112160200, 110.304837642191714,  3.731432606166357
11.590433857443804,  0.837803133410603, 42.251615837174150,  4.487114892077718
13.288573111628121,  5.242231810354763, 74.885536084962652,  4.279749360287702
 7.118685641105643,  2.989824420090617, 48.567524354839506,  4.213459059314783
 2.029495080633628,  6.159434509128826, 39.881995006817085,  3.676123717963558
 2.523325609774251,  8.674639452244115, 27.622108184605583,  4.219748362692879
14.330971653367847,  2.787915592035725, 45.681559506496860,  4.088826724664970
 3.698126094559180,  6.715308917903656, 33.458237420792777,  3.815301307720972
11.075866379892263,  8.134267458477950, 16.197428499381555,  3.929395361961505
 5.611413833794919,  8.431634699917286, 30.496451246270958,  3.954483971735123
 9.471124844546210, 15.642444225853147, 118.144723066522872,  4.042272040627978
 9.737033174438558,  5.518217546236574, 77.755154251280487,  3.908277037158411
 8.048398324917272, 18.870776121605058, 92.170708891377771,  4.122064379801617
15.812147927307393, 14.020792670663209, 88.974313750364686,  3.894202917268071
 0.638274837953690, 18.776303781258214, 75.218725922358885,  4.018732324356466
 1.237801264380095, 11.295889073545265, 20.539121812504941,  4.287348471759917
17.422836659652155,  1.198546399224670, 26.114994136850509,  3.933139819973409
15.335877028601001,  6.329561451594993, 100.777564838600824,  3.712498833567405
15.361677319390276,  9.812543815001375, 90.333783341659753,  3.776520484439922
 4.317238274862377, 12.733450845830038, 60.583769588450103,  4.213430345996911
 2.410692114186816, 11.238816337731574, 30.943164899471441,  4.162286120515150
14.786419731990661,  1.289764433384199, 75.672857537495958,  3.997237268721844
 6.806764318281959,  9.700549213754444, 62.074012364286915,  4.168183511727976
10.510676377539729, 13.075401188897024, 34.102546346889675,  4.102755137984027
16.411729785349898,  9.893569350327098, 94.349785107267451,  4.423600684179159
11.011470042683296, 17.298559525437636, 55.416016081408401,  4.096848398135366
 5.139479925431620, 18.097905939798874, 34.539518192784548,  4.176197003067303
17.528714019234716, 10.845335512123743, 17.662216157112702,  3.745954911220732
12.643221559653949, 10.317370743591091, 27.233449632530540,  3.877446742766856
13.480201333231188, 10.708098891248456, 113.984272048311453,  3.910188211170368
 9.354898372763104,  7.471239787836036, 84.560531753082614,  4.211759579902714
 0.674660862085198, 16.500297848458025, 92.597451160426047,  4.160458144008941
 2.075818018574024,  1.668896410588981, 35.865218990243172,  4.148054440896940
10.468748789510418,  9.661609760730050, 36.612113708204120,  4.256112721802895
12.569443448941598, 14.206267442547556, 28.303111561499186,  4.032129769698221
11.485267264257500, 14.868836691290324, 86.822979416710737,  4.287587080296733
 2.326783520172529, 11.508201861208281, 110.246545455096310,  4.399067031268358
11.023055332366610, 13.547386204314497, 57.227701856368135,  4.195069283356045
11.182125705406472,  4.251866979572056, 11.814277243894079,  3.937137576659007
 9.690564672156471,  7.600985036012750, 64.806618003373799,  3.809663605215081
18.510505743500367,  8.909950602044320, 40.731468416125409,  4.000335570544573
 4.432963392248972, 17.241588741154022, 91.173531862178962,  3.942199901147486
15.681755021912268,  0.349850961574616, 49.270685955903346,  3.967382556056495
 6.015766173631676,  4.666111656369775, 72.868286362087304,  4.080815368410314
15.033435773425330, 13.421283263184375, 73.138473222687054,  4.058835116847763
16.215943435970097, 18.367704562149413, 45.487693262931181,  3.807936820979581
 3.888168955733938, 15.897689951446106, 95.068661397496413,  3.929585876637029
17.093914589644033, 12.965879213680935, 14.231287048567228,  4.324452893789127
 4.699979741414833, 14.793072682322807, 12.957047950159597,  4.294676062488874
13.946298729772405, 18.199141858789758, 98.636343769449041,  4.150562586746518
18.304930909864169, 17.458109656027311, 100.096191409705852,  3.822233560335801
 7.971065373860081,  7.185467455732720, 13.956554050093033,  3.752612164365577
 1.843339607215041, 11.888076945561140, 77.600617744934553,  3.790132125806997
 4.724427844184507,  7.992939831820799, 95.364596848001000,  3.997064675215075
 5.536721135980062,  2.776068638881474, 105.139923671221879,  3.880676412348915
 1.737825075499592,  7.116071750735419, 43.717667369655793,  4.250270867943732
 1.562791118124390,  2.176363273034875, 78.004001036201373,  3.636500216198454
11.429461843534483, 10.394646042034642, 47.841911583075586,  4.329542030422050
 6.858163608177165, 16.107405190121394, 79.508443850520379,  4.095196223211380
18.857380157347134,  8.223753569718188, 89.245269395265524,  4.182739591978721
 3.264419910225586, 10.333642790980363, 88.099527983721359,  4.244870482301609
13.647693320581542,  1.576171326204245, 13.610217812443542,  3.750914748695686
 6.049334622664333, 18.273147103296676, 48.635002744291533,  3.639824508188455
11.228525527787772, 14.451717162100463, 73.414751128905309,  3.571707020783601
15.960010387058523,  5.087336520939314, 116.775062807859484,  4.359129903995627
10.619863139610716,  1.819717992237044, 53.444557186660134,  4.089997329140628
15.744655713109033,  3.198442202952998,  3.617986006287305,  3.807674615404534
 3.255964565430028, 16.640768383968670, 68.305005880685499,  3.914776770102030
15.205579233556069, 10.704806555175054, 11.519619092120610,  3.629291609359995
 3.629319797782015,  4.890138122991516, 61.071063878010769,  4.134333649551211
18.503862581777504,  5.189204614480422, 15.716305157101640,  3.936603384103387
 3.389839778162030,  8.557730620409014, 71.422598693616962,  4.034788474476338
13.887233253719325,  0.290935045093583, 32.516861341057599,  4.057320087997885
 6.462521855649317,  0.750330880485325, 52.335050240280545,  4.026180356198504
 9.718814667124947, 13.487107235676376, 110.134982160468255,  4.006967429112297
10.850591811015329, 15.668024738388297, 98.050881986893103,  3.830974143697638
13.362761962937499,  5.224896164081287, 78.815793076582423,  3.582096798129424
14.471467856328687,  8.081654492150339, 108.464327577103759,  4.066438673974817
 7.658952218033980, 17.634828125811385, 29.440713644412906,  4.189124482763527
18.863658638366871, 14.425324181595926,  1.814264614616288,  3.658338467684640
 1.084865452256084, 11.829326829125286, 38.127758700248570,  4.297098726115396
13.039068332130928,  3.309639509166350, 38.888988936115389,  3.976606520096056
18.816614453482305, 15.738339565591554, 72.227922275287611,  4.143394965620735
 8.740090454815739,  8.561838386066736, 108.847986228617032,  4.052436040589962
13.209507874367821,  7.135650632482875, 70.122778027287382,  4.331165077963306
15.554785485594131, 14.426603406959119,  3.432407990105665,  3.691326823235515
 8.819685066714051,  1.004553667164222, 118.043530570281760,  3.970264444706104
17.070361040356474,  0.783419861359962, 72.319117586420973,  4.101205391437700
17.400536185834536, 10.982713177460461, 31.275199600464283,  4.013395970131746
 6.218460763807538, 16.121917467442742, 37.827084931268807,  3.737432781747665
 3.174861379706706,  2.843836768946112, 42.329511367400144,  4.103557921562142
19.030084636962897, 14.613724709485531, 31.383775393982795,  3.948056467800988
10.016487884596016,  3.964036286399429,  1.735650516963687,  4.007752019259227
13.594902971776014,  7.007406704532469, 37.174206966978403,  3.830574090406055
18.196299405572763,  0.577017404023485, 115.768310777557389,  3.783599670232506
 5.198269817748940,  9.974363052216678, 91.759878573925121,  4.041252992306058
 8.087787212830477, 13.409604574696377, 83.043317280045088,  4.280891499011063
 0.075529123936582, 15.862862229766382, 115.726111653843915,  3.857151843786425
14.280240943583877,  3.929063951175336, 34.542855190657214,  4.307341574755366
14.937492175137127,  9.826090778571695, 98.873447678399387,  4.242939858422328
 3.952307492073398, 11.952441147072959, 96.019254115645793,  4.168664849945393
 4.472470658007230,  0.520529352709809, 38.998748084283811,  3.961688316588798
13.622439059322444, 13.980561356991579, 66.070642643782961,  3.929398590181352
14.755095440961647, 16.788540667889752, 20.773594249936913,  4.369851900388432
 2.830624280040355, 10.141931308690555,  7.278896618964219,  4.144731668978651
 0.940830698664834,  6.050006387323267, 21.254630959821100,  3.574986650825878
 3.298392231771641, 18.688800603778773, 21.609089449227834,  4.111680313314791
12.168446327697646, 17.796879643268550, 76.688276730379371,  3.484556005260366
 6.812785695402162,  0.146429627227228, 88.230610826654640,  4.149824471443633
 4.063094287876708, 17.397292411627312,  9.800243105279177,  3.877454553797512
16.263090559980057, 14.933498325132694,  7.159007642817887,  3.759109530469031
 8.587100603130626,  2.489850760766407,  4.926674750357543,  3.542961611905104
 0.238271638188438,  6.697367861803952, 114.738801917534360,  4.076178741018848
16.975674647097343,  1.551812984917863, 62.194795036452938,  3.788089020940833
 2.017141938875757,  0.464534699091623, 53.342726857247236,  3.704504432356696
 5.033828926875304, 16.545275337183632, 98.784672171654222,  3.754906809255997
17.005486375176009,  4.215942010759051, 65.068415279190347,  4.018676331233187
12.091226863130375, 14.488526688774957, 82.562251187636789,  3.944519759175967
11.737574763468974,  7.338264160421186, 111.295404591742113,  3.871988330269533
17.810478302619831, 11.858238221780628,  5.270830159801323,  4.015458961731960
 2.292657446477429, 16.495430932925203, 104.821791595665616,  3.765179217089077
18.546742391607044, 11.893666986796189, 90.977152506221614,  3.930864442434249
 6.254670901077699,  6.677232079449674, 105.948012763256756,  4.181968222514974
10.401508002479670, 11.088837645453269, 10.076215841180742,  3.691061631341231
13.185149636867749, 18.094306416274719, 52.051954795476739,  3.925062097658591
12.886071057417396, 12.918272008524861,  7.534938146074082,  3.878853822220608
12.268433114872012, 13.430325075923653, 20.948053162346554,  3.931727074329681
13.239320904506174,  6.136234020934931, 65.511008677953143,  3.787223517585516
 9.499327686981630, 14.081035885780954, 114.159859646924915,  4.089979537924057
12.875215211185838, 13.238171915924054, 100.183767179863466,  3.796385637835335
13.829657476944618, 17.918159536562939, 105.933602604293867,  4.029691906572713
 4.250247296663847,  7.323352168706116, 64.276657816461721,  3.967089561623729
13.540974819707825, 17.817400669363938, 84.546799564341754,  4.192919898122724
11.646504841550698,  8.060314538025219, 61.273471391325728,  4.307909754019615
 3.095678831846620,  4.657870251063390, 93.766808415182226,  4.025792077878398
 0.196118973444260, 12.298942866798338, 117.401254170684908,  3.950762377690239
17.127462731570994, 15.361470341084814, 27.972615830841608,  3.747412757473510
 3.708815616734603,  0.690651654362988, 80.956969865937211,  4.074707388783463
 9.611756094794103, 17.738648485292657, 39.104955116806032,  4.101156942348013
11.204241222286772, 11.195507335058240, 84.695282262242401,  3.957704694489574
17.350657003790374,  9.201264904059196, 83.708522765498259,  3.568022810853553
12.662384942043175, 12.410981792910285, 13.705785286744689,  3.698873180707012
 9.209406677664695, 11.650856568908772, 106.360228243706118,  3.677260003623988
 3.704090385667940, 17.382544767812604, 115.243468596404938,  3.956542472718831
10.248693343932471,  8.204994469394959, 24.935403765516632,  3.956210412525752
 2.610546927229381, 15.992985906425073, 79.411449731791691,  4.292481532926541
 6.534621202900209, 18.521427669927206,  4.109001896960156,  3.869383141830632
 3.203687872394176,  0.327479269463188, 46.168991188468326,  4.126997502166913
18.778375434363653, 12.123836948987867, 74.252934068528234,  4.132110083051756
 3.220435970506688, 18.908885831997608,  6.221287631479131,  4.004579514722087
 1.979408079590940,  1.176215063213336, 71.420649761549981,  4.027558486485610
15.854352388873835,  7.370338460926643, 58.704123865514489,  3.808028408365513
13.353082191011174, 10.261695028891756,  0.259641990534787,  4.156103079978172
16.761634709280759, 18.426588562636091, 13.502696140283723,  3.423990945858819
 1.290393258646611, 13.079931830936875, 27.529504789023054,  3.805199588928478
17.258633419316695,  7.353266500635583, 51.363158388311319,  3.847303345573611
 1.032642894456633,  8.311385588229731, 118.378879332505903,  3.979663038239693
 0.530893384153729, 14.521224279913790, 50.891627492255409,  4.207907373052388
11.753724762555077,  7.117083865364097, 88.888901734489465,  3.820945058591318
 7.773217854294553,  1.546299402246547, 36.784186012901834,  4.100573843343721
13.580994571876385,  6.846031799331553, 46.373809111533106,  4.189431232833221
10.093423729963071, 10.823677914432661,  3.356674648092925,  3.990970454736475
17.428613309439420,  5.561670154005610, 107.729428007133009,  3.841106042895791
 9.363434481493956, 16.799500456777952, 35.184889881471115,  3.926178750116906
 4.245711095726662, 14.739262994033666, 107.962821053934420,  4.330259549908320
 6.331207855373862,  7.021259951585852, 45.429284682145500,  3.865353506184737
10.376566206236021,  8.205989060286790, 92.230084784686824,  3.616419794056664
 6.465077443103744,  3.195907157654430, 44.595206029331855,  3.798282577516348
 3.561457787866114, 16.759072044710567, 72.107000834533764,  3.695165441257059
17.362030206700776,  2.042775347969400,  0.213083577434403,  4.057929812454294
17.875878543883978,  1.510058310709677, 55.405624568516835,  3.882376761415603
 8.570092005518761, 14.170644520295875, 21.807281236143407,  3.801091428261059
 6.672128050071915, 13.392743934133215, 63.990201019974620,  4.138154935249949
17.907192906066243,  0.486759322424827, 22.057837588694088,  4.285132661462550
17.888029055970929, 18.416559068915248, 111.509464287877677,  3.854258767728557
17.327214699988204, 10.184024024572276,  1.451511818279849,  4.042967380206317
 9.565056846482017, 12.615867342176168, 67.639317241105445,  4.208628201832401
16.714840813361086,  5.339516746224611, 39.475938305520380,  4.354488366743947
 2.951509311318163, 15.129002575192008, 39.101352508326769,  3.513397176003714
 6.250160237050729,  9.395384498507822, 102.889047584058389,  3.990689452715578
 1.799436620090636,  1.225381123100985, 61.682453679103610,  4.052604321040161
17.076028928004444,  5.238442305538095, 84.770067322754898,  4.034596815040447
18.716628039349111, 18.093065433249325, 68.936321113443270,  3.945653442419747
 3.594345911805043, 10.044557677763079, 46.271870356286939,  4.347680121808836
11.981158466313651, 14.945535335698079, 40.904327732643964,  4.056544967460677
13.228678056436175, 10.992627384400645, 44.072352368901697,  4.095621362696715
10.149544391134095,  4.811085357502442, 67.579942562500221,  4.097068916580646
 3.307522808770238, 10.426940078409771, 24.015425053998403,  3.799647234681905
16.588538074363075,  1.276748023877033, 108.097613361827726,  4.355654618761161
 7.761210929118301,  1.880732598512675, 61.477501976732050,  3.896090492731358
 4.535192572374264, 17.633795602374512, 55.366480382050796,  3.760080266977760
 6.675713075922282, 16.695287328910755, 66.393214102929491,  3.878780639883321
 0.085015676600222,  0.678048503920190, 43.618503415836734,  3.646156548900944
14.074325551023190,  0.415869226160493, 111.422711729885933,  3.898016171717212
 0.060430549690604, 10.511187462733991, 113.540917808118536,  3.840709504144169
10.102244830450058,  2.783373058918846, 58.342012132722502,  4.101634443587186
17.169344307594280, 16.698684689103985, 96.140902542837338,  4.478540934305327
 3.864960356830717,  2.908941670123746, 87.739350789153832,  3.906649092162127
 3.214947696314556, 17.558628073423598, 42.383399996700327,  4.272177060893276
 8.520284518879560, 15.633433873644211, 89.649976640095502,  4.034344947767379
17.042034958688710, 18.843462984038439, 29.897274935818295,  4.179359026040451
 0.526672404516509,  8.127788540987511, 75.112964273524938,  4.172930155398531
 9.609650397398074,  4.393517038829126, 98.753004243198902,  3.526538105217321
 7.557057799870590, 17.465266489484026, 11.627203677750616,  3.889414053579082
14.529786316496351,  3.551313879794134, 68.247951789253136,  4.133918403025042
15.389001459104810, 12.530243407529106, 40.979991370882104,  3.890164868710345
 3.881920305440324,  4.676245907485109, 79.898373191516768,  3.857499093641401
13.946616833232889,  6.614263083244589, 92.273361247740610,  4.200883700958784
18.839932388944870,  5.524186777385725, 99.763479653198772,  3.733607623072177
 2.656583760635821, 11.636431658741627, 16.507469301204715,  4.220254763023521
13.040554948991158,  8.925122544499425, 78.526366554268250,  3.849883601781221
 3.280586717896840, 17.675713185919641, 86.500857604897192,  4.241156982532172
 9.458157310357235, 17.287713283293051, 83.943753708014327,  4.092833068250351
12.192452945452093, 11.795945767162861, 75.983106316978564,  3.946068388970132
 0.520768589797310, 15.977693276681133, 12.127173699876650,  4.529578530578657
 8.886143360633334,  4.751969064838921, 111.144103238646039,  3.802739733792311
 0.767381373883208, 16.278677846443511,  7.919614626566650,  3.915905264898533
