BANDS
8 8
NANOPARTICLES
cell(1), 19.065
cell(2), 19.065
cell(3), 119.155
 6.975611706264628, 16.438170858220218, 42.663489219768124,  4.010673860186140
13.216745386910455, 17.617684397649487, 79.699470430064693,  3.513879130257849
10.548004330858443, 11.283573910917896, 106.340745478587877,  3.966451696328059
15.935260354710564,  7.335113051673521, 71.178512174931498,  4.136747556210948
 3.591748564908207, 10.337173716763061, 86.630077246279029,  4.164939534447522
 0.599831287533562,  1.996273026315458, 37.179343374254771,  4.361484160192819
 1.000490193766121,  7.984396987318797, 100.534471993552714,  4.050381821650691
18.618136144991350, 18.474557890310205, 100.939959743197633,  4.147961183737809
10.590278683218088, 17.622111004611263, 65.760465131809326,  3.870347149431715
 5.903402566229632,  8.187511607496988, 68.475841400288132,  3.843325191412028
17.086337799521914, 12.693693223616709, 110.672087349012386,  4.085750088965895
 2.890028970018266, 14.436354269623967, 10.635481431582340,  3.936699613855580
18.213826702765541,  9.475840167921772, 81.598878684109181,  4.032413121617304
 9.317313278974940,  0.404752116532393, 43.698359987199439,  3.799805009807359
 1.026736846438631, 10.980794958480569, 106.427337639114896,  3.882723712668689
 0.196848613245303,  6.966005251214146, 92.615098111884194,  3.936929362013494
11.907965650161318,  0.004839214200277, 102.973428629017747,  4.325930891101313
 2.069252728703614,  9.914620192832830, 16.956813004678246,  4.190291520390828
14.708190781047897, 14.947011318991851,  2.151774726935854,  3.988614367780761
 4.529272536231977, 12.676666306668102, 53.597232763518043,  4.252312564628490
 6.417635665182319, 15.353723477385278, 38.875147597407867,  3.876379129366383
 5.027854800667977,  0.676556448412341, 104.995198161280442,  3.780774722226600
 1.050115658424506,  0.944696141359452, 18.781858590106339,  3.942121989496604
12.347368067859193, 10.645896560049946, 30.182505085628012,  4.235068989147149
18.299632825735625, 16.533430254394343, 19.523144861582097,  4.028134117041680
16.533492449982059, 14.520150857375336, 97.911274707439404,  3.943573362254772
14.716747360783698,  4.466943212784651, 99.120230785098883,  3.736301842805344
 0.833525754053321, 11.289473882981278, 54.958658549021564,  4.074577987273738
14.836752529965279, 16.187837663419977, 111.559429356212689,  3.712185212936757
 9.770563060953787,  2.501104607414246, 13.131946651442027,  4.122063618495679
18.172813855298067,  9.708234255428623, 62.179048564705269,  4.235863112964688
 8.928452151498931,  7.403878667950075, 107.603788721358811,  3.901219807753266
 9.035568803998727,  8.004267119600435, 28.280652971012955,  4.014813557698245
 9.869023571631725, 10.993864018792571,  3.070066029632739,  3.668829082634439
 4.971937430854884,  7.331260288169911, 100.967313679590873,  3.972432329840788
 0.980011612638624, 14.715652680614417, 69.240967534618690,  4.160313428859593
 1.464472556516124,  4.686788110265907, 89.257144565088538,  4.354693932238990
 5.279046600964540, 12.652446354106704, 15.878468461196713,  4.064629807903894
18.715505967124010,  5.472256662434901, 82.558616908300451,  4.230615221413530
 7.096601227907024, 10.112340608251717, 93.873577252274856,  4.117535581750181
13.417988957809909, 17.648102046654802, 106.360243110234450,  3.502703477669577
 5.393870606814791,  1.203839852947965, 43.289534294402287,  4.149068279362109
 2.919141075859840, 15.620029671591825, 56.367757431213207,  4.106297469400127
16.113025075072759,  2.405971573500099, 19.978047559055856,  4.040292293565119
 7.858311181094182,  6.457401569922984, 71.669878294404342,  4.236517305228119
 3.814915830130263,  4.677772118487317, 84.815599892942572,  4.114255981619063
 8.458076393193142, 18.634272236142980, 10.733073366022202,  3.825598336069672
 1.324066160304578,  6.425106573506091, 29.354071375604246,  4.167815443633690
13.283430914435771,  8.181323678577600, 38.030610397988426,  4.046226587814051
13.567633162793907, 17.254914702724793, 55.842674278404822,  3.872009876323995
13.195129803600354, 14.201545986661806, 104.798447547052035,  4.008200883659988
18.086485949952984, 10.847989101184547, 92.396489595146804,  4.136378166997121
15.808938964922458, 13.157460557934286, 68.167829090394349,  4.256925381853797
 3.531205449851865, 15.509014227389299, 114.835926541017827,  3.754575476963702
 0.037269740329928,  5.153175855823601, 63.568382857547356,  4.122207423945453
15.933850704277685,  7.310897267319250, 65.052737175770247,  4.068334808769415
 4.446622480185217, 14.468678787351202, 23.629579594674013,  3.627159369243257
 2.731467212773900,  7.816634607325533, 32.969843350249384,  3.989492502098759
18.972199807319914, 17.644539400230737, 59.381983261424011,  4.019007524910567
13.586438985672400, 15.307451668690051, 48.066008415361281,  3.897196992942381
15.175565196679933, 12.203106647044153, 60.621400746226030,  4.075839657441659
12.972186870184226, 14.054697892749420, 52.237126794128784,  4.519927749615731
17.536649903223619,  7.849895186051624, 26.356237719870162,  4.472110153799417
 2.878514784777670, 17.462346763324692,  2.035874072502241,  4.152670814362961
12.881095672245069,  2.095229718401122, 34.946381415859371,  3.816722333663257
 7.995658405786046,  0.806991736664961, 76.110541788115015,  4.106488949959372
 8.040054166797875,  3.669112812465807, 108.595008991288765,  3.756575580436231
 7.319212878197400, 15.723254354771056, 70.837907268445448,  3.804876077322348
16.093209811740905, 10.959052910309158, 96.026436357554118,  4.139110391582117
 8.034310153628025,  0.343908295151856, 49.844834337100082,  4.173434687516061
15.100639327372791,  4.943500662186477, 109.479187038571226,  4.532399423053769
 0.929435258228658,  7.476380183847326, 13.782376011306500,  4.114291333706499
15.238624312982520,  1.480641254233580, 101.260665708037735,  3.641810296755393
 7.641385356858944,  6.100583214477650, 38.813549908167886,  3.755361935397612
11.278642260650964, 10.806340571230992, 62.413924268927133,  4.334825732284709
 7.500095805867885,  5.823385214325521, 65.762263581169307,  3.877805357092087
17.472138089875799,  1.566517721070736, 81.821909861417268,  4.069635042579877
11.602336097977862,  5.319172823746292,  4.371593494088446,  4.117703335141902
15.060104275386548,  4.732203061050765, 87.677562591991432,  4.132486566983804
 4.251128484185496, 12.703456466527111, 29.480574783573214,  4.398809128712780
 3.514349908877099, 16.104355193394490, 82.548491887541743,  4.045542359398978
18.759643705921821, 16.569837095336986, 82.084489349900835,  3.688160249831057
 4.875759179549488, 13.721095821908708,  7.268372770744059,  3.958294423982048
16.307110986223190,  7.443913204088640,  7.752113535982376,  3.931869423825104
15.448647087965758, 14.090749448390815, 93.416322553035499,  4.104018813233682
18.571353500850208, 13.540773139875276,  8.970301856447868,  3.789024564973355
18.938704788867128, 15.838660892026521, 88.786134383487848,  3.827176200052112
 5.911014553135061, 13.233540059959914, 64.966083188635039,  3.808158839019728
18.900234332398192,  4.243761248269516, 16.775578034965385,  4.090228844744116
13.497674172901378,  9.022533530569758,  5.508829944491270,  3.773891414467276
 4.274819948965327, 14.337606521128308, 35.038836865177792,  4.208253166992468
 8.456563401654915, 10.503951279086506, 43.979877661462872,  4.017735580727249
14.857726942100284,  4.162076866865910, 95.287209756319058,  3.820247759142800
14.143659564687189,  4.162138774365241, 75.620688995086937,  3.898363127654270
 4.983599958802846,  8.501718828890109, 29.358560391132023,  4.054831058346890
 5.479229541280334, 15.002323268900163, 20.114864149413261,  3.705787230075758
14.188176244907421,  2.552893813214869, 23.693686841968319,  4.128666566052732
 7.841958397488104,  3.583262062184387, 117.081716646092843,  4.249604246860163
14.018444566702502,  7.919818554890903, 74.621242059782134,  3.758265596085935
13.269675781745834,  7.910906446126686, 15.205404443302696,  3.910765791134359
14.531255397013764,  1.366045898316969, 89.950507990941617,  3.796746480414010
 3.500855574741878, 16.986734922113985, 45.351794895711222,  4.153683048776766
 9.966755985815466, 16.199753943097978, 24.474647389311890,  3.983169501965786
 5.107433877162233, 12.955694725776548, 75.874416776511083,  4.187572524177893
10.969632334645020,  6.306596056701216, 41.037106032711847,  3.582022889092201
 0.018426880927123,  9.728349929004979,  2.571341194930429,  3.953638661187217
12.646082254533455, 10.770887872387895, 98.264941864440971,  4.035088378783318
11.324983058094274, 18.797083227862515, 47.366108196879097,  4.069169320114506
10.897129538934850,  4.651254335696046, 98.792060988777365,  3.837132210983749
 0.904534665009098, 17.645957986534246,  8.836023297734648,  4.206439602686074
 0.113257181145605,  3.012191656228398, 77.110840264071584,  3.991784704309479
 5.962462267512922,  0.491578516661487, 115.037771740543718,  4.027096841938798
11.204298287200622,  3.135382501924490, 49.598169623403557,  3.973226833050095
 2.830184006680706, 13.479114714151956, 38.815155406155966,  4.018336602646214
12.124016184941210,  0.288348442344448, 20.965834992965135,  3.992563118113529
13.265012704132742, 18.554414514102415, 43.662353334200155,  4.291944333999027
 5.961956496330569, 13.523124396285827, 45.489818987067125,  4.320609853628117
18.408372431492236,  2.718795068558440, 85.903313008691995,  4.446570569312846
 2.687644671046620, 18.336820451458262, 12.800888415332619,  4.148189884788294
 5.992923962802499,  3.307590146893725, 18.021038376773234,  3.913565800647379
12.737276374554982,  1.115173714119835, 98.161819812433862,  4.203003545860054
 7.053206590166488, 15.953930360863408, 96.269310155011340,  3.972573343595485
11.115054302322559,  1.271276668035830, 55.717895217674531,  3.843277876158508
12.622650048074338, 15.052802599243018, 76.670478704974940,  3.843882524463121
15.398983974553596,  8.855786781947424, 111.386528538097068,  3.825196225733482
 3.426049726114633, 10.445031997310034,  8.972374676111034,  3.968889921671450
 1.416625188765613, 15.122120624822841, 42.279441863945777,  4.144438446272424
15.269530402359544, 17.353710362549307, 29.306109185486662,  4.292294158994640
 3.100855692182396,  7.797758352299125, 20.448824388052845,  4.213170655888542
 7.778740940944938, 14.692065521138845, 27.878202426920062,  4.207930594414865
 4.952062964478504, 17.575705029516296,  9.554314097731218,  3.848904752137282
11.872441623438272, 14.391906300902763, 91.296579818929672,  3.943864863966462
11.683293410134112, 12.535068607346018, 87.716023052228493,  4.031926395776404
 6.645902337432482,  3.258333845029714, 68.778559939540330,  4.168533188065312
16.467326240841452,  4.101702925792954, 27.992308904629137,  3.955514667188117
10.672470325611739, 17.590314691190716, 28.135873518817792,  3.967574974339452
14.322504944296217,  4.633266234028416, 62.058086693927770,  4.157398326492961
15.466856009781530, 14.513143270059617, 35.353467188088274,  3.898935135300400
 2.105851709135752,  1.903345064615594, 69.547358646638173,  4.132458207122915
14.210860795144693,  4.731673140289725,  0.952334421125079,  4.156184674377447
 3.507798720296542, 12.032937600684606, 109.248410364796470,  3.908292874912790
 5.254165760272564,  7.779095203616183, 13.167549410178648,  4.084873789021563
 5.392305315805604, 17.234176865501428, 86.008121473346833,  4.112354567720757
13.881156406399340, 12.214610706633904, 108.275184019180642,  3.894751689742206
15.404508793057483,  6.001168097266737, 18.063300364871456,  4.144507313866937
 6.246346758780294,  5.985484206467021, 54.061994144465267,  4.154072947315889
 8.142526644286285,  5.303524218528297, 48.592350315544252,  3.792191747513625
 7.415122738825242, 18.405217040424713, 68.006626226078481,  3.959162377927921
 9.746426592468053, 16.353599059420741, 13.596311881949088,  3.927259006008212
 3.199658974607400,  0.497516951145671, 57.752758992986692,  4.116814847947391
 9.757579879368100,  5.610348818039196, 44.912537230935904,  4.229381951155207
 1.278520226572842, 11.999977312673950, 51.023638932232060,  3.958246186601741
 4.714715701698913, 11.356583907194585, 19.592861295561221,  3.735206724810598
 2.855361313823800, 11.558267431011105, 62.915704999216665,  3.899526097084649
18.320362281862707,  2.019720037338648, 50.947511885317802,  4.027402993289355
10.982331561222509, 16.735941136702500, 94.418285691535317,  4.045642286270859
 7.360526596897863, 16.023270289014707, 16.842899623139285,  4.082859314284462
 6.913372032893319, 12.360567656398560, 61.598474393135717,  3.328057032287060
 5.174457560171154,  8.607863637061859, 97.159144581629576,  3.996113243780059
14.304843649188889, 16.936962109669555, 100.237329905856768,  4.086381913649014
13.450710592533044, 17.488234295769956, 33.281995500369227,  4.193987987792064
 3.853345109035984,  2.246025757197384, 21.320780596037810,  3.995210524444094
 7.209919359874836, 10.753012315284593, 100.515565552518623,  3.994172665409834
17.470228592195642, 14.829072017099168, 114.296629162307681,  4.184734311879306
 1.153722568051175,  2.795915264218769, 27.187420981635345,  4.040170597725753
 2.040135384220142,  0.564835078689940, 33.304275139851882,  4.355847399933845
 5.987093112591864,  0.273985860418675, 98.093851270654440,  3.926523293447687
 7.915318562655134,  7.637242427796278, 117.673941016780219,  3.942324403661695
 8.642554890111896, 10.371444540692966, 110.219406659947055,  4.013580366777673
 2.977580403382190,  6.084697088511502, 42.045592795104739,  4.239694265688289
 6.953042561884614, 14.233883706969806, 32.123153149871172,  3.676070566867106
14.446302863122980, 17.780067114165615, 66.349345641467437,  3.846565829200069
 0.995663996696159,  7.327405270938766, 107.921058061594977,  3.920891643192502
 8.354126220551434, 18.700513776691430, 111.712575430464526,  4.039329840569534
 9.077713518309876,  5.890929336780418, 18.574519516836194,  4.198778398040474
 5.664046257474575,  0.928919762661028,  0.402027507111600,  4.032771390784426
10.711722403400124,  6.663460655570406, 56.106126182026841,  4.269069393583556
12.048754489718966, 16.582696498405319, 118.631838842107683,  4.179072017740468
 5.969368519261304,  8.821758974577747, 89.968900733009889,  4.401998987806934
 5.763949129954492, 12.462944241815787, 57.627754386834837,  4.173863427906134
 6.316778752767920, 12.659048628568861, 49.699729421049256,  4.283743032358211
18.632618322183994,  7.768453028063430, 18.823824347536462,  3.334148437683789
 2.719818919621248,  2.604917362487635,  8.991441734807358,  4.102411831995012
 3.113503157026702,  5.754851293835181, 110.927984486377724,  4.062935522383519
14.473950780500747,  3.194451445736403, 31.321450740110489,  3.997283733557163
 6.572664502112278, 11.371685699398961,  0.866512223365015,  4.275318802519915
 1.292035397273666,  5.754272291911775,  3.219757106032695,  4.041876373099985
13.686187394452983, 14.712754591795679, 40.300557389765274,  4.009270189124637
10.068472161659036,  0.093715376151288, 115.450432049146883,  4.101969316052417
 4.419124466431558,  2.235826733663343,  4.023298680972792,  3.906539359773438
10.277323044447090,  4.365318874953728, 69.395234879008754,  3.499777341821936
 9.652689668692737, 16.626142133273795, 55.450578570799557,  3.722761634772470
14.060555959696337,  0.943729364353382, 60.206876194784705,  4.058628601161542
 8.779345367463664, 10.271599458516222, 59.145312181519699,  3.868402400666707
 6.661909682823913,  5.466444966926321, 81.762028190488394,  4.109250670310939
 3.414259270765719, 17.647967841047357, 39.835359624030517,  3.858146865589025
 4.759691287931781,  6.638163461594213, 78.490760481362486,  3.663669878092979
13.534396758371997,  6.095777731045673, 34.007082314380511,  4.077550464254942
 3.011495091996001,  2.134995228893354, 15.604633881579353,  3.885901010922165
17.324803305278497,  2.869199925083451,  2.940191462430942,  4.083955160886841
 8.386955016617526, 11.449045366701849, 30.111313287226452,  3.757758138494242
 2.107340285700581,  7.781161583912722, 69.181127660968542,  3.902862311057172
16.404814961896811,  6.512311189055182, 59.003991749934379,  3.955329834211493
 2.735093853469249, 11.108416866547454, 12.944217246793841,  4.135995304434761
 0.818659900497360, 14.555359356359409, 107.940188697609557,  3.876779993938804
 8.229281970598702,  3.581082235661806, 41.684296283734291,  3.907461442232651
16.277374454873200, 18.132628623709259,  4.288589272261933,  4.235842538814304
 9.878170792516460, 16.382044937330914, 105.886816183090417,  4.069360247965853
13.290811949671683,  0.093124250522023, 72.871508750673712,  3.893931855546136
 8.029734626385881, 12.797039056917050, 22.971914339306981,  4.370129707655741
 1.628553649865693,  7.993669015615787, 114.196873715691339,  3.994722117931877
 4.875072551889049,  1.276440191479409, 47.361931518886131,  4.033732226134829
15.307624354153598, 16.037802954141444, 59.519622924940364,  3.891313218013931
18.429899193908295, 10.432860163678274, 47.551564821461220,  4.102122801173238
16.234504202616922,  5.498044567296064, 13.858956220410358,  4.180892276178238
 7.154940392187575, 11.687698056821844, 36.958547637415741,  4.494672398359606
 5.942748969901648, 10.485059775899511, 32.977221595275076,  3.980109381545525
 1.579004805108153,  6.841920260478218, 59.923002422290260,  4.484062610972638
 9.611550610760005,  6.532095115776994, 90.661575533555379,  3.884607419123485
 9.613597441521410,  0.083129647168710, 79.758553982749191,  3.917977736717336
14.391149317831529, 13.945415026513988, 31.517480432732530,  3.938421674831607
 8.782473851309282,  2.347037276562652, 46.681760888399729,  3.351272763425612
15.293783315832655, 17.623929905963617, 83.456212807600721,  3.927651115191245
 8.031665342143901,  3.699800942823078,  3.311370940023571,  3.909043162570285
12.172420592837408, 15.924987575197967, 109.116936062457626,  3.443572369934606
12.532440064802406,  4.201256242687175, 102.360239933154119,  4.054317383291963
 2.806044850549127,  9.323556883269092, 75.679111059597815,  3.865823529606989
 9.947065733709536,  8.057505069501142, 68.318039904434585,  4.202699442979375
 0.775137504980204,  9.806215431092642, 110.832284530756212,  3.716085917531462
 6.567631625232276, 11.309880538364437, 107.115635404791945,  3.676007564713652
12.684549385572991,  7.095614625919787, 117.330547006194365,  3.723898153835741
18.305907070366931,  5.161174740497128, 67.724230788655618,  4.268150133692315
 7.350343872010164, 17.208550607894768, 82.346757628601949,  3.941824404055093
 2.368712124025075, 11.265812999436084,  5.272466099371843,  3.792564475389181
18.692211675803932,  4.854080928006990, 95.953219823910544,  4.035638773263223
 6.647312450677354,  8.432352822617995, 84.616030563619319,  4.067435331271252
16.163556962841245, 17.125366232711833, 103.872347228862623,  3.948195758417461
 4.785797361638715, 14.929684723613992, 118.579819802716813,  4.030312766792251
11.298851102186628,  6.307393005970637, 60.083528756477151,  3.784382116538478
 2.471362888123283,  8.169090112850203, 52.238438994440827,  4.421548277629703
 5.804288615528426, 16.809093924374512, 74.326223642672062,  4.101552155827937
 7.448300062723815, 15.591704084651349, 89.653452657027600,  4.157322781212400
14.899914983844264,  4.642567746517270, 83.522041581439481,  3.709931022496579
10.433040286017672,  7.413263809784204, 82.020792769033307,  4.190744813094877
12.610772106681541,  9.252099411690955, 85.151573824318902,  3.803649526611998
 5.367734713474126, 14.444907149218084,  3.379300174800644,  4.009836313551176
 2.070835085816299, 13.909307278909486, 18.200818903495549,  4.094404333495540
 6.055836796608141,  1.716641201181391, 80.366694396275378,  3.459773413175028
14.146559665357355, 10.906124005273934, 71.710137777641421,  3.802025753524614
18.270458534747867,  0.232633593071677, 106.896446952496603,  3.935739460208919
 6.580878719541867,  3.182011064722647, 60.023623389548554,  3.963979133200226
16.601097949546755, 13.252882944996074, 50.029678939272095,  4.110255453639989
12.777953097755177,  7.695588323257166, 88.873607923446372,  3.673480397657404
 0.017807525905589,  7.163126733928905, 55.791452828451028,  4.360311846055994
 7.301050167732344,  9.068909206042035, 47.615656456892538,  4.083049550514874
18.268939786836686,  4.320070888279596, 106.295943058628183,  3.702918752529153
18.072485973234272,  5.913638397712889, 44.213604788414628,  4.078333680594637
 4.164486362127198, 10.881904870725030, 103.820149443661833,  4.237329739783179
 0.756227556334679,  7.003574715451965, 78.595339601743447,  4.352634037746580
 5.607686762359312,  9.324779730331812, 64.708034543676348,  4.036222794602837
 4.054895183648592, 13.453306517485725, 71.814573480502958,  4.201099427785949
16.517088002886705,  3.156086788954790, 34.776396580237417,  3.738354651358789
 9.607108737313800, 13.909781500840149, 117.130291002604451,  3.636480104109892
13.817623921469243, 10.331009018208423, 34.207799740374590,  4.308339509044246
18.750060408968878, 10.998986050302463, 85.244725815446145,  3.941960625576333
 9.678960871765742, 12.599596130581968, 113.376910837057267,  3.949102821210229
13.719232029685335,  3.902224709951759, 57.325354069964298,  4.127952367958970
 0.389624105236257, 12.005211244930655, 88.882713885036992,  3.730562559418236
 2.460872194734094,  6.171859322494945, 37.901868201773588,  4.059653593303548
 2.316187590851766, 11.695843852872544, 32.869386726065841,  3.627750844386752
17.178540491928736, 14.675306672191088, 85.404757251244448,  4.046137474112220
 9.275407180706113, 16.406788509559526, 20.429951157753962,  4.045789801441751
 9.611332266213907,  2.232916216543186, 66.314907982111833,  3.772388970723236
18.778730108562002, 17.817090727546848, 15.621322190629975,  4.100330566684199
17.209911678293611, 14.002887508091312, 46.110098410778726,  3.947124401454052
12.600046231951586, 12.959551411892939,  5.109488929045005,  4.074291155542268
13.605170483090028,  9.564126235399437, 26.324133269592238,  4.099111116629945
10.400009353938771, 15.611674131465234, 44.648979846557651,  4.030726635289223
 8.519410415725208, 13.834572555156370, 93.242418644657448,  3.885744601450245
 9.795883053590535,  6.836179723318940, 51.949457872277151,  4.071369395904828
16.769290251558214,  1.459379554705608, 74.272431712202589,  4.044129588503738
10.904637129407691,  0.688578114230225, 37.948319348975453,  3.864664590165636
 9.934755416810487,  5.155845315148466, 23.055099960817490,  3.792955235842483
 9.155054319591674,  7.069298835493601, 14.728734863749414,  3.814059776191746
 3.250948498530841,  3.482111685969256, 107.229185795670162,  4.147228818750975
15.491573060635837, 11.304349335404325, 83.473612251826694,  3.471294712060891
 7.070141611110926,  6.563952218306186, 110.931042416348745,  3.897831136376385
12.035438485483843,  1.904073579730057, 112.235796471145065,  4.182279545227590
13.180860460500384,  4.937096389235454, 91.758787768940834,  3.881569862521282
 3.967338155826099,  8.760593581462834, 56.336943930749690,  4.226093283738899
 2.227875920126155,  1.470177283950551, 96.959752342259421,  4.105799914900995
10.492462833561550, 17.088216553551177, 40.880015327644848,  3.932394272390546
11.133636384605813, 11.180152257285069, 102.154205747431689,  4.337052492129839
14.894846786129396,  0.515116064604122, 109.433853533867378,  4.268953035359661
 6.048371291486102,  2.488132609249225, 11.109817365990239,  3.722828599497759
 8.381038919782656,  7.505529363139521, 78.594259410745693,  3.783192052636467
 4.973483663604299, 12.622648289570691, 96.302371200923261,  3.853415523928665
 8.700107241266963,  3.715721880136855, 78.827018874405752,  3.709524734729589
 1.758707297859187, 17.178817211352655, 75.498897106503449,  4.324983365800719
 8.617199662943648, 13.535418729335074,  5.797673143936675,  4.046981023483914
 5.862468009141734, 12.898113367071772, 112.230887324884776,  3.833634031454681
 7.460418553691039, 17.510854333379061, 46.377857105972758,  3.766454442545272
 6.314380962763638,  5.469266356377943, 21.587569326650598,  4.020265972094787
 7.611836181145111, 17.933792177946604, 30.847930799563489,  4.037429674554573
 3.388883397697764, 10.193731449041444, 48.119642600670744,  3.978064393639182
 2.488756634282054,  2.791958289103191, 61.026036727106145,  3.985484612171492
 3.259332925930414,  3.961794957506529, 31.640011241249056,  3.569580440679467
17.187522638763603,  8.094983045437361, 89.191148668227143,  4.344068385038105
16.367915373150918,  0.706626193143245, 56.967979082902843,  3.854201616614189
13.702512567624716,  9.626384391032401, 68.069498401281862,  3.942857728696554
14.114185423891554, 18.556632284794617, 39.778658912307421,  3.551431903084765
 1.317856509855859,  6.168808379850162, 118.088161719216359,  4.183779636389045
 0.720713433535364, 16.107337280455297, 24.566271305442825,  4.703474122518416
 0.400589386260007, 11.106311764837795, 102.746363612950361,  3.577478686600578
10.050609431754395,  6.082237777540616, 114.684361069053281,  3.953215427314482
 1.844834247669742,  2.332330055261357,  1.069052360155617,  3.928555201724002
 0.781814307823853,  9.403103045331328, 43.218097702731654,  3.902443727551530
14.980733100063981,  4.938550326795913, 10.230584100721567,  3.540558062382468
12.644555880070275, 14.209478246022499, 65.802700810674821,  3.845465195188694
11.558141094979822,  7.669325994875660, 104.370342870042748,  4.006755617455198
17.792106603046399, 11.768072540857682, 25.056841569869459,  3.771522146654620
 3.445626178024737,  5.283260962054920, 96.349252283251360,  3.658785008566814
17.468585840053482, 12.294441651697436, 41.621252734694806,  4.187377268357594
 7.330228121738284, 19.027748696914387, 57.626231458160454,  4.184486487613008
 2.348824492642800, 14.739755808434870, 14.419827996976284,  3.632839725791096
 3.361382595345433,  0.318880880347291, 25.122626559451721,  3.736395370742067
16.988713608207426,  0.387974001876048, 25.965108711589391,  4.278198592824135
 8.703200427189392,  2.160437207423593, 104.903355501320576,  4.122628948589125
16.379025015982229,  2.285035183886652, 42.983659591731190,  4.164805772151328
 9.446284177572217,  0.803548571297781, 17.283099004500226,  3.942213545533974
18.155055590527972, 13.209678612466840, 80.823840710989799,  3.521464726113495
12.061393645619543,  0.399059346554963, 76.616400871063135,  3.935019595620370
 9.450246982655063,  3.969444310296986, 62.769242831412832,  4.113375202629484
13.166515046723006, 16.829497205380083, 62.743757875583228,  3.890174699273445
 4.350442174561628,  9.107200051360818, 116.997873606851940,  3.881129724845306
15.429195644778501,  4.756527932681118, 50.410726657551216,  4.000066191965975
 7.730408701410510,  7.667660286968108,  2.574216109583855,  4.141374271855515
 5.816479393950067, 16.788844987241394, 53.369972682873524,  3.997156243944731
14.818955819562769, 18.058739672127320, 18.379751453694382,  3.885735939698351
18.837517734908573, 17.649504098397891, 71.817633201539905,  3.988459089681964
14.388699410205449,  9.891948150164295, 18.635055349795618,  3.977096811450150
 7.492792555511200, 17.528917045615643, 102.801651596993821,  4.003218871331002
18.403244075220378,  4.718119332669171, 40.241445318230838,  4.200379755658092
 3.358158884652760,  4.656937864075651, 66.359373424680584,  4.449037506728146
14.854775422659378,  7.459570256592301, 55.388265782425158,  4.046132317214311
 2.894309711570037, 11.704069547442645, 114.440471399781842,  3.842631824670284
 2.877352034282184, 18.263708391099680, 108.121817739014773,  4.051780921010044
 5.933260418660582,  7.044082726779208, 35.365145158990281,  4.127184221749244
18.583823943047506,  9.705451211905197, 10.389935523772609,  4.298011143207138
15.370865286319232,  7.727083165208263, 93.575370018880349,  4.076387420301356
11.975833641058525, 12.745587658347851, 24.415115696734723,  3.993716174838102
11.547219490440767,  4.454048306675644, 106.824643098112418,  4.077194371531256
13.168228524494349,  1.698702776619441,  3.558153099706526,  3.867522587952446
 1.586682534715821, 14.245414178630401, 111.810081553566135,  3.847370659657642
 2.575805671428351,  8.535452517251731, 26.127296454852722,  3.782725115583045
14.434712968472839,  7.089636734334443, 29.736904036265940,  4.004524518227393
16.945325952882495,  1.500429786686951, 97.714130134769292,  4.198524636287323
 0.535965852412514, 14.986455751371167, 92.754658048748183,  4.378886929030907
 4.945543940992477, 16.541079012416297, 111.116378664981383,  3.986405212517758
 1.227169000327301, 16.908358743752089, 36.486735613764033,  4.072944782072830
18.322593257840541,  6.462534759145109, 111.568692835909346,  3.658660188585807
 6.365227465612771,  2.627292151922501, 24.323564394950751,  3.854542900780582
14.992030380772048,  6.797033358719402, 46.848309496386499,  4.165949823315466
 5.222944709059937,  5.903091844307855, 114.559963509062442,  4.317727009168037
 7.883417921020694,  9.120745493863875, 20.908679672649143,  4.039234518514237
16.396571742419127, 12.680490203391320, 12.296378652665977,  3.982671916529612
 6.409958948674855,  8.865179136352205, 17.035031953196150,  4.157430714543141
11.707900934118404, 15.528428356781795,  8.078654691296201,  3.955967145861232
 8.246481590672566, 12.740630816404156, 18.847636562497474,  3.790925017088791
 8.460592480610440, 15.313208076403319, 35.413077551236256,  3.792822806348974
 6.737099684484287, 11.492657125693924, 12.083485632425495,  3.967981436996977
12.598901352633328,  4.134945136890485, 53.285485809028756,  4.151674085956688
12.204797306248558, 12.378489379003078,  0.359595944445227,  3.977665092221652
15.820942370885204, 16.553984180747861, 74.548352541048345,  4.103584725952337
 3.435589588695053, 11.432621986785312, 67.725504529849403,  4.337445479295241
 7.117220125840620, 18.983876316375227, 27.056291740092338,  3.883534493505417
14.627040088258873,  1.011580138208231, 49.547270479114147,  3.846132590876362
16.682880451081143, 18.750293522334665, 63.221456999888915,  4.041249679879447
18.860956196192664,  2.267301691802204, 13.146759857592910,  4.111999128923889
 4.187877659407000, 13.093669461742730, 89.589159976143236,  4.001930986072669
14.696142974744934, 15.429506111544722, 14.638195872842108,  3.800469949577577
 7.914899546504059,  2.530658446613373, 29.622683273484984,  3.552608649601899
11.989770863683017, 10.271942982630192, 54.239616038641394,  4.207613659927711
 4.191785723106749,  6.461490687885264,  9.476173071065704,  3.795486624856379
 2.682778611417476,  5.398299238332545, 75.369715670310001,  3.815768423059465
 0.892284972261087,  9.836405820805179, 39.117595005762198,  4.194566695943552
14.984821856516811, 10.532659586231180, 22.599305458618581,  4.076915771408241
11.696661809340231, 14.273340688515923, 60.007481350271675,  4.100450067278695
 9.937349048735383,  9.171839209361050, 24.468823420270212,  4.153332493064650
 5.319894983171373,  1.769940320274177, 54.467027431196236,  4.070483127217122
 3.267694993626425, 15.876070045605163, 98.139208348208854,  4.284195827275069
 7.258833095132101,  0.174388924408415, 39.639617819923615,  4.216910350762604
16.955533881696475,  1.598144752739397,  9.404286045894397,  4.374483649153672
13.140288494560775,  1.744603783786389, 27.690108947624950,  4.190150209159430
 9.821100501885693, 17.305905852000421, 73.466132456213899,  3.991027040265124
17.174125296084725,  6.518288411257834, 115.339783544183263,  3.896736877117325
12.352912042818692,  5.111617603835882, 79.093478435514982,  4.128826112186285
 8.966257068429917, 12.190737783144973, 97.033337366179737,  4.218978445636774
17.281119637489059, 10.026763343067335, 74.071010535280976,  4.068906446854588
 9.422674701694461, 11.418839661554838, 84.555519203377443,  3.916393140853837
 1.994216403764460,  1.819807560179158, 73.816922492201414,  3.826185016005684
 2.992162639602722,  0.604485637169610, 51.410222140950083,  3.957633808705758
18.305965317712129, 18.477900461576745,  0.704127604998241,  3.846232362753716
 8.865115166946415,  1.775927874927942, 100.637995494788001,  4.105605206502342
 5.000373026975062, 18.670193105119822, 61.343757678042969,  4.092778460965379
12.320420589397987, 13.778610662611356, 11.729935273005330,  4.184150908882505
 4.126712943203279,  2.147568123277224, 77.121389456056974,  3.988906620190370
15.535683872714010, 15.845155381231750,  9.933999718422276,  3.932452818258126
 8.489134728845583, 13.793367117288087, 53.055899444162449,  4.024542247599894
 0.280855172480354, 18.590799742311113, 43.912185916804056,  3.591248008328331
18.716714159338565,  8.921209794264470, 22.399601583890924,  3.985567922735679
16.735047796718547, 15.325549499896889, 53.900933776908040,  3.997994828089969
17.571468810624832,  7.704003293621668, 52.166366459186129,  3.556582345900105
 3.474800499894544,  6.033507729488727, 16.635506588725200,  3.997885430054143
 4.153719871305850, 14.598731514102312, 102.046234385817215,  3.923505983254537
 2.424384424007001,  6.919677049439235, 46.015163946871404,  3.857206191988276
 4.388865774359593, 10.511954923703312, 79.072959511792604,  3.962751174519286
12.350985879232764,  1.420862511850681, 63.820516277837221,  3.787560474146890
 4.474833872318271, 17.553479014222074,  5.719438919868721,  3.851120156939424
12.561404108033788,  7.647214316611767, 100.566339713132535,  3.714448439319348
16.034050791587525, 10.909902831140743, 53.632897123346027,  4.044575419434034
 4.916149106773135,  5.808329172568286, 62.533620688607769,  4.011178560026113
13.233118332219846, 13.932838616447286, 115.698632075231956,  4.035201108996247
11.202310590526249,  7.736871461349599, 48.261547629136786,  4.024976600050600
16.949644875567294,  9.858869201412380, 15.403867767079282,  4.237941987681483
 0.162122486474041, 13.057348852087799, 35.837008048102312,  3.949720189435555
 1.335676487842620,  1.964219518760942, 103.793013714392799,  4.229625588654975
 5.809593357096388, 12.307111641305644, 41.409980524005093,  4.117540318956432
 1.887722738773948, 12.684262100131315, 45.386903949544241,  3.799745607046457
16.237310960759757,  7.948178227382382, 84.978042173117913,  3.895944586572043
 5.834142041024193, 13.212939985600563, 84.464974446429636,  4.072716650960836
15.727304711064404,  0.975257279689542, 78.192307268512238,  4.051223896190663
18.888104630924165,  5.326016500573381, 10.360083354319098,  4.148672220084967
 2.936498263004530,  1.023079678611579, 83.207970282612052,  3.993156536811539
 5.312647463003126,  3.310047555113544, 102.104848034398145,  4.052908157325662
15.117360480524143,  6.405672288671327, 22.475982936725565,  4.051960292301390
 1.784394603453904,  3.014307682081231, 45.188455949529569,  4.091037491141909
 9.466114080476110,  8.763227144974710, 87.393728313852435,  3.815993249292372
17.958211608234542, 11.067520387232365, 99.465805441409145,  3.631556933316012
11.518983169546575,  5.376093092190957, 85.543784658176008,  4.209386482867175
 2.369322933940831, 12.370189688413751, 25.859862367250084,  3.771200131046921
 6.889012391042685,  1.862750870166507, 84.172424163755480,  4.302130159926698
 9.606404724831958, 15.426801461150978, 49.281104089924433,  4.324580299071310
 0.265704322661294, 10.994372454293016, 78.158352786961757,  3.734760362839038
 9.175417156667516, 19.019039197298536, 34.522815053847296,  3.931527800478425
 1.953920844112817,  4.062305749893172, 100.047313629606847,  3.958402484565394
18.237483208877471, 14.114843940243201, 57.479924814838412,  4.103791558797216
12.819456268481440,  3.204110040874340, 116.243843698266275,  4.296363231594180
 1.185426166035252, 15.018733336270754, 48.416078246950264,  3.864845219635679
 1.904363407940424,  3.982778859642561, 53.426964043959970,  4.198310649968956
16.300745586295339, 18.408476543173162, 87.229920078914262,  3.808164219549032
18.822380149132446, 13.781319604200762, 61.594398191125848,  4.050881511405435
 3.882546904599357,  5.086465584078600, 71.507277234162558,  4.038203423921847
10.398880490606206, 11.460867371514313,  8.855309251648254,  4.140144886830526
12.782616800133455, 17.064986312013300, 86.979705165949056,  3.562225078878588
 2.395216224227359,  6.117728960401285, 104.016591818732522,  4.320865403014179
 8.320912732637620, 14.666411865545248, 10.156963235137201,  3.910930901945496
15.937614741806961, 12.809933661438869, 76.706950875208207,  4.050736456907028
12.367726319382665, 11.477111498331134, 75.011786697077113,  3.781556375455063
14.224196098473243,  5.778918996930964, 42.926393146484436,  4.013559799039333
10.999214031071912,  9.781820213830706, 12.503677598515679,  3.925621388407873
 9.340210515092485, 12.587077938482988, 14.897724725454742,  3.954699675866525
12.448759003930602,  4.210736583515231, 20.246742832971929,  3.963613224846883
17.536943344366478,  7.202144364286555, 32.174921781693556,  3.880543872587176
16.067772999254455,  8.825170749100302, 77.871926867069675,  4.111698925442210
13.151952893581864,  7.111056427131836, 96.925905690434746,  3.723344477266730
 2.301559612166000,  3.735383668928752, 49.069258721331721,  3.842208756535583
12.183273671227981, 11.118855536347464, 81.754458804540263,  3.968047661457429
13.317432586752529, 12.739901646297385, 112.001189201747295,  3.689482769745562
 8.420272766363908,  7.818239154811569, 62.201743447503127,  3.916736418501253
 9.097397772432336,  9.479392293940132, 40.117211485925246,  4.006286879035565
 4.009384021935096,  7.604308561133596, 93.384987027230366,  3.827891505243603
18.545635989995084, 17.609469840160042, 110.680521974588970,  4.347959250826746
10.305227823141109,  5.369260073956069,  0.625037743545736,  3.747912703571163
 1.019314198576788,  7.665294383921379, 72.802070519751695,  3.645536440888355
17.685553744829363,  9.373530019146088, 68.115229209098928,  3.962082091668404
15.325581455903052, 11.016649445381434,  2.720197428878712,  3.970849261022692
13.376847251375739, 10.810955685575651, 41.096120177746506,  3.966267033536173
 7.495739417873921,  2.947106749742772, 36.552251961995928,  4.005008606577388
16.094728969437828,  9.776901467719940, 44.424458530502960,  3.801596628713253
10.307109985468090, 14.657572479893771, 80.690064912719563,  4.298506248869428
16.193818057557518, 18.484447551159501, 36.443071597447656,  4.302941464632871
 6.834803664230610,  4.629932976753319, 98.324068525384334,  4.275413680412410
12.727834536913155, 14.648628783384323, 72.735076791557688,  3.989690811883130
 7.673917239313027, 18.192956206483931,  3.423460283904943,  4.015682883504256
16.043155011647062, 11.268750906771707, 37.766725384206836,  4.230589589424504
17.441590500070248, 11.249969696835896, 32.196953755405346,  4.113047314801276
 6.796000181628243,  1.100637789329950, 89.225735136889043,  4.259118396096533
14.966933459579035,  3.062717601739738, 38.423907468933017,  4.135902573066330
16.186502302795844,  8.242316909885787, 118.915080918459196,  4.235225868355213
 3.820257383718605,  8.720736277967660,  2.324862629258687,  3.868653093927843
15.940683381866505, 18.202970563185627, 22.219319954698243,  3.806589519148928
 7.508718670384333,  6.051275849498762, 94.424798270295739,  4.087049614805633
 7.868636737558759,  9.168852710546595, 104.239888023017215,  3.951380007865174
 0.933864892357758,  7.311462778173992, 86.005389332768701,  3.976813158339374
10.510335571081598,  2.613026088874506, 59.263449540696918,  3.644444365948064
 5.198121398220134, 18.393641122823652, 36.001519795253337,  4.240180350224777
18.582152724575494,  4.200771059202606, 71.804030529386395,  4.130489514485326
14.574593150931685,  3.600653576996113, 71.583668194012063,  3.846537293213509
 1.050397027993923, 13.003062051073288, 74.795164191756697,  4.195848693235634
 3.439189595633257, 10.089295123818328, 36.051496086930214,  3.778299376824380
 4.911765199002520,  6.239728492442558,  5.563361240690716,  4.139916728973741
13.572673249268259,  1.837384808416525, 81.410811113119081,  3.779646418684411
 8.763096699034733, 13.287128329563998, 73.714678826023217,  4.263889438094236
13.429300744405968,  1.555788027588602, 85.481406365124087,  4.106550270335117
14.085488821230138, 18.320215673655905, 114.922137456898156,  4.164039962178487
 6.541254812453527, 16.964916342424974, 64.520155549047132,  3.690705481945763
 1.484753946904813, 12.612597096744350, 22.014822245772418,  4.030961851224921
10.316087250135064,  9.854739206647308, 71.981931428859582,  3.971441052566544
 8.219532415798644, 17.186585570645217,  7.222419525354811,  3.754635175176917
 9.689341196712917,  8.192709355870241, 32.319550359683504,  4.157396212969548
12.142776236040294,  6.492644041898505, 71.697575609406016,  3.679638460279197
 1.207345450317757,  7.740843519052654,  6.842558653894938,  4.211100518138558
 7.476496112382185, 15.790514682276790, 114.472387954761771,  4.108891629746145
 7.777523993262344, 15.493631748603837, 59.761126494774032,  4.117709067927088
 6.254605614252330,  1.906280217092341, 32.932880808282448,  3.767425703246519
 2.739621874901905, 18.439595615892237, 93.562411489673309,  3.893908534460143
11.235685299025189, 16.211615450313460, 112.945990344667621,  3.947921086763815
16.039081040419408, 18.547631100723198, 12.820642889991241,  3.840087254213364
 1.013124508577130,  0.487289666548596,  5.104414842112306,  4.027601923539357
 3.669944385299490, 17.505958604978751, 70.993519133013734,  3.924576411261623
 7.419659381393690,  5.069437303928063, 87.324725842802692,  4.604695938351566
11.170411817370795,  4.683388177744119, 37.481248261683170,  4.195022529238149
14.069010946432076, 10.858936482630577, 90.997758973738669,  4.365464994445058
 6.399310199901330,  7.329169605753165, 25.107527803523723,  3.855138785006656
12.198878525779758,  8.998547722736168, 44.520772119550614,  4.108041102433922
 9.912283773165496, 10.774256608441178, 50.672193986725219,  4.061519313817006
 6.862290141702467, 18.161826502610040, 108.045563440450778,  3.909851575506567
 0.218251255105400,  0.977846431513394, 22.606363388321029,  3.857725795281230
 6.758518393369847, 10.927592575373314, 26.645206783056302,  3.958699330569047
16.196804677963058, 14.972099648914188, 64.337599523442663,  3.887938219057018
12.619976347077685, 18.713084366608111, 15.163255326398623,  4.011863152328302
 8.789812461106031, 11.778567055582226, 77.692982903733977,  4.139325675597814
15.847267379309363, 14.977643342247926, 25.969112255701116,  3.926291376037687
16.062426779964525, 14.588535504300831,  6.262856633734491,  3.878461399623041
 5.370487285309622, 17.481661068353681, 78.451639143231731,  4.271207844644757
 3.139661251338332,  4.436476284864648, 12.525240926824658,  3.806520847721481
 0.263410915936178,  1.662764939192840, 65.699743521569005,  4.024510607479149
15.893921143928990, 11.934503755143826, 28.547036692110314,  3.834532360344868
 2.124643876835621, 14.139521257194632, 86.001026712538163,  4.027946870158432
14.161197060025584, 13.247489725349174, 56.607055972877149,  4.315993406224092
 0.854173323383528, 11.064772685218571, 70.980818370883739,  3.894446208491017
16.935418438957313,  1.410579391215475, 69.135159494677524,  4.169191037134497
 5.757926466999733,  4.818270003094438, 45.526177464576804,  3.999248057693420
 4.881703196752500, 16.706783677821832, 49.320824454056932,  4.177436336778368
 8.755126362274197,  4.520789148346231, 26.574722447471675,  3.717661969705912
 9.164632892996318, 14.686696073359101,  1.915099660311333,  4.123522628733471
 9.375778704354227,  1.111232660694180, 95.866480617322225,  3.914267936927980
15.332918060164095, 11.075834941640069, 87.112249068862923,  3.775895203772766
 1.566096520903486,  8.524630710192765, 65.286690724933749,  4.017431485409143
 6.887671840402502,  7.188430193324114, 42.450756588380507,  3.883669023292076
11.767169230541130, 17.047635398052893,  4.237342206032606,  4.117769574905068
13.747146358061226,  2.561511110882648, 12.766524579091035,  3.810238841813985
 4.916965634867209,  4.566798525575979, 27.857074199558937,  4.369492660907025
 6.753031532587324,  4.924929402968035, 75.489928581574986,  4.272593738205452
13.709461841748187,  5.591080649396259, 68.163542076741081,  4.109968781625508
15.679906287965679,  0.071258007691098, 53.234619551525533,  3.821823701008048
 8.890843175379944,  2.784313588969075, 52.879752270401369,  3.772338547471890
16.938301212482251,  4.091635563481853, 91.220100077809334,  3.895778327139974
 2.754647362581853, 12.343266572370434,  1.499213348392023,  3.656484935976572
10.702002482498918,  0.617023612984404, 108.367699752508116,  4.346138941483194
 5.702601650944532,  3.451853079097706, 50.888375284003317,  3.856886219718012
 2.929594372344795,  5.090647343293274, 24.090985818863214,  4.114420013781715
 8.014212377035918, 17.145335989630556, 118.171799144199170,  3.815915861385028
 5.663527738097536,  2.406121748898999, 94.738515390173859,  4.047060842992146
 6.132959909398472, 10.393560030465608,  5.114237640846082,  3.937530717481636
 8.466994836188826,  4.911939087408178,  7.197599713066660,  4.098143056364036
 3.722977466613317, 16.293007562378705, 31.528846970351449,  3.838740359715928
14.725247416755680,  8.720040687934004, 11.616379579743709,  3.999274813611370
 8.852617797395707, 15.863844724736563, 77.036293810551555,  3.902198588214671
 8.702690179025469,  5.811661881130256, 102.011615475199775,  4.271449405475282
11.304801263282107, 17.934249014481644, 83.185575265779903,  4.090011752918950
18.267958385341117, 10.966245550528273, 113.994260194474819,  3.679610045096890
 7.657778288354428, 10.247718390733025, 81.227066673320707,  3.882657911356240
11.042740078671182,  1.094167606366625, 31.196559460618683,  3.998369668035877
 9.097267136080760, 18.930830636658168, 62.138341362683157,  4.159049603114793
 4.984478975784752,  8.869779919775139, 39.420827650776616,  3.880813905010614
 4.899477204927053,  1.928544395866225, 110.777764638655412,  4.255883134631976
 6.206239766544214,  2.088396656301066, 64.306488947723480,  3.966056077917643
 3.238994963106180, 11.359026397753668, 99.700464487224622,  4.170709153674379
12.121429746885282, 12.116240609884064, 94.483941728194182,  3.887143953413853
 9.751275970422080,  0.259545155637163, 86.569476856913511,  3.789432883834521
 3.165080665791477,  7.918509131066753, 82.141365506506972,  4.369452602552434
10.067643683178590, 12.926032681131185, 56.617432463967923,  3.889790672051882
 4.867710422936169,  8.055783771677033, 108.119607127507138,  3.842393909290043
17.562801641205038, 10.894317859027723,  6.147693778754922,  4.073237796778653
18.900172144261361, 12.208748190497721, 65.483839112864558,  4.119393176778110
12.590846701987749, 14.107135046522330, 28.054489030665046,  3.871559700177778
 2.805726764935436, 18.356585322496322, 117.270889626410550,  3.876759204647223
11.055147873605980, 17.943207343950839, 58.706564116059326,  3.777547695123468
 2.867953178729310,  3.927569951201649, 80.466309637879306,  3.984996215805386
15.124315649326421,  6.431120754360892, 105.532973160881340,  3.893012277070050
 6.472840228960010,  0.421660844046629, 14.494318786702991,  4.134870184859990
14.978317365489751, 13.974940594836109, 18.483923679347047,  4.267739268490944
15.479875022152184,  2.946678002226710, 65.619501072025741,  4.021601564409933
 4.655850886243853,  6.682728373955486, 49.177475172813580,  3.664809798593154
17.423363990592563, 15.179516738347177, 38.696680408339688,  3.936318252024030
12.454409962470358,  8.366370260864359,  1.825722959072106,  3.946284004680886
 1.878250300377714,  1.806223234974668, 41.405948270835871,  3.848393181560586
16.075775221155144, 15.581384980118901, 107.981985384447242,  3.952078668452952
 8.827873057133216,  2.909471123156350, 92.335345050690094,  3.880875550026116
15.670228785758166,  1.973288454959734, 16.080947332453892,  3.795251740783172
 9.394355752551633, 14.482803971742722, 63.458920325174240,  4.157366915135730
18.826248322717621,  3.958755772902264,  6.552278540495585,  3.888987652584054
14.003302988558497,  8.462943903984534, 51.117079515068006,  4.021391699295692
12.016353711986657, 16.074314532454423, 36.855122506401514,  4.005270924509839
13.792040538639872,  6.100025474220886, 113.502413114802337,  3.809304742666852
13.264084117868734, 11.871751042370837, 15.282909466187837,  3.971775833062952
 7.367309379705065, 18.225907596849588, 92.908044136660706,  4.139814392789252
 9.437661984763437,  1.084867154520549, 70.790062734515544,  3.754672142789365
17.481253455183190,  6.189022037708764, 75.189997666300712,  3.895307795851839
15.983787283777261, 12.375213451588134, 118.158739879023202,  3.967874189002641
10.455962414414628,  9.726111097006218, 17.520915724663546,  4.116721946683647
 3.716380810834385, 18.761399894914838, 66.528895643728134,  3.999240087295279
 1.100720707442105,  0.004918966192024, 47.932832640718871,  4.012775046247045
11.758344161502540, 12.147880310561762, 20.480744380241255,  3.807044751046031
 9.100668250921503, 11.222156996765177, 65.892678755523235,  3.841263950107052
13.418256130848883, 17.820067222599238, 24.986428102218117,  3.696897826809170
17.868911163190631, 18.805264129828267, 40.204461147171514,  3.933710158818829
11.055672579085698,  4.798108710371679, 29.681570301415835,  3.998828798016393
 4.868712153945708,  5.000961286437335,  0.988232577674094,  4.124136513989126
14.482343596688899,  8.502624126050646, 61.664347599053386,  3.590912026141991
13.089944881056779, 14.252493499528290, 84.234025803038733,  4.197940332436374
 7.310472615904700, 11.741539695457769, 69.733931021307797,  4.196358534840829
15.210333550102346, 16.717957734784715, 70.313942008621964,  4.076331873025212
16.410773651293560, 17.998070297726155, 46.497307812029810,  4.230696942954844
18.670070916483645, 15.845750221581211, 12.184375834509131,  3.779209114430089
10.984638948343033,  5.643028961557998, 110.679206447923619,  4.064563652054283
10.901407003458026,  8.357134195723914, 93.935911515753872,  4.039507592147880
 8.573736271845419,  2.270861582858595, 20.863477841412070,  3.917972424002191
 7.702289493748925,  9.200085130049542, 114.006590821040206,  3.964512845183477
12.080203125058118,  2.684335935595082, 41.300424902598749,  3.999019522009462
 4.604210170253339, 10.378369578202124, 23.342602978157299,  3.993311046007729
15.011409951055256, 14.600687619329035, 88.841788489015016,  4.018244628817278
 8.209786835564341,  3.605573661725358, 56.468293266927624,  3.658478785606043
17.188418697270869,  3.041982427739117, 47.114596753140177,  4.152561086275194
12.647833899488470,  5.590308127903895, 26.042373949996342,  4.075184731799135
16.433745931954501, 17.362142213422221, 91.303740190364621,  3.832435971624135
11.529281709828314,  3.078825822770011,  9.377585400286975,  4.228366067902107
16.749899989286003,  6.443784321155276, 36.904330565531033,  3.998942478313055
 7.758810385409094, 13.341575408425445, 103.860059507718574,  4.345606342150258
18.243974795138381,  8.306042169798429, 104.554393729362516,  3.522368874782865
 4.732162372632875, 14.902771344275518, 106.420872523212040,  4.138599023250088
12.776990140890904,  9.642806971518228, 58.385486771321894,  4.142823198760309
14.481616258843506, 14.078186934988674, 80.311373114329768,  4.052837945197868
14.976394046717838, 12.861927377640644, 101.303915940698190,  4.216084082319678
16.667117920358550, 14.140979634726923, 22.228086809447131,  3.892752669097836
16.184046429084141,  2.691141245524157, 113.281146937373663,  4.493975964620847
17.047009273229524, 18.959292164705609, 32.551833529221057,  3.682283134735309
17.271748641742057,  3.442790627065046, 117.770191974220751,  3.937096672083472
 7.443971397718431, 14.632541259540334, 99.953060063319072,  3.852829496244265
 5.862001328587604,  1.538924915873825, 72.560081945474778,  4.260204530165042
 4.743250319057363, 15.038351463425894, 93.118301597695606,  4.041997369876666
10.987763824921000,  3.110560410056324, 88.978329820560248,  4.073732989195404
17.446989436173688,  4.939368529714818, 102.291324612072145,  4.562689004340099
 7.937743215911748,  9.715960383278864, 55.205246264822421,  4.173825050892655
11.766361444849668,  7.033329655225277, 64.552989036937930,  4.344105292448901
 3.041476585466481, 11.380466426533157, 93.061812516448711,  3.995182845861804
14.542759008223793, 11.823815443025367,  8.740708027932136,  4.096087539865478
16.389348680327011,  6.923243676089822,  3.740750063975378,  4.149558677713029
 0.287615041113390, 18.530298986586956, 29.389632262319793,  4.094383823905263
 3.897600422955096,  3.661950681126040, 35.268423331767437,  3.706912948407996
 9.200575704094748, 15.378107815071404, 85.791659665082364,  4.325723306154113
 0.263170361419833,  2.773190963382489, 110.172660929938360,  4.303752691190292
14.928935738620902, 17.594301318048423, 95.571000713113435,  4.094480239074657
16.872120553674819, 10.213683541639769, 57.511356399449525,  3.889856047026894
14.645150295621676,  0.743708440846132, 119.125013535170922,  4.058210418884650
16.794213231203074,  7.592127064643555, 98.187200108308375,  3.977481711925945
 7.412341283586212,  6.692763606823110, 58.516300143285775,  3.803750286217741
 9.831254408761144, 10.792058877499857, 90.870654093946882,  4.069192201646983
 0.684266248288433, 17.806372986724469, 85.533800447880935,  3.880267662351691
 0.554313834332678,  4.419872394074650, 20.775438412772239,  3.930106588679640
 8.029284583319564,  3.365911262702334, 112.838448207859074,  3.758753977512313
 1.952144269356043, 15.793119275669756, 52.332829689283493,  4.145990099785773
 5.086666899833145,  9.310956635847093, 60.397408649546882,  4.130273585945138
10.243122778170569,  1.304938696192574, 24.585991092604527,  4.323507218416548
 6.692059021613486,  9.124253884129198, 75.555997849234075,  3.796883805061483
 6.415058553033546, 17.794000997729846, 23.193056442999218,  4.137013395405361
 1.135610339610506,  3.995050106925637, 114.086662094059022,  4.048676373065916
14.252921264016123, 10.433751765374735, 104.858198616046138,  3.743650767597042
 0.276919191509423,  0.693451452595146, 90.026658074771831,  4.021401760296470
12.256911002505376,  7.184387531051025,  8.791599736593623,  4.032747447833383
10.597355400905998, 15.227189978343645, 31.355022600455772,  4.016314222993112
10.664632759424189, 12.106705504931028, 46.912042506938995,  3.948280138709114
13.551660028530859,  0.129976499803546,  7.225671596721376,  4.033893506606976
 4.528679472884498,  9.285006994216641, 72.055720047914306,  4.119245618500160
11.095913888645299,  4.601710662341991, 95.003998818920422,  3.717514940758017
19.053735530139157, 14.461192969580043, 28.653687253792729,  4.193715690990356
 4.047955065130644,  4.588758024899020, 57.226026987150583,  4.037606569149117
 3.648209733963028,  3.011528529011803, 116.912976490706598,  3.732652870305700
 0.624902792717996, 10.392575275470938, 28.930007311862852,  3.910998629858630
16.389054291869005,  4.784932933449217, 79.279272736962000,  3.890023389171260
 5.268162405249744,  4.486217219628677, 91.149314606815892,  4.098615871263989
 6.125525994433673, 18.763832915733420, 19.369651645548824,  3.767456346351693
 4.776072352061713, 15.280525301240694, 68.008990009386935,  3.811331864526236
15.946932271524339, 16.243558535387717, 117.788063197789072,  3.782966141447159
10.732374145695482, 18.225814663850542, 90.364877918512960,  4.260509428654533
13.044847638672733,  3.178783114812849, 45.945919715752531,  4.131187975205946
 0.772048767979546, 14.984787607005718, 117.752823213933212,  4.023668846631352
10.237830677955063,  3.391190143624392, 82.238830966098860,  3.753757536384907
10.668702647634200, 10.291880203856627, 116.467462843220645,  4.009794935483889
16.726734657397294,  3.854635372171280, 54.322015438146188,  4.266369890920664
11.875611499702780,  5.787587090099430, 12.372292946905516,  3.690595119698811
18.526420481827262,  3.332902256694286, 31.402089607821043,  4.098466653649422
 5.820069353143958, 15.705742023432363, 13.073497226622141,  4.032505581206991
17.083741881413530, 13.579136672829526, 72.081179581572968,  3.986665789847248
 2.412387266845823, 12.125184278587298, 82.441928059919277,  4.159136197413832
 1.404393784588691, 16.693580187229003, 104.400329783352362,  4.398981864182757
15.931979052785234,  8.909023950928107, 101.761471484741847,  3.822170127801503
 4.083959944233471, 16.421748237506268, 27.513169160491870,  3.976651875890624
 2.014621468248448,  3.212826997704845, 93.199777855441980,  3.932197681468217
 6.464917543225698,  9.001844306025831, 51.476771145513148,  3.792705882425022
 0.260163738505072,  3.286535857407055, 57.470746858415431,  3.967680663912761
17.590492436847402,  1.129741895724928, 93.689289275770051,  3.895851683930440
 6.374598164778594, 12.281722519338503, 116.036594675953964,  3.876176018153280
11.517496827112913, 11.974979104796271, 37.572465989278093,  4.310177509842577
18.605163834398880,  6.539036126020958, 48.725635519598221,  3.985290827310850
 9.223113098248986,  8.114279703076997, 97.886377581321298,  4.056794839428441
 1.204755389513528,  8.547073634489712, 96.454387104408411,  3.960138250286516
17.587709439791411, 17.170283441081672, 50.446839824212752,  3.983864349008460
 9.904335950863866, 12.042633530995893, 33.718299927072835,  4.032340819667306
18.925133034249207,  9.139727232239313, 35.207814448670575,  3.706506302739087
11.217306737844311, 16.858603472178725, 69.580902794062681,  4.016915050800971
18.028510613108686, 11.323480748390629, 19.190933255256290,  3.908153083523680
 6.177672530225581, 13.863121292925538, 80.437548244403885,  4.036924162092041
13.011269414661554, 15.567322332669535, 21.826370991903758,  3.905545965105311
12.651533981579615,  1.303736840285885, 93.519652856619444,  4.137028635540901
11.618459985002486, 18.378459196264469, 52.071727620749954,  4.483946337307088
11.352301385018949, 15.421326104582157, 17.110986274786352,  4.008607483770713
10.179967909518522,  7.254286893658924, 75.047682522246419,  4.045265218115812
 9.871148968866953,  4.240185865590981, 33.528738935682242,  4.064716539466414
17.253298347917521, 13.384849311510452, 104.873473555329156,  4.010234289690409
14.323807667575334, 10.741980840737721, 47.778607085961902,  4.024391591363750
 1.473463921432888, 11.051227564872619, 59.006811687731826,  4.034656916765439
 1.964092458616359,  8.830626612462874, 89.866755030511143,  3.587208314256183
14.928574581079264, 11.217555783725782, 64.565721810488057,  4.044890897767279
11.958022022495754,  9.163322217885126, 78.183782710010689,  4.108312052780221
 8.545182269409137, 14.588350578599623, 109.507541274330592,  4.319454368790947
 8.600362001587223, 14.738986873987358, 67.371104837291298,  3.820574659100940
12.414824868495559, 18.156108084822105, 11.100636342583641,  4.172594210224420
 0.919711187171286, 12.668111390185894, 96.372118011993365,  4.221842179798329
14.879719882837401,  2.204070842918946, 105.352484492753518,  4.455650552506270
 9.954514368354477,  1.396145498771730,  5.892769874961899,  3.969603038800370
14.448427650163785,  7.897583906442600, 81.445226443928689,  3.931946022250305
17.908369084011557,  4.201540599009546, 24.289077793927355,  3.872181150597755
10.165646217324113,  1.219170642840382,  0.724682007451386,  4.422576044712114
18.135895306646901, 18.941637174003169, 115.894248634150642,  4.113961798928269
 6.251881481966132,  5.537906424580284, 105.380979027497716,  3.923582788320092
 6.261857085095964,  1.519266816064597,  7.416824145999588,  3.889194363638294
11.541874368651078,  9.161196523862849, 112.707489364941935,  3.943165006074643
18.911109478538741, 15.559310578305103, 32.629993216354436,  4.059366274184971
12.820647790839041,  8.404681073876478, 108.103819159978570,  4.005529276323165
18.311084284903700, 13.523219286652237,  1.876325368158845,  3.750058334798918
11.429082772234130, 12.736148916506679, 69.306631050974246,  4.108791421611143
 0.316294406316905, 14.414667392910582, 100.798101358124569,  4.101294130994521
 0.615036622145844, 10.578873401484028, 117.693946378866613,  4.259477928055835
16.467191606606448,  8.320810612647231, 40.712697155169664,  3.996755288668011
 2.294860546005766,  0.082978869562807, 113.419637722789886,  4.015678372136091
14.686407681996204,  9.819912597312170, 115.242901357075482,  4.200175644911079
12.212379405565887,  3.914697287475671, 16.197705382661137,  4.107033457584979
18.895460196283302, 17.236407021999192, 96.199453919294754,  3.950556612654002
17.582289866150084,  2.720802991508076, 60.901555723857896,  3.695661744194605
10.921723216937346, 15.250279480142970, 101.661855378344839,  3.872703082310117
 2.297750075805962, 14.455863138363860, 78.858699718091202,  4.385179361157037
 6.680161792297676,  5.543204271318585, 31.495644383166592,  3.908581655436782
17.509913731035283, 16.284744056486328, 78.338540550385503,  4.194059790867213
 0.578157746058373,  5.147955814245439, 34.682413144341034,  3.637271294694433
 9.665568742796061,  8.305824555775995, 36.362020901993837,  3.917909045627689
 4.856073850792278,  3.441696500934526, 39.541519971545952,  3.890849437887272
 4.500102894403753,  9.353269969256365, 111.846463856112223,  3.744630996564890
 3.769356566675932, 18.597257873831616, 101.393017832638535,  4.144416810761705
 4.211475123685327,  0.783773347505389, 29.671260122017678,  4.103254281038765
 8.172889441799375,  5.702007631350694, 11.199483320931439,  3.978835017512574
 1.506570898540910, 18.985376954582012, 79.493778155731562,  4.247161667648721
 0.388214238569724, 18.600280429822597, 54.832527342570565,  3.950441019528239
 3.535578983401846, 17.405222811422071, 16.820641830141103,  3.894382566299250
13.678020865260544, 13.217405233646904, 44.307086288205014,  4.078232315266899
17.997014134253767, 13.846359112477383, 15.709428386783637,  3.825752046404356
16.726447711178391,  9.440511722560224, 107.783011274156735,  3.930628145164384
 9.662132577859106,  8.605830620270714,  6.064601976718884,  3.973691955957844
 6.518260674595146,  4.294200560360885, 14.434332807887607,  3.595871114727482
 1.004824729240780, 15.211008156821837,  5.251290603991856,  4.448716551535366
16.566063290826598, 16.139985747823385, 42.828552995555988,  3.987613910933808
 9.766344370978775, 17.468678932992660, 98.674286821943241,  3.882342341515839
 7.164666629226865,  8.902268943910261,  9.114469892772304,  3.918954294618193
 7.549990828869998, 12.017977199825296, 87.879738499224842,  3.794883643170327
 3.544682322507689, 17.153283298430111, 89.764969132256283,  4.188313518024819
 3.139365821511531,  1.366867543328497, 87.259725139336922,  4.042186745857763
10.569543658867126,  3.363591614765555, 73.837768597560029,  4.138749812737310
 4.509299337093183,  9.728738707989812, 44.328070577102281,  3.899766331052348
 2.833802868643300, 17.534863563486731, 21.180043789704595,  3.764165851513607
11.749280496863337,  8.042854297155200, 21.008469483827948,  3.968828056844107
18.153506802732533, 17.164494790724881, 66.801690242635871,  3.698872885490121
12.328987631456345, 14.683262263352212, 97.603625025946187,  3.835094091340955
 3.623246583673988, 14.729069519478207, 60.428914805207974,  4.198032444181404
12.806802037211664,  1.593313851803275, 68.570372192973721,  4.118484792407748
 1.399062203052852, 18.656696278743048, 62.719250073882307,  3.558071584029393
 2.464989305113585, 15.337036998908760, 64.495749965715859,  4.237050237183426
14.806479503294250,  3.872799796831160,  6.427845668561725,  4.009663774688583
10.130316658889411, 13.154144826047366, 41.407148627103382,  4.038509906480942
