BANDS
8 8
NANOPARTICLES
cell(1), 19.093
cell(2), 19.093
cell(3), 119.330
12.787871960517087,  9.538151247878226, 10.366109615709210,  4.134189893541510
16.441115547364870,  0.848165832749894, 52.993139371456728,  3.996152829627076
14.243525993117574,  7.740888449987404, 105.864587281276059,  4.202360866167113
16.283726368763759, 13.197572081777608, 23.460924293915557,  3.766521091232699
 9.125951733448645,  2.703646699058936, 62.633562543309317,  3.955302824696600
14.351127251815070, 10.581210867135614, 96.719902975696954,  3.651935821544194
18.443001865337234, 17.544866474447822, 50.685664924861214,  3.745375726733458
 7.235666464747688,  2.052098337436800, 30.865364146690354,  3.571967616398987
 3.688933308646422,  3.591707817242705, 69.687852960481749,  4.019082956738220
 6.724497286885643, 13.399006768051340, 10.139265544862043,  4.174172009321157
 8.063362604079307,  5.919636762663381, 64.503427459870679,  3.776161121348009
12.052493904643045, 17.773656618519961, 42.277210441130777,  4.264231892395723
12.849132212550529, 18.077316181381981, 82.290699120616623,  4.090583201596189
 8.621864151970644,  0.722152061131931, 82.718665652964333,  4.344402872252774
 8.233520206032951,  0.343695621924296, 40.865011131278358,  4.441915509554700
11.511606389141631, 11.071702321466704, 71.577805345667500,  3.925648857198059
14.678981886764557, 18.652892088511056, 29.582771022461614,  4.164611904321254
 6.359942492428969,  2.177867767879988,  8.604327919406964,  4.382990086151863
12.689888995965374,  9.549549349432780, 58.887338913333700,  4.397138828210659
16.568900765666115, 17.321919846477726, 75.950573196042328,  3.742116102523834
 7.141036595755264, 15.131222990924812, 27.709430331422123,  4.020254282402413
 2.354603725417738, 17.295771943988932,  4.543927816834199,  4.252447023270349
 1.053387739277488,  5.591144853261433, 86.020465543747903,  3.848432311865185
 5.646068343811526,  6.492909048574907, 112.075007833862017,  4.037758447471619
17.223414043412379,  6.059959033161185, 36.597613885456568,  3.966567525946030
 8.232119129658761,  8.496008018052278, 114.184507933171489,  3.734817989368749
 6.067515490552815,  0.879316792084679, 60.701956234371082,  4.016412478862432
15.698960826101001, 16.301526543531590, 12.762059882008677,  4.218653732827641
16.642700219995707,  4.781031040563197, 84.200205000241382,  4.027555118726007
13.680405031430915,  7.684504435172237, 52.100258127714980,  4.054111258834962
 5.990065528405957,  6.088134417998274, 116.247563312976055,  3.988989802559693
19.066296508024774, 16.875698902206331, 68.565933573016579,  4.269758618630078
 0.672796244366828,  2.334552185110149, 109.099760661946306,  3.622687100784921
 5.869856247359695, 10.360822857278647, 61.285339347792124,  4.126339855243015
11.206912012265693, 13.136818005621270, 57.441728794297383,  3.878080312110023
 4.294759497750903,  9.188924686083416, 23.646552885052749,  3.827496139292224
 2.909101193194079, 18.806892708341916, 49.127905122288460,  4.405034161635560
 3.603465463708251,  1.904579997595723, 73.409455041730979,  4.151667209021845
 1.662704256876282, 18.592189949499346, 87.482907158947555,  4.177324107696021
 4.936708254326906,  1.124556127453857, 43.050407353589442,  3.600056473354729
17.410949709244665, 15.487090039696632, 20.330942481593212,  4.154118558869347
 8.199999667408807,  6.738475063484972, 108.648798923499527,  4.373964486809171
 9.531272651140767, 11.811728315532712, 86.830683854363841,  4.105494737917061
 7.350622930236819,  0.150411936639088, 27.292072314447672,  3.920134727670883
 2.123264051269731,  0.181446520076811, 98.210617467596677,  3.815541197079043
 7.159418595647503, 13.675966118651512,  5.953713664332030,  4.065596477496415
 2.753342638956010,  6.828495662764742, 105.341522069189381,  3.620691554229050
 3.256219854275229, 17.815788727767902, 78.072856728888851,  3.833935981067937
 3.498732347892813,  4.027985079292296, 91.384473150741428,  3.949306427889753
 3.007206298253060, 17.283350825844135, 94.389536786923514,  3.790372372071598
12.537524105438964, 11.925051191477323, 23.410225242907998,  4.100599603843855
10.898860542350887, 18.362426807778078, 17.637130624007131,  3.849390699415340
 8.092571601305824, 12.538181955458505, 115.140239678296666,  4.299708194451866
18.418988431547259, 12.674267239465808, 73.944421186992230,  3.698350625867318
 2.309859285509539,  5.632059048384455, 58.901231587380323,  4.122154628485097
18.234472923459784,  5.266935909921888, 112.878961001001542,  4.044811727639503
 6.371992778375398,  5.324389471563333,  5.082540725222158,  3.858414361337554
 8.060049628517124,  9.542621509263588,  9.207938652825980,  4.171305881531418
12.495737989334485, 16.749019757682685, 58.087652396523573,  3.564357046379162
11.927002920312281,  0.837937973027490, 51.318910921960331,  4.214688238830547
13.772378342042407,  7.202143673634626,  4.214669308441438,  3.882473451794278
16.934419610439200,  8.433249693776562, 11.153580900149970,  3.665344055741251
 9.683245010178753, 13.490084669007787, 77.994672042505925,  4.322429464254167
14.595640857530782, 16.588754209894738, 95.093476311831736,  3.670800019415363
 2.289630532459743, 14.235851400214782, 52.981691013052874,  3.797452939680116
10.796389963182987,  9.697918176122730, 107.019709300965673,  4.019596882511682
 3.349751929532112, 17.773725872013138, 70.622959736675085,  3.811759726533507
 9.259335882189349, 12.325498240682142, 104.405716815745834,  3.928807815980757
10.111786683973833, 15.133349447885546, 81.935489442778717,  3.903583897674273
10.184539466488705,  0.318879604718310, 106.455302600954937,  4.362394004516420
 7.804404521491360,  7.244338308458394, 48.442673077750953,  3.898693545554162
 4.059235894087175, 13.431076277830899, 93.498129058496090,  4.226513053188580
16.490431832657919,  0.880295772658212, 68.288665737971172,  3.777467477035675
 4.962063043476646, 15.882182792994495, 67.442295545648264,  4.218607581109217
 0.857737597630740, 12.306221790742686, 113.096118485825386,  3.800494526633057
11.772200884884377,  4.560219624555762, 64.996939168796047,  3.944924679638005
 5.187414645103553,  9.500868716464815, 30.600297559591077,  4.165340420516024
 8.118093630245481, 11.312920730107393, 50.178245508962767,  3.791939419967675
17.071247178478451, 18.658375958729707, 72.535416288499533,  3.509220075361674
 5.418879947467135, 15.051405734063783,  2.347192855635732,  4.198131160023406
16.716784402679451, 12.051010910429964, 46.727060482018523,  4.116648890798644
10.917732089718434,  6.893935030913705, 62.059811029421148,  3.744371537431239
16.204710291096255, 11.307419424905790, 112.545924605618310,  3.850294694031102
 0.455265718961827, 15.915757321819706, 72.452763851852595,  3.752081522673902
11.507410878876483, 14.569056625966294, 69.688537052976699,  4.005817715668938
10.218022243957982, 12.955597690293054, 26.529143299834384,  3.851870956991164
 3.495168063075345, 13.395151829319948, 79.013449056254856,  3.765075179416992
 0.494796030387815,  0.367386172772809, 80.387928635976877,  4.002836138244851
 1.440043692677527,  6.549247002131144, 51.221095307955352,  3.703839570505360
 6.028164764060092, 18.503293957158640, 106.954998419460580,  3.974104465688118
 8.838308021463329,  4.722854510278521, 84.320516843405514,  4.219332594549917
 3.910883790298541, 10.333424553523438,  8.412908775674191,  4.404050680537028
14.743550042862056,  7.491561406758788, 81.504148633491624,  4.095487351591011
 4.625896416676671,  9.993440902269512, 115.196749547092452,  4.222430898692784
12.526072439384988,  2.540598137684980, 47.345829001528188,  4.192317022447718
 5.508086373123654, 15.156506827129402, 97.225304208703193,  4.376804433579711
 7.028978502203185, 17.768550167215949, 64.279030938773928,  4.169570131443222
16.398149237686699,  2.294668539814845, 93.042543025226635,  3.978160769530602
 2.232035856031412,  6.043612882634882, 24.673070479922689,  3.945119087760700
15.214019082390358, 16.211951038077924, 101.889476201012940,  4.253906995569174
17.858193955847874,  6.167116322950995, 71.131549699241702,  3.969936245627057
 0.528788354191215, 16.448651350457972, 103.472630412073499,  3.710498429130208
10.975424434870865,  4.675919832417971, 52.573772529120504,  4.076069078228627
 0.072716137994240, 14.948782276959532, 29.441868691550962,  3.642069658665367
17.708162117845227,  6.864066021209061, 15.307913561233612,  4.051499477185905
 7.156766713207992,  7.791930425808497, 78.023494129507100,  3.892844430721786
17.727922843457829,  8.221552585848668, 45.381157519048450,  4.200819490365800
 2.117053040729029, 15.520100604996042, 90.364761790908048,  4.210518103443778
 4.826764874586811, 17.166492141740431, 117.120561522211105,  3.849654069989760
18.470108890576853,  5.631569803301441, 77.314541752775341,  4.101887696689276
 1.895199045725921, 16.432047434856493,  0.439427596528525,  4.183943685848518
13.771991400117297, 10.790234120773258,  0.598275785527626,  3.498078970750848
 7.901880560642259,  3.515046690513000, 72.079009674480886,  4.006818871509911
16.509837855092638, 11.244650540617213, 80.852121436951052,  4.242064703124055
 6.987097298786715,  8.515967897725048, 20.916973104520089,  3.900663196354427
10.294725664798127, 15.447786363587518, 60.792072628430056,  3.793842813388228
10.179650221881822, 14.380164171513645, 44.110190015867204,  3.976033004824951
13.117596362600008, 18.385914381873615, 25.865058504751484,  3.899687680189649
14.628396628092446,  5.658026506967566, 25.210599351399225,  4.075554170158500
11.648969197056214,  8.106256082574872, 24.103049172118325,  3.849762240835406
16.255573759461832, 14.046468678521158, 77.897537211349416,  3.880663628923926
14.479577409220157, 10.707303444342886, 68.935671391825522,  3.816294180779785
 6.791672669128513,  7.027853312754596,  1.497192348795674,  4.099569094543289
 2.119005481219090, 15.675916704585040, 46.603062511168510,  3.767622347945922
 6.203316817872716, 14.497891634770696, 32.147375307183935,  4.033176149522796
15.524046908707481, 14.949001874316949, 82.312514921214074,  3.860508141656900
 7.167719339906923, 16.383989273806304, 114.221319408023504,  3.763667461470641
 6.619968957579577, 12.687893414805723, 20.370482491527486,  3.842290429114555
13.430030701984832, 18.046967507743283, 54.739681143900789,  3.812881774448122
18.289557965532559, 18.169197018246066, 100.328848106623042,  3.654960210159941
18.357767941918311,  6.445500970990831, 61.562311502142705,  4.123062012293769
14.062682055569411,  8.343849946638892, 31.219331880262491,  3.940676699185941
 0.165462723798206,  8.147262100690167, 80.100776855341991,  3.566976657476083
 0.319691812698320,  4.168659310904494, 27.732006951721186,  4.149712616316971
12.728760736414094,  3.782949115195955, 14.524161564424769,  3.964675735725002
 3.460063531962597, 11.439289122251044, 89.909475049718765,  4.057945263128079
 1.683622848348051,  7.932725757570161, 11.212306770033578,  3.988888959197570
10.769447308321661, 18.982250188915057, 13.742686332310580,  3.705238245656908
10.666280854559620,  7.111764249453368, 90.708921408892209,  3.765165978968212
11.194597551080392, 18.685333486136948, 72.753896995656405,  4.007974629707115
10.451503555098034, 10.482605318258781, 96.532471489715590,  4.095535062626231
 0.573270434480642,  6.111468013216329, 102.282266025516691,  3.857526814308927
 2.309722552238438, 10.644360543688245, 95.980757893602728,  3.957201874188033
17.967384886254255, 10.318755686277550, 63.153492555075417,  4.135818034381677
13.089452123762539,  2.464261748079306, 61.665508919193364,  4.172667556328013
 2.288302837836111,  2.208144562893921, 45.704972021365045,  4.088423318279018
 9.733375351873010,  7.491187582767629, 71.791916743357206,  3.963239564102428
13.420250415364725, 17.764957887921490, 108.678677732231634,  4.074595757836054
 4.627202864195129,  3.867960365925520, 95.095807685900795,  3.608289053329875
 8.196599468048611,  4.299360550469239, 45.636722141993857,  3.842933115849520
12.006486618337524,  2.967469944532013, 18.927687027842847,  4.288026604566991
 3.715756350566853, 14.377287524245128, 42.701777235164393,  4.114562615648482
 7.048124527819926,  9.987118462130882, 101.989519605810216,  3.995280974762168
17.204239013365438, 12.147200451800442,  0.343538701676065,  3.868345298162289
16.868596372391057,  3.049547741452709, 39.225542858695682,  4.034282972688642
 7.590047596566468,  3.915803703398191, 97.454706221361349,  3.956884533458955
18.060569747068278,  5.833562719019386, 41.991055774611709,  4.013404700236448
17.932295693918164,  7.645881103873111, 26.316962267395891,  3.867041227089723
 2.112942709878712, 18.312286064634918, 53.758273091271718,  4.465102129479115
12.584660896480086, 13.536549671434846, 84.658479200410952,  4.081406654283259
 1.811121588103455,  6.421370160355665, 94.141644016245067,  4.026470647860995
 4.212948780041551,  1.251949619115006, 20.193433129973055,  3.856901042156013
17.250630368986734,  2.387539881489465, 60.763579458618651,  4.119360293993818
16.010890781879372, 17.315241155528419, 65.750134835994729,  3.597163311822002
 7.915220005561006, 10.127087117196009, 17.314131963879291,  4.192308070158314
 7.528884087230332, 12.662693888099344, 14.111051821188427,  3.998966631597116
 5.064409825781587, 12.547395956383639, 82.512870364739001,  3.727685531209212
15.854951276449817, 14.178046598064549, 16.660710060885393,  4.192675708822445
10.574497405233377,  5.329856365604525, 94.951518834618909,  4.271232166618587
10.019617334388325,  9.202024997439924, 27.555393427932767,  3.900637957345665
16.363233937013298, 16.293595359948899, 106.030862307952049,  4.301395034271796
14.375775993130272,  9.800650302158067, 109.410032022404209,  3.947046826493897
14.138759125250724, 19.013541406289853, 15.463517700853098,  3.860796443211639
 1.862035089434500, 14.776178531697324, 116.020411913642988,  3.953360614806641
 5.880242928978637,  6.767698361710614, 70.878117920332812,  3.988275438070825
14.813962439288126, 10.076571667349986, 116.390738504820831,  3.890336212527894
15.740102773486697,  5.863427728562295, 116.085531172368476,  4.092458706074555
 1.120238571286448, 11.035597388702874, 116.925118947184657,  3.826358756396868
15.766115251932263,  1.557709322688756, 115.656936360809922,  4.125943387592524
14.526425867792023, 13.920726048423221,  2.550122806415112,  3.924561150589658
 8.129301588031474,  1.474736692203962, 19.585861848175000,  4.014228275641794
17.966624652248953, 17.903146067049342, 16.234234483250304,  4.202287285021060
 0.892908511659662, 15.823495467131625, 40.132514039958814,  4.038511962814125
11.646451895299842, 15.855672634652002, 28.888642101762112,  4.138940184512039
 0.139473905145595,  3.740224074588927, 117.068354461881199,  3.992190241864508
16.663525914649682,  2.920161853690004, 106.865173092094551,  3.901784216819032
15.020783683138895,  6.797711499198480,  8.160975678175735,  4.140023086516162
 7.274050681199003,  0.754394949813476, 103.255999763635245,  4.278889607712650
 9.900351856979254, 16.254124909629258, 38.747214440894055,  3.864663967413586
 6.968771122270488, 12.398952744624189, 57.591256463096059,  4.568452289111175
16.222564620188010,  4.250471857269944, 103.194672814666717,  3.941201591826021
 1.949565152185202,  9.674228926363243, 27.754948415628025,  3.999648457633802
14.509554845378620,  0.989138561000630,  0.063649660951399,  3.723482505891686
 0.227555544897356, 16.802996768742982, 63.858772362906173,  3.856970945445230
10.704026698311527,  1.016469204622339,  8.942449688515287,  4.033645579261269
14.494043053365996,  4.007686434322694, 54.831109429048084,  4.270315327647037
16.636131519333940, 16.504197010828499, 26.733152854748003,  3.800972000849165
12.474883371299418, 14.049472583390926, 97.423332675494080,  4.296505497790021
10.487294976966970,  7.002248805549865, 103.917808136420760,  3.946881959901421
 2.281457019917271,  0.653590054418516, 102.512301184004556,  3.991274438501169
 7.724794149453688,  6.943502773139441, 34.056250172431618,  4.064792149464360
 2.695045555842880, 11.626446141122758, 63.413663081749306,  3.901187512945136
18.197828521566290,  0.892986063063463, 12.306162629387851,  4.470547863570013
10.217115103372581,  1.732937965660732, 24.986423152461899,  3.830280361300259
16.544577021179510,  8.730586679928143,  2.002178329139336,  3.766942683797125
12.602875407355759,  9.137609559179356, 39.845172719912867,  3.844114805071770
12.407887617871211,  4.082087401192685,  6.430268664051698,  3.896085683236125
 0.243480089231905,  3.500427145113188, 54.076995135955343,  3.896228842881648
13.330522445677786, 11.644045223065760, 104.360864748848286,  4.284810886999077
 3.283959843973595, 19.039877732528797, 63.316536012358469,  3.791589142976741
16.647742657299609,  7.275554259875479, 49.288609782075817,  4.017147898621826
 4.112411427726940,  2.623278630375085, 24.306338945355218,  3.719958885171535
 7.136674109878257,  5.700712528679143, 52.327669133819676,  3.810918301024239
 2.403214688838512,  6.011237328883288, 73.214395837383663,  4.250957978164386
 4.592760647805395,  5.382547536446997, 18.949598859967345,  4.197085745146017
15.688264877672990,  9.223282062053187, 23.014133747752691,  4.225799860254496
 0.389855405861177,  4.431026051477477, 81.216839659195088,  4.139805823297240
 3.356227723985404,  0.284561228614930, 12.446388919530250,  4.071387890908945
 7.327134372540976, 13.067228493236785, 90.592401881894503,  4.070695620397797
 7.184163605230536,  0.896640680441028, 36.542862211549753,  4.006294735908498
10.224844264062572, 13.383959347181472, 32.875119575162707,  3.761515958779031
 6.616504706873013, 15.851041106316861, 79.895351337986199,  4.261779080755226
 0.602182672473738,  9.993212981223666, 23.960864970189245,  3.656114044117745
 5.535822186975081, 11.642236733766694, 53.337821486413084,  4.377771141764806
13.637675759581029, 18.952779891706893, 112.597804958572226,  4.014103916587100
 0.782820348624899, 18.670251960859478, 74.953045787978382,  3.672554640364735
 6.622532806155252,  8.889979890219225, 89.412181496630708,  4.116057721448859
11.822493535637756,  7.357147638384602, 115.609460926862496,  4.301736242732843
17.894216512715946,  1.225145500359122, 64.633850870839339,  3.816311424015322
17.001752059919113, 13.737439886690492, 70.506874109299389,  3.993530133825501
 8.450114066240863,  4.831337682164611, 12.184206697723633,  4.096712170898071
 9.830955313951090, 10.318200595270302, 46.681492782827689,  4.226589186279741
 1.459880695456919,  9.007473285568539, 37.873123330237171,  4.127382968523349
12.233507261736841, 13.188917479098521, 108.629958233891955,  4.187822654021293
18.065075097954114, 12.220697634414527, 10.154587853353583,  4.269325570151152
 9.430323442025339, 17.887523188921708, 69.347063083722574,  3.802483949666849
 0.668292081988314,  4.807448406443154, 18.114176498873967,  3.887865074927022
17.448912728027587, 18.273088196075228, 109.624925285593477,  4.156579592570287
14.368292746128668, 10.992569640079870, 65.060581803260746,  3.952263864724667
 2.043153558786809, 13.201896609307136, 102.920957072463480,  3.514679910475327
10.459958938418414,  1.515606688776283,  0.569717101620357,  4.037083314054791
 6.331655397230000, 12.403039510562399, 45.427602199360983,  4.288098338354566
 9.259085353234992, 14.092715228187172, 17.698679004406905,  3.875160635362815
15.351996747637891, 17.682559341882627, 61.729072182956500,  4.553358752309798
 6.090280924511501, 14.985973627847693, 23.656469260600630,  4.183424541231601
12.304705846496576, 15.671550658711585, 105.355400203872804,  4.010717056485936
11.164966187434391, 11.025284330529692, 117.374203758804128,  3.798336222477988
14.064799198635733, 13.455250784628362, 60.476990479956726,  4.359323390097744
11.584094691669565, 11.444396240081980, 90.452375562257743,  4.246336221122385
10.161995023269641, 18.058700966515943, 79.155885067036110,  4.151660945853807
12.039205612249855, 14.316616635629737, 64.260337353099899,  4.267391455242683
 6.537853347939912, 16.049668362472040, 60.517680338976312,  3.832958249010808
 8.122421626364499,  4.574246517202413, 101.502183086738654,  4.280779561114968
13.807242012194292,  9.379457478717873, 47.432168908059715,  3.876916265608989
 6.215042558912244, 17.904981114434587,  6.161904842368734,  3.922266308480554
11.263848101007804,  4.307411198264049, 88.161237329603523,  3.889725433935943
 3.947795574639605,  0.799351297858177, 109.826099224519822,  3.584606648947679
 5.137316983376355, 10.643051329971689, 41.830110099867206,  4.041413194643019
 1.603422259205309,  1.843530227287588, 15.820722747018499,  3.767300554061387
10.360127459530561,  9.096611282043456,  1.402615547149060,  4.111602889545400
 1.320776169655282,  7.984522533018215,  2.587945796617199,  4.199086542407947
13.198648759143399, 14.209480089295411, 54.202653107807791,  3.927818844958055
 1.301425600994033,  0.731690253181710, 39.580838521552415,  4.009555176203211
18.854541460507981, 10.203875890291261, 70.769581439560369,  3.976061187491415
 1.644828411667117, 14.143219387094174, 66.122638646773581,  3.639691322108588
 4.187268116156015, 12.401308193169864, 49.176060358480584,  4.340240310342593
 9.532009547896987,  9.064578471442870, 13.211177546257234,  4.402571428087483
 5.165369047333233,  0.369070127173571, 85.123048819936855,  4.055796006967144
 9.590438862483690,  5.353810812751742, 112.367033368086283,  4.003567911794656
15.283005138371614,  7.875557195505501, 56.065258585105326,  3.949586409115917
 5.602734649665607, 18.688681865001211, 33.196267280538677,  3.625312961686293
 2.164256466562410,  1.468801494855640, 32.235631815605061,  4.383745326326115
16.991476143743711, 15.171223930101657, 98.168908162990419,  4.095425794051035
16.239314413005868, 14.432755780796642, 40.307954102439091,  3.959784248071510
 7.640227914107321, 13.752516278153642, 63.564967404231929,  4.055174146619723
 6.898130232944195,  4.236901026042560, 41.857504667079390,  4.025307083913134
13.814041044319620,  7.140299328566400, 70.771916320350343,  4.309016449699798
 3.167406104125433, 16.952837647367879, 82.261598986717217,  4.187605434412139
15.290810962460325, 14.681859216110562, 30.370131666654412,  3.958133126841895
 4.066656750780894,  2.068906884413923,  5.024143126038905,  4.111700029367990
 4.577105447313063,  9.143603128324868, 93.047583752259143,  4.019882913063839
11.565941991163882, 17.432403240846149, 92.488246478761596,  4.483438417489718
14.952132378816790, 18.802076198495026, 19.397407684275368,  4.164645619354026
18.077269933544507, 13.968101556868715, 92.813915784895087,  4.325130961920033
10.822404030764316, 12.495156482505822,  7.740829998310714,  4.343854809931484
12.633951498853534, 17.075715544061097, 32.901210311949036,  4.137858385956110
 5.796345202004664, 11.135141897676226, 26.811142732091831,  4.131372102304415
 4.772353643015997,  8.405396373498377, 50.842809255413265,  3.930609867200041
10.987812834937168,  9.423130785135989, 20.198568475284258,  4.338764681095165
 1.452476239145088,  8.120745640535270, 98.880575140891622,  3.861169241902427
 3.028296348645874, 18.977941861724339,  8.142852146200470,  3.728219849171011
10.245283294809482,  7.171108249638681, 37.281422521473985,  4.114211000749704
 8.703964717645244, 16.591186431533743, 34.740814072911206,  4.257329357745637
14.499074572819040, 10.071705556063106, 84.543956294465346,  3.817660343580248
 6.443340458636348, 11.126460305975332, 96.094091777103998,  4.062273742659351
 4.181217979555693, 11.066984783331087, 99.463665466113525,  3.925376073595523
17.982031334219958, 18.090706850368520, 91.122302596924257,  4.040085373180740
 1.672325085182456,  3.737312101429945, 21.617806774790491,  3.701120424164394
13.125722738415785,  4.255087421844839, 91.761717739293388,  4.007014199373370
 1.431796858400864, 14.447183599358345, 96.443910254826548,  3.877226534269185
13.020355538442409, 15.294667112566779, 79.469433992217347,  3.713886822955439
18.570694683641904, 13.265881809777163, 33.007722983572179,  4.220515008202841
 5.285063575247984,  6.301909617655793,  9.713247351597328,  4.370787603389513
 2.959030659880346, 12.197705238662552, 75.038973259981873,  3.908912159492865
 8.125027574574833,  7.790328889124891, 98.694698052185416,  4.211019144675718
 3.409128262133836,  9.746631960708619, 72.070052406799419,  3.807200010566122
17.191392552394110,  1.688614536271260, 77.529116336857015,  3.812308561923552
17.192590598059848,  7.653625951091783, 19.491901766305610,  4.016424264147759
17.022997196382445, 10.805088691114156, 30.013373051676620,  4.124784634618101
12.116943015568703, 15.461245641628116, 15.067901941289357,  4.233163710158367
12.788825618947421,  8.633171613544910, 93.747682356310577,  4.028137960059414
14.616103389937662, 11.830411901628404, 37.595009326797197,  4.218481910827196
18.117685714882057,  6.472919217090706, 105.896839018622771,  3.946984598038813
16.418136196227959,  2.491087636762840,  4.323997292813600,  3.819653677863959
 1.646429159260221, 10.136043934799405, 52.811820495536864,  3.977910996023800
 0.953845385469848, 11.549315102557401, 41.297496221258825,  4.042878592672190
12.902721399011392,  1.614065199782634, 94.763868434194322,  3.876526765605683
 3.950477923988415,  2.311437706954563, 116.102349067965363,  4.309534266402773
 8.928149670446002, 16.525133372509924,  3.648167802494837,  3.840920282515724
14.012848000484432,  7.193253203932382, 101.877952008405202,  3.817696865016603
12.667389971965310,  3.579482635128688, 117.292080042692646,  3.851435226504563
 4.035034035277640,  2.928467199496799, 52.125168840425374,  4.471087166157186
 1.510354872355208,  1.717444676408048, 84.047248710878961,  4.004908421981512
14.644737273327920,  8.020942720675061, 62.366785522571952,  4.059448299167251
 7.068707787145481,  7.047741552200453, 81.671873791063291,  3.545681301319438
12.604718237839746, 10.897919360334088,  4.367978031822314,  3.858465360728674
10.422404774653401,  9.614318941594867, 111.092388167700832,  4.087483911990668
10.852391223845617,  4.938696705897689, 68.921051563723978,  3.942827449739123
 9.938410792556313,  1.823627486169885, 76.064673410810244,  4.253429061896699
 9.115653410910943, 15.247145024556222, 66.767106753942855,  3.601356051602416
18.438759704558151, 11.122327912678870,  4.366804291773541,  3.939887659092947
18.679937398831438, 11.975584614522372, 89.238354891988678,  3.826257548775725
 1.924557775068892, 12.394585655952117,  1.244551105870989,  3.920325365205309
10.319835873088824,  1.438359072996996, 90.291814631760701,  3.475929474804969
17.864882488095468, 15.628182955513731, 87.906883316002791,  4.036667324534791
 7.228918044507707, 10.982441759215510, 33.813763256759252,  3.977273531095697
18.037992318196263, 11.623988267110279, 67.131826727871527,  3.989940824551559
13.225651312934589, 12.037272142749369, 76.115769106554737,  4.201558463402511
 2.814292324553543,  0.237260867269687, 91.225955523410121,  3.711665320893888
16.069335896156243,  1.994066488967734, 26.528172074059430,  4.121732651620295
 2.951651027186726, 12.814726720022374, 30.861231928097347,  3.726593212665190
18.816202205382432, 18.590462945892217, 46.680907873170703,  3.565520744349540
11.848267065610246,  2.401884378469067, 109.832374682803234,  4.236300280793867
 9.794948957751057, 17.926225417684321, 110.526273050449220,  4.053644447257687
10.836696065633550,  9.610830265860740, 83.859264297957452,  3.581865099522337
 0.332663453800989, 15.572746425965251, 23.988733913253270,  4.178224973841806
 8.907881721420939, 14.370549806058953, 47.792257722098739,  3.712787274027839
11.457199195553093,  5.437185479687151, 32.256596849769899,  4.076686737715717
15.339960602816426,  4.735253239064895, 88.279921664928153,  4.282044527682320
 3.121155654175231,  7.489582745168239, 62.373416140142147,  3.773571832423011
 5.943437703868470,  1.091319542474988, 76.729123334081649,  3.813957802016446
12.578011319318865,  1.291480638399972, 69.314865488726127,  4.107271620368169
14.645648872435459, 15.009778140373777, 111.646797671748715,  4.174811336609328
 2.313998905112038,  0.737488926978773, 67.019439656743174,  3.789677238607373
11.462873067996073, 14.267712374407221, 101.564291549353186,  4.192276264821023
 0.364586013042998,  2.366794998700040,  6.788624678142520,  4.007332161753964
17.670600804098424, 12.608419281403222, 84.718150669888942,  4.099626388616903
 6.320027015689124,  8.648633995700504, 74.330980891239520,  3.776126981864202
 3.979886547787756, 16.422012215081704, 74.358375837519034,  4.126862760561990
16.370218279363936,  1.212829359257439, 97.159673568781059,  4.240616748815636
 0.033036847593573, 11.261111409407530, 77.632441329488657,  4.049207843720975
 9.839098339490588, 13.666876407767360, 93.876747332113538,  4.213398668305891
 7.194340195864190,  4.801611427659689, 56.438660328496482,  4.436696716304914
 4.690021878093749, 14.598756647225512, 107.040400259145486,  3.845995666599789
 4.681293047811892,  4.148404051322648, 13.252006771487348,  3.845289146949766
14.583413129786278,  7.642204140606652, 42.821309532301569,  3.885959905621175
12.552753820785645,  8.341810382216531, 74.496261303261875,  3.908443231121955
18.025551215402469,  8.520427733415476, 83.658117753307437,  3.982374003737684
 9.841538408527580,  8.256443443988408, 51.565613068697509,  3.681350274524601
14.951080039419709,  3.444587044051095, 43.030180812174081,  4.093618812897514
17.476327265675604,  3.134529557708283, 46.194163934561971,  3.927239077744984
18.239974023265379,  4.840277119541573, 96.704541362320512,  3.970025040272039
 0.457991844847448, 18.878195797539750, 28.459071381256045,  4.471814791989988
 3.814935605727342, 10.309946222159684, 18.834569619902879,  4.038546922060289
 3.264837696278340,  5.359657923259727, 119.200353754933616,  4.167458936207711
11.090741750671167, 18.342825059088554, 63.443953738940927,  4.141387626420610
 7.674932850583872, 13.307099003579280, 36.987715317129869,  3.929125383736579
 7.218602895547081, 10.660690077916055, 71.021355831299715,  4.066491364434612
17.669499415817828,  4.757166724053252, 57.479896040006508,  4.012346668993588
15.295586514349633, 10.712344509306025, 72.784904106123122,  4.029836646307158
11.222402763727974,  0.432946810536256, 36.714606765072695,  4.113526636507905
16.240630676447207,  1.197937612206467, 82.510547072536269,  3.930424392341245
 8.352706638995569, 11.956554836017522, 29.832470160706816,  3.923370956932607
 5.527002797487451, 15.635278836385231, 54.951307682146236,  4.233687494852258
14.158990631749443, 14.544249196744701, 43.687617427054661,  3.945985957036864
15.772276258871997,  4.030359890009612, 80.050629142252674,  3.608883870543192
11.152016731753024, 15.789301779686305, 113.641226050596700,  3.956828491250869
18.264877703105423,  9.736248196604430, 109.638516835137438,  3.814873108073962
12.090054529736653, 10.950118505010899, 50.456628700210061,  3.656810430991124
 2.114911539074402,  2.453297261749978, 77.244002478536203,  4.133264181291955
 8.596946897861432, 18.299098059309749, 49.202131100245509,  4.271660978467598
 8.012227199710367,  0.404417517796363, 116.365356272928153,  3.933441142999615
 0.308612924411796,  8.355904912111605, 56.316867812170315,  4.271254435940596
18.598451801698570,  3.102203358886702, 73.975212292522258,  4.027606224361428
 2.324527210542426,  8.893604759322121, 111.881846353878188,  4.015312191898657
 2.183239866410527,  6.492580174894718, 115.155404864547677,  3.856024090275405
14.277962152395880, 17.947599598021085,  7.749172839822560,  3.911460070603451
16.494278085171384, 14.096196965385440, 63.823205199747164,  3.958803135893934
18.929056590111649, 10.350662024972648, 13.732412969112177,  3.890797660180145
 3.371651836559351, 17.648264234558535, 17.162282430521959,  4.159769402853112
14.637446843919378,  5.816894280432016, 46.222520498200858,  3.800947349091234
15.854970288131216, 14.650601043812049,  6.140012768921084,  3.753205738373443
13.168862425769031,  3.701086907843813,  2.517346266475513,  3.934783658421428
16.735496924593779, 10.382484946368043, 53.243562000799898,  4.072113496832539
 4.669890118266950,  6.987079071519879, 86.406221122843689,  3.940934046405214
15.561972443569442,  5.274981724126510, 33.138380270156489,  3.856009798041895
10.361056382514644,  4.274147170796385, 59.196974983098912,  3.956978682979850
 7.133902199395451,  3.978155609484022, 26.296007385443197,  3.965465625114072
 6.570992041452392,  4.917668489150913, 22.507309745324449,  3.850007971212644
18.389984724164229,  0.574324257768108, 56.870140909607763,  4.328443632697309
13.473947366334212, 15.736610264211553, 23.037656470959362,  3.753458473449814
 6.873172648836364, 16.752361906173586, 93.008129304412250,  4.486564007195846
10.783011887891089,  6.808318980248172, 81.162152760078442,  3.953964286888795
14.055083491737395,  0.517624984589583, 89.539267712993080,  4.332686767964199
15.007590092975043, 12.118871291311113, 100.375581908107705,  4.344689923703696
 4.009810716365159,  2.266565335554141, 28.302021575942167,  4.190499802268212
 8.739441708269124,  9.890667108782894,  5.113523198884468,  4.133619664146751
15.864757770599736, 12.424412004701560, 56.658309794003777,  4.050098036292567
13.885302998425747,  8.240878475949328, 35.413281305803643,  4.272556751576884
 4.305973204704161, 16.720427738760698, 103.855163739017328,  3.699413287350562
 3.837816374312383,  3.290326157280626, 87.502577051905362,  3.932289300105750
 6.813991687869389,  4.814999712505314, 37.505159315695693,  3.957495370104253
 1.948601603775478, 18.638009580135456, 106.530984063738288,  4.232899589595569
17.156820485790959, 13.307781875811568, 115.838090660907383,  4.083426535370879
 5.662920171479929,  4.894122773868709, 75.612442754588116,  4.118296121503493
12.728076879709874, 13.365881784634672, 47.342439319418439,  4.206747869135437
 0.336858228390541,  9.764009723254434, 17.344438408842624,  3.419143672240722
 3.582647554523318, 13.722879753458354, 71.132668326973501,  4.313313164231514
 9.437449713085828, 13.029841409874191, 53.925415894826394,  3.952788664720364
10.389454490597940, 13.214704656997903,  1.926729218653687,  4.121254591430910
15.232622390981881, 16.615640824442739, 115.164313047859480,  3.584008490129601
10.263617246381141,  9.252477572537442, 31.951744034271918,  3.896078685557529
 8.905001042330101,  1.555584016981742, 93.842955185015882,  4.162203162120769
 9.302763090000624, 16.408416588723025,  8.096777293326371,  3.942017124911371
 1.925764510975667,  3.808463247634419, 63.526010747266000,  4.270198789074736
15.054470289834436,  4.576880531718347, 99.156212729255316,  4.011105296498282
 7.149247264436313, 14.768662677593634, 51.269969194730209,  3.703725704350997
 6.912312335073375, 16.674085564977787, 19.861209394125424,  4.045704553007346
 0.649481729042406,  9.865988117681379, 92.372428643783365,  4.010607013262892
 3.997084095873757,  5.734557919252996, 66.458947136500143,  3.735038104652206
10.657059620757337, 14.469507225471160, 73.747790359154180,  4.284016982680229
17.798183090738153,  9.691327006432711, 34.928418361490614,  3.968229864375982
 7.024009227235974,  0.383365489061172, 56.265704333953330,  4.021209103377938
 6.373970611672776,  1.416206017082437, 112.929405153023581,  3.759134385947573
12.158272596946080, 16.934267206844581,  1.258464983402662,  4.103300146829440
17.248583754045260,  9.241402567314342, 103.058807178510136,  4.133051729978895
15.804736931063417,  9.915646035164077, 91.182060979339056,  4.201800501268549
14.035733106184960,  0.513960507252715, 105.291888142840605,  3.684343255527772
 8.568759203432981, 16.109895663134651, 12.509460961687799,  3.869010409309714
16.021485398645002,  4.675947046398300, 12.228469658109486,  4.220655536197540
18.339936383882211,  0.732217938080976,  1.238896330235133,  4.247366992267301
18.311422915299094, 17.379004291832548, 95.096222106558145,  3.882925884844930
 2.632400460298277,  3.215406864171853,  9.932626239058132,  3.771676491161412
11.780784525693372, 14.797799496738364, 88.226328883152817,  3.652371675134252
 2.793090962451410,  3.677554523563688, 112.273088404582438,  3.926232969094914
 3.121313571001896, 10.911759178285589, 68.001941400123513,  4.126023988235742
 8.730995912561585,  1.463033846685046, 86.853029398530083,  4.029861383046375
16.755006100657308,  4.595318260335580,  0.987722100962476,  4.056170516148958
15.932067801788730, 17.689049390061161, 79.653012417869604,  3.806610311490988
16.378813403825269, 18.492446124855242, 23.304713688393658,  4.134580469728906
 2.975628872830021,  8.422979290856111, 76.647407982831552,  4.196308158747825
 2.054248224101086,  9.614188413704305, 102.342979129972178,  3.747527476430860
 4.894961651229499,  2.119791082697897, 39.367700241304760,  3.620464247579570
19.041495319108773,  9.012577087009157,  7.711288867174077,  3.994857985309751
14.700728107432589, 16.997171394336455, 70.091468997703188,  4.021477602534139
 0.801084988690587, 14.060277362060964, 106.585048965868140,  3.936005921457831
13.841412025337965,  1.135325797141220, 11.683876291463394,  4.085092954579419
 0.264799171369197, 17.444264320216408, 36.229902346619056,  4.463199208158366
13.571249318426448,  2.440607924859499, 22.848092993035273,  4.159042333288260
 3.967941627612078, 15.270978128515225, 63.436973127821680,  3.800288522576009
 6.100547238828771,  0.632602928869745, 68.454359631961125,  3.965575194486847
 1.185784876459226,  1.882596479886242, 94.572121723301137,  4.353080082747327
14.511233152973452,  5.763230209597068, 17.359592248549284,  3.787992630791312
14.634309676443401, 16.695007293360298, 51.219089582051026,  4.095244964882014
13.638503215976399,  5.371127094362349, 39.808555951974654,  3.799915510380125
 2.431285185802606, 15.788928643630443, 100.066366469384107,  4.078459636611632
18.332951589413298, 11.383007409823735, 20.613322894194901,  4.070484165904670
16.449946920069319,  3.530257071612826, 19.987778482787544,  4.074126874495608
 5.758562134499416,  2.622747033332224, 64.840145441357564,  4.096266882468071
14.630726279099148,  4.981284091242761, 95.245237830249266,  3.718314553053122
12.847017305223321, 18.231751061690641, 98.254593484884239,  4.215745080384941
18.487825171935185,  8.661307902642152, 74.484742374245215,  4.094924260680724
17.468498061663862, 14.513322950700138, 53.433982754215371,  3.996122469087943
 7.066364087561304, 18.426935200362536,  0.736747161183564,  3.956527102244986
17.301540570441762,  2.409766767585722, 30.999532631919660,  4.082493327951886
 4.691635625380235,  6.876992633341420, 100.849552623292638,  4.064805765428034
 3.771338532235266, 17.732421796730758, 58.164922168463448,  4.086601437523687
15.713422117260102,  2.730004093597181,  8.405056684081170,  4.104334487951355
 5.955538189257300, 16.347495701356664, 110.427131501208734,  4.142429999986159
12.806596369415779,  6.054979625677589, 84.877946867224111,  4.160500349038462
 6.808109408564956, 16.839894350728596, 44.203740090888040,  4.299218891155511
 9.001564425901352, 11.090377015284490, 42.975780328709021,  3.345067447103024
 6.213204609873741, 10.406866437475907, 111.464260381666676,  3.918186089325769
 7.145046580290672,  4.368348894721469, 68.071860657169594,  3.702073777623944
 4.578227192942148,  5.456191446885782, 44.851504842938823,  3.899488247176873
 7.980824765748509,  1.767683270804785,  3.800273937058167,  4.064025017775401
13.862492038587021,  7.784759748475283, 13.942842665956679,  4.071174920048242
15.485743038843488,  8.636737008560800, 77.435173746183807,  4.226999963762968
13.372182952173315,  1.367588664373526, 78.498024499050331,  3.954646467068308
17.933189416954029, 13.611278863833244, 109.914774965181820,  3.759286522422129
 4.825278774508711,  4.118285359986125, 83.628509956266456,  3.926057391906142
 5.976766550692158, 17.260946600495284, 100.591259414053397,  3.553796648401598
 7.450899091521756, 14.043164281747863, 41.000143614297151,  4.120613844651990
12.069385421554678, 18.686784179367720, 116.497999780636491,  4.343026873485217
 1.014868884695449,  3.225418528601663, 105.143939194468317,  3.761052412241697
12.820521926348061, 15.288739226173483, 19.216502453899054,  4.038137072249785
17.788087736050027, 17.462084692266902, 32.164562860917734,  4.190620821348142
 9.820196818878198, 14.635416227935659, 21.890615746058486,  4.078433064671107
 1.263523703631824,  9.198624374349009, 31.808560830613668,  4.056968910727227
 0.884966944616313,  4.550663444790310, 13.063067330167346,  3.765811243419662
15.878309239429964,  0.606876146023610, 48.773088441454078,  3.963227922530005
 2.953834353105531,  7.460215422570650, 15.305278135155138,  4.579124047869427
13.956898445380833,  1.283564028850268, 65.359851206496415,  3.772457733550482
11.111865580910003, 10.031612481107029, 100.889205155556866,  4.415084068011700
11.177140922347711, 14.743127381056023, 50.805245103149488,  3.864268684700122
 5.334004663678860,  9.637098916550052, 12.374789366866599,  4.102974851511504
10.861934991933618,  1.473799496143195, 29.173568012535817,  4.409709697055341
 4.488056962553342, 17.512184275477214, 40.351852673659153,  3.821153349620156
15.885435347404966, 15.182737943579466, 35.453248648364529,  3.909071927367902
13.612925151697468,  7.032155587483532,  0.046672875904022,  4.052148984467266
 3.539899949879489, 17.977949860360528, 25.462336905114022,  4.173946127059242
 5.552517141534180, 12.653556655412347, 86.609348171176038,  4.038542476100199
 1.830111648759953, 17.999413558606602, 43.391843868216370,  4.012929893591732
 5.817538935871703,  9.688030179794477, 37.367432645664877,  3.848594170017817
 1.614991124235042, 13.867217966497934, 18.181383111324870,  4.255835077239870
14.275988232629890,  9.362196301578237, 27.154356354077780,  4.304612024174044
 2.736757031885737,  4.575544718634942, 98.192240110818020,  3.750615753784813
18.342126282628861, 14.777782266242905, 43.906227711038696,  4.277301856128793
10.838302278578778,  9.165378384987450, 77.970830305030248,  3.960011177009358
 7.330601721361226,  4.880051380293594, 88.722351305906216,  4.116677641799422
 8.395968272977289,  8.153044202173602, 67.871106610706022,  4.276793979245781
12.651975801158429, 10.917145052615696, 43.898621865600070,  3.778473852819606
 8.655841003584094,  5.433685676030795, 19.232783048548445,  3.863434651055494
 2.087095343083520,  7.293635844831049, 69.358367815722488,  3.870278184368833
 4.479392082196945,  6.991900954204260, 40.030641661461893,  4.152795317486283
 7.633073284326696,  2.412286809178319, 109.223289234404405,  4.192888637470964
 1.936377934110874, 16.132600532207590, 109.797870400854521,  3.994873967094010
12.321639037093655,  6.443584900035630, 109.491675267874328,  3.903551384092354
11.541995001440332,  2.973318387461126, 98.162642358075473,  3.849923954387135
 4.404898764573587,  8.849530014828467, 46.873412251989379,  3.997003139449907
 9.508583177370420,  1.545362544728588, 66.490529942864654,  4.092293040004360
16.855674872920527,  9.475541247042447, 59.340427273503181,  3.944381638006573
18.456434169871699, 16.023494948842334, 113.025036533283512,  4.155279779728370
 1.705016987168078, 10.119059973511140, 59.852415286064073,  3.935951349712111
18.799175178160173, 12.945755432221745, 37.322716604101430,  4.307403716189585
 9.686074922083121,  7.757687346008402, 86.965300877303548,  4.003380943796391
10.250449013639225,  3.561402137836036, 39.042825056611562,  3.899146923198239
 2.590988642199764, 16.227007161454743, 32.821166207092517,  4.080019780106885
11.645002815438037,  8.343076778108102,  6.984116303812022,  3.391958983604265
 1.264600127461956,  8.256694703353899, 65.631522329198390,  3.855771752429325
12.256245408051051,  4.727464748771530, 10.428571766792768,  4.123085028925476
16.563167802285495,  8.383522947506835, 99.058699896250005,  4.117435187263386
10.866539046212734, 11.596146303888085, 67.199738535490283,  3.848122273353380
 4.463195462923916, 11.191054371071921, 104.872202682335129,  3.887764102313904
 8.806979445661860, 17.196210674867327, 89.208496393655324,  4.075218865707939
 7.812478591581608, 16.720849689994147, 75.934259190235693,  4.182165974373118
 6.076743776403513,  1.208169629141427, 46.651598406748690,  3.917817546729657
11.497955117299524,  6.591437491637413, 56.106614437197962,  4.004941878522104
14.544318996380367,  1.304920032070690, 74.818773064683853,  3.730022509922963
12.799137481215656,  5.395698372032364, 77.914861583154888,  4.189593528590581
 1.875289791742458, 11.770377512908484, 45.407941928233186,  4.246674014385002
18.764447935667366,  7.601003040478044, 118.157735471374636,  4.021315118952021
 7.373792154602005,  8.094159184134469, 44.296080847105387,  3.858546139920819
 6.519507730919227,  7.286033823325721, 104.868819633003383,  3.957678689621408
 3.635932467782947,  6.489812900194644, 54.446044754977159,  4.019695393996664
12.472673618427766,  7.359829647743799, 98.009088271062723,  3.849028782443417
15.390658355186611,  5.427101011103622, 74.686067175479906,  4.004249185345437
17.865855094225576,  5.813393665504090, 22.915298895915512,  3.821924099512169
 4.184847895337931,  5.391989635622656, 79.562358283494916,  4.327593212383731
 4.857152808042370,  8.628363763139415, 57.668792567267786,  4.062952896110785
12.460772145500561, 17.168718627620454, 66.971939351750336,  3.589766453822645
10.981865610208414, 12.916057969101900, 11.943960416733919,  4.093355022964841
 0.215129636238189, 18.589197034979257, 116.565337001895486,  4.212526980017156
 0.321514947291374,  5.649446058290061, 33.296976852182190,  3.774008680880815
10.914070168539972,  5.315581557516732, 26.969853142532138,  4.143283332580208
 2.087215425269172, 14.626666831677008, 85.598790282154923,  4.184317754038978
 2.170406289961338,  8.183271961574523, 43.218884384964355,  4.071757576715479
 1.092144384878222,  3.938731234788980,  3.004284417485554,  3.945990191719800
17.454467531147007, 13.230942388791053, 103.513475674763086,  3.877178096089319
16.956142687249720,  8.283523844750356, 94.929577293009842,  4.155072339821706
 7.129410027029757,  6.443880760715443, 15.687985097274254,  4.002633496916976
 4.524509529792293, 13.631400956367909, 113.139096630241411,  3.923776785979133
11.680310395153704,  6.295595344482489, 48.778525033114704,  4.016298798535473
12.343120880798017, 11.951707272280652, 29.901892418901515,  4.018567878094795
10.358138065731616,  4.799652692381443, 22.700412164771482,  3.731791079675068
18.842064236248270,  2.873924985900517, 100.188137765485635,  4.012241092719236
 3.438092086860951,  2.439452781988593, 56.431538199914094,  4.241320743168078
18.358053275693191, 14.897182444348323,  3.231967555621658,  3.926546494850080
 3.412018232924234, 12.618001770007387,  4.884291178300996,  3.887884518809968
 1.976524137873773, 10.320495480864038, 86.044327627306245,  4.471960699621641
19.073393502663951, 14.872533038169101, 80.562343995343639,  4.037877063026563
 5.984412997298909, 17.472915900531230, 10.067923565616468,  3.739297069268723
14.416296336520537, 11.675550506836386, 19.890784346253159,  3.882054508091798
 6.938255619093868,  0.004594116841103, 23.232085411440025,  4.118331017987934
 5.304574811865587,  2.077944077110133, 16.597464446444210,  3.784360197974360
11.933683496837185,  3.125583677234658, 81.719471489298172,  3.803451631745578
13.998478505782765, 12.955236416239488, 93.584743580094326,  4.215813500989258
15.459865304741877,  3.080694943517388, 71.517409871043768,  3.877097535391757
10.026121834244869,  5.519356989672702, 119.205434054684702,  3.688893571373058
 2.264173676843984,  7.533801748105002, 89.551676373337116,  3.977523502060607
12.067687283005009, 16.727093249256015, 10.875308612246835,  3.919677538570099
 8.866537214089336, 16.180353862144962, 57.331659051468804,  3.796057184283752
18.307802123559927,  8.804864718484193, 114.474732782575998,  3.704301337755288
 6.181080306195181,  5.151018770607176, 60.960884694690314,  4.348059436525175
14.325971687996388, 13.793545279001876,  9.549832939975817,  3.899457520766884
17.047286559480220,  1.265024151620456, 86.550313675251473,  4.190898048659180
16.506124797362592, 11.798832202425533, 106.921135416136934,  3.707293914353268
 4.533367382708949,  9.681612463175162, 80.098330830867084,  3.768857286383044
 0.106921630678086,  0.337186862965619, 20.051367675661968,  4.332124733456369
 6.860850620999501,  3.246005643708226, 119.018661489910613,  4.098363168784905
 3.862503455169994, 15.201254511171104,  7.769923776442311,  3.901782846357258
 3.178500869963415, 11.616821982020316, 34.629048349418042,  4.179534355153171
 6.585506433797088, 13.324498221881418, 73.953858433191868,  3.945167428626008
 6.190796974465417, 11.356501874331940, 77.214290616602028,  3.647698531057730
14.157960643242896,  5.594809362501629, 59.158730690895027,  3.948536240560181
10.821396631289476,  1.987596791521922, 55.805963100754418,  4.265232362406397
 1.832497466843540,  7.612841049085296, 21.042523540307219,  3.977115623553989
 5.769368499303932, 18.285089296060086, 51.990636453616034,  3.655989976072258
 5.057019484303666,  2.097744391804595, 100.023068507814443,  3.960184416084299
 4.835905477486366,  8.922698129356540,  4.497329273232610,  3.998854463892199
18.298174669262480, 17.194629442941352, 84.071472823982091,  4.092067543829759
11.008465306713084,  7.211091237622437, 16.694890613644905,  3.906501818522770
17.583318322571273,  6.846620045476404, 30.153531851994437,  3.874655502545429
 7.923727378923123,  5.905104777394495, 29.960719702085282,  4.376217092000129
18.985056607624120,  4.177581707118722, 67.435518350558453,  4.558534959969745
 6.914633474445956, 11.167344702305392,  1.718625182733472,  3.938484741603899
 9.536274919424551,  7.121439980859191, 41.209333688038129,  3.866801007745458
 7.334143561927458, 17.804936296308046, 15.980285354564137,  4.078057818992634
 0.194739340133602, 11.980432475568056, 99.787918823887026,  4.147291803949675
 9.652520212278988, 11.620797720184932, 60.819087410137747,  3.898352851030297
10.884821959663038, 18.538076271826927, 21.723394048552798,  3.996205313436652
14.632725677448065,  3.998622530876557, 50.609458846336437,  4.104666494925145
 7.226648171598721, 11.469916795361097, 107.749842650816163,  4.062089531110729
12.213811001422659,  3.633204477867757, 102.105027398111957,  4.131734100932976
15.724112488973088,  9.963332079183084, 16.684944370793527,  3.798860132927813
 8.298122829742052,  3.910115800391142, 105.561590805471440,  3.783628801060700
14.709431015596046, 14.179425474308610, 67.338418041858802,  3.841298740058260
 5.199509380459615,  4.452104597421944, 48.491864827427548,  3.738035020327477
 6.517011603083485,  1.264459308947226, 90.413860448470928,  4.021967994764194
 1.494470796713303,  5.906966109671729, 47.314005742941561,  4.023376998720560
12.423191160619551,  7.993926473617949, 66.975671165715084,  3.952552873599864
10.743876989002750, 10.886255706494374, 35.756590084795505,  3.934436102542846
16.199737404080405, 16.325062402408122, 57.789236707178915,  3.871491000273468
 8.145601012322308,  1.917549416284184, 52.785117994287077,  3.740910444441205
18.225522596368062, 13.342649369243604, 59.895334493362832,  4.024803587516184
 9.085321147400125,  5.687652201037242,  7.954076293677359,  4.073684322721024
12.260127693537578,  4.069200644230324, 106.130541650897783,  3.861759087367709
14.965743791225822, 11.881965239102396, 13.158716795825848,  4.358439751934540
 3.016661478585183, 14.153565404884343, 27.063999652347036,  4.032010883240988
 0.823939461962769,  9.664969984665756, 48.873902332294492,  4.116959190157571
17.577139809929072,  0.519315523883281, 103.942109690559676,  3.877298598307660
16.769934029281945, 18.335997091013091, 40.849825049038024,  3.973973464180165
 0.029736975120478,  2.908518491486469, 49.987460465829805,  4.347494713679084
17.286329428120638,  6.533874195440364, 53.059629391689093,  3.675800616964904
 3.590039064771645,  5.562704250805626, 30.930958501271959,  4.185033465165544
 5.517100502055185, 14.297936565859805, 17.009622886864928,  3.729120500794963
18.615840089582619,  5.347619165717902,  9.171887435403889,  3.804932426011391
 2.754448730943561,  7.493606163867624, 82.917860873750925,  4.065309833330787
 9.174759160728428, 15.693388453266794, 117.854200194658134,  4.219838703036713
13.758453104083618, 16.954392442935177, 38.700281058683792,  3.803761765810100
13.461615150443100,  1.967032343529945, 32.644905207873890,  3.964836567542632
 8.094080931300095,  8.724850353477057, 55.035331203487061,  4.081352033065087
 2.647391871847342, 11.762147931496052, 56.364866022096763,  3.968127229531401
12.306664246739356, 10.383705855670115, 54.771284577075065,  4.007682179218602
 5.585310865992196, 16.001584978928058, 47.947613682564409,  3.682531627616827
 6.941982861337112, 12.141739606156664, 67.254341757386783,  4.028299276813058
 9.580784884276056, 16.846815473299117, 25.155361871391111,  3.809450955939540
 8.971193264645834, 10.522769265597178, 39.421025629511647,  3.851071627936131
 8.301375636761335, 10.682599300019595, 80.800247065597148,  4.037301251697355
13.075238670271050, 14.408361164717668, 117.348854493659701,  3.960241717564076
10.051855152963629,  5.814746421269025,  3.747081330808914,  3.947460752355856
 8.284282995817632,  3.992001264960991, 79.415067071630432,  4.257760667117478
 8.354864175340134, 15.963318878534604, 103.443573451173194,  3.786944842827947
 8.720045797451929, 15.343779723643884, 107.412493059144268,  4.267229116278092
 5.629364044647598, 13.720144124486094, 101.969202133837726,  3.861112192645333
12.683727370467144, 17.502489390048609, 47.648868072224694,  4.048537523979419
 8.662799084377063,  0.566167761960110, 99.340641908159697,  3.989334886750651
13.586888459663141,  3.842191833755734, 36.270042814168775,  3.865766508346761
 5.797403744351691,  0.324100103402235, 96.372587915464550,  4.212856268819112
14.525809962648601, 17.065108343313174, 85.973912953974775,  4.165965700892632
12.729966726137803, 17.130968518908489, 76.125661850290598,  3.935418446432385
17.594335498659888,  6.174576749835520,  5.041818073737896,  3.977840021395579
 0.622299210612134, 16.319943059535142, 10.201311501356733,  4.492502506860725
12.554587778258391, 11.991204103120948, 113.790611013386041,  3.963612846964002
 4.969318727715221,  1.272586266226322, 80.667447547834215,  4.103822849820351
 9.140644715193067,  9.657943354538768, 64.139716691662599,  3.880002946008521
10.915633849042429,  3.166863529537433, 43.023151596493690,  3.974344606436272
15.839907419558973,  2.744634573465591, 110.781514495603844,  3.981682671230378
11.730869030408373, 11.376013965529475, 16.108282666336081,  4.105525340822510
14.841072104218689, 15.575960139008016, 90.545376143989927,  3.982952666508625
10.462313191348654, 17.174653423699329, 85.460937758836323,  4.027810443154160
13.350596207735862,  1.563953718746859, 39.856552154644284,  3.650611018496877
16.549961821623256, 16.196283398533083, 118.947263364918854,  4.443073796733644
13.572055036974756,  8.572976108510588, 88.027308694366070,  3.932423903555888
 8.658376344092201,  9.701337758211366, 92.912276356453361,  4.117353903802280
 0.821265602103124, 10.052542317283336, 106.070352303537888,  4.034467913664981
16.484336773968746,  7.806729803920424, 66.637619162780382,  4.178370349055835
 5.379241765117670,  9.090861082397787, 65.138568088362760,  3.967415875649333
 1.419673305452897, 11.243246607860842, 81.915253870762427,  4.027850240016578
 4.624380259356334, 15.499517328120721, 13.299450268224312,  4.232415047199363
14.673235150589036,  4.385752117724535, 67.833763593348991,  3.923793169511184
 3.204603851449735,  1.279050421200061, 36.179897658270960,  3.778023573424412
 4.463439695250480, 17.486711507855471, 29.465359165724653,  3.900299754653201
15.479878086843152, 10.900676026896960,  7.113307466648903,  3.985049329418057
 8.379980039727540, 12.848636942569383, 99.226539626060145,  3.964184837931684
14.625013504167205,  7.648926618733178, 112.651920785643071,  3.845868330475285
 3.818001311670826, 13.140910846775837, 38.635640717908863,  4.317204959237090
11.449855281486284, 18.528036542497325, 102.331483907859862,  4.413262957561006
16.832149111483375,  2.857174278765110, 15.928149822022741,  4.158134356762718
16.328275831262864, 15.943661555835028, 47.685716953428283,  3.843806504706399
 0.262258177460461, 17.187861846376919, 59.952907920313343,  3.735194366969499
15.737823843702564,  4.503448832255168, 64.012130312400842,  3.993076526825570
 0.146381561499080, 13.792435421269078, 49.545223430559460,  4.204915515990344
10.223816088128588,  1.558013742435056, 113.412294566806665,  3.772858475518147
16.349530155128292,  6.440025514762833, 109.362251427327593,  3.729934089979065
15.301097094898566,  0.075967955462934, 35.813379723026650,  4.082032616641252
13.570340281216799,  6.266468414728137, 21.115439227857056,  3.967746775966101
 0.805479316930916, 15.315914176743316, 56.594647813450045,  4.007044224966215
 1.994773604084615,  1.602702682075519, 60.111892246967827,  3.818585940972719
 3.148571802108038, 18.022812807021161, 113.371665499725083,  4.423132151720367
 2.477120593000934,  5.996713258240814,  6.306062900499834,  4.308963276997786
 4.689698133160095, 16.662475241175091, 36.471001578978814,  4.094605718457224
11.743443732550558,  0.345138475240419,  4.733597328094830,  4.189922499312379
 9.897438664914272,  0.201249727732346, 59.566524793730117,  4.079707717281407
 7.331903931844961,  1.022030127436053, 12.557272480882544,  3.835678367171955
15.100515582749281,  1.076438590641171, 101.018207999762708,  3.826320915683754
 2.828236649162057, 12.164295603657260, 109.537507614790385,  4.019542525291652
 8.466827585535826, 11.151755976536764, 23.486073066376971,  4.015372502052289
 3.641649226393090,  7.395074202208191, 34.704090980592817,  4.194292614882372
 6.982541603657881,  5.843123310329419, 92.755745456106467,  4.096954088755518
14.870833448388867, 12.416132998243860, 87.939174968509349,  4.168239015773390
17.812694430301654,  6.193270929464660, 91.389869587892576,  4.144407177211822
 3.234541579979971, 13.880399346219228, 59.775403628375280,  4.140923965067594
18.023077643853867, 17.745212474969321,  6.609028619302351,  3.766095744925378
 3.435648349779612,  1.222754580087573,  0.956359937177484,  4.197650031027953
 7.783541236078572,  9.270538660215463, 117.836358913848912,  3.628861081660850
15.386298259371578, 18.638617593430730, 44.741169302428844,  4.196880493343870
 9.688039515374966,  3.823717876144433, 35.255046620649935,  3.595161242110296
 7.076819575242712,  9.551054699686567, 84.507581327329021,  4.001312013489014
 0.230832555934132, 14.397332482078776, 14.181051843291719,  4.247535283645822
 9.815624546633494,  0.929517440088074, 33.126103401608866,  3.592137997620241
 9.124161681024173,  4.039917162457081, 116.006511199197007,  3.508570985549986
14.767743979119523, 14.920736083920875, 73.588613291882794,  3.893198744695096
 9.070089910696538,  2.912836121363210, 15.938602929438245,  4.041173642787348
 7.849668054384725,  7.570354164474381, 24.866702741992963,  3.692199367689923
 0.039943565596805,  2.645797327258098, 89.906857211587734,  3.938509226065360
16.333392872785250, 11.332993558673024, 42.769606930587450,  3.937471635287570
 3.295020953246900, 11.835815287464131, 15.033420683286851,  3.911020192846538
 5.120912388152344, 16.507457635743137, 87.803460146592343,  3.905752612407651
14.225550578802673, 13.479177875689505, 26.713255385149530,  3.932074607936443
17.690055345598822, 11.926170742625231, 96.215039161402885,  3.607096187702004
13.186586523855716,  4.038394493627259, 113.447361193615194,  3.924267307231063
 6.754243006772714, 15.757347049286057, 84.149696399018637,  4.192250614826357
 4.356377915832335,  8.549792068316872, 108.395173362589574,  4.066731407733140
 9.770389483617393,  0.290791913342534, 45.446278064882570,  3.869926431319900
11.090324644532796,  6.848967325224928, 44.826604712147393,  4.024489135586253
 2.547887896608389,  3.852972506801428, 41.831360543983465,  4.012977231518157
18.804659006464288,  1.218679521528537, 112.883066511355665,  3.890733699897401
 4.981212997344190, 13.147209007401681, 117.996577076600389,  4.111804696283683
 9.422329969509073, 17.268764994592750, 53.460269860790262,  4.256253592593920
 9.349862414645891, 16.820857426381732, 96.529165032038350,  4.053845613326983
 4.167906735252872,  4.019954598949640, 107.616625454671905,  4.079916079710820
 3.091144093188476, 16.699070105267712, 21.168487149088051,  4.010445323373218
 0.748742251912984, 15.139048749168367, 76.607126348312065,  4.036999977961458
 8.358346630035927, 17.500660264060087, 30.680431455205913,  3.918962022483438
12.078720316692998, 14.575099101818994, 36.008303521710424,  3.878952421328883
 8.878504200818869,  3.497376489522852, 49.391034533993896,  3.842174317218948
 4.499911840614924,  3.862070168163836, 103.545160865645741,  3.993409591882060
11.863807158515431,  3.880495318128241, 72.732649177475565,  3.862845967986811
18.438892821692633, 12.503280431075041, 26.583073878528396,  3.938971530618241
14.593042061577465, 11.948172768077457, 33.365792140834550,  4.166987099084812
 8.664033979937395,  7.989169674652361, 59.018252988174368,  4.089706313928907
18.602906483108626,  1.852527925210397, 42.854558397646755,  3.532587482646521
11.917726440489961, 13.186662428738110, 40.547843157353128,  4.209216365419773
 2.680222448307720, 12.677304455992553, 11.397293035013174,  3.568198936290390
 6.890323012660223, 18.563810864053462, 72.319774900379798,  4.112531010102422
12.233730141080045, 15.493889759247216,  5.327815077950484,  3.832897870790276
18.584942354043722,  2.474464122791846, 35.431463254776908,  4.036752102703539
 0.374441168548752, 13.918306500737602,  6.775064055050239,  3.719015273671418
 8.872439014525174, 13.422620593417189, 111.122580604099610,  3.993528806715878
 1.700576930839130,  4.782468225074225, 37.920846217620728,  4.046084009751931
17.643168254532799,  8.279694773552372, 87.769447027759725,  4.207067660010440
 3.965054818999135,  9.351345399865945, 119.156848781969529,  3.889828887993613
 5.524285109641968,  3.472883458796581, 33.943005016452830,  4.015556285912525
 0.463990614785210,  1.523633558539282, 24.612967893970566,  3.878752657389452
16.789513226196746,  8.806430819068483, 39.547594136524808,  4.054099339957205
 9.588230650084553,  5.928900675227912, 75.417075133431126,  3.921368685649842
12.315137155984633, 11.652248745196053, 80.839815327997130,  4.176226650500571
14.255743265222526,  4.651806297110560, 29.337897388927622,  4.094089881298640
15.441948865824331, 17.724286868478504,  3.627064238851069,  4.120822169198415
 4.949032376779211,  7.115859931761374, 27.321762150916637,  3.917946071236843
 2.923149769157602, 12.695233194500954, 22.142097054485284,  4.164938596118428
 4.640862437152999,  7.582597451806708, 96.639051143534573,  3.807895594225927
 1.079620190001723,  6.094809532352940, 109.318091754913198,  3.937703810635895
14.319891330329723,  1.149465921291446, 57.947807347291935,  4.071494101062088
 9.391620531917392, 10.777359331592875, 74.778597114849632,  3.723030393414997
15.404112627035719, 12.856391392519336, 50.416288083340405,  3.867088793731944
 0.582058118749653,  1.340603005047761, 70.606750070805191,  3.861433124687264
 7.556086757849100, 14.644138330949385, 70.347785691000027,  3.941732258774000
12.962836978592591,  1.865072363545648, 85.425481846921997,  4.179872269611941
