BANDS
8 8
NANOPARTICLES
cell(1), 19.066
cell(2), 19.066
cell(3), 119.165
 9.778043012935099, 12.107029599493590, 22.968127138417600,  4.075582123152102
 9.432058273086003, 15.342934935950092, 25.232113418251650,  3.824874331388107
15.262673415869111,  8.182692819172603, 76.316772617212337,  3.782043432627517
13.042136224437213, 14.984845966287923, 118.081199818185141,  3.710339291092985
 3.436004950311931,  2.797687720800392, 39.302412172815792,  3.946684712816277
 3.035000972324038,  7.626277266412193, 34.088451753636598,  3.776147100989752
16.226077183667492, 15.894589337066598, 73.297407554814555,  4.192066506860217
 8.579470717447370, 12.797404919568704, 19.207133771709866,  3.801273015952427
13.532699488061978, 16.554269893537960, 89.170392275656411,  4.264300825725076
11.500706312964759,  6.666979054072098, 37.968009288352313,  3.650370304106545
 0.049503496699002,  9.714863579967227, 58.395195831204305,  3.960056381199295
10.235622857086854, 12.015616304883480, 62.732846828708723,  3.805602692440236
10.252800671971107, 10.478684229936910, 12.989427719119600,  3.836036403229945
 6.739788788977177,  0.810467951415459, 79.726830887788765,  3.925523270362910
10.090078704238261,  0.569525710463688, 77.634304976066332,  3.968722845990456
11.740802653516051,  8.629480922538621, 41.194489135660113,  3.870067217704088
 3.574923400049502,  0.579197074879697, 92.449244647350426,  4.230075750311742
 8.879806611348283, 13.329804094720995, 87.338378578864820,  3.730709514792359
 2.520198328804663,  7.735216595611015, 30.221261350320347,  3.939310532075589
14.328414583091467,  8.400974983445524, 19.024336411462738,  3.687171961246931
 5.778166659900232, 15.453103930690563, 67.683291143928528,  4.206757096696282
18.778707545861508,  8.639644648243079, 81.847333691660012,  4.053012521273813
12.754513979386980,  2.037802972613615, 26.356992028903356,  3.748607753386735
 3.593863085245063,  4.543641344818078, 58.956770237061946,  4.054718664218789
17.244290174716305, 11.127696414313522, 37.841714299722234,  4.232124006698561
 4.278604317269996, 18.452420372796922, 82.713401032503484,  4.311487265262937
 5.417656504593122,  1.215178148649382, 15.309254217973375,  4.095358596420239
 8.199950715150585,  4.700478021564609, 20.903319885283995,  4.185348505338699
15.390989385248021, 14.346539318527965, 92.265019816581741,  4.114259495501615
14.597688562841149, 11.539280408787526, 117.544094495228819,  3.801629172366305
14.724928943388909,  1.449685984332805, 89.964386886981146,  4.054554414115837
 1.319981030377741, 11.728625255903356, 52.388808487726813,  4.470318925141745
 0.416009372902092,  5.820239111899237, 105.332043327650851,  4.078968859875019
 0.786428540549648,  1.601479701294394, 60.014347392711116,  3.995062929600592
13.490591648170593, 13.543570266609009, 61.181172069746999,  3.921952866174612
15.433911593720833, 17.784105285485467, 33.201966720122769,  4.089788056837717
14.736133188769271,  0.548233586513329, 102.555463552432897,  4.087025285025141
 0.402022613782981, 18.028461915080356, 24.873065508587722,  4.047825485927564
17.786912927975933, 16.134329168755894, 60.146267724100944,  4.075762143207540
13.040483439047211,  7.561126546897959, 94.055791892105276,  4.039515370273652
14.895093831851380,  8.012164154347118, 38.915864933176287,  3.836315988425062
 6.723011026676936, 16.712998344441008, 60.927969739855321,  4.262651599559944
 2.461319365624400,  1.012909022670343, 42.647000613872081,  3.690325032246228
15.821708166633695,  6.070644417624885, 96.782576061043514,  3.920227252401816
14.144933790222474,  5.224695018255579, 113.793864633088575,  4.170023061009050
 6.531775173210947, 11.712396043600334, 79.633096001372891,  4.183339345522779
16.032143338104014, 16.369190436392191, 113.196335023669562,  3.789555310015491
 4.201704890851935,  8.538025793306119, 68.789842238243040,  4.068697482253095
 1.195983934191371,  1.096190292548441, 89.126804010278676,  3.856285716749664
 8.619303361453136, 12.516933613850073, 108.954564392386700,  3.792099724406198
10.582858859695124, 14.552351871922397, 13.005286653435107,  4.065551875353208
 0.313912581680918,  3.354016377175084, 66.220519476929908,  3.615602396654627
 9.097542975942231, 14.485808930291963, 32.981516034684077,  3.680770236668494
 1.566802245747996,  3.704904617364823, 117.836121997341110,  4.081543590771847
 6.379418921449503, 15.851489675270129, 85.457794789064266,  4.305892158701468
12.843761015012390, 13.712446223079812, 26.557892728883985,  4.145367689628354
 5.101544638523697, 17.610876089689103, 43.955776466733255,  3.838294220664468
11.803725676766669,  2.482336434008651, 37.887480287695823,  4.067241021623907
 7.092418084407383, 18.308929571100105,  0.811105640397172,  4.098967433712745
 0.758862531718078, 13.549436265746989, 35.578582088930538,  4.031120214873008
10.078217063308484, 12.629600572963248, 97.742016051403596,  4.434845124726884
13.157095782155849,  1.235096551259848, 96.916693006613770,  3.795845888092624
 4.984361347078917, 14.343392332510986, 113.735809665204442,  4.106152122284753
 6.202809744245831,  9.891538997023716, 107.293822805249903,  4.001634773332383
18.692397540251527, 10.207398829390444, 22.673980578803082,  3.858353980271918
 2.860810168106617, 12.227130939461768, 14.660831929824042,  4.097499090950286
 2.161058808930942,  2.605289113228961, 49.614033072902551,  3.951433195486416
17.497922141141352,  8.643024277426772, 108.200134093726632,  3.885412484904061
11.798604179791184, 15.740855551073816, 50.143016761466697,  3.874556713236222
 1.240790479782054, 10.193754414898581, 48.433028397070657,  3.996716043479049
16.695943385832511, 13.091551381923448, 20.920430247296132,  3.708641639584069
11.837020495080397, 18.524355670044017, 47.033024615609570,  4.283934281904474
11.442063012542704,  7.813008592504590, 66.897120889928246,  4.203521819606870
14.887240018296870,  9.124228823909489, 114.588175938421202,  3.834082679748239
 1.381704454766598,  3.742198072586580, 12.164853345434549,  3.671052306073087
17.074679091347409, 16.211110077734201, 46.867850940969291,  3.999683219832824
 7.003016177597904, 12.440670933115710, 70.020454338794963,  3.666393848850139
17.460382357429602,  7.681076750885003, 112.044574089516189,  3.951810954210490
15.653523662701057, 11.971485507396000, 75.295361758776693,  3.946432831997566
17.593978180457320,  8.878729392266647,  7.324601380566066,  3.603631151743449
 4.281049985061842,  9.361205130572023, 77.382789290831397,  3.730173256744282
 3.533641081684497,  9.455336680568299, 81.275638670893940,  3.818441618062759
 6.807647651575867,  9.244347516225652, 36.489686151555482,  3.934481208093920
13.542583214057807, 15.599038250974706, 82.070382047607737,  3.571222955748898
 7.538448243235909,  3.434158908296411, 38.320607877711524,  4.265978029789086
15.582493144129154, 17.871513137279031, 50.316738157621423,  4.073074219643211
16.754338499832713, 13.884823762426507, 33.025880028993512,  3.974616713416114
13.531030992803982, 11.038005861766450, 21.763352461055746,  4.002965604948214
15.408779292090458,  6.582473320245333, 117.265899969995147,  3.581797177138232
13.425770976726909, 12.620754146005606, 78.545784144753938,  4.011159331589304
12.423088715840231, 17.746201913122523,  5.935445893188945,  4.272577370015044
15.200675481198054, 11.800865781122550, 17.411325732034641,  3.972376020737252
 3.971396338803090,  8.767206188045106, 16.628219339285426,  4.113222417863480
17.621047296419885,  9.634273524476887, 64.475823986652273,  4.084337989635029
 3.029777627476553, 11.372465105527832, 24.283670579984619,  3.997454317310388
12.260716935284840,  6.584348645040136, 85.699440545559028,  3.892224005174736
 2.947168799163924,  9.660180472133588, 20.686481159172434,  3.918255537216456
 2.484185632552138, 10.107544259231561, 89.219351944274820,  4.147008170220293
 8.227711572812881,  7.072990971487441, 11.572665372267783,  4.271333549716604
14.833794485211127,  3.887707854010880, 56.070797784650438,  3.995205235835481
10.393263691127368, 12.447183238651593,  9.613165247026302,  3.924878153142763
14.506330510361995,  3.607052067085230, 93.686294876370965,  4.377224947156273
 5.974360339051971,  6.172240605398331, 115.449786605849596,  4.217377143196990
12.813113132818597, 13.694283308495605, 33.150936981314203,  3.893666735966473
15.607212924550661, 11.370457779814094, 28.471677330368355,  4.001777363641096
 7.430600180013371,  2.173365577978244, 104.857963486223824,  3.987440332245815
14.717621068367952,  6.796582305821231, 90.483326243240867,  3.962217004379547
 0.567752433426603,  7.436037590214142, 75.009487853692264,  3.957966991630157
18.470316526422213, 14.815696902484703, 79.746662357494714,  3.532049968310847
18.868140436232178,  5.255194986581210, 28.333790039246043,  3.757733107388100
17.405443850987499,  2.061483755521929, 48.894429695948581,  3.832980390853853
15.290031556536052,  2.670169781672369, 117.141504905509848,  4.210002315938065
 6.411183837993994,  6.451795775912265, 97.832079239470517,  3.601762776577529
 1.775103653765360,  2.181403894819097, 56.036288534906745,  4.177993725966477
 9.932492144379077,  4.857083448947994, 35.040300879162011,  3.839338018978945
17.916661684331078, 17.733475557597490, 43.084862194734271,  3.993969126593451
13.869559479191482, 11.141233378734878, 67.915887192861192,  4.124092062764928
 4.400613519001859, 17.745673505195217, 98.961432879652349,  3.916314776361146
 6.354220472731281, 12.875244303570890, 35.578747722609862,  3.604157277945192
 6.270194743406625, 17.354454332830358, 53.286436791306834,  3.928574196520135
 8.337298385812030,  5.900640908577720, 73.930605361872040,  4.077888488572333
 4.362088582762962, 14.045410434763719, 82.242111334765639,  3.936125723344098
13.961831209031697, 13.507491770373075, 99.646625166639296,  4.297018800796697
17.907819731369699, 10.232393413049103, 68.629619225900825,  4.246488911571215
 6.495140737472386,  9.959800495616408, 47.535631271096754,  3.935098889542053
15.518962667691266,  7.546960314978262, 22.755433237521284,  4.215172913751883
 6.674302716044660, 12.368420823799903, 101.114388678495033,  3.900860469103010
 2.086487886369080, 15.177609213246555, 11.121928271083917,  4.121020404234867
 3.558364046412354,  7.477860562652183, 46.622491703813765,  3.915916488896432
15.617816475693601,  7.102384105717903, 66.994891747486761,  4.084273175239812
 1.777139859442891, 18.451231947101498, 105.196963104871742,  4.089281548451253
 0.142065122131163, 17.924956436214313, 76.836048781340764,  3.871375683459198
18.647706265276220, 10.391987152165541, 33.533772512525800,  3.844376307137224
 6.704742615948027,  1.285759696169414, 108.905159439490859,  4.367655538208676
12.688195085969690,  9.815936443757080, 25.455749211909506,  3.934839277091224
 9.930167890624974,  1.971376221883478, 54.032842222774029,  4.123270483565255
13.190093717637161, 17.906409881805594, 19.977180964941699,  4.081496774345736
16.145247702686884,  9.693040616367679, 101.093684363576330,  3.938327288921962
 3.816456904059567,  0.823946484431943, 62.232748996622398,  3.574343428946697
 5.895728100236009, 12.419739616865813, 53.146054491846172,  4.179964844449922
12.230303296940164,  6.495423418619825, 13.001320562076486,  4.042962088354076
16.931519313262790, 19.022503011731668, 96.715471677599965,  4.058424782179199
 9.836559397323784, 15.876337907523077, 21.311019411737014,  3.983786004530118
 7.385576139391111, 11.908830643328796, 30.570382716541669,  4.088087323591322
13.577953524680483,  6.447586806814996, 100.248687796428015,  4.290649985323966
 7.255724418740025, 13.736761860911372,  7.374306159255612,  4.201080345625859
 0.647891701966962, 14.635186123901713, 104.840234864700619,  3.809354674221340
13.324009104638423,  8.103102595962305, 29.208388936509188,  4.082593311537552
15.355412900591311, 17.582411851360771, 39.760934542427087,  3.883347205748079
 1.712997950041738, 17.870123712196424, 46.133788787293255,  4.188249965798347
17.624527283504595,  6.741753028678259, 93.265884336413620,  4.075324834809471
12.071024431757806,  1.843523101903835, 58.371919765534571,  4.158308602407781
 9.159340268804238, 16.626066913420761,  9.741733297617930,  4.128416563661037
17.609871570559950, 16.810548653828437, 21.585993272762472,  3.873506674886392
 2.948255850186194,  0.611087434922136, 66.383127969429609,  3.982093149329917
 5.977227676570780,  3.621671341658408, 64.142143488869493,  4.419724243868449
 2.624048339508393, 18.633525600801569, 28.328240319670957,  4.145454611634320
18.191583762346269,  5.300616956204113, 115.109191086516645,  3.873584292638946
 4.009128555243609, 15.584460788692940, 34.430865386008406,  3.855723320325513
16.317158408884193, 18.805625509352435, 109.968293602326440,  4.073263633424242
 7.299624439262064,  9.946438223881204,  0.683190689316345,  4.087307992393879
 5.311362870274441,  9.762554197659234,  6.065153973183591,  3.954438020828168
 9.745502009611211,  1.911604792757619,  6.763337829886589,  4.137962879241166
16.229880390753085, 13.425845054867692, 88.343257165322484,  4.101179449640188
 7.726631500649493,  0.988398411758553, 85.000298743743386,  4.531636214849828
19.064794512350534,  9.082405359542717, 15.195683813573803,  4.341723288081588
14.887694812159845, 14.958823460658799, 42.860975926982746,  4.113644441710127
13.931522865763176, 18.653648254311538, 84.184029139801964,  3.858678818160949
 1.061140759724464,  0.319444588679819, 111.258540368431071,  4.024987163406858
 0.413233741911234,  1.408897097710425, 34.849651241512994,  4.176652298740467
 1.037712703145460, 15.843376630742535, 83.104477206438077,  3.797408878509345
19.017464457130188,  6.072843583946938, 46.890841949467955,  3.839945900689490
 1.116557140423748, 12.133685219402269, 82.613739718392267,  3.593156190223398
 4.843992969874016,  5.689830143044836, 83.675673950949090,  4.488935234685124
 3.747649050817994,  0.581916678639134, 77.057804001277290,  4.097905281231907
12.349864442786899, 16.994866790415077, 114.762864683697231,  4.143625390789062
12.245742321956133, 17.654726612912345, 36.463940448336935,  4.216571442700373
14.021532114487108, 15.192702977106006, 22.889675990424784,  4.045609231942088
 4.201175794691411, 10.862577708979586, 103.864007872471390,  3.972634911090535
 4.248482131382866, 16.915554942362032, 25.026822044049919,  3.955467979000239
 1.592346379723611, 13.276417059123958, 59.432943280438231,  3.665966476425183
 1.085908032506652, 16.037741531328098, 73.136760565008601,  3.606485407630047
 4.319926468071645,  7.108710894362158, 109.664825085048179,  4.126605973739180
 6.632452793567199,  4.321812261359787, 111.815673199560408,  3.998950726151248
12.639376607721458,  6.806423332583187, 48.070895862485514,  3.706050791709117
17.929115742217448, 14.541213685018928, 40.084071902778803,  4.028569054109014
12.081052498269441,  0.398630844809535,  9.720070180579173,  3.901323370920016
 2.267877475434283,  4.007911123855330, 102.157294504982602,  3.797183951593117
 8.438176038395676,  5.221352685829576, 86.247347957616071,  4.192038679202730
16.688164578305400,  0.737794423013753, 74.421888115924375,  3.986256748421753
 2.572272610589596, 12.614067470197348, 78.851351034008303,  3.963720102212251
 9.168139980836401, 16.871269198235858, 88.916034467135873,  4.034055501239465
16.889714250529007, 11.329039196810106,  4.173566824925388,  3.768739327389241
 3.046135170228083, 15.830362672032086, 90.823646245506438,  4.121954480362797
16.473726643990361, 15.489765998987018, 84.831236587094608,  4.054713118687899
 3.831723430788000, 13.404116153803658, 107.086491079301183,  4.226926639242160
 7.547099131153539, 14.453379783594022, 50.177320110500823,  3.610583438411234
 1.724537288788630,  5.978811364380917, 98.788555137125499,  4.070581323377161
10.002996169170508,  2.342699797988698, 41.495323914352383,  3.924618706643996
 0.145595985450961,  9.264082149496851, 44.714598076790701,  3.894445863607607
18.252306542426279, 11.327263394733388,  0.320990394109836,  4.140606081298066
14.259248457057277,  4.853613376513414, 35.808050955336064,  3.825265340560887
 2.756508788921778, 18.304378702631627, 21.534363989775095,  4.080099285403760
 7.751185556684326,  5.072769872033241, 52.541654096393572,  4.003638846309946
 4.604420193538836,  6.890534846713726, 22.841074966714530,  3.748576802653418
 1.398137363856141, 14.423349329178661, 26.720246223689461,  4.180273835131542
 7.765147831722699,  1.176527797733426, 11.205145420557116,  4.149822844202427
16.964997078428343,  0.856811741855820, 27.794420313429132,  4.011486048121181
 9.267248274694049, 17.935618245771852, 57.736931746886412,  4.103690723633926
 3.786507413622372, 14.136634538043172, 38.250937699667013,  4.085592806012477
 4.747015800501853, 14.052181020687840, 42.282885820661015,  4.037278293760743
 0.756764698143198, 16.446213965846912, 18.365906967558473,  3.963940589984088
15.348833722098986,  6.509450453693191, 32.249996208077405,  3.715312057867602
10.582708171867452, 16.022989343725907, 62.109608305852696,  3.910804193859900
10.331175462044609, 14.020738655853668, 101.860760697103217,  4.222363430795436
 6.390775236922596,  7.242995602636015, 79.817267161035062,  3.946033929727898
17.980799759326281,  0.433798964586345, 53.837267364551309,  3.711222766313396
13.460990267621487,  5.561514170967202, 63.898594982907170,  4.015072763268638
15.986249626129919, 13.608157252285702, 105.745400668265347,  3.967162791963533
 9.692493619070397, 12.581107530219219, 77.189843710755198,  3.931618496470609
14.855777934737441,  4.416738513037660, 28.971856468172309,  3.902867842981792
17.243682132225679,  0.031792618836277, 86.569150090492570,  4.010931518450422
 8.980263754639767,  2.410665278039865, 71.691054569253026,  3.893229608640522
 4.652102978257864, 12.605250789983421, 18.518775026494890,  4.114971585768878
 2.932182505180695,  5.912125909923885, 19.352805112468243,  4.036976130148422
12.446188141474520,  7.959587136889441, 104.002187627460259,  4.096891913941988
11.748419124408148, 12.780896651527575, 90.083199327942140,  4.223442250802115
13.932064955766087,  9.878022463354650, 87.709106839317798,  4.446555780642700
 4.077194847926395, 16.577522628725355, 64.036162533282024,  3.905155243603400
 8.253261708748852, 12.192066745147075, 112.795796147426344,  3.868722851412241
 9.034394922246754, 18.588528867765358, 38.815739396748626,  3.926751051932778
 9.584868690511572,  5.963268552829048, 43.121439806559749,  3.956751732703036
18.295955310241485, 16.449730561612132, 29.512985770687610,  3.911850040668899
 6.146619391935980, 17.712757301013127, 105.907097769102521,  3.693314401825660
17.394885424359146, 17.883516441934290, 66.729767040881597,  4.235575909428728
 6.444474836011912,  5.671068123128014, 70.448013557836020,  3.833767547494681
 6.988997546121904, 10.392488232958415,  9.603779200472474,  3.834102177939548
 7.108953156440344, 17.422182132760518, 92.460408060341493,  4.099027388317745
15.864725844365211, 15.740680255369940, 56.525898164817335,  4.140988253557877
11.537911356242509,  0.603522623774781, 87.285694972818476,  3.974096430611241
 7.278339609722829,  5.948542814961605, 46.249097417919472,  3.706631032388634
 7.137062024151131,  7.043717320997181,  3.420602439851765,  3.869849527907592
12.709644420773504, 13.867198156042408, 65.126572973329289,  3.967886893944645
12.451007520534548, 17.916591342871275, 110.765192218341468,  4.018806097887236
 5.758088417224641, 15.261765120626238, 21.586792368136226,  4.244575420772515
 5.582638380037952, 10.918080443537269, 39.996621731537225,  3.803601703031473
 3.548961662615316,  3.088254591257521, 106.301912539959943,  4.397256440330553
 5.368360431587567, 18.565641611264883, 88.683585883746645,  4.233676958806781
11.602184702838185, 13.677750813213830,  6.041547870016998,  3.978678534563042
 9.160612771252341,  7.255477883509743, 49.521319384259279,  3.871665579388844
16.352695383931689,  4.729136553989852,  1.386659036093509,  3.949080931010948
16.098928160154014,  5.667431762350162, 49.400753559533022,  3.884304311373599
 9.795625558621291, 17.594402372197539, 104.438490596306110,  4.161683558792540
 7.049201213246041,  5.630356460972052, 25.450784844837116,  3.722416365658502
 7.542805427507342, 11.864701009060251, 83.805954332341798,  4.371572774168895
 8.078917218919679,  8.977825374800872, 76.538221067702281,  3.953957497196594
12.852999301392090,  2.830788594184517, 14.258213234804428,  3.650127796121222
 4.947666183888376,  6.915954969067584, 104.822678319502671,  4.120004252613659
 0.450702176105441, 18.127358176676566, 49.998428313666672,  3.821581404048760
17.990035343904260, 13.081981822085510, 14.770783873831803,  3.962392318345807
14.909829927259951,  3.041108031781022, 82.170132515304886,  4.359876859102913
15.503789368619140,  7.672182251677932, 10.200630269506979,  3.864877660063478
15.677271747833661,  4.550241126403032, 45.665590465287401,  3.839568043298703
17.732687780178903, 17.066835746700296, 14.988198707519562,  4.023641150418743
 7.939228218737285,  5.927107287079994, 90.323452792445423,  3.914782099615995
11.466268006370946, 17.400703724573720, 32.453758530777023,  3.873923558186700
12.702399200611104,  6.685770412071183, 73.915920795654827,  3.392386372869773
18.218548735916112, 16.737058780476826, 89.689456171588716,  4.032423746440674
 1.624490487925658,  0.912608161284799, 73.512573328822953,  4.145026289501980
10.362286881065559,  3.097358930710957, 64.179686580823670,  3.771279300307198
12.519215589316193,  9.489248785004515, 71.398480690025409,  4.001244520334260
18.691513788789397,  1.333131590092288, 115.028591629926481,  4.117602335078316
 0.852922301487061, 14.042616874392175,  3.145464517251708,  4.256134734262332
18.592227702486280, 18.933234631515312, 11.543674967703176,  3.970049023684615
 3.048857606483399, 15.232697270491645, 53.946215857923853,  3.890461188174043
 6.012574935971931,  6.038439426587575, 56.061914325756518,  3.984642142475246
 5.698891449274138,  1.175313272990650,  6.688359124216523,  3.812600554718931
18.315715582589998,  7.892826763245951, 19.323081043038208,  4.305165848645854
 6.404463586904431,  9.518099891821684, 25.344651985038876,  3.986859661251207
14.738246385419654,  1.471515066698718, 106.590372711376702,  4.126571101924988
 9.228020107269399,  2.283616555594741, 118.617813726486517,  3.803441628251952
13.339478006146727,  2.278245244940304, 61.972546178368297,  3.445407154869323
12.256916631591569, 14.276489778411422, 74.421181614036271,  4.339698417238015
12.636049472351397, 13.999644577396161, 19.407184124547509,  3.755948216921515
13.391756537455116, 11.793516967227541, 103.325474532831095,  3.877313374980186
12.946235076096638, 18.410659895896071, 75.141872661758583,  3.996747884342702
12.322658661219180,  7.766004814432623, 34.199965280796292,  3.870798281489555
 4.054288745020189,  3.548442197006233, 45.389017430914528,  4.321862433789622
 9.992154629545015,  1.079981645505984, 67.944071591235598,  3.889915038845621
12.465437463866399,  5.780370255362655, 25.050136654400159,  4.183630198350413
 1.280800966845353, 13.720250366465860, 86.860711004831487,  4.147644110207055
16.662251504338982,  9.677208260422157, 50.550866127812853,  4.472012235999896
 5.371944239484515,  8.704948688598243, 51.237074902215134,  4.116351350480142
10.233336162123051, 10.193581324610378, 38.053796848853310,  3.767295982551982
17.168047121570822, 18.099702884058839, 81.579007764102812,  4.166486498692717
 8.121001316131842,  7.386546182457085, 39.716746420532260,  3.935545465007745
 1.705541886783934,  6.980655140310764, 78.861784269891302,  3.802274585613249
16.391648644218886,  7.742910089114919, 26.700588516128601,  3.854521617943949
 9.567441736834519, 13.581644535433435, 59.116522188675752,  4.046787986276254
13.848812461232656,  2.355617119565988,  6.883214000854402,  3.710539224656019
 0.018374790397393,  5.620791238573994, 32.645287661851079,  3.984203619787703
 8.355991412068207,  8.911869599638871, 69.445721950343099,  3.922038202459586
 9.714912842025903,  1.671816462345320, 111.886700689697534,  4.112727942527575
11.031718436779535,  8.483468263171581, 90.614587949549090,  4.088687052177343
16.320160443721637,  4.988248574004675, 107.483204121817010,  3.739620267705658
 1.978949630470448,  3.876061053883234, 62.973023925512571,  3.683936307107210
 2.231010034922360,  9.109783096930835, 106.832676566958085,  3.931780048369150
17.613526287275572,  4.218715247068510, 89.947766003885107,  3.821746378194431
 4.183323898324108,  6.909189526563659, 62.329100073462008,  3.889018418456372
 5.099001169108050,  7.327498701649404, 87.629731518929532,  4.062373671382813
11.302311221892754,  2.280300729374535, 103.837159397199116,  4.000974784958009
 2.367107390536141,  7.004708806277439, 113.367367185341976,  4.167196757623287
 1.447560256553170,  2.427206007515940, 69.751201514800698,  3.902034926395347
 4.449045464655752,  4.234346868617782, 94.798093786257041,  3.707002829770940
19.020059248669330, 10.569068028517050, 26.627841772083148,  3.844768923067579
 3.880649158530450, 16.328285704232663, 94.987115567867107,  4.042825522397132
 6.363885412465910,  5.084740550597524, 17.265072312216045,  3.972086786461962
 9.938300060137262, 12.992827794064922, 47.593418945195822,  3.994441252735525
 8.630460363169799,  1.148765599866636, 35.057045583607007,  3.995017080486164
11.218732360520823,  3.161567950672124, 74.882657525292615,  3.892514705002998
 4.250705555472736,  6.738121405950291, 38.590283912733121,  4.124105846226815
 6.090642030693107, 11.343764973737679, 21.975577875110524,  3.643867988875337
 8.609070253904678, 18.133871399324999, 49.806984642933330,  4.012648068762599
11.538652879073556,  2.804652469697780, 99.951153368132765,  3.762845631593357
 3.413703513359176, 13.861161006506022,  7.711202552060644,  3.513970045749058
 6.081322968569498,  5.647193288405896, 35.208005870946998,  3.799368185647188
16.317294408569207, 14.883620517820848,  1.032519204077804,  3.995273398833081
12.185951716038140,  8.523450086132661, 117.323093741528112,  3.867778246703216
10.067600121627688, 15.053769246262224, 29.269048177057975,  4.061060487508869
14.884690311874161, 12.008294005310116, 57.806911146835048,  3.950576410442506
13.536999359357614,  0.878768213535203, 30.230187203343796,  3.992337096364905
 3.428799353726504,  2.847365581222293, 114.260771658173738,  4.154806429110299
11.647260091899955, 18.189300970314548, 23.928709810444207,  3.796024815369973
 7.585333219904827, 13.987942331053356, 105.130538136974664,  4.295717290974103
18.970586258007298, 12.402640780575325, 108.250596639530826,  4.168796714567279
 6.022769817792415,  1.688961356568534, 51.289531493567743,  3.923906113533585
14.952052235337085, 18.251535135697409,  2.747234239331585,  3.893632936028423
18.852573178375337,  1.958464092585381, 107.829685093687957,  3.889048477225289
 4.269975221185634,  7.181638737859493,  8.994064949762954,  4.063637989931325
 2.655288162356437,  7.927572222250716,  3.618694180879668,  4.120379697655469
18.572565595210889, 14.559109187162930,  7.702160645232007,  4.321221960752005
18.969539052105578, 16.457347865388975, 108.140313435059397,  3.852475978616835
14.718864848786554, 12.914806952023561, 114.022828307410379,  3.749288453421634
16.853197799610594,  5.968175684289188, 79.251003333898723,  4.208641491591308
 6.937497639275524, 13.697161545957002, 94.979956465767927,  3.981134374015312
 7.941775998377984, 16.212786437346008, 46.334288141294245,  3.944569396916806
10.853841384093030, 13.113314186404169, 53.118699187542326,  4.220270738925011
 3.141034103866922, 17.756015954407030, 70.136521440238269,  4.306189243160975
 1.824072459300894, 10.219023371048786, 62.027301721692027,  4.135575133876936
10.560427341504958,  9.491832949388586, 19.467208555863298,  3.906421278239622
 0.031244404495431,  7.326302075333071,  0.139061343197922,  3.972732768010701
11.413163359763196, 15.991613322121806, 78.194423031404980,  3.854237845952846
11.142499756540495, 13.187432759101679, 115.131236965266183,  3.747422758544521
 7.207661599596140, 16.891752116794823, 13.527573048094673,  4.020917781699898
14.028452753096188, 18.446782492021295, 16.163798690017916,  3.736920447331132
 4.405658934336128,  5.707311858973462,  0.749631227727759,  3.930237915649644
18.018930659392549,  1.166868504773058, 92.669856755493086,  4.359861003460860
 7.949783462010891,  1.104133372914050, 100.131791076743013,  4.178309558872185
 9.851937424981829, 19.015621490467211, 95.033499588709034,  3.814887885350879
16.791133611994720, 11.354220622572631, 42.322412810975607,  4.049331526326379
13.424542778965842, 18.816751067066942, 80.046995166521214,  4.001799617971739
 8.029827343245771, 14.773754893232368, 55.639384518549612,  3.872105154139715
15.504785268324676, 19.007127272151312, 24.124271993937175,  3.963854960435961
 6.246029638310203, 13.078455444094033, 117.453237619433565,  4.055587738584771
 2.721142970489859, 10.919805739335741, 10.462246885571322,  4.526823344791839
13.743420413128659, 17.342047105962067, 59.699937559184228,  4.135919940692665
 5.968315324304096,  1.470269287194054, 19.424514231752248,  4.184027887921826
11.161739807392795,  6.105826892666002, 55.246023799509850,  4.288997351021716
 0.382748022014127,  1.150376718000224, 100.036690440902191,  4.043422857044012
11.749899550283326,  8.777221427566236,  9.754924298397187,  3.902587302715276
 4.577431968831233, 12.881487702491423, 63.124792269145452,  3.757385666076315
 8.514242137987615,  8.699393431040960, 53.754830096777447,  3.683052299412814
16.589756445363285,  1.919544669169099, 14.664887735158111,  3.937691704368284
13.065141143593470,  6.970653910847502, 44.390428114427017,  3.690175005685461
 7.669925802792521, 18.593414902301021, 64.775074935194539,  4.431672196199986
 9.021241135188570, 10.701312301699700, 72.912544292045922,  3.973500017414019
12.412054954002778,  5.699818891825947, 59.904538203363991,  4.122656915610408
16.657418014775924,  1.784052276955941, 78.420942314160598,  4.269984057280519
18.215760704003355,  2.238615136541888, 103.803991115696377,  4.038261110299880
16.578745758627214,  8.987941205986706, 72.535890347906161,  4.345775358949086
 1.392182618745138,  1.042678296823790, 14.877516072117306,  3.976474959920873
11.304301541703389,  9.826129830817020, 100.622200473000049,  3.885407589406395
 7.712450382528546, 17.937295698671807, 70.351674395729688,  4.015243612480691
 3.664615149218923,  4.048841975444844, 32.132644117988349,  3.969440120482629
 7.561532754391853, 16.462210267524210, 35.863465669513360,  3.915716129653608
 4.002702256627765, 16.282004037350593, 50.131906822139285,  4.126621516539256
 9.719882312407835,  7.836921956471606, 27.009815339913057,  3.672189165148586
13.643770287104561, 11.923547333046159, 11.710449979154278,  3.853364004845977
 8.616114011073643,  9.612491471680299, 115.887454108375209,  4.078628809531605
14.587700901905150, 10.470548909116207, 91.784874288526794,  3.802763187451401
14.198266043878434, 18.248805887306016, 93.521824539184962,  4.396682082633512
10.709505110476620, 16.238617461431801, 16.780624790793674,  4.119709641318449
 7.753992145505118,  4.995301264880799, 31.626818648239897,  4.174399896835259
 1.038578410424652,  4.313500746019572,  2.644944395938317,  3.975726357476939
 7.605856900086183, 18.319503178575761, 23.655341617764027,  3.804528145041019
16.733037658820731,  6.731588897087645, 87.028358537177496,  4.028611595769832
 7.601042579646998, 14.949858695790015, 39.577829085883359,  4.023321728367416
18.917407431619541,  0.816484060223031, 39.524489192684406,  4.190074111417323
14.877180791237226,  3.232310305514059, 10.698601475214431,  4.291754089587652
 1.904321172540481, 13.068685091625149, 101.305299170503275,  4.108410742672052
15.435778826484624, 13.772372021694128, 49.927669335284726,  4.049678581332241
17.815346431221784, 10.554483682958718, 85.682435697230360,  4.288067149420413
14.338175517670459, 14.844420651794669, 14.610470853415082,  4.105355017449035
17.101791833599464, 15.171961997507525, 11.544221110690032,  3.927066728584463
17.137075172442543,  2.476188200176588,  4.554805659164109,  3.959933311688096
 0.260475651977920,  6.705262096856771,  9.943984531998744,  3.959311725735498
13.515272724674453,  9.981599580972885, 63.913643640505654,  4.232788896639767
11.359795437075155, 12.269025878661772, 16.226291089501768,  3.883802704928430
 1.408979135746358, 17.165856193608267, 37.008231520022925,  3.801502344856440
10.000447642365854, 11.234727810620251, 93.619006674600854,  4.246783323811697
 8.613644219298921, 10.903564920461976, 50.629205674218127,  3.792230992683745
17.420776588329435, 13.843515189049194, 116.481176720174147,  3.788659645344997
16.152871111099479,  2.711074479535479, 32.809155623468349,  3.996953148024472
11.818687330789219,  5.069579763434445, 31.417160120538867,  3.902596110914990
 7.466317062651163,  6.413253651809568, 94.129135441191949,  3.806155168793025
 1.576281726128993,  6.275876608518492, 89.050982032588820,  3.705322330432542
 6.113080948379480, 12.310830863569908, 75.380380304921559,  4.085330601599990
16.187110189938355, 17.620273661395462, 116.998084101692655,  4.220280450921783
16.117985235439367, 12.270047740559557, 81.911914701239539,  4.630012604961824
 9.395919242412729, 11.606319368054491, 27.101126123697100,  3.882047847894269
 7.357242968165795, 12.554684707189471, 44.702056459002584,  3.584530253466259
13.399134988329047, 14.671202048497870, 46.581694775140626,  3.911464167227777
 1.532775216656578,  9.317913000241894, 71.656320321838351,  3.873617152224628
11.386455217113822, 13.199415749091751, 106.430881406678978,  3.819120780404500
 5.362708619242440,  0.164297898738632, 47.604146900581782,  4.094067434920597
 5.255602009666488, 16.921796195737347,  8.869048185370305,  3.872712019568151
14.798438496847300,  5.770909248976194, 70.679335590668856,  3.835884161217767
18.990923642323928,  3.942496719944731, 95.800078528712518,  3.908497872480367
18.687693396010754, 12.880964878818689, 56.080421332358270,  3.918795546849976
 7.249142558085270, 17.696501010033597, 32.146149481626658,  3.903308826396208
 1.581028981414251,  4.331038859521118, 92.313689835674424,  3.845078981656219
11.452059070085960,  2.330861309892006, 115.488925504761767,  3.775906562358591
 4.641252144627408,  5.556943576022495, 76.048631083567585,  4.172229067477099
10.362328466257381, 16.721440433387972, 84.027329513309169,  4.176787210765463
17.471488207493039,  5.589046764347933, 63.772153450845977,  3.921676094172962
18.320608843898260,  4.481414343613923, 17.055271316387714,  3.862073869228862
 9.455772248237313,  8.031771826598016, 23.063871082451563,  4.098894698642054
 2.733006818985062,  8.177571071474912, 54.577921788996520,  4.336571784488872
 6.016300890087395,  1.650270134130593, 29.741102694465688,  4.180642667453996
 0.666857667222293,  0.790081529793450, 83.842745868048766,  3.491102744168545
12.250872148649099, 16.312420674454771, 96.930679920383611,  4.213883708077881
15.217618791554543, 10.934022128382885, 110.791910892815267,  3.864564987740476
14.746321337489547,  4.529413480274173, 103.809161874403472,  4.117903024056740
15.882191002159900,  8.322496040298775, 46.567925866207041,  3.878915003141683
 7.191632078356437, 16.501869160666157, 101.434973490923383,  3.731466999705549
11.780988642780139, 13.818826292336118, 111.165243729481048,  4.307677980039145
16.354297845311088, 18.341920951932057,  7.891475815953677,  4.454570999930430
 1.685270330507384, 11.554395122561383, 40.922020890013826,  4.305578477670205
 5.889885783552558,  5.123091626101361, 42.047847691017516,  3.907860653774020
18.762848541916039,  9.297003293048734, 115.672021736271645,  4.161747125041378
18.862699239281767, 10.891970910403250, 104.296921186139159,  3.887409258265954
 2.719684970743697, 16.854523752199594, 60.375346539663489,  3.824827563331865
 9.853424955608665,  8.325572579841308, 96.820555281032284,  4.321343832635985
10.146343078962985,  5.880888256724642, 17.643633137991351,  3.749221042517405
 9.549175669358709,  2.828244144027638, 24.291091700461710,  4.012378339279888
 4.350391599818829,  2.801919080092154, 98.480890771457709,  4.192354039182386
14.724067961581442, 18.265753316081017, 12.368710116715951,  3.954959472121928
12.757505748591241, 13.735051364127081, 85.923891837261237,  4.357581112334325
 5.990658308894253,  1.907991177651839, 55.254134587985646,  4.012294651471725
 6.005363604099657,  0.365174216748644, 95.761118191705933,  3.610005277015752
 8.644749050871178,  9.893669744642207, 103.829927114020279,  4.423810116643922
18.632042581202111,  4.727539080375310, 52.813256617671684,  4.113214673895391
10.191397616822954,  7.630346351025037, 62.780116138913193,  3.926981803590859
12.131581977063012,  4.905661407155963, 96.787275253578755,  3.792767416406209
 4.426029514489488, 13.768361337856957, 98.132515364473505,  4.066278528091099
15.934387386142648,  4.147863439310782, 20.319588161788687,  4.145780534433438
12.381081564671396, 10.155459880955281, 83.408021370190681,  4.340401174457551
16.334543250322856,  2.367920861655071, 42.371768833591240,  4.096893016814215
 5.334296927505886,  1.864570188602525, 25.633693154788961,  4.118695128371964
 1.377231105520617,  0.978667266525922, 80.249085095296280,  3.761014233982475
12.045688703277477,  8.622516263897962, 16.195367687876089,  3.472819653392823
 3.764068664491444, 16.944645462640253,  4.974357971485541,  4.455776551546895
16.986634992929254, 17.349295174368528, 104.945721302295141,  3.858667116361361
10.403893096602291,  4.920455238845481,  3.997347118088463,  3.983501588967433
 9.300210131027169, 11.832028438046459, 41.494123760630053,  3.987839089233832
 8.898608681859901, 17.812408351264882, 42.802093599381088,  3.977841857608854
 0.612184385610777,  4.513792596686707, 82.255041167031521,  4.369306198574709
 4.931748746243158, 10.262803408565375, 114.471077356468598,  3.805998171446375
 9.966621839930008, 15.964243627125549, 67.300484405470385,  4.170760919120076
11.638530870455581, 11.529928338989393, 30.189644141339262,  3.725249422429819
 3.371679890299021,  3.394722731992600,  9.084669042796598,  3.678258516709050
 7.363899752370035, 13.115323693997052, 15.284504678716038,  4.301106703357656
 0.819476301361138, 15.990585930809607, 97.885489855928000,  4.260506084366785
 3.697849137378800,  2.171138628106129, 85.779983721558764,  3.981319975030969
 0.607635327211465,  6.208282162260075, 23.186868218814681,  4.345501075163602
 4.509293820930139,  0.735432294343358, 102.416304583347895,  4.092461210666929
13.610228043745167,  2.758479310122177,  3.155753805402286,  3.635639985606226
 3.221672204949439,  8.435608290643493, 117.343184446306807,  3.780381454249771
10.137166217455231, 17.063838121135223, 53.375127447544315,  3.804304224992710
 4.086317740728468, 15.656573026536424, 103.503743725383657,  3.823346721593263
 1.229106548375208,  9.613813627706108, 92.958752125504674,  3.780674157965718
18.689164952648984,  2.745585845207676,  8.847331563827401,  3.911671925626306
 0.098031024870600, 12.897399071675533, 91.108178651241246,  4.008967004541466
 2.855756657723064,  0.018374033543926, 52.794436570260181,  3.683070755986614
12.860900201119490,  3.990925295888368, 67.566205201996880,  4.050227790218546
17.116547310007153, 13.531706546024616, 65.998679236951105,  4.326207584921248
12.490845313965936,  9.498561424952550,  5.852522005145810,  4.059674884313353
 6.087144978060280, 15.197792445111221, 109.920474459023850,  3.822878308613429
 4.994604798403406,  2.161871087513731, 71.507286386343225,  4.004135261841778
 7.785764957865414, 14.505248133934552, 64.290286517862825,  3.787175441788593
16.100860610148434, 15.002941425931569, 96.433318949789452,  3.941106422072718
 8.322032196212273, 14.973707774267387, 73.062624275244502,  4.086914145319583
 0.790067985116689, 16.799388954095711, 101.821527446240694,  3.621357135147386
 9.366486643363356, 18.932869575343329, 27.470160963045636,  4.579030066302177
 7.316361574431657,  2.463121203140134, 92.751788757980947,  4.134856527555483
 3.622704157070627,  4.545715772389438, 28.171997565134550,  3.950630739148500
15.088147944453997,  9.063953746496230, 14.178125021810263,  3.852330224352389
16.428950299156277,  0.536176984491013, 61.613560174168107,  3.631483784887687
10.635457151477235, 14.555048693408423, 43.941431527016547,  3.713394559723405
 8.038016378806361,  2.105627367747136, 45.077335071546166,  4.167276505968915
 1.486314562717843, 11.005905656036722,  6.056987028901553,  4.064071877999599
 3.360292274164014, 18.949822312397316, 32.380141964219632,  4.072017278449218
11.729383544952254,  4.796521839550856, 51.310822629497757,  4.063504694768193
14.071155892660348,  6.322632459900042,  4.122399010066001,  3.774797443727948
10.227226134445290,  5.957692491654437, 115.018439865707521,  3.891068718773548
 2.213236293378479, 12.614118819122297, 116.375035673982467,  4.243693833290572
14.589407688528766, 15.141041865801707, 29.939980749821697,  3.957177904236933
10.752008212249518, 11.936697796766014, 118.821814681211237,  4.057003445235527
 1.893920820810314,  2.069831453587867, 18.767181901380500,  4.000555259199769
11.775802190315771,  7.080476532196635, 77.520645402925553,  3.780573395377782
 8.329761250817148,  3.960414331433456, 81.920073299725630,  4.002468921064581
11.450473835016473, 17.996717676342964, 100.664075072732999,  4.115339401089196
 6.048917938165608, 13.475271057513075, 25.776829211826097,  3.936754285954224
 0.745060308438698, 16.335261176506052, 118.648977757278530,  4.141843613505116
 5.800354810398534,  9.933398039091530, 13.244418032339450,  3.867749712008828
 0.805502222694354, 17.188411904270158, 56.699753929655785,  4.205604693353323
 7.494921517130463,  8.325077717024710, 112.048128257357831,  4.143389649802415
 4.999846907254524, 18.141752706412170, 38.530970641640693,  4.188859341985276
 7.919457683920820,  0.383505019492260, 115.371200948927225,  4.117286016942341
 7.450696307014955, 10.985916745053755, 56.754383018610973,  4.099413133482581
10.853062184654354, 18.670029804402365, 13.432392883268705,  4.073911480274162
 5.597461185248960, 11.533763672532835, 66.565150631958474,  3.869668099460242
16.081245003324216, 12.259611101988373, 24.664535840468805,  3.863676157379441
 3.435732622429352,  7.811144161200104, 95.657378729761675,  3.918239361168164
16.888767773078541,  4.491682963874148, 38.758902496306028,  4.049090388305246
 9.618100767945084, 11.598200288549464, 66.626532158673683,  4.122796097238214
 5.296041247342483,  8.756835449807422, 73.240939063712347,  4.335135474593477
14.608885907017928,  7.936962342315878, 57.068590625907895,  4.308628972381104
18.155129638718311,  0.957614409871139,  0.782332157073543,  4.335050225253108
 3.543129948670851, 11.695867469447171, 32.886960218033721,  4.502263331653753
14.256555258398610,  9.006458685577062, 79.907968470440906,  3.853225583307363
10.495495641606746,  5.663713243391229, 111.020032698994029,  4.133770572823193
12.313066405325278,  5.744679399612941,  7.422235613540434,  3.775448941068319
 3.743575844723852, 11.043762294134529, 44.837833342293834,  4.063663126663438
 4.064110862122300,  8.737406275413541, 58.656112640548002,  4.314400176808499
13.276705237065825, 15.462250442644152,  9.576835691413606,  4.414072932215933
 6.599416831781138,  8.282432514661259, 19.699796233950217,  4.011079827399890
17.546952404186040, 10.975300471054450, 11.347728373374567,  4.106015083581370
12.428698442422030, 18.933676942844848, 118.508952455312468,  4.218349889023605
15.593901298604285,  2.301864833264480, 65.095827621360456,  3.995535866018185
 9.838406618428506,  4.122685809969945, 28.110775373504296,  4.031985477161678
 3.335379266545101, 11.241166040824231,  1.082607386322202,  4.257278094852920
13.407214643919215,  2.783446437836905, 110.363173018137743,  4.076477755318717
 5.940475748075881, 13.762134199654385, 11.346518205155840,  3.999327496619232
10.591347486190344,  1.095472148962136, 107.506696835519762,  3.792694063315907
14.146028297284001,  9.768591467537220, 97.481503684324252,  4.317746473694102
 0.992297542338877, 16.314814598170148, 114.304246774242671,  4.548133887225608
 9.727447114821576,  0.832042030519053, 20.812214998390591,  3.913055336477857
 2.243365924267296, 17.564094751282713, 86.324532249041695,  3.826822841693047
 3.416957720757047, 11.942505618903839, 56.238085508457381,  3.789550740883931
11.925225548745574, 16.020303083125377,  2.374746667836737,  3.649274633029711
 3.629142566186776,  4.381042405164178, 53.005876518108614,  4.050448366534411
11.765909298692874,  6.225440433157637, 81.417258447330951,  4.197195862290939
18.964723929080456, 16.129321624926270, 93.727450213735864,  4.222733071339821
17.236966890470683,  5.708097551512292, 13.305421713933061,  4.183805375536910
 9.007167977417653,  3.871536088741566, 14.317288639059100,  4.298754811885861
 0.069286616597024, 12.338031907524387, 30.131473354101175,  4.002760242007509
17.082050518994620,  0.485324370195961, 18.541914790540336,  4.293806874857122
10.990080279829002,  0.791242547327479, 91.344171524432724,  3.993593006669134
17.216719279503650,  3.338520658918134, 111.674228575798523,  4.054570760232477
18.772857335499982,  8.723163384411221, 96.686594039512300,  3.929483902555424
17.590625805065812,  9.561930348407419, 89.610211739152220,  3.800608391466491
11.710139404673631,  4.298359070422457, 89.088065168677247,  4.179607167149884
13.029853953664702, 11.290707869066386, 44.111366406104388,  4.279311389306879
12.764572538333077,  3.435357012126929, 78.558299952929758,  4.035403484257817
 6.264945001701753,  1.468879825187297, 59.308051746502926,  4.085321078076423
 0.854474935945093, 14.464814641608994, 63.095670861943034,  3.887357498549162
 0.002984958132184,  3.569243244985158, 86.287806216307942,  3.967058805702284
 7.471983147520616, 16.246394975440406, 81.246820621131477,  3.900251584729030
10.083790410149643,  8.951105708456211, 46.028620100278559,  4.094266573471761
 1.895224118787033,  1.758804489742724,  5.676085538741565,  4.119997717155726
 1.548109120513497, 12.709746838047478, 95.394617362555991,  4.048392677791242
10.104170850342186,  9.700062824037188, 79.917779973122720,  4.035849104197219
16.610507644897254,  0.597642919284720, 57.721040576844480,  4.156527521366618
12.163323790961602, 10.223771220266380, 75.219280331473144,  3.799298579744772
14.289472561451760, 15.286842463017212, 68.543805652362707,  4.016596035761137
 1.372538148332066,  9.563145462220438, 110.549750212323005,  3.690030397999145
17.722455017454578,  9.262961653227322, 54.652913595190554,  4.005027661899217
12.306983053825977,  4.936568805048375,  0.094194906450510,  4.286857710482257
 9.687767058614517,  8.388726671559892, 30.722468510648905,  3.728853601610226
 2.822269698640647,  5.553396244447994, 72.065640218510055,  4.088973937923114
 4.272811997383936, 12.384943632784728, 49.527214363274375,  3.724530113072425
13.219279679490008, 10.724253702568626, 48.219119134620492,  4.008287808610656
13.705551989170059,  2.828518195017579, 48.438590465953922,  3.766280040270236
 4.368600869170723, 17.666292878770296, 116.808557536723725,  4.272023410105904
 3.448004935475407,  3.213651797330914, 22.260522168037291,  3.942767029217578
 0.454023605448674, 11.933508783607081, 18.398396322864169,  4.195268532499468
15.609844620075037,  1.121403612900426, 36.627065392639494,  4.173400781384117
12.041244191727293,  9.235435070255569, 51.889358501212932,  4.233685202992944
 8.372501047032779,  9.125882454098260, 16.202509986291961,  3.941855275232430
10.433923268946989, 13.549246483696315, 81.184460227775475,  4.039039186079981
 7.123391161563687,  4.315886803817446,  8.727733865342801,  3.947451365808617
 0.032888174741377,  2.459835812618961, 45.392121314448495,  3.974945985445489
13.886767301713624, 15.725124862901202, 103.127961071644606,  3.933704390142304
17.283398606827276, 12.138177046757814, 61.107848387358963,  4.161888955248592
 5.279120783018795,  5.074871473028627, 49.414396245664499,  3.951852011600854
 4.554329077549964,  3.627479967888076, 89.598466307825831,  4.319858426577183
 9.096407317457146,  5.706086389162719, 104.157051391801858,  3.920806520735315
 7.870865550220818, 13.721178137642829, 91.045157105546167,  3.964019003032275
 1.665002190565758, 14.252514936138470, 21.655505468435987,  4.130585181792731
 3.855062010618280, 12.275663450131237, 92.100743038801738,  3.552321156525801
11.643842485249472, 15.656670569026080, 40.221749809768731,  4.284435840014971
 6.681818739966189,  7.889741358103924, 65.321907083409002,  4.103900860847353
15.366560763332016, 14.841019269810833, 36.778598118665130,  4.206882751135123
 3.696567108895899,  0.349365868773273, 11.605222467623372,  4.143376769687171
 1.846469945037096,  7.456119735424644, 65.574416537486954,  3.974517797559384
 1.975055544642295, 12.575341741297869, 69.546959626767261,  3.779307287525346
16.404105053038478,  4.192784586555917, 59.999447106396836,  4.357932849998112
 8.459849520005728,  3.343862766109481, 96.654347753955832,  4.153814763657911
15.118607029136358,  2.606916491845175, 52.199904154509525,  4.176511830235762
14.836877610879988, 10.361821861465197, 32.297473085829381,  4.017634036077902
 4.300145180002722, 14.694901133980075, 46.432951139290992,  3.944798675000706
 4.345952438254534, 14.172197895854993, 72.219125012213425,  4.045192587169613
 0.538766222281566, 18.393939911252016, 63.301323771862641,  3.940692272573405
 8.759277269954381,  3.692247473315194, 57.323090437866831,  3.646999000897058
16.207210168349754,  5.326204927269591,  7.163693760799589,  3.890192572994744
 3.858505034937605,  4.709165079520070, 67.662582065949437,  3.940750758290741
11.904195070346582, 15.121978090368948, 56.403112202591366,  3.725696243266621
13.366180486499363, 12.196527686679538,  2.769772144879006,  4.004301992925516
 0.042686901068935,  6.152964837395968, 68.988788833515684,  4.133746813674207
16.389314456881880, 15.811998027631240, 26.149729646277233,  3.780125043978812
 6.144057617646901,  4.445298013809860, 101.806684683871751,  4.023691484608089
13.218978748341723,  4.835704532024157, 41.028670592095352,  4.259179506319047
 0.809305760631102, 14.112924542007830, 48.941323783773143,  3.950722412178121
 0.850574632700140,  5.578257879893260,  6.272026168110338,  3.687803420730817
15.550456506618326,  0.643601190641733, 45.865890966881466,  3.809566372066475
14.543098940127848,  5.665283940391783, 16.358518691658244,  3.959865482401953
14.586149613057648,  3.204669866278743, 86.337878458180214,  3.996385037347994
 3.364538042906373,  3.160000035961399, 110.290249482420265,  3.528845880827057
11.337284325960532, 10.261008262867877, 55.959842493731642,  3.880520659257009
 6.229482612988782,  7.537655058011258, 28.803820055308027,  3.986693838635916
15.172777378581207, 11.945186483289513,  7.889630022727860,  4.204520830609350
13.463398998393544, 18.835672488558828, 54.921061179807559,  4.303787350293197
15.384078973593272, 14.897564972130114,  4.990475287820778,  4.069233419850804
 4.955115098491365, 18.392554664603786, 112.498064278205902,  4.286135012490286
12.973227159412421, 18.748316179911377, 42.862235976472746,  4.269141621187100
 4.905104972664198, 17.167912903201287, 57.056976312122032,  4.000294935078773
 7.696569269764458,  5.333229104040453, 107.961276102770213,  4.145554933105600
 9.255601510712108, 15.905992034583909, 117.364353113078110,  4.200363122152984
15.787589794468584,  2.933536713352391, 99.317093460788669,  4.064454326551058
13.556072342584642, 11.940112750398619, 39.970375717279616,  4.013996696679001
 6.616704393806564, 16.687709302441860, 17.646149628828649,  4.293497490565139
14.106665471551132,  7.208481903302151, 109.906125496064703,  4.023709364370218
 9.228349324560005, 18.539068397326098, 74.102568300410809,  3.558918885834881
18.795306970250358, 14.108253075997363, 76.141557114421488,  3.832876346955215
13.668242312801313,  2.076845170554475, 71.816928838094270,  4.197963801473590
15.940609852738499, 15.638268604368513, 18.206202561795934,  3.834373885254101
 5.250904879850684, 17.808494189087369, 73.741429927238627,  3.999140864121603
 6.128125447187186, 10.042211158398018, 93.942929852674027,  3.783195947926868
 0.294070211462985,  7.802885522763336, 39.343581386639947,  4.196171234556137
12.184788224142739,  5.872188200433801, 20.912455936140702,  3.940969882820569
 8.314217345208808,  2.227013763186582, 88.931502482080376,  3.734590470355216
 6.077548990928706, 16.368720018387350, 28.562783290628193,  4.026082361099607
 1.241764728638320,  4.991613800304144, 36.526610391158030,  3.906472891910294
 0.279728567522963, 16.719342386267208, 33.358507048561059,  3.735067795492284
13.226968273458356, 12.876292764317219, 95.167368689271271,  3.600428120632519
17.248205893928951,  7.422164172402125, 35.718858717014889,  4.031581755903977
 6.247587627003545,  1.309994977220035, 41.604178901628700,  3.770207332419897
 2.914042975925140,  7.312639483698823, 12.825508064848050,  3.929992787676153
10.974721294404571,  8.546667680229286,  2.012719171877461,  4.186357454143052
 3.126311143926018,  7.921976228166339, 42.367498657448515,  3.980244995943967
14.050300928092691, 10.292712912170833, 107.010298507108033,  4.086861314364842
17.913790111840406, 18.673653720092446, 70.787101720592929,  4.010094972584549
 2.834066506001116,  7.919205845273217, 26.242166525627429,  3.951480702163176
16.428984512467846,  3.966833707361005, 25.040298480283866,  4.351035204815327
18.078473199046357, 15.527076566281959, 52.877505624189048,  4.396142136378306
13.267118453507862, 17.524996227803914, 27.232004912597002,  3.642354580897222
 9.400493487940100,  5.987408864133437, 100.174677028958925,  3.864052538986800
18.034768284081139, 14.907952496693184, 69.803133342737098,  3.760889261068604
 0.575769815711936,  5.555692898266364, 109.348171549207947,  3.920666260524778
 2.843284790838068,  4.595487289280170, 15.609446464584867,  3.831658955156835
 6.874232781388419,  9.896214850149940, 61.667612968840238,  4.208442081394972
12.117323708273188,  9.871152541115299, 59.952663206998636,  4.146800853188500
15.038835256561745,  6.612472204501744, 53.121816032698725,  4.022601508896001
 0.685545184086067, 14.057105913526813, 44.374707887691137,  4.444568830287351
 7.420231418014895, 16.292270192850999, 77.033938098777682,  4.431829447973325
 1.385726544666355,  2.711854947009390, 25.568176733274228,  3.826876668819599
 2.093418015271691, 16.690383001165323, 40.988589384220568,  3.880706087317241
16.530951631242122, 12.212757293936834, 46.368599561092971,  3.952474291288488
 8.615860102964016,  4.797484226915458, 67.276591042212118,  4.013134743503799
 9.524839605047196, 16.363523572516272, 108.356295478304204,  4.058876380359840
 3.386521630947703, 15.105146462670197, 75.900669219630913,  3.750739596146079
 1.680149018341421, 15.492661903914575, 66.980813058073750,  3.972814579206236
12.070176167011470,  0.431340808191168, 50.921085169329466,  3.718374969336961
11.354175244535982,  3.010966316619350, 84.166832427854786,  3.728662914107316
 0.627761397258342,  6.607731384307298, 60.741593102877445,  3.859699022223054
18.820024497254565,  5.881273330079173, 56.851914552074675,  4.226785185680043
 5.309789615873939,  4.144173433627073, 12.507096619349234,  3.935674655710169
15.053086491949260,  8.828622692808937,  1.233320333926348,  4.102552472026414
 1.854616928882751,  0.524626162637962, 96.185830768591586,  3.959287801745570
 6.954467992642400,  8.992791197350716, 43.374013930030763,  4.016538672275049
 6.270752920118552,  1.753344336918249, 67.908202876875464,  3.632822365905736
18.774194309088600,  1.907996654835777, 22.113327829788268,  3.926335798385238
10.523590292684634, 13.822689784249382, 36.560601997890316,  4.100213838644674
 8.864812240067481, 11.071167720279570,  4.547256222879760,  4.118863226714293
13.522239149784991, 11.051424262455949, 36.030600530686712,  4.015512824629065
17.757044666203367,  7.484241139814981,  3.814115624912847,  3.840906936745600
 5.802997875772298,  8.442404101708213, 101.040274944667871,  4.044489189812511
10.100836528143203,  8.808172482529255, 107.956985695978929,  4.179914281030505
 2.232511394812277, 11.479058868893196, 74.844537045050402,  3.841212950293961
 1.766493782470181, 11.700419182819633, 65.786031172792690,  3.943071736299271
11.733821010063124, 17.440577257172670, 71.206043961307429,  4.238422151598844
17.172676663987232, 13.658723249111757, 102.078939098217077,  3.712079108689187
14.758114637982866,  0.943867418761429, 113.572336276979016,  3.786612296352038
14.731669712684319, 11.789918496159480, 53.747793528479249,  3.835514608074746
 4.623325366542387,  4.877425714496092,  5.626392665799736,  4.084791193694800
 2.800816772577403, 10.298811307842586, 37.027774389773192,  4.159351173370224
 8.232171089887204, 14.472873184558440,  2.119481668732659,  4.314138204524093
15.361799391805597, 16.353641503025671, 63.415128715816635,  4.062420029058902
 6.540118237040832, 10.484860850180345, 97.720299608765131,  3.785868427347827
15.732873535361218, 14.702590330775603, 109.629994474545299,  4.077897868692847
18.418170054093427, 12.546390690138102, 72.675236165558132,  3.631763893191726
11.995895975065611,  3.256582614496486, 44.872954943971493,  4.082389966927876
16.575523674537674,  7.018762296931578, 42.529559589335754,  4.209723053245384
 2.780090178445525,  9.974003294341628, 98.874785640752762,  3.919250248885376
 8.240437911864937,  6.027868341801128, 118.955331121737188,  3.969168522636025
18.356485439663100, 10.227639046996833, 77.983628357464497,  4.323110243439876
 1.876732883216224,  8.017991807253967, 102.267232546236613,  3.990187956222835
16.325200269097778,  8.045810388604059, 104.564201006665840,  3.729860503557985
 8.598292347579262,  4.290019103240495, 61.020722062182287,  3.832307483812409
 3.287539481015460,  0.864013827207635,  1.793912351055247,  4.247845668190851
 1.875754311447764,  6.800525871936009, 50.294452763262122,  3.836245946597161
 9.593791662788380, 10.735876969589320, 33.951929586481718,  4.121267685495244
 8.427030534614131,  7.857027373544810, 83.139971489564815,  3.940731119459005
 2.849448358763736, 15.277313809489854, 30.692820241088864,  3.990238564699342
10.571539485015986,  3.929873668681128, 10.474807920911749,  3.808424433832258
 5.041988134928499, 13.143210218104583, 88.318941983516012,  3.973360817717778
 3.553276410073706, 17.751339176583624, 108.597504076496506,  3.683071448699342
16.405478239902536, 16.864469634938736, 100.074675994643684,  3.933482805003903
17.802668464917517,  8.472906400702993, 30.226769932356678,  3.739683431309571
 9.623228425103113,  9.387453544771313, 86.872233248864660,  4.109010042364345
18.566218185045713, 17.702020911690084,  4.359231969431439,  3.904847693570555
 8.700012886461982, 16.171186641381986, 112.869715064014827,  4.088798876322657
12.236836090860379, 18.714492374759875, 64.604356448540514,  4.098631244363124
 0.846671708134105,  4.539296776170147, 41.951363677127908,  4.180071077340277
 8.694410045012116,  4.463152575639903, 77.846830274296039,  4.235813804092147
10.387610700237222,  0.616055460076586,  2.859464351026691,  4.046132488898931
 1.261747122170827,  7.254484917690119, 85.332109494037283,  3.969302444076846
 2.271715556173065, 14.643142677063585, 110.642214708722960,  3.897358274188865
13.100889540054043,  2.512120120601061, 22.499545068124810,  3.707828481216923
16.665082951779738,  2.842438052092496, 68.847609707069580,  3.870981278384066
14.904849138993210, 12.598949744980368, 71.464148735405729,  3.786134558014849
 8.876930596705332,  3.193525828247216, 49.002042051856684,  3.921813479472289
13.307937807518982, 16.617641807884365, 106.955164429365652,  4.004683154197275
11.078540714242068, 13.265214485460335, 70.363054074681074,  4.277300054641183
10.862910037438795, 15.658170035797271, 92.991927010298824,  4.112908621338985
 5.423511403264760,  2.493677123591876, 117.804280872150073,  3.944147077327215
11.985579684756436,  4.982949785114268, 107.044172224060034,  4.373851459639453
16.793217320682544, 11.472548974945797, 94.757396187313574,  3.862522260069173
15.475248814801830, 16.113322631936661, 77.569902637569825,  4.279481672717092
 9.060234429336692,  0.764658108664968, 16.968264803598522,  3.767218962825297
 1.030274524797662,  3.632292009018454, 76.841540407478249,  4.078331560320034
 3.735629920862639, 10.484446238408745, 85.134287583097787,  4.098142654460157
11.531510136624139,  9.608426582092539, 112.203296101628453,  4.324103526584524
13.858632967677261,  0.192219493691209, 68.224535763372785,  3.907042631860815
 3.809546711992770, 11.363776263642379, 28.483457919546709,  4.245948171001885
12.493767354500301,  2.637965146883530, 18.302468866633756,  4.318464356627543
12.423097861060057,  1.901941538810676, 33.957898002705626,  3.970702074484021
10.783787058687617,  5.858914990537066, 70.597895285516415,  4.189389660541044
17.997549849184225,  4.095926422379929, 72.460470845652864,  4.177294987582489
 6.969475853783728,  2.969858106679795,  2.731844495813279,  4.254070437205034
14.052585060236657, 15.376431131073852, 53.144320043479439,  3.558757818019862
 3.185726125041213, 16.389074667547543, 15.009133167208768,  4.274541264668220
 7.136584149285148,  9.871038167266914, 90.106350468693392,  4.066375621878442
 9.637148026439068,  0.629046497062254, 61.256399163261833,  3.769085115026711
 4.724747689291154,  1.961660271091033, 35.591794284897453,  4.035795793522214
 0.448294480412266,  2.144286722246989, 30.660766828000220,  4.049834059448960
15.316744157710581,  7.122196376877056, 83.261447191886305,  3.995681106614723
 6.407141472158037,  8.656438504407381, 32.614024189422615,  3.836416012660580
 5.010157573261866, 13.130653664607218,  4.175511752637281,  3.704631396066241
10.632846290050717,  4.659825616021513, 93.010771152393900,  3.734267576004559
 4.150997486759191,  3.882787590222713, 79.802990175807835,  4.104492956727860
17.667006346764072,  5.924056910999604, 101.349352484111648,  3.979186240496287
 8.108920498606615, 16.549680210859162, 97.606037682761084,  4.115209815270243
18.058435862064069, 12.252661301512980, 98.580950793965229,  4.029651549638022
 6.859350015344782,  2.227910695053597, 74.984293182028622,  3.882916318550969
 8.786594306085005,  7.725783798473443,  7.105579338289886,  4.292099222558440
 2.734378154653703, 16.514471064732739, 79.423652626235153,  3.920000239122122
 5.399752805212310, 13.233916708977508, 59.324392876516399,  3.805474591375798
 1.602121120343465, 18.008334276695496,  8.457000131181269,  3.673093106203392
 9.620484255916153,  1.516243784680393, 31.352769857096320,  3.705045860569711
 8.807816068052016,  7.559291475776493, 58.695941805125585,  4.196403332472159
 4.336935503496711, 15.311858498406616,  1.046622729954341,  3.929000174387295
18.545505403883627, 12.421584186736274, 112.752001508705078,  4.340102639272751
15.152152408808666,  4.324629907017796, 75.418967079292941,  4.027826776785906
 4.291633520469023,  7.277899045612834, 91.717377257300612,  4.131118577791102
10.047382268697987,  0.609286628472950, 81.561894691752642,  3.521078010205122
 4.803260397765764, 11.527217447345906, 110.730615284314950,  4.084446566395604
15.950434878993352,  8.251810127319583, 61.017114587442300,  4.052426335193530
 8.042755810782296, 17.259883322335565,  5.321211965137786,  4.075724587365408
