BANDS
8 8
NANOPARTICLES
cell(1), 19.087
cell(2), 19.087
cell(3), 119.292
15.760161720875688, 18.459241318334680, 85.290421833555683,  3.495626929217273
 3.028702900661063,  2.240897923957170, 115.363847285164937,  3.670918314668480
 4.856099643545032,  7.005960916207051, 65.307290286933494,  3.811302658140358
13.673894070592210,  8.473831481432892, 99.697224585248065,  4.182020904930311
13.782427053305245, 12.032966218904500, 32.369969448158095,  4.098832776257696
16.818457544769473,  0.460373989434023, 81.711644184116565,  4.108982464249795
11.369407032277831,  2.569021198969732, 89.358080030896517,  4.058023866933489
15.171523120516735,  1.766746325089712, 87.948850722310922,  3.668459842158676
16.148290544193507, 16.178733905581201, 70.240698323697288,  4.303428213581726
 6.104251083747278, 17.149950416264421, 53.696476642991655,  3.945890422884745
 4.079952165127889, 13.007371792516118, 18.413184976859952,  3.798202059983856
 0.695681937522609, 14.718044327138543, 68.721911959218858,  4.008961300690628
10.058681583249587,  9.509418693912140,  4.373299557891636,  4.083618537555214
 8.052759347738807,  2.949722309606667, 12.145266958808190,  3.911036886971080
 6.288747197898772, 11.728039175964524, 27.955377528062421,  3.735995473954096
10.795418955228847,  3.373088397924368, 79.899892283086729,  3.810783465119505
14.119315711723750,  4.791866490601402, 25.230507714150903,  4.209654549171994
16.194729059903672,  2.256506439795325, 43.982609433946038,  4.137600628835799
 1.727846949076130, 13.257146438733633, 93.356485585988651,  4.137406062776680
 6.274682282644806,  0.083090009398846,  2.578597790054126,  4.137217368296159
15.293053235182938, 15.827681153419688,  9.542540802164327,  4.275936933221771
 9.293279024990388,  4.633941840797279, 38.715434868742292,  3.534184403021261
 3.656266649131315,  2.430668190492590, 54.082874228648187,  4.181346879908165
18.113681482042697,  9.871849634626230, 36.583155409078891,  3.954619965579130
11.381914684227944,  7.863600461160504, 23.826530988310420,  4.331540488521490
16.521629763213838, 15.063499352847412, 30.795476295434874,  4.104957998242506
 3.717681766872393,  9.402465983911050, 83.289759847101706,  4.283746173040157
11.569892656203569, 18.552615860602764, 34.160359825696126,  3.896002021681861
 6.129492521552573,  3.148254345618511, 71.747236545200650,  4.217076957281124
 9.821179347744366, 17.682564059548536, 74.291337559001050,  3.845016297361779
 0.274625687489728, 15.120326235676856, 87.513103975573557,  4.055981977066137
 8.612564016620794, 16.403399024716819, 35.426765905997215,  3.792717787579439
 2.323404170353179,  8.875457941715746, 98.943949948926402,  4.041026858256233
15.658930360315233,  4.811532424730443, 116.753211138868210,  4.134752834404631
 7.759365029576831,  2.781100352058071,  5.543538209902786,  4.129721881248860
 7.490888825044930,  1.493835911311810, 51.746996870206445,  4.308804945282950
 0.565511398868602,  6.026759043112076, 13.405930312766012,  3.671163758159747
 2.734811991800857, 10.820689820033746, 41.883365527416366,  3.802273352350106
 3.088417373702826,  2.025489421945749, 39.091584162383697,  3.858214284178090
17.386395524480818, 10.594514433213716, 74.580512616211507,  3.722960907612441
 8.473264437161699, 17.565748293113977, 101.781374426196692,  4.020952862839339
12.133304401783167, 14.489299441340135, 11.744125115886598,  3.869504027251102
18.168445065812207, 16.112456076376407, 35.747854151993273,  3.996382804247961
18.598843967542063, 14.459054562026134,  3.381772098736913,  3.884232951429941
12.774312315186677, 17.140368500627460,  6.580736374588774,  3.850050655999688
10.716445051743554,  3.313047554724800, 45.050605365587458,  4.031294519596681
 1.412071904389005, 18.223967509030587, 103.033850299039017,  4.034902041151047
15.591345905218006, 12.214411060146405, 47.306520093758444,  3.950321224828577
11.699193003491553,  1.873056867821002,  6.522868306283319,  4.045639441649574
 0.171524157599915, 10.763288169624742, 96.100756328056306,  3.873617948474355
16.244356218489699, 18.050278591616792, 104.573782979449888,  4.205859799339811
 9.430763145382262,  6.605322336651378, 31.138953139852401,  4.131478114024083
11.014161552071695,  6.395579782825801, 75.154936235155887,  3.892270573772056
 2.867359405219418,  2.693362940041888, 77.911159937493707,  4.030409593854140
 7.281131970063652, 14.942145291165916, 30.052161635412578,  3.941909259689426
11.736519095122203,  8.585338420407691, 103.226922401142346,  3.820492869835248
15.762454034772855, 17.247286613690555, 27.363345544433198,  4.096821390896401
 6.695338624250954,  2.871724478553829, 44.953590087490369,  3.932020710541591
 7.311596085619271,  7.576432096279559, 17.473652612862132,  3.729082059743415
19.005893465915026,  4.108671771838797, 96.775007456286772,  4.371790597230821
11.671382057261045, 11.996786117876864, 47.507899000104601,  3.887753299668891
10.617275652693232,  8.886791918519563, 107.138774645550797,  4.270321834915331
 4.024359509370078, 17.264882208591050, 24.751373768125571,  4.044210553710092
16.732577804153799,  8.900882062213430, 32.704567729592867,  4.164740378671598
 7.775680142533179, 10.389414262963204, 104.310862700645643,  4.248716592557601
 7.340755982017703, 16.111766270386074, 84.683057176765089,  4.125650323513421
 9.558976493486913, 13.395809035507890, 64.023202457049521,  3.969655789836388
 8.773312935997037,  2.590915607977663, 75.160967970136625,  4.378271062312534
 0.715681523125676, 10.306859601696312, 26.364999450190947,  4.077048133718393
15.993504289385582, 17.129706149274327, 88.882598177746274,  4.158378666229541
14.511609997150225,  9.514676650333989, 105.804832724129113,  3.945536398322864
10.088610665168282, 10.530171928925739, 15.641888402180138,  4.263832997360510
 4.072792148678732,  6.438449358425661, 76.823455524293024,  4.057069102712906
12.673823950817740,  6.615360121695423, 17.404607713104713,  3.921786155747083
 3.122421004851441,  9.671713164610297, 105.883530336501551,  4.111094180116740
13.775951171601294, 10.333035437190322, 17.178385071198157,  3.729161115052574
 0.709126648044844, 15.827523503445894, 41.425680178852836,  3.785086080141105
16.811152010440708, 18.581710642035446, 32.897833618450562,  4.006096920600266
 9.602253378488466,  6.566838664355268, 57.597522998171648,  3.881203133590352
16.311230177513128,  5.207726100173151, 18.311096919357503,  4.017269895834461
10.795800842914417, 12.618918318861018, 43.703097474942936,  3.811668253595598
 0.656128909753710,  6.827629863761389, 20.043298488355443,  4.180940385544445
11.354679959822620, 15.988951511415785, 83.622275291037937,  3.968257547400758
 9.063225905504060, 14.655073626113031, 46.355712560523344,  3.650063670845051
13.360339469588626, 12.518785205310145, 84.362281154535836,  4.089443786389862
18.369564061804581,  7.986189002973193, 16.409865881310758,  3.834443541406633
 7.851490539632522, 12.680549506526489, 34.199319405775611,  4.076844931342611
 6.278879595456631,  6.080632550107306, 105.721013162625724,  3.947440127257830
15.371883864094748, 12.156546122757982, 71.470498855461585,  4.170463479340041
11.872153036698844, 12.344226761919559, 75.044756510433388,  3.789476307315677
 5.269780357837876, 16.111404153374238, 33.433544632897643,  3.849424155416830
 1.774476679860970, 16.867223929762787, 106.920337143104746,  3.926328827638859
 2.839565777139035, 17.583929872580445, 70.601660686887556,  4.038278309302223
 2.000798314009677,  4.410907206864094, 65.125959490175873,  3.908160358319922
 1.748382370660675, 11.672881882038137,  1.885989062827492,  3.853070866909367
 8.129634634687566,  8.663546605517750, 66.814451106950457,  4.049813568628790
18.354264730333206, 14.922382335062478, 103.309897360921710,  3.720796304231861
 6.314497782733567, 16.797823644004211, 90.750250210788934,  3.754169880516153
16.620330964628085, 12.277927162688425, 93.423780437174258,  3.973028209534808
10.001966555557257,  5.976174963741649, 42.156206698481512,  3.959605711154479
 0.610429618451943,  5.863062836447318, 34.282935872524696,  3.518876781423177
 5.555061944565864,  3.928854291357099,  9.080865720887521,  4.230572548187299
 2.771299155671071,  2.944120953804008, 35.326537011606710,  3.893288260941825
 7.044717788950519, 13.468089090609688, 43.318955244945023,  3.903552887622930
 0.884249865300460,  0.486478148209867, 25.965607872761442,  3.879974926758163
18.886768578921036,  0.759845062699200, 37.169753709116129,  4.092983171281722
12.033133267945935, 12.009842073925160, 23.171444297961767,  3.998887408926474
 3.301675581280896,  1.614620768368755, 90.697134250140138,  3.958485546606636
18.725244576067677,  3.766659031296498, 114.020680242487941,  3.974963879218464
10.220040683332245, 10.705551160419878, 78.212285386491914,  4.057784196804095
12.047116289500311,  3.422545301452744, 69.251792224161747,  3.963929834183450
 9.625267445909166,  5.492489223902287, 51.614457233196482,  3.982729984811815
17.998493977752169,  3.960617945015259, 26.010907495474161,  3.812018683781111
12.864095822775276, 12.499450565578712, 111.703407729278823,  4.012995612820775
17.058643564026699, 10.354425698678554, 64.730963098151491,  3.980013882031141
11.819041217907039,  1.470626245972793, 10.584581971283619,  4.057606160398446
 7.305740194311340, 14.354340271210480,  5.250072787629173,  4.166790013010606
13.865210167732148,  8.977197949269922, 86.155884485992630,  3.896376211670335
 9.272545964898628,  9.394209344814808, 111.074944915200888,  4.097179299341012
 4.403420839862371,  5.149295475424736, 12.858142259888327,  3.986309125212759
 2.407589810479007,  8.849888183774489, 88.186881426975404,  3.993593783779749
18.596380340214914, 18.566794937025428, 72.634102939050621,  4.006166715419450
12.379106735151185,  2.058019802728960, 48.356823390557096,  3.766584331497227
11.218183050040459, 13.126878702675565,  5.716404445384652,  3.969530793635845
13.915449822836353,  5.757968325780674, 104.842701505502049,  3.900765063612251
 2.249441478109702,  6.905595818482090, 50.076089363803227,  4.051325788415729
 0.513482179049518, 18.226688043669121, 84.577187895587386,  4.273183424446053
12.356098565195783,  3.163343081126797, 29.806209165703166,  3.935777523808323
 3.285083479595494, 15.252549352340056, 83.478462465491063,  4.099130168421815
14.644079576537260, 10.252333100395036, 77.410448922504600,  4.179174841964273
 7.814916702162210, 17.325923803444041, 39.390069486827443,  4.164966388787366
11.283733731480650,  8.849858247257677, 54.366552615801787,  4.387300896744048
15.648436061238524,  1.789497736179198, 70.761074034014200,  4.264953314258554
11.856178012444497, 11.397477402326475, 88.561367483282993,  3.769270564863196
 3.771993046841662, 16.955908967200507, 15.581740615113208,  3.907564926769790
 4.934754066164419, 10.534429474097703, 36.136612937530685,  4.104751618202802
 0.503354452742925,  2.766163570514778, 56.748137141188558,  4.088816349651822
 5.067634624029149,  4.330988191658824, 50.413342713309696,  3.578577878008182
11.659234940712802,  9.426205309803919, 114.581246345815572,  4.380048232640187
 4.243331065428932, 12.403252872432144, 12.445580410716147,  4.020614721710811
17.422860940960266,  5.357381252647812,  1.179961567226752,  4.139525061015728
 2.342904758621015,  1.715127991171769,  7.775127133910797,  3.961058448557673
14.452137902538002, 15.660860867963139, 34.278104265274180,  3.991590518840182
 3.175018515479695, 10.973770099089892, 49.925994141925976,  4.156058814714673
14.003912237752019, 10.108603046440781,  5.709355455365875,  4.227463292733175
 2.205401112204065,  1.256704610176250,  3.185617139280209,  4.299070890737516
18.974043161825062, 15.173300601137459, 116.969723679745385,  4.251314607035228
14.163108522016589,  9.749467917062269, 35.803348545272726,  4.062358012560481
 4.363862165824118,  0.305308607434054, 11.288682868762272,  4.575702783500970
15.209959141430881, 16.715329466913989, 21.107543738332737,  4.094923005742871
 5.298108220938714,  0.422064791751562, 100.137474893820936,  4.014201071647035
14.259110275070556,  8.474626752353807, 117.663869967680938,  3.783183964792039
 3.474392885988514, 13.779448954251825, 97.448952532392383,  3.544559574775536
15.965520528650471,  3.773040786069273, 99.762408133401337,  4.155215476017561
 9.575707035924392, 16.585701855395612, 43.030795635795819,  4.031028493242037
 0.412003106828233,  4.832076773089160, 38.002304154466394,  4.095356778630517
13.508572583568137, 18.106763410252618, 30.627414791113143,  3.950054211022006
10.483337852605496,  3.766271742960947, 23.456445527877431,  4.037058403552559
13.147799017464310, 12.328394267552012,  2.473992979665871,  3.701517517145239
 3.308215522811377,  1.740841893859854, 15.189651108356225,  3.901933071993195
 4.013543352131607,  6.372065902087663, 53.547051001715488,  3.784977039523028
10.096750094656620,  6.860896050077715, 98.113368027653593,  4.101490311873799
15.455637585655632, 13.845893338154456, 75.312369503069789,  3.958289906851112
16.313434254892126,  2.521864589826786, 49.410362335844759,  4.429368778676070
10.709257890539604, 13.547797234964660, 18.639796721256964,  4.249747448055290
 0.482764374064960,  6.564967794512433, 105.446247231409572,  4.043350909341030
 7.549949959762497,  8.146832556820835, 21.650126335833317,  4.054348985851671
 3.585624347398430, 10.597753471185680, 45.857616869146604,  4.008097371848811
 7.423863687662442, 11.104075274061445, 18.959610173371868,  3.928356774488500
11.583813345838871, 10.640240261346280, 96.760825486650276,  4.138366112594356
 6.889407523792455,  5.373208856821245, 24.554583758033321,  4.064838804068999
 3.722313514385052,  2.157265807706030, 96.428872099877069,  4.133843519503637
11.081733374307770,  2.596430561312221, 96.816186655746137,  3.960984314143860
 5.878940991946251,  0.436432134803436, 61.340882203581081,  3.458885123746914
12.052550906702605,  9.168872758057136, 59.195828387123747,  3.946652802785014
 8.090783023542418,  6.695423470409692, 11.218474964855201,  3.710570535258837
 4.985490485770942, 15.874386876532609, 20.988558099884546,  4.075561549655959
10.274323683599940,  0.178186624616857, 115.032589479026370,  4.117745087330174
11.221575299103243, 16.504145478685686, 62.090083477048502,  3.710217162010265
 5.992876918678470,  8.450648201867727, 32.438675408622622,  4.087200860634898
15.026967302261626,  2.267618770933070, 66.783499405903783,  3.829887704384525
19.078525145419466,  8.246563248724334,  3.708505931280906,  3.765331209532528
 5.600197924739222, 14.838402733102598, 69.223344429653821,  4.170543996310418
 1.786853576454180,  7.073826934326346, 111.954176221669869,  3.829275791084318
 3.625976018166768, 17.762186133087049, 78.361222918696271,  4.169433507369661
 9.089174657172677, 10.953678119772766,  8.016312357170452,  3.656434983149545
14.740987174153290,  8.641030416724005,  9.782525749382883,  4.002391616611462
 3.438687101143662,  9.588066300275868, 79.208973257950475,  3.903546416749833
10.394122750931311,  5.273853478907228, 27.134802688769167,  3.831447124231330
 1.015526721312221, 14.780063534418360, 20.356840044716346,  4.243026074859911
12.839496079415850, 16.120854492859181, 58.559405616566970,  4.086428729208930
 8.835603069718298, 10.342204763844352, 37.312977250879442,  3.942048566912523
17.000615140335249, 12.604955882988197, 80.062066991690529,  4.161074273441345
15.144175713915205, 13.762306263778090, 25.289807612685522,  4.002228772369892
12.295734640407277, 15.879823272307215, 76.754809500977075,  4.001531193852967
17.783935335802870,  9.563704420789721, 40.746055310638852,  4.417103087651998
 5.519563666163258,  5.472765480065995, 28.401384683555847,  4.082721591915139
17.102620857384039,  6.990411668901467, 111.360547051520115,  3.714657904544870
 0.557495915431739, 18.208129706357560, 13.719032872090370,  3.925411312144639
 8.522982199996255,  3.522026689009280, 117.030113968930777,  4.141787901492060
 5.476041800559075, 13.739467331621729, 55.828940203334319,  3.930733631394803
11.373494381992767,  0.137627262185513, 51.552081695280073,  3.867207534419215
 2.279977526186788,  8.538185223661118, 38.658126726597679,  4.109992698185422
 8.053321199417157,  0.492342890070465,  8.969709786639243,  4.065329146621878
 9.301218613812976, 13.945832706339498, 26.728694461526814,  3.929871184766616
 9.187882722359021,  1.272067277867014, 36.872838466901619,  4.135217747114988
 6.130972142049265,  1.846583289333485, 65.409430184405906,  4.022734044452726
18.413808712197568,  7.226610648988436, 66.888768937628384,  4.020716371757270
 0.640065317098922, 18.166869549865684, 17.792233631828488,  3.976034792003314
18.998969854965669,  0.829169307442764, 53.231399924734298,  4.007384084314690
13.696300145433908,  8.965673857326324, 109.701881688125013,  3.741716194626427
 6.236829086018145, 10.513932710945424,  5.307937785829476,  3.803647296992448
 2.111683305433776,  2.290576060540386, 71.481451110722801,  3.860253549918972
14.718195172154562, 15.442334540978084, 109.927321668266941,  3.725836725556586
 2.663549091507089,  0.928580087979229, 63.274581034369142,  4.027966707643452
14.483416913705613,  3.421422666702768, 80.568446900721298,  3.685197320737413
16.288120559265010,  6.885244909452898, 79.863700439358183,  4.190957051787343
 8.565562964533880, 10.340185480057109, 57.499710231649402,  3.904117074355385
 3.732809598512972,  9.043612447798386, 29.088479740279599,  4.003424515304482
 9.516715314267133,  0.848459204951973, 71.050069101136231,  4.071341528759834
 4.963994504208762, 17.723443907593492,  6.522027142132409,  4.415858063114237
 8.186719227064755,  2.888023134359607, 30.063163666273198,  3.949092989619224
15.442805094171957, 12.446543065794170, 60.386200728627664,  4.140717251199834
19.010176561597717, 15.140368401363164,  7.436048702574539,  4.294645176391076
 4.586402124777769,  0.095157648138954, 83.564411835301570,  4.156410162083096
11.427114553188108, 16.144448185304963, 48.985446006895032,  3.919673442440255
18.750242050336912, 11.940785218496456, 44.356874097428410,  4.348229606161405
17.940216054805799,  3.288238551961737,  8.762898971390236,  3.831016932382040
18.866439252525932, 14.062798390723968, 72.807156240802044,  4.198035381347555
 2.745176700171190,  7.562236294768077, 60.353992096304147,  4.129824333726908
 7.668639180830144,  2.422256840980948, 106.764906865492520,  4.090484082003699
15.283559914289006, 16.466015784353385, 116.161604413027177,  3.724203090945574
 8.240843086559206,  6.425382545473042, 45.767316899159965,  3.908626567017129
18.840597727672147, 18.654636725848633, 76.815681127411452,  4.265825912938610
10.792515664740094,  3.130197757036655, 83.791607045354908,  3.943102783287978
 6.278915260954473,  8.296114197873846, 98.344777532391944,  4.010801210942829
18.819134309853233, 11.984445761275554, 58.211800682011820,  3.885025098797251
16.096925864610295,  1.401314446336910, 12.216315975893833,  4.044945970996896
13.688726237903969,  5.078223817536471, 51.576405197454399,  4.078614841060638
 1.272048382460735, 14.127897469439556, 16.176422494929358,  3.682939108276150
13.552712651515771,  5.934188456864174, 56.604872704850422,  4.243740104163529
 9.502734686582569, 18.861857731356324, 54.992481520822103,  3.993684476416953
 0.968152946151275,  6.769880683728715, 85.131367598003109,  3.930261283530899
 8.178760168165999, 13.628731912173478, 101.150019390612925,  3.899582778984183
17.886276061810580,  4.430631217481886, 82.759408783891118,  4.014355644908107
12.759853688091303, 18.851867433559004, 81.051243548267806,  4.199676539651285
14.899863530831636,  6.656649625842816, 60.482182517143443,  4.042731564540571
16.345646714441884,  7.179581864134992, 53.976845527113277,  3.685382736655821
18.330157626247622, 12.150721175789302, 50.196325718933593,  3.998652538998703
13.342795574047036, 17.889498526782731, 13.105854752440145,  3.712992199328134
 1.671043760372984,  3.269768351938307, 28.732287573817892,  4.015844017981833
 8.211152199053759,  8.415246543230792, 27.757987597162082,  3.895594397442919
13.831097031630422,  5.115990753511570, 72.532751075152476,  4.038594685406344
 7.410702530096030,  7.141191186790640,  7.208036589678565,  4.021418537101777
 4.722839691563488,  0.323212557325345, 18.694315130723009,  4.111546772761866
13.394735507357391,  6.106568417530059, 112.454377245987914,  4.116212300946176
 8.666605342828113, 17.109410903648840, 93.852901728060630,  3.678637684803773
 2.982536680295091, 17.868940986013264, 118.086135800730176,  3.972220868550778
 4.352755611153528, 10.479461803620206, 67.215499420607017,  4.054362791887777
11.349244787355191, 16.365833133854665, 65.831822089526369,  3.689705719365731
 4.324591773580666,  2.424196082700072, 86.888747895055573,  3.948380029066601
 4.406338579096379, 12.374755163644434, 31.723627205259888,  4.424376721190277
13.381945207756429,  3.776963421413910, 76.900696140217804,  3.972299304380959
 7.309890479768258, 13.107515159141297, 110.883967988631042,  4.204513985372585
11.103585161706828,  9.380179462897811, 11.642022873945548,  4.241787902950625
 8.081579936405204, 17.079720203679887, 24.578585507631509,  4.038291562757193
11.384253539250002, 12.860005923637514, 60.478728781434192,  3.973727078878078
 8.331905131971146,  5.826550291266900, 63.883476726242812,  4.006548897362006
 6.008670629188134, 16.260315000465962, 59.058517172600432,  3.922911939005379
 5.415444066779047, 13.748343290346936, 51.707097700377169,  3.807935840194751
10.232299825498149, 16.214291527014936, 79.886499408886380,  3.467499075684283
 1.836437645586164, 18.377304080711461, 33.726091237037103,  4.180178125383052
 8.431026991624464,  4.637952185462460, 87.351782867802825,  4.153709894558496
 7.489009959514184,  8.896136117316159, 115.605315324976488,  4.190866082981462
14.015720092309117,  5.614861739383016, 96.511302806975479,  4.266112986584476
 5.953471554950327, 16.946694881204639, 45.273314323342049,  4.155568899433122
 3.862900647458412, 10.788166916980598, 110.368890439503403,  3.839498950189983
 5.567410013601528, 14.499699166411034, 37.220420229482954,  4.209900462192735
 2.179310034046105, 17.068840714121425, 99.157718749182777,  4.019617649497790
 2.696685519116655, 16.897493301357532, 47.824043731064059,  4.101310321050211
 4.798844484646388,  9.440100385657178, 25.120426951735631,  4.125493586742656
14.688888418827718, 17.321278771044124, 97.869342147050205,  3.838120891939689
 6.351950563910442, 15.672362614153883, 80.667489527425289,  4.096418059366532
 0.204703573927985, 17.029727513376617, 64.389016129784281,  4.009626344684751
 0.546488265549230,  4.619502115161104, 75.550498053327431,  3.609025595555067
 0.501298460490105, 18.966146400198628, 88.587363552619919,  3.858717162190267
10.933874077658420,  7.088667303039813, 94.169102110888559,  3.961141047704649
 8.430763703867001, 10.077340865035517, 90.337041483299060,  4.113731419554109
18.952702786603339,  4.399577364911783,  4.951392233961845,  4.198572092799765
18.426379752229046,  5.002068748169587, 41.933952970574573,  4.028936493988238
15.534727172042544, 17.260594259965046, 66.001830680762026,  4.167669470728657
19.064876553237831, 16.145406382818724, 110.434602995683491,  3.745213170078803
 4.015877658485103, 15.420624206472437, 109.975992046812081,  4.009571661640323
17.982779058655453,  3.196690357501877, 78.810973898371742,  4.150096955170683
18.097869455918801, 15.850581631589503, 23.682498526716163,  3.805148101039308
 0.884292082203883, 10.038739941056752, 102.520581816190386,  3.978116858783084
 6.412308686504913, 10.436937227060717, 76.539081441121738,  4.259444641171655
15.929726479486991, 13.162808196341645, 87.990850681359944,  3.853937043193669
16.929644730871747,  1.359611369522979, 19.733757694404943,  4.027511676589850
 3.756384263816767,  4.912255180185824, 32.004373943371441,  3.949463886140645
18.432746674690971, 17.838282623539911, 49.917276646495239,  3.870873022026851
 3.991054772823763, 13.606738371420242, 77.957454074024525,  4.133270973481152
 1.208507224878506, 13.032615895323920, 108.629616826282543,  3.824104741575901
 4.661027758400108, 10.954625546311663, 58.740866794550179,  4.268436858596823
18.296640632844333,  6.362320273177957, 58.262047041305777,  3.968046735634985
 2.222683554224852,  5.020820884318454, 88.964919581197094,  3.802121449594059
 7.162613627389534,  6.411499592032301, 74.094322245936439,  4.068782736632863
 9.379275052070058,  9.683663067620806, 73.918021577528563,  3.789877171717988
13.815871198476133,  2.059379487417497, 103.653739453049354,  3.839669086681820
 0.156366919181008, 10.913249292350644, 18.997492426156146,  4.115333238829723
16.319462449877161,  0.950582770450605, 116.320795310731157,  3.695464518517120
15.138863577853874, 16.634830421043024, 61.944751808851578,  3.931179849798721
 5.155820128327218, 11.533290060743738, 91.963231851649113,  3.686609326193003
 9.563325478168238,  5.091651936924150, 19.657480543998577,  4.177496879578804
14.845122103891056,  0.008160140605687, 36.546745840995875,  4.211571224022425
17.207903086679288, 10.894741423096596, 99.650546070459868,  4.136207318312373
 2.680585151897071, 17.560371922539595, 95.232163662816404,  3.797279078505667
 1.992183391802560, 14.618120397408209, 113.446540357953992,  3.990078987644587
12.454360793597218, 18.521130108383055, 94.338252243897244,  4.439270287006764
 9.925347310863083,  6.330092440307267, 14.629763235609111,  3.823256206583437
10.676168731879745, 17.065194878383831, 98.293771401649096,  4.174652407792775
 6.087736774876644, 11.489997393202616, 40.009281880529933,  3.990475583413998
 7.947885179234367, 10.734125115386146, 46.322861143771021,  4.312648999743891
 5.297790768501819,  4.697458890033045, 19.753702753796279,  4.192723236513532
18.822836751692780, 18.613353498521995, 68.147676628161491,  4.050164672164453
 0.266251463063098,  4.555378907412413, 109.025445265612134,  4.121708900818859
 7.710931090285863, 16.921954118012049, 66.347342895178940,  3.714606395178301
 7.358871769234851, 15.954032431517017, 108.121903121087541,  3.700909702869857
 8.481824614110630, 14.192341842091377, 76.999316560894556,  4.052462015564165
18.560809251800439, 18.856862516040682, 96.948104009452194,  3.808656999731627
 9.573981500956354,  9.570437266666984, 62.477253854873993,  4.260836585654718
 0.529169863496610,  0.821247009660114, 111.085748848791823,  3.870828429062114
 0.917369546204865,  2.584046648596906, 11.927752705362867,  3.773751907126167
 9.219721896728370, 15.005364249134759, 56.722274833178346,  4.161746498658422
11.445508261828758,  8.753892416102268, 44.838121028600781,  4.224520075464180
 2.188690426523026,  6.407044181509322, 26.236132521448869,  4.037455597938014
 2.435062553568025,  2.917772380403510, 43.948706448835473,  4.105684141635962
 6.958993966739465,  0.197100826473249, 14.759222175746077,  3.861668662535859
 2.691699763371258,  0.000252527439851, 59.220024195481393,  4.124197968040249
 3.028259810397552, 14.326563665795566, 44.542591648749273,  3.773014891552176
 2.481300156755062,  8.592681033016769, 92.337435246692351,  4.264051455003935
15.278507617232568,  2.482267456074454,  4.680922907607277,  4.063293380279567
11.057964047237446,  5.800961099188654, 61.078639156716470,  3.766564507824990
 0.572756245898154, 18.559747249400147, 114.747103834374229,  3.802217852348937
16.042357822271750,  2.896129525210988, 39.327803147933118,  4.127506289171592
 8.502461742635983,  3.003632713237419, 99.835002954426969,  3.989940363691555
 6.931206939958053,  7.755453814840008, 93.715248401308259,  4.172750653797624
18.163814040395550, 14.740897009263836, 91.064813807584173,  3.450115588201829
12.843514268462032, 13.325101230907684, 79.992568996234382,  4.148968015197219
12.057753692751620,  4.837764760528618, 101.235716066424203,  4.295103290723467
 3.204074896681016, 16.222090237190187,  2.626904413546431,  4.202909625403273
 5.354528790740456,  0.373751878009566, 42.000156609705627,  4.172742807776619
 3.690681546382548, 14.790545902742924, 28.082706649217684,  4.251176728640735
12.570679347903846,  0.681650968265280, 21.880981893388412,  4.032486773428055
17.833273559429895,  9.213345384918314, 12.292903288593164,  3.975252028098099
12.731189413158717,  2.554773807520278, 18.284971307025398,  4.059984285592853
 4.398117429366930,  0.947519291104806, 30.766560004833760,  4.206140962243030
 3.527562679976022,  8.529215429693402, 115.005564769011613,  3.718195650856815
 2.176910453503811, 13.507955578670563, 24.198557908679469,  4.129417598346002
15.002677706040854, 13.481598435366738, 96.911698493592667,  4.077569525775551
 4.105372643499482, 10.480756436229326, 95.628379596798027,  3.976455694155304
 9.603644933898490,  4.246073327789601,  8.827972725349982,  3.767523332918622
 5.714203413342008, 13.759330744764794, 65.233892803641481,  4.048916519345003
12.859262276497679, 11.971124487027025,  8.978670214080820,  3.600667042200059
 8.258507842962775,  4.638176297457452, 67.975336210452767,  4.244860194248602
11.645320057734196,  6.936943681700496, 67.574052293639724,  3.844233629074467
10.733309869383753, 15.025018488780749, 32.311241157655324,  4.227061800218077
 9.556526529315569, 16.086343378516307, 69.702426748565244,  4.081364566053207
14.446775696052036,  4.024957879430935, 14.881600571139689,  4.109964928660004
 1.834916660986967,  8.862898848014501, 56.339372558678903,  4.223477074573102
 3.794723411096300,  6.685674216188589, 22.676747324766779,  3.489813237418356
15.003621985053526,  9.792639104436146, 24.624070604759826,  3.948734409702481
15.219699334703847, 14.100260907232316,  5.675627005269678,  4.116966487215208
 9.150851574288174, 16.985042255384428, 88.161134439460710,  3.904784437957014
14.613944047455027, 11.685412422782115, 12.527156152337280,  3.777327954373709
17.369619025113209,  3.746986924946250, 103.516311673002065,  3.833863390073768
 4.566265240197565, 15.542153143124814, 41.082503091278710,  3.954928820792859
11.611509189311901,  7.684171028362648, 89.776897744805140,  3.862462095102656
13.463953698534855,  9.083460980733674, 73.524238193534401,  4.075923524000616
12.350173229735011,  5.429200352077646, 11.655140808323438,  4.006130004441009
11.617180455023398,  6.022141947141922, 48.045629531140520,  4.187857986190677
 8.265874010200081, 11.685365092621018, 94.399062965194048,  4.218152622963109
 5.969063207358422, 13.841001529874129, 24.942583992260552,  3.624509929096408
15.180874608491585, 18.959338706810918, 52.368293735952840,  3.810803819421948
14.794178875630298, 14.389347893791992, 104.638203159768281,  3.623433733144791
 6.307679704616387,  7.461705353066343, 38.849364831595700,  4.168289631626759
 7.876136183390066,  0.851476726181869, 85.879683585412167,  3.952223484255281
11.971580974636646, 17.550836291820939, 17.336990268814510,  4.312460223577026
15.743360116634136,  9.464824375203051, 57.471394278180568,  4.203430612567666
12.700179712444134,  0.430399508027770, 64.331191315450496,  3.792212346835859
18.183396826643992,  9.415535942726438, 61.076519034046058,  3.879209722648014
18.081468380575256,  7.762917465810978,  7.539502026724076,  4.202167723839143
 8.522998208213458,  0.110567620303642, 81.805159124795495,  4.404356563756838
14.514017888657918, 12.836373344935279, 20.121126388464099,  4.019240856043506
14.825846194415112,  8.386085050989676, 47.466471747357218,  3.842756681794115
13.537386480887726, 17.661225722496170, 119.272407428283856,  3.762025873135071
 1.165053455570281, 12.810961211597521, 38.724188287422301,  4.266678355925587
11.993931676885746, 13.436203951081202, 99.773070130874871,  4.082976285596310
18.390591524293740,  7.744011920050608, 115.281892511864612,  4.369356307340106
 9.501952133822147, 12.804036304902400, 85.661329584813970,  3.989615939624843
11.334842469532619,  7.761643338947979,  7.846404947612228,  4.015226512634914
18.165128730950975,  7.546811571464549, 94.324379111077320,  3.771051806247684
11.664489436568630, 13.096322445421716, 35.991622934459023,  4.240361794576101
 3.486986696139661, 16.238633798153739, 62.073963300690757,  3.889476805701419
16.975058797345849,  8.333684387347525, 71.426410151297674,  4.070271862617878
 3.569883531253733,  6.399612617233947, 95.888914420367996,  4.187242485095928
 4.182887827383174,  8.808998843492166, 19.383879099795255,  3.993942889297057
14.606191944794727,  9.890824332269478, 81.773329849630599,  3.667069573357709
 0.329501736085269, 18.687900869614413, 29.808368499525741,  4.033357883017738
 5.989745369821589, 12.558784707188035, 83.849043789748961,  3.533084983357874
 6.879322395058346,  3.635438322111270, 83.354687435541265,  3.822787271808157
 4.433171008207969, 10.543533482223296, 53.824216199078386,  3.724803602447945
13.408263584538837,  5.326008797328779, 21.179222489283010,  3.981783399292184
 6.561807751863282, 15.986125349873959,  0.106167190289962,  3.901459865796726
 9.605581985317048, 15.787337395000430, 52.479996449177499,  3.933416440179655
16.367643924353928,  5.769233563934065, 86.401825044905507,  4.116410653661919
 7.364237755728714,  1.449071958516163, 89.852333691844180,  4.127208037951824
 4.864156276527899,  4.387001271446508, 62.369791944435519,  4.008034142875967
17.184021738082617, 11.311823223622905, 117.721535312541846,  4.360340374642430
 8.520361047482481, 10.741757541667202, 24.550594097175019,  3.839208239711320
 1.421152326880800,  4.574859413269515, 92.818886882823548,  4.097091003922474
 5.154032182943570, 11.857019496823039, 114.093013481636632,  3.905019465149591
 6.383264211403939, 13.991474224630023, 88.037034122135722,  4.003784518875349
 4.267656573915254, 10.104812759640090, 118.424616297348692,  3.853229087320440
15.311317181040446,  1.722286861639319, 96.298200073616584,  3.842123774410333
 0.072043625011423,  9.191697611308241, 47.560321787370562,  3.994288247564729
 1.225374553327870, 18.787028316342656, 21.921870749736986,  4.341403333324847
 9.295330921042183, 18.949550600884198, 46.929159597316698,  4.235431520673536
 1.871027141491459, 12.028039590264653, 61.396919208993118,  3.724178119284498
18.914995420655003, 14.751285666183296, 96.752981219575460,  4.124590668993265
 9.571419174666916, 15.642153819595778,  8.744529363539012,  4.348555463281445
 8.182274916173725, 18.402318121220357, 31.963878777196648,  4.120692642255653
 8.496191788756381, 13.698512021333753, 22.117324160031270,  3.792967232196832
12.541266909523316, 16.784550866551413, 102.390206820532171,  4.297413733334638
10.721219622631049,  9.418600041843838, 33.869026386770173,  3.833445585592535
12.983536823907201,  1.015096674938825, 99.967111057744063,  3.912688684097814
 5.494691229651067, 14.155515496490517,  8.997590647052130,  4.026612779594749
 2.918865512185405, 13.335076783590521, 89.661441366907169,  3.617634871405474
 2.439207496150093,  5.202109396117118,  1.569838068715986,  3.953709847075592
 8.798884323950855,  1.196636964350243, 18.292717096599127,  4.210711693891391
16.709190883879721,  3.665925506167156, 35.348961689152439,  3.943756127227546
 5.293379768185650, 12.783540618849427, 107.376982653030282,  3.800729615042133
 9.268523524784936, 13.250087737495313, 81.785121209754067,  3.807330235425049
 6.938818508868170,  1.484517364682106, 22.303843637743185,  4.601410452735209
 6.127239386262331,  0.118102784292101, 69.002593208593566,  3.950792857030815
18.193153760796228, 13.214172427046051, 84.105908764423091,  4.052173631359515
11.042896519306654,  3.085267611582459, 111.295122052194600,  3.818337587504019
 5.372635877098419, 10.271920298873784, 62.954606221531776,  4.303685911850585
 5.494351329913215, 12.623201187392976,  2.119479065275516,  3.825141640670394
13.665129703254589,  9.700795210480461, 62.761242110336084,  3.942034259133885
17.052101312850382, 18.974234614189371, 100.620285201682691,  4.072569925735976
 6.485167157730538,  2.621932955801055, 33.676241205739451,  3.669823101243952
14.156223244312232,  5.498544433850621, 44.985611831306649,  3.770885434890260
13.195953348091432,  0.630241842718417, 60.502801624158622,  3.898805149906566
18.753419330352454,  4.974506931183224, 46.525674384802663,  4.336370905079153
 7.316946955542701, 12.543240151361870, 117.598134488941511,  4.013350115169929
17.797157427258256,  9.831779027075026, 86.678958421394725,  4.215612850788293
11.493005868612221, 14.370009310230509, 94.795944088295357,  4.123891757177121
 1.801815841777239,  9.820527186390683, 22.473925871317213,  3.802733481863840
16.768780006921052, 13.526479028914004, 41.079017454278159,  3.732185882235270
 5.095402686589456, 18.661372765052096, 104.996682428658545,  4.245542497524387
16.325869450896434,  0.699044513938019, 23.917532016603555,  4.488856255800152
 5.395908717427632,  4.132786298343705, 92.786371073265116,  3.792561344873530
 0.320395153665380,  8.987924101232657, 108.796344316649268,  4.077857956190962
 6.814274267747366,  3.998539494381464, 15.937443812616911,  4.086655386385178
 2.886225727852983, 11.976678632790117, 70.888200274306897,  4.199255096601640
 2.267939672713296, 13.920890130903869, 34.921048184996160,  3.844881135463269
 3.137413256239646,  8.261037856323126,  6.690688111541339,  4.299715355629401
 6.724446476078267, 12.812027872164421, 15.501203056244785,  3.866228623075473
 8.969512963944263,  3.006464813604167,  1.686806754375039,  3.868110765662842
 2.913620407035391,  3.854576878862441, 83.157069766359399,  4.112282682070578
 0.401738034182928, 10.915478017789681, 112.459369968712011,  4.084724262783905
 3.081437694164965, 13.073564321096276,  5.401990663991787,  4.161920721430813
10.202899220889810,  6.497934926075955,  0.268720559252604,  3.906247668398674
 5.711120997155633,  9.905904990830724,  9.617844989574323,  4.041082464659985
14.565865281966111,  5.040134145833122, 89.998734748372584,  4.057494899664553
18.035836164799470, 11.452774875318081, 105.761376457772087,  4.065477730135041
16.588921761403725,  7.765394969504188, 102.596382925972136,  4.125309265564035
 7.498912172310166, 13.069445172760167, 60.696274857686909,  3.804740981771082
 9.726099407684773, 17.171321984535144, 20.810114969911080,  3.934061421773564
11.806966341064095, 10.669516574428551, 27.094479741366012,  4.261249079223266
 4.436180501160329,  9.127882557175722, 73.266435753849734,  3.761353770161293
12.769131217860867, 18.530847308493012, 68.816288857641581,  4.038297988329038
 0.127256895911493, 16.179981967079637, 80.850825624237643,  4.231835435720527
 1.740261351336108,  3.568117346304773, 23.340643088135245,  3.936997561528511
 9.970383946737565, 14.698564324211979, 14.887670144141371,  3.722139821642444
12.586311144205851, 16.277365760852533, 113.263630180860716,  4.135335057188621
 6.059276041179078,  3.707468194282686, 37.227207428069313,  3.793055983777970
12.816539581722658, 17.006676155140354, 106.775672649104195,  4.143184624590833
15.189359599008574, 18.200922937018408, 47.419110719227575,  3.768123574520233
 4.080236179652665,  5.407462606111521, 46.669257057012096,  3.924314362756657
 5.299019979380920, 15.586308333361426, 115.589288619065584,  4.119319945134705
15.263494057424770, 17.623929321556773,  3.540592961687339,  4.067134612896109
 1.982747046622422, 11.409805456404577, 75.197068568237611,  3.914639967225482
12.038151371416472, 10.724619891022158, 92.543415260725951,  4.283948241118236
11.635009706502231, 15.951739580054815,  2.928745710825418,  3.991387261034259
 2.679041212855618, 14.428659457708029, 58.390542669793298,  3.750781723058538
 0.181070495174972,  9.250126190715221, 52.679825101453716,  3.830117771602391
 7.348503617682232,  4.330898580960336, 54.984506802661492,  4.293822528668114
12.094719069778144, 16.190723878598416, 23.978123623746082,  4.174700701854727
12.837447979380608, 13.745742779001235, 68.504219985098089,  4.202732671072577
18.248447260992329,  4.691436825417125, 72.125778897680348,  3.758549446112919
14.660044791865731,  2.797144310466382, 84.350823366674476,  3.871289455788760
10.075999432605892,  5.248722228597753, 105.382906398658662,  3.822022782009039
 4.011638763840276,  4.429012875124283,  5.250957752540875,  4.038456387432535
16.605488890114554, 18.625091647390811, 108.673379701502782,  4.074314761160518
 6.794034563945214, 16.953684076132152, 49.728176677908323,  4.104882088998921
17.803244891219279, 12.660714662601400, 33.825352961649848,  3.897124284899991
 0.525318456023299,  5.717014899290429, 100.850974973042241,  3.907126827655470
13.475367081530658,  4.674947981539286,  1.746315293358152,  3.919923065247739
 9.697749370654998, 10.214561761962893, 100.219384194418069,  3.780197311839321
12.536849672285632,  3.534251454743889, 93.188164426072390,  4.039945750178993
12.128657785807109,  7.091014503389906, 79.028854338138501,  4.255319614936493
 6.815802407040589, 11.284378203320305, 70.917122437255003,  3.654170227248554
 4.068676825289032,  6.650185837212518, 35.537326712593455,  3.918880265294801
15.557487260752733,  6.556962587569138,  4.516728770263951,  3.870338026668887
 8.472684388237635,  3.543421043525664, 48.344902869668331,  3.809131114640647
 5.017520849662259, 11.902869183481085, 21.923775231502383,  3.771368963839408
11.399163455694032,  0.487107127847455, 77.397194159007924,  3.692143663940285
 9.438546309643666, 12.865570250142461,  2.323258641186205,  3.659935000235898
12.046144394431783,  0.013197169200148, 86.174334296189016,  4.186374374324886
15.916207121146540,  3.218893743070185, 54.466361501528766,  4.106605306102245
 5.039212715500684, 13.514221328582574, 73.964907898353871,  3.894680042602768
 9.767608942303065,  1.027157415395113, 66.696301872638642,  3.820119912400926
17.119618531242800,  8.049567427871711, 44.462260545002373,  3.713985832007294
16.363057225592438, 17.006032064144112, 43.489227858549015,  4.564311129720598
 9.706756348692199,  8.548664256442615, 86.143158209922092,  4.350980462472068
 1.720677227362832, 15.049460027046049, 51.205295160474449,  3.829076020845232
17.030691231533286, 11.594257530373783, 15.580118150872170,  3.945555683160249
13.018615547712111,  6.318168991027242, 33.862124341588149,  3.843890452600476
14.871496733520617,  9.623342470898075, 68.159357812576133,  4.088828275180401
 3.772409003187040,  3.191943830892357, 107.025958118095161,  3.811075344655005
 1.545812333042561, 12.746171855789932, 65.227351857994762,  3.993466296130750
16.187384364705238,  6.624657094353650, 75.632255954551212,  4.277603096415382
 1.861355243948305,  5.680016903042672,  9.705609733144232,  4.035191480262204
 8.698374135672058, 13.098789858798149, 49.769794943935096,  3.839596559525583
17.641712109965098, 12.080150610322187, 22.591035730006197,  4.073200486752438
11.378876334825774,  3.233126125046581, 54.345905170931893,  3.923559848061890
 5.615212317770833,  0.209273594406633, 93.495046380546995,  3.798640247063959
 7.159121161220953,  9.984426447509762, 80.866163144609430,  4.170402776072003
19.051018749439784,  0.789094511337133, 41.304413263258063,  4.177939995090912
 6.530973609188270, 16.015127808694817, 98.184843668105657,  4.102843898383594
12.120573735683879,  0.975766511293332,  2.651959621770619,  3.864575551360186
 9.082374191774267, 12.580027707262355, 107.402109127347117,  3.599703562956959
11.684253465180261,  1.918134885719238, 106.941831848935337,  3.962374615670205
16.331574520140041,  5.461725775175726, 11.621989191837736,  3.928227330796945
 1.484803032726377,  1.890110763525739, 100.041430924969191,  4.092430929690180
13.827613048938044,  7.542639333417663, 41.383325364426007,  4.434854134912918
 3.338576196051949, 14.036282453184006, 118.614590058291768,  3.704823228043500
 9.257403972687724, 18.775307336508192, 118.965360296465164,  3.869226293807974
18.557653624098450,  2.971898250301301, 15.676127275185861,  4.211546029393440
16.178587278863002, 18.300763008754558, 112.822755363974750,  4.091355812060022
12.871999054260336, 14.485716547045813, 28.680039153324678,  4.257396525634700
 5.509072873548090,  5.116713846632690, 114.819364268648272,  3.983939002696747
 6.370294790727366,  9.095637189144886, 13.861918935689516,  4.202917801721798
17.281869242372213,  6.655599763477787, 50.095514109753402,  4.062352232866459
18.358761173463407, 18.942895453400887,  5.794954884539600,  3.982234471384580
15.308017602507524, 17.704791214859135, 74.628790658180264,  3.872885371366766
 2.995719820420571,  5.403148842656312, 40.780024385363582,  3.569923508756196
18.662459453829655, 14.227597462319951, 27.349316997171545,  4.161905171657104
 0.406625824771465,  2.339451385119094, 118.356536678616465,  4.238739301516155
12.390539508018284, 12.745126836908760, 51.765334258345810,  4.334260993779165
 9.926955646017163,  1.838303943269946, 103.404262996444146,  3.935258328973634
13.107902678322022,  8.564243899086813,  2.029085132788121,  3.810033667669030
18.598659590795869, 10.897152847260095, 68.800288322443606,  3.889823306057678
12.657598646718343, 12.416165136461672, 56.521423020271975,  4.376807317803354
 1.508269673384372, 13.024331348797205, 54.716763438787929,  4.146660981471667
 2.744624960950258,  8.779871336222907, 11.995919053735410,  3.865093740192558
 5.667812674700421,  7.632624210187620, 56.705435841096566,  3.724192993757596
15.940267214897641,  3.001255948198295, 111.056634607331475,  4.276195764375301
15.338350568282612,  0.869161143828347, 91.679527020354385,  3.871807914345405
11.812760008083252,  5.605040591768382, 116.149624767032350,  3.787093990547285
 9.383261166826440, 18.966223483564359, 109.539378219198781,  4.031444200306609
 7.722913238329849, 18.242662016130222, 77.655502613557701,  4.112494173706033
 0.051299370290895, 14.451587416762854, 76.996684005964710,  4.133399142233603
12.598448892121922, 15.192118122468475, 87.335387060044695,  4.010637298831466
 5.977293016365644,  0.431564599233104, 56.850903372671034,  3.921216179293972
 7.371881692136943, 16.311554818030238, 17.535976538571628,  4.311813823181600
 6.389264351525545,  7.518585194401953, 70.278952469855810,  4.019380323497579
 1.374340114376546, 15.159308912393572, 31.379877396686020,  3.826988212062828
16.870004249591133, 14.168903065809255, 113.264488945488665,  4.258587414057568
 6.136710703864377,  3.077489916169158, 103.067506955177791,  4.003875515461282
 9.774617528855822, 13.304950472481440, 114.328825743352766,  4.253357563521339
 5.490440082800950, 14.843411968269235, 94.278518671016414,  4.138901956276231
13.477135360853662,  0.408957808756244, 56.343476932330084,  4.082022438724561
 7.380024271285810,  3.351018099646549, 59.287094404740152,  4.166231844647251
 5.245456168536076, 18.978852543382285, 36.244870502803316,  4.174954324774292
15.050046674140932,  0.678031785569393,  8.348961284818484,  3.931569952911682
12.950480730731153, 11.252591861623396, 39.548981219094216,  4.006337361383996
 8.713130081843527,  1.591514296014966, 26.320784145981250,  3.952864343311985
18.751822493428488, 18.584867807984494,  9.795486768436534,  4.054685021726177
 0.781793284307156,  7.962410095475171, 74.055107048431125,  3.549901997349366
11.943315229146620,  4.091896300740292, 64.966097566939339,  3.782216994541396
 7.459004276806904, 16.424448758567340, 62.632153994573684,  3.777826452952369
 4.601686339601940,  2.171561163191092, 26.012176802159008,  4.271178397614517
 0.592121561742249, 11.505427685601090, 30.202086485623575,  3.885920627780587
15.404279125106278,  5.521285265667445, 68.887604003849717,  3.918317873534725
 2.316347056572388, 16.837582314940825, 38.072151302867049,  3.899725347019463
 7.947390285116237, 16.824028286587794, 112.688541811293177,  4.079076176371143
 8.452506294649956,  6.562205632812144, 35.384750008839781,  4.063145038441656
15.753210976888086,  1.618825671526952,  0.799570298705775,  3.894379001621917
 2.439742482819792, 16.791803184416580, 91.265306303423898,  4.032729107114406
15.817846832083832, 11.337527614101402, 28.721972336905260,  4.205254084335037
 1.758232945310142, 12.529372291226620, 81.051262217382217,  3.759824922693869
 7.732930367857421,  9.577852084173131,  1.014483175250327,  4.028304026832802
 8.118319107467418,  6.684440674649161, 101.951377330437907,  4.512884194892094
14.373276854051074,  8.040454715457750, 14.052253673621633,  4.064615591504337
18.168253766125112,  6.083313191880070, 63.098905399725794,  3.896618984801033
15.412115805651698,  9.586496293071272, 96.047570551277147,  3.876559334640703
16.643543676439744, 15.380119684458496, 13.556739847882890,  4.185767429268740
11.031063456449841, 10.196901183745030, 70.174086527178488,  4.428483552785928
 3.853414623407594,  7.223979510187706, 102.617332523349873,  4.181175693783566
15.558983731415184,  9.995377048087670, 113.218826204619475,  3.936051652416587
15.878338823550623,  6.686914166254080, 37.802349224642697,  3.976039073151901
 3.293330270402598, 18.519792833624116, 51.404539604727390,  3.796584320221310
13.158603883039438,  0.060284136813072, 110.437784752485200,  3.738501355166590
17.436881185584305, 15.082221865857591, 107.131823428606822,  3.720285531782630
 5.068732829478452,  1.213361808899810, 48.189717973295842,  4.023912799111833
18.269339603362805,  7.109662965452718, 90.247875261107097,  4.002034573488391
15.770940954655634,  8.781061550388035, 20.545671026925515,  4.456744835643956
15.117486329299659,  9.599829333304818, 89.891263439308617,  4.038854938675032
17.143118648434289,  4.505282352299342, 22.226273010163734,  3.943212751315843
 7.581114811372807,  1.710381178585770, 112.462039782672775,  3.731991364397715
14.635455713978246,  7.455196986780439, 93.042826052013098,  3.629049907298909
15.792847966772781,  5.097794738943242, 31.028305770344801,  4.276195109762118
 2.928494882020667,  6.098878191341678, 16.565431223366875,  4.212797318788859
 9.622504066689173, 17.653795401823668, 12.351624180558151,  3.888513353432762
11.022060379775350, 13.113984296077701, 104.005948447074886,  4.197988489909597
 8.871899281143024, 13.812025587153387, 72.992072199472474,  4.009748914962258
 1.552158534835797,  2.714002655283052, 49.842674013013173,  4.241917634726215
14.305673373720794,  4.840363468088219,  8.016429743451774,  4.203311260316948
 2.280412893047928, 17.196430974186836, 55.417853900210041,  4.402988016672227
15.919427040339642,  3.038626954095312, 58.685734752905937,  4.206254503517820
16.773910449478297, 12.022166575790058,  9.354891938193964,  3.899466657452784
11.652748759346036, 16.794061973079462, 37.555242148138390,  3.600481473785722
12.654017498980924, 15.383690898983295, 72.522713690107764,  4.189126431617924
15.729422942654880, 16.020013500644247, 78.599025636856808,  3.643157710988266
 3.939483606608260, 17.243780837601854, 65.836218250941812,  3.859768915291719
18.938824689772559, 11.103912083661392, 90.424297387154652,  3.945940750792929
 0.294548414011228,  3.001849060515965, 86.204651973183402,  3.999825498447651
19.032702399905070,  0.796665007497382, 46.552376491558604,  3.982846826915877
 2.616225702062551, 16.545074119559153, 74.611822837679014,  3.960649488540669
 5.961413474470580,  8.543238403485878, 42.986736587342030,  4.379224103214820
 6.221945352405413, 17.985879756700538, 27.882567267878454,  3.734424959982980
 5.398751748768094,  0.017386529827563, 109.097735787079273,  3.927081572678903
16.475142020955449, 10.669278263530920,  2.401551708894841,  3.729860495270404
16.187280784859801,  1.867846362925021, 28.574299087986972,  3.729249463308054
 1.247533204155370,  3.766520241769638, 60.764030770794058,  3.787678579841292
 1.782760402815345, 11.745563678250200, 116.053330590191990,  3.758090092755970
18.534010924341040, 11.408038576940108,  5.826779956035738,  3.849393931676939
11.540118289938858,  7.527107455323321, 37.866229525316179,  3.898661134859344
10.050636237663895, 17.465730001057892, 28.398749431244276,  3.967278888418478
14.035473578757564,  2.154063298895263, 33.084216751256491,  3.677401426186426
 1.724342784232324,  9.504743074277361, 33.540118042564629,  4.193095246518135
 6.063221949399189, 15.833741318374962, 12.675884911171439,  3.703850216546282
17.359688494912788, 18.433599024281083, 57.210503392147189,  4.073746051370716
 2.231691496688382, 15.604957291005476, 10.942857485061957,  4.097367155321217
 1.824385551791770, 11.628328375325095,  9.161158845676761,  4.266951586497041
 4.923402219721015,  6.322709083498228, 85.898371915674517,  4.138105603349172
 2.298965114267739,  5.558763746521971, 116.937746730212226,  3.746380387586758
 7.362257154059750,  8.175166078819121, 53.381857058957550,  3.790191259218034
13.177670110270613,  8.361863112393163, 30.427416135952335,  4.154651780009472
 0.352051190900029,  4.912895865157720, 53.183885745224735,  4.052647635218112
15.737920411526320, 14.535015728023424,  0.695590102433041,  3.938481989396102
 0.500483562547975,  6.883440486030264, 30.377643429043406,  4.181861760991265
 2.752073858048278, 10.300045808914639, 15.756177263155106,  4.237166955862269
18.072616444956534,  0.367222306502330, 61.220770739287822,  4.324056245371649
10.841699575192463,  5.200463615302625,  4.546937356627074,  3.831235274366920
 9.117318502462101, 17.887247190079961, 105.503399093452288,  3.547711024687312
 2.535525953542510, 12.206697573071963, 86.017138159873994,  3.886925742240894
12.613288307607123,  3.692263688967596, 36.946142336130215,  4.186851180839630
12.949107730222984, 12.700159197179000, 107.641038207928275,  4.042638910245039
17.641626364681830, 15.988348066833538, 53.559717932595859,  4.251896454681663
13.168541498034973, 15.104277189413470, 45.573777080040635,  3.954832731863093
 5.665132521557603,  6.956951524505413, 89.877294167741212,  4.053105756060638
15.220243534252592,  3.233570614133904, 62.852456855478273,  4.192733198851373
13.598552021680169, 13.968117364983083, 15.784108832341218,  3.832556016348228
12.745997147722637,  0.897778447978585, 26.402215360543654,  4.207600493997127
 5.959434015980343, 10.167304875680371, 87.014460357622383,  3.936666841783554
12.644429285104192,  5.438041403196944, 108.555193682841647,  3.911933742179883
16.353939522959163, 16.544109394754550, 93.932779947113502,  4.228209619449253
 8.546168869037503, 12.507794876653158, 67.743350262360295,  3.897091092787309
12.629957991686451, 18.895005666139493, 44.489100198177347,  3.939931452477454
16.142250350692827, 14.541611338450199, 57.042884838540893,  3.834902062039167
13.530365825250705, 15.932928164585560, 54.306559007369621,  4.081020836039484
14.295246446669495, 11.444054075892188, 102.342585329102448,  3.868028201034187
10.342973349295081,  3.306315278242635, 33.476590079418969,  4.080343060691987
 1.663956416280972,  8.913452010637185, 64.114189565827758,  3.924929299258633
11.031982322888888,  1.635274491763442, 14.658474199038823,  4.154741671333700
 3.245073564412515,  5.476375335870372, 73.151519559957578,  3.676973287583153
 1.869890682407366,  7.814869546308167, 70.168789533627219,  4.322202766502946
 7.629554557945949,  0.535675148651004, 96.787977684568418,  3.916528636289575
 3.881849034985470,  3.405117498869497, 111.236817808503275,  4.596260830950399
15.728808237341619, 13.250249393326063, 37.264244294849981,  4.074886026616161
 0.768863071599326,  8.415194374024807, 119.169903499549818,  4.034559669724056
 6.306373417088913, 17.024681932318824, 72.643954153433057,  4.009403728998599
11.238055013643530, 10.869310171370115, 118.628458405351282,  4.144642567134861
11.025314772402146,  9.453993246713457, 19.873732467849269,  4.165159724425167
 7.192657051438935,  6.218838290230984,  3.248200328117472,  4.106317202533485
16.528419226039986,  2.377114289850664, 74.799914549981992,  4.013725026319064
13.767840951144091, 14.410161977511960, 91.242839306171987,  4.255172274921231
 2.304000341123987,  3.516545931768689, 103.542168408825461,  3.743113221469788
 6.631235104403641,  9.220977075142997, 108.051605755349215,  3.861649989015639
15.297487189164425, 15.734835518460553, 82.531796923675543,  4.214939736958780
10.352523155860029,  9.367514780831554, 50.222500564865925,  4.116377292286614
18.934900082666022,  3.529246204336070, 68.468170753755658,  3.982227346397957
18.180429339177007,  7.686057284612250, 24.020955679484725,  3.609716622979694
 6.521830484935307,  4.196788937516843, 41.237654145214911,  3.927428484270838
16.184493683407826, 11.855087310964603, 53.858348333235540,  4.440905662363876
 1.302423097524695,  6.326154000397928, 80.092373454542738,  4.084259506916433
17.181368769378665,  7.274173935912630, 98.371286896785179,  3.540710536109466
 4.672879857968661, 11.369403985366098, 101.403533647824830,  4.327045825372213
14.808596745165969,  6.701066052501909, 65.078412645487631,  3.971438977070644
 5.285442276539032,  6.324268408429381, 80.973645417796931,  3.988743492527759
 5.772513630959742,  6.389792508870485, 118.664635191376249,  4.124382804564931
13.445518162507337, 18.818402869354280, 40.502772318338643,  4.192113107627627
16.514406559621271, 11.898185512987553, 109.664756707741375,  4.236666761987352
15.332759988421047, 15.277241663649837, 50.061985133351079,  4.114500302263520
13.400974832156255,  2.477663904428764, 114.246002901704358,  3.789945693434948
 4.033467568916613, 18.323593131803118, 112.787277999215107,  4.071604127535253
 9.071102829368058,  1.753080891496757, 93.446046491498450,  3.755660486208992
 9.620233020275863, 13.599208413366693, 39.677782993866316,  4.135302381033834
 6.808870982888864,  7.279343525763518, 60.378849296448017,  3.974950909658881
18.204469522340020, 15.233129018933591, 46.941133154043371,  3.982526906994363
 8.933310844968180,  5.070988431802617, 91.378906713538271,  3.982367995677971
 9.388635244544522, 14.148553689681306, 91.127908223522596,  4.265309932529884
 1.912767334398689,  7.484443170125862, 43.856644699266653,  4.040338249930337
13.036019841591143,  3.498592095669008, 41.878075305051397,  3.833525389334220
16.900298195117664, 15.023305513827719, 17.685768328253172,  4.068342563794443
18.434564197738418, 15.476959459103840, 60.090068730302697,  3.958571105712683
 1.596670553505433,  2.870593921719740, 19.199566848738812,  3.965639675602061
18.602651801735924,  9.420746910169663, 82.393205224710300,  4.224373019130764
 8.076821417356889,  6.883863493358922, 78.037082487304986,  4.076600597597571
 9.331972403283149,  1.973915159580351, 62.809036881941992,  4.202738856978516
 6.624189129996839, 12.119126183826440, 97.990899663822276,  3.644811726259253
18.589340997253455, 17.763937708669093,  1.018648380046682,  4.229058878964225
 9.137019948669053, 18.020099178875903,  5.323257845489549,  4.027156190068292
14.615101587237906, 11.226947910051670, 43.479435856529008,  4.178313914693186
 2.655110677762251, 13.533240281315571, 104.579030139629921,  4.021506600250720
 9.334314404080692, 11.310728541712241, 30.521713560209644,  4.268338130790729
14.270148888705602,  9.061673682768912, 51.351787854578255,  3.950179416873512
 8.339138614199776,  5.622249917944523, 109.327953440101041,  4.169901153466404
16.480503104227754,  4.177155248987846, 93.466529978310390,  3.932770017844581
12.245912952302728, 17.908694596398927, 90.099792387420536,  3.611226541271338
10.727347422080241, 15.030047164818285, 118.117097879184541,  4.243311696290101
 9.198185762600241,  5.923815242907732, 113.302012746780022,  3.889634741822900
 8.492287209916480, 12.049953958499181, 53.663616761765844,  4.203453461583582
10.891816541616272,  9.826075167182898, 82.420267290412809,  3.836654252702668
13.515653627740081,  6.362845993655634, 82.896945952802497,  4.026744549701332
 7.248928323804210,  4.527599204055180, 96.276197452435639,  4.075835177105381
13.121972723140622, 14.818484994445743, 41.404982427395183,  3.994911225969473
13.628156676151210, 13.561180555467461, 64.077184126880127,  4.134783156042324
 4.910270677268519,  4.667544646874564, 99.572365311041679,  3.926849766579485
 4.705971744477666,  2.406799558958378, 118.849373667484244,  4.020770174781305
 4.125290246433689,  4.725043007824788, 68.468402878350432,  3.995579012985738
12.295840062361819,  2.143501078693421, 118.061107467070485,  4.148495977710027
16.523850266745775,  7.370668437585569, 27.538974931081661,  4.160751468599243
15.925484062662980, 18.738769981913368, 16.041643038119254,  4.284668736887478
 0.015751862767084,  2.711957069715971, 32.339020633172630,  3.955364461193729
16.563726319977540, 13.557017476814478, 66.913323436774704,  3.728891415826394
12.363479896702771,  5.368464579266547, 86.636062724026957,  3.928753299110240
 3.942730507479323, 17.227285932804740, 87.367412513998090,  4.139267679802952
10.726241886820480, 15.251150216745620, 109.824235233404593,  3.842717327828627
 2.955682219387662,  1.332637470720594, 67.414160188526495,  3.466966507724389
 8.356787116443622, 12.679036634134452, 11.697705205664485,  4.326647869370943
 0.051314360828293,  0.661478846737403, 93.030487368199402,  4.192920798849046
 6.846046163079118,  3.033781090867898, 79.034221916835492,  4.245705724906331
 9.528956666757482,  9.803388457894775, 41.228505859166141,  3.938717802105887
 5.759220124853567,  7.613581413086411, 111.767203783419475,  3.882896461838373
 3.842117551792376,  4.569082383283581, 57.935445054432208,  3.779950411945667
15.175813780470735,  0.571646443037441, 77.989092090977039,  3.686506697399489
 0.264021035928930,  1.487848421793595, 106.252710016266576,  4.126679529894442
 6.365247744325297,  7.970978687864755, 49.337304916598299,  4.437680965365931
 7.341677923708240, 14.479971119288408, 104.737471371577968,  3.653398705370026
16.384984484184642,  6.759110381041246, 107.684952841585783,  3.701196780981964
 9.429113812485763, 18.631434972569636, 59.170409141745836,  4.350219481885292
 4.699666329474765,  0.827607159161346, 74.840788608914210,  3.926005174969143
 0.389143213663868, 12.655750555630686, 12.807764361074343,  3.721238697632614
16.893887140786227, 17.091340183988098, 39.350777336984748,  3.681272635137937
 9.264598227107491,  6.323564392446562, 81.865268269549816,  3.902027066610360
12.576709401508504,  1.407537498168727, 73.712519885786008,  4.096985265904333
 4.837122300634594, 15.757302720090330, 101.954113686064474,  4.095713391899665
17.467685494250681, 13.865311202190949, 63.359091694119101,  3.574367192889630
15.663272902424691, 14.779992520577778, 100.614741266339877,  3.869535857533671
 4.043831980047594,  8.653688456916827,  2.715413367219153,  3.882394783001090
 6.314119366980290,  0.367109439277418, 115.855212589506010,  3.883841050063325
11.239427226031774,  3.081116532567596, 58.250835083283334,  3.804968737893990
11.583561452463476, 10.598840518466821, 66.017804153050832,  3.984147251772217
 3.633856559961423,  6.740366426289490, 108.563803935223604,  3.892845606022396
 5.295730564580837, 13.742432690208727, 47.722409057323439,  4.006172353248483
18.050066451369059,  3.119548612290529, 89.982318295568078,  3.828944579690548
13.662958567656959, 12.905468018040109, 115.993472272681316,  4.090227402870667
 2.288219189248176, 18.064385750010828, 44.074078721748720,  3.718911472152428
15.614934152649532,  3.007540235349811, 106.982286136241626,  3.798701383626211
18.317833002206140,  1.795774297836243, 64.978893330788864,  3.710198368187946
 1.191998720081335, 13.352532020130297, 100.427386327341921,  3.875724506652304
18.787015438667453,  9.574162761335227, 78.010982167803405,  3.896749795555208
 1.582211727135887,  0.797486604188266, 81.089564060303744,  3.713278786546961
 9.482766173557621,  1.431646225889954, 41.514229946941896,  4.189169640815990
10.126994605865946,  6.194439923320182, 71.326994713266089,  3.953325879065180
