BANDS
8 8
NANOPARTICLES
cell(1), 19.078
cell(2), 19.078
cell(3), 119.237
 8.631408333407524, 18.933258360708788, 56.441490794150255,  4.360126725310725
11.669902219742834, 10.886615493944779, 62.229853075715646,  3.552841152158780
17.312864900440843,  7.744554675833837, 81.818373530163470,  4.287743257794405
14.582300475649987,  7.675145471415027, 108.956592959968134,  4.076107973764040
 7.951020240676248,  2.410041621130053, 73.004289623217815,  3.960828697358859
 2.439996173035902,  4.507083260465726, 54.524279068031348,  3.976707560823677
17.408443698685041, 14.814532850692254, 88.308963631241014,  3.877981374209801
 5.662056845230139, 10.720300749767205, 82.739184063617969,  3.687457958010802
 0.473108746739079,  6.058556653216213, 98.928702314980114,  3.602804518444525
 3.866154791826257,  6.800719006483210, 51.747316634080676,  3.665881565627278
 6.235562449891791,  5.150188453358941, 75.220799456784718,  3.600099026471470
 8.634035200415127,  3.995100565882810, 37.257503333452483,  4.221662080074123
16.065897650070703, 14.901755997242926, 103.223842752892736,  4.193241040637087
10.996625607515130,  8.862491751908042, 75.354715750868507,  4.065872004796649
 6.521463178083751,  9.947779116067279, 33.057769250476241,  3.993881033219150
 0.820117478448535,  5.108351499288704, 105.488031790563696,  4.231283958172749
13.817548695938161, 10.719194642916083, 111.296855498691784,  3.729538380919569
12.361542245251318,  4.142985628571331, 12.256579254743427,  4.005324744190542
14.558772345056589, 12.195274596824238, 95.223811740165971,  4.438689945512825
11.675045021348932, 10.178936889996042, 31.981664753234522,  4.175219301933722
16.108240725889257,  5.859912367396960, 31.648384590948833,  4.121055844425626
 6.945171560454071, 11.449571490034177, 92.771354858099500,  4.048190835308370
10.597770600138940,  1.649973829563246, 83.918262503969004,  4.236781825683636
16.680148081574686,  4.745544261408137,  9.185418645553275,  3.843660763310899
13.178374376445483, 12.260778724757298, 104.374455816812713,  3.898826318182609
 7.297703576307946,  1.373405007412041, 30.513038690985535,  3.891019727833633
11.958982025747455, 16.806764880270183, 35.159419946925667,  3.942024574896664
 0.931584624354230,  8.619893054775734, 91.661138387718367,  3.847890390528783
 8.171491923737808,  8.374253330818409,  8.258857137674914,  3.805081708609473
10.320672592232269, 15.494688668928150, 13.188321141031674,  3.954294192447597
 0.477855539916189, 11.145682335522906, 88.422319245687760,  4.377095063497076
 8.109726829462616,  0.120399493766070, 35.244377465187050,  4.105289399905267
 1.834113843864240, 10.885555712626319, 83.327016048216350,  4.055005147471487
 1.310538547349256, 15.479857276929264, 14.928944762558237,  4.149791428593641
 2.722866237126521, 14.908421061682938, 59.005511561552403,  4.453845899107170
13.832726183526512,  4.127817786719835,  3.118930746797129,  4.027241598667189
19.074709627719720,  9.492714544199512, 60.153605192469172,  3.796536634336718
 7.386988724923702,  4.886292169237915, 22.806092372338377,  4.151610244006346
11.207648116180879,  5.983861236545130, 96.363272171648859,  4.046566852186958
 5.349721480843500,  2.550739561247596, 33.696508987964798,  3.874062710066226
18.518633775893832,  7.787492685209311,  7.660165921655048,  3.670478122854286
 8.281989086124490, 12.770999989255076, 108.869017432562671,  4.094660098772285
 7.223219263949296, 15.039627827732374,  6.168767251651914,  3.882794090295821
 7.362492116512494, 10.924481059229491, 70.238258609199107,  3.828388803952952
 1.038771220696648,  1.619250450776403, 102.936486932865250,  4.008111085738275
11.469428349773132, 16.968575210638811, 40.350461762115167,  4.700577059035652
13.324272322034890,  1.652991929012884, 50.097572560610075,  3.532609251954761
15.136566801904543,  0.949808556560046, 14.389166291520450,  4.135886678975815
16.987245332895693,  5.122388606846547, 112.019644308549317,  4.395893070136782
10.715296559753462,  0.614167142431025, 13.668904577925147,  4.242665444282892
 6.911547052360244,  6.002836287589985, 49.340589694366621,  4.193259933908198
12.693266565297661, 15.803912072575086, 110.229111520984546,  4.136536305407394
 3.339874744036545,  3.776048174765208, 100.542303276320354,  3.887371365061422
14.008227305583143,  3.703971682730800, 114.858187134352661,  4.256833239093910
13.413031867093421,  7.898059471514048, 29.134073839043552,  3.820037953020141
15.620748297366319, 13.751657878071596, 78.176282158177841,  3.702637969803731
 6.877799358614475,  9.411682114044817, 51.687508294056244,  3.930479701052121
 4.663464362063634, 15.358362526138189,  2.328330992285033,  4.082699867643048
 7.484294852312796, 17.568228094743166, 14.914765794300928,  3.859180166911232
10.743625656463653,  4.356144285117158, 49.414007830444788,  4.054616045512571
16.329866966707343,  7.311186606341087, 105.238621108458943,  4.159611657405997
 1.373659859199247,  1.417268369463259, 93.028671878944394,  3.868696192760576
 5.460736379480278,  6.060537472242702,  9.821163368661374,  3.896095271813407
16.202863546378033,  6.129684276268946, 71.950236802604820,  4.018297611741475
11.891578695053068, 12.370455458735142, 84.701250959140737,  4.229355852604056
 4.831246935990581, 12.740783797295180, 64.199341974665373,  4.278956471605292
 7.387893518804596, 13.756178318541057, 114.781316922624598,  4.191129215405246
 7.525148254276181,  6.635216009815050, 95.231375832674260,  3.664494731303938
 5.779881178484038,  6.539768914641709, 101.920301284029136,  3.939814635129324
 7.883165194360187, 12.449616202842433, 26.374314309257137,  4.165641113374786
 4.699091504497492,  1.240273127110186, 116.226769723413028,  4.008880881204941
14.632855080328866, 18.345326895916518, 47.182215825142293,  4.141873988281523
 8.068552184876358, 18.684452528341108, 114.928578855383179,  3.779340622920158
 1.426933043690846,  0.386428051684532, 10.124615405450507,  4.053666487689626
 9.611870608070852, 13.328556325255883, 60.139919742662876,  4.048530424741690
10.535543106905841, 13.625976128301092, 88.456766975729309,  4.099050813441191
 2.509123614671207,  1.304986216524193, 31.179354094455963,  4.019978404277484
 4.089387382972609,  3.115977208950067, 37.385040904805962,  3.992735937937141
11.714454419781598,  1.106278041481040, 94.524166906907382,  4.233641629911656
13.238471056581766, 10.763359459713486, 49.900492513806434,  4.065162592910488
 2.277718105756927,  6.881979805565066, 48.171644976688533,  4.048503004294463
 6.906600740829816, 13.155299193734280, 40.691739763559966,  3.902167256606966
17.469570615805154, 15.426489969202223, 95.923818381980198,  3.933190278753846
 7.305885613159226, 17.008495605911172, 41.703601383723999,  4.041673521190182
17.626836300659921, 11.934307362842436, 49.302787158962389,  3.944481845648946
 1.119778619896893,  2.805897559881781, 80.566296794316202,  4.254763500637211
 5.787423457931380,  0.814596663072062, 86.647306536255726,  4.105261895882065
17.531524331808640, 11.639263862250511, 53.529985835102067,  4.184281372546717
12.688439019194325,  7.140541997757738, 63.247570195215005,  4.266370528700006
17.650069963155403,  9.633789930650444, 70.309652492576049,  3.822878642645420
 0.201529188646285, 18.824356221243825, 96.382610165291013,  3.786738475220188
12.182611970169255,  6.664013058607240, 72.120658425186477,  4.082710411235637
 7.489589650571934, 12.763640532674577, 49.440685332300610,  4.167866874879520
 1.563001904160982,  6.962761889051382, 57.588797972700384,  4.042552708671432
 1.642615307919940,  9.474219715113227, 67.936717468203611,  3.897837135653619
 8.422407954771812, 15.500847299800323, 46.711147337709754,  3.784580717754765
 8.456015722194016,  6.529500562764956, 85.292257649774569,  3.941038090574475
 4.706415639938370, 17.547129944806283,  8.639291232635383,  3.948027071925750
17.184568869019312, 12.411679619949339, 28.277409322608108,  4.080064022824129
 4.560064665339896,  6.527838118526128, 97.834534078304216,  4.205691504552701
10.070549702748693,  7.071460259048669,  5.120450772665462,  3.972886177801493
 2.750670615974837,  0.651579311795045, 55.918560870892165,  4.014671295305146
 3.806656455929344, 10.726110789637861, 53.630018012831428,  3.766237219665717
13.572495519982748,  5.150624039697127, 43.415440353366215,  3.795362667601311
14.566233613630374,  9.730394977994090, 118.618390489428648,  3.750430000590619
13.511247491624392, 16.588402542551744,  0.700931482165354,  3.918509796945148
15.685329409097635,  1.392608138734605, 52.974976998458118,  3.809203180595798
15.188524086569776,  6.990229089121766, 66.883720784387378,  4.260676381956933
12.126466086537288,  9.969210699179952, 36.088311249876249,  4.093544858517974
 4.869605134119688,  1.122510124649787, 80.222909490601424,  3.980673157009905
 2.941158344508339, 11.856078108492598,  3.972097067271847,  4.239225686597672
 9.540810357248414,  7.136743880203388, 103.491957874146834,  3.869781062617435
 1.692379260733617,  0.647220502367369, 35.171289644793902,  4.150542829944874
14.032296373250773,  1.415183867396812, 26.362879715085178,  3.699761481366749
 0.855986766610277,  6.557043711021882, 65.580644565575540,  3.581558701177676
 5.350545968840351, 13.856610488981534, 72.296791099375696,  4.362288683818903
10.396137505165788, 12.050148461426030, 19.548929863466174,  4.189533042848415
15.274517344050299, 14.091809725323797, 83.518348537840637,  3.665612601239006
 1.389706646811840,  2.860915984742748, 67.691878734398401,  4.181980417048578
15.202692935751744,  6.516426567556200,  6.035551335807099,  3.951402605400620
11.466021877530073,  2.933188943757420, 23.914352072836550,  3.917371771832086
 1.765156501750611, 11.170561547010680, 56.975139010254054,  4.070571325332589
10.374769435701204,  5.848652193693076, 89.564174394455151,  3.913875988851606
18.893536406685794,  5.637259437969302, 20.134807738593050,  4.117322791753976
 1.811633436096769, 16.296787296648606,  6.112927263320587,  4.130379550474617
16.389923513359776, 11.306136168306340, 107.729079007209251,  4.265947487361704
 3.803390306835450, 12.712216523016837, 80.103894733926680,  3.884711986614148
16.248507624855204,  0.601508757096814, 29.430236918634488,  3.596053995937246
 0.423990745948681,  7.797279362838644, 85.668105289064798,  4.156718370342921
14.479338290673773,  9.016935449487457, 59.809115844559990,  4.253571502377089
 4.926430563874485, 14.973955322677327, 93.622653150334912,  4.248037164671038
 8.104572434836385,  7.810346184197972, 12.240419946880893,  4.031717204359471
 2.345625085874969, 15.613480169816365, 96.995878431764268,  3.726007693335514
 4.147823954802725, 17.721284628955612, 12.692063228640173,  3.976235448825014
 0.241012983126869,  1.087655385586368, 86.384278393784200,  3.954168457777592
 6.422760939931795, 17.721089583674487, 74.058374155335059,  4.197427160200886
17.898671388013565,  2.314892970601840, 32.344201503492165,  3.927023402280210
16.819297948560564, 16.505417037826493, 18.298466507088396,  4.254341662852410
18.580996172865309,  7.261870680324291, 108.778918219280499,  3.968305077319461
15.229569004111600,  3.253751009927616, 38.230128238208998,  3.910999169095607
 0.146285266445740, 13.063664707037798, 61.958943985494557,  4.117774209563407
 2.345430686725146,  6.605431449053174, 82.091721848557327,  4.218081762363666
 6.067071308729917, 16.747187907960985, 117.744187715067554,  4.131571562284647
18.813981744760103, 10.100512822859779, 45.532375545343349,  3.816047533887081
 9.824862031934218, 16.277679631705372, 66.625054140092757,  3.529866113210778
 6.006426797486404, 14.419188200810426, 76.318401606130806,  3.825791962853133
 7.207600483277543, 10.378091118623001, 102.801117843570751,  3.867274754707999
10.179975331507704,  9.356182710544250, 110.213837480666541,  4.104391560314149
 4.253151884093533,  9.280723903243787, 37.917119586366873,  4.185129029503739
 0.330960253740341,  0.484245016829104, 63.895503155151246,  3.780289934649265
 8.902780607840949, 11.784606957453764, 12.538264570321024,  4.085044704970495
13.611840078339840, 13.416013159156678, 59.939217134761719,  3.945891821961395
 9.885289897026114,  3.841764185252305, 69.876838024538003,  3.923707190975906
13.435975898866817,  0.824595907463196, 80.290944222435016,  3.981914138096047
 0.717299719962510, 19.067986012920482,  3.047049676365059,  4.336868563964328
 0.733684891918806, 11.754111330605832, 101.014180300453660,  3.663823365839193
 6.850222881188665,  2.350845210280640, 91.058571873705830,  4.039782001156430
 4.994943120781601,  2.210744809150735, 10.379446564116519,  3.926331618194104
16.727810066195023,  1.947233834218910, 44.915526225762292,  3.919821860149467
 3.151199852545044, 11.886501688828979, 40.825469875567613,  3.863521538369724
13.273943383486596, 17.441816108972979, 52.005614060862257,  4.071945980818922
10.622328050834753, 17.078498059872278, 97.544028123892673,  4.042115878784512
13.639688378980280, 17.986647314443324, 83.817654981359766,  3.889748484155118
17.336966664130237,  3.347641824781476,  1.473123455145351,  3.720068143065032
11.126864450217829,  3.170831681825526, 62.841698393727171,  4.056415144953253
 3.122792689483940,  7.268504660373629, 75.537591495505410,  3.884617685311127
10.802463525964232,  5.118380315122493, 66.298998158780719,  3.890935479933421
15.722973801347376, 10.815314961727973,  9.018618946573604,  4.094669535777486
 4.723143387307428,  7.999026399647953, 21.131006470861806,  4.104998582870014
 4.613323660928144, 17.716071916947019, 90.441107831146027,  4.151859875834444
11.401338063465531,  1.740566210446519, 106.209627926066290,  4.323844149533807
11.908086248905711,  8.009039896607325, 13.811280492264126,  4.204898068323972
 2.684351048964959, 16.321413720799040, 63.112777374126949,  4.197012780540945
 1.853795566495600, 14.771866295430135, 90.075707459169394,  3.899269214628005
10.226657226271596, 15.972100982305674, 21.091220812817919,  3.943102957669169
15.333634360620309,  5.192253781089399, 98.123127343323475,  4.712058899279286
10.071354612359693,  2.770197165934722, 113.400519280167899,  4.102577847342586
10.516635766951124,  0.255127515413891, 110.031882517603762,  4.049680305512266
 6.801242384484700,  0.749976916351296, 38.975664079613310,  3.840253176369351
10.912984686800806,  3.162236159066690, 117.334493602523906,  3.707281373878762
17.303600200658352,  6.148398541892670, 59.410712911800445,  3.678172686129833
 5.903077123939431,  3.089604505571182, 56.642828655132725,  4.066163444163180
13.266811232433639, 14.717538074792728, 18.808233870027731,  3.764174047455855
11.759814896223419,  5.697291123670798, 100.543280826573010,  3.941012175780219
15.112413586388049, 14.972632773827142, 49.259329516648485,  3.689149610855420
 7.483808065132676, 11.548926685128439, 45.541953593330710,  3.981187254959980
 4.404184716462257, 17.423866458928305, 37.100958259976316,  3.889836392785721
 1.709601241649610,  6.445690225993787, 61.880102814543811,  3.955232256597589
 0.085800832024837, 18.054374290954367, 46.244051793712750,  4.202708966923491
 2.459490560968823,  8.553508359544230, 17.732522417175129,  4.070402665093273
 0.433951284942803, 13.813509333305698, 85.420379341401073,  3.538927380901685
 6.051227135731075, 16.130388442266277, 98.058996731622486,  3.993670159108360
16.615714527910900, 13.634128275673635, 45.746468031136388,  4.138189969170276
11.977226496227997,  2.312491378649535, 90.566008317536841,  4.049816097681313
 0.200466428808649,  5.263950582396909, 25.612024345634826,  3.912723314717821
11.802744808109113, 18.203520536659305, 63.977012220049126,  4.031304853840818
 3.963792055155069,  8.894161090549529, 79.244837686507850,  3.697595581707367
 7.843247857332621, 10.759088108007790, 36.815725189215200,  3.855912356674267
13.428151280992285,  2.887894176654886, 30.299294484114856,  3.858424929153157
 2.976633284325661,  3.569053233333240,  2.502101575239967,  3.983473741568217
 9.011074301694400,  1.412779612950017, 79.938863416865985,  4.300833237521162
12.998874889887754, 13.757554460208642, 72.930639212432581,  4.005127307063263
16.406899323258028, 14.458026711634227, 31.569667486197044,  3.733445578286309
11.388267779333752, 15.072301483181091,  3.548662332539180,  3.781457460762179
18.824394215356527, 17.504212733434180, 32.091496139128687,  4.074925402410538
18.982808800568996, 17.685782659842776, 21.532221741046186,  3.808983558147674
 7.986815965750546,  3.250230494533335, 109.373827383165960,  3.863608074414524
16.430928066525656,  7.155616802274680,  2.198595023370648,  4.090249824739867
10.858120679100145, 17.023312918438098, 81.317573141839574,  3.770324751956385
14.448542873881475, 12.603124892272378, 34.258922119919575,  3.822196200354739
17.717581934182661,  5.053281836173461, 102.041455432248767,  3.885337052321546
 1.743127369327602,  9.898861140622246, 63.982366751612069,  4.030882291114112
15.748272513968775, 14.642230064255264, 25.225168745312590,  3.964905134481471
 3.643615057814896, 16.178101025800348, 67.211724983646945,  3.805600187027920
 4.014156938186684, 12.287347910578831, 31.159405304983441,  3.703536709960230
11.588294323827359, 17.979266973762090, 24.538761000292990,  4.196271993838627
 2.883039467030013,  4.370062730059781, 17.337900681218152,  4.351509380096775
18.083764081787930, 12.563468848784062, 17.459975743327089,  4.127791202726288
16.179564928337062,  1.537083728218682, 72.243532988931918,  3.990650005255481
10.698572457706467,  3.170219658280661,  5.511688333638403,  3.952548379165345
 6.958215386695334, 17.859155555036441, 68.373357557823496,  3.884525979880290
 4.593676073036429, 11.781448487540201, 96.393243487685965,  4.092447527640343
12.249674576821599, 10.405306193681362, 114.877413961586115,  4.027766804554897
 3.354684800805155,  4.969583186546426, 116.952929470454833,  3.922617814731924
 9.885537305813722, 18.163600587216802,  5.618468796904463,  4.192230644444874
13.361594412316043, 10.503664540016493, 65.604001379468698,  4.003557122040446
 5.052083503985640,  9.658277000832578, 14.745201726109581,  4.020970909446445
10.481309667285803, 10.649462079084890, 23.729708614790599,  3.881881048867400
 8.287353316420813, 15.559495657024645, 37.412384454625169,  4.288592975393347
14.698631036429486, 17.651273215563251, 66.658396851903703,  3.829038224409873
16.519674122893221,  7.083163847527619, 92.677104845656160,  3.822277947424082
 6.375910978961972,  3.305983751051835, 83.380677649458150,  4.175206384847579
 9.292468179578622, 14.167872622305605, 71.129734100606200,  3.758675302556104
 8.633720934187487,  2.633336696793394, 59.622513494054573,  4.061373655635348
10.827838826614009,  7.707098134383821, 51.789399367785940,  4.041678091427849
 3.840911163475026, 18.214584210949045, 16.904714715075414,  4.219411394511464
15.342293128592909, 10.508858579497025, 14.146627613335580,  4.216185560763761
 9.086447663511914,  3.175340369362042, 102.988778964444833,  3.989811396626133
11.860493543313924,  3.844199554680038, 78.134773462127583,  4.003165612441330
16.526004364720315, 15.640248728577806, 107.982903101349123,  4.388557498717301
13.779081472217520,  6.856780535983258, 49.282165799394171,  3.804424446697159
 9.738217572017996, 12.440449557526817, 56.329527734701607,  3.552672208115577
 4.879817685936862,  7.165548483786064, 113.811176196868246,  4.115716831764090
16.509619698711550,  8.305540807809789, 56.387221295397900,  3.693462543023858
 1.077050606191157,  8.232171846314699, 23.059064153857772,  4.068351086746954
 0.316733038379267,  4.792603869477396, 91.446481361037613,  3.779178324427333
12.618413634906306,  9.143435355485375,  7.175820298124608,  3.762755495995924
 7.866051109102933, 14.075017480626952, 82.447343167816655,  4.210452772217080
12.024797062219069,  6.042766349531160, 32.330932365918542,  4.073602116023269
17.244201063355661,  6.914533150541238, 38.628314412395135,  3.687700024886861
 9.602335426490809, 18.129009752708750, 71.334258891251721,  4.066984450676639
13.662764039628108, 16.410092406440981, 94.855810338903595,  4.150422110466491
15.248789958041032,  0.588557898147338, 97.349314568619107,  4.476500671931370
 8.754756107802891,  6.622016410201804, 61.974861942481496,  3.859340130956091
 0.487594567623492, 13.719126967643099, 37.759121756067657,  4.077771471299923
 7.327559121514683,  1.226198314577099, 106.019468935972597,  3.774786604416883
 0.297266143389856, 10.555609513948752, 79.291662168478439,  4.281394303464147
16.652998380030972, 13.108941872914086,  0.078974276762770,  3.853221409505956
 8.945514090507187,  3.820783299207615, 33.244455623566338,  3.710042705547203
 9.271169981743379, 13.158108462187325, 104.847852858210615,  4.154248508612792
16.839607011006226, 15.710630526612093, 35.323997726448866,  4.110804571821300
17.766017644988505,  0.013247918957833,  6.930246099482479,  4.342619816091843
16.249022980073022,  3.495748371266825, 79.199403875380028,  4.033767165342707
15.482960769201856,  1.388791110252399, 18.493554002952401,  4.106663229395923
 2.120092487913265, 18.475830435546769, 99.800115331840587,  3.951764510984724
16.591156761191417,  1.500242744700717, 68.305100132661366,  3.758259792669883
10.787025415422502,  0.281756431846692, 28.526969651660032,  4.342569243037379
 9.279834221817746,  5.270351758028207, 15.480696543183846,  4.058184811569981
 3.819057317654061,  1.905018753399477, 73.111840489129705,  4.325089806860616
14.304651461799896,  5.298225189166901, 89.248533225231469,  3.949611673278084
17.086544597177095, 15.806156341046059, 63.899319198077684,  3.795286891627688
17.491439301213223,  4.864210455318086, 35.376026971632967,  3.989630908947884
11.660685163591731,  5.480077922097404, 59.558722720627657,  4.000105449383569
12.855053817031360,  5.228962578684950, 104.433006463739915,  3.967678596086273
 9.350517238290132,  9.662971124848976, 82.941228909903145,  3.979730049149771
13.138950347358946,  3.230371931572946, 110.766412656874891,  4.003477195353439
 3.337122174752678,  4.070604667784673, 64.424573921725880,  3.651615878887541
14.526719726179824,  1.382763723462672, 118.434141663202027,  4.270918354209774
17.243718056887360,  8.219030456649508, 27.768600098797151,  4.327762122101714
 6.382000417777085, 15.767695197223309, 86.395975788798637,  4.233834105663875
10.616408505025271,  4.424649291741595, 20.146975789606074,  3.907198576511971
 6.649652255443609,  3.062195425242039, 19.132943590816009,  4.167671927773943
 0.200629448139016,  0.355150240833485, 74.295961744523368,  3.762899641903225
15.430463799560387,  6.823905681781921, 85.606092347124516,  4.211402901779177
10.235949441308719, 16.277012274570840, 85.056000036181871,  3.952904204409238
14.036539626811321,  6.836933276294419, 79.479312426537831,  3.837817043325293
11.187967906418706, 18.431577945526495, 44.573061616821569,  4.072504669795980
 2.181111176171571, 16.590725495059342, 118.707367602196300,  3.717317480997348
13.521751666607173,  2.188138663450482, 65.924531963079943,  3.908711108425859
 6.236740782021726, 13.940413034296487, 33.778696092014833,  3.800515439447640
 7.665943800872293, 16.127430997653097, 24.237634001950315,  4.105396308769342
 8.623750169139324,  8.358402255074839, 99.672422842387917,  4.050101252104096
 9.313962982323929,  2.545634360570241, 87.641358943793392,  3.756806029438069
13.340335998285092, 14.432074477686557, 64.552000323673752,  3.917035170977732
14.892458051271328,  3.989748791068196, 61.552285846493128,  4.020230005935537
 9.654164916399216,  1.651939857958666, 41.593366456217282,  4.005767719870513
 1.737675173813957, 16.263482829093654, 108.210841438217500,  4.071589616838564
 0.643722632791674, 10.404749778065039, 14.458612317080457,  3.936573370192143
 1.452763870291567,  2.226548016139536, 43.792356359433342,  4.013384311516776
 2.981657892522369,  3.674363880946062, 59.291335249096178,  3.874814608859690
16.679868821972214, 16.144039344268538, 74.982021287789010,  4.399858596358257
 5.088014844811000,  7.423283311111755, 55.512963990399619,  4.142754106233707
 3.361700559262453, 14.325878902285604, 115.698730810132460,  4.121364622382367
 4.539711525632601, 16.296167496611307, 47.456941000947161,  4.268970126329401
 0.738597850267925, 10.418871551555780, 30.486434951063792,  3.850672290592524
16.251168963984075,  8.292363255142405, 42.760900918779384,  4.464748477556238
16.350489142659562, 14.864515962388859,  9.100917319726769,  4.087099135455740
11.741035294456944, 12.598766711660643, 76.623004494233811,  3.962838701427536
 2.885872790143469, 10.561801609078794, 34.386037932333707,  3.795272008224811
13.549047148466595,  8.650650874785404, 102.517353574466654,  3.957671206772053
 5.407652698427407,  4.124550578065392, 46.084310047252508,  3.845817908155307
12.596116352221580, 18.041923336584759, 16.940633617050761,  3.935029083238439
 0.298242526959716,  6.392897901218016, 78.332929254106546,  4.246541665057540
16.689035675052033, 15.010755960905604, 40.286976355508394,  3.997612946796647
13.296425242705416, 12.130317039229807,  2.032614098105603,  3.817794832366662
 3.584381344518734, 11.916264874279637, 103.770894189132264,  4.202477810800702
10.238017723580777,  0.422522812144901, 75.941133611973072,  4.253497864469789
 5.005017826001920,  7.402647972579815, 59.710314014264789,  3.969009694172735
 5.229141171557488, 18.401626581567715, 58.846225117272354,  4.034879126661608
 9.450738362960159, 13.293912948621934, 64.250506342569864,  4.131772182434259
 3.425916374008898, 15.207719047510977, 83.330988175797373,  4.273792284301472
13.876997038202722, 12.376477635002578, 22.280081848239146,  4.255991025403178
15.131777289927182, 18.240836557096870, 38.492822100171523,  3.882201950084725
 9.786189802937189, 15.283626901097925, 17.112850745818623,  3.935564075416784
18.882287660832308,  0.158485230289878, 15.800177247852483,  4.016696039891573
18.735446030748292, 17.589452163968566, 105.029148481834014,  3.910441323517776
 4.365517765080837,  7.549397310586692, 105.741280134021679,  4.279929342617468
16.961992238903594, 15.779007357041666, 59.738772079251568,  4.090372497672925
 7.798502195428223,  7.102944620200745, 68.843266176553399,  4.040074331166325
 6.682224995912687, 14.754020904197597, 10.819882514764137,  4.025133005546044
18.095200756048943,  4.578468470523693, 87.799834275919636,  3.955950260915718
 5.790562170478367,  4.252929462992096, 61.715096903416196,  3.622400140459755
 3.378359458865617,  9.698276923375023, 116.409923369021953,  3.611502253577650
 6.099039335075823,  4.638736123262091, 87.794034206667504,  3.903640528894514
 5.502242982073222,  2.454462535169584, 42.514909930714005,  3.928939306493191
14.178778279046014,  4.059807809044625, 82.730997976405902,  4.105469259821772
 7.768785917049641,  1.735640971581827,  0.053176147513825,  4.188418201733143
17.639300730475281, 17.015818803124038, 84.512338232406037,  4.082253386275498
 7.139938607821469, 18.197203525240301, 83.026057683909755,  4.135556777518017
 5.385275910268425,  3.095120034504928, 112.541830494316201,  4.248823497265160
11.233381882615971,  6.810912062677433, 46.218415020833703,  4.025336757893328
 6.966724622546632,  8.428335687794625, 117.194926642264335,  4.094584463091727
 5.609310974047184, 17.287206819352313, 54.318364009526746,  3.680019282766488
 9.553780388031271, 18.067998255001466, 103.701052955018241,  3.984511467276096
 0.022283455314629, 11.986301110569894, 94.560039701329416,  4.129059520839079
16.115852655724808,  3.941790837919958, 107.899067102874554,  4.179794956148771
16.847800107962446, 11.957686006876173, 57.879066741476329,  4.213135084755003
11.067925949126025, 15.773337617600653, 114.856061382736698,  4.054532160669395
14.767183265730598,  9.907158486454602, 73.495295786484888,  4.464660048953688
17.491866243131010,  4.555142708110838, 117.001368671531637,  3.999123421827410
15.552902093041624, 10.579426319191731,  4.896026826220604,  4.022706468759917
12.125186059585742, 18.928374945110122, 87.356364242439966,  3.911779518528809
 4.663456973647253,  7.706487643158294, 85.349634287517432,  3.960954493719945
13.037077228510984,  0.345772223873190, 69.523683605880919,  3.672995105754054
13.072598240989247,  0.219451952397857, 55.805705992439371,  4.226334063233933
17.278731255974819,  4.221750613778358, 41.586357590198162,  4.175968746380122
13.862183229549380, 16.581455721387485, 28.167007553076534,  3.905408731472977
14.470922487740555,  2.935752919585580, 101.674578107366784,  3.756284186671198
14.074892190767166,  7.397130297216497, 10.396617993142861,  3.931473454812675
12.486494375875745, 14.490775786692039, 31.371352747364668,  4.097732089032921
 0.685825510526936, 15.658510574338898, 49.467671962857516,  3.888808840143785
17.781343923777122,  8.366250257938663, 11.553013431666500,  4.059400495840428
 1.188421484703711,  1.807421716345410, 118.384521306900695,  4.153567706290651
 5.277038705602855,  6.585938457804220,  4.435772069841613,  4.173759326624305
 0.673897392159440, 14.095895116908586, 25.618322950044309,  3.877706483458716
 6.189100002506343,  2.524539183610239, 69.214490914165594,  3.901769086618222
 9.350080728036136,  3.200038593167838, 45.690692905360464,  4.052077352985668
 2.474157763959891,  0.177701504260977, 111.171527839422481,  4.408157671498957
 8.440760808802048, 16.139533492595682, 111.511219172336311,  4.109007305459980
10.762194894414245, 11.133363736880415, 101.485501724567243,  3.765594722742754
 9.468096757244670, 14.520142885612588, 118.362858487532762,  3.841021385671213
 5.880041365901539, 17.955982764959103, 108.907804518079629,  4.039758151801368
13.306407304022109, 11.405581028291223, 55.992636333731845,  3.831722462145668
 1.771373347272095,  7.596719708311162, 71.492314249758209,  4.117737928570406
 1.135933221453718, 12.283058297033346, 109.183360476556430,  4.138865226326192
17.883921924735787, 13.282813422330429, 12.498768175073062,  3.937649767182445
 4.928229648335024,  9.649874646220908, 72.948166509511708,  3.873189927027651
 6.492740758394917,  1.734980710926084, 76.656104280322680,  3.803356425331021
11.817967599956509,  7.423192002179697, 17.875706437609715,  3.976439318240348
12.615373985085453, 18.756926208240099, 100.865287169846141,  3.849256563127393
 7.613558990778515, 11.760314508681047, 86.001543487673374,  4.174782588425201
15.467837178015188,  6.066536883710349, 13.965184594356996,  3.907002223004642
 5.843440304561323, 12.340624322539227, 118.540052129372540,  4.389074663899478
10.081146727679531,  5.136088859664634,  1.461288233430419,  4.258790095365597
 3.574822867976657,  0.941291860795582, 46.650576181341727,  3.551350092443757
 8.003869662695269, 17.971958979778861, 94.169966347602454,  4.025577446672766
13.144452866171143, 13.346908930946681, 117.502094868458386,  4.032137835169086
14.765956970066361,  5.323628742222202, 19.605592624813813,  4.023887409982569
 3.500238868072546, 17.727860682515360, 43.716128659314109,  3.889768670430174
 4.639323741850516, 11.128581756627405, 112.965067287910500,  4.002958811789607
 3.554115785703272, 12.686682871012184, 68.804171718614015,  3.726133957885742
14.106729387533710, 13.660901913738874, 113.657359093559350,  3.698362315692849
14.648339537663729, 16.767110824041570, 21.929222440228450,  4.148347277501609
14.885275827423206, 15.029364884340183, 14.785952481327399,  4.245699203784012
 4.773650310678012,  5.761416193344202, 13.771542066478233,  4.005169842093844
17.423276843626546,  8.103087270755395, 16.956466584127476,  4.254165978177499
 8.401679799917336,  7.767669179616822, 72.624552423063264,  3.675562368660274
 4.340503650466614,  0.061334461679853,  1.178452556550410,  3.751951820564966
14.704214382606009, 16.736679531645215, 116.170704337945580,  3.884299367957547
12.373266520314980, 15.078811290854484, 46.417877292363436,  3.889621831471930
 5.499367318459132, 13.430740814346851, 89.614003078955676,  3.894149812419314
 8.892699052998758,  9.590117385176242, 16.153099782828207,  4.024574702867993
 5.524567668191071,  6.490531333730094, 109.711271502854899,  4.223299296777483
 5.451750420206554, 14.703169071871304, 19.218160426375267,  3.737325788502798
 3.919141401166647, 17.575533919256237, 70.810987249010850,  3.895825179326926
 5.838646092739858,  5.935638000577146, 39.535550969458257,  3.884266320956657
14.218276827428992, 11.222599943553895, 69.449680936556135,  3.874105019746666
 4.498927728023515,  0.769947330054144, 65.998292941394936,  4.017118076967729
10.620693901765700, 12.134411156498798, 68.025848560687407,  3.933184688431941
13.271440733319793, 17.761093242634189, 73.110196135928248,  4.008981091198046
 1.166136527718368, 15.209144222501138, 112.220131135755935,  4.278728185117981
11.612085285850080, 13.065004995780797, 98.177352499396122,  4.026273968267980
 3.716795424107461, 12.640743697135761, 86.366071527291027,  3.664296511060162
 8.890231872669837,  8.236165944661366, 20.696521735661992,  4.282413894724400
 1.953542075811844, 16.833645682544539, 53.146461217039402,  4.047608223239559
16.055210895145944, 14.053662521549802, 67.434935841331367,  3.983817108033630
 1.394063164272902, 18.185006233917687, 115.233560716556241,  4.057097974052064
15.770640346203150, 16.672571914278915, 80.734016288911405,  3.988183955820969
 2.576966501370948, 17.044571435714346, 86.939821435714052,  3.844221403617873
 8.808652190781668,  7.714826389827573, 30.696985321644046,  3.775008429636714
12.770551468736844, 16.491691274254421, 77.710222509879657,  4.238181507867048
 8.822573502513283,  8.984899009062891, 55.092242436902225,  3.926326401543663
16.983851566476581, 18.433367945014243, 24.939031778684825,  4.030049081182646
18.391140302992515,  8.035767142384085, 74.690296497563622,  3.961161843572743
 3.886779699628740,  6.173809830033014, 67.877340226461783,  4.060375231213399
 1.892469230395257,  4.420408584796433, 33.545307354358933,  3.860026084356374
13.036191087671847,  9.110709099903826, 98.337956293776131,  4.202165711494315
 4.643959507505667,  9.901310046428453, 99.988458805615466,  3.797386629927711
10.539358379791809, 10.375194542503147, 118.572975984861159,  4.019947233095444
17.481666044267403, 12.286470467251263, 98.173098283564272,  3.754676871063808
 0.904833715176335, 14.162634250343626, 30.302356071203835,  3.632590475336788
13.621255336631771, 16.838677155340982, 11.319422952053245,  3.935484474594332
 3.830574045056674,  8.882158632670345,  0.999699198526139,  4.205461333950679
10.952548294481561,  9.086314072258386, 42.515552714100522,  3.966186118092984
 2.021983798743771,  3.001284717176067, 76.610910278227408,  3.746379453720543
10.187547189312099,  7.998547761281976, 92.784528218135350,  3.686487821824644
 3.849641124005402, 13.816084284590469, 51.104367138396270,  4.032236045718249
 6.120912245443926, 18.374309822804658, 27.324574547763767,  4.069864799086434
14.438234804071939,  1.137349771865411, 76.214447814563869,  4.226745620076853
 7.330019209981876,  4.426607777922018, 116.064622371301638,  4.149394012084808
 7.578256315371781, 18.116881604153320, 18.902104753492420,  4.070322620840963
18.702849111076862, 15.379182225490981, 100.133312970885697,  3.866152218902486
 1.903357919256060,  4.441116590196935, 110.544100316691186,  4.188343132716901
 5.840245960892534,  0.487551154287074, 102.314749300614196,  3.710167703985103
18.015811708843167, 12.035728189691644, 75.482969033011599,  4.209237006007769
 0.846341598740812,  6.436545107972539, 95.053179796059368,  4.209624738560748
 1.299580708600399,  8.406816279413766, 40.588062021727140,  3.805782884722959
 6.642994874322125, 10.623476207420499,  5.408157525288943,  4.062181969522606
17.622216596467634,  7.927629387695206, 49.533514787056276,  4.013326879944845
15.587359095054147,  7.787232450250317, 115.306625604483301,  4.181884311124760
11.660223955224300, 11.090618545949495, 46.037852601394249,  4.228270717761780
 6.475227446811494, 10.964613039196607, 57.726203681309897,  4.080196018258557
13.512851781944745,  4.721532929260619, 93.316817200480287,  3.876134013672582
17.731832752056338, 16.436689497304862, 28.360011635283549,  3.840680084409541
18.626490077702034,  2.370658397765252, 99.202211375784671,  3.991046403941221
 7.018706203144392, 18.919844792101401, 45.314940242233838,  4.107857390559708
 2.420935855244055, 15.734513041572050, 102.823160739570596,  3.887065248479131
 7.955475385636363,  8.739432909669381,  2.047143926250777,  4.072866843956450
 0.035773883763772, 14.595839819247685, 55.798035952582076,  3.876960680917029
18.384319964795544, 14.716993776885721, 116.232061827993334,  3.862849995352079
 5.180305974904931,  9.638919349787628, 48.185712771484141,  3.842008529993294
10.183155850592337,  9.288708093810772, 27.436207669494305,  3.914857991640905
 5.045679007760371, 16.952010859337040, 113.318370435004525,  3.684578924213557
 1.273700329760410, 16.662355660344911, 93.469679820980261,  3.774179720204954
 3.727517946821863,  3.648962864494663, 49.818163693874503,  3.725891228275108
 9.869241462094799, 16.154095977375629, 53.637059876297592,  3.895659438886498
15.436076643895319, 14.999537214594868,  3.951393194656945,  4.273468051294213
 3.556232609944362,  7.727144094550308, 31.494590972732531,  3.927538559426360
11.823965943036116, 12.290323034439231, 15.308842639246883,  3.980265598027294
12.635101274475797,  6.915062233586228, 112.499988559711667,  4.143243583344228
10.604019090886869,  6.898990296272532, 116.123198059701252,  4.056483744756260
 2.295604788581381,  8.576750438308164, 111.167214088512210,  3.757259839616672
18.099348929857786, 18.435489983236518, 42.069172228468723,  4.218941192784893
12.371776850046377,  1.540153256252726, 59.507200327066656,  3.707039315504269
15.002541493768939, 10.063825421608648, 77.641037632145697,  3.784244584233815
 0.907211029073851,  6.447607964916345, 14.269092933392386,  3.740410244861442
16.118307898595720, 16.995982332205195, 70.396590483172957,  4.002982481069217
 0.974233688278008, 14.836364672416204, 77.932980867129700,  4.230732865787240
16.872261726336628,  7.694585397786059, 63.006407218434596,  4.106313514936350
13.255733740030156, 11.717620377908018, 28.605771043812929,  3.872378178560853
13.776187697201292, 15.384482351456127, 86.789533489979107,  3.976102137957947
 7.390224263665114,  7.556809592878277, 45.586443112581378,  3.839343888231227
16.233578046332482,  3.919913079348462, 50.068973812915551,  3.834937534335585
 8.943910347092674, 12.261151461378946,  8.475944511740812,  4.093125421519687
 8.039485771330893, 13.248359730335837,  2.754280892460690,  3.890334870591999
11.641727439144017,  2.431133142417991, 98.345756819919302,  3.834046633071343
17.122994290620415,  3.367412441242389, 94.490305262335880,  4.147352511924034
 0.927401382020566, 18.832108112817778, 59.504261127485336,  4.220852464801202
 9.951472510365006,  5.073540873626168, 74.977976946001021,  3.764858985244895
 1.284098509432504, 15.417039623947916, 10.056866198445320,  3.949689513166517
12.999901750770594,  3.878584687119074, 16.284107098767326,  4.033191464543116
16.028037498809368,  0.577143057762367, 59.163376999310387,  3.844761250364125
 4.461792223920069, 14.886922376164099, 26.317674730789779,  3.876713230066922
 3.357432132571139,  8.965615820229530,  7.356892631479794,  4.254247725044735
17.104699185238378, 16.130433131219675, 52.414436347513018,  4.059837467063137
10.712573514976626, 12.868616759095916, 112.145933704224177,  3.898680214372888
 2.548580088673010,  2.286152413000057, 13.615191627142705,  4.175516200702495
18.495443703952606,  6.081169952879926, 68.866315026277462,  3.491205372728601
18.747102433636588,  3.183284837577499, 61.222328637917379,  3.821222741292232
16.998899056578438,  8.788350453358904, 100.245296873963042,  4.266817611997737
14.779857699166833, 17.915200256080958, 32.517350217077414,  4.040302256221169
 0.531253020830202,  1.561469501755767, 27.485554953150501,  4.366336810598561
 2.063036819990390, 17.737949110995032, 24.855603650599214,  4.001661691962237
 2.882878043654201,  2.318357982827008, 89.263573064824485,  4.232238643473824
11.619452572371086, 14.000647579554778, 25.683681208585938,  4.020032812215064
15.532706735440671,  0.262911852095528, 63.070233546746152,  3.944263878889902
14.720458152672471, 15.698700367205769, 98.977206108946078,  4.100477893851540
16.272059633073088,  5.740354144123538, 46.329555549926106,  4.201219954904574
 7.228208344102688,  1.654692561753689, 49.178881566293441,  4.419882699435395
17.931371072925526, 18.442107804429153, 55.724835264698385,  4.152879936990200
15.882069983604183, 11.396706273196360, 81.009897403588823,  3.660193168297749
 5.292250586751855,  5.557721143862896, 71.593511921762328,  3.938365918284581
 4.554162762740469,  3.130426038214547, 28.124282337077368,  4.022954411855388
 4.803704257267585, 10.545519504998131, 108.746983283457453,  3.988114397976265
10.727448789522166, 18.167060832888257, 48.710940075694843,  4.196822049146733
 3.613268412335061, 18.592356541244435, 105.425929601565983,  4.076597737283829
17.875804661171752,  3.310742107673692, 12.614125824243402,  3.852837894866021
 5.428575770785023,  9.852562412744197, 67.064093160477128,  3.905132043305366
 8.750756696941210,  5.606237024019859, 42.341904501072655,  4.204774403436301
12.606365119207744,  5.972256890362600, 36.335784478841269,  3.965481171095641
 7.697145729492079,  4.986024854582035, 106.075467282668839,  3.609752396547754
18.499285552641240, 11.730742196540982, 41.937914636623546,  3.854929228577857
 4.428353323355207,  2.420859320084145, 108.147794912720201,  3.743884138349997
17.542936577548133,  0.038546077691276, 49.716310770385789,  3.686038472109836
 8.489129106641981, 18.075542612460243, 89.089837749875102,  4.006791037613199
 7.555430223628647,  1.258910631237337, 63.301745171792362,  4.013601566867347
14.144244925760045,  2.871337626998366, 34.231315392070911,  4.127664319319127
 3.939220113904102,  4.490124448381563, 92.912657008443347,  4.022023020188740
 6.810956901925760,  9.253935263606397, 41.670071563260748,  4.142218334189838
 9.986158368612694, 13.929255325092912, 43.285027064353230,  4.244403210371578
 3.739080389450274, 13.620226540604287, 99.895903251710550,  3.729267910306797
12.922038341179030, 12.785436462406569, 11.405584782660060,  4.165283352647294
 1.771721124068016, 15.776258736525493, 73.903001824513382,  4.161719776718050
14.315947584225084, 10.777059810522003, 18.302536589732362,  4.360413885198541
 5.573994264643095, 16.273020894029440, 79.773942676491032,  4.030345476853984
12.966201602437696,  8.428422837234217, 21.634624079935406,  3.936465249224139
 5.892374547993151, 10.871846754053484, 18.480170789900644,  3.986957400991904
12.492223739456428, 15.495928811696464, 69.253621950341355,  4.106480003173396
 0.829863875112035,  9.768368042694572, 105.968496043482219,  4.008087708723099
 9.972297573438070,  1.738107120592268, 17.439115797466368,  3.697872488259158
14.629983696753914, 16.507314830324074, 43.440022628361973,  4.095577122889965
 3.773836484861965,  1.084946258805809, 62.109443447021434,  3.898734667676482
 6.580001669241862, 16.578819177386450, 64.613128970528464,  4.030600217388431
 9.124332003526808,  7.425077361486845, 34.878025907250446,  4.117278829585931
 0.312324304050309, 14.810866449064296,  2.488933285379320,  4.162688533030304
 5.441701671511684,  0.917993171836144, 98.582123540383037,  3.743873342349414
 0.351612183975722,  0.095057457989593, 70.465297153920460,  3.880575618176386
15.151504235611387, 17.842262329903065, 89.712670831416418,  3.984763218574644
 7.104320342061222,  6.117419009065014, 27.696299426786442,  3.694286079955973
 1.427718996210737, 12.245211930492131, 118.623922953512093,  3.973271953136923
 3.349271762115883, 12.733846052557661, 12.418350664937783,  4.263884073476944
 7.880401831402513,  4.958327995012669, 53.387121034283112,  4.360293012753655
 8.594011158913764, 14.097845925007180, 95.540312233546572,  4.161684795882060
 7.332612613908500, 10.330433993398300, 61.675023808554961,  3.992434320146900
13.493434786458835,  8.438424317997335, 94.292199816416954,  3.549736111645585
13.548621598296805,  8.176641143076212, 39.514998966763166,  3.982339078956244
10.534753419011537, 10.905300605863495,  4.542605974470062,  3.798813115842547
13.140876710344020,  8.860312267518809, 90.530362067288948,  3.916703950889703
 2.384207769945281, 12.566023035454679, 47.381913157508343,  4.279339751716981
 2.348483793776625, 11.466903760671149, 20.590779330077247,  4.016214430496929
 4.599587254223585, 13.399429605666992, 37.406108318654006,  4.128365419858324
17.578114447738486, 17.334199537706969, 12.335285532951451,  4.164814054821397
13.374091539389237, 17.171746438844153, 60.586680011206383,  3.673964471362377
 8.501034511951172, 12.561807669102556, 30.555027382935084,  4.232958457889186
 2.706858453303928,  0.539412873086345, 40.254606541582220,  4.138051251023596
 9.135375137436629, 14.818969709588757, 78.631545886411431,  3.934502620202272
 6.518312737848277,  2.331023447416636, 15.019316873383167,  4.056446372754334
 0.136871346632883,  7.940553387394663, 33.499120191707640,  3.991600542440920
14.102555546028601,  6.125383091707572, 75.638942759703440,  3.943812917998426
 6.165678879796686, 14.924874215908941, 61.155946948633115,  3.663883777455415
14.017245907532727, 13.552858060712241, 52.799685908837631,  3.887817776848893
 7.575218079009089,  4.742631877864026,  7.001196362731577,  3.626671046249247
17.122335679217571,  5.016469354907933, 54.086644295596521,  4.135250675694723
 1.599227320104251, 15.321645643809234, 18.976662741385574,  3.927599590966376
 6.960739329913367,  4.356137564714130, 65.776326887252509,  3.963361119645431
 8.395268232196202,  3.759339535312098, 11.745468528983729,  4.002116704005905
 3.541808614305025, 11.063124496959967, 60.618662047659697,  3.941754288983325
10.621351059591836,  6.788688812085232, 24.387900760604083,  3.951750306640690
13.774983011562417, 17.481934157069915,  7.206391008694580,  4.158106061908511
12.027059805286646,  4.742292780773154, 86.063100499059715,  3.792672669255247
14.502477632649848, 11.541440114546582, 87.656819495140084,  3.788211270929769
16.326643510175060,  4.117858548892739, 27.954135182986818,  3.955334664458865
13.750840335443730,  5.751633990410257, 118.552879135711777,  4.184014461702165
 4.535335158960970,  3.570357111834569, 104.364716255508483,  4.115652643678884
 7.078729750144642,  1.163009237851087,  7.396215828492216,  3.641041491010256
15.873718656138639, 10.060124402002460, 31.473049457641803,  4.217500398672777
12.837185211166831, 13.283877479649849,  7.031457621647636,  4.449960912403687
 5.713278467341606, 15.403358929592876, 29.919301683526410,  3.796275828380513
 2.778497644863169,  4.057319526539138, 85.429703828811384,  4.084375936382417
 9.153541518976180,  9.229427710602785, 48.566411119956435,  3.797283986574337
 7.118406543687446, 16.709738701786502, 50.752498685690668,  4.140170097784171
12.579108181848859,  7.346534788222286, 55.914459738706960,  4.350969250313905
 8.310799835660823, 10.018576526717860, 113.734705314698289,  3.767274291524071
17.284807009588850,  9.234655256315863, 111.942448797243316,  3.824331972140870
 0.091682190880197, 18.327822969819799, 89.949684683348949,  4.039566152009499
12.304443952451956,  2.630421825416337, 72.922057884366822,  4.124174959854582
 1.033353262079332,  3.047569652472725, 114.341983426058633,  4.036012896941292
17.376371301947277, 17.503568241583764, 119.030830799809095,  4.015224148338149
13.973862520509240, 14.113669183422903, 90.593253627239463,  3.921426843345483
 0.813768245066213,  6.223878605823697,  0.429247242703307,  3.880244174631395
16.539868702078955,  2.330340184897813, 90.638081535705965,  3.879158501949538
 5.096696551434160,  6.357793212069425, 35.037102314025098,  4.155886028774114
11.632849576152450,  8.275721290403508, 68.478583641687621,  3.940516429093208
10.327895922012674, 16.012566385281406,  9.205902999102099,  4.029822004048026
 3.360723871393015,  4.121188298434437, 21.535728578562630,  4.048836653167057
 0.529357518599984,  1.560207817997828, 52.601365535347860,  4.030293343654996
 5.927456259153510,  9.694276869530988, 28.807872332419556,  4.146625804105462
16.092212636681271, 11.302621431063821, 38.765199843522147,  3.883088347049358
 0.361058264340531,  3.785555813159676, 71.807583326736676,  3.963888563878165
 0.749977806452398,  5.306918152598750, 29.761817141488816,  4.215245294341424
 6.370494019509252, 13.644977754642678, 15.367249895561663,  4.339251231911915
 1.723304522544952,  6.219735210448476, 37.113319475951272,  3.770931344040132
14.563769219823943, 12.066754148098312, 100.694604434480894,  3.939466019950720
16.787841394173068,  1.020115140130220, 82.208391883215981,  3.584196893556163
 0.688640641261558, 11.445809665558276,  9.425404406630841,  4.100645607931609
 5.189425704659246,  1.783708767326243, 52.871508471698590,  4.004308081765014
17.382612937263509, 10.433374835616647, 65.975557391540590,  3.976696236118537
11.772476417349013,  8.615840888575681, 86.667924638311248,  4.043632049374819
 4.034484251383440, 18.615214744799005, 21.099887471441818,  4.112663687445248
12.216478508165713, 12.311159494045370, 108.175148821775466,  3.922414813711202
 2.995863971481121,  0.494733700882147, 83.637333732665653,  3.899533474690600
12.559051570158324,  8.256484120320637,  2.379262135540722,  3.744448292849392
 7.689460268152015, 12.435366548530013, 99.301809660109399,  4.209240569872122
 9.656685616438024,  4.281643418683649, 93.055546347639321,  3.793995338981849
 6.511292484756305,  7.077384942254769, 81.757546188958742,  4.036566845095835
 2.828941707810406, 12.422862119339303, 16.766450986417187,  3.587593459419227
 7.072182179400484, 15.070145142369846, 57.318543211796609,  4.151530449458133
18.256597704879624,  9.248787935739236, 117.837097241691083,  3.651635856488539
 3.616103105005992,  3.131077083929905,  6.585966296666588,  4.281923899706009
11.204220479473362,  9.657322275361729, 79.348217500959663,  4.053268216448629
 4.233441431513352, 18.659640766337258, 95.107825341382764,  3.756156800779979
10.749175666897436,  3.521849664292241, 56.041918819182747,  3.809244653102851
16.016114597418614,  6.555619815301879, 23.132766373842681,  3.820888859455295
16.321099982360138, 16.658252848906322, 112.460841061601258,  4.032425094227390
 9.656100129254597, 10.129839739624090, 96.077317464247699,  4.118673212370385
11.236539812277211, 14.361658535838155, 50.124770471364620,  3.962058650689877
16.857893149273050, 18.481093499500357, 93.299173011986468,  4.042055471455432
11.467209020472211, 15.755664433756587, 57.379334769285101,  4.155639478290474
 3.489260361510010, 11.275849767343860, 24.651094958932362,  4.302951878682012
 9.220886929771778, 17.542309515809126, 60.599050945901901,  4.412801355128622
11.112094260346078, 11.940017870085750, 92.567717073127056,  4.275671523558106
10.662757173024733, 12.005377330640593, 39.502731457999502,  4.277393141936061
12.445914497580485, 13.401773490198398, 80.571875338749479,  4.181929544808124
 1.928117354618554, 17.640300308511478, 80.572725662504737,  3.648475374254737
10.695038773682745, 11.555787622276027, 52.834861796391507,  3.860778599440630
16.224784570419782, 11.611635515461966, 115.863873939749141,  3.648691535111088
 6.521795422937085, 15.545805646360284, 102.233698124883404,  4.394213359307805
18.588153019565507, 10.503056192032181,  2.313465386028322,  3.836632430758011
17.445498780080598, 14.638759489862055, 92.151317432926632,  3.742463055168487
15.265805843845344,  9.566789383000298, 46.774918583138898,  3.737956245065418
 5.453403943869718, 14.671032962605564, 106.306639804427476,  4.158116189031514
15.143091769590145,  8.378989115455926, 52.704426739376778,  4.053310138774468
 9.727610921467774,  1.205631740652258, 66.813484032759831,  4.102817816984384
 3.098599695425733, 11.740036332765365, 92.036718454194826,  3.704666701162671
 8.387069642856696, 17.145099284841635,  1.884275805890638,  4.053754429887721
18.115666166603560, 18.974175350470539, 78.172725283784672,  4.321495632213174
 8.182751703741665,  2.683589963865523, 26.258660767532866,  4.033544728707083
 3.139433608078896, 18.997079968089238, 50.125778438281387,  3.744526049714936
 1.526215031778114, 11.723588619301539, 72.119835725269638,  4.242167751654147
 9.116572740230581,  9.190708892221970, 65.300778839679182,  4.353865454079363
17.462812358749392,  3.941010498541730, 75.347230296041289,  4.079340174090528
14.661629402761694,  3.862534745962655, 57.275678845444190,  4.176053704294089
 8.185188258070980,  9.318853870820812, 106.586533724960645,  4.155589482163925
13.652550028967232,  9.197538203419441, 25.501497783390008,  3.883303651944520
17.469688173531122,  1.083029409010546, 110.917751244318580,  3.947377676398598
16.963092175847333, 12.969545432199673, 111.343835510746644,  3.758424235232872
18.515723251959120, 17.500756539181346, 66.940791036494929,  3.720554151265219
 4.321203315558831,  8.481999793732252, 93.920336715614368,  4.154215914026933
13.716235348993823, 14.330209080954187, 37.720718932962036,  3.967144509881087
 8.878921919414907, 16.468314831922108, 32.129192131310525,  4.213007791296347
 1.746263416098066, 10.036543366720725, 50.494476844559408,  3.796861445985164
 1.287252323783697,  9.641052979935056, 97.746794548683766,  4.109241783351720
10.152110404652586,  1.263337061588605, 52.484111643019403,  4.436009727227706
 8.467778123996238, 14.982178544113280, 91.606181486528754,  3.895480333470266
15.284256098770944, 15.269292838199737, 56.151194085981224,  3.839010436978616
 5.869493173917439, 10.619631616644590, 10.197804500655913,  3.646313597490618
18.569810489874214,  3.975681486021838,  5.339553967082107,  4.127431751667987
 7.096517443613568, 13.112833369306832, 53.563059497955564,  4.102294291044699
 9.811593603858501,  4.220477793756350, 29.544380660554896,  3.831895410363811
 9.027875869928293, 15.762472801482307, 28.179923583295558,  3.689664317816248
11.424565986785446,  0.959867922734293,  2.201970850561901,  4.106767653625538
17.238893943376702,  3.721773800619426, 64.984756807747615,  4.312114338200943
13.079526655880089, 19.000749444982162, 113.293544574576856,  4.109297437727770
17.854072797600043,  3.997442951034056, 16.491791678790758,  3.984643448134206
16.729068474048258, 18.599595506401940, 101.374104133378509,  4.085309134055723
16.787521207844534,  8.787820835317163, 96.136545930520967,  3.905074384732071
15.674203170055266,  1.088200929944427, 104.972416916285383,  3.996250995789641
10.936826290010176,  9.425566490612495, 10.385348528130455,  3.454386205457369
 6.198893661745362,  6.901855456018758, 17.518170445962141,  3.994085818308468
10.975495500233771, 10.519410820393229, 71.679566453299159,  3.980067879974179
 0.236163076319543, 13.703214645512535, 105.465377401385794,  3.986966876956056
10.277922648729001,  9.407451475807934, 58.898941629423142,  4.228106027158775
 2.286369120224109, 14.945075966574963, 34.166241581314466,  4.183147316277361
14.109229631195952, 12.205612309018758, 42.477815286777201,  4.437918379043370
 6.645211823969451,  8.763713179785299, 76.355331386472784,  3.914742082752792
 7.457229496908654, 11.289758591323297, 79.223984028437471,  3.894228466414101
 7.995310165833573,  4.265274724116309, 99.086148362977838,  4.287336691960109
13.088441572565861, 16.900606510999918, 105.447784874473300,  4.234366394568685
15.493338448301525,  0.170935783714535,  3.270659605148023,  4.244955504117893
10.083867259623510, 13.193783103683572, 34.419974598357520,  4.049099284516084
 3.144177440836232, 15.688625776808969, 40.470841660163472,  3.754907533435835
10.915775561069523,  5.535163209927441,  8.755418805059833,  4.058951391960470
 4.801838261195977, 14.310036925441567, 110.360122490887363,  4.075772078146373
 0.009274429092904,  2.618475175193390, 38.202837150456304,  3.716974722098520
 6.235104413474112,  4.979339680803263, 31.031821943442772,  3.535418859750533
 4.078737934978043, 13.234202728298740,  7.833928838810811,  4.058102347202703
14.385437011672547,  2.567530903780030,  6.748609233338541,  3.875668181484920
17.700280765941773, 10.013273022999824, 20.522852447434431,  3.835291527042163
 0.409439536922061,  3.088380105870872, 47.750227118302213,  4.126778207158129
13.083074661170221,  4.430886946776103, 52.832663668480038,  4.170004609237843
 7.046230655869446, 13.929762595160424, 67.676242897077813,  4.009787087046343
 0.848856303432711, 13.606864159881081, 66.023204542112680,  4.111737762144955
18.978977504739841, 17.724331316331412, 38.152814121709561,  3.818951170286033
16.789534969481696,  0.713298286822188, 115.078576677215523,  3.823762625371678
10.724771312224838, 18.459880184323637, 117.791957084845748,  3.901753078346676
 4.990235857357884, 18.399239292701317,  4.848954873317478,  3.837338432803195
 8.865923897488507,  0.444404931781236, 100.098296790370938,  3.787040135406552
 2.501552844276231, 17.242012849722467, 28.789111277399222,  3.852542694030009
 3.137863840494840, 11.502154721794707, 76.181539288922295,  4.346002321950384
11.609068579182624, 14.993488704759599, 101.852083218809952,  4.133432312076612
 0.699259838557767, 11.502983391786978, 114.189817413311374,  4.160899006585618
 2.810753518190518,  8.560587103947292, 11.519586634529404,  4.134684935416904
 3.708023270702247, 14.074363517120416, 55.178871946805174,  3.603658007305677
13.315674745167213,  8.971747548706370, 82.761883595939636,  4.039099950257184
16.935373975141257, 10.981512584574594, 103.742769770280177,  3.802186845854694
 7.690726411868233, 18.587830834386878, 11.164303383241300,  3.807413256808700
 8.503644182505127,  5.961906767138435, 78.455968025619370,  3.922484991580684
11.147765343823046,  1.229259047100645,  9.308239302226683,  4.596859735546118
 0.224668398977164,  9.743425582939595, 37.146154829231818,  3.871840507681592
 2.253192548165640,  4.583205620357981, 40.653229489479585,  3.985428485408012
 6.769381953199733,  2.640394534625658, 95.272045257952158,  4.159926939345642
18.103910090374296,  4.158633501183401, 83.867819666957146,  3.942046921281545
11.009871821309925,  5.672278301172184, 108.092596369770405,  4.264458015175384
 2.293073913511817,  8.462642243954273, 27.450465132752552,  3.913885797075155
15.493907463886956,  1.127050545388689, 10.262522377124837,  4.018461440152076
 0.567591437955536,  5.090319704283377, 51.119511769019752,  3.611801931517971
18.374660745586535, 12.140423313002460, 34.040909152212855,  4.013252347543544
16.440322070584756, 10.889934184487004, 91.611070500366210,  4.045070622092092
 5.019974040460962, 17.762349934853368, 32.968325469323212,  4.012549126703531
15.656541615634252, 11.610615610229182, 62.659536029790353,  3.682945647637195
15.873069416644404,  8.567000652795056, 35.468977397167563,  3.863224328732327
 4.605463777039689,  5.092441383543696, 78.725041038405323,  4.038779487005240
 9.014946644748299,  9.845166244043826, 89.476096884706791,  4.181898796489680
15.403449832247352,  2.549128174407397, 22.662316533227163,  4.249284601261580
 6.724231028569137,  2.735032277398704,  3.822230219874401,  3.884103085491438
 8.191699362313891,  6.123425379638541, 57.797716327849521,  3.857147432882895
13.908948013563299,  1.387429331952509, 41.878853572429207,  4.341487475498024
 6.069507902718438,  5.458239565650631,  0.608218219593116,  3.955871002276506
12.154965891638938,  8.999117059487066, 106.142600468220309,  3.746664119755883
14.369720587979268,  0.088485670110245, 108.640117596307419,  3.973291175581994
 7.060830928628000, 12.468074875660447, 22.190717807389078,  4.344865636617324
 8.274823296208416,  0.820087859242097, 22.562158566254098,  4.180632254282824
11.883310461243298,  4.521498778220828, 39.964564238697292,  3.944177767722272
 0.714599154162630,  7.252426602771694, 114.689751464381800,  4.382573679897649
 8.332172802307419, 11.844490677297367, 74.441617094163135,  3.984951788613214
16.959900915109269,  0.638927436863613, 35.595991436611349,  3.494922240599946
 3.344072735855834, 18.293854664512967, 76.903644824079592,  4.253802917694981
18.691813763727509,  3.117656952759356, 57.310300008651154,  3.957746013180711
13.819240841123630,  4.083827592512769, 69.450669259798445,  3.957813165754770
 4.108725758056988,  5.793450778344383, 25.129430148020948,  4.008486558522428
 0.416643055480817,  2.050142917245601, 23.315331566810265,  3.968712485818204
18.691121677151447, 13.936663220775412, 81.720041688274151,  4.009010811773504
 0.719020869324074, 15.211350416408543, 69.873561012227526,  4.143128529742858
 5.194758251367261,  7.509941051223085, 63.778538898615452,  4.177241690755794
 3.422402338266799, 14.794645195427199, 22.485832740606266,  3.910597581090999
17.747596884811063, 13.911224470171829, 21.478638689825608,  4.117575816906503
16.867256282770420, 10.761592107659693, 84.656433427391320,  3.992029120097327
 4.731082947025143,  1.711664896825319, 24.410496923840551,  3.927861842634259
 0.644304728845973,  1.488222845946328, 107.552913726794159,  4.102056311302767
 0.312130800180954,  1.744740637947084, 19.334549992404305,  3.797078852536089
12.022542316966092,  0.667282506236681, 20.627100969993368,  4.114019244202322
 0.737075329877631, 14.967028658877965, 43.676784625216385,  3.914785235010112
 9.853249862773781, 15.566688545250608, 74.740144478006286,  3.989033987385248
 0.745057858432100,  8.087058557621283, 53.757508203275307,  4.050570926388423
18.453619477647724, 13.095503385863470,  6.016807423492917,  3.887787111566794
 5.054677599487804,  9.671342065029449, 88.770007457723281,  3.850483968132927
13.276639975975991,  3.022857731719958, 46.630613359471411,  3.886777297864437
 1.756417070775983,  7.991976334707443, 102.237512351244050,  4.457074854400621
 4.611979660338132, 13.857489858723282, 43.976628163190803,  3.998794535609183
17.237269447240767, 10.902257899693002, 24.424060188221695,  4.192623875362509
 8.579192681935730,  6.375838427340883, 112.434677368449741,  3.933851016255150
 6.983923158962723,  8.722777237428158, 24.597529605955760,  4.268976631079243
 3.649623488772860,  9.828411613706001, 44.367739691569113,  4.188743735836847
 9.381100332369554, 16.423575440733000, 107.398935116118537,  4.075313605365315
16.785558141098896, 13.227227443486685, 71.765284044703833,  3.963912657693709
 4.770579505492222,  6.271691814978801, 43.099455558952450,  3.585287843402491
17.010061597906127,  8.046134635808787, 89.033972715328758,  3.704231308717019
 0.891372939496536,  6.375425347809571, 44.219193698928493,  4.373630654477134
12.644637680166580,  4.816987935104711, 27.052929675830509,  3.751131371184777
11.755355293186852,  1.172823457679878, 37.308475504625761,  4.172168010157459
10.426982376520417,  5.730854639889579, 81.925924449850555,  4.017387829130024
 1.219989560128538,  7.475458012657757,  4.123696213719520,  3.939605074030205
11.123810020257869,  0.736248453454955, 32.622210206808219,  3.884380488796344
 2.688466664243741,  2.971926311131313, 96.581139155907579,  4.203345530815037
11.596735048144128, 17.372621452981733, 91.511483176143358,  3.932636225238620
 1.601532946391697,  4.683622679112800, 10.019977640398398,  4.246194792928466
 6.790678530167751,  6.754339689451817, 91.126933635469257,  4.050807311324284
 2.705191319923057,  6.483806609163913, 88.843404101058269,  4.037520850868182
 9.572954216975218,  7.851805703502626, 38.966277151325812,  4.039875450552064
15.224695953748748,  2.148606626565456, 86.283536348849580,  4.090379568793473
