BANDS
8 8
NANOPARTICLES
cell(1), 19.069
cell(2), 19.069
cell(3), 119.180
 3.578399981731126,  5.285781540782058, 81.549304039904101,  4.183690588052215
 7.708591718521827, 10.041113873126964, 67.688349852494667,  4.283474410275641
 6.469918956424633,  9.362933442410075, 14.058244897046288,  4.336173776297131
13.698959026335672, 13.347273244646999, 39.345435415815018,  4.189211310581386
16.126618645038640, 15.457850479347973, 82.303594302793925,  4.040080781491653
 4.258844385126291, 17.447374371645786, 44.455231071701007,  4.043022180296789
10.660220904321640, 18.231432713860936, 23.605639027101049,  4.154245491245535
18.036698239313136,  7.135862083999418, 72.828053299361130,  4.061528948483955
10.986420419267370, 12.958478657969154, 117.711687970690605,  3.758361021105610
13.258511171127410,  0.109253564448658, 59.649641407779477,  3.817455171484816
 6.878278364683148,  1.680718293882815, 37.444180421083402,  4.176600145348416
 1.134439246079479,  3.484582578296866, 106.297456861301157,  3.845770558731842
10.077889083701024, 12.230186458881979, 108.774128917658075,  3.875730932834097
 8.773032392233663,  7.905796391085067, 57.768263027219838,  3.388355282137233
11.913700935907704, 15.580714373365625, 46.008569584189935,  3.820182170528296
 3.704966799560188, 11.033913526864984,  5.038234088546039,  3.616284350019957
 1.321847581858842, 15.756026291882591, 98.927624990688841,  3.884032692033809
17.157426521028256,  2.479003449251397, 118.423231128876992,  4.240034245467780
16.227632448650230,  3.596329581641379, 114.429509265394401,  4.051883998907349
 6.887036005445008,  5.700703793384005, 44.883226688423434,  4.245418912665635
 6.162196531155704,  3.342381243121780, 116.563136478238690,  3.988820669956646
 0.993422245162550,  9.153763754717968, 37.583804524231745,  3.802112934071971
18.171406519483018,  7.029302465970239,  4.815354862544569,  3.896850599343663
12.906568910050217,  9.274015859541610, 111.402375911269814,  3.832643273067277
15.998534193896310,  0.466432508484731, 63.854683027688949,  3.970577722499292
15.855142608842204, 10.049473944157885, 11.781601655049423,  4.141550815265994
 5.118002843836625,  8.980759477422463, 110.940796298919906,  3.566433886593825
 0.045581443692269, 16.661779102658514, 28.459948850790866,  4.266468241594135
 8.096463903979970, 10.668610775566316, 93.100834503443750,  3.685835266115445
15.283391861608822,  7.176116502161221, 75.498427413442869,  3.583788741727235
15.484173217138213,  0.457952676677140, 14.733912021897988,  4.023538701997764
 2.478740771515936, 11.116841779289084, 109.312418157070638,  3.907535278461587
 3.686578030712933,  2.871837304832834, 98.291587051188912,  3.878779714522772
10.892318323703618, 12.620495026856823, 91.218786100844099,  4.010174772701964
 4.282349973514997,  9.664931339008003, 94.650233150897378,  4.459392026131495
 0.213868503509232,  7.854001755562376, 100.021831172072893,  4.272161489612651
13.347439302257060,  2.971823691955491, 78.872510877133024,  3.645464184022703
14.824000457607154,  5.940867705596411, 12.539279920779693,  4.318495386622526
12.851482609788022, 16.485549051196823, 116.702116319885093,  4.383750404444589
14.632173538377360, 12.594781789117338, 84.811783957630325,  4.123938049030085
18.995335273139649, 13.595598136288080, 64.632696946540122,  3.495142597075167
14.209357878127522, 17.054108637157718, 29.813189505365575,  4.010316140938159
16.729829344246458,  4.807244988497965, 15.888552974334312,  3.662954465267375
 0.839159627235815, 12.274469339459255, 112.868768575283212,  4.177280742665709
15.471207515713084,  3.290610114336843, 19.181330857889826,  3.933127984923637
 6.263239313623549, 17.460568934186682, 23.405050349423846,  4.398193280615992
11.767282832953208,  8.661786640384307, 92.190665419690902,  4.291958981842196
16.318809476859439, 18.600530202092635, 115.546957750755894,  3.984833081845309
 6.147849427985337, 16.119613606626043, 108.112120375366274,  4.273679907740728
13.655552233993875, 12.373132007151888, 55.801811830294859,  4.081739114455035
13.469900163264802, 18.093446477653128, 72.912227725180486,  3.991078793411845
17.770466575370822, 17.299089200732173, 57.915961743466738,  3.987962473796538
14.536080134679413,  7.806200136347996, 104.382459225730997,  3.878850686332417
 9.282361350956347,  7.674029335631664, 47.529039029405006,  3.892088989517722
 3.871424014318479,  8.598685348167713, 22.712169383535681,  4.169422795315572
 2.587645421328813, 16.948205636317663, 56.511375342940859,  4.144695085187246
11.631146154764208,  1.983676611471075, 56.409075094739222,  4.293336563219604
10.667775371586819,  9.841375387173050, 24.083830933984512,  4.320892453601109
 0.626703630322509,  1.030182914378150, 77.034801253549858,  4.141702811534342
 9.951471210871880,  6.470449578732584, 51.267024073181844,  3.960605339757119
 3.700105048511345,  7.024773801515679, 63.466801022936124,  3.977530645541133
 3.863782977195734,  6.559055865713896, 116.918071927287457,  3.802274298688209
 9.540291630393572, 18.386287319599191, 107.407074858004506,  3.944362499192125
 6.456024192599709, 15.442800861663351, 55.804116384919574,  4.158644752167197
14.756736176462965,  9.247778413288204, 81.700156608382713,  4.248367533698904
 0.190886388823618,  3.072633254536139, 90.798450234017452,  3.929143190380181
 0.811454778889119, 18.504104412459558, 64.565973893863159,  4.029154449157017
17.351593729640516,  2.487652757656362, 11.888048347797186,  3.809685878891647
10.909872702358012, 15.838056075039157, 110.085738275505960,  3.909678600382672
 5.820572388338976,  0.227719475939069, 100.355546830848027,  4.054668900871799
 5.946707847772306,  5.968170554004883, 97.088638411472743,  3.751441079608870
 6.652374753478728,  9.580227653671283, 31.452843407317712,  4.118713320128330
 7.922483899812899, 17.865794734774724,  2.286823201336164,  4.164266233400235
12.379446862780084,  2.976239134956737, 99.435424641549091,  4.241614775931004
 7.585469306160798, 13.547136918029349, 31.113349909025445,  4.016404855843844
 3.429803391611087, 19.056221699793760, 106.865796243349806,  4.025665215361859
13.766347675371351,  8.426590615687713, 85.830958072381080,  4.246835331798640
11.411212526116719, 13.898972493997148,  9.976330632512207,  3.919310267591721
13.844095026580552, 18.750111076831491, 26.135048190040596,  3.964870845056662
 3.465249951926544,  3.963167169953774, 48.168388919589113,  4.113906239273628
14.017258098142232,  3.733616828209730, 62.199145491405325,  4.178416003019315
17.846156733576901,  3.983236493488802, 63.717647887944985,  3.920507781696510
 3.302573440613037, 18.273934768989552, 96.720194038510286,  3.826975603209344
16.734022930164649,  2.441399846957037,  3.527024497081381,  4.281673022108268
16.935735098136586,  8.305202915017828, 35.500793348608852,  3.841757512436254
 5.397126697933424, 12.814940287611241, 91.695122815328460,  3.673535779534636
13.732169441091589, 13.293684014183782, 98.123424050826941,  4.078967314198577
14.189010499948875, 15.958974662539871, 14.007469231424810,  3.683882024331536
 1.214204180807565,  7.508752786598050, 54.105418026865408,  4.138144762840276
 5.248131368481033,  0.920314710816669, 15.896743566038525,  4.098659892005893
 0.460913370027901,  1.298310254346621, 113.640801657122509,  4.136684163149740
11.065414436110245, 10.499211060166177, 83.271334529188849,  4.141914800534419
 5.605431477228366,  8.675724960620270, 82.176215573436821,  3.749980346746320
 8.329208693126208,  8.108762889832002, 64.117913697544239,  3.928537003988133
 2.834505421258330,  2.212198461003075, 37.956140446105252,  3.952899699226339
17.528639182675295, 12.173210610981698,  0.604823947597181,  3.999498153775602
 0.185073086449832,  8.921244562703537, 94.527465535575274,  3.848826043080840
 6.553454619606249,  4.721830207088113, 64.542042328813380,  3.660937076270202
16.140494015414944, 10.069392595970076, 98.313905682208727,  3.944425341352173
 3.289550782639370, 11.871791565607749, 105.427378042055651,  4.094438238281999
12.097739461093143,  6.000500109728859, 114.349296417923682,  3.808154144360023
17.826082311433670, 18.429124915690469, 89.622788960456219,  4.295168365359300
 1.475163403119233,  2.979868952005950, 61.081390288728876,  3.870526148088953
16.174701954470333, 11.458928701906229, 66.620914266759641,  4.500530757202848
14.623032971677670, 11.287333533597876, 93.474151292548498,  3.869455956053292
13.461225409024008, 10.278101616812100, 27.873117023182960,  4.366912817404435
14.071234855857385,  9.121985225325959, 115.541385501258105,  3.856866968473113
 8.077622618826735,  3.026268681751887,  1.172596396408147,  3.965101994870182
18.208406726103146,  4.760703719813037,  8.557848846516510,  4.385935337571345
 0.436859898685227,  0.558236890879824, 109.477654041863175,  3.956015460103335
16.014664349594241,  0.603234210944566, 111.592125967501644,  4.082361989338587
 0.060441169927151,  8.054830694777412, 80.504767025613745,  4.263532176222791
16.935390385916545, 13.667109462691847,  4.177348508496178,  3.778690375921377
11.941301177336673,  2.022838728508316, 105.653698606872439,  3.924853277993985
13.571403440793189,  2.332883662057079, 10.317738901604182,  4.278190534097240
 6.186953702469041, 11.965096836467330, 108.253479251498348,  3.915814541833609
12.195928495183260, 14.994482456913383, 82.534613834903197,  3.782531969473652
 0.797227309707290, 11.092368655358721, 52.179354234541663,  3.978153639846527
 0.879672603220522, 16.142235229986309, 76.516488982586750,  3.774838613667196
 7.753052348981594,  3.601397325142811, 53.084141793903562,  4.085166727662687
17.369248205221581, 13.221563427368913, 88.029874404344440,  4.197394337215527
18.096547835709295,  5.386311197280623, 43.420006372823856,  3.352594445428303
10.806623804196807, 15.030092245770364, 33.864339595628032,  3.537133425510721
15.456904675123257,  4.786501552241899, 49.887863520835502,  3.832262556387016
14.769145835129379,  7.291473921812990, 30.671028857951701,  4.167672584365209
 1.467055545191501,  2.136223985022306, 27.959111317237411,  4.218478462254204
 3.911349490919235,  9.014717523235115, 56.710364580795805,  3.910356173817587
 9.793551839435816, 12.024625469541688,  7.066722468308825,  3.649333603620831
14.813369095123036, 18.555895705758140,  0.584589970125617,  3.805642090753204
 9.127559437513856,  2.354196489307781, 15.899793499734214,  4.156437476185602
16.206642916482384,  3.010934589326367, 41.153250056852279,  4.002676332637635
 2.785660884544083,  4.695937270090364, 113.489813182272243,  3.972969227590294
 6.767432595394130,  0.557612682326432, 55.771532722228905,  4.155378570375527
 8.134537255964391, 11.194679191919695, 40.239265747095928,  4.043723064231453
14.480834821700807,  4.561126810192291, 37.620523257126997,  4.120491970150854
 3.642420327981518,  4.245475081500847, 55.123940294122839,  4.132171884801569
 0.952537781888191, 10.107340899529607, 75.895859203358739,  4.196538888797687
 3.347893804810724, 14.920400004669862, 81.766791185750321,  4.068355666420130
 3.929633175997994, 11.821664322708704, 49.826483261603485,  3.940928663393528
17.583418657402060, 15.985849651139780,  7.849650297527901,  4.132246758764865
18.379395077898081,  3.744432388119799, 36.884757725222009,  3.720093148904597
13.089280637185309,  7.601796197968408, 15.947859113735998,  3.846407106314574
 0.906332927010306,  5.561361312173959, 66.769255151704726,  4.057988112932021
18.290941531098202,  3.132109499652141, 24.772276632786884,  3.811170959533955
 2.100997663240134,  9.881972899116427, 71.992054734504350,  3.837439264358142
 1.623167982666432, 10.723341995689651, 45.316917370956993,  4.301617976642962
 6.454665202146063,  3.763669438422204, 18.296570012890371,  3.549837318488632
 9.158187424667586,  8.375882149704188,  7.788193598163078,  3.877079862936047
14.514131812441082, 10.505743033771283, 89.597250239137139,  4.031243595933161
12.983138788652145,  5.983895128892159, 69.016962313720697,  3.961682988797305
 9.881435584780775,  4.970518607737639, 37.497760753473784,  3.751121233131224
10.334408972739832, 16.971014913107652, 60.928427373325881,  3.935305127487010
 7.518666755030504, 15.536604719428890, 81.036823238406100,  4.238756739926073
 5.566732307459107,  2.253895997388390,  4.467432176366762,  4.240970287013024
 1.227544452147168,  2.227036062734006, 70.241484312197770,  4.136473082072406
 3.752200370319875,  5.738173044562817, 59.083252806098727,  4.171002960523917
13.556969268097916,  0.163113226365602, 84.569866535354336,  3.892397655462971
18.855236223722098, 17.262800894513795, 13.730494931715308,  4.130607751110785
 7.193928243529979,  6.455683938526649, 113.898521453010943,  4.437296609873792
14.014558723249436, 12.635654927719431,  6.923705141394167,  4.487377362856928
 1.586510061985727,  1.536081272985635, 87.391910808291755,  4.037039118293521
 0.554396177418983, 10.700091881083752, 57.400239137388212,  3.710668967622244
 0.333206332163995, 14.604452005576379, 84.547463176538869,  4.069530188371118
13.983363838717223, 15.055228423562498, 75.717188480490933,  4.096017126279849
 0.284520673730710,  5.180775233545835,  1.401246135169873,  3.938249165993618
 6.250298913439887,  2.205247000911561, 78.618778595390637,  3.908576977550521
 8.268446475210890,  7.443232760152589, 100.544252079243947,  3.943651418802900
 1.964572956668821, 11.454730033554895, 86.618149508615730,  4.067887568151249
 2.265219487848471,  9.915386288360800, 30.522249704118483,  3.695074914413028
12.338438307250538, 13.163917203235167, 105.868485684927634,  3.668391126100828
 8.937147098358496, 10.208490649792392,  0.852622330065920,  4.072676560023001
17.312872808150761, 18.035541186498829, 32.226542098369237,  4.006698273145651
 1.877947352202052, 14.067548072597759, 14.683354603121090,  3.740777891756649
18.518244357793247,  4.638582736016024, 94.113579339926062,  3.551304524264973
 8.308520738713881,  8.560940931809977, 107.910713035987541,  4.113286861639608
17.758776424966193, 16.552982318675554, 61.818083775653726,  3.915965937921515
 5.795528947049430, 16.408150935971925, 85.006054369159102,  4.426537082193552
 6.186439768639279, 12.981253875042604,  7.464741582326702,  3.848827703167033
10.031507137179441,  9.074281585342307, 116.049520596563283,  4.240248828953001
 3.134529760828724,  2.786810205297005, 64.709187151075767,  4.117229453639180
18.060217992216892, 11.304625007014961, 48.641710772570796,  3.910994050539460
 1.994110525469289,  6.106506679531289, 96.690747193414495,  4.046131035671346
15.325122705280318, 14.111788736825739, 10.785401971926287,  4.076828122739118
11.726661682978763, 12.539294385621439, 20.447896811543220,  3.949163100060450
 7.965417624702257,  6.704772237747563, 20.207415423695956,  3.986847989705636
 2.919082822829079, 14.472771035141394, 18.355183260622617,  3.915804105672467
 0.302447448155149,  2.071131860490317, 15.195585786022241,  3.937761059583375
14.789720478389148,  4.653877821443506, 58.035044941288092,  4.327820965795659
13.581008152655825, 16.424509053934241, 42.125972243992528,  4.088427909791824
14.116613366478990,  6.453476393774220, 41.700111290075334,  4.003928308401060
10.093812880279900, 14.626030221526195, 41.102199487990497,  3.982204212889289
 7.452080112382912, 10.168689534654114,  4.620818185140290,  4.007679959696916
11.956588445825727, 13.365885153418157, 60.965412856145505,  3.969951317087626
 4.091973065346156,  2.625025159764192, 90.783277828553608,  3.831289530629268
 7.290273729418548, 14.093139143356508, 77.025541506773436,  4.278030649494792
18.776684261049041, 13.888119115026852, 104.552087438304781,  4.271316584873978
 8.681460746516697, 16.525405722965850, 101.373534767085346,  4.024848281227753
 7.819175481284960,  1.125251217080998, 30.775895549145837,  3.849191926162937
15.873920705969692, 11.040368027785645, 32.280228839032738,  3.936563918653944
 2.509605528555144,  2.446856535600646, 94.436314765017457,  3.917845805391247
15.858574438156474, 13.103628558860080, 62.576701985205801,  4.069899206531890
 1.650883361585104, 15.132150104897185, 52.313522756957752,  4.018027124633337
 6.936027833256393, 15.219708207874623, 27.489226224716862,  4.039570792975168
 0.668332714043304, 18.620687622907198,  5.467916257381948,  4.052350668234613
 0.017069907297623, 16.274502748060062,  2.136149048108303,  4.091198027837653
18.382694779443163, 12.868357301242257, 80.003336058116560,  4.084601750192425
10.011365188014059,  3.962958160924308, 117.063499653604538,  3.711247537341155
16.138475319013200, 16.436380439917134, 38.583713838890418,  3.661554788249759
15.613901070214959,  6.208735778783629, 79.113101306102820,  3.828149238255020
16.375017897077363,  0.682588076730436, 79.365120395070818,  3.980886046109156
17.775037082581026, 16.053443897879308, 110.673901153963186,  4.151203679232340
 2.999255747575740, 10.086918233144157, 60.696048172277088,  4.343847457921971
10.590583489629251,  8.865738095100738, 30.540853493263729,  3.918527858995211
10.113648749079793,  8.287615111213899, 70.514411411997315,  3.833205587706265
12.549116446176427, 15.815010653986491, 86.282133276504538,  3.863345196571171
11.864406617154430,  4.856669081571559, 48.250656802269440,  3.840999026160270
16.142112704799686,  4.778659878797241, 33.810117914206081,  4.055404249179579
 6.858260579994314, 11.094943755606721, 36.059477618664559,  3.781607548100772
 5.036100564367652, 13.566761589417496, 87.876825827075521,  3.791331499680986
10.063135036410516, 13.877690807487701, 54.967978780043047,  3.862892703925928
14.299629407659127, 10.975929088445662, 17.673600226132699,  4.031595670954364
18.238612541523455,  6.125366992824306, 103.874859363877917,  4.252917350350975
13.932335588260601, 16.339649142828005, 57.029655169302281,  3.988011521126990
 8.231392692405098,  0.350447838207301, 62.978353720762414,  3.708903666610379
 2.731408632100579, 16.733192932240168, 103.531052109467737,  4.159549900141024
14.113263433083201, 11.695579362327225, 51.797245983162938,  3.983322638030132
18.559619480170859,  5.526028975061882, 47.386447816209653,  4.270413707099621
16.248455509068883,  2.437114691361630, 107.010673405832577,  4.266814262523594
12.289873853234402, 13.271977430216102, 30.738879077792127,  4.218076852135019
 5.132767782939817, 13.457086985661144, 21.799093750542646,  4.126788646400384
 3.206227695864208, 14.030416671464579, 62.886158639907713,  3.979296978299041
 7.525503452935074, 12.618361151334106, 48.289867620582349,  3.994253309257931
 2.880489140028622,  9.672299968562447, 90.584257688843564,  4.018531599846891
12.249126964067420,  2.745931196965802, 75.059796774160034,  3.793670967713055
 1.889052480330859, 16.283734258715395, 114.080277585747069,  4.257473116131956
 5.997260814336628, 12.708038114328991, 118.752948753281913,  4.051448465916186
10.213029859241871,  0.942719870333757, 102.373892553379520,  3.781581597954468
 7.520367421548539, 14.986840473709552, 71.408922169893543,  3.971460422106782
 9.886347557207150,  3.882034576034387, 62.716146454974819,  4.073870853590902
13.475497063973078,  8.249786853133520, 56.547281789622652,  3.871917401294446
 8.455692133079754,  0.164362204534894, 115.583859743677664,  3.942766757674692
12.458747935117065,  9.438758760645435, 107.292737914607983,  3.894656914810386
 4.362830322992895, 12.650616326829628, 97.667162527260714,  3.661022419630466
17.102896911462789,  4.766369891865932, 69.591309033347088,  4.081292674994041
 9.979439299347861, 13.315530242798257, 37.222229228489319,  4.177622799817038
11.086487704195347,  8.355957410656762, 61.188767075230736,  3.984117816514706
 7.369051107535892,  6.649640509895454, 10.828995826202554,  3.871861553498029
12.549880039382954, 16.574214964225405, 36.958127847251966,  4.069594832353672
 8.364216802797786,  2.589484865870850, 85.060647068265482,  4.216818188249165
 6.288072189454750, 16.692352416655510,  6.135688829201914,  3.566754129942671
18.712145968896948,  7.351998990763010, 32.100055271167228,  3.897692502581199
15.817320703602400, 18.073003824165280, 11.056748716713020,  3.874741914721785
16.375785521402953, 16.030421810481364, 65.470327716703281,  3.766744424450283
13.927756148605727,  5.138628771833458, 117.938480842316892,  4.123034037241264
18.175731614117591, 10.807260174062829, 83.558528703826028,  4.110811682888714
10.600496241663942,  9.876009777902206, 54.147845907423601,  4.288128207228404
 7.594181687675462,  6.703935140609547, 118.461979154365793,  4.044911698475713
13.367814300746922, 18.359902065093252, 66.728600631550833,  4.092491490378630
 8.114011410456907, 13.387525004855702, 44.411991415106186,  3.983651293993116
 8.775311986246390, 11.430888241249455, 105.186996065605015,  3.854747914750245
10.686877781746382,  5.492008561052073, 77.380665952432253,  3.979617634806665
 4.754941089827933, 13.602968783133825, 59.119658906337499,  4.066309609746779
12.105411202037692, 18.938683512288748, 112.363322884114510,  4.009249531922487
 6.831745042420561,  5.295730357967638,  7.067925966992872,  3.974833425004954
 3.629127599555591,  8.679766006735750, 78.664723068235588,  3.795911305775290
 0.633021699723841,  4.182336635844416, 51.400910079453020,  4.365054420908010
 9.758952660574961, 16.838738067042392, 30.805391522855530,  3.844129925383489
12.849691973214476,  1.916084660988514, 70.043287578478370,  4.213946929317122
10.797290719664215,  5.079693785591827, 58.993826175184125,  3.909243234850476
 9.113793212841633, 18.443491662396752, 94.565541970116627,  3.881078751575084
17.180525881496504, 12.096126494673561, 37.363098008173409,  4.162633629794852
15.151255627408718,  9.178105623614929, 24.015103814071363,  4.300891294947406
10.437451642189492, 17.980760566286921, 10.069077669845777,  3.901285461622500
17.501162973098200, 13.307047625662394, 100.422661633181590,  4.242976039951589
12.153814239165909,  6.198099030535537,  9.243911499397287,  4.071370311282145
 5.596236267841643,  9.374354390037157, 46.526129737125238,  4.147214522998326
 3.922246290986962,  8.919615724934664, 35.012951580659198,  3.792100518309722
17.888642828165249, 12.246824980850889, 25.037289574404124,  4.009573000024703
 0.465098141469696,  3.453217185947152, 83.886642471278435,  4.193063604722769
 1.962947440811966,  7.787339022904366, 84.678233943593298,  4.209669735194114
10.576960084252725, 15.532189629276100, 96.987924452577730,  3.970498513815583
 4.899873787279806,  4.300794022175761, 106.173551658109730,  3.823380247062975
11.036461499948299, 11.790465380552147, 46.590387349883805,  3.922042941633325
 3.195865324400126, 15.754491334096578, 25.860876634536758,  4.038797655663611
15.497877849336893,  9.910006726244335,  3.534238833823942,  4.185175158966678
14.355919745305879,  4.897623396807607, 72.583082605680147,  3.939314224150177
 3.050810913179346,  4.384895618279529, 77.538275563272350,  3.995669268860349
17.130288147712189, 17.098496763534698, 49.461459641367270,  4.081979045648199
13.075632938018067, 14.016170183729475, 65.230947239045761,  3.808264976263264
 1.971797100514297, 18.950109735016763, 31.264615015966100,  3.843683214581561
14.566483945734980,  4.513412187067999,  6.446533411226378,  4.047147437533845
18.269101778277243, 15.602115895206426, 35.377008819667630,  4.174941236217541
 0.820078030405909, 11.158812948538232, 97.683867033181983,  3.911973376006133
12.095244317064589,  7.469741758486679,  5.389869319670610,  3.891869329736660
10.615997913698266,  2.348525043892180, 66.500804270753989,  4.077074092065195
 7.033719320413812,  4.448667102384502, 88.650301872123677,  4.070920450305881
15.711208170339381,  1.054660388479866, 55.840403797057490,  4.134536342860939
11.712587712705735,  0.411847260879716, 13.460062693439980,  3.932633916778365
10.248144491643400,  6.372207424301373, 84.242734205241462,  4.322778992389733
12.355312679828939,  0.039249354083207, 17.454936000572726,  4.144423529367434
 8.208574842182262, 11.153034716444798, 10.582267617249300,  4.151462259233200
 7.241796435477476, 15.255509755876297, 10.659524895221297,  4.269702628035718
 8.224847307333613, 15.908739206890763, 117.734161404609210,  3.963414381929056
16.205526171474890,  7.136018151265442, 66.410917010328419,  4.028547538440020
16.515977148627773,  1.488372826721045, 86.494521237702898,  3.577213633865508
 1.759303691608587,  0.176677209885252, 100.564984167379805,  3.791650157057586
13.577072348139028, 13.054669979680336, 24.727954314031859,  3.993695606049795
12.684406155392759, 18.686599540092377, 53.220380173924219,  3.858007441129211
 6.229336218231714, 17.525671503844098, 59.573862906892607,  4.285625809908311
17.770167898610595,  7.895245779379158, 50.830007051306545,  4.073503973285102
 0.656758089006108, 15.835815376570427, 67.430985368972230,  3.780042707581082
 1.319255540716763, 13.635348139161385, 73.430648896089423,  4.073017007857492
 8.000398403847857, 10.041890893318230, 77.151190541455335,  3.947977656764031
16.634601024502391,  5.407140425083329, 54.306285857138079,  4.068978942271042
 0.635711609294325,  8.756725556416489, 25.405857487293773,  3.841527789246445
 7.069152472749442,  9.225763054932063, 50.525711229119302,  4.129654511606237
17.685738656868487,  9.066484573824566, 87.365009663303582,  4.237487100594387
 5.637758793372186, 18.706488692893107, 71.934635713320532,  4.419139428466143
16.714713560113939,  9.743809542938765, 54.515867403458117,  4.291756087294394
13.797855169567839, 16.082865255307279, 22.086661648429992,  3.863684413405425
 3.163496961121998, 12.962827201674033, 55.404785823392125,  4.112115749402490
13.989373660795280,  4.343239674994696, 111.202875618306663,  3.926402558031482
16.815910964016673,  1.834594846797867, 44.935574962875378,  3.827530567314957
13.199392613268063,  3.611649702635937, 52.946799016058954,  3.973584859562857
 7.883016959701208,  7.431609323622759, 74.131943633868602,  3.941041926079912
 6.694601854199434, 14.894296215075734, 34.917585305205350,  4.089206923806061
18.489795488666996, 15.363888424476963, 17.067136337214901,  3.578229732444659
 4.449051584457853, 13.685984108594164, 46.079597805191035,  3.874822041633223
 9.438949641136242, 18.241530394366258, 87.399411567757781,  4.165353228124960
17.662787571878020, 13.634338481988642, 45.423917263435150,  4.067011410961255
10.329251824912424, 15.830137623971780, 74.142467926295836,  3.863652361357362
14.683104281428184,  3.913573439581513, 103.370707522831736,  4.133765358955931
 6.006825331321916, 13.812092502847417,  3.572226918967567,  4.101784219024340
12.516888358777337,  5.215283905208797, 94.267734009740792,  3.867544027917254
10.847567757181384, 16.068542797227181, 78.500636546259699,  4.163695918321011
 4.779842022953005,  4.447419473797247, 68.013236882771167,  3.950528906379976
 3.218727423355382,  5.372368608981176,  8.574279024239280,  3.796430091725617
11.387915805874684,  6.549920533942471, 26.803268089458658,  4.311502158112179
 6.435169879884329, 16.346274349279653, 19.266140271388871,  3.969830601010800
 7.726865507825991,  2.492078775983851, 23.749115946771372,  4.290256851538263
 9.982815271950786,  3.961411422462493,  4.859279477041285,  4.116569541701391
16.787946301477561,  4.737937393065731, 100.020736691432589,  3.697944384659132
 2.197871830031024,  3.199571593039084, 11.783296307155151,  4.036833119815074
14.477031872050604, 15.285101328405839, 53.253196114348739,  3.789900450862060
 7.237938732145046,  5.521443409162972, 30.855968260672487,  3.863294919225687
10.889591090347720, 13.166806728978676, 102.220282583662737,  4.164168210526598
15.873188836609394,  0.610291483777871, 22.691643058134385,  4.238129298983718
16.380077077663618, 15.815744910520039, 25.565789125845122,  3.795537950447069
 5.175321396259106, 15.710030740317464, 49.565827686575169,  4.168282932269553
11.886409001610296, 10.229496861597871, 41.264100383735588,  3.857994770640116
12.314711277956986,  9.206704516579693, 78.195831143743064,  4.264028667176929
 6.834762976926965,  7.538063572333561, 37.437480196975862,  3.804977293579963
 3.021455305182882,  3.470753120756069, 109.708158916037505,  3.822954490614615
19.018400472540094,  4.575010157042329, 57.588507358427151,  4.154846830153176
 2.162564727565990,  5.492257414330137, 24.422377893501288,  3.575439349497335
 2.564253068509115, 12.332852784012875,  8.687576540190722,  3.795267414759838
 2.654784592800024, 12.372686503015654, 67.180166487865691,  4.178794709821142
 8.711937031352470,  3.550918212416926, 27.840981545469887,  3.902371065388678
 2.237895344109785, 18.046538978531093, 60.645466889695335,  4.043172954265950
17.214082021326156, 14.693344209898015, 92.088441197004258,  4.321151617404153
 9.778734944011168, 13.748677363259853, 68.302316759422993,  4.091797479357835
 3.714216795229473, 18.394702620094606, 12.411931526062288,  4.075866632679212
11.333138508264582, 11.654516338168214, 87.265961568907699,  4.171557660894264
17.778944194145748, 17.083928751586015, 70.596181696133229,  4.027980293672801
 7.266147964682564,  6.731930714986143, 24.268739359628864,  4.138786033890526
 0.547210480817783, 18.635086992961817, 10.026358842069824,  3.805804389238736
 6.710050997362768,  1.339879284747069, 96.699123852275321,  3.543734089983615
 7.968024946267010,  9.534083976216028, 85.555002877883410,  3.775234656698942
10.927248625559841,  2.390824981620915, 109.477368793705338,  3.947143245313193
 8.440040525557720, 18.865489555909303, 26.878236827256714,  3.837701015451084
10.821662087658018, 13.689652406942662, 51.161207663306207,  3.817152036435999
 3.225845497429176,  6.038207519393437, 92.676686911344405,  4.059994275206589
 6.260677736915634, 18.629478162715017, 40.946691358789181,  4.006919585262981
 3.642839660076210,  1.564518696063619, 58.039405011368274,  3.752756192960544
 1.654462324083954,  5.819255647003656, 14.871289267649722,  3.989479365630739
 9.113675201320936, 14.009096689577243, 23.483840904590735,  4.486663144635341
 0.728018151771202,  7.645988852332206, 18.171243327171460,  3.727539547082820
 6.153610168704802,  6.087468577967673, 85.041484242642454,  4.026933098462212
 6.699087949590908,  6.222134448022503, 77.895750703507744,  4.193174552844963
16.227909790663784, 13.486829336754390, 28.892759641015793,  4.285150584937226
10.718614578678133,  5.806087547811441, 55.129626884570087,  3.948408894109755
10.044773622436924, 15.885213021821126, 113.862833573723265,  3.670723900970979
15.677007620228402, 11.419209546162321, 105.512073802167706,  3.846795093507162
 6.008610445617251,  1.747863049698628, 45.873198236734986,  3.994468105148750
 4.269946682478096,  1.331478898998889, 75.429048590766968,  3.772468613215126
 3.775111457283238,  7.222592661476863, 74.611076141576589,  4.259479727723179
 6.125044074415419, 14.429087240186565, 66.038496216639302,  4.055138850698826
 6.795836737408463, 16.685330674329101, 97.377114361262727,  3.887001235566256
 1.636977225690896, 14.572219998568221,  5.533379438218702,  4.115323860209380
 6.237478945114625, 16.573334034770518, 90.333849104861116,  4.271769787187072
13.107985106493407, 16.695196536511499, 49.842947326200061,  4.000813097711495
 8.089898413862359, 10.734004112908833, 20.844447053307146,  4.069021020346560
 9.513351472247281,  2.710707324081318,  8.815664926122617,  4.204894954741008
11.499819207216753,  0.952698978548661, 29.161682213939102,  4.102702370630386
16.388688596563330,  7.405134088800770, 112.624390895552992,  4.338265442560182
 8.892666371280090,  4.593358205530523, 106.688427095692475,  4.228972988478654
12.283778089286255,  6.582282183170666, 64.954978422822492,  4.358696868241238
 3.021345688698784, 16.151864744286264, 33.782018788097567,  3.959761559783706
 8.305417114751721, 14.472686682061912, 93.858627765987407,  3.949144260251358
15.545062779621189,  8.470742023905551,  7.783563593634157,  4.476403165471305
 5.430515098878187, 15.783698817156541, 15.266079282272649,  4.068149642565827
18.153954239629769, 10.762038355739628, 91.198993993662583,  3.927790066961176
 4.435855298336471, 10.265533754838904, 38.975606809748442,  3.935744424438982
 9.356785083495556, 11.795658891421336, 27.830464034285423,  4.217773217071180
14.637073397687905,  1.993261057786355, 31.443976916954853,  3.846141556897472
16.035741869553622,  7.203244366378106, 18.998140417344409,  3.955314201989346
16.868645265464846,  6.264849904428227, 107.559651993723335,  3.545004597042201
17.040220995499535, 13.089370604709277, 95.948932028794488,  3.754440814964779
 0.350126276213971, 18.404574045762775, 24.663004733000854,  4.091089737621955
 4.991237097436461, 11.790726911457865, 28.444863813573654,  4.049773482853011
15.775811749670083, 17.484913183179589,  4.402126133249804,  4.157808358278992
16.784122019464867, 13.053745577479290, 14.472240927906732,  4.127477248358965
10.427303141208004, 16.341348028937642, 19.929581657133564,  4.088501522601210
 6.700777324297231, 18.714510766680370, 104.374735359638635,  4.122404350204300
13.104136971466636,  7.610539769053579, 34.579248289729826,  4.159600662665812
 6.320700268972798,  5.566194653064350, 109.805910794485740,  3.980812824956437
 1.090861537619322, 12.698058206341017, 28.217389754188080,  3.846384624673043
 2.340654460621662, 10.214907012108759, 117.623670880767676,  4.047453489826204
 4.689093370812447,  0.747747528786278, 34.045072461973135,  4.105415082547268
 2.099382211849881, 18.384354700035711, 83.859218730716492,  4.236467041687462
 3.414034515224802,  1.296689904075375,  7.893801638355959,  4.047023990020766
13.552735295013584, 18.929232438782055, 88.524720127598115,  4.014353434892096
10.043706772677137, 13.670828264323834, 16.819424671937547,  4.145757634215603
13.952160082223969,  0.268945582896500, 39.503309227658846,  3.766303515729354
 3.037323594305370,  5.412235218186816, 88.018349744046532,  4.213473500453433
13.842229133795414, 15.140562614956956, 17.873225171700135,  4.147450091512820
13.183797973217056, 10.407920321681212, 63.720223242611006,  3.737707250156101
 3.061703301639281, 10.489664176393202, 19.254251100901666,  3.860019608520820
13.938061838781893,  6.141437422724581, 89.456205272696579,  4.261927944275858
 7.698689827381563, 10.987223654491874, 89.219134672482710,  4.010267868654564
 4.590523995731552,  3.355659516320009, 42.241975443267698,  3.873688411006412
 8.703776286765519,  0.284758243949799,  5.828208044208282,  3.629082632976229
 1.310860413451325, 14.593649130174732, 48.325683346896390,  4.045795330482860
18.272792283046204, 13.491840604861295, 55.047290524450290,  3.890206667716599
13.060506259178473, 18.451688151832013, 80.934528431169127,  3.591349675661605
 4.872497880034587, 15.283232135322212, 100.422207926596542,  3.841056352832472
11.570799626486574, 11.054337237653904,  3.810890673725072,  3.988931287595292
 6.528999997304181,  3.783998313810929, 93.772408034358264,  4.084912980775223
18.186812669641299,  1.830688270020784, 103.351408769626502,  3.920438188173502
 7.254080320177706,  4.457105743449687, 57.154069565145171,  4.126885091159298
16.441470224022716, 13.557750717569125, 58.567842073407824,  4.037628843725876
16.520368004625833,  0.953008351543371,  7.619805700780689,  4.139702733441085
13.882437973762237, 14.301640946434892,  1.530594319730171,  4.138782744179287
16.420517147709145,  9.921009673237283, 77.932064372225398,  4.079888868398216
 5.512566245161139,  2.709252211653970, 61.342771618974723,  4.111486988269173
 7.758443880149757, 18.304117740204600, 76.193667723712835,  4.326488050655847
 4.199153480251794, 12.468084711950008, 32.921881397959197,  3.930829849045649
17.416935814959611, 18.113240724265694, 42.098877128502764,  4.141487935092488
 0.931863567845176,  3.529701989497496, 41.165597626451166,  3.616003784980826
 4.568941315954219,  0.773710484446089, 20.268958060534391,  4.080353647875641
16.030651251403246, 14.036041924549957, 72.541827580100346,  3.709574513644416
16.982585104150623,  8.725154208642726, 45.182804737157838,  4.107611024516549
13.435232482682235, 11.680668513607706, 35.460510367462319,  4.180302987398240
18.427066455592094, 11.573347995116132, 18.030506774733755,  4.236071537436327
14.744742722946709, 18.092978549267333, 92.299138603487407,  3.893202488995833
11.528164387611140,  2.819070769925847, 82.504475206984822,  3.924637685739878
18.961304068000342,  6.326513366094996, 116.006002084682734,  4.290331605185582
 9.044917355533400,  8.248502335835370, 80.535436438348071,  3.906431396076393
17.654371568091985, 16.135742950453452, 21.858299619015593,  3.863555673945978
12.940363167891897,  1.730866465438298, 115.825822554107688,  4.003808313345535
16.243162067689120,  3.263383421206697, 75.989515251529951,  4.342084215346679
 3.829915243965987,  8.374915078260376, 67.431069856639169,  4.096796653290311
 3.193710405688327, 15.515063206752940, 70.423194176859340,  3.843232918425812
 9.472743727448561, 12.221772417042475, 64.256129923275097,  4.458363629358688
17.269768760625237,  0.065280969029150, 83.168878302747245,  3.810511066707925
 8.857544811020192,  9.382775508338717, 43.868842439043654,  4.196910692862936
 4.441770722368942, 15.177319955766132, 94.572929325534005,  3.997220369959191
15.843935857404032, 12.544916067792350, 21.234624183541975,  4.206992477615056
12.987815342703257,  9.952303789445315,  0.157562981835135,  4.116572859353726
 1.023637096293444, 13.059160970751218, 21.483311952013736,  3.923566626451327
 0.534032362939850, 10.954759805903841, 33.993499248869945,  4.239940326493750
12.928928414186911,  8.754587325058681, 44.776591443914498,  4.030065983272213
12.680582503994975,  8.589165433500842, 20.659691883785634,  3.968964108443470
17.935363397226840, 17.068312308620023, 102.044831534669470,  3.991302438939993
 1.848730526442023, 14.499729939104961, 43.119327285535320,  4.000282504476439
10.862330582243160,  2.844464597777567, 88.358576203606532,  3.897838293230501
14.576493363400699, 15.012572897184116, 68.938838831776707,  4.286142684823795
 5.867762798970460,  3.168252830339331, 10.379495569606702,  3.760594688023092
 6.615609104475465,  7.604423377411651, 91.142231895238638,  4.006153876983608
 0.340733756205988,  6.826897095942259, 61.184684826507677,  4.087773499214296
13.628024502282194, 16.685883006753819,  8.126281636442327,  3.919871862944211
17.716036289172461, 17.240750285233592, 53.864217412525463,  3.865834519099993
 1.143936651698737, 12.101149200373186, 40.056538390249109,  3.896865057522971
 7.736209648069742,  0.048230786694135, 12.744055794157495,  4.010069368202799
17.221370444386643, 14.757679990571775, 114.497217591894696,  3.825572472094635
 9.704100549331221,  0.563499204163239, 72.791550972109079,  3.939446250280437
 2.917621195669750, 13.091738693208098, 78.057544996417136,  4.116283072870877
11.497839170460963,  5.266170590791681, 18.821224856971316,  3.973444771869827
 1.906865502281667, 18.251761476358830, 17.452200899399180,  4.045050169614679
10.956538652397668, 12.351184570237510, 75.860465795242703,  3.973639538278036
 6.798982411745320,  7.299708172395326, 104.327183458968094,  4.026741390661381
 6.310470032999397, 14.502065493909326, 104.164956422283041,  4.259831093825349
 3.498755982334956,  7.581348506967164, 11.742768690974859,  3.941850087332231
13.763396507218850, 12.696317226556356, 109.746369787818381,  3.801280267652074
 1.367278328813211,  6.322473483604631, 28.516829151687389,  4.177170824601095
 7.693043526870056, 13.073882822786137, 13.866232273009169,  3.470459804804217
 7.800840504265850,  8.013273344002773, 27.996066934944327,  3.792857248872287
10.350987682431892, 15.798863989339873, 13.327329762268734,  3.916719806514206
10.751898045002671,  4.904777338092840, 102.935061284287485,  4.019319000018521
 4.859951244434966,  4.408521424451149, 27.030527053059775,  4.088410250723388
 4.216806496356842, 17.476313062008330, 37.455439103376328,  4.195610000534192
17.008030822421734, 10.136803682438119, 41.518578727483998,  3.694283812896419
12.275486884562952,  2.129615298821879, 21.296404043688234,  4.008623741327622
 4.251531069483670,  8.051227161855870, 107.374881275964370,  3.961937473227116
 9.823452305269509, 14.219247690913093,  2.052678667474120,  4.027074236320050
 1.367128128288858,  6.327136266718553, 35.293899489775143,  3.508485458388426
 7.185030639205649, 11.357115286195421, 56.250924983145140,  4.187907079041802
13.070544375050314,  5.463594030727600, 107.410410690685964,  4.124034639961954
 8.553266186768964, 11.242671349735895, 72.738657984169564,  4.152193424609786
 7.648041536313777, 13.952641295948162, 111.295774438701756,  3.905286641238808
13.048538947100980,  3.581489223011542, 15.522117503809968,  4.040864010432896
 4.583984712011603, 17.713865807372880, 53.005232564579316,  3.852006269067164
10.353673695377218,  4.623487213122339, 72.114675469991695,  4.124574707941319
17.276515086501941, 13.759643732163246, 51.374648369415084,  3.599432793931925
14.048382857858430, 13.064365184325140, 79.460342316131417,  4.367434151994487
 8.716537966653858, 14.046388850031260, 58.847395184465483,  3.868258306335006
 7.073310363619854,  3.431246696500121, 103.111888255191801,  3.848139983805344
 7.024325916899078,  7.617181462629283, 54.402992485819077,  4.151252139485318
 9.691297513561945,  0.064596307889503, 98.503511162470076,  3.873688197250818
15.418734505603448,  3.032855128205492, 91.977875885897163,  4.099329045681743
16.791851370618158, 17.958555756344346, 75.143923696419606,  3.991977193998259
 8.435462431016981,  2.479368132105550, 42.737613607435513,  4.067635280590515
 0.102259273752783,  1.583119730416455, 97.400503770434497,  3.875942629260974
 9.906912849323186, 18.184994834777715, 83.263247902760611,  4.132784439563525
 5.175162889923794,  3.896683144759585, 72.389932630480772,  4.099895326903583
 6.238366570016280,  0.208559881703122, 81.995269529392587,  3.796859494326279
16.179951587296269, 16.651236230219201, 97.480064297119768,  4.091841904385645
 6.049053697253552, 11.867717309704018, 80.187345717064233,  3.823775902087227
 6.928225455703617, 14.586892852523984, 62.139549005068176,  3.605684203806105
 3.901568908528282,  7.197585761158387,  4.915836581859014,  3.973182917223993
10.374899387560070,  4.382854644691700, 12.510001128474368,  4.085551473512457
11.747182038296891,  1.596143151005660, 92.655068365197906,  3.863983682754281
13.496269647410655,  6.921727726225763, 100.572200516996389,  4.197116337049363
10.309917317688560,  9.688303897212803, 17.717060014529871,  3.852776620713987
14.564072906142243,  3.424446053863996, 66.356768804039277,  3.907045906687758
 5.546780750868338,  4.674478576226001, 14.073783329301358,  4.194132772772267
 9.921104776253197,  6.949715180589365, 40.871627427973124,  3.799472667507225
 8.651558350249660, 17.362243857350141, 52.657886108985821,  4.250257543582097
 0.575014966344229, 17.384793609579649, 80.270430842354017,  3.785727620529608
12.248747955644802,  6.222070099626523, 80.804922928602096,  3.622312597239937
15.690213133736975,  0.961701912740280, 35.562045829717441,  4.287810035783529
 2.137223683677639,  2.954254904606810, 117.284501920664155,  4.175682309343888
18.768320479463391,  3.924587462729726, 79.830419361889682,  4.081863583379999
 0.721352694303458, 18.181199520965666, 117.430838807331639,  3.748784114379976
 3.850799730601836, 17.359046605462435,  3.205129402327933,  4.154972578668067
 8.074894483086359,  3.317963612610802, 75.232450140534993,  4.008550295396968
 4.391385650051478, 12.518175393172738, 12.132420469080063,  4.006239386797930
 0.936549377648263,  8.661818970895503,  8.473484825009832,  4.140087895649300
 4.317277629643199, 10.078396032177885, 53.136648076161514,  3.580243683123641
 0.942099248722644,  0.118120978334546, 35.126063662747953,  3.686100182531685
12.879995520192921, 17.003080564143161, 100.334762138078688,  4.597227251019985
 5.162427336506232, 11.869214438433527, 70.451521596609808,  4.067146275365971
 9.763134838972103,  4.764150806843630, 91.569042062771160,  3.858644058248550
13.942080569513104, 14.534827519799418, 89.668887401689446,  3.813419043541899
 1.776006834307172,  2.110809446329350, 44.851534933092253,  4.175754871299950
18.232070268636583, 10.260934754896827, 103.002053986478089,  3.645384485924578
10.705207425310407,  0.378056935203202, 118.861777505415503,  3.991823440601921
14.774069488375533, 18.822451286469125, 103.892928538607094,  4.126810168523156
13.597761217288598, 18.420571697630866, 108.331392671402796,  4.269472970500405
17.515733555487305, 13.250927966168664, 76.167532912192712,  3.753265674977825
 8.033529832442523, 13.155175871090137, 99.153084325113312,  4.083835246857754
14.835162550543796, 15.059326270366364, 33.261402112969954,  3.762747543502622
 3.452151778572325, 18.691006100329549, 67.852843596516877,  4.204110635160703
 7.613462089831477,  4.585172619313330, 81.552951281737208,  3.913362216537364
 5.931386704278798,  7.810580036664888, 41.566086548670640,  3.793262859066067
 3.497623171413530, 15.125728101618559, 30.020833350514799,  3.830198857789175
 7.356611497535461,  6.454445859334522,  3.265473568231851,  3.763884841902621
 0.801200045521800, 16.020492917800393, 39.163817775204507,  3.916331684390073
 6.129645414095471, 16.239911489266259, 114.249215688278170,  4.080654029288586
14.801440500915648, 14.530902686377653, 103.215704892251580,  3.875477393969260
13.939774347420032, 12.661575135083650, 43.837005389043682,  4.203869336640548
 5.011725685979401,  0.695660964199362,  0.124875787046140,  3.965650932707502
 8.697451019969517,  5.910439337752377, 67.585010449536057,  4.136671352380740
 0.402578931111109, 16.216097469934397, 95.263562252336257,  3.722371123736729
12.786358762655517,  2.773969906798900,  2.180238209320149,  3.978241108509202
 4.379511847812266,  2.638540124606809, 84.442208130947492,  3.818390399336149
 8.671326699019366,  6.460046420911549, 16.157494132749818,  4.028768451480613
18.614953093754217,  9.306763413375327, 21.601204114565775,  4.139604807236224
18.444786532197391,  0.433088016156342, 38.534693447481253,  3.665037600217569
18.959058987452742,  5.064795937444898, 21.193999098121985,  4.335656581126223
 4.329766248672771,  4.684208407865440,  1.257891274520524,  4.160453748862883
 9.928749384296205, 17.302903210694485, 56.957613311668474,  4.011130868440230
 1.516170988902706, 18.466031718824642, 73.267403254156292,  4.153392476631964
 2.560664289282276, 11.054406703600861, 81.535603741151917,  3.811480695863790
16.679617586643136,  8.074989630180664, 119.103033809107885,  4.155091305044549
11.070614085876405,  6.485999940696977,  1.557098660318575,  4.264487103645243
10.707746430781988,  6.242784222020042, 97.790740473201836,  3.777470717291867
 7.569273990830168,  9.670489024775071, 97.291157139928828,  3.804890345894404
 9.969899448637848,  7.399664422165051, 88.454765581748120,  4.250170378639141
12.656796169510418, 12.168609088013440, 13.703503546868113,  4.435340835233152
 3.375239764383529,  1.953882432111401, 103.494927436115972,  3.770775328854377
 1.001492046131594, 14.493484657444895, 59.565903730982328,  3.692523788804043
 3.662515705815946,  1.669350055196223, 24.217192573824082,  4.050248898155238
 5.390275019174950, 12.192481380586592, 84.116376174403428,  4.159237879460274
12.915462030578670, 18.655865706200139, 95.877299106778494,  4.074860323203148
16.766205338202681,  0.867385276077772, 28.471559741170076,  3.789455578653048
17.082743977388212,  6.711482924965344, 83.952357285411551,  3.954815906010569
 1.445721858163067,  3.814902133178847, 74.031854196717489,  3.774068255697303
 4.367329314053731,  6.207020095008764, 51.554382385019856,  4.119480554041692
 9.113839321515824, 16.325196121516733, 48.642151101765450,  3.984826738844568
 4.980842592014907,  9.208025707594594,  1.488031287229789,  4.175573367924666
 8.654108555290954,  0.985165742044518, 19.802950246822462,  4.136830656726641
17.280762191589364,  8.637589233503205, 15.351772569798918,  4.029448993720774
 6.275321171049240, 10.683069823844178, 102.030973297108602,  4.188603624458280
 3.792306022137323, 14.343521758054546, 111.038611003934321,  3.858608647359567
18.114379132299565, 10.491889587518376, 60.844895445766944,  3.574968728951621
17.342786061355792,  4.353955623012545, 30.016332362784194,  3.736812132404775
 6.665113989427514, 10.837267992766490, 24.865893981916191,  3.986263715092756
 8.190791986739658, 18.396958130577794, 111.486045124299224,  4.040497794351136
12.503149901956924,  3.357384703653360, 34.375042349641248,  3.787283084229208
11.109495087791572, 10.195901024394026, 99.176065115020663,  4.277307241349518
13.932175750036180, 16.510418126936038, 62.284332079964251,  3.774948684428451
 0.660509428593479,  9.590187145411514, 64.612144438236442,  4.251403761205656
19.024222301118883,  6.992553286888621, 90.600897330480180,  3.858686140607500
18.832949630387137,  6.359935455250550, 76.709659925692080,  3.822162317546218
16.052400285050307,  0.892805059655897, 99.913570915449824,  4.109962952972692
 1.519259065877290,  3.716809203561261,  5.059538189789316,  4.304013454605319
 9.119741848785047, 13.813326494925549, 84.586793809844465,  3.976871803597378
15.563579847746482,  7.482663905638949, 62.485369864668812,  3.927033360974913
17.829235818099697,  9.529091500493621, 28.845458190099695,  4.111055491114129
 0.544056871737218,  0.925115825836419, 20.922712718510869,  4.044504884187615
10.988496980154142,  5.219307094637753, 44.312417202334352,  4.049315610902121
 0.952502507009430,  9.010249261333410,  1.998143478574029,  3.870056297017385
 0.416583820072617, 17.373170164473017, 45.508156757923366,  3.911387269189280
 2.792702374687511,  8.332015900107834, 103.420144281885442,  4.066286846047413
 0.198356408286253, 14.307305203226710, 31.748754777468466,  3.758311448283376
 2.384171584036320, 16.584748867145127, 87.649328787757199,  4.147336372312081
 4.080969906272199, 12.896169490578567, 115.245033690316959,  3.903535357107133
 9.774690437724665,  3.115472166638086, 113.214071646285944,  3.937787210229397
 6.820178226343716,  0.386063263427826, 49.495080876994201,  3.908195557895015
10.494484093825195,  8.514130930010733, 13.030559826339353,  4.129776525348356
 1.356600423200783, 12.669721279585822, 94.048780096579563,  3.988582801937180
18.614620046553100, 12.950823878838074, 69.820646979552009,  4.006935449831715
 8.699553223826284,  3.395234799631199, 33.742208673381612,  3.755290762004988
 2.842056964137594, 11.929046779737511, 24.778547440018560,  3.920057986058451
18.766224128979236,  8.962166515935435, 68.998680207345487,  4.038785058086365
10.562980991978611,  9.152919345845296, 37.559686893258899,  4.247289197493822
11.550375561701976,  2.755136558811130, 25.209498375180196,  3.861295407448734
10.813156996360531, 10.869921255097818, 58.155751757419537,  3.842004016950339
17.868668947647382, 12.106449503403045,  8.534673474304382,  3.700276300413652
17.907522805376665,  4.083772125636929, 110.553548045093322,  4.024304529972424
 4.760672606444661,  8.891867676835659, 87.352603847272661,  3.547070818439367
16.416720458972403,  1.387675811297184, 51.749281722226783,  4.108089994059837
16.362195392184152, 16.742783027898252, 86.085469103991088,  3.914576769798773
 8.683259008314282, 18.492564726543076, 34.319318796586238,  4.190433940612856
17.117787961502852, 14.107269446212596, 41.447051752267612,  3.951486528072296
11.071706644963834, 11.843882504586897, 95.257666179073325,  3.942252632220212
 4.882620809554735,  4.717026677478576, 35.348419181433492,  4.190822262793653
 9.959251108034191,  2.889570749795848, 95.898203757974343,  3.744572117068639
16.848481831720939,  6.304946808421719, 26.536420046437208,  3.978436229013895
18.340795343084185, 12.874163204616730, 108.451032344695093,  3.604370566641569
 2.814572679199482,  1.448533025258039, 80.421138277247493,  3.918160471804585
15.868038347021937, 11.518552177484658, 112.741323953119661,  3.884253369494188
17.121941075504601,  8.011120438834805, 58.164903701102652,  3.770703399438691
 1.763968366185705, 13.491360684703137, 90.183113445117826,  3.906050924218504
11.002474877457621, 10.030667686662328, 50.065720050720955,  3.816595462543906
 6.133242210625845, 12.229404904319074, 17.289038505826614,  4.205444324918161
 1.238680792035207,  1.127514748656788,  1.729807257165491,  4.102431656426878
11.933244783027051, 17.521828679020171,  2.923870555531094,  3.872084322931642
13.397642446350838, 18.756679812834477, 77.014623626045420,  3.818000025159649
 4.154147930645630,  0.483695313833911, 114.917729720843170,  3.728473767127198
13.227264799343057,  8.593038407288386, 96.063170893977514,  3.881603608282407
17.311527241534979,  0.882970292741763, 67.719371525569272,  4.023854002762923
 0.423129148748451,  8.898618395942110, 106.667493876539680,  3.981338470780024
 6.200526655411544,  7.373197272865214, 70.549953446931511,  3.971077061368038
 8.311667993417750, 16.889604086054156, 38.022493086005454,  3.824879093777865
 4.272866962746753,  8.377839669332831, 26.691396042779530,  3.752924573936486
 2.256154450195980, 19.020000628439995, 41.363953250245366,  3.946126972306895
18.649213457045477,  7.160098433201921, 11.870235582402042,  3.742678460155231
 6.534564501401393,  1.410956814324615, 66.122772982397208,  3.664170129196689
 8.184694288143383,  1.184844118248240, 90.845472411792713,  4.091751685798777
10.909971195256359, 16.863297840379527, 91.143331958024405,  4.331086282859706
13.629385860471499,  4.201518187307111, 85.716684990871940,  4.176115075502948
 9.824815007265556, 11.311464887382320, 33.543439007948400,  3.955968950465346
14.379761592520632, 10.292336214944234, 59.868551366024029,  4.099609108778155
19.061939403499292, 10.751333743131248,  5.259508949157605,  3.752824152332288
 4.429118043839029, 15.809536696885498, 74.645651728778191,  3.827435457330766
 3.545821539656929,  6.566883709752052, 31.950189897246180,  3.963044374832057
 8.033082372931135, 12.809714185985287, 115.198785206020247,  3.973339347041030
 4.967067465730353, 11.418773015079182, 42.871368382201801,  4.044032092883032
 4.818631364790231, 17.713571375652752, 63.918268555581790,  4.083485622063598
14.608068856216775, 11.226732009339019, 74.653677796359844,  3.853269789340551
 7.414423639798232, 10.445003091307811, 60.540613131036984,  4.483284941269320
14.560483042049029,  9.117278495980056, 48.491258855070960,  4.008303577147766
11.989708637791948, 12.404920916377923, 113.832114588009972,  4.281969632184956
 8.702895949808504,  7.123314480327394, 94.532594123357157,  4.006598024237874
15.432591017169260,  3.007611914678903, 96.254377007240876,  4.422719986452588
 1.281552140175626,  4.076339212246633, 101.049115529957291,  3.823708866912201
14.119013459251796, 15.558118148383834, 112.284379177366176,  3.853018682648487
16.474695356704185, 18.382565970129750, 18.616303836543459,  4.297339428828709
 4.219065820565541,  2.241932394446993, 51.738818157726485,  3.800117521873267
 5.399702049762711, 19.042955512497844, 93.481857076757592,  3.873953224142895
 0.712332787258062,  1.300368700699908, 55.183540218857139,  4.014749284562166
12.007773569838202, 10.204254214445754, 67.494889299892165,  4.172309554713607
 2.220094636106961,  6.190254807757873, 70.574966564376439,  4.059467832274500
 2.177900966384609, 15.213423670042699, 107.534187943309504,  3.909655834021065
10.938425301143123,  1.235014750239701, 37.240898037815938,  4.000204039756991
13.769782126671156,  7.614231237463824, 52.241340526686606,  4.222860109048987
 4.349530419770626,  2.927617654453700, 30.703231051941838,  3.891531484467197
17.770897862618277,  6.563009668006949, 39.651904938540426,  4.245970712039609
 7.867591816349524,  2.432744108482120, 69.632764783254544,  4.078408453636322
 3.587420125503571, 16.285301472305786,  8.888784620808719,  4.091165636523979
 4.632641504852599,  4.657476555487393, 21.616955742770731,  4.067935769049115
 2.604487836526744,  8.688289725556814, 113.867472049702570,  4.008215851430074
 2.195410537544574, 17.199542028817248, 91.802107289847299,  4.173718808783736
18.161810310830965,  0.468006425195913, 93.629613797327877,  3.980225825567276
 4.750769532715437, 18.641535212042086, 28.368441730260955,  4.125458525409798
 4.752764212680820,  7.196115685200598, 17.443743557820440,  4.291655698399413
 7.399894494590320,  6.286506066320112, 60.699945964531793,  3.806102865770511
 2.764071424606493,  6.310091936216534, 44.814308259900912,  4.078234152449006
 8.798178387707278, 10.059272791369661, 112.035532804201679,  4.287157455546232
12.237718390674962, 12.847957036892515, 71.693138856815068,  4.102298736695388
 8.768817096927394, 17.495917166868956, 16.394512878046001,  3.746346287407786
 8.546618735127755, 17.631457362710478, 44.567324811965818,  4.526030224259299
 5.562197591256703, 14.607985082972126, 40.269327025780974,  4.227960877381334
15.821281720405336,  7.360315286424295, 93.073605408974331,  4.222618823327680
11.145335176300607, 17.121545601714800, 69.876621202322710,  3.829151523294941
10.390989235891386,  6.231108156581421, 110.731989994847694,  4.106309487367807
 6.963379812953808, 13.016002187264172, 52.327166002120954,  4.159976544477527
10.965334523808083,  8.894262819624766, 103.094032272774456,  3.963361412715079
 2.550767165529592,  3.697981225729922, 18.189658469327906,  4.044688720169924
12.554114619302027,  0.940410409603908,  6.072425529767584,  4.162436385245071
17.764929949658814, 10.910701523749903, 72.833439400581369,  3.404946725727151
 8.882554994683955, 14.511293939630699, 88.284926780445829,  3.562052001230036
 2.363188844459746, 12.822610082126605,  1.767448528210814,  4.236108575607934
 2.262669162231273, 10.015426427805455, 15.202797195446053,  4.439259417454164
10.368708928699224, 18.598528175397629, 40.838245755654697,  3.920817378171392
 3.069650926129106, 18.893799298445611, 48.048421290717130,  4.029706704973288
18.608915581841146,  1.576630571665616, 48.383322868121851,  3.868206222764241
16.614591728406307, 16.019550027964108, 78.503371623276863,  3.685366208671665
 2.213107206402935,  8.344561143736646, 48.808554753547391,  4.020239742203626
16.939900343021804,  1.615922524813262, 60.029794931448500,  4.114701485290468
 6.121276271100350, 17.063866559859857, 31.801086793257998,  3.541307304976047
14.184532742602462,  3.694088481026394, 27.936030072624799,  3.936216809925626
 1.395564201946843,  7.234794490748785, 110.270804601953174,  4.046126820079015
11.398827956230379, 16.606149581012517, 104.387110535741385,  3.959296727734617
17.155168919484872,  6.654989433564071, 96.826914500237763,  3.724049695811677
16.863500985486827, 15.783648576280616, 118.126181085796162,  3.718507414238359
14.593646862752218,  9.043616867761733, 38.616912400901491,  4.075897157090855
 4.235789204470064, 17.284974563371350, 78.381858998425571,  4.198870398574312
 1.175266486666096, 19.002525993484348, 51.517885698586397,  3.787984288194831
 5.970007415618343,  9.655568448208205, 116.177459727726102,  3.781449127250450
 2.579568711710024, 16.717651904835357, 21.777110705670228,  3.771953639701831
14.277860264445835, 10.849527794713115, 101.798129637459311,  4.046035827764668
 3.203851791392384, 13.462406634140640, 36.849231580259385,  4.113311460001174
14.510811260100676, 13.275929579883359, 48.050489076165647,  4.169502620067316
15.482791973985702,  3.396121618160968, 82.147493558205497,  3.973107751031570
 6.007468284004706,  2.621828908388018, 112.434324244638532,  3.799424184035716
14.862943524924201,  6.008866598496913,  2.744648133497164,  3.724389872357760
 3.241250878455070,  5.973281010303941, 39.383205483655708,  3.957610543704025
15.459412421477200, 14.963444603660072, 107.109598290175285,  3.934585228346024
 7.065641549308012,  4.752966595068693, 39.847839673333269,  3.552042176675207
11.225535655414623, 15.620975419892920, 27.080673319885999,  4.400432463394806
 6.780377933882662, 18.896468461927405,  9.029252278744272,  3.635668691556128
11.788538815676834,  3.363539780035236, 40.534700849276433,  4.006968782904096
14.976587335741296,  4.869728958590093, 23.019397249183385,  4.418461198037757
 8.912206813650457,  1.602173324442259, 59.443611709001203,  3.857319835348415
13.584094905421786, 14.953581687281345, 94.436653410204357,  3.949492194547422
 0.592079142171234, 11.041598942507544, 11.613611046162150,  3.716955244617056
 6.544016101285792,  1.747198881693704, 108.667419500478218,  3.983195463255809
 1.587807046011778,  8.622386400809704, 41.782766995241374,  3.887303868407495
11.265083023441345,  4.813510711727616, 30.763979276696993,  4.254706186328246
17.799073276605036, 10.305915810250884, 115.916172256372647,  3.919574966964918
12.205057312378818, 10.117204484116977,  9.738847457779402,  3.822713323535172
 8.183688102043639,  3.683062981366018, 99.259677732677744,  3.965196391616209
10.565208305241482,  1.724302870440775, 50.460084193806026,  4.149706189843527
 4.802632294629126,  5.634829331302543, 100.791014446986438,  3.887162830149823
 4.013652480813638, 16.041131400049821, 117.657515410124390,  3.937838955395244
 0.830015737240365, 13.809903060394808, 117.131748642275653,  3.782552621442486
 9.913702097437138, 16.495128526713746, 65.070851079896499,  4.205347004772194
11.908514522201626,  8.346425152949838, 74.074069574334658,  4.102551967627451
10.867724538540546,  5.701845905156443, 22.730232976552237,  3.957360474529494
14.783397785993882, 12.776910046123710, 116.895760852902370,  3.986104929983613
17.878899448390847,  4.908713758439680, 87.447821800731688,  4.025888007095473
 4.051446517141611, 18.391672587886543, 111.063921185501158,  4.245619614975739
 7.532385070967612, 17.466408364326483, 68.287009432245938,  3.994360643313846
16.582633568438194,  1.584152937146522, 72.112620167454210,  4.062148109326827
14.092157507527906,  1.351746672433281, 47.984093020119865,  4.401183697494209
10.007208130773604, 15.767722226958705,  6.174378380933697,  4.030048223026015
 5.218167041094744, 10.723246204627163, 64.305654054884968,  4.178363375996762
 2.389607923598511, 12.274811600724123, 101.391112700884932,  4.162147065183028
 9.922877294999678, 12.307930043087746, 79.806874466269036,  3.991884054788444
 7.475732724294760,  4.224906624041785, 48.823990765540124,  3.981994720236949
 5.579486957048155,  0.667701657463191, 87.632936553271875,  4.046463838782802
15.502965182901880, 17.157484514128118, 45.699967055897908,  4.044603872798111
 4.808233429878084, 11.417208386331129, 74.689292272551725,  4.292425875003682
 3.986340602590880,  9.008366666471373, 98.813120682118537,  3.969077508193918
16.268428011152132,  9.713693274898837, 109.034570641763935,  4.042890935673009
12.640177766668151, 18.262714872982524, 33.314340742724887,  3.956376019400091
18.192958407735642, 17.830309596512823, 106.049333591961528,  4.169487066097353
 5.201096348937851,  9.117081751158988,  8.333538019777009,  4.203378452342680
12.773291351587140,  1.071453798863560, 43.804905356055016,  4.213140318836477
14.714266437432419,  9.318245320242459, 70.809128309629571,  4.328787501214732
 9.882571738306281,  2.104397979982606, 46.433077641640118,  3.793582357163101
 0.878104054735184,  3.371173719244701, 32.894781845603681,  4.149251479264057
 8.986194046260810,  7.388903844546568, 34.071433650516788,  4.110467186565167
11.952795837889518,  0.509177701693611, 63.272498220301209,  3.760294777159550
10.014788102988364,  1.046009049471812, 79.241051081185830,  4.058879803538451
 0.694165169222474, 14.664562990276764, 10.914503461010783,  3.643542013864881
14.891944547019921,  5.235142962930944, 45.460610574020919,  4.032095583461143
