BANDS
8 8
NANOPARTICLES
cell(1), 19.073
cell(2), 19.073
cell(3), 119.207
18.104431465278545,  5.820751794645791, 29.162869561352775,  3.875994184106476
16.849853171241811,  8.800467059344854, 103.254907746947808,  3.802731748537194
12.640143913046931, 18.060575973189202, 62.347741983292401,  4.331785995325940
18.106859486611214,  2.368668950869762, 35.790653978498128,  4.344033863976520
 1.877615037927888, 14.447304917969896, 56.864321322044098,  4.198053255516895
 6.639634118078534,  1.067661851049470, 57.534285600670451,  3.787799565993573
18.447496871515192,  7.768408190311031, 11.285223507235653,  4.157408713227905
 2.844095160108347,  0.032616574478015,  9.391839746503688,  4.039014305046435
12.554266689983702, 17.756948099159729, 40.460811879397944,  4.016538441640591
 2.535488961374942, 10.532377667023285, 109.629267929337146,  4.133875544874789
 5.428483904941607, 12.909430247602351, 42.500768477878985,  3.763975744134876
18.790648173279855,  2.172753418400061, 48.493724629207314,  3.763010525866669
10.002224967970086, 14.091105940138538, 25.532836320181680,  4.176443594886044
17.139881138767237, 11.217189257956775, 94.134924195892410,  3.794298967071832
 1.651991401543538,  1.997914270082170, 39.043131200747290,  3.909755195206572
 1.095221444139901,  4.062563940668351, 93.483825833535192,  3.869810993089878
 5.455330494383955,  1.554362245067186, 105.075489316060057,  4.182398107332452
 3.043231280913727,  8.550018978956320, 62.137650960766294,  4.036723308415282
 9.384983799095306,  4.296645096044553, 12.113268898275722,  3.831330602084111
 9.293207510970408, 15.953426884173998, 64.070616630838074,  4.091635596260674
 9.089554399592231,  5.417416616028930, 57.685971768484606,  3.472067033293578
 6.191921468279461,  2.405154934640386, 10.349518235513786,  4.376447801820538
 4.797859940697699,  7.482052987998671,  1.414602287631664,  4.076280861478092
10.405210896024618,  9.975360886513162, 23.508340455072005,  3.769589732652683
 4.321146899679462,  1.923134347471654, 72.848916757472779,  3.985747984274484
 3.190903747356740, 17.090610701731400, 104.747131420857613,  4.206836455201160
13.652061876518358,  1.875405657591722, 26.932829476758940,  3.976262155469088
11.089538677135463, 16.245013717634581, 43.622606808420386,  3.558487211377089
 8.650134608991383,  8.836266615379175, 55.453835123152402,  4.349251253128372
 4.372775033829287, 15.648093524217661, 21.161386902822937,  4.210576699267751
12.932668487884319, 13.130103284983520, 11.120045688517866,  3.953704672364274
 6.595633136290648, 15.060381824373851, 105.568259809067413,  3.800797935999022
 0.826808410709348, 17.789108336146878, 108.053536729133455,  3.991357177308025
14.093324029762277, 18.647167514287638, 94.642990103899109,  3.893420562668522
 5.661786223797177, 11.991140382900422, 103.243287875426944,  4.058505450776154
 0.075580690275084,  7.037947282852267, 74.453068172138785,  4.156383767743417
18.448306437845954,  5.241737714641967, 38.833411803862447,  3.953611187037743
 9.757569705001384,  9.939026739486319, 91.082330100784091,  4.189538912160965
 7.700117755278607, 15.520973927232472, 109.915710851371529,  3.781574327233919
 5.580944054136592, 10.069471132536949, 13.799265228939834,  4.218917781480790
 2.592371198650601,  6.809866770361459, 112.244294461432773,  4.169209166563540
 9.506787223422450,  6.685325045395797, 48.433059719524614,  3.934725177083211
14.633422676323582, 12.163339686108230, 23.510981931778151,  3.778436630603182
13.607486714676245, 17.405848663770815, 50.522985823379642,  4.247780835472365
18.380950003606237, 17.676836505358754, 41.472201047304090,  4.080552188566718
 6.895955408654398, 11.292986008766670, 86.291607459995944,  4.180923533610308
16.996449136691027, 13.389098238216588, 90.856716882356750,  4.062211347917632
11.550693831928003, 13.308798233124845,  0.422721521731030,  4.254265580865447
14.907408943150315,  3.900995952578386, 30.333164331792521,  3.875905114043023
12.754097700143081, 18.683502839341681, 77.738139034343476,  3.681944807616870
 0.193883622356477, 18.332176653061282,  2.810589856860506,  3.913481801652892
14.413356422988540,  3.623351501549544, 78.631861035386947,  3.821011635900204
 6.291058015045643,  8.386415025162380, 19.116134187915531,  4.182380156560388
 5.889639866319180,  8.397496512458462, 58.500302538156092,  3.909496824460048
13.425729353844138,  5.754437666443139, 112.929004735361048,  3.566603000910133
14.970992772252293, 17.783424958700397, 28.945915513102964,  3.715263255694382
 8.980316366085695, 11.609351439049194, 12.060197846414688,  3.824276072208435
16.003459441467545, 17.013022051470681,  1.027720708450337,  3.977071780736426
 0.005675283482431,  9.563592058776027, 28.300338326859706,  3.978161459540981
 9.175536660556633, 13.522886248595988,  3.767437918930355,  3.910749076831462
17.953517136174646,  1.473010493512096, 85.173481375340799,  3.957120683630584
12.389462780913936,  8.319534254303850, 110.563043764574360,  3.574306000083546
 2.732224260206554,  4.096386369040294, 54.439360866360822,  3.903592423961206
11.726696712609330,  0.957482673440293, 81.243167534903932,  4.020370321843406
 2.163891090771477,  9.688383929189676, 66.904518200186146,  3.805947401447189
 8.385734816598147,  1.301964686079039, 30.432802791886015,  3.923383566656528
17.786483925121463,  9.976669642859729, 39.424173081805904,  3.579662523259865
 0.228395404105243, 12.210636832027111, 50.525699684959008,  4.017649098739442
15.742590397023296, 18.882813066873545, 24.092199694443952,  4.181848853543993
15.184322120466369, 16.152256631410033, 65.032226641620568,  3.966673390831231
 0.758168094907949, 16.432762532461442, 14.754511950870780,  3.732430777667081
12.501290059639866, 15.864837439120734, 17.787771211028506,  4.514906960164542
 9.630611662155690,  4.008597096909083,  5.251814669751452,  3.911271079573579
13.145040078873981, 12.665968374166479, 81.069105019798769,  4.104134194224344
17.894175254310593, 11.967341260098950, 69.099366802718166,  4.060939693041560
17.317860602819938,  9.355543231440961, 77.208803637386040,  3.890090630304543
13.525799996172468,  1.498043511996265, 34.244437739361473,  4.001937374203374
 1.196015587887580,  1.244693489752148, 118.496446936679092,  3.974698014317522
16.890325684177952, 14.989183112255587, 31.180020485245560,  3.952378504961442
 2.347646975227816, 14.181678142054448, 46.906040464343654,  3.781539137377711
 6.829476955612905,  2.874173127318765, 14.963787551980099,  4.323592991111053
16.231919657398578, 10.382990200531111, 87.549107171981802,  4.023076296715301
13.352772839488532, 16.764487757347041, 32.487236404601944,  4.078141626520896
18.969664606177883,  1.118916127463338, 79.525431164853558,  3.822568757911669
 6.365108653175113,  5.550547321463611, 54.950530744669521,  3.688422397768202
11.660116494384702,  9.782362103731058, 106.653554622432367,  3.983692167450105
 4.370028340623571, 15.461575942671157, 92.229745344954864,  3.877508704154752
12.278287532439869, 13.568166978262191, 51.302473637086628,  3.855218507017984
11.563027552206165, 11.473491330783293, 94.488651492546552,  4.041861291417586
 3.090491159881046, 12.116325860760556, 63.982071675763926,  3.942426380293228
18.993075630137131,  9.882530619402353, 106.183296662469829,  3.729369287696509
 6.545554774529444,  4.188017232088820, 28.499641352073130,  3.925798326651114
18.146219267019823,  1.499553365505971, 44.772613417706530,  3.879190631413617
13.531438664005451, 14.905818513995870, 106.861944617263546,  4.232964727491016
 1.389945118035544,  5.674338309922765, 48.929326837722982,  4.019599237032025
10.957256894173884, 15.796056620101412, 79.422177964452231,  3.818826667444611
 1.934776194626174, 13.026937871067577, 71.389573787253596,  3.778473771846889
14.573808620228872, 11.654645193138496, 104.674084815872476,  3.860757377034900
 2.954338899206760,  3.651438804712825, 61.198199467481331,  4.004620089787253
18.820060824558272, 18.075524736259499, 66.008250150708648,  4.134975911738260
10.533170243211936, 18.251532181721721, 20.611178884894692,  3.855223470512828
14.243682498498281, 10.423907977785472,  6.417894298421893,  3.741547036246499
18.083542995936046, 12.308581136838399, 10.944738547688811,  4.427788223545508
13.991043805996590,  2.893366100067997,  8.062938132093352,  3.841477142777930
14.917574032188817,  9.577824959105197, 10.171120194446921,  4.069693986030892
18.647367917692918, 15.811667905370422, 49.157882651062337,  3.769407609498380
 8.757538518068097, 16.146850603391268, 56.908390226480364,  3.918116708509949
12.244805151410922, 17.160616169959415, 58.275314897748586,  3.782533332248898
16.877211664050186, 16.727163584523012, 104.831221038773990,  4.182242049053923
 7.823371389288609,  2.795174012016174, 108.559094177586957,  3.927629927343763
17.537109046789830,  5.585176414082458, 113.033858212134831,  4.509592655552691
 8.771926660390225,  7.344462369285672,  3.155658832440378,  4.121254143729506
 2.970855608736642, 15.587004876925793, 76.938714214355102,  4.074812659708734
18.440457711641244, 16.507274185541885, 62.250913907661328,  4.009404660974296
 2.153914472848563, 11.456749462017388, 43.881190855455202,  3.901225604541356
 2.260172973362966, 14.089070150529720, 27.533537173489123,  4.136035273151342
18.662181687620023,  9.024628235728020, 59.872978623790132,  3.634833882878744
 7.790396620436597, 14.903744927978321, 77.120161436776982,  3.958838968559256
12.723691925949574, 16.059044803437306,  3.624502065083206,  4.501507261542883
 8.826376862193857,  7.982812803482961, 77.715367738083756,  4.080067034947577
 0.440963205537868,  6.826995102891366, 25.197630397935505,  4.328620946785976
15.655471706088594, 13.379288811229879, 19.799073892219546,  4.077167295720591
 1.532418370859009, 18.856556728908956, 33.995301392351450,  3.682168977333788
 5.841205969557384, 14.639929602182461, 65.198964067349479,  3.528990864414452
17.186536152152932, 16.352604104765771, 11.773213058197641,  3.839372949931742
12.213932388133308,  9.944793878360361, 87.684021204805902,  4.059220234032899
19.045504832461976, 15.970329047494177, 69.583948634646333,  4.161054494329166
 4.519998648710690, 13.511036318306104, 111.728019220221185,  4.059669091878218
 2.052780741758723, 18.247963987183780, 46.884646635711668,  4.361265103316978
17.479899133176943, 16.968665616760031, 82.294839737779540,  3.839884519577944
11.596064166903776,  7.476522290507155,  6.269698881655402,  4.186402176399574
11.787313923339571, 18.241676846176997, 101.906371937273192,  3.510793118508406
 9.954847106322317, 17.464999703101643,  0.913969816946579,  3.660302302849264
 8.493142119413266, 18.551891073613660, 41.208718916237721,  4.265805343145073
 5.314262227289785,  2.004204569221404, 40.313606290087073,  3.772362964773881
 3.435485978688730,  7.753329725676934, 33.558721906626168,  3.792290057006478
 7.273902621539527,  0.101662955006683, 18.880374289525701,  3.749081649620685
 5.101997539444985, 18.125248265156912, 88.900960866707095,  3.810464945468003
15.303526172762746,  3.557398733279029, 14.922397745613187,  3.671512241469459
 8.990155526495787, 18.656443373053882, 77.779442302991612,  3.841251127723598
12.970578211980834,  0.049731651878371, 98.406234603342611,  3.956289324862917
18.878454260156492, 18.889083781866979, 51.657836071878826,  4.067361798601921
 7.198358457167232, 18.393240828592258, 27.112295267837016,  4.131853955211522
 0.345414285929382, 18.423490749907369, 101.810906881672139,  4.266731020504275
 3.765747479475742, 10.981358329342804, 92.963734259201516,  4.308797610833235
 4.535611681308998, 16.676334953401827, 33.869140141158447,  3.714884850480688
 2.608980072812880,  0.612036132435969, 42.816850481523460,  4.079173321988044
11.112615339258182, 17.946909449341991, 74.412263734572051,  3.868377206234385
 8.869050653116158, 14.500987977010251, 41.143027424151050,  3.849428308765944
12.729249954451758,  3.107060789766817, 107.474711984641473,  3.978420597019176
18.731841796110313, 13.587367097887208, 37.751587680255604,  4.132683564438699
 5.118895268667626,  3.891640729493412, 83.317637234587110,  3.851896763223559
 2.886605976443660,  9.905838414684931, 10.515904830195538,  4.194970695242340
 1.304970117467617, 11.876946853238652, 77.135500591711576,  4.023081037801594
 6.297806859291811,  8.916124192919868, 23.443164746167433,  4.315913269024280
 3.858027910809294,  5.488426195220032, 38.748628722055173,  4.330354663004092
 7.611930550481928,  0.020583667001254, 111.233999369720280,  3.770159400306852
 3.832337667124297,  9.259103610272314, 117.210484191108790,  3.843494469321644
12.661426839317253,  4.730886514802046, 57.505623623848798,  3.779315164469986
 0.332073787241853, 11.873755626326044, 99.918003497795652,  3.607623676393954
10.649723437280880,  9.156307979152976, 29.924070723697987,  3.917604581337788
 7.707557073700677,  9.459936794045502, 105.941600051161117,  4.043913588273242
15.571186725675505,  0.415783989516913, 117.199224329118451,  3.874354004830675
16.848453982313391, 15.650072568797960,  4.560047988684993,  3.769595006996162
 9.347723603774490,  6.629935439301327, 21.457232459299171,  4.208293757742156
18.859590544687574,  4.663014809499947, 13.870253885994879,  3.963685608720990
 1.061497606877701, 15.042362347155668, 33.924133172035091,  3.949809646562179
11.592337260985943,  8.411634889194143, 44.071255603331032,  4.126057859125135
 2.856383140526102,  5.278135831639559, 103.816049024154040,  4.264288495287202
 2.107766221635612,  3.562122814228285, 114.910870965114910,  4.189815861304377
 2.308626592717765,  2.928191124706434,  2.944825900044145,  4.371655824455545
 9.294332490006095, 11.552084762543693, 58.804085544403925,  4.243460702846033
 1.289633087420023, 17.545350637367235, 23.364360550417405,  3.651730082890627
 7.201642422533298, 18.665018277377637, 71.044847237397093,  4.204108639280574
14.349403478906519, 12.110682463603730, 73.668507593328201,  3.961858692785961
 7.642149876993684,  5.321475056967451, 24.911993885049071,  3.856745366530102
 6.373631237771986,  5.615641457774035, 35.253607828824663,  4.118733681994139
14.428139843911440,  9.968874538794015, 70.187755502507585,  4.180262249259718
 5.770032190241735, 17.266681390135908, 11.719705529498379,  4.271205634611548
 2.561260708981088, 18.333303776000200, 60.668168851253249,  3.932187693163350
16.821294062487755, 17.802213701906570, 97.559583519652634,  4.173371273034680
 5.393337572508426,  3.652616397016096, 111.915609561872344,  3.874722563224883
10.029157061664135, 11.827173444564149, 103.400670860229411,  4.230632179796933
 9.399490999896122,  0.271920847949937, 12.679982627031203,  4.294387429416584
 2.964382656500304, 17.373104575655070, 111.890564568220896,  3.725430387795022
17.348718846729323, 11.710392942415281, 115.319908915325229,  4.101821858698452
 0.528409034162972, 16.449758180766150, 118.635158497234954,  3.803354827643798
17.675419909155721,  9.846785085159953, 43.270886663407175,  3.908492880671095
12.567431607009473, 11.982915261295167, 109.834948344224784,  3.842327238256846
 1.856508350426498, 13.980586811036938, 23.661789235972691,  3.541263467877176
10.060506436435618, 10.731414416327382, 40.600192472085276,  4.110214877945229
11.502828167069367, 12.482235710970729, 43.893670048388643,  3.841026042466239
15.508996405774871,  9.774127620957133, 108.151573985950947,  4.222178536047871
16.138661577004353, 18.825357629370025,  8.603503479016595,  3.784961873520100
11.675464141720122,  8.775482945280885, 80.644788518833735,  4.191759171943003
 5.814775782413443, 12.628491598624814, 56.499411916936268,  4.353731141174429
 4.992380998906100,  2.683903677047659, 118.252783022115153,  4.077404199781691
16.376280637858578, 15.919731346461466, 35.207179682629608,  4.151433757369588
15.359921092927838,  3.754215435840900, 61.379481677450485,  4.122612692695286
 1.159141382516822, 15.804828201201937, 89.909722817838997,  4.060237082903406
16.624241123765437, 13.256711462541022, 76.753596999307192,  4.007914515773161
 4.161396327054786, 11.716951475405521,  1.221020805604511,  4.055516759576015
 3.285692799077824,  9.446457681796973, 86.834450189013694,  3.734013124127143
12.856443347095293,  6.701932363660421, 76.476883832655474,  4.220022337349234
 1.410794332480581, 14.816477332578774, 114.206249614928993,  3.756797053138673
 8.158241137189835, 10.818509323426248,  0.924553650008584,  4.141786810926470
 9.230090986876963,  1.057751205677058, 63.884663951433730,  4.146060177275382
18.264007871453554, 10.296463091146014, 18.848429037701134,  3.949315404941644
10.139547233846878,  4.936921404413902, 97.198288657249137,  3.652886524378879
15.525264700113032,  3.631429991601828, 88.119713593918078,  3.902277122209806
 4.357816798236403, 16.424369209762933, 25.009456906106287,  3.592470573246249
 3.297031445634840, 13.656035686256070, 87.033684553343377,  4.267941988742515
12.524783233661374,  2.597072095031370, 75.391765886094134,  3.883771641525779
12.576993682661517, 18.217696234550047,  7.300842707198821,  3.865302027209445
 7.295786817103878,  4.204678089736794, 94.760403330418953,  3.645149851794466
 2.706260507795540,  4.364426140301499, 11.251088890312106,  3.527751250238918
15.581633572329830, 17.807185306232071, 68.526149794150967,  3.677808455538060
15.478053154759463, 11.028240459929263, 59.313659317695176,  3.866787172301945
 7.230340933677866, 17.237991587117467, 94.718474073362145,  4.195063153064664
 2.460789979583341, 14.040101907850797, 102.143186043809891,  3.847271878038863
 2.213331192369815,  0.005783420257775, 26.774276054367729,  3.900774030721016
 9.706402245471006,  6.966431834281205, 70.198936038169151,  3.944290801148661
 2.128976665692546, 12.518444088755038, 13.945791209010714,  4.211311846417179
12.915852166194419,  3.880645940917246, 103.184451743501739,  3.956320980624364
 2.109885114971100,  8.208390665871613, 21.477942385249701,  3.907155809774127
15.089473393522256, 14.047966233515012, 48.262276413722773,  4.341725371389129
 4.355609039584118,  0.707293580069404, 109.035759160352526,  4.202896761563998
 5.293439155007047,  9.096970967989723,  5.288145004943515,  4.292427950853439
18.603537675496760, 13.846871630529671, 80.151889804173706,  3.914244844522707
 7.379361838233893,  7.947654329009531, 93.749134702054036,  3.890300654463312
18.676321245570236, 13.935676084435967, 65.526324296635778,  4.190891411018496
 2.928978181687814,  1.671294646073398, 87.081918785248931,  3.858119515678112
14.998915401357729, 18.592284508261901, 43.536498648180981,  3.931721481409266
 7.667946190360905, 12.988285439366116, 93.696732292949022,  4.227328481794121
 8.104622527213477, 11.385448793504064, 20.871594021870589,  3.639316757178834
18.597286464269843,  4.210410216872812, 52.141289087593847,  3.951497626842021
16.766497181189806, 17.071050736237694, 18.030052566441537,  4.341369102562432
 0.394728289070548,  3.334328928465322, 72.859970540397526,  3.825389295978250
 0.518267740049451,  6.548851649259645, 17.468731391227113,  4.066999789768413
 7.588680937654977,  2.038573906598780,  2.187464296322881,  3.994290800034692
10.928093546212290,  3.610775389492235, 88.582200891842689,  4.044691045790452
 3.341658834672740,  2.951728948100505,  6.939864986025182,  3.599587945146239
18.386510615986950, 17.487452819896991, 57.988837373494682,  4.064066194880186
17.514549958073125,  2.066370523460476, 95.464410810894549,  3.779008535927944
10.907701036347158,  6.628402076971041, 93.941319587256700,  3.621880138967075
 9.310559344642535, 17.868737607597996, 46.893308538882195,  4.254694155174726
16.141261099934688, 11.143257978091388, 30.479983217139434,  3.822380435918998
 1.865817304057922, 11.208180394221484,  4.388123522107875,  3.804112204789547
17.330600669025490, 15.138493190484789, 23.151332094120463,  4.083138708715997
12.646924123152290, 16.631663988478078, 117.213798926163506,  4.235397378936567
 5.319324232169054,  6.926764725127732, 76.000229900502831,  3.929880189701560
15.579835927977827,  7.485770220396613, 17.518389736998827,  4.059916451157667
 0.770013762064037, 14.414144064996696, 110.364415105790954,  4.040017492823821
 8.081253099465808, 14.292969000735557, 44.998289411806560,  4.029157013787558
13.115788173866559, 10.927448607982713, 54.076187584648949,  3.920370381082158
 8.626591836027671, 11.277808721729512, 16.787394493133540,  4.568657737543800
13.435062002906713,  3.302434518448837, 95.922155268789425,  4.077364734679645
 6.426597539474284, 14.359638182783787, 27.746912453798817,  4.176078436213507
12.950896756918656,  0.963958196886806, 53.578223245193975,  3.846519727504646
 7.818862425399551,  9.982807853193057, 43.899577855822052,  3.996649350021813
 8.976439470979461, 10.074278421046960, 109.839561942454921,  4.194505380151133
 1.140061003310502, 17.286428527196382, 86.054128531818009,  4.166198420126036
 6.572700803595700,  2.568729637892583, 98.141924157597515,  3.904488437035695
10.450777885120806,  5.079405194497388, 37.082495050077512,  4.164907596375294
 5.038354951186944, 16.690365340815951, 58.000409724111876,  3.872367005097165
14.490381454664687,  2.106175745056316, 110.894564978753678,  3.970891732582791
 2.427468579012247,  3.920756991980766, 27.973118002089421,  4.249309972191057
 8.975724003131505, 11.179832407568789, 63.899684754776956,  3.968236035028204
18.696200575476279, 10.286134640580466, 56.107196545383502,  4.088055331029137
10.873998012599086,  4.709238872036795, 30.138279098097847,  4.182934299431373
17.050089551291357,  8.510304932733762, 91.101976404971694,  4.016288865777291
 4.047052109786873,  2.208787973310549, 95.188192720762714,  3.880331320127830
 7.390631443543174, 11.688745989575891, 30.780053313393701,  4.118522391575278
 8.560562698446381,  5.172653530489812, 91.334151386335677,  3.836627929103535
 6.006143667006730, 12.718023350013672, 89.978601566941649,  3.921746588748057
 2.008078357930636,  6.838804835877602,  4.210747762409109,  3.827307224113255
 2.759425755053017, 10.972927333666444, 58.921495103293175,  4.013633656374325
 3.628439570092715,  8.248153218160978, 55.172801604581501,  3.974909537937816
10.971211618111235, 10.156879586071677, 67.502699594579568,  4.325200860127490
 0.008578428224738,  2.288299246979115, 24.433838831253698,  3.893812637651849
14.967651170388605,  1.486392005039825, 91.327031100371443,  3.879949702877949
 8.909572215370741,  6.905477410903318, 112.695314263183946,  4.305055249425701
13.260137588585785, 10.794859769596552, 77.343053941809259,  4.127490530639420
 8.977935591696804,  8.331423138387326, 61.225975386876961,  3.840613391417316
12.374829103870582,  7.051937028241261, 40.062533783875587,  3.672086612292750
17.889851294013109, 10.941071753528968, 111.321257996354021,  3.985806362517024
13.049028321522936,  5.274928869305618, 34.226385688837404,  3.557837027557108
10.208717175033561,  9.901219832593927, 51.302594413706373,  4.315912892165660
16.182716100955631,  4.467880426581777, 10.871145895956550,  3.817714413085987
15.394774195423434, 18.410619053266402, 101.429279084843230,  3.735354121323949
 5.860902743175347,  7.925027958852487, 102.525944298600024,  4.149169653321631
 4.931584596017875, 13.518359101676293, 73.990653128820668,  4.122610187681530
14.782258768249987,  3.494157527160827, 43.960541420318634,  4.056298071681879
17.558863229799840,  8.316847323198514, 48.312463520215161,  3.919324267226499
 6.823311752075283,  1.399342984133964,  6.318073200446750,  3.997494068964162
 3.665404063812811, 11.471298552535650, 83.681808150022889,  3.764103846889513
14.459911296116591, 11.711139328605181, 96.938241917973869,  3.542990742742679
 2.619525175172106, 17.713260462349879, 94.835729862645579,  3.838232375523717
18.473793445586356,  1.160917666225055, 11.679023735286009,  4.331912024948689
12.941707655240693,  0.262088074085277, 88.279983004594200,  3.753965548785128
 4.467204953148835,  4.390959830198685, 31.875186706078175,  3.994352204541042
 2.324620078403672,  6.660579755425963, 58.630366144789690,  4.003998347437151
12.110970751666720,  8.882242637638452, 36.547017578314545,  4.192511785811046
14.915385691082655, 12.422504968216394,  3.062005364962417,  4.049304248551254
13.297958097137018, 16.544406053741877, 82.702929184339055,  3.772539353407395
 2.511666953414635,  7.307058653082293, 30.000697348322145,  3.528122381814096
 4.774127118875470, 15.951851610752792,  7.918717424411964,  3.902754359381332
 6.620255789907269,  2.933542184888836, 76.512374575563669,  4.394510017778796
 5.829589521422450, 17.814676794222219, 62.898829170615876,  4.007620572171737
15.565251140389993, 14.854470599218891,  8.379569006671616,  4.236455029246517
 3.653173512216919,  2.060578662524965, 17.728202653000658,  4.009056307049660
 9.698929461810268,  5.095922514389622, 63.147720604939416,  3.779019920704840
 8.728171255428482, 17.187881508229633,  7.721507524000313,  4.080671363571120
10.096142485930489,  2.453729063340439, 100.400528856138223,  4.445987635724020
 0.901992344116076, 14.037642748625357, 93.700301983170135,  4.176076452196159
 8.438597188223248, 15.334785470935531, 73.221335767368601,  3.919409048603663
 6.530479490143219,  5.511322909804479, 105.884525987815309,  4.122268064839114
10.881780789278784,  0.817203488643422, 37.255139428675065,  4.124822638192803
 3.740905352268298,  6.711970339377097, 94.881353197974036,  4.108794592364469
15.171486866094808, 11.190296582885475, 13.883288520322688,  4.039318047052179
 5.797159949256120,  8.593149713454929, 89.975309482723844,  4.301775037914902
16.049340352932461,  5.472904590778916, 101.570479395787828,  3.723985184946990
 7.798849517196116, 10.495309550259472, 100.003668798491972,  4.009897451863758
 3.106345788595252, 16.703149910936851, 50.651388927116408,  4.022504789046458
 9.594709576091688, 16.211430397092865, 50.652449631458914,  3.700652745476039
17.779523990328777, 13.338975993878515, 16.209374289625554,  4.155335436314737
 5.952991952410305, 16.924651305100024, 80.179693982636692,  4.222696388528053
14.376306024028468,  8.674544994025801, 33.052810267113244,  4.078688754420468
 4.713653134873781,  4.213737676802031, 91.759803226173474,  4.110296081804141
 3.644450475565522, 14.495206531809051, 37.008334101268019,  4.126642029848171
13.872454240098627,  1.872071062647898, 84.695195213584881,  4.293314424606376
 4.395039300091199, 14.293231709353833, 96.165399821571270,  4.269228993185830
 7.190977680788935, 14.505291926275165, 14.465841913123086,  3.871574383140033
 9.916169344894064, 13.250988436160391, 88.590036694183979,  4.103576644632934
18.056588793248398,  5.001033276620134, 78.013479593790038,  3.971345502685913
11.442301421279687, 17.954398853508934, 70.616353585304680,  3.747626092536598
 7.262929264628295,  1.052175846411784, 91.819658965390857,  3.965013704742072
 9.427412931489414,  5.428212651648342, 74.518146297931125,  4.064797867991373
15.495805369386581,  2.057265509462802, 50.732414157069300,  4.089826513748777
14.221063867175271,  9.668061328549303, 83.955772567540038,  4.268861909524476
 2.058344840193925,  9.700444149110172, 102.728685021670756,  4.226602465777660
 1.318190308306041,  1.707481735316929, 105.399939207427650,  4.026517569107718
13.864440579480069, 10.988639852041608, 91.200807924278195,  3.844021512313649
10.458909895025705,  0.383201310743510,  4.361010592487847,  3.721810016716274
10.027561614495527, 10.466354183210774, 47.182933536894716,  3.942111952455848
 9.603500516310403, 12.921449317095721, 54.513620295180502,  4.178040307206556
 8.841011626312023, 17.884491647004257, 98.514932262905390,  4.109844894841054
10.214973680364295, 18.476980830523676, 114.143038396506441,  4.131948142081668
 6.858096043527257, 14.784866807438132,  0.054517834457662,  4.371201740545043
15.428660308708411,  8.360136002798649, 73.864402262581947,  3.814321556547040
11.625806165743271, 18.542861370124786, 109.157281937848609,  4.293761451157429
10.275696093268436, 16.424157054573957, 104.818624556544790,  3.973217401924195
 2.843940518957845,  1.815882902760536, 57.711784907250774,  3.854944573383734
 7.456676790731753, 14.841318223602469, 60.541569054630841,  4.002624726287654
15.426748895448053,  8.140436883578921, 62.085322602543492,  3.735885206619740
11.448044927008191, 12.658949760359926, 84.737562402735776,  3.870740773542624
17.035886195595467,  2.291904042085269, 68.963998347173103,  4.005297512283415
14.865153386928712,  9.358909866126377, 113.158039289427919,  3.748149584780485
17.309739554525734, 15.133836638008136, 100.756130995585153,  3.826206602436384
 2.654509972404942, 11.865479487419574, 53.728974449161143,  4.033685994372214
 2.368281492900196, 15.387480210368862, 43.081858094932755,  4.082429412347832
17.296970132288713,  9.548227206236575, 97.890433026443958,  3.809558623565338
 4.450658428883556,  6.448731154618977, 51.620216135367698,  4.136115312545529
15.137389878322271, 19.019945322762801, 37.619670701416680,  4.058355778426554
13.331308148375070, 13.830572495615824, 29.652040422893165,  4.053340173181623
 7.377107631940111,  9.175770588072821, 81.276388734670988,  3.970337609663876
14.225452994005645,  0.752057429012730, 20.126772283904714,  4.172066544369764
15.763913154549137,  5.193182591758966, 26.014023586212080,  3.996671770760817
13.144157008742729, 17.058064623567251, 46.442682018380232,  3.603035297284935
 4.951301638650525,  2.352788571379628, 68.729016032193215,  4.118852590774781
17.878959948174558, 17.782300214943447, 93.095699515775138,  4.465247483688250
 3.583040028352946,  5.558222838160971, 87.956340723265470,  4.162567199551660
11.568875865479678, 13.012744036486788, 21.009419129556939,  4.008692415255414
 1.340052804011085,  0.781577188708009, 97.964649653930536,  4.130083390435956
 4.406501726945303,  0.754865688742650, 29.930583442405755,  3.925787572969111
 8.237333289817395, 10.481126637723044, 26.895461791097055,  4.167283860065041
18.600687178269432,  9.537264413034496, 14.990911718376966,  3.881679809690243
 5.950855774689599,  7.193999723005472, 109.642923926505205,  4.158802790533776
 6.523514012238478, 12.116865751493796, 38.786759609128161,  4.131670195425255
14.367747649675936,  6.712755183037284, 105.581231808102686,  3.973086680460264
10.052370455194218, 10.969791773352739, 33.424638465222273,  3.521146534455739
 5.285667712511492,  6.495386354509211, 68.519693826642637,  4.124237554286540
 9.670440039384445,  2.511193863578758, 26.719778810364915,  3.941942132408408
12.329465024952130,  0.981670279625061, 30.508761393842402,  3.854447601613038
 6.766362042081356, 16.185389651163597, 113.844223874575064,  4.081159647490344
14.734405000758086,  1.227141909630461, 57.145567820150625,  4.146445296813843
 5.779966743456066, 17.615028302225792, 44.350161152183176,  4.090455094563733
 9.699880627903308, 13.269066094984519, 107.283398856411537,  4.073715353806605
 9.898915440483162,  1.341478505651652, 95.350835734456396,  4.089401473737266
18.831610053131282,  7.493980175530639, 109.308749717646933,  4.085207850349722
 5.924955526812224, 12.243005718048140, 108.183647885370817,  3.923596886987710
14.645918556000964,  4.072652431449518, 37.461289491479192,  3.977371355195972
 6.617229882413278, 11.042539646440096, 52.806840663318518,  3.630237852176616
 3.790491197328523,  8.490667294245513, 106.272024530154482,  4.004191828850543
16.537034046247708, 10.653756410882835, 80.801774362775461,  3.761407871448837
 7.387928140542981, 18.073435516720039, 102.390944015455943,  4.129107394293623
 0.116777778319523,  9.918252815873304, 84.480828882472267,  3.975718632314193
11.343286469063203, 18.433448803986867, 24.604982735206988,  4.204466908125402
 4.432482180568869,  5.764780736515066, 16.628025144048038,  3.779215464082173
10.084735059260966, 14.479078584973891, 31.996850724654429,  3.909585763973982
 7.233915022384819, 12.032630406045392, 67.324842797482304,  3.594692217677278
13.628599581721792,  7.155776828524421,  2.213810127958656,  3.825636172962951
 9.000997214252093, 18.430575322095091, 53.695441967705094,  3.900728636825429
15.458465182811620,  0.195942197678123,  4.795441550294184,  3.996666735880846
 7.963929600930030, 16.135976946528000, 90.761030411389058,  3.990316823577723
10.144626470852540,  1.988837186741609,  8.778897001306248,  4.161033295479646
15.402827185927274, 13.612849594925024, 118.272029217989569,  3.918310793880262
18.279151245833628, 13.783872401626375, 87.113062815287520,  3.861960049517935
18.321157658949804, 11.862487102202838, 46.616573810797576,  3.972984154995905
15.451226301960942, 15.341552024701738, 59.848535897579431,  4.004206482829354
 0.923410959746177,  8.725018790310735, 70.678828085248028,  4.227033970216261
 3.281384755712776,  1.537579683364160, 64.855289327668913,  4.453773360869015
 6.999292949708051,  4.473805420316032, 71.532897099619092,  3.855292372226664
11.366602174127062, 16.323276934213737, 86.319669248924598,  4.066969949747057
11.523111306779477,  9.302257978039846, 14.170360032717490,  4.133286752585840
 9.920126341418506,  8.924796927561243, 84.413761151825696,  4.111501804717939
16.854443594520912,  3.625336439750077, 18.550104533037373,  4.203114029373575
 8.161211917324977,  1.922672672510714, 22.597175121372935,  4.395781831040327
 2.385306369693100,  0.948545370990573, 83.033995013050074,  4.151373792758072
 7.243613205793705,  2.410581482717447, 43.783306496891129,  3.927113806725174
16.970275145749135,  1.542618942945864, 113.810923221994358,  3.766428964088211
17.650989516551071, 13.774443467948744, 97.077297642990487,  4.038900895652085
 0.114746809547688, 16.562390910142032,  7.695110529946851,  3.859193034323487
13.599850405316314, 15.029190110943205, 102.753454875511395,  3.987088322652886
 5.434260687198993,  6.029089809709580, 115.205510597542755,  4.113667015492051
 0.050287117130837,  8.089865157807122, 116.185435645919085,  4.134462498641572
15.821987209289194, 17.975833588595300, 108.729906316278786,  4.165656934727015
10.783276263508945,  1.537271746415124, 117.498009851231487,  3.782249440956591
18.785980207965775,  7.680114913003317, 94.735456931497410,  4.055459084322012
 5.707111851326245,  9.173116409023503, 65.251858034624149,  4.011534717329636
 4.812351863057008, 10.441715432064306, 70.056709390974774,  4.365425333588329
 8.154126022297627, 16.505852022627352, 37.376462940304116,  4.367541108905772
 3.579443559379283,  7.736051075713738, 82.188768550392652,  3.937211030000529
18.059314219548323, 17.466355131510507, 111.989409438147248,  3.722920641466132
17.781140528293509,  1.658861074333607, 28.318151551221796,  4.321156766303975
 2.356418926089577,  0.791164564540020, 91.411859800107791,  4.204100659615234
16.191633731890171,  5.882370042453114, 97.264185079440978,  3.906701980195316
 2.618229264723477, 11.717251528122803, 39.909970683183623,  3.965856258441049
 1.485611548918703,  4.751824157299616, 69.124967427914100,  4.243225702856932
11.180144061649246,  1.032595948582613, 43.946625830829710,  3.965546711960092
 6.552057667950102,  2.178084602366920, 61.201416256045327,  3.732120645567872
17.148704403651369,  6.110736559161543,  0.853520648035779,  3.939168987799723
 7.246812925270422,  3.244750831653625, 50.341640240962938,  3.584268910434349
 6.721709025197448,  9.614716578582447, 34.143374047342718,  3.808089020859102
 0.337385060389095, 15.182254355369313, 53.169877374634780,  3.821651227454706
 7.095353582399388, 17.132164084956869,  3.771014072200859,  4.411455083496520
 7.923274086239711,  2.835980025078906, 115.022251999193060,  3.900866395037732
 1.946410830185692, 13.003764760035237,  7.929903418290189,  4.048445534604814
12.627261359945710,  6.264766356644779, 86.037970673511040,  4.036918868271038
 9.956332882388587, 14.846003510729238, 68.093165104869058,  4.265332109909134
16.380545433571388,  1.003792347002718, 76.536207929670525,  3.793499656624496
 0.971588252688605,  1.783840444581001, 111.287161913307216,  4.193523945160825
16.249708916425316,  4.927527110437526, 93.009119542368651,  4.170187975463010
 7.128648834850480,  3.601823974486894, 87.025456841032863,  4.127739589521912
 8.688773169024175,  6.862418434432572, 66.397514337601706,  3.866542806207372
13.643411036224247,  6.914734670066248, 23.163526625332079,  3.798351551973801
15.285440240405963,  4.092795018048419, 54.309885065797772,  3.918997224664800
 2.668449948716286,  4.600038429798607, 108.257141665452238,  4.387857952578624
 3.288443813732682, 11.697488105006437, 33.992744156358143,  4.073093243448864
15.781848262243715, 12.792333546073735, 62.827917847199174,  3.850512650819520
 8.866470426004598, 11.715785378619861, 70.951385064697845,  4.299004982276988
15.919824966614806,  3.476584192895410, 22.517891563728583,  3.781841523645947
11.086742893229591, 13.766020281524250, 14.464813428713697,  3.774055231009882
 4.290519932107860,  8.212018017768278, 44.706146399238428,  3.973058431790842
10.849962974473877,  4.245860863830709,  1.306510476107489,  4.028710088822757
18.814022932587573,  5.996017236403070, 62.462475286939721,  4.283335974946189
 5.910791930758991, 15.813868709953438, 47.986742155035124,  3.915549730595389
13.544627522345264,  8.486696266620751, 98.293011290457059,  3.654388787651598
18.684810172472371, 13.132991901865536,  1.508841659711098,  4.222565587962043
 2.925539739204619,  5.821340914385944, 65.211265612865404,  4.101656522905271
 3.848758271039414, 10.725175344245423, 29.236593667988853,  3.803259697974325
 9.695173450156204,  3.434485365464420, 53.322031384334352,  4.078911825980637
 0.518156108402656,  8.233809322780317, 52.225510913547090,  4.210218849311394
18.232298049964957, 16.839548904341758, 77.620307880391451,  3.949062803591804
12.453211002490782, 13.844997811400098, 39.878322172813718,  3.840652939337699
16.466549436451775,  6.220131157763160, 84.741934437411118,  4.055290226765366
11.722898584422969,  3.395972996206917, 92.362591174236982,  3.662772225641336
15.916632466360390,  8.379460950093291, 54.198154226557754,  3.604713030853363
 1.430173315929115,  7.878556274579681, 41.233747379224567,  4.089139905174299
13.137024716627812,  1.695616432970136, 47.395775802820353,  4.018323128220877
18.280343198977334,  5.959057548698046, 105.610385807518270,  3.979634751136546
11.113561899214663, 15.957686579342178, 95.736040695196053,  4.031319243956490
12.312251140055556,  6.494654956404310, 60.837745608273096,  3.713510791940864
10.201159637691633,  2.145283917059745, 72.254663150871409,  3.957430653967674
18.613496291084893, 10.057465505831033, 63.769724661110807,  4.238913217397605
 0.245677153378081,  3.423016350143067, 101.198342212103171,  3.964921480065520
14.423116922262468, 14.762249783727846, 42.991227356838955,  3.739066919843970
 1.378289290549360, 10.638772557625238, 80.894424152403474,  3.631369297050131
14.812836249572594, 15.784679111707637, 79.246594677134397,  3.815766866801106
19.021594347001336,  1.259734547069066,  6.369291329035928,  3.913853562737430
12.841731658825344,  5.261103778541942, 72.193465466901628,  4.146799201357526
 3.378692210420764, 18.605116492169202,  5.230622735360635,  4.045733283130304
 2.840048420650922, 18.054561255809457, 54.710037616098056,  4.389747408021720
11.350177331770436, 14.580140198811939, 92.057789198155504,  3.826543783048910
 3.457126062827579, 16.863727098209200, 72.048268927426690,  4.157093039886281
15.996603817030138,  9.102823526048548, 25.423744440493806,  3.905660705990344
 0.035436852388963,  7.237175947782344, 100.383301386878387,  3.680082176528933
13.638908956164498,  3.811345024721912,  4.291314727119262,  3.953736569228858
16.077891384726836,  9.839985319509154,  0.093903156346055,  3.947647870309972
14.358758497704761,  8.374630064672418, 94.429028159197117,  4.148347708003485
18.878044637573439, 15.420740125863599, 73.818714202637850,  4.230153868649073
15.994945031569832,  4.394981883519442, 74.638600828565615,  4.011641314532557
 6.714112505852068,  6.727103847194309, 97.572583284787413,  3.906077765798412
 2.735656865424922, 10.512966733022097, 25.302214296077057,  4.328530997437015
14.430418984035340,  7.777112713263407, 28.978531711404120,  4.247458678045287
 9.742480883824744, 11.977107768378493, 79.004346378962225,  3.953746411068835
 6.186779838247400,  1.044635204506941, 33.711848469896218,  3.866171507291966
13.594452085927403,  6.341487268106060, 68.243607928454225,  4.179780334572216
 0.697317851505388, 13.937231783025869, 19.922998090809674,  4.215792046453312
11.047951347576939, 10.490232244153111, 113.488188103425713,  4.162935060515849
 2.442665924770508, 12.981838531094288, 106.095757526474117,  4.226525878146866
11.078492219942628,  5.348337254489614, 116.091067162326866,  4.314326710237801
 0.991828444753746,  4.855636212161004, 97.411767512536059,  4.108974841471362
14.177903580900582, 17.743838447659019, 113.049333158182435,  4.060909799783825
 2.162362654735356, 10.786931349241641, 113.768380121968733,  4.187145596079414
 5.727194689563258,  4.961286228832886,  4.657724146461670,  4.083349465104289
15.247212384945119,  7.221102103707328, 79.682613723088124,  3.831108207044872
 6.811185435449699,  9.653165264833063,  9.399886564992384,  3.863471157814689
11.892282670242734, 14.340479905199915, 71.638829696324777,  3.811330439784888
13.174230666952147,  6.760050603140909, 90.482402293442178,  4.566861007254777
12.482097091411291,  6.294081594394545, 10.404695308700857,  4.031193379080713
 3.723135281435657, 13.534533565084180, 80.417579960178855,  3.836432531129347
 7.737023062708315,  5.728336072509681, 118.524628917511691,  3.921794991027733
 6.190223164006646,  5.714734031628143, 79.741643588262150,  3.960551006032872
 9.646669775228133, 13.912726938660903, 115.830207505959521,  4.261071876734644
12.868660524443612, 10.508402724900760, 117.055202535959637,  3.758106014514801
14.621227912466054, 10.970656058753866, 45.544744353723914,  3.772033472312403
 0.552357937546778,  4.113235220663621, 42.358167180581624,  3.806808743184298
 4.353393965527166,  4.898642207475043, 42.714457484372694,  3.723360202018773
18.729137413044636,  7.218847938776926, 81.503636364519195,  4.024035952527868
11.708727814685284, 14.280998693398239, 75.853036345608146,  4.009638690837121
17.217010437108019, 12.786043498045357, 26.595843885322733,  4.155076332065129
15.468779305431253,  1.233132962294666, 64.780586253942900,  4.238111203100856
11.187430798351233, 15.197157894128074, 111.786462779713275,  4.151629988629336
12.032332273547645, 18.366587614385228, 66.635837432355345,  4.323478913660493
 2.363563778675329,  9.580285211308299, 48.050285447387601,  4.204966598628793
15.927872424728911,  6.715553721797185, 58.513386177384831,  4.016345208266026
12.323284438426878,  7.579662574457573, 64.546256638540612,  3.934352409149579
 6.070742224401339,  5.906137429303781, 62.123206101738809,  3.894093922310833
 8.912218123514702,  0.032584544210983, 88.148412443124798,  4.135631383326845
10.606532683062319,  1.415041457346758, 56.785240164164421,  4.138466676435438
15.663981733343103, 10.563627464145739, 51.011787316529578,  4.011443401800104
13.098469285074120,  0.699333116027803,  1.447811742979734,  4.079337702097686
 4.088579680081218, 18.167238931197243,  1.021759810714864,  3.964681675608724
12.288569943052826,  4.476813463224767, 50.245489479620943,  3.964737518233457
14.609905900395921, 16.659052366122406, 90.607757537990324,  4.046438112739620
 5.067246943695451,  2.234790781906578, 25.337873961957737,  3.880544585073493
15.810142788256163, 15.599943581409208, 39.372982912902529,  3.667452167376065
 1.434767891129621,  4.096569129645381, 20.833006788353842,  4.407877358211046
18.556541211808195,  1.693611661264107, 55.379396167320571,  4.246412100776961
 7.638393552832772, 13.369792499051076,  8.080833930853753,  3.772838288332548
 6.044979988144911, 17.992899521504107, 75.173477117678999,  4.122621373721761
16.031530514472472,  2.433433931490902, 99.204029108269410,  3.958481145129346
13.720976642349610, 16.168439032415655, 21.899430072758697,  3.789132870701108
14.011687694364342,  3.700925622908261, 118.339305675209417,  3.700340772649337
18.019204026010595,  0.211169702427720, 88.987438864025606,  4.068892044714569
17.319597986562489,  7.016028111536101, 21.338419017926242,  4.181444090952642
10.811880625218354,  8.061311120137807, 119.057422105132261,  3.694893378947270
16.870069439802364,  5.916127016198514, 70.938989318396906,  4.162936774935500
 4.166736571183461, 15.773713845231018, 108.480711355368584,  3.856444299715200
 0.930531061898293,  9.113052352893536,  1.014684202611679,  4.239460132089767
18.785427810445359,  8.609213352518033, 32.305341583793812,  4.151480526044761
12.497332640550241,  2.763532126697244, 40.583264213827164,  4.010953970779124
11.079052312314603,  8.197468231303287, 18.157022513518395,  3.766435012343607
11.024116112247231, 14.253521858627350, 47.699495005900921,  3.850920963569349
16.148425026723285,  7.800460590675249, 36.674826971242140,  4.134522563637871
 7.880086564554308, 16.705042515722585, 23.117116887454745,  4.067867269148762
12.571463497475015, 10.921501166733881, 26.749943599590313,  4.233216165262266
12.314695976230269, 13.278540160198347, 64.684202373572262,  4.070291942834527
15.966189545883372,  7.001838242817018, 41.148091083138475,  3.677307344394172
 2.522861030427306,  7.434674615900216, 13.760093507985385,  3.827688708519203
 4.271913419089680, 14.072539574167974, 31.092328737518496,  3.671564221626739
 4.093692997048483,  0.757461789045674, 21.646828888195493,  4.213148398390470
 4.398780941769670, 18.600299560967109, 37.277387326826165,  4.088869551657043
 0.344844191028062,  8.863262589347716,  7.296338695863388,  4.256757905214622
 6.211855718939439,  7.289377513073841, 85.238854916235212,  4.105026479851881
 8.125742592002311,  5.921452313249152,  8.514920278692520,  4.050663338572515
13.258806977133247,  2.226232888751090, 114.711984294908447,  3.769798541609918
 7.684972713330917,  1.627051109104826, 81.138958398199634,  4.061911817332633
 9.960306744383619,  8.913164608707616, 97.080917502548189,  3.904881297559398
18.309072768809347, 11.119602732254750, 73.668446622271077,  4.129752996972012
 5.137254667130334, 10.589499881525517, 77.920568568362611,  4.191893353814350
15.111871370739559,  5.845101585585290, 109.451411335464371,  4.046721950102451
 2.393791627683123,  3.392782676397072, 45.761289719927063,  4.013402639227088
11.444696207265267,  2.662874044768043, 60.614463119287706,  4.064461734005743
10.322357820439485,  6.511823634699287, 104.757484817280030,  4.013001613734337
14.001036068975530, 15.375879068896518, 25.844192611579778,  4.221255307330186
 5.633982215915998,  4.587847217336214, 58.507575628484567,  3.721143449367887
11.088857124886278,  6.940885006530375, 26.452482891916464,  4.256045471096051
16.989297932791391, 16.114117549250196, 115.543463764146225,  4.110156956939432
 4.232735141935125, 12.819107314785773, 50.101212183740465,  4.095392838329876
 5.455699254450249,  5.574886053512286, 47.666684671737727,  4.178798049101101
 5.550236115036692, 12.678037797200568, 115.746563565597484,  4.224001881546506
 9.118640730003678, 18.489214057230285, 60.163313191297604,  3.965605132379224
 3.930222064407113,  5.046405231844969, 99.999147363130106,  3.551571605839476
 6.701730316126853,  3.735318649482487, 65.357927295606402,  3.733523708253066
 9.087240236931621, 17.397755347013689, 16.170217220268650,  3.632366815336583
 5.661889020901825, 15.168644983546137, 100.393989360235224,  3.682953632616644
 8.975556965402182, 10.467212666554703,  6.115263816484843,  3.727282089442204
12.101725662521638,  3.396813617825505, 65.652713593056120,  3.936154509469561
15.347959298214818,  7.323954261864276, 44.962214545192090,  3.741727285917411
 0.206677154509147,  4.792035685514584,  8.330222941360732,  4.145811606259707
13.937834103177936, 13.612033022156115, 88.075139273968048,  3.964013523606372
 8.853600628959505,  5.260937699424648, 82.770784843708668,  4.077458534097741
14.812576463398237, 14.552901018572792, 94.169747342587570,  4.206123103179264
 9.744619527395908,  3.013544449674200, 33.678317327076684,  3.874771432523571
 9.812403011599947, 15.143117151831635, 101.164484812525657,  3.751390765821731
14.272608784606206,  9.702993715982549, 20.566716395965020,  3.911015957935217
 0.564741443843193,  9.714180277100686, 36.172939856478557,  3.827494032961132
 1.816574793176053, 17.691161885624592, 18.673114690220689,  3.999629554122123
 1.812412768840096, 12.564566929611045, 117.354117562679008,  3.825600813524831
16.778793860582621, 14.018792729048528, 56.079132400567836,  4.301020585216258
11.768123401886189,  5.272950851249880, 15.316735543270607,  4.205738955263165
 8.198851815453606, 12.850495979762080, 112.390428875788018,  3.480621103380479
 6.665912033592457, 18.597060385881580, 50.586189683157627,  3.794765746153736
 8.030298247301880,  9.134614624365549, 116.214181628071671,  4.202175000807346
15.523148724992817,  6.416355263856886, 51.191398837625719,  3.581863462475078
 3.984546623880085,  6.500130211129394,  8.343647898467557,  4.094693165557189
 1.553738797125428, 15.864275177619119, 98.776087484016060,  3.980728721446455
16.630458556504397,  5.423544034548083, 33.403302873782209,  3.767735295131535
18.755284138714583,  3.572028589138374, 65.710246130248478,  3.784288912307490
 5.245018470562434, 16.125323268076059, 40.348517982736325,  3.945389574336251
 1.492916760478602,  0.785044322337044, 70.140935844183517,  3.919390141990701
 5.216092990281175, 17.714715114705218, 15.811178088542354,  3.997933266757612
 8.088955120634163,  8.448477214864015, 37.780905659654991,  4.065886528977050
 0.746443292662989,  5.943301580970036, 35.368731813485859,  3.600289644035507
 7.036366453702726, 16.731071712668495, 30.939579102529041,  3.837795613907381
10.168832406052601, 12.585982261202190, 36.898901920335213,  4.068437714109227
 4.003256952169344, 17.452288375729399, 67.829944451186691,  4.208077692525101
15.456626406959275,  5.155868104419762, 65.016308542740902,  3.593711085078949
16.692561112399233,  2.171634638013487, 40.635490345105723,  3.935003751036624
13.408354143659949, 18.806740566720414, 105.403181958994253,  3.942606331056891
 2.532441062670840,  4.048562215695411, 76.186466817599708,  4.044623280119023
18.374323640793957, 11.059660076802317, 22.802339844935382,  4.104273410465154
 3.185919423330276,  9.802453954907302, 74.103991277280855,  4.018036294238009
12.245019109944613, 16.153881407748248, 54.368146015757411,  4.129587972671110
 1.311299192037772,  4.810819797071763, 84.468410409723802,  4.278331785739588
12.193546802983526,  5.198418074222819, 46.272495300678408,  3.545291576571075
 3.249068587196465,  8.337537030380950, 98.470165338030540,  3.805322898272691
 3.406334473750546, 14.476953938266707, 60.813840568373770,  3.953048533073028
12.871804148817846,  8.759433595945703, 102.251013867685202,  4.366395207763570
17.628422897915712,  3.760026003960348, 116.914872263723552,  3.948047172793919
11.620155515037446, 11.774249871532749, 99.516851124562848,  4.095717618718505
 2.642812947100332, 16.102037045719420, 64.228595114015661,  3.667005087253354
16.911189198353849,  2.141107422176701,  1.339716183502713,  4.069085868333876
13.317733726441039,  8.260215492243249, 48.464732346208571,  4.274681429964330
 5.275566610045812, 11.818194751670827, 46.245478142939739,  3.825598825971341
 9.411904113407891,  6.746086348109145, 100.627679254083631,  4.229894222763177
 4.270299867158411,  9.199210977738563, 37.059126533461040,  3.837922418516860
 4.001299785085554,  5.575062092620983, 23.679038420287412,  3.798921765372241
 9.753542743453584,  7.088162909276282, 33.378454687675074,  4.149472695386778
 4.051488781162084,  1.207936923289434, 101.131769709708450,  4.129327929214787
19.056020275800066,  1.098841915789566, 15.933141496237479,  4.242050021620415
 1.925400716062974, 15.536570120979432, 11.117193598335245,  4.062911584431332
11.510426588097312,  9.148225578193024, 73.203764470195196,  4.282323780649163
15.477640617193369, 11.693982315428080, 100.706198905591009,  3.963754480565200
13.740992662363881, 13.544468757382251, 114.616205525581151,  4.099257235537057
 7.878730792508265, 18.264707706136996, 67.126750512896322,  3.777348295819845
 0.478776406435298,  6.795039188797515, 45.120497608064554,  3.893958034945868
 1.032439841559882, 18.624818849995172, 114.964702938763565,  3.854902945596142
 5.958800680275091,  1.906846440009476, 53.685533087842735,  4.006486946329345
14.264456192335308, 13.895487405359351, 68.376941867667568,  4.274430102785090
15.511938523551862, 18.850067062273673, 14.324203926915741,  3.960307469152845
15.066729579474647,  6.993353446646210, 116.393922235212116,  4.231278151277658
 9.291766568510839,  2.961754716484216, 47.127999921728374,  3.952439769900518
 6.949070296214611, 13.606770215807716, 34.458998741706012,  4.163489125682824
12.053087733089798,  1.077114488250339, 16.405861351606106,  4.468727093460970
17.385013992018681, 13.375126381333356, 107.297177848875009,  4.075529529088105
 5.614432478418606,  1.379605522115769, 47.273627485620295,  4.035743653674889
18.231305280324349,  0.599387234360852, 20.925931132801324,  3.912614234722122
 1.036820412917384, 11.002476105063446, 89.653443595509614,  4.087525654106266
13.801694312528308, 15.137726557640336, 98.673027872835974,  4.074840801795247
 8.732809384636930,  3.484962855011650, 40.370423692722930,  3.661408715181383
16.967230522141449,  8.760976778990818,  3.847275834274489,  4.040853687668147
 0.243464864185560, 17.626921726324831, 37.494404779639346,  4.032609067526655
18.025131345041885, 16.807555607036111, 26.786184906637935,  3.985394536538227
15.881299180103312, 14.216619960495589, 52.185900691172755,  3.670410083334209
 9.152178230265037, 17.313706515936321, 82.973705495882243,  3.937412274460431
 4.178770130666676, 11.556974964351541, 20.698820924599762,  4.018436786699169
15.431857982572620, 15.798581519288593, 71.733410852007822,  3.780543720572506
11.150431179861300, 18.595166148631858, 91.821878930510252,  4.225725353071642
 9.149921352968340,  7.225493502670520, 87.996066483656136,  3.934145653600375
17.532350497834617, 12.196974452856162,  6.074293235113053,  3.728943365203182
 4.147960803968562, 11.866622973538858, 99.511459318409905,  3.757854023324961
 8.277771060761356, 13.865152953675814, 97.776780042968355,  4.113361451389367
16.195472854209555, 13.341182173357447, 83.734408686911962,  4.017547190092492
 6.040756798412939,  9.864492861492502, 112.691202552177330,  3.889042649258966
 5.920996485274650,  6.289308967950173, 12.057928002107673,  4.094622626380968
12.941189636616366, 11.596903324485417, 17.291289627924179,  4.109244358746523
17.909810242642706,  7.419215736290406, 67.179350985331141,  4.176883557060695
 1.916700080584109,  7.889688441262945, 78.115234086779452,  4.174470148181130
13.272023106020345, 17.298310923944385, 11.212315467906899,  4.270863643481196
 9.072618592435106,  2.765508974012453, 68.391923492750252,  4.146544722448922
 8.130162261261697, 12.964740188442489, 49.733020163304055,  3.652071192485909
 8.040601507235920,  7.147821685997749, 15.506207763093361,  4.145126969997720
 5.425643757864111,  8.767688690834099, 40.876069283494012,  4.032708592427365
12.935740260564287,  2.447159147457966, 11.931561254734024,  4.113626687296802
15.547571862663329,  0.709756952911426, 72.522453807105109,  4.324828431597325
12.425800319508824,  8.875026720333231, 57.611191653598304,  4.293742460110545
16.038395196465359, 19.017904577233463, 60.549122455496232,  3.520219481661075
 5.677027073358655,  4.470184565946073, 20.267206605402219,  4.011741797571673
 4.828621748861897,  7.410290086302206, 27.071784077355886,  3.849529665791539
17.482197268724754,  2.731445009457207, 108.111317641312468,  4.172543266626732
 0.617993726258175,  3.242514812858341, 31.825982851641463,  4.035724587393811
 1.878883944262192, 16.896885665122785, 80.538129611801679,  3.802821295658240
17.808349358756022,  4.576830145296620,  4.499729432386159,  4.058952635174127
 4.808985119501028,  0.603960996051567, 114.323881433289955,  3.847124741179974
 7.256202649518218,  2.284294881799150, 37.111324331915142,  3.667761498368055
 3.936988785080121, 16.333130172469279, 116.713184548570510,  3.944217465287689
 9.245492082913442,  7.933250531701403, 11.518363954180220,  3.371983260172204
 4.306439556740981, 13.960475097120016, 17.256380662502909,  4.214394085875544
15.690949209502476, 17.012179450595696, 86.129062010481931,  4.575589069385894
14.133584207570831, 10.514437336202324, 41.388433720566454,  4.198193871443965
10.251797927791806,  4.099630002448600, 78.783847350390062,  4.462629468528859
 1.375245684241146,  0.102249490429678, 75.055258552634271,  4.226390504083885
 8.244806493738105,  5.941453017078808, 44.886222519805706,  3.706965991501784
 6.696933444409524,  7.633306054621968, 30.677918422197113,  4.079582860959452
11.516426139370930, 10.293937159905568,  3.219565505123375,  3.915917944588144
 0.779150582176028, 12.434236820926731, 30.950980280128231,  3.881636064706462
12.284297329328620, 10.507357681495247, 61.708120234265621,  4.043607831100601
 3.606189513246472,  0.789773479553711, 78.441623870455686,  3.886209860601636
19.038402922889382,  7.485127951114587, 87.690047333811222,  4.040782575521078
 3.076628224403286, 13.459293819705660, 67.701525071015780,  3.964538905139389
 9.692373805712677, 18.138572977127573, 33.722719861705549,  3.939500386284674
 4.883936594429834, 17.969336336453683, 97.963873839298955,  3.878360609047285
 1.463486496814449, 11.107214198677196, 96.390807586789521,  3.847970634832216
 9.787594784102620,  1.659773197372792, 104.775119602989477,  4.348468390898851
13.458375521538319, 12.804655667636386, 33.668782606459963,  4.188541346796698
 9.759963460436046,  6.231618717977307, 108.718748860262735,  3.806891178051859
15.575686774110608,  6.563101890037420,  7.378979422073580,  4.220593272616465
 1.306037116739580, 17.154675818468956, 30.331091307388363,  4.298794910578144
12.928127904971049,  5.103149898677205, 82.135200470731817,  4.114169968348481
 2.924200865939301,  9.909687384483458, 17.144997459689243,  4.190361625020662
12.072292542224735,  3.329674890850704, 23.520355636638488,  4.047447130963329
 8.170725318262365, 15.043522886011024, 19.286992625991306,  4.256589630895099
 5.963722407294582, 10.445568742874469, 96.422779870763065,  3.938146532801414
11.497140019634440, 14.353244708826088, 60.883396893548053,  3.858770746062522
16.016935751626033, 17.678015224691929, 54.216123696451213,  3.980624212721260
 8.316547110620984, 11.288156375842366, 75.192549309353595,  4.294872298429925
 5.240685566214895, 13.186406467677168, 11.148659869960913,  3.973060788601654
16.958628680850691, 19.024535746442798, 32.260381654756259,  4.399013235279908
 7.375343183575570, 18.529707604962891, 117.217682483770545,  4.172550599364182
 1.683884817891482, 15.101556409618158,  4.418180092035097,  3.893345055008243
18.643523454007195,  3.758464300789452, 58.965480162818494,  4.022644108456033
15.637136862670950, 14.387749944561564, 110.979401323141673,  4.231662747770118
11.040984275708064, 10.022133857169008,  9.277518491801555,  3.716026032800087
12.193620433460667,  6.855313145490606, 53.729270760369225,  4.419539256875714
14.993940588204207,  7.143004660109054, 13.508338662764020,  4.023593091234588
 0.929669741657265, 14.097533451224356, 83.724380445936561,  3.729755411867069
 4.176345337079544, 15.953519150394458, 83.608435119019674,  3.647732568120380
14.986156734635774, 10.386407703144396, 66.010233718920674,  4.236209166066155
 7.154546619616165, 15.599163477126455, 86.370900323652947,  4.393660192849300
12.751438871729556, 13.283240085902001, 57.279013347046750,  4.054605992428499
18.215641061474251, 12.494905353206777, 103.472729102047509,  3.924218781592166
 8.897664682579139,  7.056786476960302, 41.389367559386926,  3.739941287610295
 7.797506415389968, 18.210211334692673, 107.270297969143641,  3.708745784127533
17.949376623254278, 13.437400845168316, 41.720066489196014,  3.931131152784847
16.505609422198436,  2.111276394159083, 104.069433104890081,  4.205158904382754
15.381436681583425,  0.317618671157871, 80.177381265311894,  3.600695918982066
 5.270778683001222, 13.324639195868212,  4.890229729099622,  4.158754343445510
 6.064846755443816,  0.317927712339298, 84.789675800798463,  4.082963669551278
13.038955434911488,  2.237293294191620, 69.435184618686037,  4.018711880583844
 3.529691743378401,  6.093276178636894, 72.509886166567938,  3.987799494776042
 6.210015541160929, 13.076110094637722, 23.827487554142092,  4.023493132063142
 7.505661961407608, 13.384874386450546, 82.410560837071657,  4.622514008593725
 6.495658453526709,  9.392867551761727, 49.233653558268067,  4.232814701837396
18.884078411768069,  1.479883171920053, 62.445083482111983,  3.975355332817327
 6.703975127539008,  4.000009538783612, 102.171295057650298,  3.782150458478955
16.815752963872949,  3.413998767299486, 81.828569116072060,  3.965863956987709
18.701691294074820,  6.207186200618654, 55.686411069225343,  3.946289251741683
 1.960151417858855,  7.360785285782963, 91.252977699320809,  4.019689029146297
18.681319162662806, 13.088800208962018, 60.265721693519616,  3.840950141608343
10.426650969000761,  0.907968732107351, 50.291973687195572,  3.906912560328978
14.962179806162593, 11.863170649715201, 37.461660105811660,  4.138605201093443
15.933026249730672,  4.622029428382365, 47.654755892821640,  3.889420506600131
10.486500815054841,  2.923801485242621, 111.776046857568915,  4.366564195314990
 8.227930058787921,  6.605953883267527, 51.914429522811666,  3.432807305295393
 2.398781783234059,  4.199840755880570, 80.341706814683363,  4.221998631989806
14.637314877268826, 15.026066478305191, 14.311799085827495,  3.751777031509544
 5.972694648884963, 11.203425682028691, 61.306070181897262,  3.959847317890085
10.704578992052143, 16.807730387262840, 28.603497010546803,  4.120684590374347
11.630708907641385, 13.505348511156086,  7.133601318949769,  4.406207024561616
16.288022008429220, 18.443046735252057, 47.768688433691601,  3.697153831273992
14.944934033861456, 16.586190948312058, 75.425090865968556,  3.829306896322090
12.385945692446773, 16.062737395018431, 36.475639204429200,  4.218293878209814
12.996906480874882,  4.961361780456235, 19.600192615656059,  4.193964029747445
13.061985647635808,  5.086976281457632, 99.390088231785214,  3.553434224770939
 3.293150326814277,  1.238062007426190, 13.350406568603413,  4.059395605823236
 1.888859361449780,  5.336229908741638, 118.677414223551622,  4.113558226756870
 7.054341821771554,  8.262777359386110, 72.779426808532008,  3.823292746317799
 3.181648691793819,  2.986366205617219, 35.408885004683690,  4.025012120179033
 6.328944192966909, 15.240931829491450, 52.950378393723810,  4.409253728312272
 9.793717131165907,  1.819162817582695, 84.607664072541198,  3.820867909958650
 9.507192123809549, 15.414437696825695, 11.284892884944552,  4.012073672333630
17.679286228479885, 15.725843189046195, 45.114219237852772,  4.248094626144761
 3.069931890631330,  2.314043908264233, 50.700524948208717,  4.256004254182961
 6.207759540901559, 14.727591695217868, 69.919546435984131,  3.945734771945699
 0.185891534355359,  3.991092234852317, 89.677176034807673,  3.939201427657955
 9.242533308150087,  3.549653519100820, 18.505188158078223,  4.107560900420007
17.433664804504748, 12.059910508210145, 34.024090766912728,  3.908185641483356
