BANDS
8 8
NANOPARTICLES
cell(1), 15.031
cell(2), 15.031
cell(3), 93.941
13.270091146588090,  9.060794071173714, 42.590870175143500,  4.099449938819640
14.000380375506607,  0.748477540737326, 64.571375699803895,  3.744221620277190
11.235429763507549,  8.099761735258920, 16.725712002385986,  4.052126038715468
13.024635734192460,  4.794124217739116, 11.212718591925812,  4.173490669896979
 8.277723908678443, 12.480145831226032, 64.355731514643622,  4.317636068475348
 0.138335030396132, 14.064744880986233, 19.576741271379937,  3.723631725621610
 1.314836504110835,  2.015684674711860,  8.024494537824458,  3.922778255552410
 3.564048180787617,  0.592422559301557, 20.358281430240503,  3.961707453311140
 9.939822611605948,  7.154949984292752, 41.650749693245182,  3.801597245524005
 7.942233184100776,  6.087191804891184, 20.289682286739534,  4.201147708850246
10.433978164924396,  2.821310076712489, 82.058245427245296,  3.934191339139693
 9.548147021040851, 14.383202029169059, 83.409748461802948,  3.709202325835413
10.513609465359595,  0.375235829053359, 31.773827125176997,  4.017262083528411
13.085695221219346,  0.816239625889544, 10.078153736925689,  4.045566700328645
 0.365590633046390,  6.918716023579465, 22.348223373280671,  4.056460640773758
13.324892436951929,  7.265445965520763, 60.536724161843793,  4.009838006485452
 7.866349752009520,  1.064250771400355, 46.874139215147665,  4.119576330686876
 8.585029587363358, 11.662667579811631, 72.515145539807747,  4.027663407125051
 3.312774746958261, 10.599788762388023, 81.252224801539469,  3.804015617813952
 7.321527792466044, 10.971013308365150, 82.595154962459631,  4.266836144183030
13.431392166480672, 11.544437194351147, 77.686103462915128,  4.231690843236372
 3.068553215073967,  1.715541842404360, 30.876334609736709,  4.223209610936428
 0.646459723662172, 13.181764700445065, 45.401096588883306,  3.907442545051361
 7.094977492890652,  7.659839847973385, 75.810928326837654,  4.004428564970555
12.460663460669133, 10.242403460717847, 72.313534193298054,  4.172641831850472
 0.989056864794929, 10.476519975347538, 74.566365049799117,  4.137543922569056
14.078472401663570, 10.352979960750115,  9.536419058430846,  3.962401085041278
 8.866685963185143, 13.257121901009649, 60.216448108968464,  4.185277969273214
13.279231122100327, 13.179832037634382, 42.131063693385570,  4.180640807287427
 1.945832809536993,  5.821775736608507, 58.179421251634587,  4.223008362806093
14.160800260088077, 12.854424131750671, 38.142417320550152,  4.012009125953300
 7.311995162395525,  2.751235605118923, 31.262702001920022,  4.019306456187532
11.957904933189669,  3.545373140193494, 47.612048073571962,  3.937918572407252
 3.225904679841154,  3.065375242167748, 39.964713056641671,  4.030732955772261
 2.991608488802950, 10.038222161978460,  9.199925725988429,  3.975412630094846
13.555183075388470,  1.731233647558463, 17.436329005493477,  3.862331582378871
 3.359241158475845,  9.246622824405444, 68.697091922532522,  4.302732356911835
 7.886676611200086,  5.352102327616265, 83.532325465556042,  3.825890400067579
 0.473396420417983,  6.919934067247399, 26.264460659688954,  3.663760583787796
 9.963524301710912, 11.594451638216281, 14.540265146272146,  3.827695778283320
 4.913221913820287, 11.929015586398686, 27.921605181126949,  3.804700835292006
10.824399187469901, 14.955347908329809, 66.733835926549915,  4.114703413489678
 6.436052218182572, 14.617501166322812, 23.976711984291246,  3.667924152987272
 0.420644436248945,  5.726919823592795, 29.991531422321064,  4.154695912192999
10.065923592061015,  0.099806248750795, 73.463592157108550,  3.703799262533691
 3.220097477455405,  1.622187579358944, 78.574424137425865,  3.883936417098285
 1.526944970768476,  9.098877392815879, 78.249184458033852,  3.766294170673565
11.577619477653453,  6.475906022110745, 53.913805489568823,  4.081217786426184
 2.927498256696499,  7.962885357742799,  5.880915985483728,  3.850555468346892
11.444216729425030,  8.049053011291436, 20.622223531309587,  3.747003831686379
 6.256746751063900,  4.582704556220556, 34.572246432001371,  3.821098227898825
12.590701178594188, 14.958603275650699, 50.931733677417149,  4.363017813004961
 3.919166981166402,  2.260202294797285, 58.416715376298598,  3.918017822122332
 4.020170131885691, 10.832928743877565, 88.877906701303516,  4.182855656623508
 7.651777708053740,  3.272417502351090, 60.151722517691120,  3.940097691168054
 3.943915313209472, 10.259477643919503, 37.749827904592408,  4.290665825817563
 3.973706903741945,  4.677476678433410, 20.917699595282063,  4.286265616733880
 7.986360344450492, 11.264195744349477,  2.071781322853170,  3.810353762442999
 6.123893863694867,  6.906612398225232, 61.061615589876730,  4.113120620742273
 8.622712935330620, 10.771924785053383, 26.257798907553205,  4.069519547654426
 7.208905346101551, 13.434400735108357, 89.398197324912161,  4.090974853586037
14.723700253806987,  8.590227723205663, 47.812272604566516,  4.024301089817500
15.006958942058871,  9.243738777660058, 63.386098811244828,  3.699049297058973
11.030456502827294, 14.122464166659164, 90.689238980304438,  3.921889030129230
12.353238934675076, 13.867538645463704, 70.367090873105042,  4.046183022153666
10.358191045202370,  0.744148661752045, 77.265216243370844,  4.023882613857543
 2.547336404082264, 12.134805644666642, 21.745254515782495,  3.804350783184883
 9.635600559595790,  1.213044083727220, 63.006310261159179,  4.116774977514185
 0.126424794626394, 12.510418674945193, 90.984784825373723,  4.125050330094211
13.091662803884066,  1.102096029043066, 84.549671147686979,  4.087411007826024
 5.906312778948323,  1.446031237544202, 87.120488774254255,  3.908765934382215
 1.460046861043086, 12.932994394433987, 63.225138022822613,  4.237018440916970
 2.113450195967766,  8.604396298161644, 32.376501674412587,  4.041337866481206
 6.170386856262257, 10.998902240908187, 78.782638808084471,  3.690662341404793
 6.057727528742206,  9.527291549674999, 57.897001333413925,  3.977425387964084
12.491945957453266, 12.140701811201666, 64.190302157090713,  4.139066372759853
14.031307908038087,  8.758749457141171, 51.728929590747569,  3.920185152491560
 6.070430516279941,  3.931858621744826,  4.291556671335532,  4.067061120034869
14.848349993474104,  1.937876255229497, 57.851827120223106,  4.004827612885313
 6.318932435566068, 11.855574334444178, 11.138617689352419,  4.209468455945087
 9.845195186289329,  5.950684553130323, 90.775297284640288,  4.257353860353366
 9.650210884789942,  0.696534540479394,  4.764708447263082,  3.405642779892932
 2.425941723493589, 14.800955772099721, 55.745210602882658,  3.957119018874578
 7.489288711833355,  5.070250063455116, 87.475188890212578,  4.031104644610014
 0.945111242789429,  5.663975843754846, 92.514896218084587,  4.220371650548441
 5.252996203489053, 11.071997567979077, 24.212700102905760,  3.821313567595202
 6.260515724566429, 14.524125661003231, 76.904821658128611,  4.212841170712993
12.236758524558594,  2.368494596202980, 36.620707723066324,  4.278261975999488
10.462559817434897,  3.396155780453535,  2.455010095961403,  3.759045609286586
10.107458189606380, 10.976864005590892, 92.805495738357550,  3.871617734624345
14.343949062805537,  0.126233605960601, 30.757200267277316,  3.908905154795636
 4.597660149449811,  4.636282560984127, 72.668866124622994,  4.154405002152015
 4.845897165738895,  7.545228009750337, 78.955782053427114,  3.693964045712268
 2.670390459544721,  9.458195469523760, 84.759645934803871,  3.682522238243221
 9.488415739759848,  5.798748656730254,  5.356966496943609,  3.976256245543556
 3.242064518979682,  6.987327573280611, 75.601224560901485,  3.821709635886311
 8.620247645615782, 11.963689804885457, 46.875194793940970,  4.269321447413849
 2.037916929362576, 11.472266497629267, 41.755361877232090,  4.011907573593367
14.430709184268418,  3.131284240721313,  1.624083156361890,  4.283851310558297
 1.794931411767325, 14.478376994722280, 11.115571591602306,  4.156988912700966
14.663590728100719,  8.929381010882556, 56.842189910204958,  3.952973872294424
 6.022891332983632,  5.496493131583211, 57.156392628089563,  4.190106917364462
 1.161862293940158, 13.604922828914896, 82.896042420057640,  3.833893122572209
 7.027826250775838,  7.525674477131415, 27.968353634075470,  3.922470110584738
 0.884241245078940, 12.273541902896637, 86.660987853005054,  3.973343642042810
11.022726050317086, 10.380972050533561, 57.798784377384159,  4.083733473866389
 9.172965143155754, 14.338048199185753, 17.924162612274984,  3.807729045126388
 2.671582594229189, 11.112132472479685, 56.564224378108896,  3.536551669285922
14.916553652715249,  9.655409588768835, 15.691537739761433,  4.148980705386241
 8.058599362570211, 12.436151509024134, 55.827620311804061,  4.124154955448766
 2.586210384158614,  3.636570129124597, 11.470903631433714,  4.079855511058524
 8.184055457291947,  4.755075935444632, 48.051798168070860,  3.609907936011349
 3.610412492510275, 10.479741333717001,  1.906477096657953,  4.060192480736465
 5.055518587218581, 10.769691410652944, 53.644620522322221,  4.004828668023607
14.445932932336433, 10.099363510702782, 28.765991621860902,  4.281986584986489
 7.224330688520279, 11.514902323616299, 68.227321350857224,  3.925468137671797
12.006849352957131,  5.020387461141805, 26.231433215072254,  4.290263540821951
14.912625120090656,  0.222342778630555, 77.428241190831784,  3.709750558079260
 9.835256597458129, 10.204739035498086,  9.601156287724898,  4.127454249523267
13.588198596919732,  3.416009973385163, 32.848754908886598,  3.999200659803689
 2.344602219027824,  9.451072086995257, 92.251056923137966,  3.832333563797297
 2.343045032761289,  4.718258097224451, 33.732805159669226,  4.183468928626022
 8.254582364763881,  8.092056220917291, 13.938406148772810,  4.054564595214108
11.113914363382111, 11.773595478023459, 20.279945207419257,  3.751271005425182
 7.168336371839080,  7.594215734629818, 68.773411009283393,  3.982620437451872
 7.397613805110147,  3.866801892280101,  0.097364619637576,  4.004186580899689
11.548465301804853, 12.661884403630971,  3.392135095206002,  4.280063559505549
10.973748378231301,  3.309975498841179, 40.817959524224491,  4.273482121539097
 9.747826997380688,  0.548034875452560, 53.856793332821361,  3.864450970270536
 8.423346514962049,  7.972686865708632, 37.026182736826307,  3.661539110319320
14.427460514924586,  6.757513313108674, 74.971370519062049,  3.967793625403357
 0.105556050347365,  1.168531843594263, 47.888206866398292,  3.935290630535390
10.180669374213970,  3.322321922943227, 18.387506419811910,  3.828837825638449
 1.934288796050639,  3.886625961683976, 24.647242042985489,  3.797365951668808
 8.017722465400352,  3.036276668488276,  7.874687739118803,  4.052259054009686
 7.575620031257300,  2.069320042545246, 79.623736732622177,  3.713610608835662
10.742655400675098, 14.547158837897323, 39.276294641556355,  3.928482600613300
10.554108084859052,  7.176048501359844, 49.983487840851915,  4.158371532363266
 2.332110700216417, 12.501662388397500, 31.095824086887234,  4.156001472180728
 9.828271678318128,  0.135997256361904, 43.324983678569140,  4.106845614623270
 5.235295387255998,  0.001157228283561, 62.498427091708130,  4.449522899991984
 9.922353407704215,  7.924330293736388, 45.786838271927948,  4.450859590061071
 0.341740784708260, 11.041453356064618, 66.681952865196493,  3.745758129826270
11.026491938301735,  0.508489840523487, 14.645912193560124,  4.035906847922357
 0.707189604867721,  6.703137831541643, 66.128361670721816,  3.911045372085288
13.743219932258846,  5.378842395422603, 71.390397963502309,  3.718367937371914
11.638756930297939, 14.739471854284938, 46.922647075236888,  3.878886375924069
14.604908805660884,  9.670015017412769, 81.525560082975446,  3.905322271022246
 8.307317376220224, 14.707207160332427, 27.627092773869204,  4.264674221408345
 4.640282092213742,  5.405363721044041, 48.191158209282200,  3.450282509067807
 3.596857598981217,  2.821469607406784,  1.194865127174226,  4.161107674753345
 6.626581450462352,  8.308608768943506,  7.912402539991782,  4.034692069325705
11.772947166260220,  1.573328788788540, 28.295896453081340,  3.743963484532642
 5.230492569742919, 14.407604905704734, 17.084676336184980,  3.757729360782962
11.007104621865569, 10.377401787348081, 39.063494864175532,  4.207381694347577
 1.095560303821767,  7.356208697641961,  2.317708698818155,  3.934335549801001
13.628653932532860,  2.023225067417485, 44.051532743257347,  4.479169913810642
11.513791260728189,  2.588853221634321, 92.606242570051009,  4.085366883760819
 2.901394245262211, 14.169464601252111, 38.849969379115080,  4.094924258101214
13.182601983434159,  3.411098611548117, 78.894617217724416,  4.113665523132798
 3.503697272105673,  3.486253328517987, 54.788625906268884,  3.782771129677644
 0.976716705606629, 13.618239718733424, 27.406936473710108,  3.839078968839429
11.320541488821776,  4.371435087036605, 22.099768745554247,  4.179975798207914
 6.635550122389296,  1.729973903945404, 83.303995850417550,  3.807660504267263
 6.607536287598215,  1.118652882109262, 39.234255465930261,  3.889828598625532
 5.789519456128838,  3.333148832326401, 24.394804867802204,  3.975008566652141
 9.958773752321482, 13.698464220816609, 11.393741444768365,  3.723868821864005
 5.939969398393482,  2.457193440879101, 50.261243828229745,  4.148492195193303
 2.691298329782136,  4.647671729813706, 51.211977581846980,  3.897403625443411
 9.633321846036965,  5.624240095076842, 62.646380357652426,  3.836590046893273
 1.052540349239236,  2.666709545769193, 81.958318909597452,  4.419533719482624
 7.992240856773070, 13.927513107042028,  7.838554789409299,  4.221341831181813
14.685853035058512, 10.157091347618167, 19.798218728898828,  4.137862282666944
 5.442692254593774, 10.120661751127249, 31.146338614794033,  3.664784875724744
 2.859256214781615,  2.413708923709258, 65.765415806156071,  4.340021266124724
 0.575320769362263, 12.503122534791746,  3.246883479391551,  3.703186265555889
13.488530637582640, 14.403021249170612,  0.208357503225477,  3.937879807309113
14.419486963517258,  5.704563611646834, 14.933854284950014,  3.955633361679879
 4.854864713246711,  6.888444277531242, 90.124741730259117,  4.219929118586997
14.625420221834078,  5.381138813883119, 41.018553036121808,  4.120775043058649
10.943409683183775, 10.725716198743260, 80.768430659103871,  3.853634461638017
 8.493191611073168, 14.771812383206163, 70.002974711613277,  3.913192491396536
12.187540891262403,  9.021326294471857, 24.518567206754259,  4.409107847663256
 2.286245416438385,  6.162587940539565, 62.450791098857025,  4.138428283520632
 6.389477519204807,  8.030829243978854,  3.806834594863299,  4.192844678935084
 0.657556758061435,  4.300871603660235, 37.314690523728842,  3.748478932524824
 4.217836846431648,  7.049953585348624, 54.049132280496728,  3.630566220522637
 0.066727008521904,  8.922446580111036, 38.864280161695767,  4.183788271244286
 4.545057711595047,  6.766836306135219,  0.321112120796612,  4.078828373956520
 8.188558230553737,  3.785610900632595, 27.512832533811061,  3.944422778980758
13.660747331864632,  0.880744136708183,  5.160502702824092,  4.229616987407140
 4.287972581853640,  7.163711512600452, 24.740533599861354,  4.239585163918773
11.908810347263408,  3.619711050207199,  7.548371607452458,  3.835686613349187
 9.283668909355629,  7.893260966280136, 71.985831349077301,  3.700119330810310
 9.697618598989552,  4.985798015426295, 77.434886997828954,  4.070498120353741
 1.053597627527258,  7.572665926869609, 11.762341065541976,  4.109722671931823
 1.994213862126647,  4.075836191021062, 88.891464228546965,  3.950262486020053
 5.172093618099022,  6.276864229782819, 31.231200407055002,  3.978303415849996
 6.078030121624162,  2.002984459993884, 43.187714999429623,  4.265899865495844
13.553706830675322, 11.045710885712328, 60.592047553821317,  3.550339651279235
 9.883079449098785,  0.649852784339360, 87.126365232143783,  4.181059576129247
 8.019585277827833, 11.644940280294369, 33.753048243089552,  4.273462303952395
 1.214517904184639, 11.689420860431534, 53.170037258545712,  3.923520508666260
11.661246981401892,  0.541895531750686, 20.731858718044329,  3.976462546728769
 4.809926616198113,  4.299342269100572, 81.015268035255659,  3.914429314253324
 9.132083999934915,  6.198714631977306, 10.386472273932011,  4.137572905486570
12.627685999312567,  7.987831974611313, 31.771371854262959,  3.855878784537348
 1.057691146426379, 13.051434131381578,  7.160715653967950,  4.254635127861404
13.859391056134703, 10.250532634018370,  0.393985306676576,  4.359396589895947
 4.936407308770667, 11.605057920348738,  5.800979946798656,  4.450855380615763
 1.271842483984705,  7.902190338994069, 88.284855659598975,  3.928583273406828
 9.005395558372904, 11.859058810905474, 86.194040853427452,  3.868294400426687
 8.435736747750354, 14.134526758314861, 50.410514020216517,  4.035059317874879
10.942341326303882,  4.301352402773694, 85.671551055881139,  3.908577770815207
 8.714578819473862,  8.279788025806743, 31.584619215091571,  3.851584042651903
 2.439198993709171,  4.198016050114652, 43.934488058416122,  4.352079302732975
 4.784264065555100, 12.202071012131281, 71.283152448552158,  4.012926367745720
10.889850658519880,  8.209998951287641, 75.328044178978899,  3.703460492471248
 1.732736227163681,  5.277523100290053, 78.760276610717739,  3.939553806077133
 5.891642064436774,  7.677386690753194, 17.141424694508167,  3.946225994734401
 6.096902388452064, 10.824992496798762, 92.518133683986392,  4.174613950667283
 9.438186098561383, 14.574917480290711,  0.366435231797851,  4.030380906010214
 4.465004448794507, 13.457978379717433, 34.541880307008284,  3.817000385255188
12.684684905785282,  7.497499847407948, 78.731532192765698,  4.118407569666834
 5.078861004755859,  7.603172918580221, 11.531861233885493,  3.952082562396677
13.215454408149128,  5.470977566679808, 57.215266110050692,  3.527003523921360
 5.045172845939240, 13.419042642246138, 58.517198745462892,  4.138125900235821
 2.782879554236918, 11.026437394929417, 13.111413835526067,  4.053361713488396
 5.737256505055381, 14.827015351124407, 53.414809350186161,  4.100588890461102
 8.468971880264599,  6.350673253210174, 24.417463461371586,  4.093654504227804
13.799092834606268, 12.696526768414065, 56.079528675551131,  3.904685246203625
12.530084644889341, 14.540170313076866, 80.658731334109618,  4.388541230296330
 2.641940087685661, 14.406359906546788, 74.171605399209028,  4.412719846654963
13.219501603657498,  1.324877874865255, 24.657110284963579,  4.086597260596105
 7.906282750440405,  8.088721099967897, 54.557482740190551,  4.031945810095057
10.910010788245636,  4.816741242915542, 30.221929970819758,  3.988888088869737
12.427505498907950, 11.180537872758098, 45.792610977838713,  3.753502402846628
 1.996731974868041,  1.183349166622390, 85.950937750960435,  4.267873943705727
12.623477665434663, 12.003766825604018, 84.218730202431956,  4.227327951428852
 1.889277710383108,  7.111920081311816, 18.221615347344510,  4.041178727638866
 6.587311128255736,  4.131020919341741, 13.028749045576541,  4.183796446263432
 0.239028762057572,  1.695077311639736, 71.519091300205460,  4.116852914907321
 4.609456025079179,  3.247128605250062, 91.450595924793674,  3.529752981938183
 3.333127185498169,  5.936310147614550, 14.678310772094761,  3.952439123529827
12.730623018326135, 12.802210401896684, 16.944760765074079,  3.880895578135332
 8.635941150003330,  4.349775627266991, 73.526962980108379,  4.118271589968070
 5.165094339393863,  7.689629363776218, 82.577737601581688,  3.576896075591732
 2.333819248797790,  0.518300369759928,  4.053841827717094,  3.508751575542830
 5.760061414155853, 13.096005052479917, 41.595609000127716,  4.011261419588857
 6.175473689954268, 11.244990580908906, 15.142740683005036,  3.864206321766870
 3.955008527065974,  1.900162936662280, 36.150700039103050,  3.904525722668559
 3.208069997964391,  8.435341656242798, 28.510312356446242,  3.998474672730218
13.813868256916903,  4.900677423108542, 50.831645898302810,  3.970522735773759
11.271329179543139,  9.560354549290015, 35.101841114951178,  3.896473501835020
10.840090271105934,  8.277387262286300, 28.379812581008618,  3.832432439838453
14.565428251580622,  1.407424534894057, 39.940878789021049,  4.040918354397196
 1.883385848935118,  7.499510692683680, 72.068483950079056,  3.815884856905976
11.840788888519384,  7.827074056586079, 65.009996996908640,  3.935566153222483
 9.581562464590517,  3.832514793213214, 66.188374831029222,  4.101961702214870
10.180541133706717,  9.580381215522328, 61.757617890214640,  4.136615097845643
 6.264477458970807,  3.900930940330043, 63.832799674322118,  4.025609569404468
10.019924562835094,  3.269347868952954, 51.050064950377056,  3.971506936903282
 2.429845878078427,  0.268422204404420, 42.656995589590132,  3.879117725716409
10.347477082530908,  8.424499351669313, 83.949082823507879,  4.087408816631092
 3.884586827838374,  5.040254829505397, 85.311633084255305,  4.355974406551268
 6.515276131784476, 12.866902117812419, 20.491237158678427,  4.117890634448418
 7.335523899566054,  1.225863259476727, 56.823596202646847,  3.893496980353480
 9.366067608402560, 11.669732737109619, 76.552353069030403,  4.180779164569557
13.331876158802672, 11.739877523805271, 32.323081125045647,  3.858450873194956
 8.649151075430190, 13.578237231077747, 79.919114217849753,  3.662046958503122
 2.300942731961161,  4.745927066247181, 69.239285606563996,  4.100819066181332
 2.734855022951300, 12.764475765973357, 78.020484904964974,  3.942218365856019
 1.500021923321965, 10.450273847245349, 25.133380342245843,  4.003897791833891
11.157018825435246, 10.767709544152174, 53.685863696079828,  4.109846633490668
11.051765397763290,  6.547741195644018, 68.830789967329110,  4.017039247279848
 6.330884021795147,  3.534466481128963, 17.191369479312780,  4.226729351791724
 0.119457679883470,  2.737573475353541, 21.199416729102662,  4.317700477931679
11.629302622974778, 11.095806565673131, 49.591877421374150,  4.006178007083045
13.171218059991254,  2.655435668659235, 54.185713832079941,  4.181991731078995
 4.724576451602465,  8.880158459415645, 20.888386759534921,  4.208066611685911
 5.561087820028113,  1.018582183649607, 10.467053566309856,  4.095586226523865
 7.418328834792775,  1.891888725841779, 20.923009866436704,  4.193499751060818
 4.385123827185306,  4.908059512713711,  8.016653301685915,  4.100883589520568
 6.039589424814104, 10.190703911659188, 44.260031644358662,  3.867637974296322
 3.516151037995886,  9.576044341486915, 64.556300281945482,  3.708893268253031
12.865946058928149, 14.700853401461446, 61.053158476176442,  3.930511746161638
 8.493312181114838,  7.609837703283304, 80.317949349322916,  4.086885593011344
14.656232445019276,  1.912882459592833, 13.621046491444332,  4.007681553740726
11.054980507083153,  2.642760738709876, 70.777197945394590,  3.949957363946297
13.270663569263567,  8.205084235918141, 90.775740431497084,  3.929334560460461
12.522566065180538,  3.085649842817142, 74.597877669492163,  4.269480349950324
 9.746555609756490,  2.410037096401794, 11.330706101106127,  3.765245312585549
14.125624383008081,  8.386448984644231, 85.130481693237485,  3.796859159905404
 1.451439780239095, 13.925994734393271, 15.798100746970560,  4.278620333378325
 6.136605171491476, 14.881236320610547,  3.025669348217686,  4.462980488159398
 5.826315454572801,  3.876143972353646, 76.535038942858662,  4.081727686606380
 6.926309851627090,  9.390682943897160, 40.483728822899167,  3.981281746783561
 3.228830368137253, 10.786059924670603, 17.665228355238931,  3.843064087675269
 8.095616603839627,  2.221464178365391, 90.457347090575283,  3.995643415441409
 6.530780853182768,  5.357307472052440, 40.699182433790277,  4.135299344798498
 6.709883316615045,  6.393773055152680, 51.114161155184441,  3.907894602535264
 4.096464476179697,  6.111403604498879, 37.474153083936514,  4.025734422504490
 5.633819415062701,  8.412436887119609, 34.515614857178342,  3.888973762055450
 0.623260338016326,  0.400028980154618, 34.649893789130758,  3.917726619299660
 4.475571747424332,  6.206419741714917, 66.358082885819087,  3.685418566962471
 2.080765207139073,  9.578097026070349, 60.053854897233116,  4.174494556060517
11.924448720293130,  7.390876123774907,  7.861346405429630,  3.696513025456561
 2.223367702279460,  3.139784712379999, 17.437759023550434,  4.036003385724277
13.644696290170559,  3.428186605523090, 67.610993299713371,  4.378495932495311
 7.824444718926565,  0.788203403923648, 35.022882343366319,  4.439268411069136
12.340950444233664, 11.208128124232502, 88.283850004577474,  4.073396529808480
14.521972920283412,  7.297883646022918, 35.149469668886269,  4.003527182414752
 1.117694675004113, 11.441215240359679, 35.000704716308128,  3.934935376989255
 6.428662307528603,  8.614995307022451, 47.938422681782313,  3.857706387564888
 1.713710668800646,  6.668794827148829, 82.332992372235466,  3.618877456536944
 7.400030641671636,  8.302441888480770, 64.767331897237071,  4.161282932097142
 5.570753560217685,  8.483549858409958, 72.216858283899413,  3.806145730739253
 0.276069012881258,  1.747958214549941, 91.591945524841009,  3.927828817464117
13.546264662054220, 13.683394011107856, 74.191578321275145,  3.962539054897194
 1.866946294752863,  0.571744191922988, 51.652898893631217,  4.449862130882806
10.360562800126486,  5.642768585907616, 34.248668419679440,  4.299856921531343
11.191144742606760,  0.269808563845541, 57.505975675032047,  3.998607439080817
 4.736756237882842, 12.997492141864964, 85.319817868520161,  4.262104964317307
11.859095608956121,  6.403024681136188, 38.113696092969775,  4.124826529942625
13.850569174967982, 12.648716861222026, 22.995747692800883,  4.123119433430078
13.895655908300226,  0.154485987985839, 88.305140771896646,  3.814154324960141
 7.295675649486235,  3.659736440438038, 53.818420317568169,  3.835170357943055
11.435409033604993,  7.545009133826059, 87.547643022395789,  3.609343649343427
 9.993325680832013, 11.762919049292782, 30.077434179126762,  4.062031839702298
 0.547862829503843,  6.016275394858035, 54.284292255547818,  3.994953804224088
14.825599084696988,  4.581139061833428, 85.676833620601514,  3.824606313347556
 3.122610121149250, 10.505069323275979, 46.904860564540634,  3.966630113061799
14.440811707582277,  8.468827757942089, 69.321405924415259,  3.825688720611686
13.524053474807193, 12.610632890685352, 12.929656640751162,  4.221875253594476
 1.611260996798594,  3.376158047198646, 75.215067710284544,  4.081333321204114
 1.574064600413851,  8.106372073144607, 44.354673448871203,  3.680944258383851
10.473185707331625,  4.629561144419678, 14.581710507579363,  4.238428917621067
 3.337815269065885,  7.803478277659274, 40.990588453355919,  3.919793586823265
 6.756190561034456,  0.802795226596481, 66.487491870982225,  4.190185857830317
 9.864369083926547, 13.258447007190643, 23.496119345800203,  3.715852550493402
 2.374717976950173, 13.876119832723472,  0.154210568914034,  3.888765263219660
13.588355809812816,  4.528232480075348, 63.515184161617377,  4.086461353886395
 8.055521650456901, 10.213085305328487, 51.113058604874745,  3.915983144541900
14.262155081266989,  9.547004729228949,  5.514003623575851,  4.192723872141947
13.531571974021643,  6.025127278481195, 45.103925168285947,  3.784439801888800
 8.608840627117910,  9.648279545661145, 89.417779727754080,  3.978304295140783
11.241561856514492, 10.679591979406727, 67.932933793813234,  4.270345280240138
 6.109846788045542,  6.193206138256597, 44.754818902043120,  4.152395545511118
 4.981774286923036, 14.101798458754804, 80.990435115868877,  3.951643110809805
12.168705038366230,  8.620433863754782, 12.713011924918471,  4.212779361707955
 1.982385300607944,  0.178729991786801, 23.898970496193108,  3.759590125602383
 3.307633928110426, 14.848434118223512, 89.736414743988774,  4.151574620382101
 0.427301046429763, 14.716900793788652, 67.965593329213547,  3.942435988250203
 6.352113347855594,  0.992121187679898, 73.076280985233396,  3.971541476957200
 4.603462572451976, 12.666550072405531, 50.031307051151515,  4.190962035445772
 1.997760324590349,  4.262393351398915,  4.731773803915628,  4.110158491735389
 5.617962685912798, 10.866783121378646, 61.611781060813065,  3.943992115576076
11.403282917709456, 13.539907260941719, 35.277766441446225,  4.055396927202199
 0.817377859828399, 11.882549495051608, 70.728971464284527,  3.989884012047758
 4.991692386150052, 11.031539515539183, 75.121576412053471,  4.001828786458129
 7.247433697689461,  3.587138086119882, 69.607044633136368,  4.181342716109204
 9.678666083540886, 11.086645774414418, 42.928576265011785,  4.085212819409026
13.022955135988941,  5.806265741522869, 82.408782560392154,  3.997890490235822
 1.428706936744530,  2.082529038874728, 61.679961973523433,  4.294638017969970
 3.984508915496654,  1.574656635291390, 14.394282885793025,  3.593039046316417
11.960827054257445, 12.988732851926422,  7.472650944320610,  3.942065297097490
11.697115483318633,  3.397864337683292, 60.048843861666185,  4.123002193613402
 9.566844280752335,  6.733588459676192, 58.862242710777522,  4.045584485897945
 0.494746975091595,  2.340964041319372, 27.836341769655956,  3.769526633074178
 9.347224092852885,  1.827601959348785, 24.399585723788636,  3.720650193098135
 3.717080960260077,  2.026863479391777, 47.074634526584944,  3.657716805199085
 8.411408853398664, 10.395793528674643, 18.104194942024218,  3.711764067766122
11.144302078501797,  8.580433601932837,  3.080118772966454,  3.936420837962951
 7.558346657921483, 12.463760607837004, 37.873759015754288,  4.179408264796581
 8.612840007855214,  3.989486236182906, 37.558491390643240,  3.874432546650171
 8.450165687460190,  9.824045837031411, 22.343774732863203,  3.982054732253288
 4.771578112022015,  1.123074043374547,  6.649145495485900,  3.684469025744264
 0.449886150602154, 12.344118823075132, 49.298720720295599,  4.069317608665997
 1.091702305984630,  4.958731130177304, 47.716036586407931,  3.759000779038598
13.066268097641789,  3.954432891474169, 89.094366227640194,  3.943958838791951
 3.796710770358263, 12.931323998594861, 66.681399962847408,  4.104105466253973
 4.306100335248543,  0.693141898690749, 27.051856152601214,  4.067915867429445
12.263178797145066,  6.273167176647706,  0.108030545770729,  3.905046392910527
 7.236328951839453, 14.739332487582038, 13.841427476605039,  3.876244255706479
 1.063752143336765, 13.403070019201907, 59.177036996314193,  3.927632395492576
 5.830165440719806,  0.054489480505290, 92.830337719024385,  3.828852340466651
13.333583907963773,  5.720139825005790,  4.664990195253011,  3.833822274986632
 9.037948343858245, 10.504014637992967,  5.729526430762073,  3.797914753802828
 3.952044203791078,  0.919377696869973, 69.697112206815916,  4.282452986281783
 0.436981332406641,  5.889267809266201,  8.119295576436587,  4.004023664497299
 9.481396022113000,  3.942573445617329, 44.579807635287459,  3.915040534006606
 8.462882503375443,  7.711135220254633,  0.300499719506271,  3.977018962845542
12.080141652347640, 12.976759671316490, 26.744010452523405,  4.163588429601733
13.387401828715820,  5.424116673958697, 18.682851601933763,  3.838493822402639
 6.088346086940130, 13.998964694464098, 31.002205087186795,  3.930124730352519
 4.841915755301010, 13.791629449221292, 45.428427440032607,  3.990945204797112
 3.932291788734016,  4.581398871072472, 27.884388779865745,  3.915467718259098
 6.389388951669714,  8.790565664458549, 86.096040029733444,  4.189076930469922
 3.007716184410097,  8.726570806380112, 50.648664669688912,  4.323707526022874
10.096201329491123,  3.806843789931615, 56.377427241947643,  3.705142224024305
