BANDS
8 8
NANOPARTICLES
cell(1), 15.021
cell(2), 15.021
cell(3), 93.880
11.758902580847614, 10.343308312031736, 89.814693792424976,  3.846465143393055
 0.074636632866422, 13.049401296433530, 29.425420164602109,  3.773385314662863
11.850583260455146,  3.531233944767264, 24.587293415335953,  4.093478612720905
14.598117985713452,  9.570005967214863, 74.753312706770416,  4.182347126810376
 8.386329197535291,  6.169178672936325, 29.794004435413594,  3.731907984126427
 5.796347420375603,  5.320847202039536, 67.557126439708597,  4.079191857487133
 8.415992632939265, 10.356356474656117, 62.016053053596401,  4.011240285232561
 5.836699819687892,  1.187185268134022, 36.082822726054090,  3.725927203921229
 9.412788850760963,  7.516213644615461,  5.889305929955047,  3.786557763648321
 4.629276541211203, 14.966565990917125, 92.659970527497052,  4.054635726198827
 5.327406487470765,  3.789430528831556, 23.222912856935110,  3.903671217274618
 0.508543355635026,  0.670171504873645, 55.117573277341471,  3.972485799225548
 7.913090873744525,  8.450273407873992,  9.225850817610173,  3.761255966189551
12.227728390287764,  1.418046887966566, 71.205369815424007,  4.021336904379935
12.892813496966658,  4.836214581859755, 69.027482778712667,  4.193138252896137
 1.997426424169315,  2.332964219511699, 15.070583808232133,  3.727047028103523
 5.093892659354893,  1.978589222930652, 86.292612673693668,  4.024007021063796
13.243411129255088,  1.253321000277271, 66.914799787852644,  4.154719072357650
 8.331420945059923, 13.085152535718830, 78.612005470457518,  4.318576394928137
13.235347601281317,  6.455477655381475,  5.916530840573579,  3.850780446868697
 0.175465544477595,  8.285965325749510, 66.947309701299318,  4.100590828314227
 1.905653817110194,  8.301534302308687, 12.670222948665112,  3.912919080706948
 7.603940487673872,  9.003621306869460, 84.657865694156442,  3.818825557155562
 6.209521200623608,  9.181616287535599, 50.848485839456245,  4.104064297384638
 9.486943386048967, 13.352786767703831, 59.504507143228253,  4.077230681251646
 6.538043899019023,  6.976000472101448, 93.246968318016570,  4.122491038399356
 4.588453944358793,  2.448644364157325, 64.804911312368404,  4.106119036333038
 5.887510844366721,  7.554311299276381, 23.159132750522758,  3.657125666178940
 5.439812019680574,  7.523894508675462, 81.620900665276267,  3.806476124776945
 5.965915814438952,  5.242827627129561, 51.059833914677334,  3.789295769980078
13.096403545462572,  9.365357688211445, 53.707907371044456,  4.148253938803486
 8.119597792432993,  4.529094022553046, 36.993747339226822,  3.779125786179928
 8.985866277304368, 12.751990353844366, 24.764366242542263,  4.054886248088813
11.824180760147788,  4.216340729573187, 29.100421086040814,  4.263650149229964
10.558744052836108, 14.146708635051448, 89.174485992517432,  4.217193789263779
 5.063704617446715,  1.080240606850382,  2.610256086165044,  3.965611450486770
 3.625993933322513,  1.873068429940203, 74.054363949406536,  4.197904888093404
 4.343308618081481, 11.160675548783354, 39.698838712283909,  4.140544319709677
 2.269079711004838,  6.548654917940328, 59.635537406276256,  4.096315006474363
 7.754030280361485,  8.984430780062196,  2.716206853410064,  3.866986005084366
 9.519161520280532,  5.939742369430855, 33.548865681333830,  4.099764356302144
10.349230318569100, 13.808263194195369, 44.631740851788827,  3.918045267626441
 3.463534936355303,  5.962916309432019, 74.353829574814768,  4.007270446815764
11.126228048644244,  2.764721461019557, 54.153360676388843,  4.107113244424828
 6.878326807580248, 12.064319685816258, 89.665944842495577,  4.258854181190822
 8.601358387409206,  8.117102513505984, 55.292865312007258,  3.933645336876459
12.175105374795933,  0.623208165695487, 47.631610685362766,  3.997032804204156
14.733149761200785,  7.969269352144372, 70.985295238245257,  3.994908586843817
14.127023415192728,  8.700873947190823, 38.843610222542715,  4.065247735904038
 1.083194097712362,  2.989202277951306, 42.278198792387926,  3.813468687056932
14.679637183146966,  6.067281866549561, 10.281981083059351,  3.843325662317910
 8.279338000754274,  8.117787530075347, 37.207058321063663,  3.279829158525641
 1.031158643874692, 11.498002090432554, 60.966747323622215,  3.828329445906963
12.881954249608327,  1.294706120645214,  5.384966718083467,  3.805912605140917
 3.691209242983668,  2.740720453534644,  9.226570033179378,  3.965254076156440
 2.987188463667064,  7.031007795954758, 20.690760429065698,  4.029976581684759
 1.000799357876929,  1.138378137540659, 86.857568479171505,  4.086246216628389
13.380434470408298,  5.586591755220996, 74.105990497037411,  4.242773023780789
10.527449707408795, 12.369178703631801,  1.851039701385820,  3.732042739519200
 9.591958673481516, 10.070678283068395, 12.116561577104822,  3.655875595688784
11.694585156544735,  8.350195572462393, 30.011804129408976,  4.204593501754977
 2.137001257343050, 10.722585027705017, 69.479512615663936,  3.934922029924891
 2.543933307607926, 13.880982032121294, 16.415698132348790,  3.796222808014055
 5.999715969992973, 10.920011973314582, 54.467330343234906,  3.886269341694900
 9.503239486502883,  3.325538797206149, 17.269794325839452,  3.666529109614746
 8.512093843197299,  0.642738395441189, 14.661100631327042,  3.908651784772908
 1.736356061860957,  4.395861428624708, 67.380572486011900,  4.253274976510583
13.129286933899508, 10.329506587723120, 24.442845476540693,  3.998883355740421
 8.229506162226084,  2.137502472302737, 78.415891264783909,  3.838866320073564
11.868667661427841, 14.102144697581176, 34.884043824570966,  3.903074038125202
 5.763736264055334, 12.426296327640030, 64.173118670802026,  3.801259532053371
 1.098508681208641, 14.102763857735530, 21.520015848981146,  4.277466274029996
10.572180177516358,  8.532713356122752, 19.355338317286503,  4.360641207697039
 6.225772090216915,  7.072977179503111, 58.163382710543324,  3.695263232407121
11.633196640046441,  9.708353052333864, 69.084396925024947,  4.043413248250443
10.524986591500687,  4.179972675823484,  4.344960315380004,  3.892723261436752
 8.787861975147216,  9.946858196668304, 43.697139624564429,  4.318831959049698
12.490562890946011,  0.470560573629718,  9.529071177557009,  4.046187369239066
 9.893838337391648,  4.957233693256863, 71.894392730506922,  4.086706437352026
 2.605798419641689,  8.505262376611455, 77.482646663613792,  4.219997449165608
 0.084349314661740,  9.441865311506104, 27.855604772439683,  4.047586889550341
 5.532097006957319,  8.435216448397620,  6.048386609308070,  4.169293095857261
 1.309989475892936,  7.871532591386476, 24.282620377626387,  4.073319159241997
10.267711254757474,  5.570003833648308,  0.545024096310505,  4.175018224079591
 9.211466706909500,  7.768128282124552, 48.130185428932279,  4.429087806649460
 7.566549862167226, 12.409727745885249, 17.126133028868257,  4.305599343597917
12.304530235682494, 14.975651407381129, 85.353996983284460,  4.273622523740083
 7.150791978324206,  1.953390358457481, 53.095397742299347,  4.270981541257505
14.242045205602414,  1.806141624336790, 82.079366351600910,  4.033750473117721
10.155773334788876, 11.290303576914853, 86.365701959448700,  3.823273019343612
 0.007184551833168,  0.211311548679268, 36.658152598111741,  3.684116108261582
11.792224364304955,  8.729919945697292,  2.885524093528269,  4.230974043899955
 2.225405514422063,  1.859547368971719, 24.953239383765297,  4.154344079124664
 7.096205294240107,  1.287158898284710, 89.726395894585892,  4.013386261504028
 2.428591539494787, 14.240624179809986, 51.788442872473041,  4.073166443568589
12.549160625081386,  3.016780758685302, 78.649961324022087,  3.928270552153827
 6.004954446411977, 14.698929357394171, 39.451778696137083,  3.641916684708332
12.548516859528503, 11.765888865093361, 31.906853618078419,  3.786510058533078
10.387128637693319,  8.335022462988778, 40.234597481370180,  3.831849606302371
 1.952087207734737,  6.790161276612635,  5.380544755294284,  3.718145669470373
14.139315776947306,  1.240804975030388, 27.617628961175985,  3.830392385181884
 7.151589635792623, 11.610097990739474, 21.509137285770720,  3.752887150869970
13.965639862077827,  5.459449694421494, 52.669367133506725,  4.078757941229324
 2.824671772541235,  9.207080888142981, 36.443825349121305,  4.009281888265097
 4.949306566706137, 11.288277257156752, 32.642308378961950,  3.911658798845565
11.248626701323944, 10.714922362319109, 15.670442293876521,  4.291165790163761
 8.420391255583850,  5.424425748914928, 80.430162147894194,  3.861528301972966
 2.347074087649141,  7.398378981772920, 50.878116618874728,  4.391796280420452
 0.628824905367442, 12.296391584438473, 39.004617400999273,  3.749647113929186
14.111530599702336, 13.747552997230837, 63.675712230100650,  4.186085785020786
 6.871857237149873,  4.872734329009383,  9.931067062369550,  3.809323253131977
 0.477314310902029,  4.018680242760995, 92.302516858743331,  4.063078514299701
 1.381137334318669,  4.849375671438538, 17.832168671570528,  3.840648524428126
12.281887972882471,  9.228491232777085, 45.722632287361805,  3.884480060075433
 2.481775675335379,  2.441433055355801, 34.692539665449196,  3.948240916752013
 7.033972030287238,  4.156069709129349, 47.418294746230160,  4.104439776534854
13.839017098973061,  1.226852019706397, 51.356124941641319,  4.219345707090315
10.019860408555580, 14.786945184922430, 51.108050252763938,  3.960783704458539
14.075200182176934, 14.846551289975942, 14.842503149990897,  4.000910236347944
 2.976902183211897,  2.385100462013301, 81.034591060887763,  3.841836133854764
 0.840366648235477,  0.487524644517853, 69.929957574382527,  3.779045085281306
 9.412387704567088,  4.888225834625054, 21.680657110379173,  3.917211933390899
 4.318282620037245,  9.362624047418375, 61.950636020808858,  4.253423829475561
 9.914262220828736,  6.246600829337366, 76.535891703298560,  4.310959805484520
 8.188619646346845,  2.171607793036076, 44.053843642556437,  4.037999067711088
 0.902309144082258,  7.238696034485032, 55.834940398197688,  4.082315211758187
 8.199160795173912,  9.536688456701308, 31.540652205056009,  3.785720116113017
 9.050905739086129,  0.834748340566559,  2.820219532544923,  4.026962362373552
 6.072795621026279,  7.500401146252132, 40.045637249622992,  3.981728485720609
 7.137544485339602,  4.489630753277257, 14.284772894154418,  4.234506829978001
14.864015795451923, 11.515950797144736, 78.381224517464887,  4.059747603428018
 0.275218492068367,  5.273651656088318, 36.710320384364614,  4.286920664860952
 2.566043827100975, 10.084724532886080, 82.511778099769217,  4.085124306974692
12.951590323517202,  2.637144195656987, 89.292796051778708,  4.275193377528073
 6.542523247825165,  8.938096007063979, 18.940801901347932,  3.753907687987315
10.941926855449548,  4.204860460523023, 46.716645722816963,  3.775627451273448
 2.890937646333586, 14.627883270343434, 41.627528904298686,  3.951213574704623
 2.685069586219488,  6.266799380148993, 33.384098263316005,  4.122498144894261
 2.283169352291861,  4.075793991174139, 84.447756201675077,  3.900106998908410
 7.809858656774717, 10.956205535985907, 74.826552192351983,  3.873049833373137
 6.603864845577509, 13.150356084569422, 85.484898260374052,  4.386173620286456
 7.987058209269343,  7.799219712903398, 69.813549088758037,  3.920777313209167
 4.734882017844308, 14.248464512487505,  9.753635191690352,  3.423680557201967
 2.405340288131245,  2.369141255196525, 38.689076169583167,  3.929904535154973
11.607885971896216, 12.023813399191331, 27.837087083343160,  4.127085623784577
 4.018939774562766, 10.617651594344297, 10.215647390766478,  4.021431520488063
 7.633353556251034,  3.385389409770880,  6.635061311410969,  3.538552425243277
 2.180540818235910,  6.322293550155736, 40.340251440517719,  4.169745088447779
 1.571468138128950, 13.293075318272358, 74.943823121857548,  4.265088214838704
 1.912521511057737,  0.305917436832339,  4.904758187233535,  3.880503596354722
 0.346147769874734,  8.970554507747414, 88.934308948552882,  4.070005502215805
 8.380421357050368,  3.795304508513836, 64.939490164339091,  3.878775684869769
 7.001412924873824, 11.384520311379692, 47.317694735095323,  4.136069396048694
 6.328401002168807, 13.240499770185123, 51.256167661516351,  4.040527112758229
 6.899241204986611,  3.850903977391070, 75.263731280008969,  3.797178291814598
 3.530003990884726, 10.858349241647627, 22.131033659842057,  3.738323090121414
12.416766814692744, 13.414564321780933, 53.994658339568275,  4.027463564611019
 4.789698218662069,  7.075814689998372, 54.397147262863733,  4.168851214843786
 5.989988072699040, 11.057194698428129, 93.641098330572262,  4.108171540399677
12.826784568347977,  6.849567535748728, 22.459981861517527,  4.017850541540965
 2.691921665509129, 11.485808882121903, 86.495177982703083,  4.353251686558775
 5.506190079211031,  0.199877747657732,  6.360993984281249,  3.784178029101914
11.912308648022531, 12.210619432028976, 38.197672337293810,  3.703843439519434
 4.383928046594190,  5.530693958052541, 37.024275022061182,  3.941414170836175
 1.478661722535624, 12.722474354110073, 25.625648812708210,  4.339754869778535
 5.346963617691353,  1.566474701295608, 16.822208051673282,  3.973089492838899
 6.149532226496095,  7.980370201884337, 34.353357041840326,  3.825030306038320
14.877214903612710, 11.733411387747553, 47.165536973299183,  3.882270047920600
 2.994270300138920, 12.609932279171373,  2.151557679781291,  4.143671075797700
 9.299792272203980,  4.298469792799266, 40.618489721415045,  3.849430936449567
 3.404194326474574, 12.696057152786137, 45.562394969363957,  4.103024702774221
 4.441387358089153,  9.898883907292516, 25.623707475819614,  3.721728575596440
11.952268153545146,  6.713162943911803, 87.925941486578481,  4.274963750454199
12.616498545560811,  4.894195258295966, 18.923385630587397,  4.026407421819527
 0.446152542361778,  2.390416717845742, 11.518136325305328,  3.978494134824973
12.445317238579985, 11.412997476613135, 42.044138624649790,  4.206790451658480
13.764943311146514,  9.406687476411411, 81.568125372294787,  3.886085083401431
 4.627121076061258, 13.693056272450903, 19.604232022220792,  3.790973282547812
 0.685745435181526,  0.420691514459279, 78.489326495335476,  3.970111495094033
 2.362157150268131,  7.595262007662419, 92.249370111805533,  4.002609236066683
14.344850805012415,  8.271347693495771, 17.335058960091491,  4.196128539632787
10.082047072185839,  6.218639761844181, 11.825489129260175,  4.069287625411484
12.729737539440316, 13.853456418431865, 76.004031489992357,  3.794128477947059
 5.231901804803332, 14.200169164165438, 23.897395762547006,  4.151224512365849
 0.532585929497220,  9.274173596436807,  8.073163597606611,  4.102363829436968
 2.213803786894069, 13.933413739534434, 12.498069349106544,  4.051465388468649
 5.476298640490204,  3.195467275543889, 41.171217480205996,  4.131575412667547
10.761836764229665,  3.912041479437281, 59.405062206611504,  4.214936975188073
 3.459735526279590, 11.424597021154050, 28.949070541611011,  3.788035800563331
11.701018719200913,  0.530556472334718, 31.129378145049607,  4.113975540249569
11.659864492019571,  2.584468332054600, 12.991503538812431,  4.188842712785522
12.030492845061811,  9.971728435581653, 64.974836394690556,  4.043780418048772
 8.924246602963841, 14.510744067781873, 37.244304293518091,  3.686434654444895
11.014338201005218,  6.300446720052679, 43.475569689881368,  3.919996994105952
 3.602413692603792,  4.463756297220038,  1.055616080856415,  3.997986164580358
 3.209117149349086, 13.153747931453818, 80.240188604946184,  3.649430555160039
 7.105824025510674,  7.322066868033549, 73.633332286780572,  3.880535942876031
 5.261061718009521,  1.419692817119112, 12.590542750168597,  3.663023721863439
10.475003377038322, 13.651141536623451, 68.740318283016833,  4.195622494639737
 4.148486655464108,  7.062369125409353, 15.905680534986404,  4.194128387972176
 3.367672785261265,  4.737131273841580, 12.532156147735765,  3.777626450472015
 7.003800177347658, 13.511828766485257, 29.000365756876374,  4.428944043707057
10.213406401158776, 13.472658620797276, 64.659395297558234,  3.836630454912327
 4.898951148038949,  1.607582502680708, 49.684556211201340,  3.929454677026226
12.231066163135731,  0.538593017292477, 57.435377088287318,  4.089241331964976
 7.739912377494976,  8.712687570082537, 15.356181062657248,  3.760428633213552
13.965471825319081,  4.355778724606260, 48.921007188985314,  3.712532652545979
 9.403650864112624,  4.565851136631401, 90.487426587086418,  4.126719778555359
 2.686273406860668,  4.464177942721613, 47.839667607602898,  4.062338084054922
 3.990613005508154, 10.017917085993515, 73.558518105977527,  4.323948275821658
 4.756166503295518, 11.976798919881828, 77.044450262820320,  3.794629160745755
 2.926167270115429, 14.444649146858733, 62.605750438127885,  3.803061237953189
 0.124619005679653,  7.476113269451187, 84.755545310709238,  4.003352064422151
14.746555458819278,  4.509227578567255, 45.359032432179283,  3.561522736103835
 9.772233207825927,  9.510683061188349, 93.153489042975650,  4.066506735276318
10.642269171890444,  2.215826242857630, 75.045159301685658,  4.381958717235798
13.509024172497284,  3.887309417730391, 85.387139437319561,  3.917246325221794
 6.261130929004174,  0.278482336219719, 81.475276235513462,  3.984787865496374
 9.993788450051014, 11.293797615227936,  5.486636990931075,  3.891984343398138
 7.466751700171090,  0.539635967946700, 71.199348873070790,  3.757852438742916
13.819515017567641, 11.188166316674543, 85.195932344952382,  3.840606733072241
10.293557730651726,  7.129710176139604, 52.010425048803363,  3.679552473271072
 8.478923948720929,  8.326553292993006, 89.388814367230594,  3.891654968279571
10.884960357341198,  6.519972378737545, 15.730565220915397,  3.926568292827649
 3.650685851077514,  7.169994246230627, 70.472781802447855,  4.030311879855405
 9.821168674168797,  7.856634857227969, 59.089670692840713,  3.883425940497671
 2.446355854440918, 14.854662076474757, 58.756933441089750,  3.919860533231672
14.831958766673113,  3.694290668039459, 57.733969502633087,  4.089156107270083
 5.893160091189253,  3.968275011181990, 82.972406102880058,  3.819722604002438
10.484799385309424, 10.120675668987960, 34.932714223882265,  4.210424872105108
 8.428129697874452, 13.214811075386955, 32.986556641400803,  4.057376774245280
10.295113153696494, 13.379492747995048, 72.994943489992906,  3.966480505795204
14.406993593269684,  1.114530198467149, 60.570106673069390,  3.625079020983376
 7.936923801919791,  0.687229167251132, 19.687876475899170,  3.944939613501321
 4.509882781794176,  9.023453854835584, 66.867391341308974,  3.852739104295297
12.207521757817533, 11.226366465105224, 61.313863646931033,  3.700373589014708
 9.422529608266359,  2.670655071677842, 68.575742817836570,  4.009581983431861
 4.270584465570266,  3.845244655825323, 30.320035568009747,  4.013936625637242
 4.539724332398891, 11.001857905402543, 14.380749173749992,  4.288420917041131
 0.141954848366622,  3.271489534208740,  7.714308554351793,  3.802280240857648
 8.090415676426764,  4.350013648668230, 56.286365304233364,  3.867310800481874
 6.981384275145107, 12.001112701052092,  7.900705498170077,  3.932472966983370
10.609948597914594, 12.071515039274988,  9.179355765622846,  3.736373476761405
 6.612221278674299, 13.537298939669304, 43.114110481036796,  4.137715358740950
 8.637795907451141, 14.200667006181826, 92.847969861675054,  4.070848922676167
 6.151018473084121,  2.031109470738352, 26.676455333329535,  3.991373419007050
 2.882093299872233, 10.330384843233276, 18.224823286410455,  4.188794774440101
 9.852098240271882,  0.407685122549150, 40.861948975405070,  3.977427995698092
 8.589010501778356,  1.396253784434876, 10.532361573333445,  3.998427729645019
14.437337666384870, 11.126426866899187, 35.489231449499293,  4.006708511068834
 3.064142377338550,  5.595296088431862, 44.135459185293641,  3.708263609611102
11.735909079675391,  8.406461308270623,  8.927380757553683,  3.904728749803628
 0.040416076341100,  4.857015573771434, 26.581304439199457,  3.915663001112836
11.533411370386300,  1.630836245227467, 20.969082639083620,  3.870088603856885
 1.488329602705756,  1.124711883720758,  0.957319967571617,  3.891299260251055
 2.037181672466086, 14.763896422116499, 66.342084940884703,  3.840492644087653
 4.916392697014524, 12.796004847299717, 67.843483671805402,  3.715227512965231
 7.033907318312363,  7.425960695324868, 64.353311818042997,  3.948938068831850
 8.494457060255753, 11.780250401729814, 39.945493126873302,  4.013651470122767
11.932524702987193,  7.102426182710223, 26.236351770407829,  3.758257853303262
14.271225159219302, 12.408338873444890, 18.118274108079696,  4.172897945451586
14.431217614034454, 10.523822436170926,  0.133332135706420,  4.182007100680656
11.145791451007531, 10.321371605586473, 77.007784888425377,  4.197517781354361
 8.112309432247942,  9.499027184547328, 27.410470932632219,  4.472930284191200
12.115441262043724, 14.279327707306686, 79.812785091740906,  3.963995162640898
 8.034919258744505,  2.348014602605365, 30.413601012678662,  4.040028597124426
12.177297581166938,  2.472655389259825, 43.414924194774613,  4.057084635691824
13.579137717364842, 12.633992151659500,  6.679857669657205,  4.103396204003730
11.495091541723992,  2.432856656034963, 37.644062672552074,  4.155442594531014
 9.430764971088969,  0.006001304427891,  6.822402607776372,  4.096437094457102
 4.414663942305948,  4.232751620523204, 90.871649696295464,  4.247553020755337
10.979840986371894, 10.831806883991916, 56.815376814702091,  3.868780359701213
 8.170220158672896,  0.266550242488414, 47.613470072369253,  4.007509273232870
 7.370114191011677, 11.656390194037360, 70.737407015850962,  4.101789081847357
 7.449366719354240, 10.527340188021066, 57.923146286626434,  3.555453807319975
 3.347166438852550,  2.927294618725941, 61.004477570605360,  3.936310255041522
 6.915462159781944,  5.170318526662284,  3.132540737024796,  3.927865275231736
14.036389510266225, 12.273683266508023, 71.596423226193508,  4.195209392867910
11.056933336665086, 11.821308125756048, 48.545030362021699,  4.123833846931842
13.743632804766373,  8.482058016070917, 59.040373879781683,  4.025831116801621
 0.647607168625632,  2.493375082816939, 63.892386124630278,  3.974810206836489
14.576033589091642,  5.366282160653787, 14.256712302667534,  4.222952644570494
13.820491323827104,  0.429683888293946, 40.342386879823223,  4.016697014723400
11.129008995780437, 14.962366544332980, 17.459888293929065,  3.837650057848337
 6.809232296891315,  1.205238332352443, 58.362893700757020,  4.084878017009920
10.006188594775562,  2.058817265342059, 82.291954815843653,  4.436705320373916
 2.487064510181622, 11.632724793019879, 91.335785051725495,  4.268349192353060
13.290429093758842,  8.263618097162871, 49.634925900402870,  4.287393105602244
12.666827996855499,  2.297457668838234,  1.500195400653278,  4.160555617250514
 4.505216079395053, 14.558040964394843, 55.311638881675570,  4.128902182038603
 7.352802084483397,  0.180719214718442, 66.446029660771927,  3.676498394064781
 1.998781578855096, 11.172058028879215, 64.812909810627787,  3.903072994901282
12.785221035992400, 14.469423051857422, 24.211619115728812,  4.311644910053690
12.481627448188592,  5.587372835442677, 81.839617329064907,  4.141191373102719
10.588533905146141,  6.479343042946992, 62.709158230172015,  3.991383989510073
 6.286843417163192,  4.927613724690595, 19.030781054395277,  4.276803957652723
 3.510206883368653,  6.740704570730522,  9.180912750004556,  4.009862351793867
 4.132410074409822,  1.796188724416989, 44.907827960783905,  4.274880205456843
10.136635962218156,  0.838387814368260, 27.220395709993532,  4.171469456469220
 0.168015283704368,  6.249193071209678, 30.243668773365137,  3.921156883360364
13.392187072874959,  5.336941471216813, 65.116730287434081,  3.709470089146722
14.388718869309299, 11.918309921417420, 50.967521357180409,  3.775682570773294
 3.315410306107013,  2.288631953234118, 20.160408345077620,  3.972828750155983
 0.046078102556588,  9.757537657161450, 21.029505992421015,  3.859160183947052
 3.300494235526461, 13.412873229342949, 36.491957575762839,  3.847364420336172
 5.740846115720003,  7.723501395665590, 12.267762617099340,  3.853479024799565
 6.528981457517487,  5.527784970491188, 87.480134195808603,  3.911260004157111
 5.547069270799293, 12.861180231137396, 60.176338333912099,  3.960107081122212
 7.028436590114156,  4.681881156825276, 61.222337408617314,  4.205030234916870
 8.267621365067448, 10.587079231830197, 66.775957210166041,  4.265647741730978
 4.843561891361071,  7.891569040137954, 30.216866592169616,  4.142948840349404
 6.977603339383967,  6.079289021377281, 43.756792773084136,  4.163458604668818
10.808031483432011,  8.873039151447347, 73.060318082059709,  4.226365582036529
 0.448437228850514, 10.109590250310585,  4.112788039232350,  3.991163159113805
 3.911870486715212, 13.665733271649895, 71.504060798632352,  4.041205341845505
 8.259931088674906,  5.467945921552849, 25.649358058499665,  4.314743582791245
 9.799478747213831,  3.674050921114101, 50.399238985268774,  3.987343055677138
14.062636647696696, 13.637497650406754,  2.777980931379003,  4.002838871252002
 6.744879592954731, 11.414757137356341, 36.293505988017991,  4.117822661189025
 3.826262938114072, 14.473066377723407, 88.916331150915354,  3.653904275258170
 1.124192961552188,  9.899518226763076, 31.897119258736485,  4.317074145730900
 9.179072457939073,  1.949166359147148, 34.268643273208681,  4.018849138778326
 4.879000605579756,  5.006194534819429, 78.553667840212114,  4.181051175596528
 0.985826150340207,  7.969173676482717, 46.445892843449876,  4.105050537643895
13.068306448404764,  8.731782658838839, 12.599379659534911,  3.851261575909589
 4.647292119971052,  9.442200300106204, 43.418509195020086,  4.032592648452834
 1.214251399923017,  4.069812919949706, 71.503444531283165,  4.056653351130346
 1.341333042623823, 11.230390487015404, 42.499331668420062,  3.680334418697144
11.409155831758543,  8.386228355536934, 84.361117765837108,  3.656002816922201
 7.209939290856934,  2.925951537849607, 93.643513575425899,  4.043037625814165
14.602579957267771,  1.435619271154124, 18.460847069522895,  3.978296994733184
 4.540918030418606,  1.647157767469283, 68.827256251548363,  4.087634182389841
 2.691211188539539,  3.419814594524030, 52.778605499579207,  4.450049897404270
 8.628024470388613, 13.831299129095566, 55.473995052236546,  4.141020046528291
 6.773018022221316, 12.665324133554430,  3.672205494319195,  3.987808509143858
11.563106836931532,  2.042235462041724, 63.122765814275162,  4.233698362275041
14.656011320084925,  1.759045859690969, 74.325046748959068,  3.803490613953618
 6.762077627031960,  8.676898155317771, 77.962243934548596,  4.129103431947080
 3.596935042862226, 10.002128809635936, 57.679892965744848,  4.230914291559529
 4.524997932930327,  8.629573324822410, 89.006128600867058,  4.062887226867729
14.899953127298627, 12.055706625195587, 57.077823884260177,  4.343031146871168
14.057019185769022,  5.053986253984262, 61.397285264797006,  3.811457230023530
 4.120037884138360,  3.659757999775644,  5.423033770327113,  3.895192617673450
 5.043253762229321,  7.749527359110046, 47.127571401220735,  4.129986851652238
 3.086618512739369, 11.171240663585158, 49.288737688902174,  3.923047719994976
14.928416167672847,  8.417218999817408, 62.868833409810819,  3.683180601350381
 0.609478006286145,  2.393514295911029, 31.050504943564441,  3.980157637690274
 1.244711748926111,  5.020423930624832, 88.225873025247168,  4.154534431596554
 7.188410793054799, 14.855310568936911, 74.995490058120609,  3.982333128236539
13.244416430828284,  5.006290151273325, 40.380181857804381,  4.129132158567757
 9.523237195526246, 11.001073729380593, 52.444915366093682,  4.103015488867956
 9.104170796572935,  5.460097111647898, 84.427318259833214,  3.782511571940309
 3.130158265301495,  0.341218801269778, 28.699522582793822,  4.025888176541742
 5.001468586295728,  0.360412893219517, 32.333556257194232,  4.111069468487637
11.068298300100867, 13.502499063539549, 12.676811658778393,  3.872849014673908
 5.963591026665843,  4.154551866890167, 71.569022070697216,  3.845527903882535
 0.212756188161327, 11.193134481320548, 14.494711779074160,  3.679481717303357
 0.436222522571756,  3.687060114617415,  3.988988705501293,  3.710544840534202
 7.574173998769727,  0.637527966204338, 62.455356918900115,  4.304351597666151
14.964130342503500,  3.482179171932913, 21.938636953417468,  4.015567080463473
 1.267674677380766, 14.750002154355485,  8.700179912619834,  3.807996017760604
10.191516191038504,  6.817556255181842, 66.685659873291243,  3.977348085446959
 2.770237448206304,  5.910591659352058, 63.651393717475521,  4.036675812486088
12.947987414655881,  3.314493292301119, 33.889389959917210,  4.026694014420428
 2.032744284453835, 10.618257443508261, 53.709797043921448,  4.150956427930184
 3.736695747434662,  8.454072286818326,  2.202694282884046,  4.293990083961513
 3.240084509529303, 11.895746737557038,  6.441553242617518,  4.090509989854567
11.011586960618565,  4.143204079488956,  8.376716303709522,  4.186982000884564
14.468181092944684,  7.962805779516039, 42.776360640712596,  3.849619110712093
14.167050357242767, 12.375439943953888, 67.521539184583247,  3.939675474649798
 9.593470757590424,  2.572546329785351, 86.940979835106120,  3.890871473229009
 1.317967476020865,  0.493667261669240, 47.935232391576413,  4.321255372103777
14.770667805713895, 14.403554164142735, 44.165895237612943,  4.136140572535913
12.009394389474503,  6.193592388918216, 56.184941051880180,  4.039128193541965
13.706313353834982,  7.232454837573051, 78.065871220326017,  4.100652735750984
 9.751908944669784,  9.231945945215195, 80.836006249180258,  4.236514071290996
 9.479901128767542,  8.932852518933966, 23.404346614842527,  4.053103569389934
 1.129298798370662,  0.381633327259718, 91.169890973463509,  3.597515126371660
 0.049138592274008,  6.630599626800059,  1.506637959293972,  4.020763563139034
 6.007705972403345,  4.153529377417065, 33.784946318322305,  3.758081829474005
11.417402232029220,  6.453219739740091, 36.993623247579457,  3.823172133933496
14.159659213370929, 12.010901530804993, 10.701081951020392,  3.940679158814020
10.987879911640508, 12.596198086222257, 20.779486064019132,  4.287953162124535
 3.081118779459727, 14.611265386172898, 83.770327009126149,  3.967851008560091
 8.525160981783472,  1.519695508616753, 23.521762111533413,  3.959466408574072
 4.056856674640367,  5.773953606171842, 26.647825995342259,  4.281576997021546
 1.128193034943079,  4.140844114890898, 77.072442896974238,  4.025111521138895
 4.048834427862774,  7.545882587818954, 85.209244990864775,  3.883637436485671
15.000587593561898, 13.020290432145092, 82.043791178345813,  3.715406222619107
13.341557851271448,  7.355002691102476, 33.674858379423974,  4.047503877139606
14.520074063096933, 12.929599911620741, 88.767949947981691,  3.995215455971987
13.058501046680199,  7.252762532470714, 91.915350601716852,  4.047819547892331
 3.887570082090592,  3.833798801826953, 56.939631719590039,  4.208214223418962
 1.579828218627600,  6.263575075908241, 81.002321972878391,  4.364061946756308
 6.293254082353247, 11.343557651509363, 81.751287929640768,  3.924937544908087
12.791647257457756, 14.120834676372025, 92.710928888761060,  4.138353691105803
 4.595225894931877,  0.773095017969961, 77.865687431406712,  3.963520170826823
 1.173971063914816, 13.955731410124590, 33.127203375746809,  4.159603395181584
 7.259423591936095, 13.022649823673222, 12.092291056021264,  3.865587540193139
 9.814683689195617, 12.882159111888297, 82.774458522669022,  4.021900598607326
