BANDS
8 8
NANOPARTICLES
cell(1), 15.028
cell(2), 15.028
cell(3), 93.928
12.803168352961164, 14.923160744244633,  3.114411363151740,  4.231934442371285
13.398203971391306,  2.999015629125351, 84.321061896606736,  4.032623051722383
 6.182994396436705, 10.130539547312083, 53.872647113635644,  4.066406588055377
 0.809383640359993,  4.183296142490136, 78.998506493822518,  4.227600825769601
 3.752561068055305,  2.777338059837976,  7.528687044488692,  3.886524233718151
13.088908173207612, 12.026116995899095,  9.474022670874461,  4.113472904535902
 2.765394993376413,  3.370827846376239, 25.317533163758505,  3.558446488426873
14.744791292851085, 12.844366001545945,  5.974954459493315,  3.795498882664371
 6.526139837131843, 13.659229997218507, 81.882536751980837,  4.299078412721021
 6.496875507674085,  9.870455734504086, 87.057426000472461,  3.837546732092087
 0.925085104133903, 13.663866949408847, 20.097545789569047,  4.302242125028620
 9.411632909642407,  6.259416660093093, 24.663893033375889,  3.797012353140599
10.305495393406451,  2.347921755814151, 24.237966104147599,  4.262286057583443
12.480872969095973, 11.027168146746460, 20.966749167060435,  4.153722441310164
11.121687822488873,  8.117303884144272, 84.509759437316234,  3.764536121847733
 7.209877507213515,  5.572109314332709, 87.793259056303157,  4.016208732012684
11.294586237656514, 12.134942703885223, 13.744073979870205,  3.861376095377635
 4.234381395616015, 13.196830297457472, 34.049907825011644,  3.851094493996213
 7.900317094346421,  8.724107522032677, 27.325759792987977,  4.002870732503658
 2.757441649777983,  5.917700533171671,  4.817281900057513,  3.971365526259291
 2.105548401064312,  0.508230536100551, 77.304224343200318,  4.185062858113646
 9.987452817842998,  7.049413916356546, 67.291098384683949,  3.925964335539489
 3.507722883141369,  8.657832146165035, 26.161156789030688,  4.028176285703235
10.688858729247428,  0.117252368230314, 66.430976510454343,  4.237268105708659
12.208617684398481, 14.580295362945323, 86.697052932701993,  4.159867594856122
 0.706300786402285,  4.388162366167139, 35.249112618289864,  3.726792674819376
 2.711245513306858,  5.963739296412742, 49.499338916932182,  3.726475919184984
13.070917803290499,  9.920944035454825, 46.168267358114456,  4.090709117313772
 0.337534581515607,  3.111397583187384, 14.344506206543192,  4.273134130930821
10.477021694289093, 12.912389089389793, 80.802299701101816,  4.021558284821942
 6.609952481109475,  3.546311841715636, 40.188638263085195,  4.074809178920962
 0.247892057286744,  0.908857895072392,  8.530242950547800,  4.288791010711321
 1.000467747616050,  9.227733657686882,  7.278191680679944,  4.273434846308263
 6.307565480238471,  1.893342232634533, 24.315788578632127,  3.760500253176243
13.390567443285672, 10.266297593916924, 65.303726159953172,  3.612564742994517
10.012434534973677,  0.109578719258227, 77.475546649725175,  3.977721547219619
11.422501539709943,  3.884557764352127, 14.503208807201171,  3.756748105805578
13.345457384383721, 14.085674707402884, 46.032180714892874,  3.804722468892594
 7.171785605906110, 14.368160089765571, 39.965939311091532,  4.144598055106527
11.987928595586560,  7.471345810978236, 27.271911181270561,  3.893174632812203
 8.247195788762948,  3.068321312039452, 79.735516796622690,  4.236195740658562
 1.767307388961442,  0.024810302117446, 44.788630299078847,  3.712498974590051
 0.038610906068328,  5.988108324986690, 25.283918406017747,  3.992297769933630
14.568678944212103,  1.390683680299469, 41.873850191975841,  3.953314394335993
 4.389050873030502,  3.588794869187547, 70.702844266884028,  4.075024790192940
12.057014586221294,  6.456489402018604, 52.760156720788387,  4.105946818445305
12.188205886331708,  1.249432812859130, 49.052323983336628,  3.903147780144423
 3.508361696834760,  9.407323286915437, 43.581747466343707,  4.015163901105161
 7.116511581271619,  7.409208965455434, 43.123745199032747,  4.263610755159156
 0.156300693287585,  4.768788137214302, 63.854330639848463,  3.773301678272523
10.746909256453362,  4.405509669427366, 20.236837038918573,  3.900820180049452
13.188722879220943, 14.618035239014985, 33.437212014922274,  3.791356129183963
 1.388261992603278, 12.249434059661629, 26.884026340108363,  4.034658332251805
12.178540345149429,  3.370527003469541, 34.093334079236783,  4.014391605604002
 7.246733228165385, 11.985169458485380, 93.224871513449116,  4.248593342246416
 7.257996195274940, 11.544889070777067, 20.508481962517731,  3.866631768317706
14.279052198773975, 12.200243136372750, 49.515622641620659,  4.331059158592325
 4.270162628620469,  2.810766786190726, 58.873931181691098,  3.909403122551351
 6.619054336968142,  8.019050568549700, 15.859684539543828,  3.789923871736844
 9.567070267747606,  4.950361464807137, 83.067856481413571,  3.844564066762537
 3.380970051333232,  7.164651359187480, 77.707864541511995,  4.050141967917440
12.433590209447365,  6.149427837693693, 47.680106723581332,  4.040473279142084
 7.348941955106753, 12.925529748514204, 65.229233031148937,  4.101665017673806
14.666946454467046, 15.008814822177436, 65.439039751349725,  3.589069974009207
 8.968283953968809,  2.132857607684716, 17.233459539050212,  4.185079103531376
13.836827815946354, 14.636283936985020, 55.667779661591119,  4.036222419372116
 9.645369573886855,  6.069724829135222, 16.975641001935653,  3.732036716287499
 4.987017130086456,  3.671658903248133, 77.574623102346038,  3.613057940771435
 6.676579336800922, 14.644709417959945, 31.194542892282357,  4.179544047248820
 2.508509826028106,  0.691974870369736, 11.893955156476794,  3.816765249658751
 4.573276514419443, 13.139116218747965, 17.801399547069344,  4.337917986752506
 7.940078480607928,  2.066424664322898, 71.692824787841531,  3.881443984411107
 3.662471154186695,  5.713426894358680, 14.491381406691577,  4.165652580827889
 0.396464384947443,  9.769685925304699, 23.740788361789924,  4.148133654859708
12.586981682643287,  5.845812288969336, 69.922674270160257,  3.842928698221478
 0.875099310322741,  4.124647018266918, 46.637210507793121,  4.003072872946149
 2.812169462065642,  9.944662148536269, 32.123597375546623,  4.221665650401882
 8.186699998352752,  1.307436329277153, 27.710672828225345,  4.059113532574037
15.012529411895866, 13.470375807231330, 38.897426161884972,  4.360102862148501
12.953917062196060,  8.755628007219160, 74.068267028557145,  4.168273651898017
 7.325590502519546,  4.673656653373338,  7.047361495751024,  4.253167650443477
10.389808823830524,  2.625223723373927, 53.964679430172474,  4.411507913958858
 5.186434958129736,  5.872148507476470, 81.122150287066333,  4.046977400378925
 3.679839887403230,  6.379732392854319, 90.129760850533756,  4.462456343801495
 5.034519976962523,  8.297668059553239, 19.498759551362550,  4.165278540537512
 9.394544941530539, 11.865649645993697, 84.799908513170536,  4.485829517593006
 9.820160339016541, 13.616510173069694, 22.639646568882558,  3.964915517610301
13.127479793973825,  5.725576848086334, 30.847196063401952,  4.202896215449415
 4.599802212621010,  9.110251708402018,  5.701584006197982,  3.588792428590293
 2.322236715726691, 13.498842737396872, 88.276526375126693,  3.895409865464638
12.923539085304631,  7.772503750019519, 18.397711785276709,  4.173409814277706
 4.020973851172753,  5.102616827362432, 37.027657444315885,  3.925333904427270
14.993053571191517,  7.847726689036185, 84.852818590163707,  4.024777696567407
 5.773680611137905,  9.637005748848548, 75.558843912762100,  4.039444356817992
 8.205363584737583,  0.742284343279663,  6.944079433605774,  3.792569263252491
10.104951982539081,  6.777053836996967, 33.634796136391735,  4.013534919882165
13.568336912512182, 14.318039501942028, 82.888181967180770,  3.925126244490257
 1.225683812045034,  6.261807281895109,  1.076976523498582,  4.063411275035820
 6.232212574094398,  5.363996850717387, 61.074338471960871,  3.847730993559574
11.095622482071450,  1.558043404399939, 58.212701116955749,  4.378602103680030
 4.120025065342667,  9.076846713657876, 93.815152445593938,  4.354905565349899
 9.716203335802046, 11.004495992862566, 39.298428994876893,  3.987641821736108
 7.416630769712365,  6.703649121039729, 77.832942675698902,  4.063435866210927
 8.773592785998876, 13.172985088547572, 10.706883846773644,  3.855610504925532
 7.843442259678734,  4.924061306982072, 36.372855424145413,  3.679170731597575
 2.967860484905682,  3.118509343291551, 66.949676456632758,  3.742530086618576
 3.980063090039254, 13.060444826324604, 37.908571418613064,  3.871545041480549
10.803126098897932, 10.559537346833558, 34.310072899012944,  3.786792641599834
12.432366780587305,  2.927322472249450,  6.055822167985938,  4.242242889184021
 0.824334241389725,  0.606330739320656, 48.277687764543629,  3.602460718102871
 2.183310624712708, 12.970686713079289, 81.306710881322516,  4.420696691846982
12.349261358924183,  7.220605952321719,  0.233365237933758,  4.115909289147232
 4.376742800105871,  6.521229948507145, 53.019471692294374,  4.132741220434737
 7.264057439027520,  8.365579240578569, 90.406204258669334,  3.632523510849089
12.289009125415685,  2.871811820067263, 44.987752852697078,  4.312722282339823
11.087519486435744,  6.668254447353145, 43.869346798577453,  3.943765468210596
 5.500568700397295, 14.967995244717700,  9.561284570187958,  3.902565607324474
 2.871291079325404, 12.571780071933505, 53.929633870774111,  4.119974655232344
10.357244331041906,  9.076916881086174, 30.414740726702881,  3.880426146331032
 6.574165618111383,  8.824330499205880, 23.414185333818626,  4.209732553611616
 1.262320499173860,  2.059359601454346,  4.337850134732523,  4.316134638951755
 2.680401513071795,  2.713995033680384, 91.394398776934565,  3.491821163599160
14.437195280437571,  2.065034979503938, 24.166467782029766,  3.989657952093781
 2.689166219598952,  1.285112546378154, 55.560022075253904,  4.041881363376225
10.739739103239614, 14.306121707865836, 93.101918327643716,  4.119969525175287
12.875595854106468, 10.644864253779698, 86.757412919681784,  3.804434179107922
 1.210509175652787,  9.608462520982490, 19.714621095365906,  3.845276938786879
12.221197821000594, 13.168127750730321, 63.270488925349646,  3.806917408126784
 1.976578158112466,  2.249729511750187, 18.130511130365004,  4.150874811391118
 8.253444746821330,  8.599781362903970,  6.406931349149377,  3.815214346606841
 0.262374811785633,  5.170299999683396,  7.722651881783341,  3.745586252367713
13.679751010399055, 14.941139141040130, 12.273088157444739,  4.053572018208780
13.319260485501145, 10.386292045332095, 82.182135467848056,  4.052277538936057
12.649488558800698,  0.498358912254302, 16.196710343713676,  4.124831758030744
12.309918027820817,  2.235707271914719, 80.477350350575591,  4.087404659873196
 9.560501464357277,  1.815248465282163, 37.801350027075870,  3.961349768851619
 5.931599068138877,  3.266378259755870, 84.432585089866222,  4.501516980131901
 7.811930679018307,  4.030537161904575, 57.791940227043959,  3.875219009040962
 0.455987604596276,  8.651557410976679, 28.884049924135613,  4.141604995972410
 5.381320603387036, 13.616366124922589, 61.696203410506961,  4.085656755348134
14.458658526580631,  4.132503107803597, 50.464067755961750,  3.935553090225552
 0.124212048347314, 11.213923882867673, 13.154671170142965,  4.111556591005223
14.786045243764352, 12.429599246684553, 75.497517381170212,  3.987640734033267
 9.920489568798322,  3.772677048997361, 64.808992197059126,  3.834112816945523
 6.190021694790574,  4.266917442847023, 49.875589612058079,  4.031800957093946
13.697986938411475,  8.004042631610437, 10.749519165152819,  4.411580926499762
 3.028880230304867,  8.729500697812176, 11.882637820360035,  3.907176626367415
 5.115479198130632, 11.451920839790878, 28.841844019104851,  4.343470984985861
 0.878057068965481,  6.317953401557304, 72.109390572685029,  3.776855452524297
 6.659520497354206, 10.232873045899954,  2.847521610278268,  3.752313675824273
 8.315340677431458,  3.306018490798379, 75.524360918523016,  4.196575359760917
13.202309516540815,  3.300960315671502, 66.825870832344748,  3.901109424882845
 8.604334739501120,  1.648880773759340, 87.477552607529276,  4.223197549189476
 9.659713508250254, 10.211909104654840, 63.373935319883387,  3.926793405428186
 4.968887506582043, 14.543510652420142, 71.225616827565446,  4.004249184745849
 2.552130479180491, 11.444275175418774, 71.142237182380157,  3.734602227941430
 8.442028918634428,  6.164672318266238, 47.062458497454827,  4.026141251854815
 8.450235422178611,  3.613709586258079, 43.764131757143304,  3.868115657932619
 3.487740981757881,  9.995141581919990, 50.524801510312123,  4.507104535070728
 0.229938785243858,  0.837063015589904, 27.831916372571701,  3.644795038814387
 7.314354914331775,  6.730912153905673, 10.786061601089049,  3.933399155042150
12.137564134658382, 10.042830395934656, 57.146184139850085,  3.841727989766110
 4.285843912424292,  1.903089969841454, 47.151040249686147,  4.121616721855043
 1.764288261883811,  4.762274315638871, 82.988393401301536,  4.032449009809444
 8.193058196649439,  7.616225499521609,  0.231503485179802,  4.232383688511870
13.923521763060517,  7.081003211553100,  4.388072068560512,  4.055052395804446
 3.577416053637140,  2.612595655037084, 21.775820523111772,  3.822431317715630
12.519636702981812,  0.919106649989411, 20.839647165266552,  4.005301491832764
13.696494520125789, 13.680562199643092, 59.507033637525609,  3.830315303681022
 6.168458793796627,  2.967892539426669, 54.333990102152804,  4.051449950310097
 0.189869927747647,  2.615387622927041, 58.506606656792393,  4.121699014769077
 7.573922595578965,  4.473580567720370, 14.076143349476666,  4.063117993107084
10.310424970611562, 10.128608631447763, 53.551597705798173,  4.169576017643716
 3.881221886265062, 14.269920973751269, 50.332229138389238,  3.993552324530528
 1.714765800749650,  8.635704953725213, 46.995161927320233,  3.845894673689862
14.842678603343117,  7.246492758789955, 14.774410790339815,  4.088367811264967
 6.410548480594927,  5.402856980614724, 67.679432566184857,  3.986216328670270
 1.389755845145289,  3.767180731455317, 74.965393026329565,  3.947322557797902
 5.944029981407870,  5.293869503441075, 26.292593432417341,  4.100875930591017
 9.826444520806650,  8.778943110373799, 80.559074417983609,  4.286762264033182
 9.925598416212718,  9.538718338676944,  9.803763831043446,  3.944345521445127
 1.779698495351033,  9.553050901071252,  3.252619664827886,  3.862261058572145
 7.372380936883218,  8.111178394402161, 83.743083187662023,  3.852902325952628
 0.835186672113943,  6.600008817039879, 67.460457791275800,  4.423781182004177
 0.272604011119836,  4.944648713296106, 40.199567985026611,  4.028226673299368
 5.416691534473306,  9.526884923695045, 46.915372099837683,  3.665856941121902
 4.872364534661038,  1.474488476086433, 15.139423970271755,  4.248024564947856
 8.862447268493721,  3.099640952794152, 10.520293905163562,  3.968866433560044
 0.114533734059797,  7.730310414937201, 57.699784688828537,  3.808124895097109
14.624743691085728,  0.838793226964318, 93.306936262248797,  4.221231205838272
 9.217522561213244,  8.106034924849933, 20.279275866026911,  4.041100429421339
 3.709170159205450, 11.387615085148088, 22.094206781439745,  3.908992398694027
 8.065652559428813, 11.859885417647972, 77.702718402003086,  3.650058037849409
 1.672530655454096,  4.689994917365953, 28.755202320092199,  4.104749342602334
 7.880226500353618,  6.908364620126334, 64.105935211920880,  3.703588135860951
10.472743920733695, 12.942109199015771, 48.188818864630612,  3.722228588028186
 4.797444931064902, 12.181353925718442, 68.139666044581489,  3.774277647129851
11.258400813008059,  2.154190546951743, 90.450129458708034,  3.767119163773863
14.791767690588868,  0.492626051174480, 51.906985738401517,  3.916643043204127
13.096095450864210,  6.210598819363114, 81.536136892461911,  4.251595311456988
 1.856376714075931,  8.550293437798899, 81.272386178923853,  4.168693363111165
10.259744302454726,  5.947167331178283, 90.665002069330384,  4.077454792321471
 2.370452733979659,  9.814816016196081, 60.280550853884236,  4.072324485033403
 6.372318123365885, 12.940985570290387, 24.677962982786525,  4.125903384295361
12.497941813538025,  7.200983025272890, 22.453833314598512,  4.024343259801067
 5.823581531093563,  9.955059811716422, 39.596485387228995,  4.051311980004594
 4.749324520258112,  1.946197859818557, 74.286567767339292,  3.808945990237063
 0.594229789556266, 11.707342821271643, 35.126089338628077,  4.001719832430026
 7.935317618781702,  8.798729409666432, 36.349953793919404,  4.021124075930266
 5.343158234003122, 13.724091530549250,  2.894753098150731,  3.708358696533524
 3.836246408104386,  9.558810007457444, 36.105382613537671,  4.004232339836260
 5.885116323944882,  1.413586922030783, 36.511450414313416,  3.858284183268655
 5.471363474779181,  2.618457918442082,  3.844671302828728,  4.172949497382855
13.864056167327011, 13.901099586442960, 79.023814276886839,  3.870658842826443
 7.064320393387840, 12.338980473074267,  5.926682403753578,  3.718363647709826
 9.117544173913480, 13.246628250107825,  2.704520481292072,  3.906443881777069
 9.476896729447171,  0.495073061623171, 34.004833900971569,  3.876432532560123
10.072994339144680,  4.266360989751297, 50.157358193023889,  3.750728480066882
 3.951538700465584,  7.041126984357381, 85.675750811874707,  4.253006903343008
 5.542099448121067,  7.218878138018409, 57.661470041331228,  3.930419934056476
 5.854082325427093, 10.393189835603900,  9.302734122074796,  4.421634577035923
 9.439417340964628, 10.566864111479202, 74.496977630136016,  3.784075374950620
 4.467659177892369, 10.633458388231407, 83.895005664046550,  3.819230383199949
 2.254530952962615,  1.812394184350960, 62.228797236135740,  4.160282024500366
 2.555008398683851,  5.150071784661997, 56.288812736880061,  3.828475058239719
 0.818331464348402,  8.375737832067134, 63.471630428037969,  3.583954402627229
13.466353172539684, 13.267576740147625, 24.181916997563839,  3.895960701876857
 8.905056600040165,  6.736527016938555, 39.538339452010568,  3.790577042564930
 9.128814497950790,  5.187620494004133, 29.272424898062468,  4.429022604388641
 4.414432220545368,  6.146000510869849, 73.948964381277335,  4.001902795654134
 2.128981192971831, 12.394408995609195,  9.763886238423945,  4.077253646607453
14.384073537778507,  9.412130966182101, 70.276414139710582,  4.011623167888677
10.286090619502890,  7.926204956547120, 60.060308690804277,  4.214163864293861
 6.083940713057714,  0.054678941301214, 78.046811279394419,  3.912441819089255
 2.961580744770120,  9.523078115855606, 16.117220640856409,  4.131170554409739
 0.720799931966625,  0.363589434944236, 72.729379382528890,  4.298987503802328
14.869712547211432,  1.423087505222976, 89.180481244810906,  4.022367942020675
12.430385239981948,  0.986612009782701, 70.061273911329025,  3.926149156603704
 4.134037934233950,  0.304261729764125, 27.293635675391716,  4.228662631945222
 0.959439755067897, 11.914246611634637, 85.037915113633460,  3.691413697496623
13.587842022884825,  2.234287676297105, 37.714497163158555,  4.079124898160912
10.620240736224636,  7.477253009782641, 13.532613811783838,  3.856978224947742
 2.060294059236994,  0.849445744619847, 84.768930340484758,  4.550430126380158
11.062746179363506,  9.406992527597998, 49.617627023070320,  3.935509801215030
13.519180883503042, 12.741255233239082, 68.221836778943384,  3.882690823568367
11.262980218646833, 14.546944623127548, 40.604864825591605,  4.045524855063809
 7.324748015784473,  0.909159960440679,  0.496670745075304,  3.866637462494613
 5.678763991818703,  9.852529922547921, 80.104268496441890,  4.221335843945790
13.394645742383956,  4.000380634997994, 17.622384491614500,  3.578084275037732
11.311667633571286,  0.490906874595399,  9.059832697494761,  3.736749523562176
 2.633332241410141, 12.333919346591728, 47.201689295758172,  3.755784012298932
11.754708846056547, 10.905178134526897, 77.589526542211573,  3.969752269314230
 2.149927800858795, 12.686665140250172, 92.793426793671870,  3.984881295472619
12.432620143037763, 12.499382217550499, 72.137882773604275,  4.176353681861547
 2.962897932252654,  2.864556546534949, 51.855091829043893,  4.028976534140612
 1.968378200648378,  9.281547331553961, 74.350397243231058,  3.954312028252900
10.220927810913807, 10.945452954320189, 67.185795363679503,  3.880113336749875
 3.947297253639188,  6.123175707581253, 64.393783095468834,  4.333140744545924
 1.500264090630310, 10.634110855640731, 67.274788841408068,  3.704585579992780
 0.048671994355895,  4.476634345433330, 21.001344610113190,  4.009916843106934
 5.874374126648461,  0.642324199978747, 43.635815016714261,  3.957338016158536
 2.066243606042205,  6.100949377343706, 32.298195616949386,  3.558856691045276
 0.398328740253451,  2.415008326149176, 31.896471671144081,  4.043954587997120
10.281695207552637,  9.111138795900430, 70.823850008071290,  4.266686459576983
 6.511078186725922,  9.701990258937515, 60.806416489752642,  4.253185353015276
 5.091916652032485, 14.832787589860665, 91.257582806985795,  3.889964956186168
 7.085999269591698, 10.593845940494782, 32.628428048580474,  4.362490160188834
11.173056983762297,  1.705494608235004, 30.553465161648944,  4.020365133580936
 9.819121563479982,  3.446796854641547, 68.649273672714870,  3.776127780199554
13.843208227178589, 12.492840326158634, 90.276040086459062,  4.366901039699443
 2.788696949782607,  1.780308438117815, 39.154470069040883,  4.311942913772968
 1.833296609577538,  9.936666077844432, 40.023754292921581,  3.916388089575167
13.293682178250783,  3.819784445069752,  2.144373135098118,  3.894290739877101
 0.424939444075436,  8.672295708362190, 91.806279716009627,  4.089942778972187
10.135256980512338, 13.505691365628198, 18.666308998275451,  3.996730792783672
 0.655809526079747,  7.253447134949687, 53.849039095498490,  3.622202359055764
10.581491149210573, 10.128069464162806, 24.581972416214931,  4.160255850550224
 9.883429210248179, 12.256989274159000, 59.790483385534927,  4.328972754244703
10.874858477493952, 10.450766286302304, 42.951017336820151,  3.742142652186369
 2.415181372714460,  5.781590229364984, 60.583973383134676,  3.874402895238061
 7.817714086400009,  0.842975504471267, 51.171585507052676,  3.947492999004627
 7.599360519983867,  6.009880139784676, 71.487945591269408,  4.039922363664565
 4.469979510692356, 12.380572825570033, 13.309934071199354,  4.419418423650567
 8.918947657675938, 12.476453356801642, 27.676369960426413,  3.786504690067316
14.727117936318589,  8.170358867396011, 50.308892850303458,  3.909459218928672
12.096302143778102,  6.074082589368111, 37.215823719674930,  4.197847226250126
 1.815561244152376, 14.762759686785081, 68.777219676990697,  3.977612587820497
 7.994247022632575, 10.255151262246653, 13.091178851852773,  3.812180320520315
 3.991549273608946,  6.631236628221635,  8.562070920615405,  4.035280202318313
14.599879566609953, 11.942806268081370, 42.879672094431086,  4.207904234492239
 1.587742159092727, 13.362403963911413,  2.685733895530736,  3.838601761422229
 4.510025428591728,  5.851408501943737, 46.006915699689692,  4.109633245517669
 5.567701954131882,  4.464718699527443, 17.873739601394124,  3.973465531654214
10.335577641698999, 12.897460228868901, 31.248174244992207,  3.928050873366814
14.439381962587257,  4.678920182471126, 91.651920337360139,  4.141353401987965
11.162927340757195, 13.907871171631223, 52.162292512775807,  4.031442843163199
11.809048581134862,  5.602133271781567, 56.852235430418489,  4.265813942986726
 5.032756422339399, 11.714823676626168, 57.453497374795568,  4.066585549590650
11.763219420356505, 14.887310096305185, 27.197841971012007,  3.723727735276852
 5.800910896404233,  2.567656304501758, 63.854294710711869,  3.714112219277392
 4.345697263958899,  2.076419171168550, 88.149564665373447,  3.911148260957935
 0.689150970224291, 11.472977207846942, 57.091529832340221,  3.850915587542499
 9.890328842803887,  4.144582296123311, 61.080917001881353,  3.650092233344463
14.282352185449476, 10.880674612266560, 53.492969366278956,  3.906321164646766
13.406216605180003,  1.923350696974385, 76.660257421102813,  3.879580387809551
10.545018650179587,  9.471394033004882,  3.232599911167451,  4.201712888805156
 3.164678181441804,  6.470387200731406, 22.728286971519758,  4.139503658169150
 2.372491864577399, 14.562828517423375, 23.779257174717195,  3.754171378196162
 4.934624662524016,  7.341673361824482, 29.697261767145921,  4.032819165961126
 2.880144539548467,  3.414828491867883, 43.073453801486764,  4.181114472715932
 6.606025624263253, 10.829689074295981, 71.778343687136115,  4.051551538926081
 6.838560514010422,  0.560821781414405, 20.545876420927343,  4.252279970591561
 7.866214504242818,  3.728751587335920, 32.853035185588425,  3.705557423481308
12.963126169554947,  9.986741059823242, 37.410382059730580,  3.792389990435577
 6.499500303467770,  1.219357764836826, 67.719427588402922,  4.364107838412179
 4.989780077124891,  3.574631772198996, 11.163441430367206,  3.923833823884107
 8.282105144118001,  6.553548857654900, 54.615879996673875,  4.291490967558595
 4.067707121930606, 10.495342163656014, 64.215641792205602,  4.282767513279825
 0.972549579063217,  4.517156556826916, 86.938108217526946,  3.945332225924458
 7.247477596840115,  3.193651163594219, 91.115743512325238,  4.125991069207284
 7.535084998604985, 14.075947752686075, 74.391110889957304,  4.195751951864287
13.794590015430817, 11.635616816168831, 17.058161098816889,  4.166742273938463
13.952422417231134, 11.328019202761771, 31.521097349738412,  3.970016968861888
 9.882478813411204,  9.986191318032658, 16.761680424328809,  4.012560090700022
13.571178134472188,  5.638876998288310, 60.504747205220326,  3.839980733932025
 9.960757292105603,  0.665969835574839, 13.280917203537740,  3.697644294283406
13.082033448815395,  1.876441207464874, 62.027541314221615,  4.237842069648731
14.499804597439034,  3.542687707868768, 54.447139597866588,  4.039581061238965
 3.624311421825498, 14.487285611430865, 65.246586447938469,  3.966517676687925
14.464258490211654,  7.991532178036555, 77.999673645057513,  4.024482438712374
 2.466466900920836, 14.354117661213614, 59.035348146510195,  3.939113084327867
 3.822177435115679,  1.900805867157223, 80.871072921792361,  4.190607921543026
 5.745778197080621, 13.879343672820578, 86.082972449520753,  4.231792656113947
12.629337660055137,  4.625011383827228, 73.754581327981896,  4.141972033127486
 3.071654640953377,  9.069771844859584, 55.664965880970030,  3.420869175886179
 3.876857248330882,  6.611330656125249, 40.664568291226011,  3.954684174161729
10.847188620246003, 12.949735021492737,  6.233774191966504,  3.931027612257085
 7.543928119401591, 12.816358124817745, 36.179515670824337,  4.056246510081093
13.502232424503724, 10.178699819058401, 61.154796187297627,  3.918936243155423
 9.081372597432033,  9.954129457073350, 46.261678210013656,  3.810046486190078
 2.549908685411387, 10.967228403488594, 77.759097660252039,  3.722099077181422
 9.037762671969491, 13.605639585609786, 69.987473166667797,  4.150368128198586
 8.377024535565365,  9.705381183874056, 57.086828098003210,  3.692872214695880
13.931427922277472,  8.209886372747409, 34.042195690027341,  4.045495691059237
10.999803177364797,  6.168918124077572,  8.081883574777057,  3.922318803410314
 5.572958860203897,  6.782786000296338, 33.703961660628643,  4.110458153319193
 6.980070556411293, 11.696946380983183, 43.242470141085207,  4.309905879817831
 3.353211296090202, 13.155687054275683, 41.805989652116537,  4.015541404621204
13.543159321128451, 11.358018453959206,  0.664007285030586,  4.532949064055614
 9.894502357727150,  3.879710601200271,  0.171440069942208,  3.964834363011473
 7.146616817296612,  0.060335399212114, 58.310542715550852,  4.064189748015531
 9.794190718228563, 14.579771127912904, 44.402732715881626,  4.068849779571960
10.073272187915014,  5.736250430577701,  4.405734206869007,  3.642822806502362
 3.914831208043818,  3.121332139454044, 33.611778581576324,  3.901727216133170
 8.507857061764856, 12.760312628504293, 89.144373384632672,  4.290765327028179
10.113866401995711, 13.371917106934058, 55.895743764908026,  3.757019907559655
 5.029500594384223,  4.832423186296645,  0.303021666483895,  4.192971133916370
12.649063515449999, 11.268048899731694, 27.839835659277998,  3.824796570291641
 3.449086947145654, 14.041129520135716,  6.275800584138924,  4.057002237714791
 7.973158035095261, 12.003367846785212, 50.862597244931358,  3.803096990379598
 4.643031948196737, 11.050523049156945, 90.232009025853827,  3.876399666474728
12.150616765036025,  9.471061120871827,  6.772387206063629,  3.544564963358301
 1.693801004840000,  9.580316794394657, 88.054633873553016,  4.018298191798976
10.612273524064879, 10.007688246457986, 91.603374886147208,  4.200212823058562
 6.389499292156634,  6.538245939699867,  3.627049266446416,  3.753429643958945
 7.910539000694333, 13.314482482725186, 15.428170334841379,  3.857125342500066
11.347905206190397,  5.267600579403641, 77.742232838573770,  4.261331999212596
11.366304741846813,  3.846443372894281, 40.895181596243091,  4.255573534821438
 9.735025341533893,  0.953678713403042, 83.483320117229951,  4.184407456525038
12.932362344573823,  3.730411630625336, 10.773043423691076,  4.271606479096796
 2.073510149605360, 13.854685730432529, 30.693663290677335,  4.229258842449623
10.908764695448605,  4.888779834350593, 86.692777906018776,  3.812927067133351
 4.103148572059536,  7.868095390234998, 70.115633634187930,  4.310065968334825
 0.539396971882941,  3.257158337653240, 69.876298419657232,  3.819523375492463
 3.604574287873902, 12.883533518583750, 74.582097702855080,  3.963940449868021
 6.566857511158160, 13.357222063263640, 47.231452314309003,  4.351608773658020
 1.933572200592122,  6.212822965737357, 18.056139755309044,  3.759271760109494
 5.361529180509274,  3.307597273239352, 29.891132640824917,  4.077429700764029
11.971681147678838,  6.998821354709385, 63.838023483614670,  4.036162392808406
 6.635418659133609, 14.036070025094912, 54.461879621540646,  3.878077395600518
 1.431397447560809,  0.587297469130397, 35.358980427102615,  4.001485733602056
12.873360964980932,  8.035627049084539, 40.692210317640289,  3.840378981299896
 3.415320788888288,  1.126725559670303,  0.711726444461377,  3.876933672588635
11.451780511947973, 13.522305434542185, 36.737598191754259,  3.959226392429517
 0.839422574382296,  7.456753005295462, 37.323579922227871,  3.679271243696808
12.654809906671623,  3.601208236886082, 27.372416222697886,  3.956269932045152
 9.577801164095296,  6.878466365595973, 74.633862751092153,  3.573110799361615
 1.565498641415624,  5.218448738611655, 11.207478223668456,  3.672408110505255
 9.931296717901457,  8.703841711324966, 87.981224417620240,  3.558908731777639
 1.394240447208986, 14.310510842406108, 15.427313245528916,  3.934360130120000
 6.796191412872462,  9.201876875467930, 66.904410779997903,  3.799746312537891
 6.981770650693891,  4.907272899350018, 21.748158674304769,  4.256814191943540
 1.068050957981396, 12.920548984959741, 62.577871330917709,  4.044295362023858
 9.407865238943977,  2.013150308537439,  3.551771040306381,  3.810295436687367
 7.360486915481384,  8.113517493153180, 50.500653531899850,  4.102944797552878
 9.019477721673374,  0.527740532575949, 62.436294881892103,  4.264169644410692
 8.530107618616745,  2.034546301586809, 47.380982014944323,  4.010795365422975
11.059847215445700,  0.922915991746997, 73.725015771880251,  3.890465023432836
 0.116339758817015,  6.912985089918356, 43.771278318689319,  4.123951859280621
13.499014120676591,  7.202205923966186, 88.554748740630998,  4.046103938304396
