BANDS
8 8
NANOPARTICLES
cell(1), 15.021
cell(2), 15.021
cell(3), 93.880
 2.106043641903895,  3.198521167104495, 93.170384731355725,  3.917943278440706
10.152739776403203, 10.438887384442580, 81.157117091198671,  3.884968804874083
14.712408938487073,  9.341793092631463,  3.636117744588587,  4.000552047359639
10.749315399139293,  8.103024430965851, 25.241753982438702,  3.871485324985056
 4.129133657606388,  6.167932864345183, 91.426707798000038,  3.984215137972249
 7.341727575554059, 12.107791912956271, 65.340437272665625,  3.794376865365690
10.658094284713565,  1.339776433267185, 14.524039416819075,  3.747508877977853
14.258894548668360,  1.986782900295722, 86.924517239737014,  4.402854086539292
11.945903056004841,  7.300279489886150, 77.447546519152553,  3.536786502969131
 2.049885013608701,  7.113248503605750,  1.017656728474698,  4.261386849178844
10.571617244853547,  8.389258609287998,  6.940798945539906,  3.728108870121722
14.282403144338312, 12.616924723133438, 70.555297426780612,  3.748497176292890
 4.327556537886011,  6.333443485671643, 42.740805796145224,  3.978830105354605
 2.425043237668894,  9.293816826399052, 46.274343584768999,  4.247899351464611
 0.255923018087207,  5.221711386178100, 13.599572553220533,  4.113372535398462
 7.675133993155251, 14.813315787863669, 23.788249300783118,  3.953272487344197
 3.214766614587557,  4.827866399209632, 65.931219679067368,  3.965644376214725
 4.108127463361111,  0.386005897748728, 74.377608716058859,  4.031874608486820
 7.088151631112923,  4.903459926392259, 67.308482795297422,  3.983232142020957
 7.639845833940045,  5.567969000328453, 89.207335258991563,  4.395793061239507
12.864729851757316, 12.705791078306468, 29.767599949062870,  4.354516613560723
 5.990230547769254, 11.215490324586138, 30.018468484090146,  3.973996905164765
 1.185362576022589,  9.942534735185030, 26.627792810480212,  4.054911849495132
 7.266418970922872, 11.322134436397260,  2.702389251704647,  3.968357791604849
11.083960622009956, 11.791462862911724, 84.762760887423383,  4.031571427897244
12.384525023612145, 13.799662943796777, 81.345287980549060,  4.188294917310212
 4.487890881160796, 11.260624211374013, 73.715380304641826,  3.758111097632974
 0.484613838482236,  6.736862659452307, 84.280998544859457,  4.101462759216316
13.525597651940398,  8.651003134685435, 14.551919517453394,  3.808004591954927
10.415623143755672,  0.750247740159268, 85.305801447370897,  4.106005746082136
 2.436387287279173, 14.011784299348239, 35.209650587315274,  3.874377834971932
 4.735738464839605, 13.072282698385461, 68.416017705657865,  4.208856403841084
10.099296596597059,  3.774046079630956, 24.156944959931138,  4.122329374904967
 3.787037565335472,  7.236582247430175, 13.175400175833301,  3.886207719878318
 5.332856873438103,  4.515934536056408, 10.789864924216618,  3.923220076865919
 4.709098732380710,  5.167027265146562, 27.530238997879746,  3.659401788126975
14.120755956417071, 11.049838355409387, 44.355176833588963,  4.128906398720636
 4.817491249102901,  6.534842885214846, 70.202540486558291,  3.989866873854977
 1.876137618674903,  2.070391704421401, 10.933758204384656,  4.127309417235226
 4.804910677264290,  0.298558673070926, 18.877243114802869,  4.126994993777981
13.600031586118710, 12.966888126228806,  5.283128319248597,  4.103698288341748
 1.321401260739998,  4.376203617591865, 60.215833441280438,  4.002916739757534
 5.996255833423827, 14.348577967244504,  4.964546271351059,  4.002567258269306
 5.457422520884109, 14.307908704326746, 32.635585155862145,  3.849510055269987
 4.135562066730345, 13.134674887024978,  8.515077338628736,  4.309373428754542
 8.755497966141544, 14.413457362650696, 68.324110345480946,  4.248914950736968
13.856208703609228, 14.126859579694043, 23.336802885573892,  3.838531609816226
10.192420308918750, 13.276093632109523, 74.873584400428484,  3.805170514082484
14.554873071414873, 14.202706404260500, 64.088507513330882,  3.700119754562720
 2.947225492947757,  2.720744822451890, 85.374049230597265,  3.758399021476245
 8.117953444369068,  9.145418518825036, 90.827614931939507,  3.516537635827001
12.117696406403688, 14.582775450105022, 44.032407989344001,  3.970020570894508
 3.527485679196659,  3.406305957615868, 21.389892649592447,  4.247317961940506
 4.514334397339776,  2.474141901719384, 69.622699361977183,  4.107686592478161
14.651671449217941, 10.625722121326733, 82.990427156568160,  4.269007187509828
14.391154638090837,  2.426924191659789, 56.789594208374986,  4.087985175956836
14.533056372763646,  7.239134901057042, 80.306393463043989,  4.124743762483000
 5.637186513411849, 12.214091436951348, 21.451730923249837,  4.107247516261248
10.361805015591305,  1.226219056669555, 60.700951580487022,  3.989318583748829
 8.479686328262320,  1.644527705780249, 33.365627013545186,  3.945383657348802
 3.229368250889523, 14.778305365057065, 15.302787466033132,  3.747028407129499
 9.366973564376975,  3.841288499117727, 53.283262718739181,  4.032102880076496
 1.168375085857649, 14.339957457608870, 79.316908816479511,  3.995488741643274
11.855271134635952,  8.913798042687176, 21.115780552096570,  3.878189240067990
 7.413119702664477,  7.707123149440548,  3.627376129767978,  3.471853085501999
 9.776388450664491,  2.127121909997386, 81.387589609982797,  4.289439285543697
 3.050799400984601, 11.825762381642217,  3.266481394762617,  4.379997936258997
 6.895957806402226,  1.681740662779740, 78.705279707487676,  3.625398065283260
 6.467579903110980,  1.988260241538287, 83.893934362254782,  4.010414470853667
14.220763526812197,  6.981635881619608,  6.880607127846437,  3.927389541084342
 2.365815333148881,  5.654426597249863, 24.589020458950742,  3.905697581843594
10.004797500065015,  2.583421641978220, 42.323039089288841,  4.155604878138725
12.621158887402594,  5.890288349252160, 87.134030628876530,  4.073697172794364
 8.278590937168607, 12.799678673901324, 47.057659643179100,  4.309792412600251
 7.391797377608991,  4.722613459233535, 14.161468549733181,  3.772630928025853
 5.039495364658463,  9.361466500233362, 77.068311533268101,  3.859843839276246
12.897055406459589,  7.710248134802289, 37.143170381473738,  3.949776602026532
 1.961110271307133, 10.646469309591371, 15.251283880836615,  4.284331492805507
 9.601512354673861,  8.878904202614308, 47.366808725359093,  3.987082872194277
 0.930830114658308, 13.730046083311816, 57.246325976332010,  4.026710305382943
 8.088443407564865, 13.521438777319487, 82.628927891884118,  4.064224199024496
 1.697988961098918,  0.657274527167573, 67.124828844693369,  4.201003128697162
 2.995289677115467,  6.516115327376965, 78.632375438789765,  3.721188989180823
 8.062992284955962,  7.582333678951041, 53.714643228636021,  3.935513501843921
12.777552755586338,  2.575619498489162, 63.615182337606278,  3.994869224510220
 9.296631965909915, 14.904087043311705, 90.935546948897681,  4.222541182053977
14.539761981533131, 14.838470715806928, 73.765195565004831,  4.044803083624130
 6.010940743201042, 10.656460844203735, 61.774730756474625,  3.950162097423702
 3.117134281683285,  2.502068393854866, 77.731867505818030,  4.087045860404673
 3.460728728175527, 14.405999873266689, 92.808610442038869,  4.029267668833725
 6.288001082143072,  6.979546513975652, 63.573023295940395,  4.199206440760883
 7.418930850883700,  6.672945684682529, 49.899211690641664,  3.992923551408324
 4.461501513926048,  1.659324394917801,  2.101126136536971,  3.946498453530450
 4.936889104368343, 13.367164292177860, 77.901438623230106,  4.245116205351006
 7.520855523102906, 13.057899699975831, 35.833838327505262,  4.142626239021789
14.212190250014910, 13.131376117362295, 37.669323469087480,  3.864674015822049
 4.153563557285281,  7.436851187586128, 59.861008229377795,  4.366136270802467
 6.466177875053700,  2.572635082314151, 44.636088065418100,  4.249991273778347
12.718632946334676,  5.110860251614334, 27.091763516849710,  4.171095125329008
 8.607714042563797, 14.579965314423603, 55.005598230471456,  4.252617783889840
 2.954831034307373,  1.431814141496393, 89.204226639633788,  4.314855962980116
11.788024308439841,  2.769446901194422, 50.498513257883680,  3.622439455302731
 2.080234429946830,  1.961876915761840, 63.282463139067737,  3.948740986697118
 5.173164792446829,  8.933964655847847, 26.801289920134138,  4.051659607995484
 7.935579208698627, 10.463294573802745, 50.996230171973004,  3.903085384615096
14.485156400002342,  3.897205189574313, 66.795065742327665,  3.653270347064184
 0.558459841649298,  2.957650153870371, 50.903798657484955,  3.687708528432731
 6.176307732558420,  3.402517616805547, 30.609163438406320,  4.011728071264447
 8.821601401475519,  2.500979031923012, 11.217005194651469,  4.126358108614267
 8.506638904697358, 13.940645882212358,  9.625280105898428,  3.732115628662934
 2.265183176334745, 10.092408788605880, 70.630187644179344,  4.060841556757889
 2.335658078788396, 14.581416690727009, 71.135214056529094,  3.538515190275913
 1.486643322513743,  3.914489618094581,  3.728026224489129,  4.184652385175585
 7.396182011510283,  2.337797762888205, 26.896305259811129,  4.088446701251979
 0.928164483238060,  5.970930924249258, 35.203901688415790,  4.059437556820091
13.840296711655808,  3.764747002490755, 90.863655723959425,  4.173558377268851
10.200057748841100, 12.622230582868694, 32.897051185043203,  3.845176944517705
 8.866928441520487,  2.117341863218347,  5.351367011410553,  4.027264563963127
 6.402188851559982,  9.668874939422269, 44.750250555187314,  4.296615887767563
13.613928763874926,  4.571104402067056, 53.609934103491661,  3.734478017679403
10.634576841735473,  2.857227625241855, 88.622362118263936,  3.764636057739571
 5.412744440191557,  0.245501152750183, 11.865884826766418,  4.017672897151672
10.963125348618270,  9.040688627202533, 59.375201656791091,  4.313377330505009
 8.380268615284034, 14.548646690158437, 29.845443313362249,  4.225818240986410
14.349397041452464,  1.575580309921723, 47.548014168250454,  3.970122559564962
 4.579443225786417, 13.565717198716735, 86.701024728029353,  3.986303489943676
12.570842796578811,  0.811889417057947, 17.854429161430108,  3.990642282284513
 9.606331029986906, 11.551058560443447, 93.326540266432659,  4.030201313129621
 7.115492195664689,  3.974065329709614, 36.190316848016913,  3.863481411513530
 5.844136713786993,  1.252525703808485, 65.893414768740158,  4.171432585077903
12.906397752505052,  6.990631509164804, 73.725208566814203,  4.169554637565259
 0.805278938948264, 14.022612345857992, 26.818674729786867,  4.113583590535948
 6.988993271852735,  1.325836539140187, 58.455344233005789,  4.083158805659576
 8.418999859950858,  6.414739871419406, 42.880900280315103,  4.205250052162814
13.275413289678516, 11.038361978974901, 73.930990887299984,  3.969890254152853
10.695405198340673,  5.700653114820387,  3.847932562272822,  4.210712228683823
 6.891770397694662,  1.100262519559541, 15.485902594348342,  3.985368574873263
 5.408420873727909,  6.084639522410233, 46.531689638572061,  3.918918474012615
14.770146888901900,  2.969243178322373,  7.453606021350470,  4.220392775040641
 5.156429841399484,  6.006287561103853, 85.718114534239461,  4.189236615023969
11.608571115506134,  7.047433534792441, 66.756956400078508,  4.316455422638311
14.924578548389123,  2.525014774916272, 24.820364804595570,  3.906862643161586
 8.534721564508787,  3.458837760278246, 63.606820695382218,  4.144045921032810
 5.443719845573140,  0.577381795161045, 48.035532611472831,  3.877549113636590
14.906870713413054,  8.119176135320284, 60.499116955734330,  4.001825591721599
 6.383376068719560, 11.090315758080083, 54.644651246147738,  4.037369397176854
13.560915661261587,  4.874584999462455,  1.064088629750274,  3.947608336970524
 5.141100386587834,  3.597064977857576, 61.284564942935951,  4.051423296238468
13.141122014658466, 12.220756439866484,  1.294694103897567,  4.044703266890799
 4.373884850710696,  7.561488524130726, 30.491142948165344,  3.980871939023204
 4.944315444204854,  6.889426323349044, 34.472314840800408,  4.173623852783630
14.070751001984627, 12.239076046438228, 33.774800001511991,  4.066422054281582
10.732636912194458,  3.585470053771699, 77.549801299856597,  4.065511217754873
 6.093860767771389,  4.480460825661596, 80.930623902751989,  3.684860600569176
12.755206864641035,  1.337279394701774, 39.528495021446581,  4.070221744064187
 0.150762521322410, 14.157280962909278,  8.780240363794748,  3.914759717784428
10.936896587582297, 11.127867165484687, 36.821907058090922,  3.940174286432037
 5.796266122969055, 14.069720665480109, 52.070060569830794,  3.905351006370690
 0.817533589428643,  9.584268544588108, 11.193722841547689,  4.308644625515536
 2.069698744829227, 11.308809227948931, 89.566902530858314,  4.138418900128809
 9.218225261204163,  5.528232501300026, 74.474857347876409,  3.655719551061665
14.650820660739768,  1.165256037595028, 14.335743695349336,  4.205505723842722
 2.329699422566433,  7.061883528376771, 73.335823433323640,  4.063565322995025
 5.939704418489988,  4.468106041658241,  4.287710744052981,  3.758557202963669
 0.783865541747861, 11.279310271974552, 50.459900852582464,  4.062221628765617
 2.078851829221358, 10.386316914784700, 79.595821590803325,  4.103352088783814
 7.877426275051127,  7.503242563612432, 82.500632277378841,  3.974498277908957
 8.109705982994003, 12.316749828808680, 58.667434384398938,  4.251196920363633
 0.649244647784922,  0.524372853225388, 83.115508777787525,  4.019257223225161
 2.604579205524735,  9.800879002606177, 85.834742771366635,  3.960206464658735
 0.475132604745010,  8.569385690484209, 31.844631875839003,  4.482033810457084
 1.321068982609208, 10.428802983824321,  7.114670638713978,  3.951332970388415
14.754679509174634, 14.710386400211032, 91.252897524923981,  4.064234462978027
12.701288208433784,  5.957023203712180, 41.169426791437090,  3.615156831098875
11.026935824204241,  0.107188739124046, 26.044141281728692,  4.086429619881619
11.855036013360278, 10.737380728877516, 51.062401598442030,  3.949292173315557
 3.762825847740571, 10.818704499143651, 33.318607737884925,  4.006917079678798
 4.562125593886887, 14.555858954548079, 55.779418981276912,  3.970923704930957
 5.950208288234701, 11.963484112134475, 16.463463736234544,  4.410032354909072
12.913921680394360,  5.120023205841139, 47.871081493007338,  3.682012732009897
 3.616082736394934,  3.306375197504245, 57.010809485149998,  4.164024513749975
 1.699994001184162,  2.761495989178909, 17.547804835041397,  4.070953215990238
 8.460038858116381,  5.735725566064063, 60.147502490760260,  4.119550802236827
 1.586847860879848, 13.373961822645423, 12.256169529161552,  3.695487697884458
11.349636991016324,  6.074346430100834, 62.909450796255094,  3.634895085783630
12.830212126749396,  5.235824746190188, 21.693331256082971,  3.778354700789674
 8.065468485364656, 13.935074579915392, 42.943361424151803,  4.235061923944695
 5.316734700315628,  4.017991298096698, 73.235733039098577,  3.911382044672179
 5.115187515387268,  0.870504044153786, 37.229705134317868,  3.792928348907196
14.508563781963089,  8.590323865973456, 53.394935846791945,  4.309861779853307
 0.401749419777429,  8.399803752870024, 76.542543499271432,  3.881411368025830
 8.422432667771107, 13.028355617060734, 87.312621360314694,  3.707055453106573
10.213072644242057, 10.924947441776972, 71.220141909370227,  4.178163402985012
 1.345819234279454, 13.210478170910136, 46.963114917113415,  3.988267207676608
 6.974427751674798,  1.587328944551339, 87.898804485676564,  4.087473592866208
11.601135990189837,  8.986022709065850, 33.517524197884185,  4.036221289989578
 8.460787247328645,  8.030775820557642, 78.601421914085265,  3.892548463826977
11.283531332391410, 14.803009004370407, 71.495763749432427,  3.884755970665084
 8.544433385836927,  0.456156813621521, 39.120348463276038,  4.060404378828758
12.085107362124464,  1.136012604575078, 53.869823205235008,  3.712250657548418
12.607020020868108, 11.458292068308269, 25.844141137555845,  3.892057383879416
14.244587345207169, 10.153311038788480, 57.191807025967677,  3.857159024088983
14.461742393237497,  4.525456518929706, 38.375630396613758,  3.519319591234854
12.910187965959516,  8.795665865462571, 28.605863477002163,  3.803744791798128
 0.634788483908945,  7.672022896941838, 66.961441734625524,  3.873193821448071
10.234286756164940, 10.509614588119362, 43.609017005177783,  3.853861005458871
 4.227916872617277,  9.198574748584235, 67.262690254806202,  3.936138017768132
 2.503608602793828, 14.574143350303947, 22.207144982405204,  3.878627265357490
 1.268196852467296,  6.401815331790159, 28.367645099704056,  3.825802707479595
 1.521345984279964,  3.177678805218893, 73.191127363120273,  3.860937257943901
 8.134051907340888,  1.675411633951998, 74.983452856484305,  4.176464940977252
12.444886994001720,  5.081235333499438, 59.331111523723266,  4.105185939256319
 8.515850020723949, 11.583878517451479, 26.653289144804088,  4.449667570512570
 9.589698221449655,  9.522673601563449, 63.356508411225597,  4.120989180584177
 2.089820755492632,  2.668116224874308, 28.486958744274368,  3.731194909422839
 0.669299649933510,  0.352318740893167,  1.717618389179107,  4.079732828979055
12.684067109916692,  3.958152697215168, 83.636099096562148,  3.883706826184002
 4.710951375033760, 13.319608568271834, 45.037163058970066,  3.766411704907699
 6.239600117183104,  5.006347845305893, 24.033893641597107,  3.975995672383697
14.456266929879167,  1.708927697227060, 70.292074655700901,  3.861610713189797
 4.614240678121025, 11.729398765107545, 48.958451866810258,  4.211169339093164
 1.022652292244549,  0.186512880118561, 31.554070517697603,  4.276398259731409
13.246142659080386,  5.246476422010164, 17.586396864217164,  4.448005857382996
12.005444902824035,  7.096282597891043, 44.721864406784640,  3.964458978330508
14.563919948515510,  2.130822762945423, 35.006579243487359,  4.066405846485588
10.784076084715842, 11.122169425125602, 66.887522340820595,  3.982797231289928
12.875897712609273,  3.056782348778259, 11.132819685588487,  4.019200214900816
 9.110876896992560,  4.777207290481223, 85.280118603484524,  4.134375124259166
 8.843079238030066,  7.127067507451444, 70.236214480826391,  4.129607357776466
 4.251481802956956,  0.782834067732951, 80.972028183507661,  3.567672852873387
 7.504325945787895,  2.513153363872984, 20.924559592818589,  3.953722898412718
10.653480527528432, 10.023785244390826, 12.148270561440965,  4.168352224970465
12.004818781553308,  2.970261745767973, 73.740957304986210,  4.042429727684179
 9.502577789093344,  3.321072370999187, 17.612467867981756,  3.945108329835322
11.188510823845313, 12.787965470872241, 40.532127930230672,  3.975615409548800
 9.296747288923576,  7.458617111428770,  0.321377059758537,  4.129505532256327
 3.861409242512193,  7.808522486898303, 82.228129382661010,  4.078164741605430
 2.514292789041685, 14.846081402203323, 50.312297932716888,  3.690072895584437
12.988221879213397,  8.525998025184512,  0.333740942665601,  3.552512949106827
 8.034820792602531,  2.834868702916504, 49.749837175992589,  3.778231583610808
12.159634391432268,  6.216150146005521, 31.041371966182293,  3.442621565036504
11.986687613159729,  1.249863374283957, 93.867135656596986,  4.136679065134728
10.068566773145156, 14.812675122354561, 64.457434679498078,  3.948409279421451
13.750186805502604,  2.485412614404740, 80.066818264997693,  4.092288237481393
 8.347773418582321,  3.190554092075808,  1.504440038193097,  4.021887412568557
 2.134757837467055,  0.243504891898535,  5.515079969137615,  3.980203781804261
 5.858247688678942,  8.037613167553857, 17.171427419032092,  3.564007629425018
 3.474251783011133, 12.508254767347175, 82.893937242590098,  4.216471127620732
10.453470102791478,  1.227038774631585, 47.243697703404621,  3.843975514990969
10.420125875085553,  2.643752703490358, 56.918035039250405,  3.859152290942723
 9.002155424201186, 13.386450268833508, 78.662840446154647,  3.995484401094563
11.458391776038168,  7.368746547393749, 90.727078465617495,  4.033440193814212
 5.799896696386435,  5.945264038705574,  0.925813372388212,  3.567530355004144
 3.465457988700152,  0.119651529848520, 60.013537570731962,  3.983691357816365
11.209726128943331,  5.523482997808641, 13.860832305149509,  4.049723041452566
14.443531864967767,  9.223177413170484, 18.242039850911347,  3.876736942487611
 5.252501444366861,  9.572706109355440, 93.454999258055935,  4.245405060489078
 5.407152149796907,  6.958644158401041, 20.719730598289807,  3.888453126090537
 4.304352314842137,  8.105952801295309,  9.269745538842765,  4.132593037292402
 1.249950823059268,  0.619421504159739, 53.756683119757255,  3.811499003288958
 8.585346826967710,  2.898493289479886, 70.877758948676671,  4.428213460985152
10.798483258591741,  9.722928227792194,  3.329454849605646,  3.882558948149242
11.624434965834652,  7.946598437296581, 83.827846583962653,  3.954020548285929
 5.109188079978680, 10.028356608739147, 36.824377845983967,  3.661396449921831
 1.166256379666844,  6.744250676507853, 50.094813750198590,  3.948509247005573
 0.558305693413366,  7.503297584233539, 43.071120315180679,  3.939424628978290
13.520065388734800, 12.577077529173348, 54.175152445158787,  3.999653706118774
 7.237924191924764,  6.625229721752263,  7.082461294540153,  3.760062111485612
 8.893738438786986,  7.582356037046381, 36.268639465210207,  4.168156831065262
 3.391103526770858, 12.793020870523193, 38.856077264605240,  4.007385224226653
12.098179486788041,  0.874728305036184, 32.204030488609590,  3.803228095795776
 2.372880245654515,  1.509264860778262, 44.806979086567672,  4.147145993313542
13.255969216778608, 12.469938332352053, 15.374718594273574,  3.993845739097809
 3.310780181337553,  9.305027878626277, 23.186958669296978,  4.105623470767176
10.232092702402038,  4.430351163191856, 38.623075311742738,  4.095649162968807
 0.707025647136485, 13.210613761321843, 86.311146856867808,  3.829967609808818
 5.093569416762702,  8.816666207648344, 88.685421513577012,  3.852475005780446
 6.023693890105000, 12.338818183388080, 90.370575630287320,  4.164508923779455
 5.552062000039228,  2.671486536769767, 53.516090078030444,  3.862169705588653
 4.056196386910107, 11.373484106603884, 58.323102404150873,  4.074066088030397
 0.966236151416998, 13.435380373429512, 18.484743901759014,  4.445610195652226
12.737293156976540, 11.029768617895591,  8.724097659936243,  3.961308110983590
 7.397766574148061,  9.095961143837789, 23.396964513729632,  4.032768290507651
 6.264987197422092, 10.585197271864018, 80.599751136691694,  3.940403600619704
 0.059461700677849, 10.940063539688678, 21.639705243000883,  3.785334040346333
14.450837231430221,  0.654756169059585, 60.480186072756915,  4.083550536696574
 3.563626563021333,  4.333412896018357,  7.280205248208151,  3.881936868636945
11.944858997268776, 12.538358834186514, 61.614852560693279,  4.220265357718388
10.250622021969871, 10.756475979516688, 55.536482753507926,  3.821965682613622
10.912252546557953,  4.586189942538268,  7.874457276665098,  4.120692902750380
 8.484606418549843, 13.196824964021246, 13.373262675130631,  3.895237029377006
10.283144110390671,  8.774902841638013, 40.013174702625527,  4.096720806879487
 4.220864165866795,  4.031330652871943, 49.884447810713837,  4.201432857744507
 9.215748243583169,  6.069726206658768, 20.618665858451539,  3.931138279509411
10.860773983606247,  5.913249799896880, 80.665054395206241,  3.714905445791474
14.198341766230016, 10.063885134504416, 40.260951107265278,  4.149888917793040
 0.994659885291203, 11.947381311287938, 60.900047086847941,  4.008685241171816
 9.609915298504955,  9.789499288208008, 30.238364947429375,  3.788825478341489
 1.669003321960435,  5.440409097515402, 88.121843799941303,  4.343106952260793
 1.218896035894648,  5.775864668866355,  9.868877713457024,  3.666571951075239
 6.260420915656256,  5.097138352581945, 76.988111399148352,  4.118049228160594
 4.531632950839402, 12.779316830961941, 25.439685851083656,  4.204716941859152
 7.283434597546604,  4.789916675443496, 56.464228980913965,  3.779649136362472
 0.344731680271155,  7.752875886237665, 91.225610561658982,  3.814133891220541
13.548584527109250,  9.802746657910745, 64.261609891615478,  4.012482317579964
12.148384953814714, 12.157840703295497, 19.104512923840403,  3.737873145918839
 0.595469949926769, 14.109903428245140, 41.754834844635219,  4.415350118892105
 2.397917168620200, 11.577968499781369, 54.160574194832691,  4.034286914061459
 8.327705095009248,  9.824795318463410, 19.508943419507759,  4.070846695060159
 9.646187700285404,  8.864867938257404, 87.284544338415643,  4.209936619469635
 5.628059514292428, 10.166137663507406,  6.085346601198814,  3.894153614508988
 9.831426373389222, 10.719062676322455, 15.986679064410231,  3.790353319206254
 6.263856109695328,  7.818517802602154, 73.684877268739839,  3.965047873893032
 7.554140590195668,  8.464928441994955, 13.997399484350247,  3.682625961620817
 8.843716829443260, 14.326779585542445, 18.585370961869625,  4.163792778986749
13.141959576118746, 10.990506682416330, 91.322512317024902,  4.032148757583645
 3.498455577640979, 13.092788746109248, 64.140333629509186,  4.472448967878051
 3.599525209526000,  2.832778169986299, 33.920322025035304,  4.442768170734242
 0.409892967309487,  6.365364544952785, 56.821973130529898,  4.057094609527142
14.317971746925819,  7.933009468672160, 23.859619950951132,  3.744476355178874
11.868026261077981, 13.966020028618358, 57.659845370032706,  4.184617882543704
 6.353049436617266, 10.172758265069978, 70.622745935431084,  3.760006584828986
 1.222601408905606,  9.906904204982650, 36.390250693484170,  4.155813957125722
10.022290693680397, 14.185133747860494,  2.895175725440198,  3.985028144549696
 7.085713504130054, 14.405678417557965,  0.362525311925019,  3.757613445711832
11.558767640630190,  0.434068613583290,  7.779401701520254,  3.963883484551028
 8.337302440088122,  6.571693736896183, 28.077633913957587,  4.147483921337904
 4.380103123100340, 14.730762331544208, 28.926581290348373,  3.790664860027778
 1.495211523251438,  5.223218142474599, 46.376240494135473,  4.096932235359002
 3.802180248115341,  1.781509870478521, 25.158118586548785,  3.941127009654199
 2.239308269985339,  4.044983481555525, 81.642160796632737,  4.201319636334581
 9.752992100726779, 14.320640419149417, 50.846211450367669,  4.370412221142925
 6.208858122263011,  1.651863014696361,  8.252596744115770,  3.886877914772749
 4.339751794562465,  8.628975889761286, 51.757837395247911,  4.144279391151694
13.631624202790118,  3.471120884000972, 44.068035060800447,  4.078887559331734
11.142348602722235,  0.055267932852978, 35.973322341898061,  4.139897387043217
 0.781271734640833, 11.648484297794919, 67.089744505512499,  4.042400046110203
12.423367392126670, 12.837042019001778, 47.660588648348345,  4.055340069641417
 6.403912235414730,  3.589319906922318, 40.591072112636787,  4.078435584211012
12.731461730248697,  7.007455590637012, 10.492916098095895,  3.863371075651486
 7.932679623050433,  8.586787464578661, 66.751499722254408,  3.640162911786073
 6.350713695168313,  7.547950954993095, 39.497810787580583,  4.041072810827991
13.516493944606387,  1.574364247101449, 28.734490789350922,  3.788399861176238
 2.254509371259769,  6.745906275066564, 16.824613108125593,  4.042810282584279
10.136353117227495,  3.289136504821940, 29.782828779889932,  4.075739629319619
 3.211011440318164,  9.900173878616725, 19.155184604837903,  4.018870060581882
 1.130863982719871,  5.203115594955691, 69.920109242680070,  3.866775141521598
 5.546948455627707,  4.225633125752050, 17.747644241608334,  4.170194451395376
 7.552016631424399,  9.951808944388839, 33.380284362450787,  3.727866956844534
10.027530874718206,  4.071740130258866, 92.066234197253522,  3.619151250124666
 6.547121155116763, 10.453320943729549, 84.962559034616604,  4.151982126697674
 8.769657476123284,  6.602586590146814, 10.757913708574213,  4.117945820327665
 4.475282601140346,  0.329198594148147, 41.622596557313166,  3.659194591702160
 2.523844728845458,  8.888894305762852, 63.564397474208569,  4.230415389649446
13.828911654831161, 14.657057795729010, 50.883224421027812,  3.809031237853333
12.764071046086078, 11.119559548591251, 78.078733736295803,  4.294316420034123
 2.391565917780745,  7.744251123082401, 39.593374719165823,  3.862192906999306
 1.473069256250553,  1.134188003765659, 38.294612602245010,  3.810738208452859
 9.757733469890166,  9.344503610402063, 75.043691971584607,  4.104125929360372
 2.187566774802629, 11.756000447874777, 29.920193512218930,  3.704388353853008
 3.835414698442722,  8.191842509358134, 55.767348576709821,  3.983426123244813
11.529078706481556,  4.833677530708038, 34.659816519170406,  4.081281381334288
13.497067753805689,  8.754975738770872, 70.077098836862049,  4.008305915969320
 3.789259372670701,  3.401866450789496, 14.209859777989035,  3.899556970211549
 7.369956632901829,  8.482736526664063, 57.452651270966484,  3.864011082569807
11.379421038630282,  6.708225286898389, 51.136663368371430,  4.165735826559421
 2.964071608663947,  7.484943396214772,  5.033465497307146,  3.947159603000739
12.199071430089562, 13.534020459595837, 88.269321939637251,  4.108837610668302
 7.801783605718296, 10.210515749438478,  9.305519970433137,  3.868625099717574
 3.057543830572174, 10.628836327916012, 42.331729775875345,  4.172564486736823
12.599816113541397,  0.096746914831115, 77.152157134515619,  3.758890454980528
 9.410553233600741,  7.098983655853817, 16.930323629385210,  3.731250481382476
 1.490496005477748, 12.141673293233220, 76.000997066157979,  3.983077623019324
14.668021922438550,  4.428887628827903, 76.525733576226258,  4.187148790651287
12.259950541253716,  4.945577609435449, 70.267094413247690,  3.961446067282211
10.485490570619101, 12.279471350406652, 22.601786905775398,  3.972643401738075
 8.548790885086738,  6.315895008387923, 32.222310395039521,  4.154721133475295
 1.242067912808782,  6.771127863562715, 20.730557439101911,  3.971720160729954
 7.177564773364373, 13.746299055417447, 72.178852371702988,  4.184136030912817
12.811811660768408, 14.498285164382255, 67.509816819180841,  3.991254353857197
 6.899169587170864, 14.553314645323931, 62.074939148767236,  3.991792553063838
 1.422393914941695, 10.869547121641116, 93.482482266723110,  3.839628842047761
12.185981145329555, 13.964025658223489, 11.631058123667621,  4.344774655225931
 7.279447749908519, 11.518984920277274, 39.653359795551971,  4.064495623792914
14.756195394420779,  1.990851027448119, 20.926969456328557,  3.890902568908050
13.804925903996836,  9.830323264687735, 87.334212843729915,  4.163371761779418
 2.452764112812789,  5.144024150480949, 53.526485965536473,  4.024448373000364
 6.089262230526155,  2.551286182990877, 91.941883510149054,  4.304151508055208
 9.621470590423536, 12.122869063796752,  6.333920594822226,  4.036559754037880
13.616252733132166,  8.946334245534205, 47.921903892483265,  4.089852854125794
15.001371742949651,  5.781135645245310, 63.622699877901852,  3.795410261246611
 5.056485578142012, 11.093302636422624, 12.251830753314087,  4.362718948299118
12.690015121278602,  2.052679690144058,  3.966404870447167,  4.102777121065283
 3.555498756045311,  4.418116632290498, 37.841721458467617,  4.006022428979606
 0.317520519270247,  4.295152046851843, 31.564362524991211,  4.046531886714328
 1.651118992191706,  3.645978112446261, 41.345277392466230,  4.088525173448294
11.383286563937022,  6.887107717418648, 55.804402591979937,  4.019792520240127
10.683219185258535,  2.929255055769422, 67.119275392450220,  4.151108114705327
11.060295969106829,  0.984422496103861, 21.476575538524660,  3.844117915432499
 9.227941222207196,  4.938468960317062, 46.664517579638606,  4.050316151963550
