BANDS
8 8
NANOPARTICLES
cell(1), 15.034
cell(2), 15.034
cell(3), 93.965
11.472708639515426, 14.913089446827815, 58.905342655090976,  3.913507113959013
 3.159542136986412,  4.010889976220715, 34.109839210819302,  3.643095953383685
 7.768035836798652,  6.257121071092462, 56.019819054080322,  4.011223878884588
 6.366686979779926,  2.236852355991418, 57.139227945074957,  4.262677044255824
12.164405093078027,  2.343167300968788, 61.994430750522319,  4.096366847081184
 3.849031031081713, 11.283067289222933, 54.546016071134680,  4.151457518929405
 6.634848209929843,  8.912171473097093,  3.285414041514488,  3.960454660283514
 0.781934188506800, 11.314628091415667,  6.067893302289751,  3.759173903738468
 1.721866914832636, 14.036207494287833, 48.380290603784161,  4.075991729809734
 7.064023310174983, 10.318018484695983, 21.806571818909159,  4.228758980391126
 5.517693843614951,  1.588282136626686, 67.314202207496550,  4.206936080598125
 3.520243411590966,  2.843641618731648, 25.307628430118609,  4.148060945410659
 5.350045818157839, 12.521111462448042,  9.676246656761840,  3.883820465547864
 5.695257333711698,  2.112556929502114, 28.555224150282498,  3.794506781341275
10.389285312574494,  1.418391494208963,  4.462767731906911,  4.229240755166425
 6.823248453618104, 14.114115317849546, 40.084344985824472,  4.199677016278383
 3.208768978923119,  3.115393455220115, 59.898283921890396,  4.286267906097007
 2.431658125073699,  2.902016052333012, 30.534869912778426,  3.939209597314344
 8.657679435341477,  8.736637859475623, 78.827810118448937,  4.231134180186435
14.071113741492052, 13.114663690858038, 38.320346233305123,  3.575012452528165
 6.193381369406793, 14.076076937460256, 19.324526832094570,  3.814105909535165
 2.510356088617669,  4.625806600820177, 77.278006714521609,  3.656747147915832
 2.548754060578609, 13.572919647040072, 64.963131069791828,  3.651935719237640
 5.042391573693707,  1.267982743629003, 37.143208789651439,  3.938480000984689
 1.323304134148370,  6.413060748885508, 87.475747822825511,  3.732497694503625
12.158599108686031,  7.772962418323566, 13.866817399811620,  3.995118716154738
 2.480831844670997,  1.066705613598288, 21.814793231580715,  3.893485060067691
 3.144427325454902,  7.303588723705882, 60.074300086016478,  4.085548918130048
14.090502390151535,  9.364196902715625, 70.198138026295624,  3.764177897603297
 5.939057994143844,  2.987935775377476, 20.612223746584892,  4.371393067054344
12.789085430145706, 14.533918761266731, 25.633613901187864,  4.289676048367786
 6.741884491801196,  3.570712440819715, 53.187104008722137,  4.057630626773658
 0.271180613326801,  1.225484210041493, 82.617702212929188,  4.010053961880251
 2.247756582365886, 12.250781604353348, 44.878532899449823,  3.848465189712732
 3.367686710776996,  9.427009606524706, 38.361603234421196,  4.253498638633361
14.055087106271063,  4.311170724998548, 71.661558376556911,  3.857317891356087
12.572014429179925,  3.430167712715922, 79.773095765464689,  4.117022351891124
12.733758548625953,  1.245918473293777, 30.043261748525126,  4.101715350178322
 5.198257111700135,  6.582958406864199, 79.119504293545020,  3.936927321110987
11.987174172244892, 14.859120877463075, 11.996109547582012,  3.906948997357677
 1.033709148068322,  6.518570215137411, 40.561575827552232,  4.400566625428881
11.986191671796188, 14.100760823444396, 83.247561427389172,  4.008530379589610
 4.527548936257997, 12.719686019483246, 68.196489025280584,  4.034087601636113
 4.647320436181681, 11.197851944948697, 41.887827771844428,  3.920753138309639
 2.579960122136353,  3.973695957396696, 65.860841672278738,  3.743277022105238
14.881645037251678, 14.407672370784487, 41.953001421551519,  4.165180686174543
 1.014997678901326,  1.294963678468425, 45.247295574407254,  3.754799017910693
12.107732431210154,  0.447222593520808, 35.061431380698963,  4.116283758600515
 3.357714056198349, 11.733115371252296, 91.245878082488048,  3.933293573280679
 8.817628924257845,  4.800951379852243, 79.626192301652807,  3.788778637224029
13.957924297393330,  3.402891626637318, 42.597200751163747,  4.149184270240855
 2.467289510209091,  2.767789107521264, 18.186325421745636,  4.102716842329403
 6.379310044724415,  3.167921195741759, 82.736910381638765,  4.095786863853459
 8.715489877429636, 13.625488797952174, 69.059604594056140,  4.697041042541128
10.037196744044506,  6.902581902785863, 10.681065879179625,  3.844025189403306
 6.961724131899022,  5.121704292800480, 44.393669080688433,  4.001992944059934
13.244977730932725,  1.938435106728497, 65.923941368208759,  4.023265433767711
 6.428191332735063,  1.134254217530316, 87.982697744835221,  3.998307902481129
 8.400470314034544, 10.864069738057037, 41.614197717348027,  3.628654608472881
 4.295750639164082,  0.433172745031422, 71.067027714311564,  3.637828859276441
 7.447532029448369,  6.801409494669789, 71.323839071853669,  4.083704349577112
10.365040316463945,  0.043032798503726, 88.329249403536252,  4.189340210040730
 3.312982646960618,  8.418162609851970, 16.209743748582927,  3.734082373006537
 6.185371923982710,  4.880952875146067, 89.547337847614841,  4.099514020305821
 8.810409841168514,  0.772364845971874, 84.724752350560834,  3.782471876179761
 6.670217564897835,  0.798482929793173, 74.759682532705256,  4.014528168132187
 3.983002211770292,  8.877073455658657,  0.228196172750640,  4.112582105746281
13.523616258459276, 11.376512137779919, 44.311705550628560,  3.942477915816118
 8.546875298104514,  8.313355017542744, 62.954879843541178,  3.991454160408483
 2.375634736977385,  1.939735677465831, 55.979489756631182,  4.062654322743227
 0.147989231338255,  5.727985776978138, 45.816012270225691,  4.123958782873478
 9.595268277321393, 11.203189759741353, 65.540623628751192,  4.005068049210783
 4.211051259882410, 13.844142961284852, 57.644548333574413,  3.890929203341400
 5.415791713588977,  7.083339004852453, 41.177861180744728,  4.140798015086672
 2.967028115107343,  9.905086545348260, 87.672739705365672,  3.878875300886359
14.925423943057096, 12.743378587126253, 28.654655986507045,  3.925797338796595
 7.677778276522019, 10.267438793153575, 93.759770725828318,  3.798291643859862
 0.978646054762127,  8.579382211756213, 13.120004388349978,  4.005309371224188
11.953337120561235,  6.359975487193359, 39.531819540807895,  3.894076380301462
 5.463163832442335,  0.048442949056131, 49.925492338343950,  4.036209782466775
 6.755308017644114,  9.183369602745364, 44.716448744248261,  4.154364754085721
12.588042080638267,  8.990412458958440, 50.866409005635354,  4.322376360501002
 0.536768900002426, 13.078105846156223, 93.586585836256404,  3.864015278293606
 4.260468507863780,  9.999081684589544,  6.845618465058057,  3.602647085022081
 3.707279543329930,  5.087187840902475, 92.760774610863521,  4.007055378117594
13.814389765557477, 12.787873723690653, 52.194658108326571,  3.904820999356194
 1.815521949966826,  8.048358132428540, 90.910786158087816,  3.925952332531736
 2.035491053981281,  7.476484291671770,  5.064997838021896,  3.843144864185573
11.741580157491862,  5.140156610179852,  4.612846270794907,  3.625032475343869
 2.580755139798319,  4.136000610275292, 70.081392586656506,  3.896191967801159
11.397428242171234,  6.185724521404789, 76.849423451007510,  4.235620214716579
 5.409279863548788,  9.869314617979036, 84.652924666164168,  3.888266660909908
 6.546522445747198, 11.798750366105223, 87.945201914218970,  4.043687212068311
 4.636986645655459,  6.758469488832015, 27.539841970621037,  4.082037696264456
 3.895426241226487,  8.199079605955051, 20.125786658002387,  4.080062151177435
14.667733803936615,  9.744768663077179, 31.166844755321641,  3.669950587469608
 2.061382528318007, 13.689379646281358, 25.191943275897433,  4.447378542624020
 2.997169695503411, 13.936711158845041, 87.838432096800332,  4.190920360772577
 9.622499404834977, 12.305913024575995, 61.619436344967923,  4.110771753947745
12.622877723765672,  6.240894944422989, 19.608876129609040,  3.826330043148006
13.816545046660293,  7.887888941663200,  9.714819884419283,  4.192015815943726
 0.839416412448081, 10.592268108614386, 41.308918767681249,  3.820654077102581
12.973308060080914,  7.598586866605715, 43.060877872954627,  3.832282625652363
13.259522015102975,  7.324004199964546, 89.480216755973373,  3.862788016758367
10.413912632635101,  0.248912696143883, 73.177140195275555,  4.146810095154082
12.883597212125437,  7.022506731545168, 34.180389851431990,  3.981744821240860
 3.941796982901836,  5.963436401267942, 46.740589848199271,  3.503993420044678
12.021274141413056, 10.551083972242440, 40.825075860944580,  3.795322039165709
10.071968003980169,  0.011175823988192, 64.505987531884074,  3.871689158185659
 9.206098212534680,  6.840502161911925, 24.248998092600385,  4.002961488074945
 5.811527514051679,  4.566836627236738, 31.519967885983750,  3.845138292268579
 0.994708819296651,  7.489719591638001, 64.957374404790329,  4.132368733206555
11.264218755248505,  7.910949326671304, 54.748756146513117,  4.127535370149995
 2.198156241191510, 14.918818840238675, 52.387015465427424,  4.147707512291733
 6.808509527330165,  8.576686676707796, 30.863666249984306,  4.520234057510104
 8.002425207863338,  0.045602387777382, 34.554752836251247,  4.192349072476106
 9.069710299179320,  6.692434938722363, 66.431247767830357,  3.744683183377248
 0.303592494476821, 13.781454764685080, 75.949102404722211,  4.023571637373302
14.216808077536736,  1.968297983014808,  9.501164071931910,  4.039024210135732
 2.738842713447560,  8.380638823636312, 44.021541523081915,  4.089213780098039
 0.155329592435761,  7.184474580735813, 75.916798001594827,  3.795252773062136
11.434213875451505,  3.986524608035414, 12.859917076943951,  3.932629982968588
 1.444310752503803,  0.580034205543368, 68.240931537916794,  4.380704554294530
 3.706664505717923, 10.475956416531243, 28.813929816322336,  3.828216716673113
 9.542541219089802,  1.183323250796869, 51.783135099289169,  3.799003140911974
 5.392858653769424, 12.277765787226386, 36.107294756834158,  4.067131001038164
 3.128149326556945,  4.135217742387240, 43.421825023058503,  4.139852529296715
10.770385765377616, 11.140965037280031, 87.287757429362131,  3.972494278794771
 7.374752671447613,  6.916809031642811, 48.097472712800339,  4.080222605508971
 8.174787546315102,  5.698615344862428, 38.483550495293677,  4.051900009102976
 1.657254713054540,  6.322443012260370, 25.027004472307983,  3.759125640016217
 9.918636715756978,  2.239968782975875, 76.807563639039458,  4.106500707493356
 1.144447116056697,  5.296421955466813, 21.214145255109475,  4.201021347233127
13.575222421470544,  1.704684057739828, 54.136108303641457,  4.425061208607434
 7.064311800231150,  9.528704499728692, 68.267443628895663,  4.113209323260964
 6.953074098925207,  8.926663427626004,  9.316248289247984,  4.007113833643478
12.579885678835597,  9.538734141880685, 63.037959776796754,  4.414432345657186
14.298219373963544,  9.520637145221421, 86.387846438463640,  3.990086160588096
 1.631102400267255,  1.819132578750088, 93.687712066411649,  3.953502168063463
 0.404996369136499,  9.104093558946909, 27.369515490193638,  3.853990822307165
 2.094558440307992, 10.654605418961127, 58.220277405958996,  3.848364681645565
 8.725313385621146,  7.987969544341022, 51.654474833612610,  3.794786135556051
 9.073637549443037, 14.155942361641808, 48.618214894076196,  3.803975321190704
 0.272343396947424, 14.187282341834807, 59.782128200359203,  4.081840165514237
14.362149280915377, 12.835609587867678, 22.012080851942052,  4.026947183863829
11.291706705761689, 11.497918948577849,  0.681580650621789,  3.939664062779587
 0.218459357783236,  0.584651310025115, 72.307692880469105,  4.073252983977723
 8.076979981115450,  7.924150515948504, 87.187554061064588,  4.401942646037558
11.985963864916831,  5.591587273377479, 86.340096432313814,  3.740009508189608
 9.503389977257539,  2.868246570985016, 67.232709454696405,  4.104267600594865
 5.177193404863534,  3.964477956209039, 49.576425134016482,  3.846799263634356
 9.369819161706920,  9.148822888223759, 58.494197459462576,  4.215029704077833
11.420591999079191, 11.581188882948940, 74.368742768704067,  3.881264874821499
 4.956184636519913,  4.245834701528875, 73.203073698420894,  3.929626466802308
 9.655488767839516,  6.526877662273224, 90.836965643232688,  3.991902534447627
 1.179477004098748,  1.601300770021924, 63.159728881041850,  3.961975970966425
 4.169523611390879, 10.079530011011830, 65.194403967303060,  3.991426586561829
 6.282171710193079,  1.829395039174723,  4.378705615400864,  4.020218126222433
10.738916212069062, 11.675037135986189, 80.509578966196997,  3.711079705311819
 9.288069717937848, 12.434492008356774, 24.567974712085409,  4.005067407806552
13.574334349936072, 13.114798179629203,  8.675000143316900,  3.961360874152864
 8.554143708089004, 10.858077490302959, 33.898789033339021,  3.811552472535823
 5.808327252935436,  8.036641686369322, 35.129124371586485,  4.304582490011723
 4.336325427628963,  0.458291675558889, 91.269040167724015,  3.765582217895528
13.113692333183536,  6.455706701657292, 23.679470106032042,  3.882613768681781
 9.151651896988893,  6.598394386668561, 33.552055836630196,  3.628072133474779
 1.860540367185151, 10.623300551464263,  9.756243138325861,  4.043141202306234
11.772881381774816,  7.164993500060326, 80.709962773406161,  3.695674527884623
 8.151924380446470,  6.604708719954123, 20.389014405984028,  4.006469447515665
 4.387368621984096,  9.445915461201709, 47.882556286332445,  3.749882313069531
 5.261444417952214,  6.122385724478336, 23.408402961781025,  4.133401194955721
 4.838049842757535,  7.413946702578417, 12.587007917383335,  4.121594547155537
 7.334088578221463,  7.153672325914182, 82.455202617936777,  4.059994098533447
10.145005287636353,  4.374056518156495, 73.296392317877633,  4.122838243099657
14.416757666034089,  1.823662209224981, 14.621363942560833,  4.187328701160883
12.535499150800856, 13.301047044413036, 67.168778325065460,  3.846325803453835
 0.500915142035987, 13.353531556848059, 55.796140249448626,  4.071857490380821
10.538173626676496,  8.366338945606218,  2.970510100658158,  3.942957532558797
 8.973056850771933,  2.535404804578730, 91.209453464860886,  3.874272166939245
 8.092748248401072,  1.042140045461906, 60.792287585237958,  4.154474915802525
14.317887983510770, 11.191855435611753, 90.207510789202658,  4.266004778873451
 8.132767855855375, 12.730827641083215,  2.840189778536128,  4.072111311624860
13.991169375685848, 13.638824774545458, 86.789230078806597,  4.166937683677457
 7.711780146293958,  9.522869948305500, 26.811135207664730,  3.988714321961948
14.114393341792438,  0.773037530460166,  5.782614806423108,  3.774825548699919
 6.989225439415161,  9.484524182834752, 17.621710506526355,  4.279921626067031
 2.281436487558053,  7.868280490146445, 68.714542153189697,  3.769850474238458
13.869729920513342,  2.936285837618856, 75.512723089902579,  4.323751774200908
 0.731983091943670,  9.146275788482319, 22.572095092571175,  3.947112902106726
 0.052813104515084,  0.347778019010065, 90.329398827603029,  4.017393712163648
 8.613885518016904, 12.857945775624090, 11.833077178142537,  3.928100318532148
 3.661144363917241, 10.785818181273886, 32.732541894000086,  4.022226447371827
 7.912990222579026, 10.353291838053721, 54.741116485144978,  4.145929615352855
 4.824286801365119,  5.544810427417096, 85.719603079776519,  4.130997977114979
 9.713787284763949,  1.072301681552548, 15.050027739178187,  4.097734879279439
11.637575590844241, 12.017953114503056, 55.575444925036557,  4.168467149740326
12.189320488923277,  8.729317130320336, 67.022376945066014,  3.722500344153032
 0.525524629244346,  9.554878914655257, 47.258949505411323,  4.072150708342179
 8.812694746626585,  2.014394111870804, 30.982059235575690,  4.106872983817742
13.760454506727164, 10.106588205388226, 82.427531072444566,  4.063498071665764
10.591183904845760,  3.725097307129094, 21.980324410042083,  4.181624353860519
10.712056308194967,  8.308077315943518, 84.095551670181266,  3.753398292166777
13.953890715171246,  1.955088908237191, 20.292918784203518,  4.016473430696037
 3.936287993902225, 11.433404347485489, 13.322501006019650,  4.224324831653510
 6.185150490221519,  1.210246442059962,  8.375952075367321,  4.058786244745843
 8.822846467724402, 11.724635139900553, 83.861545486973981,  3.991953849802825
 3.315563803960838, 12.140813077795999, 21.391566475892461,  4.133204055588046
 5.004288279660483,  6.320916670140251, 63.695235308760964,  4.269763189656554
 5.612542443456091,  5.629739553292023, 17.444094285754378,  3.897863964499370
 9.316084319771464,  0.970702390502179, 80.744381271764738,  4.241735874402583
 0.931275720749200,  1.539899784306223, 78.734547707566108,  3.849341816878117
 3.404518647217742,  3.804246256623508, 14.249853320994292,  4.234715535345758
10.392423381891861, 10.369564833429838, 91.067680538721632,  3.776271130226309
 6.037133025394069,  3.069118085834165, 40.743357177359911,  4.024034123842420
 1.885002291281027, 11.953629425999024, 84.320869418503136,  4.168870866439092
 8.178767689676281,  5.180276072798313,  3.757549572784438,  3.646233834565540
 2.085816001656233,  6.926342077369761, 49.921134673162115,  4.008101354864287
 0.615245261752836, 10.114866984148197, 18.721000890535301,  3.996374251214315
 3.668773607774200, 12.951768927096769, 73.878883166160833,  3.992820119523700
14.968418134395048,  5.267040699139241, 28.424636562945977,  4.130143401415673
 2.612161402627171,  3.937588947569334, 52.501748705487451,  3.928080020201120
 4.107482195010746,  9.882164500722695, 24.824578934403959,  4.226559661923009
13.326202405793932,  8.411596580696775,  5.723775226522712,  3.892758061886569
12.608653147972609,  7.810769167853653, 93.447118182924555,  4.235810467091630
 2.775298632900403, 13.499228390846238, 39.157636885182768,  4.125342213832734
 2.015921201902795, 10.375872779463712, 77.297819753078372,  4.058897432046392
 9.786656854252584, 12.273788080704469, 19.189402950224977,  4.216978307530407
 0.980122443102099, 14.096187318850923, 11.853444727285725,  4.256866816432106
 9.896927399363465,  0.419563431581748,  0.573918488165253,  3.838066326021813
11.969942805988982, 12.317697506724928,  4.804251070649741,  4.567157544461541
 8.963537919155673,  1.821827435588591, 10.957729443772344,  3.620574895589984
 0.659387882752898, 10.963703512531827, 67.038416760683660,  3.977899356470761
 8.098212715628279, 13.053517638538221, 57.891079425046570,  4.054307925520185
 1.516186964217082, 10.984313868818020, 62.192611403255270,  4.194684215940711
14.493975264991093,  2.601371119694575, 86.279700106282064,  3.940542032943595
 7.458430694960891,  4.176397094341637, 13.751559794025496,  3.966528951241512
 7.003380589951863, 13.108381112135733, 15.565766460447806,  4.045025828196563
 3.946111611421820,  5.519544880058968, 56.603196645530623,  3.850188893833157
 2.884069236083953, 14.914150581249277, 15.400051988860646,  3.946335038134952
11.944617813681049,  3.344244986909627, 17.296350082766541,  3.692630004047813
13.018813727865025,  1.584129026108489, 39.098261849143334,  3.769021748006119
12.669587443675026, 11.286256849433071, 59.338315044357266,  3.769988837072664
14.554681490133099,  4.997693297973315,  7.035550469506339,  3.800566301733179
12.342243720824699,  4.211776852364638, 47.981084617182148,  3.631708834739874
14.354823092863132,  7.785730575805218, 58.614207520480683,  4.131664132541606
14.684897588165535,  2.832841817403324, 24.104627361061148,  3.941575087679507
 5.972561116158453, 10.970452232562000, 76.590494096817736,  4.062252661825434
 9.644870601682673, 14.008619696057984,  8.094358936342985,  4.158115495840186
 1.592131813660506,  7.099576970715707, 72.375215943248847,  3.832172926583170
14.542352856801786,  5.125465430165707, 67.903926416202765,  3.866700301031396
11.535503421478211,  5.155113746900883, 30.787624476660447,  4.207292966541185
 7.870105655839938,  0.956335168973765, 43.871354039610694,  3.906346074349375
 3.279543438745113, 14.357663197051693, 29.442147613467867,  3.709408268509204
11.657427874883503,  7.643773788357670, 27.443962457044051,  4.111138632807096
 5.507423982772253,  5.726923920581407, 67.830269101950222,  4.133878550068355
12.272706831252831,  1.440568691318365, 69.737109858344425,  3.860198537913214
13.604161027776607, 13.624733022853272, 63.404565321401257,  3.999690499192722
14.691394392674898,  3.378427801234788,  2.946009450157955,  4.006883102667366
 1.992557967988220, 10.846779274778116, 50.881424029189894,  4.047079234143736
10.975220038973578, 11.693980700296681, 28.262466048371419,  4.250767894254443
10.064331005076468, 12.468996884552425, 37.528845191812685,  4.677395458889653
 9.488836231395798,  6.282382438671906, 16.538436582847002,  4.112658991805579
 7.404497270369190,  5.228627471908850, 76.099520489282497,  3.828555225200280
12.815162552611156, 10.469187863476430, 24.822450665520563,  3.924348043371976
 3.839677430816878,  0.132534309189640, 42.732165739096331,  4.039170524757015
 8.611207359631912,  2.976365418656915, 47.513624060016973,  4.257267443942257
 8.381806945082072, 10.753799239657390,  6.209257131531259,  3.737791560055656
10.277627113193599,  4.149196325359668, 83.187736094320940,  3.984360427312256
 0.931950798811059, 12.906091658625700, 80.361310669772607,  4.174625788542858
 0.094231964945734, 10.433853384476317, 73.770559041929573,  3.971855982565637
 1.031421702564322,  6.490997941716592,  1.157577220773224,  3.662244920711634
10.185076353793034,  3.483158967688248, 57.956297664302099,  3.927518793186653
 8.987694862254344,  1.604777328225162, 38.004875249707553,  3.631309317319895
 3.500801271418033, 11.254065187860459,  3.397549487472706,  3.861109724228220
 2.458928748762582,  0.227079291339375,  3.511535218372676,  4.420853308736981
 9.314063430990412, 10.329829926091449, 48.684211783542167,  3.857370503419991
14.196684096592881,  9.203229839004662, 37.794594160772192,  4.136394854393345
 7.277231459293652,  6.355640471128641,  0.168994834326442,  4.050864566021912
 1.361425153933163,  3.084852425982863, 48.757177739830233,  4.148192963446244
14.441728011488317,  3.347499115802609, 33.204675733110726,  4.165864141105103
10.768487097374086,  4.315163590595016,  0.924576316651913,  4.166760095209216
 0.064507779682172,  5.179559807247481, 61.703174131625936,  4.056701979874023
 3.027255218431089,  2.849914085518702, 10.266638094910149,  3.989460707632619
10.078825111127525,  4.698409600025014, 50.730228816846513,  3.555472758552069
12.809972664735655, 11.077339356898989, 34.368179722886694,  4.130830511787021
 3.834024455315173, 14.116778818030495, 77.804954578111619,  3.891212405030515
 4.496959485380013,  9.688892096867409, 71.494703461464354,  4.137986274146327
 1.472837640043777, 12.270053168714298, 70.620213328278240,  3.815447736165393
 9.209971193013249, 13.287590545776897, 77.122434330505172,  3.961538970129017
 9.309267189296039,  1.254645539619660, 18.988825679466505,  3.815632190685977
10.802093370808718,  4.152824983344924, 35.905259021464957,  3.896870501589252
 9.897879998162999,  0.549030323947562, 55.481895522345098,  3.724299598558936
15.016900378247877, 12.230888144580229, 15.391456505783854,  3.939651435304748
11.947970850870433,  0.896793833283445, 45.563742931732406,  4.510121606651724
 3.901533071234044,  0.358448282301627, 81.438843651520344,  3.812049470387246
10.999009685997367,  9.187648849596982, 21.566908649785649,  3.939253712802880
 7.589324043373687, 12.245198920001636, 73.073073748231693,  4.082556586228566
 4.808627461440713,  1.762787587050522, 46.314270415432084,  4.054682310355464
14.228420037135274,  5.138381845567628, 83.139622282956338,  4.122683293172840
 0.133369601627046, 13.982786001750972, 32.523987305043114,  4.173252421157327
 4.959406038067261, 13.432650028174338,  0.505176374531787,  3.926673187606046
 5.252147369737546,  2.275877785145279, 63.342825046813076,  3.859408579134961
 5.673128888948288,  6.511119657560661,  6.319518021598857,  3.991648442637546
 3.798765141390393, 11.861033710879525, 17.494486317277900,  3.664756434046915
12.979800050571656,  9.970154272175069, 77.728660460027072,  4.154185400943914
 9.287171141031052,  7.295867676730578, 42.127943530073395,  3.774857515665758
 4.039908167024150,  0.298469381004255, 33.200160767774072,  4.175342526115555
 2.702884976718151,  4.175330381396189, 81.181621314761230,  4.121811082399740
 5.698934329228279,  2.550010847668573, 78.640651406560508,  4.148376597698603
 2.827184787374875,  1.617115441680044, 75.083505219072407,  3.808328006504306
13.318588502374345, 14.975738881900718,  1.975737378230579,  3.618704277408119
 1.092775512323044, 14.126962612311864, 18.745571537166096,  3.794992044064537
12.363591087240637,  5.649782118778078, 64.658501074689582,  4.006353049954792
 6.844160440956328,  5.396297434762256, 59.939644180434811,  4.222171323623090
14.186009517349611,  2.883085392103333, 58.384452462372366,  4.190393464791593
 7.004103304304830,  3.958638070295618, 35.129918174856037,  3.837646827133432
 6.395793676137610, 13.436010180686061, 64.286358208485353,  4.164233640454521
14.907870190360278,  4.841233273731013, 91.958686581014817,  3.837821564138420
 2.013128540100408,  7.893453206433651, 84.001119166974306,  3.944552203848509
 6.716612710544475, 12.966376449167448, 30.947391793266100,  4.256165801937651
12.736009098860682, 12.493343035559450, 48.192747829879487,  4.281635965473837
11.564620721383955,  3.503799641740862, 26.694120204809263,  4.274730510349993
13.050527300243779,  1.117929677243621, 50.036640448774371,  3.922296794210095
 0.585985241148956,  1.572829392844360, 27.525047323833796,  3.579995956662348
 6.091390263384010,  1.825421082144692, 16.622172243696323,  3.941368079187998
 0.060975715284222,  9.512249282152256, 54.287611185529627,  4.222917632494427
 7.903378178797531, 13.641987151022212, 91.498009561182187,  4.271400483447790
11.846376595085115, 13.880589557743138, 91.749569764936936,  3.639862412751595
 5.772224668405943, 12.862682969184316, 46.563101779458293,  4.022179149582620
 4.173889756069459,  7.533387787326985, 75.348976153425028,  4.056826821341390
11.109666622573235,  6.083057736071471, 69.708199565658390,  4.026261920465121
 9.145069460442507,  0.220298120375946, 27.407696970609155,  3.916083895716822
 0.067056618229300,  5.823599340880913, 16.248814692891415,  4.520746265324745
 8.383294053279975,  9.246005998900554, 13.623598244884345,  4.104596616265222
 5.503211375663652, 13.790441693643658, 84.611871173795478,  3.944371914843205
 7.262547226075649,  9.406467923698377, 38.510046757082286,  3.532651152129827
 8.745356146594622,  8.685855579310109, 74.687413229241429,  4.027706691786799
 5.897149869370121, 13.062403034846660, 26.940569348274700,  3.913826612722663
10.640919043166296, 13.427177003845305, 31.929467592650635,  3.884821226229429
 4.889091781668560,  7.390146210066088, 53.032158311884686,  4.404229123413145
11.223396405970872,  6.170315252142118, 60.777488113349364,  4.131912828289639
 3.791989473735438,  9.909620444202879, 80.968710108766345,  4.146216928264736
 6.063186592317075, 14.661191070112812, 23.249572047184049,  4.125411777521798
 7.560475834018538,  2.431531674744297, 70.798462201857404,  4.032931205580287
13.846404827967607,  4.990556477895739, 51.444503560543147,  4.065412802999731
10.760825107772744,  3.601250708880665,  8.022348204709411,  4.102393756878989
 6.132329440386334, 11.155836664099690, 51.034542630764641,  4.223030325290521
 0.174873187582985,  5.471180574494366, 55.304964573263646,  4.108801610083663
 2.690263824872010,  6.714376341176242,  9.015507175037790,  4.053236071774551
14.574077617054499,  4.583283709649098, 37.117091183718891,  4.042725002676884
 0.565741864129169,  7.468520369993814, 79.860087593138715,  4.153622956397852
 1.424243109112118, 11.865254700316672, 35.779982449348744,  3.830895574174028
 5.329572147488192,  8.945908906267546, 57.319909297330291,  3.675502331666440
 1.893116803056929,  2.387822484666922, 39.928354026065470,  4.050495772183631
12.004745362291111,  9.368888540178446, 17.464165532027984,  3.857029662296876
 4.301857103143975,  5.143779672719810,  2.778137730349934,  4.028981961542816
10.167045523105296,  9.844970361647581, 70.946436424980973,  4.096169728216003
 2.682191548009920,  2.950057063483594, 88.673022897434024,  4.077330519938091
 8.669772291707186,  3.966873965082439, 86.673354810837310,  3.665009231610209
 9.509732715211978,  7.179998877466643,  6.812947852872327,  3.829096530631071
10.404385473868892,  8.380271494471168, 36.746183467816628,  3.642388412048532
10.961920581220133,  9.103466831070929, 31.401304473489876,  3.849012896197728
 5.907765906667714,  8.763899952935839, 90.654597781786848,  3.943020555083839
12.749683065559379, 12.853066158484660, 70.979044692723221,  3.822635637133585
 3.333626112949118,  1.935864958211434, 84.925980042749401,  3.776439784643324
 9.601282088583515, 12.257032724244720, 45.094851837962977,  4.244155433809080
 1.703182706202969,  7.385097421224786, 35.170952711892596,  4.003862666238757
 3.052231250776014,  3.430445292362589,  6.248554259564401,  4.085866139805065
 8.776177457514462,  4.187144604404690, 63.421415287994982,  4.079872062226713
12.548582093640759,  7.554568681573244, 73.177452605040216,  3.850182828813441
 9.934280668959262, 12.395836172410762, 51.933561949437163,  3.886727289133046
 5.675373002277034, 10.715260398488093, 60.973400418249582,  4.467101409636842
 0.130817533202243,  4.865908973847059, 12.052194122822771,  3.900099767093022
14.816877715021109, 10.065228222754957,  2.311193084736954,  4.238880056130189
 4.011787497458222,  5.203275068549368, 37.745798776340500,  4.151477842946953
11.011685010922333, 14.812412234880114, 22.032167537141291,  3.740402288267700
 6.301467768582206,  2.252763442409013,  0.272704457228596,  4.202161501713940
 2.606045132939915,  7.095277136726811, 31.157512306946117,  4.239185665675203
 1.086923275991366,  0.853059640130938, 36.157268125474047,  4.243650530153158
12.597496885566427, 14.543148459478907, 78.754998090410936,  3.966246945563761
 6.897023497044439, 12.590730285647199, 80.377015238580867,  4.143136146523760
13.042801208703743,  1.910930415771409, 93.023540340025320,  3.413099090278498
13.168496095031905, 11.124866252628557, 12.047527413460951,  3.878677109885726
 8.193505431956480,  5.107640087282618, 28.442513733963491,  3.955955505163486
 6.409300979448154, 14.532738615059124, 53.904283976251364,  4.213135834180070
 2.345538949742605, 14.597151872201012,  7.826256921806587,  4.300560966592560
10.815305098798701,  4.816593425864572, 44.691370454127188,  3.719804887742972
10.381214962343172,  4.133345211657734, 54.255633003150891,  3.589595460916844
 3.815206804922795, 14.353894419880346, 61.435109848329468,  3.741328718895224
11.852156515232156,  7.883323694029145, 46.862018856205154,  4.072816307429964
 5.627704505490281, 13.294327215442758,  5.836556866487482,  3.787820081279930
 6.701020041748657,  4.940351633798342,  9.888056799517660,  4.050307025243465
10.829582632748192, 12.148562716504758, 14.997083550474288,  3.921934113171422
10.725253089673824, 14.309802085912853, 41.553576135528459,  4.143194479586960
12.554005673005479, 14.651818068027479, 17.434703094125421,  3.862560213177209
10.750376982818802, 10.410530311966824,  9.164556624809771,  3.666013063298454
 5.590422321230746,  0.476028545219417, 12.406348275596008,  4.191466372109254
 7.680869560297745,  3.086690959213672, 24.928821837979608,  4.199458076986690
 9.998931142193939,  3.340864521735821, 41.228837935746860,  3.961361402775885
12.335702753177909,  3.392540104888935, 89.456005022421962,  3.898848893304083
