BANDS
8 8
NANOPARTICLES
cell(1), 15.005
cell(2), 15.005
cell(3), 93.778
11.103317242162626, 11.517708294860807, 67.752671074084191,  3.849331348629634
 2.156320694989980,  3.570227577579947, 50.615122333991906,  4.095343880684642
 5.778475010242391,  1.568044032345934, 15.053074555933298,  3.720975185538928
 1.440273333152152, 10.489996252233064, 29.753685942699075,  4.242438559945907
12.983607211522108,  9.277191715281671, 76.569054150507768,  3.961486968761962
 9.085387793212794, 11.017001712962141, 82.921507507786046,  4.007368988646871
 9.549330604052699,  8.799103031760502, 54.291033580190117,  4.035113448010503
12.040664713325208,  5.933099163202852, 56.362721720473040,  4.593822631871703
12.538823386825893,  4.753220360200298, 73.501518930570995,  3.987586162571533
 9.827001843331953, 10.537904083217496, 18.362893726114592,  3.797177763660437
 7.942408282384994, 10.668114528392463, 12.996845238507412,  3.849234565949620
10.830314716190799,  4.536853171042858, 52.480557947625257,  3.975411173867841
 2.347878341594280, 11.353178653888246, 86.215130726125466,  4.162790403337134
 0.845199442105175,  3.675318705744323, 37.585421702543279,  3.698310036219819
 3.580549806748170,  1.287213216854441, 26.810780929134140,  4.123927602512256
11.069177273892295,  1.451170270259685, 79.134687416152630,  4.105612930003467
 8.163570167367652,  8.797361111248643, 65.148409226778895,  3.854986874796182
 7.605536305740268, 14.820375131717128, 31.171005049857360,  3.683570864756152
 9.054931806880738,  5.334301532032996, 10.464250152037145,  4.203209222939281
 7.045082939992946, 13.761738278195365, 43.694821633973149,  4.269275114545945
12.437552575304496,  3.821590948211444, 16.985684879947421,  3.768969906471451
 5.037143829592943, 10.864083542437417, 36.763300818491722,  3.732761138447831
 2.468120946904802,  9.135078309476821, 47.974512868819673,  3.781901371729123
10.610595862043816,  9.641708922564280, 79.605756183456066,  3.763919395920394
 3.736354267678791,  4.040087156022095, 40.138327872760648,  3.876860002357369
12.864787389749569,  9.180837053823616, 20.269596633437292,  3.824193257264635
 5.217354215235182,  0.310615035512568, 47.272696050299380,  3.992447857492791
10.584301487517498,  8.291834454345890, 73.533878076434505,  4.021373793791771
 3.462257760170827, 11.353277480395624, 16.417319895328895,  3.782738641478156
 5.264574453844546,  0.935281622682390, 68.290425761367302,  4.067252402791644
12.190307091098173, 12.925636052086826, 81.376989073101726,  3.894679950277804
 4.309279123607869,  6.699053706338239, 19.320614189341359,  3.404655885067993
11.593903960523518, 12.390166638224780, 44.363665441358883,  3.767903098371707
 6.408413439377855,  2.620549123870471, 84.223344796502289,  4.076939254009478
14.961848880960897,  2.916907163730339, 31.755322852390815,  4.023657413056733
11.303947883341083, 14.778985055959920, 38.583863910555884,  3.969291375339853
 9.364361424607313,  1.586688625292447, 18.033468455337356,  3.992673647608323
 3.711211325853612,  2.168595754135005, 81.220633452676068,  3.836436409666432
 7.270103685360079,  7.972267870672672, 80.909220781495449,  4.143939629512669
10.732124698239691,  1.387352986136172, 10.248635330063408,  4.381465166367172
10.666413024026177, 12.612563865418039,  8.255370507172440,  4.133008459280092
 8.718081924356046,  4.105888418984395, 81.196304626382840,  4.093957160664431
 9.251396807288538,  0.345703048559968, 82.550128333509875,  3.931482632710907
 5.567521175651049, 10.763362178865838, 19.923735452922575,  3.915131370825835
14.904816005817004,  7.950664439015632, 27.072746737145948,  3.740224503954602
11.083942368316007,  0.569962870280038, 90.413876479067866,  3.923636600579005
 9.934422532477289, 11.074505910648311, 87.573582944685285,  3.677622870179827
 2.912418075233112,  4.054008095708529, 44.059549370215720,  4.090089136517730
12.176698961673548,  3.678137738700367, 87.917369841437448,  3.904477752916984
 0.985916276919185, 11.587548917275328, 13.496604166679342,  3.856910734052146
 3.678663911925208,  7.207239671450600, 64.230266370111423,  3.895326734243085
 1.195144976086842, 14.793734371863037, 51.237350266492292,  3.794677747530816
 9.198832174327112,  8.927617888613241,  6.962382750513658,  4.173735492491359
 4.964361569393814,  1.357191119477324, 18.934287931616844,  4.181295751479689
11.655033020477696, 10.060831564634867, 57.399368815272396,  3.869667430866624
14.570257575547688,  4.081400446090324, 53.564983961975564,  3.804976529173663
 5.859383955249163, 10.606682316998237, 92.036439646088184,  3.966129523600982
11.489008400461998,  8.042501903514635, 92.962749410124616,  3.829538159072151
14.517213274608913, 13.844655114529147, 91.775552377030465,  4.172479225597196
 8.697016749001360,  1.338550608281549, 53.918948953886009,  4.219925561051821
 3.546232519969086,  7.502547364642348, 41.451762203762371,  3.480802217479001
 5.288715908429153, 10.097338413637472,  6.431913925842635,  4.041327167211728
 4.072883745299319, 10.755078867347475, 67.431589349045240,  4.150069281215373
14.902259113843924,  6.326274287655925, 40.850065062437601,  4.170870823736929
 2.062576514582751,  7.049657019850890, 60.375436995032111,  3.987258613063544
11.231033785390835,  3.390976646759316, 59.759505971971102,  4.029285911808770
 1.904780005463518, 12.422434655972022, 71.137592438620445,  4.016410802049931
 7.056491574253757,  2.544405716702839, 91.211369332786575,  4.021988809978632
 2.024707472791209, 11.907787633005695, 81.427750647613180,  4.065752621386211
 8.030840372847521,  1.494360690693685, 72.673078882865084,  4.119038105508318
 7.130891535321127,  0.199483999697387, 24.930039723055593,  4.163112240546925
 6.962988256203992,  7.836192147392596, 35.241611807079586,  3.927243590191360
11.783611740044908,  5.815996623965135, 78.829469556111306,  4.369887522127653
14.421664717764450, 11.554340999005824, 17.175534334785848,  4.123142124078915
 8.856187781548584, 10.442300494436378,  0.811416841085943,  3.905488274872595
 1.282138731830049,  9.735179810943867, 57.322812720545762,  4.080725303327037
13.836873158954788,  1.040975818924591,  7.469399289425176,  3.963689127710513
 9.340366906167214, 13.895757333308095, 47.211689756876467,  4.087216141644639
 5.226798369363389,  7.062982725772948, 56.809222544936894,  4.167289176967826
 7.668564947079073,  3.592891987694652, 21.193091995943124,  4.128409422930232
14.214000900129792,  7.398653700053154, 16.931448292353764,  4.210468080499666
 7.622368485061481,  4.449999259114070,  4.161143208918407,  4.307843095724047
 4.619781195309660, 14.776058596961249, 53.868226853820275,  4.487661045808383
 0.413520536581682, 11.603530170312791, 44.953385127054133,  3.974668269505798
 1.062419664228911,  0.267500463814073, 75.214888055466872,  4.071489619545051
 4.155735871045025, 10.799938957195831, 43.552675976997072,  3.934816351742870
13.826980641079892, 13.267987547388993, 41.408508234150176,  3.844059123658897
14.915923285262673, 13.400289811466871, 22.771575523788979,  3.990424406207918
 9.198694366176483,  6.617873070283089, 23.585998376934473,  4.151551552595114
 5.888106542902196, 12.630565436789613, 70.580344837391692,  3.985278363100226
 8.781918491331059, 13.080195061960927, 79.298935841747280,  4.048955307181231
 7.549113144635654,  9.604858851220305, 50.824174176284778,  4.105240857038407
12.370421392522090, 11.551432324711923, 60.871307846247113,  3.813464530489445
 6.792596911083715,  9.961534088699368, 73.603138709645620,  4.262554587892338
 0.552393225816332,  9.477427369511085, 64.324980525082637,  3.813033202803908
11.140429624482030,  8.181542261546909,  3.280480451455769,  4.177278592285357
 0.454144759132590, 14.397632176567241, 84.204718621768862,  3.999797252778457
 9.148096613063242, 10.133364717812114, 37.577322878990145,  3.930669360092608
 2.392835057657348, 11.528830281022936,  0.086015103193230,  3.985380664428724
14.632015087700131,  8.166144099283065,  1.298422856981493,  3.680866952232091
12.532165815460726,  0.869297875478443,  0.853911881670922,  3.856837742586254
 9.907321341840914, 10.095520992676851, 47.744030574200295,  3.670319238486445
 4.034090558538690,  0.651407737953548, 72.466952716129285,  4.043395158606796
 7.232083614746176,  8.374974486236844,  3.573116060680015,  3.666697183697157
 9.855817062855495,  4.420761774563366, 84.947118138440658,  3.767932687861539
 5.952022840636539,  4.117688178357781, 24.930053855086321,  4.007490245299627
14.462121228105334,  8.048118155243342, 12.893893834702691,  3.939109454767623
 0.298047341388318,  2.109161596235754, 41.332967466839428,  4.353634148564026
 0.659372664136103, 14.475612694438892, 10.740010508898868,  4.149875813779253
 6.734043474888962,  2.110139126011088, 11.000199750012053,  3.753352767647326
 8.950107424122063,  7.013246169488561, 30.752841232622437,  3.962355773867979
 9.166388334909801, 14.198781082499536, 93.547406704375689,  3.913729828327075
10.849467740368684,  0.417460411611994, 42.376970811572676,  3.551143375608818
12.596670729738820,  0.999315581601445, 52.276027075344274,  3.931487741045191
 1.583152489765299, 12.583092168989207, 34.171351425487245,  4.052496619631412
 8.410521450721868,  9.413872782394392, 44.043764659933871,  4.404929090940994
 7.367467163399526,  2.744810296773572, 44.878213121086809,  4.068698559814418
 7.738388545953776,  1.418902279312752,  7.164463286239834,  4.207277507126485
13.814701769695221,  0.683047812562337, 25.933433462340695,  4.003698924588185
 1.712743881858048,  7.481795377832251, 67.585937400025571,  3.898079274402518
 8.433321871870287,  9.278794702424209, 69.789168076741106,  4.097006872366329
 1.193791138048097, 11.275527773106790, 60.989071776161047,  3.850315359591548
12.068123358766893, 12.800071919614380, 12.215618987907668,  4.212901925709999
13.746475163872464, 11.687698238672501, 88.276376854965321,  4.138364827173387
 3.849699580886207,  7.515722237025633, 86.393434307948624,  3.806391385769787
 3.052204175602014,  2.328233584070112, 12.400616965308700,  3.995940508828457
 5.050287268260679,  4.133994543651305, 87.607168830193714,  3.770039319814994
 0.252416632933752,  8.197855272389180, 87.287571731745217,  3.707727675129223
14.618366708858261, 11.201564022759944, 50.515743089190337,  3.960604564919974
 8.302763461467615,  5.692200792169472, 49.430718099979195,  4.232112750057806
 2.235115889506218, 12.956414565397287, 48.099279005737529,  3.766329671889134
 0.322519253494791,  7.234912790663093, 50.743604772654912,  4.102159406000021
11.253713084003399,  1.228862928270591, 31.419316280385129,  4.140639693383308
13.725512641106612,  0.405062506943846, 18.668114503515639,  4.237829719182045
 0.077945974677422,  2.570459156876248, 22.353450086154112,  4.307257576512447
13.251337942229526, 12.646272025425422, 64.417737033078538,  3.812317939271420
12.714830093624132, 11.538360761738648,  0.934132232347540,  4.084929606228164
14.196183909679823,  2.861645328251601, 91.289702152319904,  3.936371945790938
14.891023247892951,  2.033902915052041,  3.772070034044095,  3.966043301186421
11.168492833851950,  2.279037568752961, 46.063616513724334,  3.942190714722902
14.060392592948526,  0.193624280654736, 44.661835390086793,  3.719238075874424
 1.642475199548832,  3.180090750706844, 84.381894558366767,  3.940828176937612
 9.858508078049988, 14.176177322753343, 62.828966742834957,  4.205987790281129
 1.508802887055672,  4.190712884065820,  7.423148050883209,  4.239655334502299
 0.161857480539206,  0.303197183450649, 79.872317008392329,  4.263770836504384
 5.713515899251913,  6.940178550448241, 67.727801815912102,  4.170734671064873
10.223925151096907,  6.901081735496068, 17.296779509272746,  3.802291723623275
12.711551071516180, 10.046501157747965, 39.353533257844944,  4.029539205668961
14.288688830085217, 13.160012564821210, 57.918274221364989,  3.916458662059701
13.820146611680357,  6.872202495593155,  9.186216994531257,  3.935067140498842
 4.316743995816024,  7.242025173558139, 75.770473828518945,  4.273091164734502
 2.177883105333257,  5.377385843145088, 91.851568320201693,  3.897622614416074
 5.592231863255586,  4.871629730536444,  8.203502637804517,  4.118411110393177
 9.497402158031390,  3.563680535123070, 75.959807427972891,  4.134528501001200
 3.886543571141587,  2.353651983970463,  4.533614907409115,  4.064176980577318
 7.436387537842771, 13.690093190334331, 90.002143896478898,  3.954735210399219
 0.392219680736054,  1.715697949696850, 64.387565041987600,  3.888000139239478
 0.745007890819271, 14.637411370640040, 29.462875187466921,  4.139470228564107
 4.333330626236470,  1.026156374332024, 37.915563281666110,  3.702350482499896
14.045799053939216, 12.013694124625188, 73.919703638294891,  3.922979121899238
 9.696291794866763, 14.817253294764424, 28.006625439483670,  3.872708308992597
 0.530368734467260,  3.674989415096666, 27.897233854776879,  3.893828880035007
 4.726930160528977,  9.994855547217108, 59.660977012795549,  4.070058733156634
 1.198339252270974,  4.427162891724109, 88.131607628600605,  4.004275005837998
 8.904596999868120,  7.673914941719763, 58.622689744731424,  3.781599415542205
 2.227524347209350, 13.115560008891677, 64.521530269287908,  4.199778883742828
 1.149703975842199,  1.299952186692368, 56.061787393868684,  4.250759362877521
 7.237607198010442, 13.984698486332594, 75.725587061878841,  3.943864284998187
 6.115206095803526,  0.215452750826934, 34.641233241418817,  3.908165226406460
 4.012822631993890,  5.481780510289985, 28.390951661832219,  3.988141748049297
13.647081295812182,  9.243877903614500, 53.964359486036571,  4.182148193004627
11.604369206631716, 14.450716602225908, 85.849876586892094,  4.367939318912194
 8.105631778012569, 12.396249427406358, 53.978324162922618,  3.740106539541696
 7.792526803625933,  3.876279603938626, 69.413732083524010,  3.958780345614940
 6.958855336418274, 13.666117686309304, 50.490124232522859,  4.021268196824756
 4.259047887974871,  5.843064802043690, 82.808126216546228,  4.144243498947098
12.675807426773719,  9.785663668260854, 24.274886987362954,  4.266055058866425
 9.472258320023295, 11.464704930522648, 30.215306216658998,  4.167970521867507
 7.815614077797161, 14.177145358436260, 20.962367846605648,  4.055422532230875
 1.335660875677867,  0.212303585031101, 67.900171657038896,  3.955076230431582
 3.631158889596861,  8.592780357332753, 71.029462148928943,  4.289494176222943
14.372974320413269,  3.324946507512827, 10.805133644183277,  3.940180327270203
11.490940938484892,  7.622761137921696, 87.251729736354420,  3.893713987744737
14.652105997173630, 10.648266157075266, 10.003921472299192,  3.835960446880518
13.451068051244160,  0.296568945658307, 61.165826816466861,  4.011128180072804
 8.498517659473507,  5.490918547621627, 88.294221234056948,  3.736227347291174
12.896291060725906,  2.033154189953548, 35.415903786666078,  4.056573571730515
 3.365676432773937, 13.181503162922263, 57.605070952139009,  3.988244424613224
 0.190426842054623,  3.519545147407464, 59.684623360494598,  3.869053164310963
 1.494822224968738,  4.982715318670539,  1.840759577542921,  3.772069029768807
 8.632963013166565, 10.356273650841157, 61.511341101216836,  4.107345938404179
14.100029078037505,  4.194080289616076, 67.534354049831336,  4.471315700006369
10.570384887161826,  4.523734654014744, 91.461955021326801,  4.032310264782614
13.396442983550630,  1.255093036806406, 14.136979097399102,  4.128065005593094
 6.658168456511667, 12.938425449411913,  9.268715468574751,  3.923126152518210
13.164956281521865, 11.650196470777329, 35.822851667907202,  3.770589318039021
 8.664996421704805,  3.867204504540508, 33.232296522508484,  3.997218779313449
12.600874956150047,  4.848574124950772,  1.261055123920544,  4.092488679354999
 1.322557280032093, 10.451136891781703, 37.572994481605285,  3.832897057911626
 3.756257064708568, 12.403314532080868, 74.662959709356855,  3.807167983752954
 9.603130078679367,  6.131905569236216, 62.384946010099647,  4.165714722129304
10.381038650552487,  4.103956004489270, 42.606701295130321,  3.887914218434948
 5.401102325670753,  4.902970276304795, 78.998328912895985,  3.973973601108565
 0.055755576453889, 11.447843411175494, 67.680187180847668,  4.010582249533424
 9.724178547650125,  1.887408025144032, 49.802522082900722,  3.851246216216362
 3.934132622836719, 14.436296507659476, 78.099897794543153,  4.185150053435359
 7.284793118351248,  1.910841393641363, 40.725459243662378,  4.403995357725487
 1.053078744502214, 10.148689428889517, 41.351547847497166,  3.764986008183328
13.252500900525565, 14.546164486328681, 48.512150329875176,  4.242177804783394
 7.381172263091154, 13.651733725607826, 38.076064257307102,  3.995870244428556
 7.061478434854077, 13.222116186964120, 16.927940740193584,  4.360844403043273
 7.212600874283926,  1.530510425734925, 78.642766661707583,  3.649687381194952
10.264974290690510,  2.993849473176748, 25.494727413983671,  4.304983341832851
 3.713252139903029,  7.202706887066551, 37.620242291323976,  4.199547641762006
10.095932442785179,  5.526724743739120, 66.484433536273940,  4.177478745836560
 0.555131370161343,  6.539065074606936, 21.422175148644644,  3.884415867044631
14.031887873065564,  7.108306202853024, 36.876106843813766,  4.095510089669324
 5.364408063313818,  3.969405087671963, 35.683501904321211,  3.963533540021440
 2.976456116539539,  8.761211291452323, 89.986127383329190,  3.985301875060673
12.054884456132072,  1.646795306072173, 56.249730383924650,  3.976568104150353
 4.833096505953172,  4.290026124717476, 47.616891033412642,  4.005494041881725
 6.999022029634493,  5.406637559278861, 38.778740524891518,  3.585942736186232
 7.146198285686205,  0.402022082559190,  2.963117534435340,  3.985227303427956
 0.886541832408502,  8.590151144837547, 74.047029989784605,  3.856409218065472
12.360737038442137,  5.639063334949575, 33.262226285557489,  4.068584564246000
12.859862756056827, 12.150071209661521, 27.779896663437569,  4.182617070122577
 5.503496349904004, 12.876892937705399, 27.688702224062641,  3.736300549700525
 3.862217985481106,  6.551282474675363,  4.738853107814270,  4.319396351213299
 3.201653377227845,  1.852229101305708, 90.465197798428619,  3.881235985559976
 9.670337577353877, 12.049831596155405, 41.023297496614092,  3.965981862183627
 1.819823684605722, 10.099512009956129,  3.807875232517751,  3.998017392539063
 2.158746460636633,  5.539398868139124, 24.854201960116509,  3.946185137568829
 7.294847970906155,  5.741783557740234, 73.061489347584256,  4.265049393387974
11.107764939713901, 13.580577578853417, 16.108541983010568,  3.926762981973742
10.854149864434406,  9.079291862294481, 10.789431186062878,  4.113539244224068
 3.733922076023892,  0.376229680937365, 86.639120043184604,  4.381126331551316
11.509140290862051,  9.763418288845811, 14.927451605293038,  4.005552995275476
 8.459625788304983, 10.770317684160368, 26.296336452754147,  4.011719116515230
 0.465023571305351,  5.268957967654392, 81.102475726789109,  4.180961233010877
 2.089913074570451,  0.120177760878565, 15.768019121503929,  4.264191350120027
 3.569727784279405,  8.895464859860407, 26.445740963410625,  3.913851242416697
 5.647835311191574, 13.752315203057877, 81.837433542421593,  4.078494633624670
 3.816747820007362,  4.268345024185145, 70.414714384475886,  4.275676461348362
 7.287697384707496, 13.466761689742910, 85.517598542767985,  3.949889165847872
 9.335056976518127, 12.227587467532093,  4.375255757622084,  4.102651970477901
 3.624855020914791,  9.159629812579308, 33.634480602723869,  3.932443865434089
10.997469829950079, 11.744309595331476, 91.156321874823234,  3.818533055486214
 2.371615161975941, 14.926585501833179, 60.949186019287019,  3.792632690440092
13.156198611954137,  9.922247621138141,  6.427052330486925,  4.052552828073795
10.759937707536036,  1.664988031803512,  4.328516243341481,  4.088394584034515
 5.852469095398622, 10.696704739677520, 77.634454796351221,  4.145935289167777
11.618465098490045,  2.813737615308927, 63.773051001653890,  4.074912073256740
10.109847937789803, 12.135170845653363, 72.492029548644538,  3.966190604379849
11.808701868505366,  5.332064273268290, 20.595601581095575,  4.157354144753507
11.386765419441085,  2.520379774713544, 70.359214785306250,  3.948983317071634
 9.822273422062683,  7.402968908205223, 40.423872005198376,  4.071662767430046
13.241140772358186,  3.854225711545678, 49.219018981656106,  4.235316855924257
 1.908034757075851,  4.263847749824974, 74.121721033247326,  4.055082008942903
 5.088980387752835,  7.575307594715674, 22.945720912330902,  4.144688575981548
 2.308572001987708, 13.962765016168909,  3.181950612448929,  3.884664266465850
14.280760298961818,  9.177367584097295, 80.565033908409049,  3.854474125116815
 8.927009909488447, 10.503805891467389, 22.295953139566763,  4.050706656995329
 3.740924034324531,  3.812660401158021, 54.234141910373559,  3.814053543988506
 5.458855651503484,  2.906336459113847, 75.507076512984042,  4.031206890477840
13.233217076936080,  9.641781294755845, 70.937412860470062,  3.861632273116598
 5.723594824500882,  6.149923683143308, 90.696820315770040,  3.715458697253878
 2.257952186129027,  3.010272574278854, 77.804706113898064,  3.732890085729810
10.147591242468183,  5.910173824126313, 36.662611312020061,  4.019760508095722
 4.023633051007967,  7.850123153452103,  0.660808023985073,  4.112341413166347
 6.838719687949367,  4.729181045013727, 17.230699031603649,  4.224960200584913
 0.559034536453308,  6.379102142698889, 77.216797681435395,  3.898643747710346
 3.573610191815871,  0.260417657514474, 22.820657953166954,  4.102968399387129
 8.833197616675031,  8.700549448988861, 90.286078437401173,  3.820108965812123
12.280740412576545,  0.360528442412986, 67.096995329613563,  4.053148950024470
 3.413248938745177, 11.021737528354947,  9.954622813991380,  3.678067631912912
 1.757665476384547,  8.720875134651775,  7.463092447689401,  3.811172170170380
 5.801906690989793,  5.211347901177818, 13.227338290551845,  4.090268040670768
 1.607868082242348,  1.456046382670061,  0.268633943021025,  3.912807267851731
 0.172475067918160,  1.676601796818550, 71.476065457336190,  4.113097590067799
 8.513169536726913, 14.530523623788104, 13.258893473385271,  3.947142373317344
 4.187934725433489,  3.272708377036583, 58.182722817420569,  4.143377239829127
13.923024752792758,  4.579970697074748, 44.413871913331029,  3.845117253595776
12.569875482391746, 13.134583709328291, 77.418478388914878,  3.947169155079514
13.712354431835893,  2.972781919976891, 76.706507788175600,  3.685845009208662
 9.646248397520880, 11.077464064630911, 76.131943918678672,  3.639743081634702
 4.994939448145738, 10.144021602521580, 83.406251252498151,  3.887487347095745
 3.965096228077044,  2.186275293783304, 30.883953842415167,  4.251757400779658
13.582596435826547,  8.909581921687835, 47.308265035358374,  4.049147931129201
11.755538455394769,  9.181829726722295, 63.852915665801149,  3.817983171276618
 1.325952302253269,  5.746313548119081, 56.628671623654846,  4.002909403815944
 6.744725413169059,  5.911240545108169, 42.508415361106721,  3.936416125249625
11.106281651815255,  1.444628521306370, 21.707620058674170,  4.034872356500400
14.667492145214934,  9.008567528484139, 33.346589053234112,  4.016768450425297
 1.208988746437257, 11.434421799030765, 77.489809434675394,  4.013663903974813
 1.943415271179703, 12.553930200006814, 26.145567371447292,  4.050123188505291
 6.669404037573576,  8.908095172989158, 16.434919192782047,  4.280560204444285
 2.377938062856889,  1.503618655836853, 34.632665741896332,  3.997144936188398
 1.278591133210113,  7.765711507668995, 44.389037410129738,  3.952275821321158
 3.675582848156749, 11.190161414650611, 51.420422618936094,  4.184338690023460
 6.375859464063502,  8.483019767013934, 10.032818505007606,  4.109960031354709
 7.567258228901710, 12.729823868880919, 66.115197885943104,  4.297915127924429
10.010612076846634, 13.913786377811338, 34.744087500954713,  4.286361428136087
 4.414238693816573,  6.979035181039277, 50.628647510716426,  4.079781616184545
10.869387762373472,  7.255570159504888, 82.581744899900784,  3.862889215954208
10.804489565343617, 13.475259464399070, 24.465092350441434,  4.009926667819091
 9.011384478794806,  7.166419258738617, 13.854036265991567,  3.493609814597771
 3.139453196802038, 12.839164743080673, 90.009173953957443,  4.136648978646621
 4.598789210829643, 13.563416761992714, 12.715519569841014,  4.161897397016356
 5.362090546440792,  5.888908571913682, 32.150261491125939,  4.039390080756089
 1.415681786540818,  3.857817948316906, 18.272109913901698,  4.552288006424983
 2.693544846582694,  6.558892894913962, 10.759320786260405,  4.273238473951967
 7.951591504552622, 11.296459979684284, 57.653820225857515,  3.938189768476531
 7.102476792365891,  5.700816637981820, 53.410560989929550,  4.053071099697705
14.629291327012572,  9.832006542120130, 91.693384292443241,  3.825148598375240
12.895869159926104, 10.277289077601313, 84.407861937465086,  4.270602842839371
 1.536567377204914,  1.762125988130457, 47.100431378598159,  3.896011210489841
 1.063426670853554, 12.514689344408328, 54.393525102057289,  3.990320115557483
 5.232476604537763, 10.662962010859026, 63.518010698071905,  3.807776742561173
 9.193316720662809, 14.415900853309685, 69.449967259781360,  3.842250553002368
 6.013398446769688, 11.215218665378236, 47.227683865210281,  4.336539990064901
 5.127690494038917, 14.549582342973366, 93.272786707710310,  4.208345004537554
 7.796402363959994,  7.825104410967619, 85.167191938748061,  4.188658159592425
11.977906198651729,  5.177114263018566, 13.140250821052302,  3.659745149868142
 7.347655619008056,  2.492785394890225, 61.116212761704794,  4.333314774772564
14.550824780359292,  6.581462814955834,  4.766310366638201,  3.905499801445614
12.986230654306336,  7.601134763028624, 60.349587610123763,  4.244978824018418
 9.290693008158845,  2.829386794046717,  0.913118038441948,  3.674264250060908
12.501514762339363,  8.672820962551132, 30.004348976717846,  3.971392867097831
11.704550037597672, 12.722046596805569, 20.764340819513556,  3.681072060750042
 6.081155773186947, 10.431206599900770, 87.946013480009412,  4.147036731706057
13.211087135678799,  5.696552092309227, 24.453502074127712,  3.955051845745357
 3.130981133431965,  3.791048260081691, 66.385013848126874,  3.954460343643871
 1.415256412084789, 12.740853245496988,  6.975627236640233,  4.272549644293901
 5.028719873122694,  3.576144142946337,  0.804645557687823,  4.109895039133515
 6.335775732128765,  9.756907952190796, 40.360395102913152,  4.013070137910331
10.531944623645014,  9.380351132919431, 33.756747873134678,  4.313689210718095
12.532387623604402,  8.737747654179380, 43.229249788566925,  4.095685598099859
 6.077443571293474, 13.536491749238047, 61.026808905470872,  3.975775359534953
14.865626383711316,  0.639080601152030, 88.107173306527258,  3.896925852770941
13.666937786637968,  6.498905341534650, 90.193116056763643,  3.732674910532641
 5.258763033657117, 11.623915627301727, 23.875746739632401,  4.162281436938622
 0.836612483524913,  6.552335309393086, 30.485358181584118,  3.844772201667006
13.196937087405212, 13.442685351033024,  4.469059836685421,  3.996237559647410
 8.612851659035428,  1.725331785719399, 66.199140705412717,  3.948391519050619
 3.832209963800645,  1.022726470531962,  8.722301688744276,  3.930201103422378
 4.137754920798331, 13.167289732352740, 31.203550878877710,  3.822914180458591
 0.431887436423826, 14.495086184814635, 37.791012782889297,  4.442726325849011
 5.350793814533218,  0.677779140353512, 64.249853893163561,  3.899139200620162
 8.379687597044340,  7.463166140475890, 76.861901292856416,  4.129800058681710
 5.547360669837230, 11.792646669944231,  2.489359444360872,  3.958315390426471
 1.638199017868336,  9.867644114726458, 23.178954965408820,  3.899978380196651
11.347000707785490,  8.151289034052482, 50.719934661470774,  3.997689806860524
11.045219023239937,  5.116501757199213,  6.697724901517896,  4.303594209936940
 3.124818135833582,  6.912628060895097, 15.847076362442611,  3.935558063599837
12.127998572096914,  3.581704621571475, 39.156775496682336,  3.870468798551410
14.859853049157078,  5.623580466447491, 63.542145233116017,  4.138242906656129
 8.711518143556859,  2.203470120451517, 36.823809633653390,  3.919625637208634
 2.210313395844433, 13.364161591333053, 19.510445198578093,  3.983316604627070
 1.837783101493536,  5.569192190573037, 34.252613910521085,  4.172174070027972
12.855538543360177,  2.376492025958342, 82.861906364420761,  4.350834585523240
11.863810605339845,  4.666916179861368, 29.199661652130612,  4.121590866309186
 5.029722449604932,  7.607434163283687, 45.563442802366588,  3.806020727804376
11.261684030189585,  6.390180874498165, 70.190171771431309,  3.739968569669992
13.793387723041024,  5.905467957271084, 84.682571177685332,  3.796053914739535
10.387468017572656, 14.138043906678565, 58.810284234564264,  3.895240567772428
 6.069668880187034,  2.610959755778421, 51.030779069242570,  3.989581064739780
 3.319005744972650,  3.616290619676850, 62.284938363941954,  4.247569235906970
 9.065879371865242,  3.201218022944220, 14.300115096419969,  3.745023342329117
 0.487978484122400,  4.600820261357542, 14.261891873260661,  3.756552204748481
 5.653836387368430,  9.512844392706988, 29.996893436207209,  4.405143483493493
13.121393655836545, 12.550146064140817, 31.943157559341149,  4.177395988081420
11.958295766702765,  0.562206245982214, 74.002625941695754,  4.315870498983760
 6.838846671285771,  0.201794726788146, 57.457204136168919,  3.985936233466256
 3.106627212921458,  8.324006078123634, 79.671245449637723,  4.174762574884035
 5.933478335519492,  6.339979156985144, 60.719892477836659,  3.901702080206800
 2.918089048924722, 14.736686403788189, 43.804947085358336,  4.212294485154159
 5.035928668039497, 13.894424698611246,  5.807147338771438,  3.664158120070932
10.735768914880040, 12.245987346694562, 50.917455260211014,  4.092286594615438
 6.947240252812938, 11.475024651575835, 33.471017751646684,  3.940972776366475
 4.293149681854548,  9.473436434747187, 13.222367774415313,  3.760635928045406
 5.019171851482938, 10.700847413485805, 55.149171043792862,  3.671957806982602
13.128852255037906, 13.452025371103932, 70.428274046051115,  3.807250435924368
 6.557957887835331,  4.613196637542394, 64.546934389679194,  3.860965368352710
 7.722416116482239,  7.505756289618398, 20.032914608482155,  3.708328138483220
 3.787201583110951,  4.054476936617931, 21.692967993535191,  3.749488855673597
 8.140639787688581,  4.054828331080409, 57.121389839203353,  4.175027817995641
10.991873654248709,  7.483361685020364, 26.829539278818388,  3.371433259237920
12.938420306296997,  8.189286882178029, 67.333533182233666,  3.794456196129697
 7.930127729774568,  6.482079556495213,  0.192593864867276,  4.192707301458821
11.943685445704210, 12.952123762915408, 54.735378496541401,  4.000618066730658
 1.261506379231887,  5.525888269838154, 47.407597294537197,  3.563964214677179
 3.658886487611854, 12.841297299556691, 40.100345438178756,  4.134648728954007
 0.218722218961651,  6.282863898265507, 70.981875676893466,  3.897689423104364
 7.404500346535057,  7.063522537496237, 27.151586876027910,  3.866060532707795
 7.752990253569313,  3.341893571747606, 29.074626232662769,  4.442725538772008
 1.435265889861585,  8.485737867101458, 83.644254410933414,  3.747390155958623
10.649322451585293,  6.307963745774126, 45.997262627093093,  4.172716495587895
 1.980318376450053,  9.452981799579785, 19.357367009435301,  3.804673606789131
 2.539033039089399,  8.215976444326802, 53.856337765281644,  3.781630480862878
 8.506111210924978,  1.687234291323123, 87.562783440362495,  4.005897938891027
