BANDS
8 8
NANOPARTICLES
cell(1), 15.033
cell(2), 15.033
cell(3), 93.956
 0.317351639098378,  4.919718225298628, 39.533428459771919,  4.378800461724028
 7.347456341570681,  2.123708998792362, 56.291485781780025,  3.973953477883641
 5.616208607346475, 12.959492810703807, 92.231601382216212,  4.011348898552400
13.367791325459358, 13.127244017967225,  1.173490490932074,  4.062736788385728
 2.091771630924649,  2.594478272087508, 17.126661190125329,  4.075499628660386
11.810473367612383, 11.273139650050121, 39.201686021494858,  4.254340095316694
 1.505575501116432,  9.164160666520905,  7.634730955361137,  3.612906809060798
 4.104253387628076, 12.781491183136540, 88.662142200307500,  3.745339863241825
11.822119186334000, 12.989775725275253, 51.109349717160931,  3.983473673024534
 9.040052802202757, 14.316827472639146, 67.765841248864461,  4.242232526677299
 4.782928627742829,  6.164168175244233, 62.756586402864578,  3.955191001283767
12.591467200235577, 12.800587235638758, 91.083883956888187,  4.162143710139266
 2.074525901961749,  1.763278866929663, 60.383934579362062,  3.851584144291771
 3.424756518242928, 11.048633672406687, 35.288101071294605,  3.973089452427450
11.220003253558032,  8.245655319168186, 20.396771980625068,  3.915926531197152
 3.173436327763494, 13.182737814973505,  1.551233995491913,  4.140372452585328
 4.424408318986264, 11.444521190505300, 57.616529454252998,  4.127313731328941
 4.766299058955323,  3.660666644634647, 20.459552694954080,  4.315398987507590
 1.056085571176186,  4.448371934349510, 80.034576891666845,  4.047271986470189
 0.852518745054259,  6.796562187086392, 55.196949599514348,  4.225725267741373
 0.721866372181438,  5.768022753847443, 69.328645753574918,  3.896390838809099
13.509029205052173, 10.739608200071602, 67.569207914132122,  4.033546422023461
 0.450361907549513,  3.584658488752046, 91.252346636601033,  4.050342313054394
 1.606216456997901, 14.050751955355015, 53.637390525305406,  4.168895948950669
 3.336055298181110,  4.875058287942200, 76.614661675629335,  4.156418853846383
 6.232259480432347,  7.620048663598095, 77.197695856631725,  3.908870018125671
 1.653258444263541,  8.363217965750712, 63.776912138126526,  3.883103547479502
 6.128348969301761,  7.518878824428235, 84.248479305797147,  4.039226642490140
13.199964302338525,  2.533910301401808, 60.426482957296344,  4.053700646826085
 5.963773826606997, 10.344463179307247, 68.745854582238991,  3.806341827915104
 5.824546515165712,  0.512441394073650,  9.191848998060165,  4.113552336245180
 5.401463428610003, 11.209177351197598, 27.911740675938027,  4.125033416265646
11.195303817839921,  2.489482455343435, 76.653628947390970,  4.284416402649004
 9.088618665804747,  0.162660687736030, 73.093236724734652,  4.048327906248615
 9.289292517703080,  9.161995070506268, 36.674960952377162,  4.021499480450397
 9.778215634871836, 14.848231124949498,  3.144000628382965,  4.134289064404884
 6.248821567161341,  7.727100883967842, 65.992872253240094,  3.796708014960844
12.718304839265402,  5.440725326801502, 13.969094090259428,  4.097607002051107
 4.902048060652533,  1.958569533637822, 12.677915136146220,  3.623913138431608
14.695457669216204,  9.848589172367056, 60.579195356114454,  4.148480392022412
 7.603283068220378, 12.635181342384932, 39.916736068204962,  4.199655420661264
 7.965502458399850,  5.913033286406145, 55.275276593974233,  3.887908339481540
10.147953348170866,  9.675342832275984,  9.139497687800102,  4.240804430080125
 0.512440327358176,  7.569543033519539, 29.200163421741838,  4.289275013795104
12.173406598870413,  1.844179686815073, 50.099868277633092,  3.921787954657268
 7.497465432295551,  0.311112206589075, 64.044610203258102,  4.034723020348440
 0.654150625302345,  3.170610765327481, 57.036714236531488,  3.913642162077238
12.729334682070641,  1.548266173938037, 85.185236651086726,  3.995037904971424
 7.206060228401316,  9.326163654055913, 91.751043712630690,  3.942385979998185
 0.656926136916027, 11.555862355607582, 28.201204179900820,  3.894428186196597
 4.447978729163890,  1.632220537827297, 78.954390386564512,  4.120257126233812
 8.847528131545776, 12.865971302076568, 43.793198245888988,  3.541107682163549
 4.790206375806744, 10.252908560907349, 61.731405584615104,  4.468409696974395
 9.909663131268868,  5.979197998076161, 44.794262987481225,  4.126810411145117
11.377822495750198,  7.142649649102534,  3.904479488680330,  4.159922602323730
 1.385689778082496, 12.425026124070616, 42.007855151667158,  4.083215723173684
 9.758032144918092,  3.814091518302003, 86.637401973192937,  4.014168943280356
 8.051066643329147,  1.867469749097981, 22.391026846204507,  4.074467995737536
 6.762517904682559,  7.231117092783492, 59.682189732687448,  3.626869903647799
13.846692560855880,  0.918167908814459, 18.637784421676081,  3.875618036694505
 8.368885216880107, 12.194049459665058, 88.950261347131587,  4.029845541946087
14.683513261081842, 12.413829745873363, 77.899636532640955,  4.083222198541449
13.361040163737721,  6.126786034648958, 77.762612047495480,  3.722848923243468
 5.859471863871260,  4.811981670679891, 24.784207816865372,  3.990789260294931
14.279152327343603,  2.673526378910856, 71.445903155410690,  3.918501802256105
 1.279206560416854,  2.215335393043361, 31.948707908140157,  4.106602789956958
12.653568276791471,  7.125155482834248, 86.705104615724764,  3.868558549157947
 2.541870494356218, 14.486617494388423, 19.938784316424446,  4.377511057172391
11.840016392102291,  2.336744030217977, 21.570851424597844,  3.729653239230005
 7.360873320181881,  2.720454633645958,  4.886598073282593,  4.187206398918145
 0.426108049410129,  8.679621367816539, 33.880924084969699,  4.143628863428561
11.000447659421301,  9.068421906435136, 89.891103831419727,  4.285957588528619
 2.880174597096869, 12.868499332368176,  8.117904845273076,  3.927224854004991
12.498003784463245, 11.721176887228689, 43.309122659938978,  4.114385016905389
 6.429163880681240, 11.748962218144092, 46.156633341037349,  3.570906243938804
11.896683705960108,  4.892045187798728, 55.503791997791744,  3.919098693288154
 6.802823059117275, 11.774775589201726, 83.999686761338765,  4.324614769921138
10.301719899771340, 14.306511006254766, 37.034875274322417,  3.653179163232123
 3.225235916745592,  8.341544920610145, 74.425651331067371,  4.041769371180029
 5.688133993722357,  9.249427387130380, 87.914311939005742,  4.115646649233702
 8.411663663751268,  1.715249510111980, 43.683109432890504,  4.155720430625778
13.132603757356186,  7.750907295278153, 37.215139531976462,  4.168370133895958
 8.530512511519840, 11.868578351052767, 60.713024450779692,  3.927419808961300
12.904360887468908,  7.804255389004817, 42.011843931323320,  4.146423518328434
 2.478746953562866, 12.328509779458900, 46.115023202651052,  4.345370361592744
11.850755154657955,  4.856964300437206, 89.948490913525461,  4.065745035108524
 7.953689286334909,  6.870895991895940, 69.434666693322967,  4.072095338222266
 6.990855792051033,  5.802060101944264, 41.948032872453489,  4.023955431467887
14.786048924126034,  4.009226839946192, 87.403979031560638,  3.800696511877474
 0.474378870956987, 13.107685983325297,  4.792424331045088,  4.291724676497907
13.021731348312862,  0.495382480188314, 11.987129605908995,  4.121936470004897
13.084262232902770, 13.581364756697592, 61.170620772989160,  4.056848587791954
 0.995419578800996, 14.040061477052774, 85.316139088262631,  4.329370199828015
 8.703932872238029,  7.363090648576849,  0.850598102885118,  3.800128629803946
 3.957643078157032, 10.537061957890055,  4.786062935504710,  4.358759730548528
13.388897575408180,  1.117614727111368,  3.530553441948169,  3.533697645951464
 4.541734414728714,  8.718316294715070,  0.645820577840534,  3.937151242152495
 7.983717431412441, 10.786652284562772, 49.586392812799218,  4.166223138316173
 9.865568996109817, 13.843401909839130, 33.009767265216198,  4.165901719039357
 8.286152169261886,  2.035244711130256, 35.120989070895966,  4.159642281434374
12.455705060302485,  7.120080599251480, 93.399577373371514,  4.227121588510107
12.066884719458285,  3.750548396550539, 80.561498279513756,  4.040274067497024
 3.013883126380650,  5.690666454669412, 66.211013301381712,  3.833934356241053
 7.834894154037968, 11.214521093992923, 76.348947556782463,  4.140676318575536
11.996146658561161, 13.953987824938451, 26.162973249090751,  4.085915250424038
14.447566755338396, 14.537058676694478, 22.863365866161203,  4.133057300698536
 8.180622949681023,  9.677046665453441, 56.898152097721351,  4.268910102317777
 3.504563231651638, 14.260328535159516, 82.049688112216913,  3.908737809256018
 4.219544146654341,  3.122145966033786, 28.920834672114452,  4.137637445727177
 7.135417528350083, 11.677613748726069,  1.963881908938247,  4.356141338422086
 8.149187760563867,  5.753185187951038, 21.774141304776347,  3.769449445220010
 2.364636853475446,  4.745616945679223, 72.709953068524840,  3.871288646169365
13.660563300337676,  6.931929784749888, 45.837668582748485,  3.840303599053005
 8.952720502440698,  6.247238019198663, 79.670752785222788,  3.936169643513468
 9.461815427659079,  9.776236413151235, 32.765472082404159,  3.824336055039495
12.655742972908852, 10.954585392628346, 23.634059395523654,  3.870248111777373
13.366747233184832,  5.788198631802117, 32.067536842121868,  3.707670964093775
 9.455109147911577, 11.691529121000157, 70.778302712823034,  3.782703312713442
 9.794575877933106, 10.197202038574405, 53.167450869720071,  3.905049491054137
 6.168765742511883, 13.728783031588184, 70.633972863835254,  3.953701758948719
 9.752117665350719, 13.097294545520606, 11.496013551895160,  4.076161544871018
 5.479393326338189,  8.974167236314951, 24.403500435271585,  4.153273528849246
 3.390382326599416,  1.533642012527287, 24.185724666242876,  4.293543309778960
12.478234351613875,  6.494377778965911, 26.720152624272270,  3.878022713880229
 9.877067081328109, 13.858015423888965, 54.384305144290174,  3.787780862385941
13.014973951106668,  4.939826430316818, 18.731607293219923,  4.290478184790026
 5.100810632109815,  5.421243744733485, 80.296128695668884,  4.001507710256965
 2.969274822211604, 11.195199533271092, 70.945904610820890,  3.761942318149003
 0.286690096650533,  4.516368329432319, 35.267654088562296,  4.187313484563354
13.036590422761067,  5.779782728383958, 22.889850488113336,  3.966723326570945
11.471393890216039, 11.933559908770494, 74.248739969660960,  4.257086229818476
 4.467971394986868,  4.076908828962986, 39.247435074835145,  4.090920646460967
13.655418040803225,  8.068666470081858, 10.492404614479605,  3.922907329673023
 2.023372179299888, 14.011510618669337, 12.176501685031081,  4.370931451330105
 9.156855811209745, 12.882567312680568, 29.014014411137627,  4.166492477467107
11.874302256931825,  3.521484722506002, 41.867451515122823,  4.436005850788046
12.867303329959251, 14.532653296782174, 30.176201393286529,  4.182719546516378
 1.095468096896286,  3.135352382392239, 13.086691621109917,  4.315390491187489
 4.622391190301365, 14.877619374960878, 15.778198769881467,  3.864714179500504
 5.539070177014270,  2.249742696033152, 72.961456269593256,  4.082140669647617
12.447136220047412, 11.721293446547863, 80.899636894745797,  3.520777917843258
 4.411709282132995, 14.577418244817652, 33.887698719204238,  3.631971577319939
13.251433253749978, 12.219391995699180, 54.546448753308887,  3.602704649458603
 0.155149664123562, 11.964631796385524, 64.161607583692160,  3.933860344093130
14.893014280318674,  1.092317856854767, 81.873636551851504,  3.965674410025077
11.341350958790356,  5.750566790816451, 61.983249240754439,  3.972392269407034
13.819726658726033,  6.496097384008132,  6.988203798205958,  3.740956874005518
14.825586468636988,  3.766352758894515, 75.306287469861502,  3.693290020654104
11.467776536369476,  2.054111379735606, 15.709531658425373,  3.896808864089391
 6.436389967242904,  0.172299853648418, 26.831847968212298,  3.959914380972723
 3.224323913917320,  9.881988918791576, 91.063833527671903,  3.958736086798830
 5.145598169876436,  8.001271373361575,  7.869231971015744,  3.970724108424569
 1.708395169636114, 12.285274978070978, 74.436376906053525,  3.964916819196058
 3.242613116059418,  0.752760276595285,  5.738575015445313,  3.635783757669931
10.487411596186439, 12.526260149200596, 64.240069712758398,  4.174135594757033
 4.120041001083917,  4.327419271695615,  6.770211991616734,  3.965642261979694
 7.381851874244791, 10.592660782990727, 14.634621781074369,  3.947403328074077
11.591597331526957,  5.560020108536367, 48.629042160268568,  3.630437874600231
 4.305496716262730,  3.315754821780886, 35.167691398006326,  4.200170476486256
 9.983429992790136,  1.821031139183799, 28.098277432321584,  3.958385531848071
 6.222518389388294,  0.790231446840208,  1.499684696246588,  3.911671316518212
 5.787532870670793, 13.462936737150779, 22.542739171720552,  4.156906741505233
 1.151124588224262, 11.143818964417438, 81.442578343343769,  3.982763742223455
11.203178337743124, 12.381330347465788, 57.783869025579286,  4.032756390640992
 5.130827989297515,  3.853950923829433, 59.152165852096580,  3.944919327317039
 3.332564368012810,  3.359051377518240,  2.896606660370180,  4.061808475553944
 6.228220064579045,  8.622676661528887, 39.183810880716408,  3.962585432777251
13.619220911172508,  3.401280634645218, 28.978044544491731,  4.106206061588571
 6.418371829151598, 12.034089603148857, 31.881137441635129,  3.932163384141963
11.787601931155191,  2.539377152872811, 46.104941870183417,  4.135242561107277
 6.308546650043513,  0.494245191312882, 47.126107310687892,  4.217644552950766
13.131661371085775, 10.202964363034594,  6.421587363447180,  3.876789365000552
 1.852881221365952,  6.829516440018236,  4.518451604858644,  4.143271313329405
 3.290228542473916, 10.058135069167331, 11.032526967229735,  4.208639362151514
 7.153438734124241, 12.462001091125501, 35.790279588197755,  4.026933723744302
11.185838495090069,  1.322002206888160, 57.103736632496990,  4.008694842631686
12.545225768389056,  8.963121333777021, 64.070292451703679,  4.042449692691728
11.173143626839810,  2.271961126390107, 64.235572565177975,  4.283262760053313
 2.516887922108197,  1.045444333490086, 75.416560873457811,  4.007825286386460
13.793136304277198, 10.619128774154802, 46.909746848545232,  3.841838652227527
 3.988338178836604,  4.080457511940208, 55.029367604994007,  4.053802059425800
 1.389372887264203,  4.617257523740829, 26.242642896379440,  4.086637739051772
 1.055360392841211,  9.041820824912106, 39.788357616281786,  4.004071299755172
 4.015209151194372,  5.740245658101134, 90.556226925203532,  4.394578862580357
14.947091626039569, 10.567032172737504, 13.470612931077538,  4.100929157432565
 3.690525854543012,  0.446421275575563, 56.953170430210925,  4.168491772564125
10.608878876189547,  7.332742837264738, 29.987711542088455,  3.829646179703731
 9.328701896813511, 14.346439848393644, 93.017426878819876,  4.017060264652795
 9.245832215717877,  3.336017390875487, 18.848320565392587,  3.902612350386584
14.330148124322932, 10.021782142237583, 71.442935357281968,  4.009319074753400
10.547482821821401, 13.838003426112074, 22.180340055590829,  3.834186340108335
 6.515246251624878, 11.571517256467089,  9.024524270636745,  3.957911200668522
10.569776600764667,  4.046257587836333, 72.734777190571577,  4.237613386515735
 4.023771079071378,  1.942089914185600, 92.365357454445643,  4.001694095888790
10.827768042597267, 14.634621520874923, 41.220037820877067,  3.780009446753243
13.538770460588935,  0.321178672365224,  7.782304745430915,  4.150109118729011
 2.546630186862237,  6.792439231180591, 86.667603724051588,  4.178553021996323
14.377799541442570,  4.902777167352701, 83.642499414565918,  3.969107364730882
 8.652115165475186,  6.107732393085848, 14.391840279599810,  4.163380199817268
 3.073744915337875,  5.968378354740507, 32.166861688625495,  4.173643289761322
 6.485853940006097,  3.749408045809093, 66.026283012189353,  4.129431016516246
 8.363122103255252,  2.377713295672004, 39.417541962053619,  4.409703062932420
 6.396969506928644,  8.359489688573401, 52.519676205548052,  3.904896649364334
 4.928214090383316,  7.993339498720983, 16.476670722854212,  4.051190486916671
 6.684259393488482,  0.793681735647570, 89.304455443742071,  3.968219285771411
13.810601860382796,  0.217919473483692, 74.455963497314983,  3.863064257412406
12.401331154480792, 11.242052366914933, 35.032015203641294,  4.149488327339951
 7.385729123691283, 14.986251707439246, 77.072825515873632,  3.512506986082410
 5.394109704483816,  9.429057113218152, 80.736684356935299,  4.082138595699914
14.568324417107096,  0.470447372312254, 88.846990602395920,  3.846448703657472
12.993213666950329, 10.423470484450210, 30.989975004981222,  4.160109529367918
14.364161483304411,  9.122976992244743, 75.415507125138362,  4.131989388543398
 9.699176824417822,  2.681532101938721, 53.057093608028069,  3.948986317415175
 0.734700848536044,  1.287033727731282,  0.600108875865734,  3.999182554026963
 4.459253746933322,  2.970249464788570, 43.101598076297947,  3.914159465610321
 9.310195137832016,  9.125741426264794, 86.095252899595366,  3.980372480411603
13.580612948886648,  3.929682519099916,  9.886441090472273,  4.004589925146311
 4.576147579253041, 10.083377457855271, 42.438543929585343,  3.834935093740227
 7.740531541485538,  5.127417512588428, 28.321093431689285,  4.030206048362559
 1.647293336882193, 13.359892974998726, 67.720720918085320,  4.190702133533044
 6.497898976017265,  4.457165947692016, 52.121989299983625,  3.594454227133892
10.396084437055189, 10.600080288371011, 93.624570060487244,  3.865825581096937
13.984176651570094,  9.148865829027818, 52.597191893259733,  3.718634469451276
 3.213222234844570,  7.192335592120475, 36.753141353040519,  4.267811764200067
13.560916018454302,  8.044126513277002, 81.194285948843856,  4.148753587533544
 2.730329643430512,  6.376261350856199, 22.854602527133466,  3.985953567908189
 7.270989785016604,  4.002145072857426, 83.142000359112188,  3.667633486718029
 1.964884495458844,  6.339997273127576, 18.790887760714647,  4.124692608198989
 0.663629846878815,  4.191555993597670, 43.734067245785091,  4.142098450876382
12.124190496881081,  7.306453212998788, 69.142127796383036,  3.996219211136693
 5.748090746025000,  5.023334171214494,  0.262574744402734,  3.817202552645353
 7.622266346021465, 13.538382904604932, 57.270657293183874,  3.539515631344440
 3.583462184683772, 11.299028443933576, 14.816562928786931,  3.771816063972079
 1.428029158867415,  6.571337283523746, 93.670794286792088,  3.850234372440311
13.613742714123580,  0.645933634514086, 38.676495110323742,  4.032062196521508
 2.958057177642467, 10.295912585039659, 31.138371659090900,  3.938815683038749
 2.728401550462030,  7.229625467143076, 59.385723387309213,  4.179063160056337
 4.278030478482435,  6.966093038748785, 27.697816005519936,  3.907636451392722
 7.016868135431221,  6.917941519818862, 48.977556269569128,  3.839682986817848
14.168592801911332,  4.591326124074060,  2.239377265682757,  4.034648634854985
10.386496963373556,  6.001399108087166, 10.793365247188683,  3.822223430889054
 7.145827148006685,  0.948749529450181, 30.793487163287949,  4.028787904047148
 8.018836845640097,  6.191297032729292, 89.362616747950597,  3.974124145481617
 4.341672549194914, 13.573886950933147, 50.195862341706452,  4.054528344128599
10.734216747529784, 11.905671978990961, 83.996380023081016,  3.520447751839998
 7.921008648979607, 10.185972222586818, 21.369701502422689,  3.980948688784037
11.610956071664626,  3.786020687428314, 37.024990203837980,  4.091061865222302
 9.663008551308556, 10.823196535513651, 17.858976094326859,  3.956554544911822
 3.919624316992143, 12.387681074755317, 78.025369977154824,  4.457701513338292
 0.660586426778399, 10.521797849018851, 56.769667502768179,  3.798112731831302
 3.409712934670350, 10.550575097311743, 21.496393296177260,  3.635517309242442
11.870822631998236,  3.192738491727718, 68.291623760975980,  4.063088577525518
13.546507420701946,  1.678167180726141, 53.887482400050182,  3.988897529730862
 6.684128929008999,  6.167952084339893, 73.281937033851676,  4.042871592004965
 2.818159826961681, 10.074566072091880, 53.293650203761949,  4.152969875434384
 9.023580557736810,  9.381030675921309, 42.139707655049627,  4.177549070397735
 9.971761950845485,  6.035346487876668, 65.853090987542842,  4.212213790158200
 9.572424586344258,  9.899057207112591, 67.275189998437781,  4.035918408719128
 4.982921850046250,  0.201532976364180, 37.869937525511432,  4.151634997784184
 4.740427023113599,  5.680690308546298, 13.246666662620806,  3.890913136786418
 6.616107061306344,  0.465818008718363, 18.940849711085072,  3.662270240596919
 8.759637025491482,  2.300683472372148, 12.777841273276680,  4.096898482115917
 3.217408304140965,  3.217782927409814, 83.503438400753083,  4.477929678413269
 7.299993484288156,  5.621218773747472, 36.799327179765342,  3.997875173271311
13.198962178007232,  2.554245540762865, 25.113052399004214,  3.844174311135386
 1.610172025392838, 13.568244336672601, 91.673440984426250,  4.160922226349821
 3.048751492249762, 10.476577325177118, 85.068005386424247,  3.899425860211077
 0.016170557279936,  7.529163657246847, 89.982664112168280,  4.261510236762708
11.568691215611912, 10.191003499007318, 27.236190025100559,  3.782856629724904
 9.755562617148968,  4.316132709577012, 25.018123610065391,  3.875516844442748
 9.241098309927780,  9.582120467103776, 81.605255827130208,  3.782790864856254
 9.982715196430343,  6.252665146399969, 75.994221198627301,  3.699394090696682
 8.581339969773769,  3.259564370308753, 49.160307279404670,  4.010642680826422
 2.360780562440735,  0.095113872866444, 71.439882932425860,  4.139581232898105
 7.046853277994264,  0.428440357950931, 82.563509600568921,  3.573796129325465
14.174939479619669,  0.408454756129557, 43.564570967950281,  4.014458554147720
 6.207717916693245,  8.481480978553510, 34.352711872975107,  3.807608003486587
10.476513499121607,  6.260623105676168, 83.431336566141724,  4.171472469529302
10.333223366588221, 13.058133123517344,  6.764099870531739,  3.983117791782437
 6.035090794009767,  3.552289191189141, 16.420293318665966,  4.153549289133781
 6.110860989402048,  6.745177551243709,  3.982955706486971,  4.408723388597020
10.595342575656982,  3.050304212769100, 31.809431154529804,  3.881155436626879
 6.984414301047291,  8.339652348716024, 11.405989669306200,  3.964946204486444
 8.530311612537865,  8.572847266265077, 62.926353605726433,  4.005736537369516
15.032012700831745,  8.848664567563365, 21.310333170743828,  3.995025826994348
 7.205122724774613,  3.643202713413906, 76.317148899077850,  3.909708840243594
 0.552679488198105, 11.279843245332508, 88.395377608948351,  3.939741949499733
 8.245600920677042,  8.704537570456269, 27.295951572920920,  3.473511555581028
 2.363864662012467,  7.377440936113548, 82.569044488129478,  4.102584714476452
 8.000628811759164, 10.008796729674538,  5.710688075878831,  3.857289530387702
11.589954556196355,  9.135718905777301, 49.626510242255463,  3.751375772004804
 5.178560096443135, 13.995637013914360, 43.206049588250309,  4.216161247317050
 8.024627983906724,  2.802204437745861, 69.706866663215976,  4.034415968083485
12.856748431140019, 13.918101602674083, 70.714653485663163,  4.286937684984756
12.962663276024143, 14.559418122122921, 66.672741069275432,  3.864468882321501
 3.006711132392769,  6.342711149458853, 46.572995450772702,  4.368388120169119
14.107869268238595, 10.320765021642904, 84.798302850252725,  4.062157096259378
 2.236610934424162,  9.293225965564687, 67.573687840681387,  4.010248411298436
 5.355323376230771, 13.611759965911732, 74.386086563478457,  3.723911957283701
13.146043812852989, 12.079247711151320, 19.612177902308492,  4.219443521954984
 4.996525639246589,  0.086100479836771, 85.713097039759390,  3.970105606200447
11.175492603650726,  9.403771812924131, 78.061011734411736,  4.165004892587596
12.200931123124258,  8.843487736550690, 56.052525890473845,  4.080368313657153
 5.810405038875627,  4.337062640722000, 86.653185941469332,  3.939050291788795
 6.341624338827661, 10.228689560241044, 72.665565997930173,  4.043902718554177
 3.188018270099395,  6.596782790818971, 41.934679382710193,  3.696335898472348
 0.390029505322604, 12.288227064729668, 37.520117059988358,  3.948075748154612
10.696021066217838,  1.005157370474639, 89.403557330220281,  4.047325641389889
 6.679735820671810, 11.617383090080560, 65.199186745129694,  3.858666725338977
10.813321431404132, 13.599963485847827, 77.991217930576269,  4.010929307557082
 8.473425410082930,  2.396381758960137, 79.740815728176557,  3.805804808686299
 6.364889481303071, 12.088687487830532, 53.965444173095662,  4.080508772276228
12.300589652185616, 12.964627610824513, 87.121718117472028,  3.783448506210591
 4.502147109842572,  3.465113374752468, 49.143614842313241,  3.820403580184792
14.461923005962806,  9.591564540666031,  2.765410382224452,  3.990158128259095
10.223682492835270, 13.843453137765568, 47.364315706683655,  4.316558528676458
 2.045511705410297, 13.000823806916195, 60.326939401746728,  3.704720086571602
 8.179039610880956, 14.682296060759258, 50.919162090223850,  4.051101074206371
 8.301641492913941, 14.420432811569993, 15.284918672165793,  3.613364845823410
14.438178567878495, 11.894999191181295,  9.702935712290527,  3.945089159263122
 0.905013242278460, 13.751237795897200, 16.170113052935143,  3.931045246421161
 3.391576952211216,  2.763701423744541, 63.823461676877280,  3.688149732938454
14.928194117736370, 10.224756255371551, 92.945185928901410,  3.717971347763087
11.390193095520686,  3.455549804380992,  5.950127409458090,  4.260074146120569
13.780327590048863,  6.238371023202971, 58.790567355540020,  4.111518421842717
 6.521017572154993,  4.347014955298710, 46.041284566229699,  3.765404784006405
 3.469985025838857, 14.201759019189387, 30.083649252835240,  4.211668280032542
 3.985451422456698,  9.573785558812299, 49.223451705401438,  4.199252268699693
14.105483597092915,  5.533853577285268, 65.660207745099854,  4.110424466122116
14.773230104035596, 14.317209297004814, 57.455540419317359,  4.114801037492284
 0.430338500276619,  3.265916201965367,  5.752717187718126,  3.904015555478232
 6.533890914024644, 13.770975308788598,  5.583111887755940,  4.053149066234502
 7.918132457815318,  3.818546074432865, 62.242172015971917,  3.884956711110528
 8.666281276071008, 11.767033899713006, 25.037049716809037,  4.143246575482142
 0.622391000028475, 13.101927020245970, 33.042334392364225,  4.276376928092845
 8.496116578863797,  3.191415333694994, 92.056052966970157,  4.077426337094027
 4.706231267844180,  7.819114619331964, 55.975000638477589,  3.791276882229573
 0.799403924332183,  4.967170198800842, 62.108707399242469,  3.859598255746552
 1.713829583089531, 10.399826420566459, 18.064486271577692,  3.930096052012500
 6.743136169430787,  4.531187788600891,  9.905257940200269,  4.213022869743784
 3.682846195118135, 13.875072766013963, 63.778569082423346,  4.124002849588551
10.887804923457766,  0.057004596774657, 81.872479815937581,  4.134612938000603
 2.002600342612088,  1.932723443064926,  9.180581226990192,  4.040356248461778
 9.768371174623558,  1.271674434763057,  9.033872677820275,  3.907575504175937
 8.299084399520577,  6.989849930762411, 18.228121420991034,  3.740557328614115
 9.057751297088609, 14.865520495730731, 85.829595011533698,  4.156104544895696
10.191218084147105,  6.222627437941191, 34.152516016654104,  3.930740358829504
 1.506031744178751,  0.642422547477156, 36.066369899071127,  3.730576129406932
 0.613688573985186, 11.845619780229116, 50.244697339088937,  4.163706319059124
 0.691161435592724,  3.151652898607761, 21.387490469309952,  4.097265690151720
11.995640457367225, 13.001316297641189, 15.213605341799704,  4.299821087971517
 1.245536307251621,  9.035599307958325, 44.022432964762494,  3.791209438836774
 8.850177492261849,  6.441065154340732,  7.052943632627255,  3.841745662476524
15.026992107642615,  3.917742072376059, 48.217587239650335,  4.026189919651649
 2.492888383646365,  1.563803521228988, 46.194628522225507,  3.912965858026174
 0.736099048383723,  0.387392857405605, 27.214065051471334,  4.079546884434944
 5.300182528752777,  7.633383918266510, 20.297291491351583,  3.626065294713606
 2.079036454301213,  1.110417265057693, 40.563405360588710,  3.967510073388592
 1.341705595537015,  7.003796819755041, 14.791776015917716,  4.016984993536790
 9.992471005498844,  9.851717269289729, 46.114772729742512,  4.052378039115141
13.733048711334488,  5.259089255558491, 51.892530862820799,  4.191192681349700
 0.250117762841867,  7.903522179052762, 49.234336407589304,  3.896677215195430
10.975365147650626,  9.382458063676991, 13.234362554437544,  4.128503517136465
 6.017978868031221, 13.495973766810430, 12.536518611159272,  3.714761336311518
 7.571081378703865, 12.703912016235424, 80.076746999679500,  3.882386047736734
 2.194398117461931,  6.034122276846652, 10.024288127332465,  4.328602714471351
14.764576341117946,  1.307058366766496, 78.056732318889189,  3.676548575515789
 0.622956205557510,  2.211160218379289, 67.418516960224338,  3.832599419571991
13.137695459369109,  8.782397963090554, 16.808022447802184,  4.288331466646108
 2.022889964421650,  8.374989917990529, 78.532617736014032,  4.236705157970469
 5.247469618329168,  0.785763580970714, 53.286971364757058,  3.786326351536712
14.326051877341611, 14.651539779311532, 47.560466982499783,  4.037696622627259
 4.112106642837092,  7.481187484029569, 70.549246095307311,  3.891167268843037
10.880564347390017,  8.918439245609180, 59.780156845419455,  3.723408263215823
 0.514732511808021,  8.881065411472846, 25.277924836174734,  3.965234879305268
 0.037846034733499,  0.951094395523676, 63.711444552718284,  3.935449459074658
 1.622902287149331,  2.485243794778377, 51.538836354729284,  3.853443689602692
13.104350851060071,  1.155721174454387, 34.272775670331910,  4.077716320377617
10.203512755598386,  8.248102664261898, 72.620303211144503,  4.145703157121996
 9.443866961071473,  4.564666407144250, 58.667854854215307,  3.966986699978285
 5.151031421203935,  0.191466974851032, 67.203419662979854,  3.802060749424906
 9.846720111021865,  6.487707541196712, 51.877077226444079,  3.943052974357823
 5.800706768245864, 14.765217039486153, 60.398251883043031,  4.032348935967479
12.237355780131013,  1.996047329701417, 92.937813564459915,  3.886469023494903
 6.502513045570345,  8.114869418179810, 45.189182506783517,  3.939295484478416
 2.445374993687161, 12.448241814743845, 24.740492686935134,  4.093202913160577
10.234161645297700, 14.655958732986111, 18.460926348233436,  3.792143647193725
13.896583988420820,  6.299477629285567, 72.681726848214794,  3.778536863514688
10.044400331470676,  6.495318179229518, 39.506717294503368,  3.893251303047373
 3.984855385593835,  3.360407905549813, 69.308981814117644,  4.152614889324198
 3.052039303063746,  6.247082552557508, 51.640265571461910,  4.190473998436721
10.064493931311310,  3.747525904407590,  1.875510885868332,  4.146088910881208
 3.038137967878949,  2.187022863215731, 88.499748284136004,  3.980157436019966
 3.851717297482611, 11.639298159217674, 39.066973424109925,  3.712320614145606
 6.572564989384602,  8.295098170124122, 30.537488601958515,  3.858301934287389
10.889867317969633, 11.060339342870934,  3.433873384868387,  3.781500326688606
 9.685488251025198,  0.635327572992521, 60.720946485322415,  3.942010354357909
10.060947459324046,  8.095339379842121, 24.126254783674135,  3.888647829379273
 5.649118313728606, 11.704194405449631, 18.246583853041621,  4.277069136018468
 6.995096944553374,  4.715471118896934, 32.281392577327388,  4.057894511800924
