BANDS
8 8
NANOPARTICLES
cell(1), 15.023
cell(2), 15.023
cell(3), 93.893
 7.330827232425991, 11.190230942100360, 70.538344243877191,  4.128446424474894
 7.241852541813997,  4.412129234892088, 46.516870685688467,  3.924009136682633
 8.542808153327119,  0.145122171515161,  4.381324437249297,  4.063602878374063
 3.995578925962784,  5.805256289329135, 62.505460866667100,  4.013273208278507
 6.091610550750552, 12.539777068844208,  9.824852476752541,  4.306327805140063
12.952716627012913,  1.714712672687852, 36.327578905177234,  4.168095202676516
 8.756838029184955, 11.579478901176474, 74.433265510531555,  4.194462317174154
10.745445971770280, 13.410486578787001, 54.177554305401387,  4.183676996408884
 7.407872770402290,  9.332180323298374, 29.415776392856198,  3.998984479580031
12.053140323336793,  9.508413331978110, 48.098529642557665,  3.784539250775471
12.473631970276072,  8.506810921963572, 58.758472853204658,  4.102387317635324
12.225496456253362,  7.276479165326936, 62.621091981054064,  4.001908703992044
10.304259798909385, 12.579176653675828, 58.232666036697644,  3.687281827956925
 6.688495452337608,  8.194776394182190, 39.001012617923053,  3.699742760119822
12.642412630233611,  3.956777969851129, 26.438431136357110,  4.022949432458413
 8.305431727035819, 13.556085413360458, 91.322092337347698,  4.272793071979924
13.610612465536166, 14.293181884868874, 19.871439583934400,  3.911527104914942
 1.511364410509035,  8.745732947554336, 19.163296392595985,  3.959252812120897
 0.331103622846576,  7.119946493161165, 33.361712911047604,  3.894219683980811
 0.200741899286464, 13.477752239953807, 64.212391399324687,  4.304294204010993
13.924432246364823,  2.846849045897891, 71.968110615084953,  4.186138841218511
 4.436739473652541,  3.914927598896671, 17.094497852858812,  3.938408364660581
 3.989850815343271,  5.705120117950257, 33.888550886128705,  3.984782791702286
13.439640118157438, 10.579460031824528, 83.963165331044110,  3.739919968329865
13.871829694629586, 13.400198022020858,  2.187000735976336,  3.653333127890892
 8.470673132469974,  2.381438722408727, 15.038757168656904,  3.861056033336889
 4.545837893489213, 13.696214900222898, 31.281423697016209,  4.001811678088680
14.546950776831761,  3.325742166411715, 32.999749652954932,  3.881945534909987
 4.684562675170392, 11.222927449028539, 84.039590963415847,  3.729084702771376
 9.742577831659183,  2.452311679551548, 11.197287235326293,  4.000729058937192
 8.890964524239495,  3.067315391611326, 50.041523007970902,  4.203975846701592
 3.659925748508633,  3.517507214177503, 47.809954123792998,  3.893501990625734
 8.738629556124105, 12.659893851637149, 31.114438268233666,  3.907620789170613
 6.671770610853074, 12.743394286663186, 53.048449295050766,  4.267835433428837
 7.219879807502171, 14.091865977628181, 79.853480135238840,  4.010869412310205
 3.958309183637875,  8.591497036807080, 70.208640106623406,  4.185124933950812
10.440354124917157, 12.882255485221584, 40.332804985412132,  3.866671881303132
 9.847954382895885,  4.237818735490328, 73.604030345958108,  4.144720152648510
 9.953816092294927, 14.689429446331085, 87.675590302654854,  3.978267705252125
13.352528310732756,  8.364744097284980, 10.844125154549349,  3.983506829359069
11.407550039023063,  4.746752348043310, 16.341845985769879,  3.565624227460193
 9.262914433676958,  0.204987260038308, 37.368473818075238,  4.037785340207551
 6.746427565598274, 13.426407366412439,  1.518426942472747,  3.521674847265069
 9.391583866977756, 13.865555386158471, 13.231260950733324,  4.287430673945085
 5.273592239512102,  9.665888752515324, 73.846485196611525,  3.839508209079920
 3.686239045761253,  9.191891272381191, 92.358511573984032,  3.741686082069593
 1.847567299297266, 12.749479198095880, 78.476065740095706,  4.115576872278231
11.921945670011640, 13.313680198626315, 47.253023499418873,  4.014375852911448
 8.946861542395482,  6.021883334413971, 13.196327677615415,  4.327513674254921
12.279306967031902,  1.695733821518293,  8.099444015335379,  4.047572506493571
11.555751970430990,  5.736795694857200, 48.585965659360632,  3.863873206470722
 4.484001247662168, 13.542918900903560, 24.134959138116237,  3.961265169788399
14.848645206735393,  8.443869835397809, 37.050566821226390,  3.971013123767785
 3.794827206578206,  2.981447757830416, 40.692437660739770,  3.859253022259313
 1.431617034346233, 10.315295402496311, 81.712776503165045,  3.793896864180630
 9.281262415206717,  4.308750376456326,  2.093738569674020,  4.190654949500829
 9.791115163878237, 10.231375460145916, 61.276251185334608,  4.016684085724052
12.104154625434765,  7.353249874807410, 76.922364889716334,  4.046095140405632
 2.237206986748228, 10.305147109701430, 11.359817461718761,  4.169409767056360
 5.392486026836753,  4.917729476722612, 51.020694316184041,  3.891498470172429
 4.918682209873527, 10.932243471893932, 80.267517064279502,  3.847635794073756
 5.862876581469649,  2.389858918301099, 25.923130607164421,  4.028057428651003
 6.360204174782123,  8.579048101033743, 86.275302541964251,  3.960316248937162
 7.764300923057288, 13.241402347011318, 16.916287017023492,  3.847507662147146
 0.325562496121941,  1.530667936542396, 47.437953432591357,  3.883163987577932
 3.154338289378214,  1.643637293540241, 33.821937642505709,  4.256648864297396
 6.735940129913161, 12.526185737459636, 44.405258141354238,  4.198445251186319
 5.214348937941835,  0.822261932811758, 37.395075729597210,  4.149358772581839
 1.934608778038441, 12.310305558343520, 20.665639045652867,  3.756157176885130
11.513776402399269, 13.101760389076784,  9.723510785885354,  4.009372584624868
11.514994664146865, 11.899268106824140, 71.109769374769328,  3.886992412068275
 6.640103355575431,  9.032034042797104, 67.224412334608658,  3.884362861124547
14.396462249310945,  0.200842543489156, 26.959029347634495,  3.992788911874446
11.501861452050886, 11.636590132887342, 93.367391534072567,  3.919414330848184
 1.245569651178613,  6.375393239501929, 12.859787546347711,  4.067322626624032
14.490825108103275,  3.753697468141142, 22.873875966629939,  3.995555190357338
10.839114100090177,  4.008949235806574, 69.835152768877165,  3.653289014717523
11.688478019426958,  6.971167014392673, 23.706267766647308,  3.624369804999061
 3.694940892340097, 10.063843488020140, 88.691625505808716,  3.790853701991352
 1.314567543088365,  0.345434095327136, 67.801303625565794,  4.073214925439808
 3.833778628610971,  5.495206557390337, 85.802970775641498,  4.031154746560972
13.195941538249727,  6.472750753059922, 20.220163259272571,  4.015252572036374
 2.428703194525947, 14.070349876211084, 12.772218165818032,  3.787096482019618
12.876674262901524,  0.865722066253553, 90.641686973305013,  4.656984217717763
10.138157960524348,  3.631450613925512, 63.110745063799634,  4.351131850802020
 4.782312674526511,  9.547046424361728, 63.304287308688345,  3.754390172658441
11.004472586252527, 13.903335508386490, 77.804172461619331,  4.196254745316150
13.662493020211901, 10.411537938487676, 55.145853918328712,  4.391588840945036
 2.001705603078600,  2.713742166526990, 60.787561189483263,  4.100234918939211
 4.671911426770341,  8.133753406073508, 77.456469039885050,  4.095445820668568
 0.793399612991870, 13.393998649006273, 16.405118683195564,  4.170837680240171
12.177622433114298,  8.326432311400298, 14.760976295285928,  4.162273913146939
 3.504225532468427, 10.605378826200200, 45.708870636848275,  3.757945768271489
10.517429139225911,  3.130062685960969, 33.435481352005809,  3.857278871087125
12.241207117182272,  1.920810978669058, 29.995671708185952,  4.196317209008836
 8.572589084600432, 10.455858443986042, 78.507391498627598,  4.192418467612177
 1.818216391945812, 10.802035564861395, 32.406472488299350,  4.237115427739232
 8.511350171738268,  9.733808017662184, 55.874666782158563,  4.518128353241501
 7.291109066165836,  2.543041391659925, 86.310623507615858,  4.322336666595959
 1.843215842460076, 13.464671588998328, 89.035475907541908,  3.906947731717435
 7.772733898116585,  7.147094443404853, 35.400647219645464,  4.100662159565283
 6.334501425110870, 11.673332508910523, 37.520534442567133,  3.877517140968712
 8.919334620824838,  3.308967709425802, 28.218364773911844,  3.832171496744294
 8.982922937853255,  3.765861009969842,  6.458308665870954,  4.297177068682938
10.452558053646074,  0.436858773258596,  0.643074870945313,  4.340493206583885
 4.606854940403050,  7.754378579974974, 15.826195908132416,  3.795689406183699
11.704458134990981,  1.657121786709435, 40.297799102088057,  4.102849125674522
12.193697618911173, 11.652115182847812, 24.947997818404829,  4.022504644653509
12.101563282031238,  0.502201022466323, 23.626845297317537,  4.116080846998037
13.041231386205014, 12.698939279288995, 37.296774484268255,  4.121090713366176
 1.875581588307688, 11.563946772508656, 38.679818465033527,  4.162840102033512
10.555148270957197,  7.417228713314893, 45.091265299927620,  4.120521540793202
 3.195850764246706, 14.835738859881644, 27.545940614031895,  3.759564945934141
11.063966119644252,  8.276805907345558, 72.621933123553177,  4.002282265918262
 2.553663997051967,  6.820298327308018, 44.392605917935100,  4.084616265240752
10.728053154147183,  6.210918542298957, 56.032575369219273,  3.800772787980048
 6.716636445719926,  5.135291940588894,  9.722406526062981,  4.092312689650171
 6.161721891882817,  6.063099714231977, 27.482542125308456,  3.935003208709766
13.140259880500174,  3.432295432438577, 76.046178655899723,  4.185772636314270
11.384837706594771,  0.385919541064600, 83.945478909194193,  4.010251448169171
12.015873954796916, 13.294767076156269,  5.655132121955430,  4.195298805104417
10.734898583157735,  8.093101207713080,  1.002302070807696,  3.880970980577380
 4.349774944980739,  1.947590053764488, 22.355342023580434,  3.753889863255709
 2.415883923092607,  7.122479553135485, 40.053195174537379,  4.320450076851499
13.619879339194858,  9.156488594548847, 30.530639048513144,  3.874247305188211
 1.681281701602817, 14.169219790340426, 50.256977406604037,  3.957921924760227
13.214843261415687, 10.519819190717115, 34.055141501787389,  3.683233584414943
 3.818210216093362,  8.900952329525056, 36.279425614378901,  3.963259723132159
 7.892583101825740,  5.635557968627758, 17.088185960042196,  3.772141238552104
 3.603786506567396,  0.258108342241746, 54.114226788147135,  3.948431353607281
 4.329345571970531,  8.594337106261754, 55.665067085607348,  4.158709332894697
 3.615341161522672, 14.461931287018629, 81.878782738485214,  4.276973064434030
10.592137969008730,  6.934224416940107, 80.645320463192775,  4.020870129846817
 8.578344176514285, 11.193445502191041, 47.786448937842863,  3.950322345073164
 5.347640023658935,  0.912943469026931, 89.540539327877042,  3.874764228510303
 2.029747124254176,  4.906847959361424, 70.138202162154840,  4.130955688922966
13.233737424887531,  8.768965805255649, 87.446728069304058,  3.873421257118987
 1.719648981095553,  8.956738010650456, 85.456401188243206,  4.101803155896723
13.157402510787945, 12.501723168659781, 50.996224293760825,  3.994028264783456
 5.853801874455645,  6.630085704200236,  1.841093816989259,  4.100137656342508
14.903535718304752,  6.099075131314217, 16.691537101489093,  3.858141177456502
 6.856319037459302, 14.485644006377843, 28.254285983406774,  3.702297805822579
 4.154983880417296,  3.961851717154479, 54.446162521133132,  3.565230386880101
 3.174565583246637,  8.508240623216478, 26.345357516665441,  4.102812141551097
14.802131810144411,  9.980340242704230,  0.739323041144494,  3.883332945595886
11.127134188124934,  7.125209724097131, 84.557085184019144,  3.865678105517383
 1.058806606596846,  2.984715406991811, 56.658040278753305,  4.273065666095531
 6.125917442726614,  9.108389047591542, 59.500034237726297,  4.166706485870246
14.761575486322696,  8.155215350013174, 66.044661737280720,  4.132959035028196
 6.131320346179569, 10.266749042852483, 33.102939948312255,  3.996470524870201
11.717727793905832,  4.307564253571955, 92.812312548388348,  3.786727878179343
 2.205289934001459,  2.794989768078093, 44.231455841427291,  3.888537797953205
 1.812424015593342,  5.107186960281726, 77.171152710897630,  4.232216149866195
 2.936905655067731, 14.219981786729996, 42.244024602676525,  4.282736697473832
 5.299064134602727, 12.309806719312162, 56.875451183803342,  3.887303164470076
 6.506133732076011,  4.117495145497188, 65.051662997587286,  3.890840288311888
 0.386851600157429, 12.820605909023442, 45.555108579438127,  3.783329101726314
 6.090755053572899,  3.411111935463176, 72.082975218063382,  4.125643572766633
11.117875396735123,  3.265928069065204, 20.985229014472935,  3.772732525304498
 4.222239936089439, 13.188111662604422, 64.050265057266955,  3.757359974162773
11.626520185084891,  5.994118521080037, 31.211497858341218,  3.713272067039433
 5.886385167089548,  1.022017991221176, 12.236115886281896,  4.194744560750955
 1.371004346142942, 12.719121270285790, 84.622932134395711,  3.621217916321961
11.312221832496366,  5.933517042757757, 66.481493969217965,  4.114246927360131
 7.141043575912456,  6.152286563494971, 54.239634484871779,  3.810105087662574
12.884261093673681, 11.150186786655928, 74.840204625058476,  4.117288210051306
 1.247508518091722,  0.658245056006177, 38.604453520072191,  4.150720971901387
 7.651942155368565,  0.878496869549823, 76.192798434409070,  4.184281040432750
 5.619558018539595,  3.048055752996238,  3.947072273863115,  4.218640694013684
 6.160939281896260,  5.950087044476955, 42.322956935193375,  4.376529954545307
 9.066639517257403,  6.630314818665520, 20.718193369971065,  4.113263875568982
 2.660874038195052,  1.311920882412904, 71.848416694009160,  3.908081775201812
 1.846310482725583,  6.636038463996236, 89.075312848503202,  3.937824473865527
 6.658793334343632,  5.936624522672743, 80.121396874942661,  3.869547120187072
 7.503960572544560, 14.029869511384003, 83.950300600484326,  4.179079020016909
 8.437360517206692,  0.548400795381670, 70.508446604797271,  3.803429751008043
 1.016675080208256,  9.802005786857812, 62.639033917008810,  3.846285468202366
12.343275195171005,  1.084887776677583, 65.536088038419038,  3.924270992469517
 3.731619142346433,  6.261555375856553, 73.384088409209454,  3.681753300115983
 3.555355956844604,  6.481417846494453, 66.553529225803516,  4.232100318334771
 0.913513828319559, 10.386860400357300, 48.763591055424754,  4.263856184888085
 2.065468464511809,  9.844348609174569, 58.838728077515213,  4.020016059084837
 3.790328497019646,  7.701257069233725, 30.346702527733132,  4.147224748832334
11.338348635433430,  2.221382851402087, 46.878610437851279,  3.943486160036024
 0.056317618356393,  3.445250195468102, 41.121263060570563,  3.710471546946304
12.224250314094963,  1.135521008644002, 14.732364687825976,  3.573792603988496
 2.262243112923715, 14.226019392513058,  8.719939356559411,  4.317568038938372
14.424299679093368,  1.982476451198277,  0.740310770434463,  4.184126604337985
13.409817463575953, 12.069637580645303, 60.635671334025368,  4.144579967792217
 6.015336686315482, 10.185123295521175,  3.869199777656385,  4.078042978574514
10.238320424373734,  9.072875446227288, 68.747394350515563,  3.903503698606111
 0.018494039718334, 10.160823008368482, 71.573007930216590,  3.955635049559130
 3.240912542617836,  1.895415465707797, 64.566412141949414,  4.012371053940973
10.105546898494261,  6.494957468684688, 88.208156080688070,  3.776654180577941
 3.446861794552728, 12.974391638293330, 35.339282312938138,  3.737200639539410
 3.282610508767928, 11.852297628999393,  1.318527600941329,  4.091398496332486
11.713070584703027, 12.840965980626949, 16.640133021321972,  4.109263753978930
 5.248873030613848,  1.940970393113335,  7.825892192259543,  3.851374853500901
 4.057726742254764, 11.241873452096858, 17.487683092122694,  3.910440436144024
14.636076822789686,  5.434486334627513, 85.731559933290697,  4.124158009349978
 9.563336789530496,  9.931021361146092, 11.546070866587684,  4.231974153175716
 0.625184015475961,  1.723911623054196, 83.980216600894224,  4.311314287598291
 1.109905231244917, 11.495643692717847,  4.642775647352855,  3.871844103674678
13.795083805853491,  4.869744628701895, 53.771390147613381,  3.996397121544033
 4.154741801930135,  3.147856071373294, 29.806096155939347,  4.522380886288969
 5.764876880886885,  8.423580187059175, 12.017466556300088,  3.901663437310266
11.986314546157345, 11.847188428695887, 89.501219751257452,  3.880993524276705
13.396374556514283,  7.031412084149500, 41.950938446462075,  4.362251947331918
12.492014456554365,  5.918415366756166,  6.006062597144042,  3.982121674270955
 7.199994616096919,  8.875692243737333,  8.476374345955426,  3.791398683014213
 1.897459845483864,  3.275483668456766, 26.094306384279967,  4.100118823152188
 6.756224100089126, 13.254020694827359, 60.733741430904679,  4.573445571595687
 6.413167029786389,  2.769061492402849, 61.259554087869731,  4.107553954033025
 0.907208951718436, 11.629769950465954, 28.339295641943831,  4.189369809146882
11.726931634132336,  8.353066028871028, 91.138202182510327,  3.738961240961567
10.640151995184148,  5.901430073256413,  9.487639728773660,  3.815148650171388
14.043149004036605,  8.342326434377314, 26.531367980954435,  4.190190911033294
 5.141588156236145,  2.400502658350564, 79.390177492030020,  3.853051155884572
 9.774695053972339,  3.676303030006176, 43.400756257319500,  4.219161335397485
13.601664368352596,  8.268679286748235, 51.494339683783394,  4.070756589176984
13.622232478162697, 10.380386710524149, 21.380905925205777,  4.053360708549000
 4.643289028417767,  5.653528328571766, 23.747443912361973,  4.145478682772274
 1.499886569955511, 13.047185060739361, 56.546855402731595,  3.876404575042779
 9.442166528961058,  4.286052648042693, 77.767159664469574,  4.116416913384251
13.682530930787141,  1.028064731797358, 43.844666276390022,  4.071534707287202
 9.736173058498855,  6.189910409983341, 40.174139378634962,  3.938711033007389
13.848404645234767,  2.839607970357431, 18.385071090082157,  3.778366849397575
 4.772219597302469,  2.535193560481028, 68.302037116255548,  3.994974079597049
 4.171981419533754,  5.364990021487825, 58.375278716967429,  4.278272994017160
 5.516677773746698, 11.982109657534844, 13.894581306849659,  3.973752705500629
 6.461962027522912,  1.861350310627773, 93.539985531026090,  4.335201618143877
10.508469562261158, 14.555361827535839, 27.180359508295155,  3.908838628976095
 4.156416096085336,  7.651324787137899, 82.486868323943540,  3.816923430018683
 2.529248722693066,  2.988929770217388, 10.656403823363307,  4.200466803178888
14.319467557644668,  4.922351276883724,  9.297785205509140,  3.803922809074446
12.728365024615600,  0.261678527642087, 69.240305483970133,  3.682707341063356
13.015116707008771,  2.546468635013609, 50.533973766482035,  4.123578666753720
 0.474164333568569,  5.562767059498370, 49.077475721986112,  4.084006438820070
 4.659902892678433, 13.897731075612048,  5.182922439354243,  4.245117560079798
 9.787946573624003, 10.743471099222811, 35.808600116525255,  4.011382769579632
14.768242659116408,  6.631617464888575, 73.723046689130669,  4.325851657819988
13.707408375621078, 11.882016589069659, 13.049493897073859,  4.295448450719836
 5.042109784727218,  5.037630913001087, 37.635859327243026,  3.912912885196591
10.515756357115794, 13.860487010139586, 62.885052025855096,  3.800633291550112
 9.106610169717529,  7.620986273248040,  4.607738398535370,  4.087031622320541
 4.979880003065011,  4.824263769028724, 13.314989031879962,  3.900904446023938
 5.469173826901669, 12.425689865537715, 76.687250175695240,  3.949775674475890
10.386067394209773,  6.086187800220626, 52.232808308708051,  3.817441366031260
 4.465467138580970, 12.795500724866125, 91.665195044000896,  3.580320342339017
 7.842545765251750, 11.542214717017911, 64.481668879115730,  3.920303551493133
 8.055284283165838,  7.420590822903305, 48.942455319719073,  3.936973341497819
 7.564595023426556,  5.610531178661215, 31.412009149121069,  4.451966983434465
 1.200937226480383,  9.526552137734365, 15.310791588609945,  3.903613825735328
 2.544531198691107,  1.450956962425772, 92.163286237949535,  3.873781770176989
 1.901656023556693,  4.696501439263631, 81.319591079530809,  3.890124459187870
 4.925851329769485,  2.978227557466230, 83.099570829181772,  3.649777161478666
 5.190716409199606,  6.908919624098215, 19.572221843395063,  3.968389957132208
 3.031545004944221,  6.849946729332195,  9.224091709767714,  4.080090673160424
 6.896306887686890,  3.263283722410766, 34.756396216720987,  3.779209911397369
14.623304137587374, 11.081192515272265,  8.235464843530263,  3.962747040795803
14.019298609090573,  4.755022415336644, 45.409172940427844,  3.983255998850664
14.091345595095222, 11.809551865035600, 67.963514369503557,  4.202234520746943
 3.779457228610033, 14.752255583408910, 46.388370412998221,  4.183075956752953
 8.256361696570050,  9.489153325305406, 15.580030153954798,  4.157278326214165
 4.581880309531945,  9.717764842524931, 22.554600199810309,  4.303266748987803
 5.723829697842267,  4.470111450511220, 76.118332068176258,  3.965810518950177
11.767455313887794,  6.749266324303325, 34.978728244068272,  3.963421038362254
 5.780957218364181, 13.715531644801169, 67.593479941821087,  4.054845418713523
 9.212261711924569,  3.912773220799268, 24.357260010929707,  3.964758813632737
11.422555940277439,  3.234939070521900, 86.680625225954259,  3.884165481153843
 5.291926821130988,  6.682900437732004,  5.857262476606537,  4.009847341491212
 2.202736500669687,  6.730559651746884, 52.632833156726534,  4.114152183974933
 6.752528244859750,  8.594675617000183, 45.428242899809810,  3.850612048058128
 9.060147632729564,  2.241057176818535, 67.136742350932622,  3.696342422397023
13.747480753527141, 14.184356394977133, 86.840005934455206,  3.847618626236881
 1.087179556684672,  2.485738305346337, 14.810565583655226,  4.637621989855570
11.056792553970038,  2.326485271755994, 55.075536586627003,  3.882486568004273
 2.411956340254418, 11.184910737249876, 53.025018901559207,  4.170013024368793
 7.259545919935205,  5.728325013303674, 83.864269716701017,  3.706194459515614
14.196132383023549, 13.310496457496635, 41.043646212518908,  3.811469767409858
10.218651639853460,  9.293980364397598, 32.235280771168050,  3.734589688895575
 6.148086771692070,  1.693528553876968, 43.584102714957297,  4.006284316206026
 1.940281320636079,  2.842240696494995, 51.632797571833763,  3.930990675224655
12.803502568169037,  9.439859549017305,  4.120895034407570,  4.018670019239191
 7.980116010894332, 11.627495542153754, 25.538222334053117,  4.475318660917279
 8.028243581443219,  7.632815913003129, 24.430960234855736,  3.814786106235184
14.520888688262142, 14.658735949880828, 75.855356966559626,  3.864348907626158
 9.912281453266711, 10.820758039340094, 86.018996175296678,  4.438970113047962
 3.770617301161554, 10.275246139794010,  7.262787206986757,  3.950787494709446
 8.726769159565571,  9.659549535021293, 42.059557069070493,  4.206804912298199
 9.840749296270335,  1.116925352857734, 59.733820192321353,  4.088775988110656
14.203319569432496, 13.596169793531626, 81.527449021945117,  4.161087692962758
 5.358072255548505,  0.859570096798977, 50.460029087870446,  4.153607596974763
 3.945172883229495,  0.166219868926096, 85.902953826695963,  3.925935167099969
 1.363596291514085,  4.232174781360905, 36.474157534500904,  3.950345991372778
13.524201941813244,  6.965252278274939, 69.748871153463128,  4.004414225434902
14.678408918648330, 13.967836845661310, 72.114045311709859,  3.744781355346658
 9.817862282453182, 13.295166794296723, 20.233737246310856,  3.907728927070376
10.003860618000807, 14.684072982932136, 43.845369680000069,  3.627798180468427
 8.665965026560167,  2.610278080811515, 81.623226378550086,  4.409321965683688
 9.630936601896911, 11.553745202853783,  2.895153446522984,  3.870850896967333
 2.366932202570791, 13.594083280710947, 60.533713531233467,  4.231761386089999
 0.258470788448843,  9.956802491795033, 90.625861367280734,  4.040208504871711
 8.921286051763213,  2.703383442895793, 90.195411335772221,  4.109165292696781
 9.510239546643142, 14.065784138535877, 50.348150999997912,  3.961318102532961
 4.473214134160643,  0.131358729410512, 16.024234917260927,  3.925728042668121
 7.315551265980946,  0.384851384502629, 64.336801135452092,  3.871286198270880
12.438282374480799,  3.988324992662879, 82.685465788039622,  3.896049117461144
11.038946984162981,  9.406828063244811,  7.724329726641676,  4.003494558106320
12.793828029157725,  4.385958109858377, 12.853193801483254,  3.938401334078159
 7.008758474695717, 13.882499842500660, 34.395658766844321,  3.847179027019834
 0.771302149818359,  7.982559282768620,  6.194755602647781,  3.807014055468857
 3.373672061774030,  1.030103382304649, 75.924399897276132,  4.370453273067274
 2.150482769508362,  0.940228841341697, 19.308265526674617,  4.016655190753259
 0.263451528389801,  5.392687478456971, 29.448157888348589,  4.467986541786884
 6.733317208996538, 14.048673808836062, 40.659479714794891,  3.887723311153282
 7.633303898643669,  1.380460766331819, 31.474433237857809,  3.921601712031258
 0.631828715296883,  7.042641092611494, 56.463007677399553,  3.858190287346080
10.867377335890728, 10.811598458738535, 28.505815821697475,  3.712592309950812
 7.424438067065736,  7.513324742784343, 71.725019063511908,  3.571858556222265
 2.986593138569071,  0.709692811160025,  2.013216155207805,  3.803623046207120
 8.227088403892781,  6.203335591946860, 92.354958411457346,  4.194780879602011
11.014738523100206, 14.087724459934615, 33.969205585877980,  3.911406080066555
 4.031755467573721,  7.548958571194702, 48.233539147234879,  4.225974291152485
 0.098585537832994,  6.438102470956092, 92.734943487474624,  4.168140390034953
13.102492329751890,  5.200484166172012, 38.313388712131015,  3.800682998280259
 8.004973085256117, 14.923089366388817, 56.542012660642392,  3.661756624375570
12.228018206977861, 11.165751333882167, 43.798144319434037,  4.143101894345627
13.006027207348389, 10.072452400235740, 79.777030192970003,  4.042494676985017
11.770839843445032, 10.626135842735067, 64.780143034826395,  4.011751709484246
 2.279777381354874,  4.640428556799994,  2.047833774660956,  4.075902625155484
 4.846060744691313, 10.664843084444353, 41.295987287249389,  3.951314178244489
 2.955454800181054, 10.635867910243769, 66.754932967497908,  4.087703803394458
 7.331835179760403,  9.940240780104689, 93.876382712994399,  4.028787906911156
10.253257132312507,  7.019858276654944, 27.663230470528998,  4.120754788647154
11.049670129140569,  9.345779630211888, 18.512752519350162,  3.923589422984251
 7.655918848108665,  2.806489220412079, 39.985108219930346,  3.995475439723642
 9.202301738615995,  6.408857871273545, 60.066829069687827,  4.071033890773990
 1.044567375494688,  0.127827422895869, 23.084187201074453,  3.904433786292637
 9.763242186378971, 10.091761168533710, 51.625663876107630,  4.359420965930096
 7.324751779331796,  2.657086012963207, 19.745893079325878,  4.286610499476826
 9.750979729178368,  4.053200108472434, 37.020966598983627,  3.675682280007215
 8.133626024991093,  9.575788058645070, 89.840420544111097,  4.218601649051835
 4.573169747449573,  1.078739232623690, 57.973121130063163,  4.138248025546964
 0.956463373999030,  0.508490612475085, 30.568152326078604,  3.875733412034116
14.522030515483568,  0.275290251357735, 53.741693166809000,  4.273788456697861
13.380985120269900,  5.029537126225498, 89.454871004901889,  3.774227188766012
 8.633374255499847,  0.204361903975947,  8.267873856164950,  3.709981814589604
 0.631371606446983,  1.608625937864026, 79.117453090117451,  4.088181315182493
 6.451525349450311, 12.642467790593695, 87.662598876994480,  4.021742004161869
 2.155537563959845, 12.039713865614036, 74.429226128618510,  4.081185413091225
14.232288910514569,  7.333286940298406, 82.288540355261020,  3.724117381547713
 9.911340701863926, 10.057765919527245, 22.308111026439267,  3.619996552031895
 1.803873890208688,  4.868213768185915, 19.866467153519778,  3.935393490329027
 0.743117640999708,  9.114606005088138, 76.961154909979172,  4.062324116653190
 7.868349024106220,  3.733401470212080, 57.288663172082309,  4.087632627001040
 0.487109818221322, 13.274174406252076, 92.714572131244424,  3.810785209259181
 2.038563544182888,  4.116814654201860,  6.201187655809948,  4.304656881510082
 0.001593877214163, 14.065751459583558, 34.054302818263260,  3.918304605658240
 8.344518256884747, 11.897502257468712,  6.487344617022669,  3.710757246164581
 7.763513246302667,  0.473904155681099, 47.053077318838575,  4.021289398676538
 4.099495335192141,  5.209335650619426, 92.204038361694842,  4.260970230982283
11.045370648543326,  0.121388662541985, 73.655269230324592,  4.408830708842370
12.097034941394019,  2.116559371325886,  4.099406611072651,  3.989001059568114
10.547827677135716,  1.269320934932227, 17.948271232038557,  3.574381345726901
 8.389796250062012,  7.489100621254079, 63.952030215366143,  4.126560371070279
 8.026526296725301,  0.215816422704988, 23.233864745170322,  4.083180623847905
14.195143730849001,  0.609359743475399, 11.429951364361248,  3.912874883728203
14.432719419411036,  8.557840378833573, 45.574009670801523,  3.385042295308668
 6.343809247047032,  5.629842945744998, 88.837315567743559,  3.844488973885771
 0.556173338901133,  0.364342904441027,  5.083565291915316,  4.036777873242563
 7.537959816442781,  5.448958807840983, 68.581480971324211,  3.920228286278374
 5.743680879179029, 14.067521878527273, 73.008639289425801,  4.086667272428038
 8.263621776511451,  7.575879769868956, 75.505745101690692,  4.149478120782646
11.651064674443070,  9.415016625264791, 39.088780456753881,  3.851919756992365
12.617417537240117,  4.105390414826106, 58.862094240423993,  4.195272559622281
10.355006283856168, 12.410538449345973, 81.580313916634310,  3.892768273404509
13.242394782724325,  5.474701081514789,  2.221412502468278,  3.759103683197945
 5.567263060089582, 13.864782704364531, 20.220236473375600,  4.167068282411409
 7.324538943200402, 10.261910141391821, 19.500179154747073,  3.975054181482720
13.014751707006528, 13.025715571775587, 30.783216579243955,  3.886971334375087
13.374429627014594,  1.223117582768128, 61.718188846234227,  3.988709171303118
 0.531310023534309,  6.498053042472079, 60.492225287831417,  4.027863114828255
 7.345113309532477,  2.249036147353410, 53.664510973686191,  3.811134358902837
 1.023589798998914,  7.496664148869254, 22.990872789815509,  4.105211675655402
 1.066074551910847, 10.216378921069417, 42.637911836025161,  4.088071443685922
 1.152059352455158, 11.331933030504581, 24.291557693894504,  3.907250564729286
 7.870195297476801,  9.370939964104380, 82.505263272518306,  4.164420391746677
12.023835881834051,  2.102717450561013, 79.641817509402387,  3.283003842345726
 9.875908586214905, 13.110444159400068, 67.615053500588701,  4.175058643913798
14.894566104496580,  4.368557665494080, 64.081779721345072,  4.399845708288983
 2.970699728971657, 12.622858299929614, 70.347635010846489,  4.112496866914497
13.285834516457509,  0.049268420724262, 57.759832689640703,  4.124308919011230
 2.531172827748186,  8.400956298870764,  2.918947668042870,  3.658323629288245
14.036242925655399,  3.521876400107164, 67.995797455650347,  3.764832636481749
 4.881944608820124, 11.936584330893339, 49.237568377700171,  4.103513408590836
 5.689465270987090,  8.874960044763663, 51.810814180780731,  4.032371380263777
13.744252426042465,  5.162281036815861, 79.480608405065539,  3.404521227385140
 4.751495988672199, 11.567216095819193, 27.987248749819717,  3.508698309417769
 1.438473317661883,  2.535496388111615, 88.305656769328891,  4.434795619354812
