BANDS
8 8
NANOPARTICLES
cell(1), 15.021
cell(2), 15.021
cell(3), 93.881
 0.037319101495803,  3.390484886575700, 42.118795747536119,  3.990565883278470
 1.398112621749989, 10.242438729282753, 84.405921809557896,  4.256619981549648
13.283252829035264,  9.005626522450180, 93.301064871139644,  4.069327909670866
 7.343551509735602,  3.323979553665657, 88.162712742779618,  3.778206189271704
 3.761921617153226, 14.774634520896662, 73.589295677585028,  3.766603530763273
 3.129467600433975, 13.022957673548641, 43.947675650373569,  4.115559782368996
14.308719775259197, 11.487112195922098, 64.027793874617743,  3.971435872581437
 8.654373794823661,  6.205274771513269, 53.564951934025594,  4.113760193422522
 7.140680457680698, 11.835045742141217, 49.516236751279791,  3.556671049545913
 3.708972572464240,  5.217820271826890, 42.272476869982732,  4.135482943398651
 7.211201404240491,  0.491984382774416, 28.297970532867961,  4.024429594984923
11.580743758718162, 10.911906098862385,  2.532849371602905,  3.880699978580056
 4.937277733307054, 11.466746325251417,  0.624654654352224,  3.834086932904661
 4.567661805577115,  0.928894921996678, 64.850551921212841,  4.067931261690177
 3.271926120551352,  5.724445886300256, 78.601559996833743,  4.265461033181686
 1.185628559378733,  5.788532869145896, 39.173220139847594,  3.937334034439221
 7.211771473160161,  4.844868819574129, 77.826168729327335,  3.654947690118795
14.430453799875286, 10.016727925278662, 45.295034685486641,  3.996975273011774
 9.965494942468551,  8.523554571969823, 13.107283410639376,  3.974650618418546
 9.577977605150666, 11.922481741579015, 15.149353099673508,  3.980018259224745
10.451005329062760, 13.579731908428801, 69.568173057957267,  3.717397011313240
 7.662194175572629,  0.224676157562582, 76.040090831447415,  4.258624561631922
13.046667621214064,  0.790148408186757, 49.419419643554356,  4.215652257321805
14.531315804199625,  1.668743317385463, 12.830620753730553,  4.122532801040093
 5.457844710998739, 13.974476991745112, 23.619274736689086,  4.066790394605309
10.025031794636631, 13.565969183146770, 47.800975054397561,  3.910546776501586
10.831716415794078, 14.084873178844578, 27.028438010768078,  3.882746614891293
 8.504230758280665, 13.325250986337574, 11.496066491774885,  4.038807875548055
 1.132391810104094,  8.244072660879301, 26.254501858313038,  4.117029494520858
 7.087752159334319,  2.188957881994466, 10.686135496467408,  3.943313674870717
14.452503474908735,  2.254533741312914, 81.757267059078714,  3.875109893585715
 3.010024601083365,  9.114118298529288, 11.270361978022718,  3.951337888433669
 3.122739738161499,  0.351686920610030, 54.773008537179898,  4.272661411772501
 0.001772655560667,  1.340862632173241, 74.000695290691155,  4.396000231110150
10.486643966939603,  1.592632460504478, 12.539252290735174,  3.869858995822068
13.089715715781463, 11.693484015098781, 30.714147614654888,  4.015563764319258
 0.680785504646449, 12.536944347079992, 75.816683108996145,  4.175534623603530
11.012387707787424, 10.546693055933806,  9.774166090818026,  4.091461297178017
 2.838210323008807,  7.123888977798883, 49.675753229720705,  4.199825236102398
 9.880139483327948, 10.731590506006459, 66.667399962263076,  4.442908980626717
14.117533684528050, 12.686179202397950, 82.062137388675580,  3.595781266185952
 0.283186837592426,  8.766282153746010, 69.250365939209175,  3.916185381767994
 8.801123199537994,  5.378063501137865, 93.774225541945739,  4.080179956328973
10.624324421089289,  2.791302238542283, 77.907523862623762,  4.280279076937275
13.907891284132186,  8.743064556148047, 38.006746738448442,  3.899491764896885
 0.736274811547266, 10.058540324839445, 59.743845235310239,  3.891392613050231
 7.157632887623816,  0.711152082992797, 14.330224273223534,  3.862264871138861
 5.517103830019228, 12.325130204704578, 15.850167615117867,  4.279980722542889
 8.892228958721894, 14.526653097268950, 51.328664471123247,  3.674472663698495
12.372659578276005,  0.047335943884997, 23.501602370719699,  4.025355462723017
 4.307266691026454,  2.186018196315809, 30.466587626491503,  3.975555595059863
11.059540041338771, 13.460811657073227, 59.209220928079368,  3.905725225497174
 1.339411278948684,  1.034328481241510, 19.356575047248644,  4.011201248126699
 8.638788474421569,  4.617692649989150, 57.463842826072884,  4.301548856306093
 0.435400310901380,  0.782811960504016, 64.176962124474827,  4.266938649848721
12.376823395887072, 12.558363544139201,  6.495293302033982,  4.066732261381308
14.200378044807806,  4.244871399569807, 88.979381519695337,  4.265639142840097
 0.832865944515779,  7.921608635957442, 56.414196116693013,  3.897830398730306
13.795255883471290,  1.054084959334979,  4.986974493446753,  4.082457446505469
 3.020192796761476, 13.863720221994008, 58.661295555718489,  4.023635345592377
 6.603160257896830,  7.657446292931389, 35.789103454158187,  3.902304509064729
14.815452166042784,  8.193842489896253, 89.714279225914837,  3.842109769472728
 5.758176990990471,  0.020265300805506, 61.181600409814870,  3.779380961532414
 5.082028014204789,  2.558695994765465, 17.289534764342577,  4.254435601873899
 3.329821365967772,  8.044744797064993, 53.504810539570038,  3.735678991534706
 0.510865111970175, 10.252743869817806, 33.696586095166353,  4.179903525949423
 5.397059250272790,  2.481287295236698, 80.440770911455459,  4.269312238094874
 9.517811690395813,  6.526411501190833, 28.347949581837824,  3.577336745901234
14.217229022057367, 13.050914736221143, 20.574315995317669,  3.683427178956373
 1.345672244031258,  4.328140358282632, 28.334875996577150,  4.468969890318599
 7.583366530589901, 12.976556499569250, 91.235858816492822,  4.041525979267399
 8.268406602235789,  2.927031199700614, 20.245173407459077,  4.352948258616540
 8.817565657437047,  9.382169941671769, 62.945710190234138,  3.753001043417674
11.136375432200852,  3.916861795437899, 22.989965157783502,  3.810873445852172
14.538760844515483,  9.317825118579757,  4.933595043506894,  4.326884842829678
10.974942062838014, 11.350678358284382, 19.055455606704307,  4.116894045192731
11.640600056092385, 12.671706006107264, 38.674882577030907,  4.074476054207089
 2.908992609060479, 11.195896721730298, 55.690670373920646,  3.961884983018110
14.478296566270298,  4.766530770861117, 49.365616861537355,  3.918972577334285
 3.506445231649459, 11.379495786672688, 50.586830170452792,  3.957575694800141
 3.591900785843499,  2.216467366659474, 90.948462432026943,  3.955690650765971
 6.635121202062711,  4.570750439666274,  7.747330789304961,  3.669448688007250
 8.748869308923927,  8.993384714267869, 84.326215987297772,  3.948137905637110
13.129702859219449, 12.981500133584019, 72.314613569618061,  4.030398745844987
 6.619332216612555, 10.221808710434891, 42.176207283789864,  3.833942641689538
 4.574074000518571,  5.052659404452971, 56.348214496179203,  4.025602687786507
 1.382122509491122,  2.576328868956120, 60.189451298425929,  4.669159801869922
 9.106332129642748,  2.537806675352364, 31.614818486931668,  4.008656577054551
 2.581933623873352,  9.118742584259405, 42.940202755557841,  4.020450519783633
 2.791360635174896,  2.005914577679762, 44.750992797647520,  4.063393514204896
12.806691300566373,  5.776113775642284, 26.304613800240499,  4.182258997409710
 0.820779287942416,  6.190830238521177, 85.586024247637923,  4.200726621587603
 2.107707142534400,  9.288080006468327, 65.795965707424330,  3.955883376908623
10.811071561602533,  3.962853239612796,  6.099091789555178,  4.376968696259994
13.245220676825410,  4.951268400767626, 92.899560355324994,  3.922702123460969
 7.553066906123537,  8.802233865658977, 69.532185396503223,  3.875787577212879
 3.553704501821405,  2.545757408124036, 12.538176882371546,  4.026109233435585
 4.492071242609137, 10.412881360986137, 59.519978724586068,  3.666547325407675
11.351281208502686,  3.203415480361012, 65.700420646460799,  4.161691948856101
 7.191190225124920,  2.504223846637876, 35.091275103553166,  3.872548599469098
 0.061883387877632, 10.573385359134328, 52.796009762231570,  4.229277043088779
 2.244549122940958, 15.004419309108215, 15.472576338984256,  4.186986880861807
15.001919457080891,  6.103122481146063, 81.015831278456915,  3.747718041017689
 6.172921892536885,  9.388096703329447, 90.574520188775452,  3.741794182054470
 3.175660834903585, 11.953690040368334, 26.320077898894144,  4.075698298108519
13.539667468928069,  7.430814867811036,  8.685501750380187,  4.217098972450003
 6.563156044867360, 14.293091465072223, 37.505927620957493,  4.280906030331580
14.660128652307137, 13.688079208281074, 60.750433240991590,  3.930909182144119
 9.669793710379063, 10.602625169515285, 51.911913940648986,  3.785493203517278
 7.006661777404122,  9.583707063600166, 10.464447303769191,  4.236773529659892
 5.657867089224679, 10.212358625427502, 81.911224353023613,  3.823600961574694
10.717706605703171,  3.765428743537861, 47.872103294719238,  3.887319279119767
 6.065753752666412,  8.405729230257890, 14.384017703799719,  4.152344906542027
 1.233359160618535,  6.981294079049590,  1.684241615296665,  4.365597470530011
 1.095457927471693, 11.043466175567165,  1.327603241405359,  3.756840484027472
14.139065365182072,  7.432742649861112, 77.386614114981256,  4.164669443084373
11.977771917812374,  7.814435354549682, 86.780940759559812,  4.347663110241704
13.670869628065129,  1.061556890011262, 37.560735222053232,  4.127369038050272
 5.938148539977868,  6.727237696565900, 74.780350586049863,  3.939191991882105
12.831332715502915, 11.091805704671639, 78.799407922028323,  4.090961571828097
 8.914075496692409, 14.846343118543686, 17.644130736982781,  3.813678872268331
10.517591741875579,  3.017683037188898, 51.790626602724366,  4.025748476217533
14.670236980096517,  9.204715733421633, 19.148372925414364,  4.422058213613467
13.072311414269215,  7.042421090447071, 34.496541200095308,  4.049603761413943
14.985061485134080, 12.335278072051635, 91.657765783006909,  4.088049672052917
 7.723036638035983,  6.341135108136106, 41.464589099155106,  4.351209478875033
 5.313701750800603,  5.854480259843275, 11.130306227614843,  3.976670815687596
12.701752192291284,  9.054254586778864, 82.712299821160428,  4.231779438271500
 6.094929806157650,  8.776075692513158, 78.229955762570540,  4.074867519822964
 1.072993960351640, 14.876067167211184, 40.591036122656561,  3.969644907813611
 9.422522657140451,  2.735886125847802, 82.026416489426296,  4.300164657329710
 9.558442439664780,  7.102742313788857, 20.896580266012116,  4.392571020084432
 8.094879336971614, 11.141454449633962, 59.725653770275358,  3.678699797857295
 0.789968164596301,  3.987754997733762, 56.263055112534012,  3.566716000133342
 6.885686235118214,  2.257990495193875, 54.370650985611029,  4.176868067673441
 7.102753819999448,  1.146711475294498, 71.941687109881642,  4.163680683679845
 8.019053761836552,  4.562350524666312, 13.742049630240333,  3.973970262256966
 6.927218754484952,  9.023457142602100, 29.158423585721312,  3.709530936148096
 1.104872536632723, 13.244755022463440, 12.153295805051847,  3.527342334661371
 1.444586596758529, 11.018323279804108, 72.176680734444417,  3.712115242260196
 1.895479422708496, 10.190265839279807, 79.990303371433200,  4.604152729602266
 3.403513821015205, 11.197051923824034, 88.288093922676467,  4.054857421493947
12.618084693213387,  4.675942043827943, 74.800732571553311,  3.967681333288872
 9.838231031813116,  1.416858036329662, 38.330732555705254,  3.718150203193201
 1.257323953967103,  6.507438608504428, 32.012477380072561,  4.079470136016763
10.590893742351982,  6.038750616802116, 71.768442264327547,  3.809890479679352
11.931849444758141,  6.561873568724722,  2.673733515474290,  4.485715086502813
 7.268893665952582,  9.808057732647196, 18.646339707685268,  3.952008376534173
13.131683210582047,  1.041932007181099, 68.768886490952639,  3.758261133371101
14.095221461107744,  7.256630622895229, 42.373543750133670,  3.986840884986868
 1.447199213020867, 14.858023773035383, 23.287286458748714,  4.171792589707559
 4.548078022522859, 13.864559814906569, 47.636783565266995,  3.960522902137350
 9.470826417330505,  5.499396684551220, 34.343538952315178,  3.786767067343297
 8.700653893380615,  3.922861870388180, 74.437368826785772,  3.935874083456730
 1.092378048036009, 14.253586058518033, 51.523717808535679,  3.703147992699249
10.335790351485416,  8.327458863160487, 57.848651969365498,  3.869502570384076
13.735484705291903, 14.011381158363903,  1.596974126787284,  3.823793548502392
12.168485484089521,  0.647070392467067, 41.297550392812553,  3.958896993355817
 5.437483688437799,  6.928776603055791, 20.625270821517738,  3.868917214354964
 0.686437037735013,  7.746390566814190, 62.689424770487108,  3.538564274564770
 2.727764764294194, 14.331864159682524, 81.279302023202604,  4.171154114129259
 6.866745165809929, 12.623608693541501, 70.086873984855259,  3.764784692754713
11.192455849890811,  6.254711137917168, 80.088563308081746,  3.975408807519508
 9.211646191496706, 12.911008298119972, 73.078240335022599,  3.828634259514148
13.107699824866533,  8.115299259202402, 22.935333513647549,  4.025453054253848
 4.253553860170207,  2.651647731374109, 21.823080126631538,  4.270445335011144
14.512075376747685, 11.523857424367113, 87.772778158664195,  3.859101120468201
 5.514611543935419,  3.644814336999055, 59.928854217433333,  3.868279117455758
 1.985485490126845,  1.741332217979398, 48.708509610638792,  3.999260871890954
14.355701620703217,  0.177405879536511,  8.977332725238538,  4.111515831679383
 1.312385875409293, 14.441423406171998, 29.259247244827336,  4.308678026765367
13.814511196479861, 12.279500002387879, 68.410120381049737,  3.845648894433650
 7.023976960095037,  1.608201820042400, 93.103873241555704,  4.104477120154103
 9.570732374569429,  6.403923820990481,  9.550057535088966,  4.134617142995583
 2.018734194517040, 10.741601444893991, 14.645749890430274,  3.753096608888648
 3.986029987138471, 12.237092068926906, 40.071906789793189,  3.945957274761831
 8.843699126019411,  1.387036674843973, 59.717033054474882,  3.530475518962425
 7.559372715815510, 10.464289809012792, 22.582402918748908,  3.966845523201422
 7.386102852538601, 11.429467661553982, 45.776113062967646,  3.901776861234161
 3.176397496881262,  3.055506266143214, 71.428403224889053,  4.197202612907576
 6.240686333640491,  4.403502815263924, 27.612257362304920,  4.149913149487526
11.751388738231576, 10.828717235448352, 35.093003809925584,  3.958732436263247
 3.369959906750256,  6.135229472391095, 68.295760053290678,  4.415837161530104
11.848875336649758,  8.590796926715026, 54.303273038843336,  3.830856146546124
 7.987944395025636,  4.145743195559183, 45.013930452901803,  3.999576277448542
12.258329163288980,  8.011691209039917, 64.347678225900452,  4.112937197774502
 2.885766635902236,  6.687792433479745, 59.668052858895429,  4.092740792553985
 9.817475890481051,  0.076223961206476,  4.698173555618816,  3.988625425149123
 1.867224363308918,  5.641058869211840, 91.708535247827797,  3.842170376150125
12.550439239313725,  3.680362964014445,  9.929812946576474,  3.914036862198589
 2.721972253211396,  0.888897686583034, 36.549168018246661,  4.267069531101590
11.101152158955644, 12.143595980290295, 44.114013837320442,  4.247092624785491
10.195591396944657,  3.295804433876684, 16.676017414978379,  3.749437072946745
12.767940811861294, 11.843243692302178, 49.814484269085881,  3.711350569346550
 7.493890512150498, 11.857469829594789, 26.492606891932699,  4.148995713677189
 3.188062697673552,  4.223082891280193, 52.652142652232655,  3.988744020879408
 8.514605707707242,  4.810562413080852, 37.867357184651503,  3.625766068939674
10.137276160860743,  9.675558676486764, 48.109368773329059,  3.892584723959191
 0.029281240176605,  5.047079294006899,  5.456730708939298,  4.337453731054134
 3.467689275446090,  4.920213147738845, 24.948426557372869,  3.603010097839416
 6.732975508300264,  2.262797289351512,  3.259586321726957,  4.082921553988414
12.046497275841276,  0.216510932649520, 84.119637871053314,  3.995996283769010
14.153461721482572,  4.288333071221064, 70.918110426701276,  4.279009400946260
14.034145584074054,  2.798922969875291, 45.943016731845844,  4.009313216220106
11.799838695432843, 14.131322736640181, 76.079894318342085,  4.268430358344027
 0.141958394478457,  3.005156839744891,  1.815233201165338,  3.832515708647689
 8.507601598599052, 13.570512232858571, 41.143806585111129,  4.091833220125299
 3.447217876143592,  0.118526555581904,  9.264634337249074,  4.123181947765685
 0.841903527860066, 10.903165895402598, 23.315572395925951,  3.803715535562418
11.293052070364928, 14.009282367374878, 92.435462372987530,  3.974958338817038
14.400850503201831,  5.667717649104045, 66.917768558132522,  4.024288254907691
 9.426990408196588,  7.908709729138571, 24.906442760975263,  3.769312321204309
 8.969915732347117,  6.016803297764525, 64.397822736419329,  3.574981524813980
14.869911105592410,  3.367944922243663, 77.917751452572219,  4.151693243067749
 3.056473052559794, 12.419151669247455, 62.631794612061462,  4.256469653370383
 8.906428708121709, 13.372749208793545, 62.980231876294482,  4.202580642869852
12.120004319453136,  4.705308687078426, 55.171844198316201,  3.995462777962125
12.153511860585827,  2.706034013555238, 34.197808977657502,  3.948951582653994
 4.824749268026930,  1.448618831090151, 40.721579587035492,  4.183122425000138
12.730626701933945,  6.511570883995945, 46.016859357987180,  3.839284016029537
14.488257959594931,  2.633847380216487, 85.498197408873068,  3.388178020946211
 3.938613643724280, 10.386121097030820, 21.221742746298485,  3.728920902855827
14.236801890582763,  8.553048774270838, 48.867725166501558,  3.719387497868971
14.485373466609424, 14.625346302023171, 78.970459416190977,  3.683283531706575
 8.435813657885681, 13.421759720270833,  1.291472801902975,  4.002753551192267
 1.547689378574287,  2.412020092428796, 67.768493736980801,  3.897005748178062
10.914174010757774, 10.927049167600188, 89.657392281760181,  4.349782759711830
11.137216608843651,  7.662248751199217, 16.925894190867727,  4.157520928121701
 8.300047199856801, 12.149367761300814,  7.046648204507655,  4.126603973204358
 5.426172350583050, 14.799678348520768, 88.237467578018823,  4.180379468951219
 4.317516088045838,  8.559912129942822, 62.777698197684344,  3.663190933940940
 4.052234931351848,  5.734751526407728,  4.537779496577340,  4.012120036630077
14.421229853406425, 11.219029934230997, 41.357932893186188,  4.177733489468560
 3.933640980010064, 10.288384365853082, 69.166386588076620,  3.942257554709493
 0.108361649318592,  3.800080699268074, 23.342274477561798,  4.172493919807009
10.779893205388866,  9.983087829755773, 27.793884631236203,  3.810889714663668
 4.709490191271453, 12.514227963621554, 11.917988792364143,  3.748501511043906
14.439586703649233,  3.372700800406914, 16.604753285733171,  4.142317743436220
 2.934248782380464, 13.568810589401021, 33.060293064777618,  4.132455113756438
12.418584911832205,  5.050497417253491, 83.670374032022607,  3.949445744655507
 9.059490290441138, 14.695758925731882, 86.574369822473741,  3.809571017480524
 2.312498957342294, 13.175255544179150, 66.739645072677504,  3.968610812826375
 9.172673531900065, 12.645869822967439, 30.379205199147240,  4.053023596327336
 6.910206684478259,  7.407696164283588, 60.107139858286196,  4.123534659733335
13.658996655505376, 11.162830655319466, 56.617504136368481,  3.935240656025498
12.460623446279552,  4.605954135308592, 30.750312673935177,  3.941910390213281
 9.768654196224551,  3.037717999618212, 69.456941038039119,  3.939820923684862
 3.707840503135921, 13.379943183874941, 91.499625237659842,  3.691662773638793
 8.518756674857070,  2.409487280450723, 41.636964471133531,  3.656674887077552
11.366611330130754,  4.487272215882737, 43.002398798479604,  3.887747609890582
 5.886772251738853,  5.424658539154397, 63.048871922639520,  3.250377096341186
10.373689462610832,  2.890472606176746, 27.826175244853573,  3.943095876838064
14.859600280144356,  1.370091007694837, 92.116707118704539,  4.050306938204835
13.820726620694337,  1.453536465099310, 26.845504579999965,  3.751137212613393
11.276217826329390, 11.691916196943467, 85.638386859111947,  3.855351058511691
 6.595361148471346,  0.315255905249837, 44.395456614106038,  4.230056342418893
 6.313243099000139,  8.197587393444239,  6.697619887680679,  3.907642052318730
14.128950996622972, 11.847152816356429, 26.746327762948429,  4.099329157865299
 4.990092552588314,  0.682395475381145, 51.116855154500492,  3.960366080799516
 6.795632832657166, 14.335081616069276, 57.277086978128999,  4.059114225452923
 5.728952488462829,  5.477706055791677, 91.272457888462810,  3.823468124881976
 8.371959961434618, 12.800896110702773, 83.213716065285624,  4.013833729481731
 0.382163362406129,  4.140496828230343, 35.753988440600345,  3.800597356790714
 6.740409702235234,  5.184014509588539, 71.060585830575334,  4.125644868462857
 9.316105155631030,  9.961596572898928, 80.493363282635613,  4.027727480669130
12.178044846760244,  0.183055052266285, 15.707546042900542,  3.800344180067686
 6.234913064990002,  1.534345222980556, 84.494693778459990,  4.105199674781571
10.736404579125095,  6.919557659233710, 90.620701211918870,  3.866197488463444
10.208449613033617,  8.685268965041297, 31.735318430840685,  4.552931962472393
 3.887975303800413,  3.808690734597440,  0.756931611572707,  4.096009973114580
 3.090620702578333, 10.100535482627437, 46.830321007422747,  3.975030081153327
14.559036094976751,  7.804302944539439, 72.943996068567614,  3.861389780055876
 8.041189481194273,  2.447165989371584, 63.308804902457268,  4.105999375417035
 1.767082117712040,  5.085476243514083, 74.737867182485203,  4.001074562394274
 5.283925274739026,  8.416404359769043, 25.381038481406556,  4.319502026464360
 1.507049674250371, 12.909885132741055,  5.342613639935291,  3.908250750243969
 0.521021889047604, 12.381897057127382, 37.335753516913883,  4.175647077705052
 0.929996382668002, 14.317928249406931, 84.921438294771107,  3.935960267975507
 6.457145811596268,  8.922963642588249, 56.091352666446561,  4.502709284399117
 4.280898977513248, 11.026183496507054, 36.244136268394556,  4.076657874883629
10.861966861634341,  9.134527871997108, 40.797474327428517,  4.118755812387525
 2.663188488538052,  9.417186576537027, 92.115002427007596,  3.898118375042113
12.025609657542638, 10.067324377727394, 60.901489086725924,  3.914599720745256
 8.712875469819739,  9.065967017620416, 73.236302327739097,  3.880359638138740
10.336362971031795,  0.999765026420122, 56.243903273030597,  4.045189943493819
 0.579438251703000, 13.182145991486871, 47.514554481314789,  4.043065679080412
 9.092470256733115,  9.592380505567558, 93.384966531234127,  4.365390501166919
 2.966010259430231,  0.712121754333300, 77.389352989806028,  4.077824121439953
10.306713302466857,  0.609175278543082,  8.695416293083964,  4.048824375811217
 3.562683919907857,  8.701834995002041, 17.606280880909598,  4.021930511688115
13.466836604813201, 11.563060375767559, 15.887742725463607,  3.931419586299622
 8.850622543269035,  5.333391380556071, 84.810509675968035,  3.393963564554092
 5.308156954170063,  5.250524849941293, 85.584132051967600,  3.835615984805884
 7.511392507033672,  1.531729565560613, 48.204469797633138,  3.927623104675347
 7.964326649253481,  6.477905062756112, 48.176922567034772,  3.839522387025896
 7.919859397878598,  7.234751372609792, 87.857013654099376,  4.012162252332030
 3.550501730225985,  7.182110613691840, 88.504519885223218,  3.991557959459110
 6.363332756786584,  8.546692637533676, 51.192312332567667,  3.953571729250704
 2.855744759290696,  4.094762639952788,  8.472705426062616,  4.062291495689179
 3.268178654561404,  5.573508566531193, 15.144149448126772,  3.950122005207254
11.949701357012088, 14.229439685196597, 65.606371293645651,  3.918731232543704
10.601091462554930, 14.241482712141382, 80.095050277424974,  4.045651941247416
13.947529313107736,  6.658152996694944, 59.485525622654777,  3.760521127305035
 1.971832641231231,  7.300443689717770, 22.413072291494778,  3.957940588045038
 5.012084474195763,  3.022518420743429, 74.948782958860988,  3.695500468323917
13.262804623195075,  5.321426957282832, 20.004721015538660,  4.009833684453386
 2.702234391791472,  8.897399746708698, 75.889681176872372,  4.137427213594543
 5.939637312965727, 11.908860202156832, 65.586993462859070,  4.051615375255591
 5.556967960699787, 14.162124590336614, 19.575555738995039,  4.020728876844471
12.380614905146523,  0.598041202339075, 30.419287319951408,  3.956511330582857
14.400723217430976,  0.209838925231632, 56.918406975498122,  4.338993062027679
 7.406635623645631, 11.319892168368101, 87.478760076312156,  3.916298911417931
 9.044926486602980, 13.971545357633460, 21.471567832775957,  3.925787450291752
 7.292964571338345,  6.430417835882313, 81.462933172469761,  4.264432232933773
 2.755139925185364,  3.335230812556500, 83.405175720907081,  3.847774056666496
 2.470296967112847,  4.564727881616258, 64.366537812990529,  4.231337960483794
 3.844667935034073,  4.086036492215004, 33.876540910427302,  3.879341176942367
 3.379416226023381,  7.084267219323436, 82.529055815998731,  3.943027394720792
12.068703167258247,  5.100505270096661, 13.666340529927385,  4.137458119320112
 4.357717811455316, 12.214594498034963, 76.944764528959027,  3.478873330660258
10.440941347221402,  8.606378017354411,  6.196822038254540,  4.066783288280088
 2.254743869000559, 12.333438762586388, 18.451666893468225,  3.811458147294557
 3.621801025647955,  9.739339569195721,  4.042033094046054,  4.102292566525023
 3.726167279177550,  1.340891981081076, 26.418740130433662,  4.063872770358155
 3.296299447273586,  7.712372806082858, 72.106794975163467,  3.831947637653199
10.984421745738221,  3.034041298427216, 86.732284128816445,  3.919214218355439
11.147426697740574,  2.157218127578925,  1.300628220234909,  4.369582682127086
 0.415500697414802, 11.192670517594649,  8.938225959030840,  4.160592075919110
14.844573112233753,  6.488977488582409, 52.886913844080098,  3.954249560266471
12.446761768775119, 13.952437839619170, 53.239987654097007,  4.356687122387240
13.928769904447364, 14.108076882818990, 33.882314029291841,  4.119413335925935
14.608386047393731,  2.503419311802984, 52.922055611442012,  4.009429523687877
12.390519385481019, 13.213373698541057, 12.415472599614125,  3.903287895395771
 2.657515033987476,  3.040197268363730, 87.223040562052319,  3.786865448836786
 2.457619583611213,  7.969963252388803,  7.523846395372151,  3.954393696445882
10.492643514282328,  5.764223483919794, 60.966385920482494,  3.942859583313183
 5.731217252121119,  7.564298789953287, 45.037506283892505,  4.150532658856641
13.995385351558946,  9.405896636607432, 12.437278585916024,  4.184768883875972
 7.767079280533220, 11.074786761261089, 34.292873053902184,  3.912963491418468
10.326975525044348,  7.893152159708210, 37.082941270808654,  3.683150491113164
 6.252388913170122,  7.988215902051459, 65.982859061036748,  3.844723784122650
 1.339733053880971, 14.500042202561280, 70.439537022144933,  4.030710489149275
 6.522886056327407, 13.567816681235934, 79.716859862138605,  4.037462578151953
 4.685136984209424,  4.362567046463612, 37.792482023192015,  4.080574890731729
 2.623497191085290,  7.356795411762013, 35.749577439990361,  4.032861438270490
 6.656994512330340,  5.847742268579575, 31.518217248544648,  4.214905243142118
 4.630750016891533, 12.819039042302578, 84.715527834334495,  4.025927673341851
 4.783234362061864,  4.305344525149025, 47.411314441482219,  4.010550672091582
 6.695195786677114,  0.841319415644987,  7.006131714162851,  3.916854936066797
10.525145572355516,  6.661023709291080, 67.854161814461946,  4.110621500536049
 5.075168759121001,  9.030284227516683, 85.466876204270690,  3.741490643014006
10.392951751106947,  2.782849399721101, 90.821680612576586,  4.335600711154827
11.086158570710746, 11.325891352752787, 24.162148308082163,  3.944399219201979
11.087073783585581,  1.326868605192617, 72.724445196548444,  3.877995623783629
 2.953178750054160,  1.733597776339774,  5.007800964970810,  4.303712738423383
 7.763275883991455, 10.088752153910649,  3.484446928011798,  4.084958016817911
13.595085480792738,  8.032515297161989, 29.453247741758268,  3.716305000102732
 5.219787703019409, 11.077003272024140, 73.387583932588953,  4.179130773458858
 5.542685227836328,  7.558174377769693,  1.015193753474153,  4.068552864428621
11.836653453242743,  1.199605785139878, 62.104756819551383,  4.114892698863875
 1.405319837127861, 14.756969146720204, 88.792119498164126,  3.908746293578115
 7.811922454611322, 10.462661805465176, 38.430291580791234,  3.985134486557622
 4.759860314862946,  0.500103750117354, 68.775544698811188,  3.811023652462989
 2.259031935654725,  5.116896874950885, 19.035226286332637,  4.101791313132352
 4.472967182962360,  8.228460209666858, 39.360563649737117,  4.253628811041987
 0.610437873509078,  2.438207475298989, 32.139942401443513,  4.144537478302428
 4.550845243019047,  9.319330847940460, 32.510394036943822,  4.138968543561700
11.577191740826930,  9.672152171777082, 70.472936635298723,  4.133142371267528
12.225825207425327,  1.343956270914890, 19.574316830400011,  4.250093420431672
 5.443923368951570, 13.431656699798403,  4.057357333630146,  4.122873829430690
 8.826059240273246, 11.377689459870391, 76.793624017086927,  3.955206313924919
 1.663322332044363,  6.313299003280026, 45.754472587701159,  4.094464077545355
13.730514716514008,  4.626319095080069, 62.808391952781662,  3.839780380727135
14.500289656125727, 14.403186849739519, 44.033825627369552,  3.647753424083911
 9.726871790491876, 11.792285110010699, 55.749030002389546,  4.204928372889441
 2.669365033714569, 14.823188515577803,  1.185636533747883,  4.268496715426686
 0.816051228527210,  5.624356320938251, 11.800468242525504,  4.320628871824042
 6.819687111951244,  4.050670129923056, 66.903792374740789,  4.091045808509178
 8.570797772614224,  1.384931018012488, 24.593895443630544,  4.045537485774856
11.233485486158902,  6.732948193148924, 50.481804746578540,  3.977734136469732
 7.943177256416902,  6.023361451675211,  3.866690517691037,  3.905536727154982
 1.712089478581416, 10.288870048222947, 29.728505067078768,  4.027477308713872
 8.186312772631135,  0.128565537994919, 66.745529389960524,  4.157200149610500
10.575007201933911,  1.135937582905094, 44.883880390044268,  3.942043202769996
 6.634466179884265,  4.164790999634826, 50.875757236744413,  3.748027236835716
12.244185055717177,  4.804080890755346, 38.998074626016063,  4.133986425861043
 7.434317305727485,  6.010955926049133, 17.381989868505148,  3.945168137478826
14.824998170234190,  7.165239461928175, 15.611085025617101,  3.725266627340739
 6.174889570483100, 12.548420211408516, 53.517521312448658,  4.286402252121601
12.464931041048782,  3.261223049527891, 58.778838043877265,  3.782379618706837
 9.901946886981639, 14.437734531393279, 34.927675805268223,  4.149042213096593
 4.329899915497325, 11.485788980585449,  7.721842265784432,  3.988138511380217
 5.148130381035859, 12.397345718502260, 29.839683999638648,  4.024321618691328
 9.933050419087330,  7.103336218303088, 76.421905293111834,  3.948782927731255
12.427695929009166, 14.808540208165432, 88.645041705262841,  4.089990770959721
12.107881674006975, 10.127085406088188, 74.937858637640829,  3.979387229958855
 3.836426090124762,  7.225493715722679, 29.336744037440521,  3.425977900669600
 9.638881075832275,  8.288870734932956, 44.526361629446278,  3.854189522691695
 6.689549736850675, 14.683515478473879, 32.605909850432056,  3.734199979033437
 7.097230834027673,  5.045874758050690, 23.669712098003956,  4.009845674076156
