BANDS
8 8
NANOPARTICLES
cell(1), 15.033
cell(2), 15.033
cell(3), 93.955
 9.403166481702032, 14.698916449724196, 26.840373305493770,  3.828757394769802
 4.087717269755959,  9.202560824622536, 44.363274875589973,  3.947187885505282
12.636182061367808,  1.176050417793421, 16.782729207662726,  4.217727167782184
 9.075132470119332, 12.154114079900554, 42.213216976934163,  3.919036692620075
11.751288717848961,  3.456442817931041, 39.463835300937475,  3.833267158357955
 9.584726039731413,  3.624996483065733, 52.563240172356387,  3.945468578299565
13.036669097973279,  5.971509030764462, 77.629006021675323,  3.964605749567055
 4.125699749010884,  6.607787913711132,  9.607103282352144,  3.822571167060158
14.108123521314806, 10.683178101588515, 37.754955864150929,  4.318361037889602
 0.574888500628394,  8.639971827166196, 12.152923702686092,  3.990431479771339
 4.655446713978952,  5.335911231871599, 74.659220564535445,  3.962886179867352
 7.116386037996556,  5.267980247712850, 18.593980146218321,  3.710130760541767
 3.855321524056133, 10.141629356955095, 61.358300477256300,  3.855921003630576
 7.442608651905968,  3.792448108373673,  3.718549593710078,  3.956078441954274
 0.116087637129687,  1.471166820855975, 39.839200695238077,  3.918455689166435
 8.911350157371318, 13.077296532726482, 37.424167951616511,  4.216571535868132
 8.594640905737542,  1.131928823018923, 13.389820058432473,  3.995688590168748
 9.532343826832825, 10.771488286871445, 73.416648381523714,  3.988118116948330
 1.539756820773564, 10.843424620294211, 69.498871529681779,  4.184922014902289
 2.477574795474336, 14.139133922821923,  2.866479011044738,  3.754594848188734
14.977064061269459, 12.158280280560446, 30.936632083729183,  3.903023175246099
13.070344736226019,  9.958858511105166, 28.372442657193321,  3.848888051700924
 4.564512822498175, 12.445264568387987, 19.640725541478186,  3.974961437550268
 9.075859207679676, 12.434144115396252, 65.938634200320010,  4.283028622028175
 5.838805408724226, 14.066531760278531, 54.305957336362106,  3.979994897202961
12.003101303121252, 10.873159839716806, 59.772283330825161,  4.201611582737522
 7.640846359574460,  6.616216148436877, 57.899621784694546,  3.947346933731146
 9.821175841182949,  4.722776110230511, 15.409864182240046,  4.566774925608773
 0.857456121458234, 11.475440134782991, 45.021156508466994,  4.058542696429011
 6.968465906664679,  8.521680537251447, 86.882828583265010,  3.859382503471594
11.366865839172311,  7.150186326228965, 65.557770076029101,  4.210919283096203
 9.538296565815001, 10.149606900439204, 83.941095871002730,  4.591504299738043
 7.476893546659368,  3.787378588467277, 22.167377828168412,  4.022503566644428
 7.474989873490617, 15.028664849094520, 44.400866119878891,  3.947599671073821
 1.598321436716819,  3.312135900960838, 29.050040954266674,  3.879576783749076
10.151182183083248, 10.612707554147603, 34.519896000489531,  3.764088569253709
 3.183470083290399, 11.021673265640551, 15.562981535699590,  3.957549276676334
 6.386660921428832,  5.831723360597644, 65.878383644038010,  3.958390742264492
14.366868501521504,  0.887234365692893,  0.763561064455346,  4.116633572696256
 7.422813672851326,  3.084789796897501, 33.117469637769872,  4.114240574688663
 6.505171820028774, 12.584074531872325, 62.765698893401300,  3.867122749114536
 3.051797446140499,  8.878367735823680, 54.684136133992062,  3.833406349246129
10.846460924812048,  6.309711488287191, 42.236084475467457,  4.308511974387329
 2.250182238379493,  1.830975246421754, 50.483162729655817,  4.256139300838606
 9.215522119671975,  1.802892460806813,  6.693041507024266,  3.982912172053142
 6.849150306076513,  7.895110122701364, 81.697009755702723,  3.647045519992068
 0.197040212197776, 15.027446538802081, 53.524475808016561,  3.743744976250010
 8.398432728842415,  7.486906145065006, 53.262101534874262,  4.241711679368385
11.659841211730084,  0.830891751114588, 92.005660272355414,  3.535604609377280
 0.111236202934424,  5.329495802404352, 49.562348942371379,  3.782450148325921
 2.396691219618591, 12.584587979695984, 55.425773549733336,  3.832052456574495
 1.443871481315908,  4.220575571252282, 93.934383815960089,  3.906194105516173
 6.504563439309650,  0.752172122966590, 19.837284692839081,  3.703165307836445
 9.199678581411499,  6.011686631001277, 37.955265632833658,  3.961999891366152
11.859286092420522, 11.183654772798542, 87.197908482693634,  3.575871186894895
 8.869082758973027,  6.982512539777845, 34.090135835923327,  3.979041235137052
 3.113059995764728,  1.636196594268359, 21.546401753493960,  4.059082721687911
 4.222189464823537,  3.199983505089905, 63.589409863887717,  4.250581043055845
 3.206797870277851,  8.329948395510714, 72.616116106559872,  3.843772133482998
 9.958915022372189,  1.837985148757214, 30.117582615484615,  4.071686197914305
 0.179536145991177, 12.491477107511347, 85.936792113826712,  3.919867969472118
13.256957898369043,  5.821172676810145, 53.013336364715748,  3.908449444528087
 3.821983069533101,  6.311160714236516, 27.669738811718702,  4.053771770464528
 8.279049672545236,  0.203204048359049, 68.825724084494254,  3.908953887286495
 0.433685669705889,  5.965491116878756, 74.289923915054118,  4.173228740715001
12.336759655818909,  3.118450874597909, 84.276177645312970,  3.792070268048557
 0.040831911403176,  8.667631072400205, 61.610576651466211,  4.198084130489147
10.819937080568051,  1.450182306015076, 22.962948350677131,  4.260340590373046
 8.367750958734529,  9.690604278829644, 30.932964781418939,  4.209748220808574
 4.691356572215570,  3.185787609974718, 25.079810694999534,  4.117986685114973
13.236383397966934,  6.373443234263876, 17.873382014256336,  4.431821418103215
10.408460210660358,  7.209998732023242, 60.885680963203143,  4.035618131213819
 6.638568208726539,  6.835503969287282, 24.731517512499128,  4.112963187530822
 4.175038124547564, 14.366037301135039, 65.360193627931025,  3.876487860244340
 5.868537190529565,  2.774619722151200, 29.160354942501410,  4.410864265477222
 5.642351849457124, 14.600326531293771, 49.322311623316423,  4.202183917308116
 0.933127031233223,  8.677689662325056, 51.382883137495476,  4.007089342418536
 0.822664192026787,  4.892883145417342, 84.210738403487511,  4.088917658183671
11.820868183235069,  3.774326087737960, 74.328331014343021,  4.313847004578096
14.117669865084711, 14.227144292320117, 60.894888557529782,  3.857573105040196
12.800417250866342, 11.074581794531026, 48.010129129112983,  3.689623096894821
 1.918551806577540,  0.560046887684024, 26.394036521336098,  3.792997614040778
 2.115812478336015,  6.893873748145735,  3.018094128220431,  4.223256404822069
 9.571105155362664, 11.881246256701685, 69.818933542192397,  3.528614499693372
13.748335468550128, 10.233125644771658, 83.005257490385688,  4.033864978155081
 4.683986720047658,  9.447956787286424, 12.208132892149720,  3.864620156584075
 6.151154202470071, 10.606168471602537, 34.430400749308475,  4.187756834121796
 9.700057823397636,  9.756843953732119,  7.114345575070545,  3.861698439800913
12.790890305972333,  4.654961202804103, 92.059321296981153,  4.381652330214155
 3.593746053735140, 14.511868513438921, 45.649005730134341,  4.210588168896892
12.942517129094847,  9.605845684678759, 76.449561428457741,  3.672790050923628
12.422537777714698,  0.367215487752904, 37.035772543945370,  4.126006124035379
14.834720426717748, 10.278132566909193, 17.543454295377682,  3.902429448043362
14.727774473631973,  5.195852282848311, 10.118503638570576,  4.109707520193879
13.024972641376422,  1.807898508186253,  8.354279742170707,  4.179754182209684
 6.128044227198196,  2.822531092104744,  8.945502190675658,  3.905095727642036
10.709898806439739,  9.293903242326843, 45.227125633979121,  4.117241885419746
12.217184775513200,  9.657568820463982, 20.514623762035875,  4.107721377565791
 4.492666042265947, 10.988154291367385, 30.666399669305402,  3.956513077265107
 7.162240169302431, 11.289753205687983, 16.370678254316037,  4.101974760652772
11.407875487103569,  0.831251175679038, 65.632424914768393,  4.000995981192588
12.368512517912313, 10.820607128707410, 63.893133524354866,  4.057104859233046
11.527262735947756,  3.793227251952978, 33.855642047671964,  4.305058521594238
14.490493185099012,  8.774734193608960, 56.489156755891656,  4.111934017206259
 0.194851837261774, 14.811427641964922, 72.382775423864786,  4.021185009608119
13.832364873637271, 10.216725591804259,  7.580160368994576,  3.799058974531503
 2.012118728077664, 12.588202713540662, 82.265692422284047,  4.182920276773213
 7.233697567703905, 13.863157002971226, 72.357637282743710,  3.895144095112719
 2.116290885509391,  4.426439861306129, 18.543483671657370,  4.373267892879547
 3.992891287656605,  5.630828751751072, 22.000097911754239,  3.828384522071782
 8.775408146095801,  5.649794909090447, 30.308873146810988,  3.886992459944641
 1.337563897763720, 11.855046377885460, 63.983498748130714,  4.144439659356979
 4.128839566783361,  7.918546743733169, 68.973552192381050,  3.683522955311830
 5.691732401910294,  2.980611131653530, 39.200091950159916,  3.620567454486298
 7.651549409223128,  1.501905725549447, 92.044722889861490,  4.207960756492784
10.075121870797270,  8.603475399176668, 23.702826840933820,  3.856649794387069
 2.367833829658527,  2.588591076852248, 87.179181867576219,  3.904764996948268
 3.738566786179797,  9.312999118976942, 80.027435065813648,  3.943721444933092
 8.742945367193428, 10.887312541738256,  3.320251331516493,  4.281017914956135
12.401032964836096,  7.351413970958826, 35.944399129833634,  3.991827480573293
10.933351152551621,  1.459066501041774, 81.196929194551174,  3.576547342384267
 0.876607166480434, 11.639394624735303, 21.177144278984109,  4.141810412970526
10.400011423110847,  6.841773315583628, 87.998330148339917,  4.068797605701254
12.302472075190085, 14.007263666330717, 40.774971369128068,  3.856399319993437
10.288652641217494,  2.813705044914284,  1.022992928530001,  4.093094347541260
13.397561908167047, 13.137183624047964, 56.757217001351307,  3.830241461543408
14.070690806056264,  6.906633526361406, 39.613660279381293,  4.083081061639268
 0.187633965429269,  6.933716957034627, 21.690506823020247,  4.213851280119954
14.119496115773625, 12.947917050977969, 14.580554729000367,  4.190042473735315
10.825285858810812,  6.274131090308739, 69.651497078391017,  3.747383659309719
 5.884439038777781,  2.375315418248725, 52.202290235405890,  3.845056692200293
 7.157085900466927, 12.449971989339721, 86.702920350428712,  3.998852301771138
 7.576647755151511,  9.522683235074583, 93.448928408733209,  4.150870239485453
 3.454191504140935, 10.052976909567654,  0.467959743697662,  4.324614286717646
 4.811720243008756,  5.782307780955377,  5.881435687746526,  3.894578382856705
 5.858015146016297,  6.573731476567043, 39.874365554110128,  3.668771006929464
 1.417195747683906,  2.818588627465147,  3.809303583682403,  4.182244253827545
11.263903561714054,  5.655048943288678, 49.584381109009151,  3.983738948911249
14.873768465064169, 11.962472847489780,  0.503388875223948,  3.821869661557751
 6.820585815697542,  6.902181519829348, 45.892526733529053,  3.804559484065843
11.184848449835716,  5.314998829215885, 81.224316524304413,  4.025993588404452
13.238168585435858,  3.975725810752913, 67.536578505122094,  4.108474051629124
 2.294646804449826,  4.844674908689590, 67.174895057666845,  4.281853345411934
13.287958770305059, 13.578512097100493, 26.623199250081118,  4.194087731072943
 1.184484345617423, 14.758909635161347, 18.438813210001744,  4.160855873655446
 5.915401187057346, 13.284293205478836,  0.975452836199235,  3.847164168384555
 5.175524490870332, 12.438854645655226, 42.497138707667560,  3.828001796747079
 9.472621573368150, 13.374035648612701, 57.656882508591636,  4.073782559547227
13.214552633571536, 12.649008974849616, 34.248726063529624,  3.600666691044177
14.633490896498571,  7.039549821120075, 69.996189836394393,  3.908694302799380
14.455233536641401,  3.157397803943297, 80.947827085643354,  3.809937950313528
 8.629729646237443,  5.853065923775726, 84.465371517883284,  4.055656592999151
 9.174583141363588,  4.449672880161745, 63.528948039099930,  3.830533697695929
 2.635952471158185,  8.871634076502380, 40.510259781375254,  4.306291483980845
 4.773786383014206, 11.399865067458775,  4.036501763086374,  3.681991121488663
 4.641812342821474,  3.318604000847261, 58.493804036200160,  4.160819783625890
 8.648816590646517, 12.424042056129577, 20.149061540586008,  4.253441959095017
 3.556427238702387,  5.347284164943098, 43.708208990509888,  3.907367095779225
11.806889114704049,  9.303332484400419, 51.438313119708702,  4.266448064197278
11.118657279721438, 14.618762977765364, 73.493536466052504,  4.333237694566349
13.208014907109352, 10.379265338938428, 42.138585197669848,  4.030045679746683
12.279862773404242,  8.690318237485450,  4.257151794609833,  4.106677090132520
 5.083235989646394,  3.808242327802659, 15.754365783199487,  3.856710811911029
 0.432222394957159,  2.648320217760032, 76.979471884425536,  4.363686351430101
14.579239738789726,  3.917217349769340, 36.725790321164062,  4.074003727685334
14.876574560864766,  6.625138479471276, 26.766454139984720,  4.107836683408603
 2.484335652423605,  9.925205081916589, 76.308421494461598,  3.993082574822576
14.954360737717247,  7.034981671065149, 80.923691512965050,  3.949810512943817
 7.212849220140601, 11.265768502849840, 45.629626640838516,  3.949751863192096
14.841913721344783,  1.075190797842043, 33.813594610338946,  4.053414014292763
13.028925623806693,  2.635351066845080, 26.622261508818067,  3.619857638932625
 4.219709050463447, 10.363268070637547, 48.315800656055231,  4.272784013893432
10.840476410529769,  5.003006155341220, 56.092402836864615,  4.029505349169019
 9.982014751785687, 14.256649881301586,  9.961315409918328,  4.260394479268464
 1.382036632966160,  0.220401055870300, 57.957739829508476,  3.765939945893790
14.893960110476964,  0.288083021030983, 43.758094447929025,  4.275132618084728
11.497312785802704, 13.342178683042402, 45.145373174403268,  4.046913294488037
14.490551571713977,  3.128538932727230, 55.838665362999748,  4.172550583242302
 6.236430986763573,  9.076636301487591, 75.044915705793343,  4.062801917151535
 7.378769173982809,  3.746443670691052, 81.152223439492019,  4.147823239993575
 9.961369946462828, 14.853880609383953, 33.727105182477338,  4.168895021119257
 8.148148229444327,  0.469457416042082, 78.748313507299173,  4.086878297029225
 7.605522518825842,  0.983469284586641, 64.403985874156362,  3.965646641937779
 7.012795438170085,  8.637204817872856, 20.490739230115359,  4.019610737336381
 3.571704691974679,  1.437543036542556, 81.446967533849389,  4.324087192029317
 9.616488461723140,  8.374241096822010, 17.494127347937503,  3.842807540700672
13.964025072390399,  4.894363726452611, 14.056925056898503,  3.879316176719930
 0.228164539527439,  8.538620984550091, 66.294552777356728,  4.121859976208146
 0.534535342333221,  7.745268406690250, 43.820638945041090,  3.797580717783930
10.140072182815858,  6.251008156889630, 20.641567508533093,  3.819283090046200
 8.765756438922686, 14.862188758212747, 51.817725212863394,  3.806341573266038
 6.115019476234370, 14.812901760561108, 35.011920111122393,  3.938041589331287
14.832403289352211,  8.623887592686513, 87.336128851138497,  4.263719094250451
 6.990714091665352, 11.189876512090557, 51.532411450659424,  4.329845052595374
 9.474693523327586, 14.160100579206516, 89.373173844657330,  3.773528321560669
14.295914400169936,  3.332763595093362, 71.210421795168301,  3.607405896546831
 4.945890287365706,  6.814910609761055, 31.865790655026327,  4.687883208809160
 8.783381344347482,  8.778876670473755, 48.711673000688883,  3.908890877437034
14.107433403039494, 14.375760359052297, 79.950172548511588,  4.097414284008039
13.605126310780580,  5.653092979163346, 58.947849430577378,  4.010418385655749
 9.474596433237545,  6.766265532102699,  1.922024595947880,  4.091558302473759
10.737243312000485, 12.430647410287895, 23.658241402039675,  3.909981814771937
 3.113244671606867, 14.752176369089007, 29.988665692086137,  3.940658652124652
 1.146096833517387,  3.041014673968383, 60.726130460845830,  4.132259469206969
 1.170038276114414, 12.751318845826127, 40.757588428373424,  4.000971619103256
 4.503726543011298, 13.813524882884961, 69.355308873318478,  4.201829512890876
 1.119526228035149,  1.111871511853664, 68.692519986380972,  4.033020694437026
 6.757862184640448,  5.129802912558842, 12.272041586998816,  4.214185767276891
13.098513388998652,  2.262013130948619, 51.059179858175085,  4.168289815010907
12.140095850339362,  0.703806558587590, 69.593733801852537,  3.916158443306856
14.903151862306716, 14.991979465393475, 23.174660726689584,  3.915895871163993
10.546002915942676, 12.914528476869387, 80.790503968043069,  3.649070047914377
 1.103467486929355, 14.383597340905512,  6.699174157649751,  4.397737539276124
 9.140140302199363, 10.280950046487302, 89.739676619691593,  4.039400507235682
 3.134801011600908,  9.189087982226674, 23.944813487250855,  4.444083690098189
 2.312573032510596,  3.456091141930662,  7.621622289031918,  3.746359699871933
14.143855225889489, 13.242319204127336, 76.029382418926929,  4.004884540571708
 5.499748008121331,  5.127957657220828, 54.935755462930516,  3.947509669644391
 5.269299152964063,  3.591392549279709, 84.660082846546956,  4.031076188738442
12.544727511276237, 13.898011667161244, 20.200309474039599,  3.978039372185747
11.242269008205072,  6.398345729502259, 11.936051114633466,  3.646819153596114
 2.798586165009093, 14.252177074957796, 77.176303082675304,  3.961785951221414
11.749653291889997,  1.006726190390703, 77.272173991079384,  3.759913292100483
14.974064787723973,  8.176293304645855, 93.912668294789583,  3.692556902593753
 3.111013022784490,  8.680785277984729, 19.258134560314559,  4.131848925774469
 7.606624437270217, 14.201638644529837, 82.995532757989182,  4.136852107071989
 4.919141911574223,  1.030539944864751,  5.450002960899975,  4.246272133823137
 8.145949048902366,  0.513793684347289, 40.553856151150875,  3.838824715038482
 5.649132240521793, 13.640076963931545, 27.158549998871429,  3.968810777770194
11.789025034851447,  6.995948132961662,  8.446059583975115,  3.516611167226664
11.680053339199626, 14.064701194395244, 84.465769732789099,  4.348877548242360
 4.223758366587272,  3.484714820894293, 90.717865004525336,  4.057165327909221
14.951949625904010, 10.407304655122717, 73.252229308281997,  4.027558267131052
 7.978079711198060,  2.000236468416212, 56.265419575691503,  4.274470164968720
 3.457693109899935,  1.652411252384667, 42.092634801758521,  4.103259807642177
12.478023236023539,  1.789540077106213,  4.284238892679769,  4.018920084161221
13.821198084684134,  4.455065314145866, 87.832939445639170,  4.264048313100259
12.276965850325343,  2.495431392463646, 62.064084236153228,  4.040595874477614
11.232211317714807,  9.178775262864502, 79.932806370887448,  4.119999098203664
 3.137860339561064,  2.202187734493706, 36.572670139339934,  3.852748804593211
 3.246379200297735, 14.548117415420538, 61.387824670989914,  4.159930055832536
14.158189813131578, 13.134807599021505, 10.317814463376685,  4.184803050278617
 3.763371260072844,  5.612672118765399, 81.511585411101677,  4.017769000433757
11.491409719821560,  0.687809332110863, 54.490605861343958,  4.011645227670414
 7.713682686234215,  2.181276928132108, 74.653068702215862,  4.260984986134220
10.318449657224560, 12.397455372131292, 76.988694394093912,  4.014240519755143
 5.428571274757964, 10.874857777148945, 83.437553077510842,  3.812136522245236
 9.256027808306278,  3.605921677756156, 59.772256656686970,  3.842217993727078
 0.370015584789638, 13.956735882411442, 48.185248322425885,  4.029038761631155
 8.979580912641564,  1.738638834402071, 48.426787210344322,  3.955132898877783
10.329653941731944,  9.644963306517257, 39.327238118082924,  4.118551714231449
13.823271275136680,  0.770334223946819, 29.985510165883422,  3.892349887902021
 4.529528703261404, 14.185895097848531,  9.183824771817887,  4.064596653718578
 6.328998816300335,  6.448491412001902, 78.153354171179188,  4.063521129507378
 3.555299448110461, 10.619436364414634, 86.912714992415303,  4.010264410086257
12.621246026344675,  1.348409860378976, 12.549021682371276,  4.226667714545720
 6.894902829091578,  5.502357137402902, 69.723511372583445,  3.806072264753743
14.091442449788897,  5.134523523450531,  6.154756964635438,  3.913859597532902
 7.818307546917562, 10.194259889775781, 59.788177453990201,  4.137744434692867
 2.702852984923173,  4.961343156852543, 12.848432472081404,  3.972402221001395
12.419080040588307,  6.916152736247463, 84.590164473318879,  3.781043738267982
 6.968235163817074, 10.546660875726662, 55.596738017683514,  3.848598682166085
 1.138024314754194, 11.542423102097889, 58.949292713893378,  3.918450713751527
 3.530411122860615, 12.458008577356992, 73.256216146619437,  4.210087043670312
10.928772331943001,  1.995576019218936, 43.200889634961491,  4.351005201534645
 6.981522415768319,  4.771271655615452, 88.053611505735518,  3.910351391435392
 9.543105125869561,  4.119023395227186, 77.758274863844932,  3.911440223737277
 2.320105401277248, 10.872897443514052,  9.276922503210596,  3.901283591532947
 4.906122971760277,  6.191413107458610, 93.728243030503393,  4.024120208249860
 5.545478422482340,  9.432617358815399,  7.262281843631133,  4.029715640724511
 0.435942294413141,  8.505937594132895, 47.533300091104259,  3.762816011033502
 5.525028005329718,  7.647858678791133, 15.925479759668892,  3.869071246994074
 8.363136203562421,  6.076594582251174, 73.322156797944530,  4.038552982944138
12.866112704450396, 12.320819058329224, 70.825134883989207,  3.411214469515198
12.143822692013083,  5.265000372071915, 23.856869087780414,  3.996460520748324
 0.864293630416989, 10.748219104151904,  4.196768268603054,  4.199092431334729
 1.502181692540437,  3.144111315692591, 46.407347448073629,  4.167615948446167
11.965565476140833,  1.307179064352080, 58.320984633528504,  3.783596946503477
14.423485227011193,  4.221843251599108, 42.602752581229410,  3.974506506437581
13.841620197478710, 12.922549606948124, 67.130733676703585,  4.135946349544260
 8.521425437239266, 14.999775941433960,  3.277444084469852,  3.891823616842393
 0.548299719455327,  9.651758202074877, 33.965131302383163,  4.049236717758793
 6.436308926530398, 12.958085050414994, 76.119862654815648,  3.987767973237678
 4.677684405369759,  8.890791736908177, 57.984367003881253,  3.520265659653273
12.725695354078830,  1.711468535332034, 47.008638294603685,  4.033977785050636
 8.727475977072435,  2.156241480790092, 36.911928335025024,  4.076791287909701
 8.737489045036872, 14.822440795508196, 16.992447283438800,  3.646215081107553
 9.800022214984999,  3.294404894407442, 10.303299023475628,  3.909341659842291
 6.411952916809825,  6.045750670728713, 61.497480879517276,  3.724152780714466
 1.344222721012569,  6.446122423989896, 90.594232177734369,  4.116134120526802
12.175280069860696,  9.618213122261482, 68.577849251534971,  3.740180291587840
 2.755035060252236, 13.076444717944202, 33.645700431804656,  4.101794988993369
 4.726833050156489,  1.550197695948008, 12.425591623576514,  4.004016346403770
 0.590963783802041,  1.937738519909196, 90.992022532946351,  3.724637901160823
 9.686644117649143,  4.551243846440830, 45.994291069172185,  3.610860250590951
 1.737324394884581,  7.880077200188053,  6.902591819563223,  3.816632389448662
12.207954679112776,  8.342509009132574, 31.971228234186682,  4.182178541907548
11.024748538047371, 12.886630858272795, 30.204294461506471,  4.175395084879265
 3.458680766993061,  6.498942070549570, 86.993618246730705,  4.215359157407239
12.703101400467217,  8.549455691049353, 90.776882273323565,  3.805357723965254
12.377100721026880, 13.338754661324323, 51.061299955568259,  3.871021661069624
14.392794593028503, 11.391150781685090, 53.593230516482464,  3.651406103335992
 4.876880936764446,  8.680941148191826, 90.356464973398431,  4.224755449041889
 2.571518869403661, 12.688209661473227, 51.419206515547451,  4.139895835739538
 5.594797466919922,  9.754416260619891, 27.182634224468678,  3.751980928572967
11.534792077166610,  9.913578299802948,  0.395948373230547,  3.982669082020756
11.431197399089646, 10.044351676365713, 10.691926639562881,  4.063923113372838
 3.601703665636985,  6.262682294975462, 48.031364253086856,  4.021540369534007
 2.472617573906761, 13.384215605846316, 12.493736093348417,  3.810684245635491
 1.267522392264227,  8.473903431036874, 30.135629246295181,  4.082456939431145
 9.755484698397463,  2.642075678957180, 19.182208528812932,  3.822469342203006
 2.494220642295119,  4.838293031895873, 39.908263118665218,  3.849609247356695
 3.092027672412125, 10.899233555593941, 37.008100172593217,  3.819505720983330
 2.312555626937039,  6.262856249113714, 77.858710380990829,  3.894624943684008
11.905161327742656, 13.296046519771252,  2.512508884800194,  3.822006009113009
11.338035787293846, 11.701447470734831, 17.308376370825048,  3.657118811835338
 4.644550693337830, 14.197862075298980, 38.859120977656119,  4.294870275015810
 4.791630990729566,  7.762454523289259, 51.466873603785096,  3.803140810950166
 6.326763788012856, 10.407099362626761, 39.261157680620556,  4.011620515376730
 2.813910636041285,  4.686636419478007, 71.239037983273690,  3.913073616659061
 2.140134209993603,  5.832052295011846, 56.622830035416662,  3.594106367403489
10.092404166483206, 12.426563537621764, 13.714600038597215,  4.083665913390281
 3.210004682890032,  1.898191651194699, 54.996195454052433,  3.898692082926391
13.869684793734143,  2.635169954449850, 20.435941830643262,  3.994598237622158
 2.304985779216298,  8.597958833784515, 83.697137397455762,  3.931807990328180
 2.990625885683905,  6.507462513657510, 60.111189396675655,  3.697752393404063
10.168873418782065, 12.036189610370357, 53.993176339380440,  3.843545533018905
10.809087876896363,  6.954155994545442, 27.211350179947118,  3.967796170756423
 7.699830711472266, 10.825719610999732, 10.105284957637000,  3.621775297213548
 3.214976973110997,  7.209156978795664, 63.886724622371396,  3.992684649345382
 5.587659764815805,  5.441799752879777, 36.081024680657670,  4.250418533359881
 4.868446493068433,  2.655445585197783, 77.653874740376324,  4.051781751435820
 7.620142576815853, 13.123569465987121,  6.695758360578123,  4.086930609086131
 9.278531195163351,  3.657204190158149, 67.318656131038622,  3.827369301322043
 8.295637339392130,  8.782387013529036, 67.921989427723545,  4.167631612730404
 7.224536841716730,  5.184591711783420, 49.656224535919570,  4.149598265703201
 0.346529424460637,  5.685113736214920, 33.144378255265657,  4.060799719856863
 1.238921843396429,  1.464389080795331, 10.676174782167575,  3.773944448684299
 3.331654866896474,  2.778666366887824, 32.620769052601801,  4.127562061024393
10.267581126481302, 13.910461343707921, 62.114015843761237,  4.216882063782974
14.697106417764799,  5.224438580200107, 63.904216708600657,  4.106727647775533
 5.468436978800713,  2.354447642851097, 67.333169204952156,  3.756025755761915
 9.489369553499335,  3.064886874322710, 71.102007088400555,  3.764888176048411
 7.999173661871469,  6.420790472624579,  8.494794434498056,  4.119380904257194
10.454525619516808,  9.025551028912409, 56.475755229928417,  3.959117351125171
 1.678226056322028,  7.409519656256732, 15.730018701611810,  3.846638706561786
 2.119533932294426,  5.175932854836934, 52.876126912992468,  3.961397109527931
 7.501217927627765,  8.619735731329765, 42.550690295878574,  3.820153612876784
10.263443379942604,  2.925704617688786, 89.225993843298099,  3.957542499579815
 3.266485956357871,  1.667812215299740, 74.090225337331574,  3.952772452743768
12.488354573411767, 12.384444478048044, 91.007388779926785,  3.889925015160677
 0.776925068057307,  3.690528190861144, 24.128863325212247,  3.981824853518267
 4.115237219261602, 14.616688031364093, 85.177377347306347,  4.056012840642676
12.352305386095349,  9.053539360239387, 14.597619901219037,  4.176512516578125
 0.108269211937376, 10.600870974345565, 79.348233116523019,  3.808186122288920
 1.257990836858651,  1.577810390731545, 14.679160735864844,  4.203793643550892
 8.012396235866582,  8.958663717323391, 63.761345121635351,  4.176711657563971
13.323256503781325,  0.238902959211003, 88.240033376073129,  4.200946045692666
13.331756495256563,  5.282882141937728,  2.238507263619071,  4.043251313258928
12.023304889086493,  7.705575427183158, 73.022263476542662,  3.944139782903501
12.930532165648097,  4.733762433934256, 29.934958219211914,  4.223402900732256
 3.512687271911894, 13.348813743121774, 23.704078317593762,  3.900289780202915
 4.741492390693635,  2.100944105800621,  1.111812033835952,  4.186661879122460
 7.112826102140121, 14.100036294712570, 30.880166395356273,  3.992891500275180
 0.451204016855239,  0.901855206078757, 84.080451571566968,  3.900341271154303
 1.123360552862633, 10.618923493914147, 90.873713915813894,  4.240729388090865
 4.836413964609657, 14.795752503345964, 16.233442450362006,  4.296964233371376
 8.865512326890981,  1.992341572797802, 85.629599685133954,  3.980998774760995
 7.246200704224574,  4.074586487698996, 42.616356778229971,  4.186910660913986
 6.275860108694145, 10.246321391982329, 71.148673419241490,  3.961544746851720
 8.574736029280183,  5.746176474927934, 91.771162384206633,  4.334861037801288
 9.690940883769397,  7.781946292574081, 76.579089094270984,  3.772539691322731
 0.459890295201723,  1.047447903372398, 64.490138869319779,  4.473239212012074
10.365143839486525,  5.489095582945355,  5.501653256564613,  3.684388403312183
 5.986345923582101, 12.774273089869034, 90.891349612743767,  4.291637610985788
 6.184286675675114,  0.917314365753627, 88.311853001521797,  3.894703042798925
 8.412978125548221,  8.739822375026538, 13.399980815315503,  4.035829767581474
 7.617497037807313, 10.120834586734171, 78.680237152495494,  3.747897106943920
 2.648021478224835, 14.288291224175792, 92.920895143920433,  4.057627778051145
 6.953730463445117, 11.107037872323527, 23.737255686573690,  4.103287198084023
 1.082932754332494, 14.088655010992222, 37.028565939344134,  3.711281369127166
 5.688535057467902,  3.072506531971721, 46.392047930407408,  4.203522232549203
13.314223928829207,  5.616714842088592, 46.156190120452784,  3.951148093227945
 6.268141157933390, 12.980357902240979, 12.803155157268586,  3.841139324329184
 9.400816594463590, 10.737191627625400, 27.039586883029674,  4.094791289019522
 7.009291747634352,  0.431168993707689, 60.149763640484245,  3.962592536639238
 7.000001466213276,  0.114601233808093, 23.687469622871852,  3.940254547620310
 4.998448781580955, 12.648751482332406, 58.281415520867213,  3.890328867435684
 5.308628394448585, 12.936482221366681, 79.931484413367201,  3.924499129298689
 4.743094702168644, 10.411086311105839, 65.958441897212012,  4.201008771398458
 9.405086446011271, 12.804401929246177, 48.556209110486357,  3.974845786809660
13.876439545503652,  9.932831653577075, 24.419200504795175,  4.220430682103755
 9.486172879084663, 13.166908302745918, 93.382799314819636,  3.912545362222739
 2.002086218891640, 11.640190383033072, 27.399725430072504,  4.323911388953510
11.901748505919684, 13.420508349777908,  6.415481922524698,  3.963757345574702
 2.494502165524662, 14.004089243962925, 88.863973325910919,  4.078829012386096
 1.923221931280295,  7.168879286192784, 36.804926052732789,  3.971609896017510
 8.838819178925291,  3.561955450214895, 26.043601825282149,  4.191969460774825
 5.927995546080002,  8.035895389705280,  3.003925567644246,  3.661815881257030
 5.731900613057589,  2.160398496920061, 71.132985043350260,  3.807769523286933
