BANDS
8 8
NANOPARTICLES
cell(1), 15.003
cell(2), 15.003
cell(3), 93.769
 1.942942255057124, 12.090726983706558, 81.422941013559651,  3.757925784817542
 1.617155920271284,  5.050657074968703,  7.311569928108993,  3.619473852548468
 9.893661360228714, 10.277402188336513, 60.303234461480486,  4.091126299307509
 3.835685521215673,  1.047965116346526, 63.018446048121369,  4.307713796072616
 7.707069725631724, 13.055896592414099, 25.902754478432783,  4.020825311627067
 1.332978015908836,  6.303516488717482, 76.860568162825786,  3.581143717217836
 7.195108265960275, 13.845996285063208, 15.422708016268032,  4.000872168469498
 5.669130189458672, 13.046556985249843,  2.827711484182112,  4.132803636684920
 8.630927524494030, 13.474779017671391, 84.740087132823064,  3.856862841663792
12.263243809943924,  5.060767569344441, 64.157268016241616,  4.018200998185170
 2.029684022581742,  8.998217664459220, 61.404571539875349,  4.271209732916068
 3.864483592973572, 10.897193532002362, 11.803514810266668,  4.202470355632618
 9.478441589018951,  9.339809936732628, 89.598245606086849,  4.057934323729854
12.260965349666993,  5.651086739442980, 35.979509635762710,  4.016872954496514
10.311809369240601,  9.134308727046129, 49.858426417056478,  4.056445039274590
 7.777578050383501,  4.530519067405320,  3.360416456338611,  3.907165626887404
 8.557869632865081,  8.057183601948022, 67.662554289053460,  3.915039299427563
 4.136896768212019,  4.825430665990718,  4.600109215442861,  3.792264219826039
 9.709348728496341, 10.850233355981954, 14.932598382137853,  3.739045075602764
 6.788270548147810,  1.149571193099338,  5.391975098356449,  4.203765667341076
13.397791351157464,  6.808661092420570, 46.409724747490856,  3.970130143856445
 2.473060637738928,  9.355943089388170, 23.334487611253163,  4.294014944279763
 8.070685501559787,  2.114198145788173, 26.062744375998943,  4.101635005407061
 0.717244280660092,  6.669977756311327, 65.163203382340015,  3.856620628069777
 1.489394215809120,  5.971617567531500, 21.117727823125332,  4.012555461825600
13.082047750141488,  7.639450084464596, 90.232421341407260,  3.795582106720817
 0.505374453766961,  9.002990408939873, 10.276254170020358,  4.086463320892929
 7.807896268261342, 12.121116157252018, 11.781088777227280,  4.019348562131747
13.810119085956760, 13.674569287362798, 18.289802625785541,  4.294384786891770
 1.530831939021339,  7.931224455889710,  3.557609759410132,  4.370701762979615
 0.937735656484885, 10.248479814056898, 19.513171781100962,  4.123799993305303
 4.347615585056245, 14.340301182972212, 54.120947590180201,  4.225688057853822
 2.181739661934613,  1.154551268750238, 49.028029175637243,  4.082557058054241
 7.521693001314584, 10.484665859561678, 32.668333821942433,  3.762537047714256
11.979223447055173,  2.622311160816309, 26.135907675039540,  3.779774548707242
 8.097297639879885, 13.117863341813198, 76.631024203921228,  4.188112644752492
13.219167146103484,  0.298816652836680, 48.795354274039312,  4.035445745206717
 7.706702082006033,  2.876677596715185, 52.089390371258489,  3.448401657959812
 6.300038194524340, 12.624534828492965, 35.726042700399979,  3.830135881567589
 9.764113780111085,  7.447472765848266, 31.827404073023331,  3.957437986302603
 1.965411731632043,  6.551689175670696, 44.603254347466375,  4.008114251573315
10.058991188498348,  4.219166694161292, 67.565856035781906,  4.229869045132944
 8.067655817040544,  7.581711892501325,  0.967659602910732,  3.866091794222880
 4.902269539037068,  3.914004486223236, 76.097490759310830,  4.289540210053001
 5.676659626416879,  6.226366624641946, 52.780910009086554,  3.846868319524266
13.879542406462019,  0.016719148954389, 60.095001455607949,  3.980059395798181
 3.317887951261660,  9.772861184198428, 32.770451852216844,  3.882734913566872
 1.322355526390330,  2.900595728219440, 55.611414757555785,  3.947005053818546
 1.278758513962513,  0.192083884783447, 10.673580460137105,  3.789182429266931
 5.823436289807037,  8.460072379262133, 35.523942892951197,  4.003762363815701
 6.161871486637098,  6.188221443555870, 70.577490108307614,  3.998255234690044
 6.050516752368288, 10.635226224281931, 59.475460532983739,  3.756223019194888
12.869235946107139,  0.756302242836855, 56.131172043907092,  4.238962713240291
 7.771341551984624,  8.466708325797548, 18.743798151244491,  3.997350310877964
 4.269080582081764,  0.926766045531334, 25.808576840710739,  3.846440483413086
11.574247714893096,  5.677172396402406,  2.098807955387346,  4.392791007076486
 2.803657079360970,  5.936693141301671, 91.291900398323833,  3.667288243261564
 6.075536066880433, 11.340662115679597, 90.200795261665917,  3.874924658320156
12.592474151516409,  7.681901096901885, 85.529669418951585,  4.443521627308190
 7.060616235050854, 14.810238871532297, 93.260370655216860,  3.903882613677704
 9.438238453224681,  5.774512358058145, 47.530719278413834,  4.299956704396711
12.871797373061048,  7.043462495204251, 78.335992108915448,  4.086279975277352
 6.867448504630516,  0.542762465684942, 19.243411849509823,  4.186161650847354
 8.305276696120696, 14.379264867216804, 32.676889854364852,  4.171600790695170
14.150309844062845,  9.236767571182355, 81.657099221406227,  4.176584633657954
12.839621846885702,  4.881050002524128, 55.450430730005486,  4.065636048357110
 5.184136548203798,  7.152753354298494, 84.113218380402330,  3.690694925615890
14.790240786859110,  9.521009320143394, 74.021653922419489,  4.094742273863995
11.938607003383595,  9.096137310911587, 28.690928102111801,  4.259900398134553
12.140820160690188,  1.299501980232871, 65.478520098170151,  3.936292514475477
11.692111941403159,  7.266882788729177, 74.667084461058707,  3.631235218297327
10.375478443223283,  7.885344505591503, 82.020585057853097,  3.866980466482854
 2.743000230875695,  4.160985078948782, 79.735895027958605,  4.112769976190463
13.451608113776288,  3.926702068026216, 91.385231258823225,  3.984949973530800
14.790365009427525,  4.181364427171648, 24.137700651730384,  3.789969795973880
13.826034227637932,  9.384795543332721, 36.316150377772729,  3.906714385093732
 0.950951471971738,  5.667962235479886, 83.556656515459409,  4.309667744850519
 5.608673861739090,  0.288529399369142, 89.478425986074939,  4.205488379375034
 4.689872746502002, 10.178124495015579, 53.929909359647191,  3.917713578066102
 5.281912082181583, 13.790019689317345, 22.629942978364955,  4.039338134529627
 9.627477530980178, 10.290638798124020, 64.409905865692707,  4.107964612383490
 0.227175483157013,  1.487152006774416, 45.454698452969502,  4.073209792201445
 2.435518313057997,  7.054016225256080, 55.007587772092172,  4.018178761210263
 7.465733620708066,  8.354703522050348, 42.449329301363299,  4.009955154052596
12.131747594455334,  4.087400551340602, 83.488080824845085,  3.875000555901833
 8.979681034099626, 14.003943969243927, 65.724042413484113,  3.861359340756496
 7.148689846611346,  1.832382919305064, 86.067390554051855,  3.876970944949057
 8.151060441608578,  4.433048102225057, 19.541790152493260,  3.910594982113116
 0.460446918337527, 10.175804231745232, 44.365862056910601,  3.852221532230218
10.445469080078762,  1.164218194609439, 72.616148441760600,  3.618435580147776
 1.393723342035098,  1.586292657239494, 82.649585874118117,  4.090834227619964
14.674104723387021,  2.660173422450923, 86.299358489370121,  4.211852603274841
14.167158114074750,  3.959066544514038, 67.346958175711194,  3.722631264380653
 9.146443416528653,  0.771855198727947, 12.575608818285961,  3.889908674469376
12.545644892786347,  0.252257374832631, 82.652424267804221,  3.984279109956553
 1.708495762013083,  3.451282032500625, 27.479575658312466,  4.053568275405928
14.855974307158776,  5.422227151269235, 73.410636169926050,  4.107681714907756
 9.766735769427994, 12.780189001698647, 18.275309639678081,  3.970648388772962
 3.436763384983154,  5.852428296477740, 58.791749819574186,  4.145963723482422
 3.958410568605441,  8.129947445257901, 27.149663511213458,  4.134158825546529
 7.503265137519382, 12.092746722613990,  6.486319336154079,  4.178690488406318
 6.658158830705634,  2.966682749384444, 60.274891004822202,  4.403265449021413
 4.972508892912233,  2.194436021754929,  1.845533642022265,  3.994831401213373
14.906600944655105,  6.916476789790272, 93.612036188955400,  3.982595301960320
10.256003481968319,  1.157298513777450, 42.817458589965341,  3.855632365761904
 0.095305463353455, 11.869583184273951, 40.526771805797480,  4.536479658712635
 2.174369997875168, 13.901295415811347, 29.132455014792459,  4.397165374044508
 4.226120806288422,  5.520395482102422, 63.088469383282238,  4.598864357222799
 5.259087622010213, 14.978106307070918, 66.791467180290468,  4.036407351407018
 9.744195204667644,  4.977043247955053, 43.474322245643670,  3.927292867103708
11.245341599153788, 13.247858085201306, 62.467137528483782,  3.660630439770385
 7.547772051787221,  2.427606516173653, 64.366897413002789,  4.023889579403086
 5.692692947134590, 11.584512626071271, 44.459441399270240,  3.776919859346991
12.664131249701111, 11.480791460716897, 90.989840076623196,  4.074785938102560
14.285088008672542,  1.800191574377610, 30.363573102657252,  4.154266113825721
 4.542293362958821,  5.154907081976515, 33.667133730000884,  3.822693612300855
11.693846441790466,  4.587340798731128, 88.014545353348481,  3.671632907511786
 2.053947311125261,  3.680689894194241, 12.354387613411346,  4.084055321163725
 6.077363790913713, 10.315341113249481, 70.626658457326755,  4.242940406847066
 0.891476501200660,  2.653791866692422, 76.104284831866295,  3.869862430952169
 6.269128874045106,  7.555389998850311, 91.245448240473834,  3.982136389852167
13.945628707546740,  7.851478703715839, 50.036660918846493,  3.656434993983958
 0.083493322592370,  2.658120367550616, 62.781269543423811,  3.867346693798877
 3.712701732773661, 10.831184187822364, 74.154499152685176,  4.180548849042248
 4.624441836760426,  2.074122198905669, 39.807354862559052,  3.851451836992570
 7.649270511152448, 12.435209963246059, 52.471791411636374,  4.058114840229178
 1.570618126367862,  0.711278838394714, 69.446880989370214,  4.154065023575737
 0.327268529740638,  3.935550800154350, 33.794631668246822,  4.167563238439437
 2.580022618522069,  0.004864402611211, 37.165035151031745,  4.004014057814430
 2.756411923762840, 10.329402795822626, 57.440616821923804,  3.951282476458586
11.436065004493191,  2.380797068455697, 52.576094855016756,  3.953693316066159
 8.813667744919346,  2.528898825627068, 15.994219983336226,  3.731264983318293
 7.069167611763195,  4.752237989427356,  7.195286884584103,  3.863307705524462
 3.941247593804259,  6.611553230260967, 10.076221103047438,  4.244055962942856
 6.051376777964135,  1.751519583386310, 35.475913418602609,  4.443262027704209
 2.698953896967316, 10.820378172082608, 37.056175419237775,  4.365517075512313
 7.706090480063254,  3.736586139229477, 38.558879473981683,  3.569721166917870
 4.408206649255880,  4.538127153428773, 86.850013494476627,  3.889765057880384
14.647774473522896, 12.574069760864909,  7.754193962077711,  4.388767800326316
 5.911138698841809,  3.627275423849051, 91.965750142933629,  3.995993438696782
14.059344849176457, 13.321413908888699, 36.380968030439284,  3.964147655174281
 1.787668912017634,  4.397563764785636, 16.297768663892970,  3.940368760281471
12.986296704595949, 14.831053277877322, 88.754970741168108,  4.003737069711746
10.878827251913412,  1.543483075186824, 19.150166987043249,  4.061320775233673
 0.889918536057784, 12.568550921608811, 71.774790076157558,  3.682557908257716
 5.538837743982658,  6.879933456160795, 39.021607193862579,  3.688375090210622
 4.828898830907575,  8.039416746878075, 77.091120454398236,  4.196321042539967
 5.865959664467348,  7.500624835049301, 30.891743653874002,  3.910071730860804
 8.517463091155145,  2.082975512865503, 76.251506600012547,  3.794747937589437
11.937684526038254,  9.358215173313294,  0.430015872715535,  3.722346187116222
13.526427788308695,  7.914044701506339, 23.126468805812834,  4.043674433002328
 8.683165442351681, 11.175506216448927, 93.157933969776735,  4.015848891658366
 9.253973392766461, 12.118238214448146, 29.409712497501630,  3.869523980732464
14.918496952178742, 11.448377409835400, 33.076180162492243,  3.722637030770516
 0.857247761017536,  0.818606525950173, 14.911754358966872,  3.954445618245272
 7.141297511823750, 10.463174567216392, 38.956121789035912,  4.119408296389467
 4.940987274577997, 11.389275688177280, 19.299715944746890,  4.196747453640643
 3.463868328771673,  5.212510566805545, 24.379673160939571,  3.712340602531565
 8.444036182184133,  5.246363743672148, 84.075165637796729,  3.856140084825779
 6.393571238269399, 11.801348823046839, 48.299516976455884,  3.840074122885560
12.986445251735478,  8.740732764950655, 62.603271272734602,  4.080178953444946
 4.792721801914621, 11.861614425601964, 78.744333763708113,  4.049068523884794
 2.102527441695765,  9.106511396198032, 70.839704251174666,  3.813741251808634
13.665221084311803, 14.665811123505796,  4.211962509121689,  3.906787336806993
10.722369813396693,  6.792383719593199, 16.564286933159483,  4.066228360660524
 9.937373338900285, 13.085234322195838, 49.256085211517366,  3.933779611833053
 4.185150887773231,  2.473112618945582,  8.893838798402498,  4.210404826277461
11.214633827305290,  3.674432239354108, 32.516979412728134,  4.222572841073578
12.505649866454769, 12.472697044685013, 66.101058176302885,  3.849132190127914
 3.637485555063635,  2.925456953887966, 52.331599373348816,  3.916788796514704
 7.888793771458990, 14.763066291728343, 38.951799307072022,  4.328240153169076
14.841810054599772,  2.635356087616644, 19.405936244807311,  4.174967642379430
 1.621401733219140, 14.871149031647649,  1.758107044396437,  3.759799451836833
 0.804952435714422,  9.921115501808133, 77.959148372743584,  4.037542322750069
14.593937555014010, 11.445381639496846, 59.121112775195790,  3.517268887592383
 6.304720503726196,  4.706090949206676, 41.891992672920090,  3.655125402192087
 5.834043752291841,  6.556557162953214, 45.629671532251699,  3.987466306580295
 5.120504533012516, 12.240858040374764, 86.349640764835058,  4.250974027493196
 6.929544145746629,  8.474062150158884,  8.075462491652029,  3.770986704867882
11.908900275054954, 14.739704739326950, 75.766190619859088,  3.825785358197831
 2.298365257943657,  0.117635351919579, 78.887711939062697,  4.156711323416878
 3.046906487410938,  9.386938274902851,  7.177353126279049,  3.965679674399021
13.076697586197737,  1.612970325074165, 12.259442847741598,  3.896465831613756
 6.475405375082488,  8.183165317629564, 49.578314457506600,  3.822382834488447
 2.842593547506311,  2.781667423954419, 72.707658594259655,  3.956667604913777
11.168614941660708,  2.664766700583644,  5.073710800277327,  4.076754910815145
 7.243612541069600,  3.194327412847569, 31.658701911138131,  3.955166586660550
13.807103858701725,  5.144290417721074, 10.138756792399825,  4.304270438395682
 8.269161934971233,  5.318273714688681, 34.905999853365998,  4.030911711844117
13.325297815780045,  6.917547870169255,  6.252597938448745,  4.241167179899607
 5.964908276146168, 14.344534548594060, 58.010620851534689,  4.190848489858410
 9.889833904537486,  5.835064496112071, 91.665387127254220,  4.072693262971601
11.965701759086119, 12.180497582999140, 72.561476466466331,  4.043500321024101
11.900299883566602,  5.354140210115684, 20.077364696768473,  3.873676236557174
11.384416917620433,  3.634124870328907, 39.930911758199620,  4.074124087085467
 9.436665394896234,  7.102839250067195, 39.173533914782816,  4.022080954879722
13.546694016853809, 10.175135956539958, 15.846454947382366,  4.246235740724980
 1.970915352935806, 13.336392175735563, 88.890154156932624,  4.054120636217610
 5.908927107137362,  9.439937643061107, 63.146564146098150,  3.916239335266054
10.050411780907691,  3.194865587347277, 57.827960863039216,  3.951596207183275
12.851324589718256, 13.318361541607750, 44.061398881682301,  4.229954665782030
 0.102428956702831,  3.821684481455586,  3.857905063329858,  4.312181766867921
 3.920815743635782, 12.125754679168129, 25.891850104969571,  3.771561196819477
10.462669860172769,  7.932150263990009, 56.920987828796918,  4.204562274682214
13.909468746993834,  2.714055798898900, 79.609321585001325,  4.063487377803245
 9.120855754734047,  0.009779786423911, 22.700080646321478,  3.991429581439818
11.228159918474182, 11.149023105067197, 32.506410998995975,  3.714286680556069
11.545960909780652, 13.851497566893132, 25.929871401965183,  3.811559561610785
 2.841761529622889,  3.175908675878736, 66.450823491845824,  4.005412104684936
 6.324026283995348,  7.593193059622775, 56.467364710368770,  4.007823870239673
 9.209635429781159, 13.343155253710846, 88.757973504040024,  4.075269419624607
13.850407620131591,  6.960779827942225, 39.482010344588737,  4.040819617207539
 5.946888552998284,  0.240459142732782, 50.157574249541121,  3.974420597704861
11.318703192911968, 13.591930477449770, 52.751156510241920,  3.629091556521881
 4.984710738115928,  2.574087457004030, 69.584111782817445,  3.609725283948406
 4.397276131788827, 14.783319517852116, 75.406435133395107,  3.999905856173728
 3.232931966590602,  9.474095426956461, 47.229902686517633,  4.242207734269884
 6.811002645170989,  5.901630472531513, 15.748970897066076,  4.116584448729348
 2.147619235374430,  2.172557246066350, 59.511561546145956,  3.768524257760547
 5.417472609517513,  3.180692197914863, 56.081481747175346,  4.312922556911026
 5.854668151517004,  9.970984525509969, 15.425079355474871,  4.193088232346534
 4.901600420077404,  9.867610502527244,  0.413494693948095,  3.971503070889047
 3.316419687608883,  0.886068720156286, 86.171485637145935,  3.843422367422531
12.091384197615245,  3.665840346555792, 75.921707030644598,  3.988051224851281
10.924452817117224,  1.459933000400272, 85.940506189731721,  3.688471490821773
 9.314547966097335,  2.787851072621802,  0.317150924430016,  3.750109598232041
 5.598246921819263, 10.605537373462500, 82.586741038712063,  3.896294908482193
11.091739193620162, 11.648114977216727, 82.410680333958638,  3.740602480809269
 7.246096805006195, 13.567494317985936, 62.015325003856447,  4.359329548850677
10.746359153576337,  6.034351806084321, 60.561305920710673,  4.019713466050630
11.593430790369421,  2.743089593354081, 46.026051042330664,  3.682010769562557
 9.094769018312375,  2.453670697984700, 89.760660640280733,  3.848100970124242
 4.446445505839804, 13.447500856834964, 32.504349945654809,  3.774665637552277
 8.736837056684665,  5.091864134710635, 54.736003749831205,  3.746129000620227
 2.293536358114354, 12.152245354497964, 16.043139228791482,  4.226460292673226
12.500921219317640,  3.622878472163597, 70.719591335700159,  3.823895295491853
12.379693829378192, 11.558812286753847, 55.937104453049784,  4.217585665513475
 8.274578641916714, 11.376768371078532, 56.332324881098707,  4.035889394128679
11.766263596777288,  8.708542734949834, 42.867031225150953,  4.636568506548667
 7.372130383104412,  2.843812257852116, 45.645216757107896,  3.774868362841911
 0.977956330598468,  6.379916907661130, 87.822187035660065,  4.128503915139214
13.717844401777548, 10.773298029154393, 69.340173693990323,  3.752243537537295
 0.032551977461503, 14.676397553407204, 92.017421887726556,  3.679528808299657
 3.075024661023515, 12.304243202646619, 50.591681636348277,  4.273737689002482
 2.466494222211020,  9.770295355920592, 90.837534070341988,  4.068937007030445
 0.622922673481534, 10.352490729797699, 65.999786261049735,  3.689968173896611
13.801342441633944,  4.520434768889459, 43.099331683835942,  4.079893758835770
 2.463538247308758,  5.283890491480320, 69.733241565047109,  3.779779804393622
12.802247397350811,  4.229160134802330, 49.353980159729659,  3.939640260199231
14.917832691845343, 12.265641013973449, 62.753469197392675,  3.947060994275570
 0.670833389963732,  1.230140953224580, 41.222595135123420,  4.347830379774031
14.048381913527194,  7.004858993689166, 69.853061739896560,  3.812639998765415
14.259283899136117,  2.276534781230944, 37.400230858283201,  4.052710260948929
10.807236322818252, 14.870882523338386, 92.096640032654122,  3.899268081647229
 8.423946905337614,  6.381653032386262, 63.895595165651834,  4.100926258609606
 4.872776128752436, 14.850240438370275, 46.351349347129165,  3.939386313165353
13.008444555616714, 12.940191948632732,  0.839998472485894,  3.757087837347939
12.562810921870492, 12.475247172299653, 22.291282794160399,  3.919568085535066
 1.605886126738318,  3.326214651024456,  0.034701138413124,  3.953897252249900
 1.444420402344828, 13.153409285769307, 22.171207286726844,  3.791020730628433
 0.306877395798364,  5.021413629792964, 52.298928201788179,  3.947109691219645
 0.257516096874944, 13.483555084370183, 85.134450580421429,  4.176687175101289
 0.315276015665839,  0.138458500016373, 25.459304555057720,  4.182960640126833
10.312763686311325,  2.036320397544548, 36.268746787517081,  4.151888760001459
 9.034564150590878, 12.222014605594200, 42.273216065446690,  4.284823197901394
 9.698603094519397, 14.472518059971531,  2.684236165087610,  4.398925169537378
 5.476902136823298,  6.884189561454831, 21.619332842086063,  3.799197199090672
 3.055157292015211, 12.053950251711692, 68.435877693771317,  3.957609158289937
 8.905373635149560,  9.682679212873349, 46.050510769709007,  4.112874180073232
 6.285681513813386,  2.788384707286461, 22.579350879817902,  3.829221261541298
 3.085476726848505, 12.878159285347854, 60.486175470482806,  3.938213637497543
12.666389780665417, 10.600738636478443, 47.060219933929289,  3.798748648194733
 8.675547507652553,  0.546120957886880, 54.997776410170708,  4.194540160101877
 7.944396648714749, 13.244707033215157, 80.839558451762102,  3.950872899730362
 3.041339648676377,  8.102508347257888, 80.823712567298813,  4.080449768446236
 0.963545879688591,  9.851511198024246, 29.533959463120066,  4.091736826328354
 1.127059000292575, 10.801676798306291,  0.650672997358856,  3.802802035392975
10.384565905503313,  4.726971562407575, 12.867343961230215,  4.401604425859725
 2.040697963565643, 12.013024697214840,  4.353611576667711,  4.003651165072486
 8.846384318458478,  1.683386649814087, 82.558540289677424,  3.916156042136532
 9.876628821992705,  9.021186409135556, 35.587146450370717,  4.151553204155499
 5.388841275158807, 11.181738202485350, 29.456641884733539,  4.032245076375082
12.018244549752430, 14.665018612626081, 39.530658141393253,  4.005597360154354
 4.885648176003607,  0.029884249925351, 12.282482927056042,  4.108717483727039
11.177316105006327,  6.171747061008366, 52.176084218533752,  3.642355541567541
 3.690021694196165,  7.532650812992530, 18.032136268969595,  4.154684974639297
 4.256569609684794, 13.070963108236471, 40.314562125791355,  4.114216483172330
 3.758469873284962,  2.976729958462566, 44.145658070656722,  3.970576048571306
13.944878747855338, 11.700510798479723, 50.665316939672962,  4.063469628787997
 0.653289405198749, 13.224809092973647, 75.609293032822009,  4.074140349763132
 4.630774484583744,  8.384283214396810, 87.703152741541928,  3.974595430941602
 1.527384098919238, 14.171339613200891, 57.101414875631633,  3.948757907884711
 6.540594757572745,  6.075547164054565, 80.306133456432320,  4.042474983345310
13.098100986880628, 12.983274462311741, 29.552936653019604,  4.003189583739921
14.536399548317544,  6.975202064595390, 17.938335779704602,  3.647268357422203
10.558162235657029,  2.499926513371131,  9.190227046150975,  4.196724819454591
 8.685911677554358, 14.261600996184269, 45.772461304825981,  3.829257139266587
 0.036464980208088, 12.160165237272235, 12.644147255512937,  3.858358797243677
 8.593047913755674,  8.686520868680814, 53.410219645375690,  3.876253012691661
 3.877197904068872, 13.260398437284168,  8.293846122618531,  4.248361225919698
 2.631614175209497,  8.185800201646567, 51.130381753029042,  4.054807655521214
 4.993698637485667,  2.150477874196513, 15.715018113436411,  3.959798123056473
 1.114326238879607,  0.010817210058888, 33.516570696450991,  3.851916191614804
 3.478202493882242, 12.234214328591825, 64.431505601851967,  3.825558537061777
 0.059066924149545,  7.055259318234929, 26.756642212782456,  3.993377340514879
11.644265706614236, 13.163539812725812, 10.797563270424730,  4.115181617488751
 1.650571738368839,  5.202968181758541, 48.478089762790560,  4.154835960782941
 6.245203920230060,  0.153172934800380, 29.170557916444551,  4.104827785364824
 0.818760228321523, 12.774908235671072, 47.233076442468935,  3.862369761116649
 8.013899789793573,  5.863947392158586, 87.998802943738923,  4.117484380735650
12.810502782913922,  1.325830434180751, 22.584838577433484,  3.804529904824611
 9.322644141428695,  4.864412042151225, 72.749334170649277,  4.114795541335043
10.301858922486502,  1.010729543593997, 29.377264268297164,  4.180558984391250
 0.185602042753894,  0.396806448233303, 52.580034431912964,  4.205669546458836
 1.951742138772735,  2.362030592063300, 89.838265081305948,  4.219940965467552
 9.373837906748168,  4.832093549909017, 28.900855449957600,  3.697762799883674
 6.462799502180733, 11.202462982530600, 66.679517218997461,  3.884725483214216
 9.195544366127416,  7.429005933320525, 22.191424292943388,  3.671149801103865
 2.470200059764312,  1.907721295603866, 22.454736868452891,  4.000518241448916
12.975595657343595,  5.333753067802246, 29.427862132955045,  3.608253109639241
 2.119672038956393,  9.678845362311391, 84.654146264704636,  4.309261423620608
10.039753141896341,  6.502900197486611,  9.135724160800173,  3.876794856266432
 8.123859732815507, 13.237727996052252, 72.544151847248699,  3.855491819323623
 3.406695359063664,  2.277785380608228, 31.302134469322212,  3.959377089641622
 8.085912848171464,  9.574998662904154, 74.312037943044302,  4.278507036591146
 1.025840653323365, 11.640458447647948, 54.100771535917481,  3.954053510647276
10.227407521505366,  4.463455410487331, 80.049576801281333,  4.010822233959628
 2.852353523700483, 14.938917485196020, 19.008950193233893,  3.940557302199626
 4.242954587528911,  3.679693293560663, 19.329706457604757,  3.985334307147135
 6.960769359200899,  7.070904908256997, 60.299828142043715,  3.782609477924136
14.087144831858282,  6.407901766374801, 14.124842197256635,  4.071395584846677
 9.208678296280508, 10.433509243103895,  3.273404233917556,  3.809888712413468
14.637757411835363,  7.652093134116883, 58.085520048572896,  4.328095346237589
10.903527830865018, 14.175489890505373,  6.943625414677189,  3.841308535280464
 5.714334846256031,  4.230018763412126, 49.042571874554717,  4.261877163071477
 9.422776513113131,  7.309755283689968,  5.439114228773505,  3.768603583711299
 6.241113402116313,  3.903016687859318, 12.223848220649758,  4.036508350910700
11.636867723012990, 10.760492287701144, 76.537367843102700,  4.294911119486624
 7.173401559299795,  5.747027511804273, 24.832643136864782,  3.768700042558909
 6.448721410077976,  0.362896295781873, 42.787965807519512,  3.917302152859831
 4.445925161230980, 13.893564604948557, 71.580766248981831,  3.834206690862743
14.376251975317466,  1.836247870787889,  7.548312496965581,  4.167498475336078
 4.757796393374260, 14.415867534063986, 82.870280089306462,  3.921285511364033
 2.270491679840209,  5.139368834207715, 40.796127804854564,  4.119549127103928
 0.801296020652776, 14.867185765161283, 65.571304681697015,  3.906803460698967
 6.357130904836825,  9.430687194903845, 24.315817870991548,  3.716523523500455
 4.326731955189655,  5.946998692140590,  0.963258197092245,  3.750023158845553
10.434810122096298, 10.184973312117748, 24.870417571932730,  4.134778449464456
11.664623761456902,  9.110736540143796, 11.904891248333525,  4.259982520201807
 2.985564909951899,  7.416427002496323, 14.000617054732494,  3.989516834353879
 7.380131876978544,  0.034746669007867,  9.202960144587978,  3.811012055273983
 2.823159905981826,  4.007364113767735, 36.969379734638636,  3.901168301307782
10.159287507593511, 13.027244033979613, 35.995212138106645,  3.894037533845910
 8.296400401003421,  9.602078663814618, 78.973053447061488,  4.263727822332589
 5.787628886362541,  8.503895746773791,  4.217437688933701,  4.262948772932931
10.720734523814603,  2.084832396132554, 61.732279070931554,  4.218453682595996
11.778739724333690, 11.720746975913348, 86.183192094496434,  3.888972925542656
 3.806821729258210,  8.196491775098108, 67.286689626195539,  4.228564833610553
12.274518091401839, 14.753989836232657, 33.191646611102811,  3.866000522362512
13.765339787280265,  7.644271870033795, 32.609166053834997,  4.176591510601401
 2.082249619247905,  6.051514947063478, 30.657758703524610,  4.142397247640160
 3.603767165742583,  6.734067697432440, 73.486546737221587,  3.822457610462401
 8.334590803705030, 11.264720088609259, 21.616082254993710,  3.905235891937442
13.687295941987495, 13.124346159814253, 79.375170715521506,  4.150304809288872
 6.674731861307077,  1.831499830021648, 72.872927645389595,  3.916182521037045
 2.690041284144455,  0.917097703201870,  5.343278133510504,  4.006278610791661
 5.558334687571549,  4.506547140800494, 28.249385603993453,  4.066293014421642
 9.943890741778072,  3.857162806344911, 23.038751004408386,  3.817031437790325
11.020816225527076,  6.327560694899326, 25.795038043787446,  3.882512858948311
 2.319556902734013, 13.482284718566957, 43.763410153917448,  3.826190400590418
11.031383840328930, 10.220929838529324,  7.830879843315632,  4.238805705869300
 6.173780793653659,  1.658928425758696, 79.476048612205517,  4.187862304168762
 6.207960885115916,  5.057440007585709, 66.885175141919490,  3.715756659353857
11.758144635903406,  9.430117662634400, 19.661595483297788,  4.286105534847229
10.593734871461207,  8.420940727257838, 71.146839303541768,  4.079255690306947
 9.262499439244982,  1.889883399754054, 48.872151428934771,  3.825736616952857
 8.415501249662922,  0.757202177508052, 69.315723735833757,  4.144380812526341
13.811656461766086,  8.394130378103585, 53.776268834793285,  3.898956310683331
 9.705282193186349, 11.792097488026766, 68.977638294202734,  4.129009203890059
14.426748706707135, 11.032287457433073, 25.832081406108170,  4.248193873755883
 7.524079491139674,  7.939516894845861, 12.058003609150516,  4.349592709557381
 3.408941037268533,  9.133172971316649, 41.646475740266958,  4.328785998443045
14.319403479477851,  0.903513763029092, 72.883668567206684,  4.008774301865035
12.405821224039641,  8.347675461336946, 66.594748162320997,  3.958645582112787
10.555484121453585,  0.642137455391416, 79.231226843228441,  3.826453208244001
13.163874733432493, 10.582009657208600,  4.084871054945612,  4.266536155517339
 5.047132307071453,  3.401403204132749, 83.063577659980837,  4.082298337950677
10.065726785322060, 14.126627290166718, 58.822631048274552,  4.157738061583472
14.821134017111364, 10.178022092557102, 87.949828693166992,  3.785062821085984
12.749673825079364,  3.049415902876117, 15.925816255911178,  3.962402359294622
 8.401242572887940,  9.318315395716803, 85.442461745826350,  4.498454489378982
 8.535501724702875,  6.057752851256118, 76.666142888517086,  4.194285501519352
 3.519521728269305, 13.241812735685368, 92.586272925281435,  3.942505545570036
13.715624457217766,  3.839748330253948, 59.191990247558969,  3.810692389086982
11.768332277107636, 13.992159300269929, 14.761359835018375,  3.767248298230955
 8.005332194599038,  8.327693459804278, 27.652650420247387,  4.016517837363613
 1.842064206109483,  7.286723311598569, 35.254461728982527,  3.739895850645007
12.985449367673187,  1.814105860255645,  0.939814844205401,  3.937858185155008
11.235189752903139, 10.713286718533206, 39.057519387720170,  4.032329785109201
12.496060179244832, 14.869535292284347, 69.339271955570339,  4.169252570225332
