BANDS
8 8
NANOPARTICLES
cell(1), 15.017
cell(2), 15.017
cell(3), 93.853
 7.444833656125844, 10.334480601133432, 54.968803133056895,  4.121857891204568
 6.441908570921529, 11.921976917006907, 51.175365264864070,  4.339958612190632
11.148763046219992,  8.657072495402167, 18.783232618646647,  3.913813840579473
 4.295642248215696,  2.770755997008644,  9.865864700213937,  4.041213938148040
 6.053042905600654,  5.182696299954366, 65.394758978554790,  4.207549264872516
 4.517452183540515,  7.102152998287822,  2.472419941050275,  4.028157693834110
14.673446338950841,  1.652904117841900, 72.160665016284298,  3.876673236397764
 0.193017706972679,  1.572991287105920, 35.807575250496505,  3.803349457637370
 6.836313008066631,  5.450504868137763, 58.985856569412043,  3.649919203785459
 3.669545569787004,  8.469096521157139, 86.945150312492913,  3.802483345143975
 5.073918325644412, 10.241026349722137, 70.214315187534297,  3.858427458000836
 6.533738086184555,  8.789095704503296, 93.432695409550377,  3.780886571075490
 1.608642097709129,  8.649555704360633, 68.974769360835069,  4.132216524393058
12.469343394673757,  8.445157313190787,  2.845819532340834,  4.292090643617649
11.174118721110597, 10.710353345057023, 74.063523645119218,  3.724775330584435
 2.472218647460161,  8.214737693246921, 25.468322000703083,  3.465505452132126
13.295035466452344,  9.058577009619517, 22.090460379837573,  3.994296386005182
10.035803639298589,  0.129847287737383, 16.895286197170467,  4.303040110658571
 8.754280460036012,  8.972786373296461, 37.371203888262457,  4.215924799539705
 6.752718865201771,  1.050759609740494, 38.266193982486897,  3.776947356260514
 6.831809352879361,  0.446704003834228, 82.533970927774575,  3.870430998496363
12.289194364139933,  0.457583219241540, 51.219957751242205,  3.926433144814542
 3.081279874842765,  3.313536197500330, 73.087301112655666,  3.771306910910135
 8.965781797458314,  7.668963655305345,  9.735598145792288,  3.919777270020699
13.477944009701980,  0.077025350842984, 64.521907948123186,  3.882339259532524
 1.239825079815853,  6.445307870369422,  9.289328081794411,  3.431390624187251
 0.656113257032949, 14.306352148564802, 20.727494683418236,  4.113785248006629
 4.130368969805961, 12.748888907777971, 93.558884999374143,  3.827631387091280
 6.241797095918133,  1.504279567886846, 67.369664737473627,  4.123578690757281
 8.421627422953184, 14.000752265399028, 48.139931229794357,  3.867899129375471
 8.212343595639846, 10.161339058539404, 90.085948633077408,  4.026989733760115
 7.319139628044378,  0.346365608085252, 23.686216250320903,  3.779221602838822
13.580952863570252,  1.748001775435535, 42.799616455354148,  4.707477811645491
 7.802751169911823,  7.009699522938961, 17.764510130259186,  3.811920917445406
 7.837885643456741,  0.972987036081950, 30.295163124087335,  4.112116749339035
 1.532772828662215,  2.404448158224611, 87.415536263949832,  3.945413382996212
 7.501768418119236,  2.968723987205985, 45.708327197389252,  3.941506553059134
 3.972168299717114, 13.114708283019539, 67.662067851159250,  4.081429768535018
11.318929226781236,  3.299681712603036, 92.944141596146892,  4.199357581725052
12.048524822986678,  6.132516897571884, 52.589965559956298,  3.966177687015159
 6.813452338213008, 11.965088239728901, 87.130723353739299,  3.434742662039523
 8.864259891102842,  5.405985378932248, 27.950927640623959,  3.746684852714987
 1.396336685781878,  4.814537871918561,  0.187847266287107,  4.538375893543074
12.912592305770541,  1.891521306452655, 58.427997648988288,  4.051195027545880
 4.445692125071564,  6.698583127855833, 83.436152084019611,  4.194378260586602
10.109871487157898, 13.929494393700731, 80.740499168732768,  4.167099332694114
 7.513278584923644,  8.398514145415945, 86.208072673410570,  3.994664317964360
 7.206117644907066, 11.151275370217693, 80.716739810994412,  3.847096914986560
13.691411814716476, 12.391688653322818,  8.494656392179090,  3.872090812745780
11.484411605464798, 14.528262838516264, 73.248682447863317,  4.070624636611093
 1.462437229583635,  0.823313464100843, 28.665387972344554,  4.043175688237483
 1.638211429645626, 11.716773147039675, 38.255590534905927,  4.133152578993090
14.019281757222924, 14.706582590640339, 39.011995430595867,  3.943768478454838
12.712907974535026, 13.760865650396646, 60.876169936729013,  3.920638832154324
 7.253781383357074,  3.650587789022611, 80.134903567989070,  4.163043292505654
 6.885342859527864,  8.839298089875019, 31.115366869599480,  4.109374967790140
 1.406587192242479,  5.230700679578377, 34.738013201923359,  4.172204784424442
13.378584504541312, 11.496764287683842, 85.313860283194842,  4.005296191434201
 7.965527445551788,  3.356305228419608, 62.119300447700219,  4.112957222221784
 9.021336175429310, 14.546337749011791, 69.809578681705247,  4.252559304548365
 3.200591426749217,  8.239949098593177, 76.463585607369666,  4.164686204444409
 9.720197974872118,  0.600339929989237, 43.825858001498965,  3.559466788011256
14.523154350494451, 10.159181875874415, 77.024010105157842,  4.033065551591753
11.872756506684556,  2.646795652465619, 62.155374219540896,  3.774186038894510
13.603496226508426, 10.424211896848742, 25.777777807628279,  3.859904343142668
 5.290485345243032, 14.455143538697008, 41.346943436792863,  3.749938750735423
13.115812947291651,  5.536349239021193, 56.519280557782601,  4.186168266629688
14.777120899626070,  2.309806236762581, 90.972387812036303,  4.004522765466508
 0.237237544874000,  9.264702605010847, 88.736897921508600,  4.087431528548450
11.267343838886255,  4.118962631433382, 45.869878464930778,  3.907024700848756
14.915098610308799,  0.360855778024673, 32.227605287666250,  3.776220504792456
 5.172375977718445,  2.834590727941379, 35.386986342745260,  3.695933896062406
 0.775257862503283, 10.530953636946911, 19.454805539939365,  3.840088765435577
 6.318092307020739, 13.532747901180551, 27.204085946953956,  4.344924569668378
 5.865945519006392,  3.490643221341554, 70.665387788856123,  3.605062424097739
 0.530239903490648,  3.739019811346882, 15.699182054294413,  3.857430064926820
 2.183953815087806, 13.708713493658269,  4.489929049093906,  4.211134595395931
12.300415346520616,  7.804714251686592, 62.609709594703695,  3.742151906973447
 9.798459402163129,  5.583966382582878, 73.236575657029661,  3.394625610421239
12.990496678492086, 14.009543642073659, 77.604144745392034,  4.329285099991711
 9.727397888743441,  6.790351330104647, 33.116908363049937,  3.876967491822407
 5.044479833962639, 14.750670063553001, 75.002354599652278,  3.913767317641953
 6.922353720616798, 12.354908645081172,  6.622884726992566,  4.336653858230372
 9.709315358529784, 12.946693704328156, 37.269983719518670,  3.940489179130815
 3.471023804872441,  4.759339490778584, 38.046577728624591,  3.683507766420397
10.766393635787745, 12.155448713184123, 57.812412751802050,  4.000880778680802
 4.414469782601907,  1.220904807126260, 20.990387251517500,  4.336111890026284
 5.654787685203221, 12.762674700124165, 31.197482969624112,  3.876749849874370
14.408915941556584, 14.135999976553455, 88.448392710858769,  4.153423681817316
 0.579867225221752, 10.916719351205998, 60.815221802168622,  3.859862284568978
14.225203338548150,  8.799971383709767,  6.699971072396992,  4.182757992239495
 3.614397180713377,  4.633272228255541, 47.423244082422926,  4.091685781057324
14.131556586212669, 14.215801521402650, 24.731153958536932,  4.056346464729189
 7.971143210209084,  4.174763739724341, 11.459569699521797,  4.047524145833337
 4.151043744873398, 10.763052018522531, 41.573777052922019,  3.988086978413168
11.451433121466195,  3.622680455102195, 23.570010434428877,  4.245732674496366
 3.086617947979020, 12.136941594076230, 45.173164669837298,  3.964165775504950
12.563716747943340,  6.789857780415427,  9.450886580827941,  3.371911982509033
 4.635286451731472, 15.001489051146509, 86.614244216587508,  4.080935336481856
14.347342139755057, 13.146500382688147, 45.049834952842289,  3.815086669887971
 2.260259444605577, 13.126830531882595, 77.901036662382865,  4.249490059507437
12.335889091820270, 12.458239206857311, 19.129291389887104,  4.064540281554216
 0.215190254971733, 13.565238657321622, 57.795158352190626,  4.026547414519111
 9.845266496314869, 11.036634670940037, 61.662034218146651,  4.143160503104451
10.517960360275012, 10.445894287388214,  7.295210056069702,  3.876609698882410
13.020876508758695, 11.934387541107521,  0.507250081803538,  4.175338171416261
 7.025705265757441,  4.366478999180023, 52.270485209371842,  4.055636536197381
12.452382618044508, 11.676039668424284, 70.487654175482959,  4.097482246159711
 0.075812277501143,  5.422768324925847, 70.989013435126409,  4.057472052853520
 8.714472878714695,  5.042431579235920, 68.636172460636445,  4.046337875613681
12.694695799805821,  8.837405486889766, 58.903028211949966,  3.968776164089972
 2.476076745833867,  5.006108390458352, 12.591339032892348,  3.887972522798686
10.699379084553307,  8.534185719483071, 41.292390635629566,  4.055353282864310
 6.864284578327375, 14.368781476704710, 34.689266434256524,  4.141842086858286
14.435485443049933,  7.923576563977494, 80.436860270034600,  4.101022930294180
 6.322276507893025,  2.470533819972767, 17.646110131346170,  3.755402809358912
12.882753092387748,  9.051107664534699, 44.564083220010431,  3.766509451608806
10.464419526604862, 12.075608122136423, 45.028958480402707,  4.032824706201569
 2.116578544231215,  2.002832905784248, 49.996800400173584,  3.843419275503525
 3.454867532304009,  8.804195644965990, 12.863269932809800,  3.971791368298665
 7.887249366289147,  9.611081306907328, 26.966737169097772,  4.114759025078402
 8.829747407418134, 10.473611002925288, 68.948025811243539,  4.048149283483227
 9.570561819438145, 14.747306756715281, 63.176564058329966,  3.878921225087416
 6.559363669268434,  6.753944289469383, 14.122721753777109,  3.881363339238845
 4.904641997540635,  0.881071880702588,  6.475875197541423,  3.796179049876257
 2.232319871148559, 11.072301150026865, 50.920572920879941,  3.882078490821073
 5.091164784582683,  1.001428560700084, 53.116437611793380,  3.852473914502031
 0.906286826672099,  1.598627882192497, 75.979878731130839,  4.159604798452698
 8.827717776157025,  8.343043407581803, 51.649734841264944,  4.056055679067596
 5.189453056569728, 14.068069974136762, 11.677794785167112,  4.277422643672694
12.220196928410978,  3.212235357217004, 74.975155208342130,  4.163603915980167
 5.243446315267682,  2.531369949700349, 13.917783891507355,  3.993094518700249
 5.574264619343821,  6.097962994109291, 44.215762431403206,  3.966740634999467
 8.481298373540881,  7.092413163743115, 82.507180209033265,  4.071448121407021
 8.840920912587301,  2.967964058755852, 34.070230266425469,  4.095457232800304
12.883218788399272, 11.038526749020255, 31.682402360504163,  4.016371625928542
 3.163059158488959,  5.379179588883797, 58.803756294357015,  3.698790916693926
 3.629123604646899,  0.827081982719045, 90.604627564270345,  4.219316560963222
 7.630970129215467,  7.522111449340056, 62.253122842683688,  4.234993008328232
 6.641111705862938,  4.756029610683401, 31.163242523695253,  4.009786396920550
 7.469567683176116, 13.929083915033010, 59.816857057043187,  4.156858915277153
13.622118196781070,  3.889715536021864, 49.625906052635955,  4.074749010987862
 5.555395390678798,  5.138092717239824, 20.264453525452875,  3.860117855258899
 2.818093814984275,  7.048924295325431, 41.066730469463138,  3.954642020692513
14.225610093247248,  4.302796262468509, 78.547401301763244,  4.034267590871680
 5.819146355025632, 11.239126645762012, 62.445635546837416,  4.006440571557611
 5.955635010335714,  9.047964266393741, 20.412279908120716,  3.783126250319245
 2.981894169127643,  4.417984702632364, 53.072246642015095,  4.151647626184684
 7.709772337501745,  1.354339465881008, 93.317889405316194,  3.952707360752954
 9.810984484859217,  6.293515466846015, 90.539908227149894,  4.040598033808757
10.331166871182488, 12.845113692781259, 25.787616150024085,  4.273156912295868
10.774474913761937,  2.304753176647150, 78.644814673418637,  3.907235685318017
 3.121161145550644,  0.185737490446242, 24.920037140970599,  4.191239838140389
 0.890170272062882, 12.111576829483974, 91.563413440762261,  3.854282643498598
 5.165500598880898, 10.730616248019532, 58.413791927947486,  4.173485754916623
 6.987822099388530, 10.734009545996283, 13.563826677812708,  4.178999319818640
 6.818501494790354, 13.507563245375247, 44.680540898537231,  3.814100332792278
10.759029100232189, 12.345973180091992, 13.822155304724053,  4.000762251309686
 2.100793570256458,  5.347214010048384, 66.592210609463265,  4.056807616946542
 0.069628037298147,  3.485975911155611, 39.155446307213538,  3.909451660118297
14.114544539302674, 14.441313791684422, 15.938286500900158,  4.192663837753643
12.731223976667426,  6.950677474460758, 84.133692677558543,  4.251311059787997
 6.096639145569808,  3.643989559385893,  3.920286182389571,  4.098566934465931
12.982275055791215,  5.548444774764369, 20.302590436396645,  3.907085561343751
13.362922667683080, 12.177033421559516,  4.570083578655207,  3.979559122783191
 7.274036452048011, 14.040877370517698, 90.158401609759437,  3.933469827335370
 1.372448251720992,  6.893726364116125, 50.034246212961762,  4.125794518757306
 5.337439538615257, 10.544177672295268, 34.399705918360944,  3.892726110362984
10.236703392671181,  1.805323824291534, 66.496768936136391,  4.060370656560500
14.480725677724850, 11.032804426743466, 54.831089429461109,  3.906969742652832
 1.252950390775728,  9.221084815059207, 83.785040744097131,  3.962288415247895
11.508971042291179,  7.597762936022281, 70.457447633693633,  4.257054883041099
12.777103915404673,  4.539701494098158, 67.886957204497065,  3.842939283662512
 2.394104150296001,  7.429402317436167, 21.618784651616057,  4.376202894817450
 7.062421894510862,  3.865872500168606, 83.997327869902847,  3.573766176341359
 2.350665427299894, 12.422291324048210, 64.023782205100957,  3.960540523640426
11.042810597856670, 10.225459968791679, 82.268859451436384,  4.006146718847210
13.316914652627911,  2.370832366749489, 26.922890981786754,  3.789668055183058
 4.391209514990692,  9.069049596238658, 48.100914572976322,  4.245956308769790
 1.546733313922132,  8.770176350336566, 57.509136465145026,  4.245527240542813
 7.445345614787638,  6.031467713420008, 48.464498279794185,  4.279431333113661
10.124053702025870,  5.511778502978661, 64.867353786669739,  4.025659932050663
13.627264151991515,  0.725467105050617, 68.450618900821766,  4.051001104142366
 0.221319750836747,  4.385834351359887, 82.329853852080305,  3.745109495603724
 8.890385691784628, 14.222851590200728, 76.448950570482552,  4.190759880803387
 9.855868682443756,  2.944275376224688,  5.063395948045975,  3.823997697149875
 2.018410454560200,  2.884564892153789,  4.080890640989152,  4.194380573318607
 7.495769804796642, 12.045774929285585, 73.039569741415605,  4.359866159132424
11.152002928213154, 12.908387690255722, 66.753527102276436,  3.884849617745493
 6.742221829477969,  7.801923899984716, 40.779506583659710,  4.038570074820321
 8.701243690156364,  0.604027697852015, 13.047005162860565,  3.874851797781751
 1.691512632124255, 10.214563934760523,  1.923104331093916,  4.439033478922360
13.757142062801790,  6.993764015875982, 31.912385668261646,  4.228622233209054
 2.415786161992074,  2.171494971415044, 69.242711189956196,  4.216784465368741
10.674450040904224,  3.631107821309411, 82.468602776386689,  4.103205088449112
11.447592686901741,  1.852831651532377, 88.666326768866938,  3.831395700187883
 6.006361576129366,  6.917128973533551, 89.575211474625192,  3.884226758326996
 8.455753498934541, 14.211271570187765, 55.313414221602237,  3.901110556194667
 1.491008853385984,  3.873514734295285, 19.531676743932010,  4.040274852309457
13.583083855294159,  1.100195178246727, 81.135797431280025,  3.975224511809493
10.344392666995562,  9.134875596301386, 93.253278951915533,  3.877394827468508
 7.507088937567161,  4.957357946679693, 37.835158111062363,  4.226674212628997
 7.375948025715264,  3.075150182550335, 89.561467730377728,  4.234676726178058
 0.532767700397210, 14.898582108571105, 84.405111249105161,  3.994739799873432
 3.278013835193515, 13.008052924823909,  8.298585371645546,  3.769240669115013
 1.556695014381879, 12.341456004690913, 27.089279016405133,  3.598308169193052
 3.622393105008684,  4.117116950081723, 23.870000357434460,  3.890442450750908
10.932567971414477,  7.491825798664672, 25.137421036233903,  4.155389300525689
 5.994249576487609,  1.882602039826809, 49.257124460243148,  4.000281874335997
 8.858611935914185,  2.308907893257825, 57.841239396390485,  4.160042358168775
 3.896326598858681,  8.169282388502461, 61.103355879403267,  3.673094173833997
14.603885196773774, 12.088004350349619, 81.147253025954569,  4.323436076554234
 3.215706910804614,  6.974564830436301, 31.426073263098068,  4.129066947293386
 5.495207614169641,  2.722981735531219, 27.318125406857362,  4.225487565448139
 6.291950696783348,  5.252147862575348, 73.859022865525645,  3.721061312667802
 6.679098887857034, 14.709381809482270,  3.134641467156684,  4.040436518848060
 4.625980630271304,  3.307418852120552, 76.890862146052172,  4.211650448702430
 8.713776671909399, 12.613144553235051, 84.184645593694057,  3.685965843294417
 5.100079093243219,  7.323260012134087, 56.182410806878735,  3.872190699788910
13.702914374829325, 12.759202512467263, 35.401720671438696,  4.272805578352256
14.622849631869832,  6.101767309940609, 24.359263282202740,  3.879918875510832
 1.259121920976951,  5.847102712192787, 85.680041608107231,  3.752172232107678
 3.976115768660003,  1.049598486323871, 45.549956249444378,  4.026948782853039
 2.806969358344055,  8.437862349240884, 91.933518195771100,  4.273273583973590
15.007545859429584,  0.668096550783439,  1.019227852485085,  4.370069200792481
 9.267675223980147, 10.975955157685355, 33.718095102870201,  4.127368110026404
 0.015920808051635, 12.074433244895713, 67.306739753421525,  4.125502179828981
 4.729328630295825,  8.117986485868158, 52.214136507896235,  4.208301796848287
14.641794937575449,  7.754785542992010, 12.386673681166233,  4.025923221786412
 9.251590346566466,  4.059718756373605, 15.474186889717981,  4.198831043617369
 1.196946758209952, 14.505871841556534, 53.206841146939965,  4.502348970521376
 9.427987937070323,  4.352365780228765, 42.172673626885860,  4.327706803502512
 5.467912542528645, 10.427785839716368,  9.902127782776994,  3.683297143221611
12.951462145419473,  4.263426733586583,  2.810651479287201,  4.123547376591889
12.426619063610374,  4.551161624217373, 34.873464625624592,  3.893330769918070
 0.385843586764430,  2.134002261488621, 46.605042322754194,  3.764128318249591
 1.811102621772001,  4.714282261594366, 27.418143634269477,  4.152557797504546
12.314720673925185,  8.802697231957495, 35.322265490495120,  3.998559682549377
13.778031203290407, 10.115482047286642, 15.829491448780020,  4.484990676610813
11.872173615889260, 15.010869604315177, 10.776320983538991,  3.963300690824262
 3.389528212475444, 11.288575400985568, 73.692652375754335,  4.076516608079041
 9.984470021441320,  8.635897832017342, 15.101931403126857,  3.743158564944312
 3.371274446230590, 13.720991852216464, 81.831355844236654,  3.998042066819703
 1.541639567009562,  0.994859821090380, 12.836216528941414,  4.299312468144111
 7.613704218852083,  7.636933269740847, 71.310718505518707,  3.715076279668710
14.582550535939056,  5.413741211167851, 60.428720577477286,  4.154381446473558
11.502291536120056,  1.178142960177585, 36.332474455428027,  3.684272795016517
 2.102448501774159, 11.943748615939157, 86.466674197231356,  3.862850383112949
 5.745589002184448, 10.872059855356278,  2.720249852232761,  3.882634000205896
 3.260798828940273, 13.751364863601387, 60.388591095986023,  3.980605079612908
 7.979870772124098,  1.852429880908116, 73.356313911827044,  3.915896248318222
12.593591114530147,  6.128574394599617, 16.247968685625697,  3.807164998257726
 8.504147885576794,  0.307364183203710, 51.696613240934482,  3.665075856830050
10.549083664876839,  5.432411640177574, 59.812594398231809,  3.955858281267848
 4.036203999978240,  1.549051622116566,  0.834287313057998,  3.888736819112939
 4.011081920400594,  1.461347935573828, 31.860216967532946,  4.214110376059335
13.134872074678581,  5.951353804036542, 28.066823764734782,  3.727349557653807
 9.329072921739748, 12.193897035078432, 29.807395612557201,  4.052461312077813
 2.846746627410348,  0.688622008005780, 38.565614584652884,  4.048795299398702
10.755744584662107,  0.208784632812302,  2.105943943770832,  4.425486792554351
 1.332432144629046,  9.495634378337488, 34.361638570560920,  4.383780461531090
 8.735326718316532,  8.732778147665334, 58.471565202464134,  3.999360209003497
 9.462391643248660, 10.827019782021020, 22.008187558134932,  4.427346777713538
 0.357986852404819, 10.121016589833472, 47.472881688494255,  4.174911997931308
 3.448562326824966, 11.174782895697382, 54.699103026402312,  4.055839622764110
12.714941741909215, 10.689501850777253, 38.699204042408276,  3.758886486794769
 1.077680817863443,  8.268185658027164, 63.722946386296378,  4.017891124972932
 5.666056549021131, 11.812033067182941, 23.476260458341454,  3.925416661963356
 9.454729473902729,  1.773450597895982, 26.670031428506263,  3.974067891421913
11.858474319803339,  9.994413765625307, 10.835065710280686,  3.736229612842329
13.548824284660911,  9.608522862920779, 51.217375095962076,  4.070454213032296
 3.373601253797585,  9.854919052608613, 80.347254808749568,  4.196422067353582
10.914559355024071,  6.359714486304495, 79.468943584920069,  3.841787433711187
13.587847448292415,  7.282824061694456, 91.909681049961677,  4.050828667046537
 8.751892192283966,  5.827738846962016, 55.655703809293939,  4.064271380751681
 0.231750244419359, 10.004722970939673, 41.648693964048448,  3.970213263064741
 8.537522657074124,  1.024070224637280, 86.071480699136913,  4.055381387771906
 4.956219153458310,  6.616830174789133, 68.932580017865163,  3.700355991934012
 1.670221836828948, 11.268583446292469, 23.333517164048271,  4.142058907497893
 3.403337554252519,  7.422470551892046, 72.436785234887807,  4.038775988331971
 2.497843778135976,  8.381855242029550, 44.652749670154947,  3.693523906856406
 5.261436317420192,  6.737675427821892, 27.964237575029681,  3.915538281111322
 1.499201316350312, 13.426419194104581, 70.833105343204608,  3.978052441103352
 4.243650015841921, 11.550903259703224, 89.708906465868239,  3.889872009296237
 7.795656803751899, 14.123553758349184, 20.128416752742677,  3.813754537929804
 9.035274304739293,  5.918416772332654,  1.756158137076332,  4.500914677764802
11.096155940451448,  2.882019115981035, 71.058390023429212,  3.999548245676505
11.996034720749998,  7.254565096756600, 75.758634838584115,  4.069653268279260
 2.061169466973990,  1.554870184775435, 65.176510626156784,  4.002364221411847
 1.438533943266060, 10.040474316935677,  9.775580031119697,  3.803653822324537
 9.074814631241685,  6.581680878438488, 21.542760633629282,  4.128720915649224
 5.664502189566568,  4.872730307996505, 93.048599222766086,  4.203573299824421
13.231846698096758,  2.999801768285797, 85.451390553890747,  3.852942729529204
11.011100528364659, 14.376000440014318, 91.711191534063417,  4.052051826071813
 3.219801985248029,  9.894857139060393,  5.892027587826367,  4.087936043410930
13.981093422383815,  4.906373285185133, 64.294083629040799,  3.729296558003790
14.638315839815638,  9.072778849607479, 72.977429705268861,  4.237918061898531
 3.938897169422682,  5.039865357871712, 16.569712090775941,  3.575035183661618
 7.525370959584548,  4.070672735364814, 24.161774167650393,  3.739584011695907
 5.062670361832741,  2.163316652458560, 59.595347001184457,  3.902705774325503
 4.730719267068792, 14.450867765806930, 56.723817231495019,  4.035951266713702
14.247538893638417,  4.706606102814775,  6.664081849243781,  3.957565290091557
 7.468647043834631,  4.739410414321089,  7.539896954371598,  3.935648615490523
14.876833776530447, 12.829450124640806, 74.250764138598925,  3.695747120709189
 3.817300578818973, 13.717182807924951, 48.656125715172536,  3.766114753904429
14.237378236329871,  4.104138106896357, 10.968908831816160,  3.603732870068899
13.654365235049752,  1.010910451260782,  4.882698914570557,  3.698395779055441
 0.914768473205782,  6.682833451161103,  3.835651531666591,  3.709350369735806
 6.187655405357603, 14.113025400320943, 15.731963047138525,  3.990057674447764
11.205830306231174,  8.944839641100847, 55.246352892472494,  3.902934088133641
13.684122630999276,  5.285116959319859, 88.510465298751299,  3.793546502930176
 9.550614293573251,  9.355750851897961, 65.262938995878457,  3.784437570447121
 4.077596938346679,  8.506424341340241, 37.609193335617995,  3.956768245135148
 3.708794014518852,  5.846097814925074,  6.477385814472987,  4.133361790680238
14.796787480343712,  6.033077155943459, 46.294233248961305,  4.145742113578075
 3.490261817877716,  2.527271581170212, 83.492568443262158,  4.120439630435104
 2.811311879911128,  0.817171985324431, 17.110419367659496,  4.074665346814871
 8.752391135638920,  4.908588247499932, 76.668492884376263,  3.779051552652096
 8.397024085219847, 10.041225372173093, 48.005139866760139,  3.985174217150265
10.992497101675115, 14.668411558856585, 32.703936848123320,  4.251087698157382
11.053865915110004, 14.771405563277719, 22.189632124057749,  4.001413831860844
 2.999829576126372,  4.624687830468029, 62.641953097862164,  4.082725521890594
11.651639414574309, 12.034407413721100, 48.761929224383088,  3.794968173136556
11.823337302028694,  0.399816067361626, 46.904750744943840,  3.881922962700152
11.062410569597654,  3.426655904053360,  8.809976607769501,  4.103091059963397
 9.363253400745622,  2.766933831598508, 20.084131202452191,  4.058224297929226
10.635391505525213,  8.396274689478943, 29.659448122819139,  3.953868547782621
 6.983464997325962,  8.240689612300786,  5.549470669452631,  4.158943166112540
 4.502967630827939,  9.322710096128462, 65.924068508962506,  4.306830577162192
11.313393820034682,  8.783141567961225, 87.648025375299753,  4.139861812441337
10.275951541116724,  0.820306973507276, 40.023535652997232,  4.108350572979426
 5.556412602862235,  0.204202633371908, 63.460311113112489,  4.221707927050512
13.177344206003227,  8.380616048971625, 66.638620251279065,  4.211130028423009
 8.200472668961003,  8.442253529592630, 75.048654866986908,  4.007217936353333
11.702355884517440, 14.787461148669014, 84.228593705604112,  3.685527138667176
 9.835795877910554,  4.972702274835887, 86.582741863843523,  4.297210693231773
 4.317019315472935, 12.437633637707947, 19.008603496093833,  4.233611518465271
 8.112786164943099, 12.386919042522617, 93.743896182557492,  4.063200090348455
 1.682147059650509,  2.343575982991778, 56.580114536839346,  4.383573344602989
11.501520840109844,  7.214193986486803, 48.499693052875323,  4.126854511321252
 1.723975823900825, 12.102400674881162, 31.024764220462746,  4.089988252742999
11.153703123557559,  6.076266009028068, 12.638740366770275,  3.725797876722552
14.275496860542038,  3.117301536537573, 53.426635835792602,  3.714435907788671
 2.831010725582649,  5.756300342796179, 79.744663443014488,  4.081403539320383
11.224444836076986,  3.498181103193184, 30.621406794877217,  4.304900612447149
 9.577567685658781, 11.393204190837848,  3.531478969789626,  4.003033247904308
 5.053738394403288, 10.763623131926268, 84.029404881130574,  4.088497423783414
12.518574970756820, 12.670518974832971, 41.835658887581076,  3.631272652483642
 5.743068374867090,  6.638075080640596, 34.560318189973614,  3.930678866274261
 0.135826641574883,  7.519458362873682, 38.027410497626605,  4.199905274958728
11.573374893055725,  5.471001458517636, 38.696527310630742,  4.133957556300910
12.491099185429093,  2.399510012236650, 13.776751416305130,  3.823702793985466
 9.828865170122793,  2.799895758344371, 49.222632977553019,  3.836088496095807
 0.901976436897408,  3.771560469305451, 31.111574686271947,  3.675065701885772
 0.566887660562462,  1.136002121240094,  8.526865438999700,  4.528442459859776
12.406503740462066, 14.619664545223145, 55.112811359439476,  4.000773683507396
 0.681044977763884,  8.803151976887074, 28.727133735351558,  4.050179089668512
 2.206513521055596,  1.837939498526313, 79.777739003280061,  3.846639053214080
 5.747287376597414, 14.965986603414807, 78.855180924029852,  3.862711257161942
 5.166896762284502, 14.832835816028547, 71.093134680342345,  3.879459613717699
 7.732921542474999,  0.965571190800785,  9.152793542052519,  3.843625464230609
10.736388490556035,  6.623945240433590,  6.193355684394572,  4.072259313898934
 4.247387563894907, 10.364835697831849, 28.599157948890568,  3.716667656039407
12.851693048589722, 14.031979504035723, 28.943593150945805,  4.076525319453838
 5.777527620728627, 12.198114207161879, 38.096041791300642,  4.203201308679232
10.460097681234098,  2.755112715192001, 53.786007855101360,  3.865099442024515
 4.512761296872815,  8.874095495495036, 16.811587159579336,  3.930621701532604
 8.844975375997270, 12.368649587615369, 10.315667739618480,  3.979018101751395
 5.213081593010187,  6.660535457582515, 10.102155116798757,  3.838860281810101
 0.551308272979508,  5.531739514939765, 74.969236693725648,  3.906926968129527
 8.049202502733429, 11.001834272973900, 17.628307110342288,  4.186519793757680
13.971849022356290,  6.130547696625301, 42.076282225628560,  4.208479123998878
 2.582941946517872, 12.160584545225246, 15.110941732084651,  4.293157185200050
 6.212340138855598,  9.828940747070169, 44.677585935978612,  3.626600582369553
 1.541372721057116, 13.749321630891622, 41.889285448909988,  3.949885015054213
 5.562610307956899,  3.513973847459145, 55.938302731048005,  3.752516367797755
12.404017651957338, 10.936614089418804, 90.670302213700182,  3.568487984833029
 5.966931308167893, 11.299544426029827, 76.917292484775004,  4.107372320162068
13.193411178012809, 11.290732390245724, 63.846465408670262,  3.853945895880643
10.457339144750499, 12.864950386822731, 87.898918662379998,  4.215501390274590
 2.833056869634550,  4.824330273145719, 90.135807569503584,  3.764036305464598
 5.891784231326222,  7.590338528382349, 24.024678110054555,  4.005287953072489
10.632599946263589, 14.453232478589348,  6.844673447100200,  4.160469770208254
14.993030072921519, 13.979519246519924, 48.787335082889228,  3.937408415201897
13.122834996229148,  1.873270536913102, 18.990585302988215,  3.878302071289466
 1.089002865111394,  7.143573197537895, 17.464339953312646,  3.696583974369405
 4.735225353150822,  4.534047047514243, 86.821721746477408,  3.824209242731957
 0.475004690019033,  7.418220458488953, 53.861998153503457,  3.805984376539120
 8.613406649854584, 12.171579727164325, 41.280498604785457,  4.312589662314458
 2.756222489377571, 13.715387479339798, 34.766618705679420,  4.166844724492791
10.468021038639330, 12.014658087642466, 52.575341069224585,  4.183789097672180
 2.166006401119055,  4.067561198658561, 43.618706437772950,  3.998194528683898
 5.391428491647558,  3.391988213832613, 41.185938714979635,  4.165498333147300
 7.425446582713743, 12.505379777215072, 65.799401394922654,  3.844055848428798
 0.246297607417284,  2.504853297122550, 22.963345788035841,  3.730909757607060
 6.670809519201232,  7.610767947874479, 78.797319030885589,  4.248237631518890
14.498355117482857, 12.443853059696430, 12.366439837932710,  3.971679417090762
10.394532868180045, 10.473034721652310, 78.084437790879775,  4.471792914932412
 0.577536185692872,  1.565418588352713, 61.433594826845280,  4.026411734833044
 9.287295077185910,  7.495893930542753, 44.977854304752647,  4.102259300069765
