BANDS
8 8
NANOPARTICLES
cell(1), 15.013
cell(2), 15.013
cell(3), 93.831
 5.254442966222218,  5.497519835876134, 22.227810388389472,  4.023073042159141
 8.465243477061055,  9.565695909316954, 70.742818343532647,  4.230909384018084
 2.819171219427586,  6.857801526719055, 42.147378467313750,  3.886955958533028
 8.334516151079306,  4.480802973090192, 12.776341285129881,  3.938136863485967
11.127191003693797,  4.655027513726664, 52.407106076191049,  3.794633205295064
 5.732315541837011,  1.828941393886934, 54.070335571117845,  4.234171565432118
 3.414718589581885, 14.258442745870809,  8.667580995962828,  4.187868691928362
14.195502587429498,  4.397673816912437,  3.857018989286598,  3.991640993406619
 6.130043341816476,  2.358451211042503, 58.144273711286225,  4.014262209733685
 4.778479301459736,  5.500265061296146, 55.886468048595646,  4.140587739791224
 4.946804934965172,  0.263097708613335, 80.707164557733904,  4.216302548897329
 1.866036994681743, 14.969951955264147, 74.431378290574827,  3.991299316417841
 6.101965521347382,  8.411753230914830, 40.659842397165647,  3.822756704157549
 5.781895347549770,  8.569230904722920,  7.402093257967072,  3.834555094332453
 4.675613292430598,  0.784863012200071,  0.656742179760318,  3.988765642100162
 3.100789187392846, 12.220000010668553, 87.775933736023106,  3.800614538204301
 5.072044637472477, 13.716865237132557, 84.625906038027452,  4.176107106710429
12.746039943920898,  0.607340979715158, 73.464170206476496,  4.232233242735598
 6.780169060113469, 14.087685263672101, 47.795703798068395,  3.861210509410733
10.309442005896122,  7.408891150354045, 14.512233625838848,  3.873784525968363
 4.480137769221267,  7.515463682722682, 91.072698535413394,  3.719111833338143
11.933836411952393,  7.921752279742138, 77.788287287669860,  4.317374638014890
 9.049140750490565,  5.300256148630684, 72.051576998058252,  3.838878112220875
 3.927022474791313,  2.884193969793261, 10.971860049438700,  3.980684333071391
 1.677242875964605, 14.827747538707573, 67.639983413963478,  4.178373594250677
12.226103815327978,  3.118536683643159, 31.543636008605702,  3.979926198288821
 3.632295549003445,  1.305783107918340, 64.292264745499210,  4.113530629222319
10.502143225585813,  9.157641053148186, 25.433117270204228,  4.063964951858155
12.344942908201446,  0.794493442028709,  3.916991223017002,  4.070793367612629
 9.170751971565238, 12.191923527721361, 91.211599284261908,  3.935767957661141
 8.786627597917068, 14.478803655769092, 60.118607614469617,  4.331302266928022
10.701053000780952, 11.697673151055254, 14.991416586964595,  3.906150677748438
 3.909913067048453,  5.953096874772179, 77.596237174266619,  3.770623849566265
12.484829710806402,  6.372117916011002, 17.563391442076597,  3.897704106161928
14.340431937226947,  4.622289826565494, 84.548482992963230,  3.921743205859411
 8.278477411285756,  3.529673656422932, 30.773246394986526,  4.028050253684150
 8.435481394154968,  2.176617524588338, 87.800187404293979,  4.151197430513466
12.413326669874126, 14.672960590108501, 12.866492981111898,  3.932761200875150
 5.086746281971202,  2.574829622509333, 14.930872804574776,  4.231533716555623
14.002759269278595,  7.998440374420115, 55.171903707435156,  3.798556612646319
 5.348580110018450, 14.000738312392400, 26.866389463471425,  4.221860155864731
 9.124084962702932,  4.669676805828029, 23.910428458277803,  4.423658652946619
11.484869102734336, 14.352321392029854, 80.413249021554350,  4.299061373892233
11.515795587516811, 12.990260582291715, 36.460874070341475,  4.397996493549891
 3.556982417711579,  3.530223605119093, 91.294963416284929,  3.924282810501825
13.937192103172785,  9.104456231483526, 27.144456623371521,  3.598058678429712
 9.625008152710896,  9.956068763082012, 61.506402953668363,  4.036137492695408
14.146170013474803,  0.053448253763611, 46.661513803761579,  3.997361010938642
 5.119540780784883,  7.681301903289102, 30.177057869091747,  3.810264004991371
10.174199843204846,  4.185701264591919,  3.652245619478746,  3.963803845087349
 1.328536066415652, 10.258627646513458, 91.270405568695210,  3.947798682982368
 6.224488899224518,  8.868394692411053, 76.842391674444329,  3.801042302303655
10.334776082814873,  2.349696316274817, 69.811288976772772,  3.859621059389011
10.283863579175719,  7.587962864950502, 54.635899479633842,  3.755381762689396
10.685348626926499,  5.733068641988083,  7.292095117590189,  4.004175324813080
 1.164032098052507, 12.564457021263950, 77.484466264560155,  3.905953328659830
 0.815231036179772,  0.205133744891174, 60.775217694626150,  4.054261230804459
 6.818314085122738, 11.663270347119351, 81.372838592179875,  3.963031681951501
12.942588635251266,  6.795144059714332,  0.914017825051524,  3.864281129531102
 0.140803427139724,  1.345014077156710, 10.347421529077796,  4.234267280427882
 3.489716446310489,  7.397781859972367, 52.459915659157708,  4.064839033478733
12.533005836330451,  1.852525813928685, 35.271201298397209,  3.889147400181123
 8.213156576812150,  2.063634854317293, 27.011572105375755,  3.860068701078729
10.953109456220089,  9.478951317602265, 44.412738613971541,  4.111944715343571
 2.692279213776008,  2.742622166837791,  3.395187492848696,  3.818590073220071
 8.459763136179543, 13.819399767764462, 70.618871077982362,  4.230274773328691
 7.143749224723502,  6.616291923214505, 83.788333371058840,  4.067539044742996
12.221525399992355,  4.650064323246648, 37.971642524213486,  3.902327891210616
12.748368301421147,  6.773393621553220, 29.969462227905812,  4.034914789825272
 5.177980313800729, 12.279440669729363, 40.111595516479674,  4.120829756255902
 1.690923736027151,  4.131428610631002, 25.190598614925303,  3.896932994005473
 7.508407159511982,  2.670604073833155, 20.649136285280953,  3.850433420879365
 1.211527973764049, 12.533996826288284, 84.373879296499382,  3.809213109791737
 4.449717020957915,  4.242416896358304, 18.560642501381988,  3.838663982828584
 0.376889461372910, 13.588974013550539, 71.153640361427833,  3.711904742853573
 6.179729529805771,  2.640150766818546, 84.156007165659844,  4.052319395725658
 0.174421916649543,  3.439413560865391, 18.240656276136448,  4.192025152225934
10.103296541338613,  9.476436928595357, 81.176194311578314,  3.904612791504897
 9.046033982167955, 14.691364182801756, 83.864183404203928,  4.144043046660219
 9.394471889743416,  6.056645306164982, 27.876145014564663,  3.974229760399033
 6.937752035353152, 11.302010688859969, 24.449561145945108,  3.683471237156019
 4.759240565947804,  4.335538368101255, 39.528718734035515,  4.343225858174121
 5.137788374443868, 11.630143551960909, 91.118107138175290,  4.080820963257882
 5.005140822779699,  4.253118379801465, 80.790796508037474,  3.765109631988066
10.536541788153993,  9.860121604522758, 88.236736795689581,  4.086642660107386
 4.161027469131783,  0.553880491189984, 37.785438880015150,  3.946625077829261
 1.946553048938126,  2.194175500543124, 41.914122502498209,  4.174050513917638
13.129425119431630,  0.781151667967693, 84.081645759405674,  4.158988365447385
10.620611742986165, 12.577107582251104, 64.162210137580601,  3.624769590374764
14.265721275312266, 11.118798805355810, 87.418968264677716,  3.942191306200392
 0.066278502265995,  5.833426102939101, 70.091263567655716,  3.933648711722048
 9.405899455069830, 13.253322236314000, 26.546166678003576,  3.876572089483822
 0.591205228071167, 14.584377622975168, 36.326831241786977,  4.004659323901099
12.859792316583841, 11.957551388401624, 49.105190953895111,  3.876378025930533
 1.478853425605091,  5.282707603569044, 30.919029729379648,  3.989665875842761
10.070860900582311,  2.657565056047334, 17.831831095581254,  3.744296469531385
 7.403852004440031,  4.210120515818610, 91.139610640078430,  3.888252593709992
 9.119402710887931,  4.577836491903682, 65.043351697219038,  4.000589142176963
 9.375267782744142,  0.845044474581490, 66.438787778847896,  3.694610179857666
 1.357749930396351,  0.215399439866777, 25.896597940127119,  4.063124525407007
 7.873258720751746,  9.427292768950240, 35.945065989285986,  3.992959014188098
11.493733300828875,  1.295617113186549, 24.922039526329730,  4.059428285684570
 4.766051101456688, 14.810157702973289, 60.790725520863397,  3.837575300282046
11.961272496146469,  6.927620479426174, 11.030031652946414,  3.821275810873387
 1.375925404444499,  4.035789667531110, 87.952804582427149,  4.100927646510705
 9.240320542994100, 11.831832210265283, 32.965249725872532,  4.122958674412554
 4.639701383233319, 14.341848425283560, 12.522554899701984,  3.879524155213989
 4.356499209908668,  1.077366910297362, 88.069324358035047,  4.301043883802169
 7.066541004530174, 12.562754999505417,  0.721068935890220,  3.992389061872457
 0.068967027144089,  0.042288575733146,  1.057636494443336,  3.973150270911666
 4.472997951845644,  4.058603536017813, 74.223050529130859,  4.034639888972137
14.367149121091508, 11.265089953626033, 45.575321379801501,  3.909913447647355
 6.990717549670823,  4.192256010800076, 47.076237807230243,  3.833604702810939
 0.103971620476540, 11.120305149697019, 66.746915561281085,  4.034340083687026
11.120638736531177,  8.050451973197561,  4.120084055970128,  3.897470254830407
12.122147531478817,  4.913498669522957, 74.327290229229845,  3.844859928048810
10.201378663204107, 14.357330403435089, 41.205231641115539,  3.906751835741628
 4.438944594970846,  7.276011707034898, 59.509268371861907,  3.933182446243793
14.921392303149274,  8.526245525075293,  3.703528855261521,  3.754858832684795
 6.507116440501068,  2.746081607830509,  3.997559238355697,  3.866314423856668
13.950747973623816, 10.946200362178280,  0.786250538199161,  3.999934324830901
 0.231234291275348,  2.888435138802366, 63.420778394811137,  3.540736238126291
 8.453029388228394, 11.605479924109840, 67.165253495733339,  3.958388910139496
 8.910032416688036,  0.827566695125618, 14.482854227338116,  4.120668065295246
 8.270135788298344,  6.184242282323866, 38.252782826416720,  3.986065432699223
 8.556673772038915,  6.199492364252977, 79.740865401463225,  3.874769590940543
14.255687190380058, 11.535126869046882, 56.831199000999376,  4.018247016539260
12.844218134117046,  8.914291086664434, 59.460917855928535,  3.863991488399000
 8.143450331344459,  8.417229424850893, 22.138909416182170,  4.089210462899151
 6.015424441629520,  6.554499683531609, 33.835738393436841,  4.017440940689627
 7.748375282968076, 11.856905016432158, 43.333120505233900,  4.145695910942810
 1.079369932846103,  9.907806516350389, 48.718750564808389,  3.733864240403320
11.058235818050264,  7.722389853212512, 84.708793379631217,  4.211506069249656
 0.524571465638745, 12.423473951693939,  4.277335964430022,  4.160478641370818
 1.893295693800853,  9.882289775526829, 39.691818777801487,  4.052051054412292
 0.503921477470340,  7.749724300512751, 23.876980833480005,  4.135377082379053
 2.228651513989775,  7.323494225930284, 73.162963468450911,  4.147261248071208
 0.724877976938115,  8.888328751893692, 10.736252389023626,  3.856906716552357
 8.548409809178589, 10.850633035926798, 84.772292491568336,  3.795421181880446
 7.633837057464098,  5.390356163006257, 16.573080478276648,  3.993318360990359
 7.347040929440686,  5.920810065544542, 52.556672212040866,  4.173892061383948
12.462367416701822, 14.223784880746042, 32.325767818812629,  3.988224066869102
 2.229467005615430,  8.198752123245526, 87.687174015569013,  4.408982675052039
 4.040829809432899,  6.607617680975638, 45.896074465204102,  3.973239031064285
 3.162419494851660,  6.309820639518719,  9.161666594326720,  3.906004371273178
 5.130509631017045,  2.318712581942426, 24.567507493696372,  3.867752568549885
 2.166544886634427,  1.712075175822249, 84.326637607971861,  4.094755371087289
 9.874523880758050, 14.713593302157545, 55.134264610572878,  4.320038301879865
 4.603856220731894,  3.825726828018026, 50.349132533311561,  3.975372908047432
 4.432591327144995,  9.697547619237406, 70.755514393300331,  3.809197753117472
 5.636367472384641, 10.343915503276351, 46.660181925407663,  4.290330959233627
 5.891600248289929, 11.018830379319065, 60.173398189182862,  4.153125947570831
12.273602210989214, 12.434725397546895, 76.853812148301500,  3.892140670458843
 4.272349196120131,  7.773715570875101, 37.225549089362268,  3.985424456101124
 0.235136846650994,  9.776984555239897, 70.557517787859894,  4.009245520057617
12.597083341052784,  1.363815768308879, 50.796663909114336,  4.004325869215030
 6.184124752289375,  7.489673921063295, 73.309680319121370,  3.768202098268643
 0.469966460708854,  6.776512513954554, 37.630550965501506,  3.910534368007844
 3.855836598477087, 13.722412418468839, 22.822684243108242,  4.407167312280201
 2.748273486748007,  9.303210609248298, 56.186588805963908,  4.390511066430975
11.563433850401044,  0.508982017383907, 28.785413840349282,  3.722893061033552
 6.279391602739013, 11.478748425446680, 73.822168767588067,  4.177423862975681
 2.249312391778203,  7.854907532880859,  0.576211267141310,  4.158097336922369
10.773993632111827, 13.905391876240021,  9.248059064102817,  4.140537400150678
 5.177120445398049,  4.997271612714995, 64.964409523901210,  3.917992886150842
 0.620776898659473,  1.046519929259053,  6.259473488449395,  4.017927923637890
 4.731757267736670,  6.393162850408444, 12.958590257850030,  4.212853125147769
13.268718435049767,  6.820732649353960, 88.088016754435671,  4.038611433904298
 0.152200430394502,  9.069129203519058, 18.595839407527400,  3.978832924318534
12.336058382189700, 13.902304697866510, 68.200407289737228,  4.228335370516612
 6.966430354126448,  9.782737404784516, 55.280626502255515,  4.289018254296205
 4.064576601330315,  9.423343468350309, 22.486380830461417,  4.196643952731748
 1.208873290596348,  3.008803073217893, 38.101711896728190,  3.726195105720062
11.938269354694212, 11.810371820282198, 71.845767128165463,  4.166514241470580
14.388858561294770,  0.139993163077487, 22.436574294465228,  3.903711547462296
 9.066817370531846,  3.797725804587762, 55.666702062397867,  4.093091976337878
10.618046798364411,  1.222688320155701, 91.185870647178760,  3.677535954165710
 4.487540167026151, 14.071375272419479,  4.469008482760956,  4.376089379686573
 5.233154802567360,  8.110258318754504, 80.507247050983409,  3.940556492799012
 4.013409076741319,  2.958978535512958,  7.035058760243877,  3.891285990860134
14.142782722482345,  9.632306574213619, 74.626724220525986,  4.089185882054312
 3.221410605992161,  3.588415882546348, 60.809626633830042,  4.246432117416158
 9.432486439264089,  6.025221449502016, 87.954317224848566,  3.801578775563620
 2.790783764856343, 10.568902871838302, 43.590524795844090,  4.059537305919228
 7.317459662469590,  6.713718674724107, 62.150431302343748,  3.899250457588294
13.883691042243765, 14.251223178337799, 53.917511809428426,  3.967592573488847
14.817064170719267, 10.373388724799765, 36.383906335721186,  3.797692369241863
 6.284142448809570, 13.547728379866648, 56.898707859311877,  4.007395975859733
13.235555924176715,  0.893009315271474, 39.254896933172084,  3.939985542924503
 0.062544426368507,  5.226723586880481, 76.965390557125687,  4.099907283159685
 8.875949521728256,  0.839854807327697, 33.903110709944663,  4.154136886918987
12.558613329719019, 12.009306878686793, 19.232677450614478,  3.933271383572153
 2.960908652321507, 12.009109802706508,  0.840564603294415,  4.283700293140002
11.277949169580184,  3.020721605075924, 10.299792135178379,  4.140261618034645
 4.604508141271623,  3.250982329743466, 32.194549986447797,  3.867166155185827
 5.091740504950759,  0.216933181769720, 18.492586420582441,  4.268843905228955
 0.932075392721511, 12.653599904710624, 12.288560967369346,  4.277358497636650
 3.614508888906999, 11.742756242956292, 36.229996848082621,  4.292296813081399
12.411575845477703,  2.983361652873395,  0.615435443575435,  3.797104566937102
11.316906388373091,  5.271182482972181, 91.379206197414064,  4.159757585361445
 2.709523663666888, 12.512642240221245, 63.321528805395076,  3.930944781186763
 2.572899725078141, 13.073590225220917, 47.021150242403031,  3.913028992820717
 6.940870460830002,  2.620104311183351, 62.361113021941684,  3.933319640093160
 4.278166764847746, 13.644262237735157, 70.908859628366002,  4.090682017449140
 0.727730848048467, 14.649801126401442, 80.971472503032828,  4.259376569442638
 7.144239046688477, 12.648706910640914,  7.568408271566571,  4.211491999969438
 0.409652592731664,  6.364546158121193, 61.963521906413547,  3.977491213525906
 9.097317131790696,  7.929946296077321, 31.495874217415157,  4.190635190810548
 5.116839541793444, 12.524439956161830, 77.638749784795621,  4.000148029556423
 8.017545164732040, 10.547050595014676,  4.086946313072439,  4.056404623158739
 5.747373756197102,  7.321666366279569, 49.258628935267133,  3.671714691209705
 0.946678210142510,  1.932525028248764, 33.089029743758836,  4.038037742989422
 6.141567483878490,  8.743023530000720,  0.449603288382179,  3.829207781657908
12.104219086146269, 10.763810574107040, 11.380451239323113,  3.796128178593791
10.874861417987393,  0.907248459889835, 21.068482231346533,  3.775404721913178
 8.067784008206894,  8.396741463961273, 11.244308961425023,  4.285580150144939
10.468601055775348, 14.875384500072736, 47.947828741827436,  3.684751775304395
 7.362268894801510, 13.326732772952809, 87.949648443206982,  3.860709407803630
 6.831171357757375,  2.262267143477191, 71.713734436128405,  3.711056212053350
 3.540110289892739, 11.776575792789403, 29.852403324505861,  4.053826262061543
13.774978567471901, 10.832345408954081, 80.205402872004029,  4.082382779883329
 2.232988450576091,  6.163922502913837, 16.106104670539864,  3.805530252282039
13.732845747923959,  6.991925822380541, 66.433819907060041,  4.185176300006034
 8.240134760809566,  9.833994711247733, 51.144883958433198,  4.318039723151807
12.086959279639139,  3.677942983908431, 14.435049542454088,  4.386684957535498
13.501451576935795,  3.418775171896703, 60.171857873414965,  3.901706603976998
 2.342950711624565, 11.343937977070786, 73.359967803912056,  3.561488431531977
 8.351926201407558,  7.179300764760158, 58.242260890394739,  4.047932352983755
12.179541308303509,  5.618419078440146, 81.302660088210402,  4.097520033540352
 9.536478565133772, 13.536384081076273, 74.395014008764377,  3.605891522128860
12.333791686272924, 11.715318740528106, 83.957389807055478,  4.022632433703399
 0.446620047512770, 11.354227475685953, 21.918937430762284,  4.057305633213625
12.399891426924411,  2.937189408138057, 87.592778258502790,  3.930821088149957
11.316481872118555, 13.367025322466583, 44.697357801790353,  3.678502050238755
 8.284064611551388,  0.922584694492207, 44.490034833625501,  4.275730418583603
 4.121328240461363,  9.478345817325275,  3.919980014486186,  4.017747734020291
10.312020230198229,  6.230836291035548, 68.488674765218306,  3.916138832479199
12.711481036418698,  2.936867793174591, 66.359529317471413,  4.149781213537381
 7.166604803122029, 10.615317202886585, 28.502737400246836,  4.010715281506040
 2.270425457517316,  7.234287199521592, 27.544550135871823,  3.960314291485517
13.537008299516248,  9.660010976387678, 63.300057583281216,  4.040792623919018
 5.548492511517286, 10.340398002255101, 32.930833360430690,  3.819927842693366
 2.993843362548141,  9.825213437689440, 14.689214438309991,  4.143564909392578
 0.914425363866775, 12.192226469655235, 32.994908520609130,  4.132343258947231
 6.992420276481287,  4.953541215078181,  8.943487855063763,  4.229958735210251
 5.003612868182158,  4.817399810156577,  0.954764958165729,  4.055801772277118
13.109056652343908, 11.495944884647365, 40.463087083851335,  4.340210005072724
 2.233397300809854, 14.580447129387366, 91.403625136251065,  4.150522354534190
 8.558937437428611,  1.980682914687425,  0.649920530345126,  4.132878995935640
14.743914105034778, 13.133002264890465, 29.061524076574493,  4.177410331678310
 4.269383590199594, 11.167521109531689, 50.675153607098963,  4.102546523617796
 1.899741536432155,  6.256669745895930, 20.508548015969911,  3.666202949730845
 2.842962467387809,  0.772184078571497, 29.637183310008965,  4.057038773961800
 8.602683502567535,  0.068764395181536, 77.647038574968022,  3.812226694683324
 1.000752205185800,  5.677460570389143, 57.822598704213476,  4.286847037253996
 3.176577251544888,  2.532176330246865, 70.375319321471480,  4.083371652997343
14.008357614936248,  5.683012076068397, 34.073669485708351,  4.025887901055504
 7.011613557597682,  6.672843989346028,  4.200583667055777,  3.948194664339040
 0.968575123002628,  1.868170963183358, 14.443384780698041,  4.177064064669224
 1.495105244199783,  9.903299725538101, 60.471736186465392,  3.983810320791474
 8.453400461950414,  2.413900243946282, 80.821200463849024,  3.999738501918803
 0.957910268190380,  3.895417088213561, 80.838778318898449,  4.271044057315526
 4.361074495914842, 11.644564419455369, 66.954500363370997,  4.076516117201581
 6.375456734843559,  9.402628699818743, 87.828070020366084,  4.226096178713658
 7.686293624662391,  6.924656146973102, 44.034140221302870,  4.194773518116506
10.996958326304670, 13.704991207000663,  0.714778500138972,  4.037467448503217
 1.002972731932332,  4.107608076633819,  0.277359898872996,  3.758627362601490
13.159349125260260, 12.435869427136565, 25.216266818414550,  4.235751511435875
 5.758847535567767,  0.353101079861604, 67.586290327899178,  3.954236058936865
 4.606834543579778,  0.022591393081460, 50.718313936364062,  3.648427934008530
 9.158397219391301,  1.976456377344421,  6.902012736351353,  4.133771130151527
 0.730215807052332,  6.346692285303740, 91.068802566325161,  3.764102826302067
 1.582355956423877, 13.738255375962543, 39.911297771668202,  3.616329888593476
 1.131341386030679, 14.640731059866827, 19.028457722966039,  3.804000706425948
11.197372436283521, 10.883923671163307, 29.338170684237785,  4.232886423779021
 0.622853317986417,  3.580392722598468, 73.294745232849394,  3.943561941154861
 6.680661034565643,  7.879302992890784, 67.360755374133831,  4.124945014756034
14.089906517936509, 14.348822487959618, 64.401439775604530,  4.170234037050007
 2.550481913945331,  9.213210910782340, 76.527146907422662,  3.593710253506904
 5.456091308082875,  5.221859242569042, 87.410428960260617,  4.374983574573061
 6.891133151401992,  9.079711955324532, 15.268421908050582,  3.867633790630964
 7.880882301520299, 14.826886590218560, 23.288778757835068,  3.962615196360729
 6.989206307377660, 13.936104135087341, 63.983572023626650,  4.132179252337901
 9.333974592657336,  3.889562720399349, 41.584251910939265,  4.206474198864040
 4.769799850715144,  6.031553844935828, 70.224947537741713,  3.589886899343322
 2.921119910441481,  2.152990160775357, 77.621972773264190,  4.023438901704135
 9.120253023754570, 13.855853655768618, 18.166048004454645,  4.144948528561411
 5.343907255554030,  3.640218265303391, 43.580544089973174,  3.916322322995650
11.277119745261992, 13.897969217343251, 87.285888036162177,  4.152364351817948
 2.481928879240645,  2.553037570303839, 21.581979881640681,  4.120142577511704
14.243470029725220,  8.132534824152541, 14.407080081025049,  4.127731876646966
12.968629863020073,  0.253806789731554, 16.785685386189442,  4.069501997142670
 4.272657663614213,  9.622642972231420, 84.167834503739826,  4.208267975712701
11.759958903749691,  9.718141215668149, 68.462653236870608,  3.616880595496506
14.464565346418638, 11.766673061357716, 15.908408306566725,  3.742136415362820
 6.646236654069831,  3.333259271528659, 77.488599829052816,  3.779078540396272
13.330609526677497,  4.137754104481696, 21.966293906112611,  4.220141688441148
 0.597132890536934,  5.129961133297998, 11.960149359328206,  4.043777355204478
 2.241867365908152,  9.996973962737957,  7.302769863727062,  3.758734435325921
12.837590009055091,  5.329894120063451, 25.914060204820817,  4.083486455800949
12.713198456225792,  9.513961642359490, 33.065911042257746,  4.226372899879024
 0.734179514368853, 10.414640937363842, 52.586819620865050,  4.053646760298081
 3.411860028821244, 11.418036264111327, 18.917169959339706,  4.080714116723279
 7.980624669405525, 14.509981218962039, 30.085905164807873,  4.130513667091169
14.625876113510024,  2.773922531278332, 28.431215142438194,  3.904523872601456
 7.154375282298758,  3.907258757148834, 68.336370702531880,  3.765750143144261
13.439579874680071,  8.795309993391554,  7.405965734524446,  4.233295968002267
12.724402560230889,  8.957663961695719, 91.419929239666658,  3.722625476079549
13.202043793600865,  4.864331959653785, 49.291139414688026,  3.691037461437096
11.974034804204040,  5.736741656119342, 57.502532142301412,  3.794832928743794
 2.677688882376116, 12.864744507836734, 58.237247776180702,  3.803335463203326
14.096331544048303,  0.963952720524428, 77.347027843844074,  4.013649956150591
 0.680915146493011,  9.210884260071357, 30.397596852201389,  3.653656692446126
11.345430008759303,  6.253733082243346, 62.061585997833902,  4.157645894889247
 8.749182022395546,  6.116781952010029, 75.841522017718972,  3.929492271136815
 3.058804925954263, 13.378326031234216, 54.282951084925841,  4.204523984534605
12.233579751196149,  8.412189210203588, 21.384251405462077,  4.213343531276617
 6.307078833931264,  3.198072424048583, 35.871135088820047,  3.840861108517091
10.046364596939423,  9.710953957137118,  0.589634434398084,  4.177114489513515
 2.125345345409092,  1.656271833384156, 57.092904524236189,  4.168657436435546
 8.737277271827445,  5.941738435594664,  0.510440008962309,  3.784203006288349
10.134159480446108, 11.294778264452214, 57.644080342004983,  4.168185967007265
 9.661454517402744,  9.414657444366387, 18.114443059020669,  4.046166601564972
 0.972200616442796,  2.459739855172819, 49.194917618906118,  3.667152297001673
11.266270489538497,  7.593027732476362, 40.656102035423935,  4.195796154339971
 6.868258104380733,  0.354889262439630, 91.224735157371967,  3.890387856265548
 6.785928011911559, 10.048867548692151, 64.099543710625767,  3.647896250671851
13.656359834941746,  7.682475808037145, 46.848061293913212,  3.822800237724486
 9.623736322043245,  3.516107189637645, 59.632582527253398,  3.924792598872031
 6.678200970276010,  0.918789573814370, 40.744712743454450,  3.855858790432215
14.492261477642762,  5.252675937898741, 41.049217543862781,  3.809683911985144
 9.869615315455739,  4.966209042041007, 34.550653792856743,  4.424308930826720
 4.429581005935050, 10.649552006080786, 10.700443834432772,  4.339522221694863
14.466606981290321,  8.532556613522855, 42.911386704674150,  3.722089622340552
 2.454341830193465,  6.111742150784692,  5.299837667831975,  3.935627675533226
 9.262223237777134,  2.343341873826735, 74.618154006348561,  3.833810942465540
10.274143350203016, 11.814455695606419, 22.409850969200228,  3.883921590771153
 9.429199914165579, 11.321131037575466, 47.546049304106603,  3.740343489880137
 1.741732878025221,  6.175180174745460, 49.043597776188243,  3.864739792186179
14.600088756740218, 12.709303543753538,  8.293915429903034,  4.084039974003855
13.160604332969793,  0.331015636401904, 57.700132171498737,  4.033532896904573
 0.250353624581737,  0.041430231325760, 87.742815155392918,  4.188313625797075
11.567309968936136,  8.299902904945439, 36.731702045556652,  3.791291047352458
 6.857701274828528, 11.833787049103982, 20.701563906577359,  3.720969509811424
12.256164402876788,  5.819673219007539, 43.971694725139564,  3.573757647064609
14.233002685047307,  2.010512525112778, 69.958725534186513,  3.875351700607739
 1.709346033666784,  2.055134767431729, 52.985497291861272,  4.064498764949474
 2.908206890354724, 11.238889234355119, 80.735438635408457,  3.849166173361405
 5.030820378124402, 14.341923311686122, 33.145398217833446,  4.243127067955534
 9.879274855174124,  9.765648548410757, 74.696999504793183,  3.965874925315616
12.579538310692891, 12.730974344151443, 60.779308947151115,  4.124034758460581
 7.596074042108437,  1.166346821709781, 10.607611224444703,  4.061471131172147
 6.075714718305221,  7.576447356702286, 25.798549562585482,  4.387848318142618
11.542924839919332, 11.180791097896330, 53.966926823191990,  3.706860801921517
 9.756951327359360,  5.601534928595981, 20.043489739486741,  3.630729402183058
13.529696130841531,  3.245215478107479, 55.062665572955034,  3.765576639649346
11.058483551844720,  3.584843812969111, 77.924979205079154,  4.090760295045783
 0.147038992401641,  8.629866498564139, 83.659743658412950,  4.316996942575086
 5.658789805637968,  8.012487144192020, 18.921940922928194,  4.070620630109055
 3.130601086231067,  5.659495675529515, 83.922084002021307,  4.053842699862718
 0.317012980816931, 13.983804080738597, 43.229279831734488,  3.499819490392919
 2.530513893668423,  7.988400391858519, 67.733453046025744,  4.100358464818774
 9.029295531195121, 10.912553694466876, 39.529506623220506,  4.099409275155582
14.624205497042672,  4.769906775094265,  7.939477003195851,  4.196857282046250
12.751924847382536,  1.916540065248625, 43.220141239888513,  4.300001602854056
 6.821200172291825, 13.130267104751717, 53.006313692499894,  3.756583024006790
12.348227082364485,  8.370076218042616, 51.132668030807245,  4.395127174206147
 6.416327305569134, 12.827823101092278, 15.531148870136869,  3.673675166739216
11.122238985685557,  1.659668378320709, 62.807289788328490,  3.999342006174658
 1.325099702925496,  7.805607281800664, 79.755611704765926,  3.863101501626959
 1.693445006460286,  4.027445594739739, 66.817826845013812,  4.180932151010944
 9.430527812278756,  1.708614846269610, 37.947941721595797,  4.148555158414971
14.296567174687127,  2.401030680953967, 91.053560688973903,  4.034152631708109
 2.160035153239273, 11.095952983029905, 25.937488046374963,  4.347657030992015
 9.489083750669566,  9.419301216095549,  7.592740601837548,  3.759485217510255
 3.310479385353093,  8.447519514076038, 63.775082533730263,  4.018417155753363
 3.927735564732473,  1.778504761743055, 46.857929514723274,  3.976264588928219
 0.020213845791822,  5.555568298284213, 52.472774856946913,  3.758989576052010
 4.896086176092547,  4.145861132756692, 28.242325724753623,  4.250731608279189
 2.724557463577627, 13.596177144990261, 15.730542956591906,  3.698262037536423
 9.600612557934594,  7.274215562960777, 47.880949235230666,  4.386548358865281
 0.965532494622022, 13.887446322518128, 50.551257062771271,  3.992225711560105
 2.258663123064458,  8.439497487534700, 33.797468407708060,  3.960169327205313
12.026473976595753,  7.768655703213336, 71.694738036170776,  3.910770889498453
 8.435773059835748,  2.278657582792420, 50.633800282752006,  4.210089626611970
 4.409955986573870, 14.335057772750506, 43.644900962667364,  4.138471480109592
13.245263358942125, 13.083904284554800, 90.997466168420274,  4.402452710370552
 8.023105238379584, 12.423192317685769, 12.000385114848520,  3.883995488379330
10.141655514904011,  3.656518894752234, 84.325921286155122,  4.125401930276007
 8.590601273632222, 14.474423712703441,  3.822744186644414,  3.897202454489613
 2.729504048741633,  4.824253994049528, 35.160576426991540,  3.793781129873152
11.551605886296608, 12.099175093049462,  5.532152770229074,  4.157757287740015
10.819215763717127,  3.461006865911256, 46.592626040110169,  4.020759237986529
 0.577237840356235,  4.237266424107479, 45.574821081506144,  4.410826903088077
 7.382782338175304, 13.413386228545203, 36.813594028909321,  3.940356104490247
10.161279894563975, 13.411442976295961, 51.342290410927646,  3.702698784892734
 8.821140115109950, 11.326832574410163, 78.074844474301585,  3.750075302517601
 5.821987366685063,  0.358797281618005, 74.929969276572862,  3.960556370482865
 8.362524898227703,  8.060009082698002, 91.124350074326358,  3.920366026724684
10.098174503739664,  8.512993065721563, 65.234850732708992,  3.994379200843650
