BANDS
8 8
NANOPARTICLES
cell(1), 15.030
cell(2), 15.030
cell(3), 93.940
 3.271500624376126, 13.260165886607279, 89.877712730927200,  3.980441522280713
 1.042712798809963,  4.692994656725901, 11.220956815654688,  3.919045677533914
 8.680817799931759, 13.194474337601850, 65.915109815027762,  3.956181137785148
14.194126941432112,  9.532968007494496, 25.922162719490839,  3.812357696306985
14.086220053686461, 12.934972022091099, 69.258124867370014,  3.960649699337603
 9.026112615008557,  4.910781609051729, 19.009588313620899,  3.727260972923625
 0.918858445918636,  5.504752221956002, 55.941996666586512,  4.039000292753821
13.549957391081133, 12.909970066244716,  3.721567455473833,  3.529068852068520
 4.026065856083651,  8.244113548545203, 23.035701461192403,  4.029997465151147
10.173715691273003,  8.605690109283792, 12.519924132315094,  3.951746906933515
 0.602493147712816,  9.581064197825080, 49.842806472567567,  3.703749050225994
 8.683211700751345,  6.608327914331811, 74.364212858843956,  3.710583153481716
11.114277984725762, 13.274801842102635, 18.454077704356699,  4.096622178989656
 9.726409737851197,  1.701318327077194, 87.962715517406878,  3.845446152544152
 5.660352989857788,  6.954547475787320, 49.255051549386472,  3.693321111796615
 4.712595837152855,  9.246465823987556, 15.820081702234901,  4.057161998125987
 2.928230329335813, 14.234627305829035, 55.216146367070927,  3.917429609572199
14.735836608879348,  6.481036091561901, 74.398856841655302,  3.816049604576988
11.716242587782205,  9.752104408557365, 49.190833121563578,  3.963307993071823
 6.513131279496697,  4.328665751991020, 11.788019287543813,  4.210774823688939
 4.370079472479269, 12.539852595904055,  2.265431967757838,  4.218609625631994
11.631284916833822,  5.333903241808268, 76.636621487027256,  4.070991063663954
10.528234196055079,  5.234748831876602,  0.724871618089447,  3.593581923663797
10.768303055802575,  7.548025266489603,  5.860168958582617,  3.723718255795339
 6.601893982362237, 10.245233803335147, 47.301271489124687,  4.099516090934252
 6.877760744510382,  1.137211769116092, 64.193777977880259,  3.759574231645491
 1.308099580331924, 14.834515995539267, 72.000012762410080,  4.049673208305039
10.100785880188042, 14.044466626527711, 69.465148200527551,  3.859730746650639
 7.066429106827992,  1.916876597211925, 54.569880290374670,  3.797734731810199
 6.711390067261848,  1.288453127653675, 81.515530102623501,  3.930120535271384
 6.818387745338077,  0.849218080291049, 22.545006025744154,  3.945781396540971
13.526193146074592,  1.665305311947374, 33.323680140703019,  3.722650657356667
 3.677220927589610,  4.929406439182653, 28.575667412776291,  4.234980207645772
 5.332795981339529,  6.317314003313380, 35.140173524915248,  3.958845896878011
 5.574465464041943,  8.791281146519200, 63.220653161706302,  3.486951802957412
 9.266919925803174, 14.790194858977626, 91.246207573939699,  3.826295118509545
12.388884027574736, 12.578410671564011, 44.899049773807008,  3.688779797620314
10.539368427133827,  8.978325523124537, 45.271038337678164,  3.790186143416211
 3.157999485487669, 12.432866306096802, 47.542999102409347,  3.911811070426439
11.166224641972354,  7.166124333630011, 91.381829563280931,  4.075032049885576
 4.496565114154145,  7.419923093568564, 56.524605294004665,  4.148650044829147
13.127484487624239,  5.930326355632524, 25.152126685892870,  3.856042005938743
14.546454412647892, 12.731608716327699, 56.507831035364156,  3.955331421191225
 7.486041982343988,  8.807948720866856, 37.468629624061933,  4.099863325312294
 1.758918138620612,  6.436519048407496,  6.460703135084998,  3.883688470027823
14.523031372682880,  5.159038500429142, 90.585568308254850,  3.799837949746558
 4.854426364229612, 11.931018541784651,  9.237707584047504,  3.834020113387872
14.454568646128168, 12.220033214322759, 34.452687945508863,  4.064021491023897
10.011052080446667, 11.958259379781749, 54.954106270303704,  4.088981239709404
 9.308819024831360,  8.903084771461852, 71.329853929866857,  3.991415610589771
11.745609087533781, 14.114963534421390, 58.955744861861085,  3.958400394634074
 3.513639992620345,  5.239601116530024, 45.628727973128171,  3.792123880052015
13.928747936529806,  8.074548189487874, 12.171848488927688,  3.664558559156220
 0.487120733152601,  2.016876153888759, 49.905287548005532,  3.902921440430004
 6.748324422111011, 12.796784708284614,  5.730208927809246,  4.191210707847617
11.043882468722508,  0.242047862723797, 73.126007207393172,  4.077501402036125
 3.883133094047479,  3.734071572118248, 63.888793059155688,  3.836781494521522
 0.348227688578877, 14.754703294598066, 45.964466677113428,  4.000920137695922
 0.568170330475123,  1.459128658356756, 68.475608837161815,  3.826718159489188
12.535827050480782, 10.414239706839631, 82.642660743721578,  4.277311341124176
13.214679092658125,  6.635359006999344,  3.021606996148146,  3.924562013788018
 5.217535690303549,  9.543270361063493, 79.100068466166519,  4.107643912818712
 2.455637153355273, 10.276285734232181, 92.432314757928538,  4.041112610518952
10.901456558636024, 11.916625587207911, 27.963935669979048,  3.885829184094087
 9.718604101248129,  1.326872740751138, 11.773723460831755,  3.918798482117769
 4.069657105860180,  2.539533117965572, 39.911643717539718,  3.604385767619313
 8.911999235179781, 11.478993179638577, 58.716852584203963,  3.796290259302070
 2.730750598777348,  0.121857677368655, 23.527609733862789,  4.003380187566494
 9.395944291373095, 13.870045623410428, 14.825816901359573,  3.851377066618626
 3.006383922105511,  8.625194859264878, 47.181570011649491,  3.718526340159642
 1.840597430278332, 14.329330282377420, 10.469319808819998,  3.985208974153790
 2.966509278560511, 12.359614831677645, 68.944359154576190,  3.942909094352809
 4.897128888250600, 12.452034034880590, 30.186869383564037,  4.106532976580625
12.071799423456611, 10.210607046675861, 22.552125981904481,  4.258955037846863
 7.935845122495151,  7.777623575142355, 41.511427054364752,  4.286911748212809
 4.775738245957298,  9.305904411174163, 43.781661276994001,  4.047361688909467
 8.240335795969999,  3.163209890697042, 71.796842169961963,  4.254430413028148
10.478060949985979,  6.492637272269039, 60.218215229059822,  4.190844159810897
 9.431619647588189,  9.026008198306091, 88.165788813102594,  4.124206605530564
 4.209436352174019,  1.351562685419249, 30.402743644882886,  3.855823899458534
11.446141220603609, 14.651647841955459, 36.069217838559346,  4.228356508910982
 6.366133735493589, 11.030382748559925, 92.958418100557921,  3.977489324906630
 8.961986172065776,  4.523583642752621, 81.422472115580220,  3.942628850931006
 2.658923462221795,  8.570232506791873, 70.194534608678353,  3.946453055705175
 7.268314839449424, 13.012207957859200, 79.505308603535042,  3.884670697066740
 0.807396728945376, 12.964240637560764, 65.479404603096341,  4.310297765359899
 8.008834077426307, 12.096144713801344, 73.235943200013594,  3.873028645992231
 8.518833771422333,  9.801336773028433, 81.556916323532590,  4.126612504475030
 6.029181209069483,  4.807288238929201, 21.945332110001438,  4.209129815295028
13.741840426575838,  5.099938174097789, 35.888814241525566,  3.939699810904388
 4.632418090585313,  5.553805543214475, 42.079097070266201,  3.676287620439847
 3.357991808917490,  5.320723765500243, 14.326977526229276,  3.920040018620971
 7.450811670190848,  2.982241496952569, 28.154561256169455,  4.276340655436614
 3.462855882989028,  3.235529457870666,  4.810150104674902,  4.069785515500984
 0.246983073872098,  3.989185372368317, 77.257983675817030,  3.765325121951674
 9.177770699485395,  5.537565166505765,  8.839290118392428,  4.097165165717884
12.437388220319704,  5.272117198274418, 32.062954784003722,  4.115117471778045
 5.652519974609952, 10.211008210646682, 34.059514967101720,  4.133286419260986
 5.554797235013133,  8.863734270438105, 74.427053154110212,  3.998498347574561
10.256565898803643,  2.874456236619383, 15.468373695058387,  4.162587463362994
 2.073729633542629, 10.316043628954299, 32.116083277649089,  3.954483585869276
 2.437734628377640,  4.277442293312838, 36.961462022127840,  3.976931607025796
 0.095528826301264,  1.630791508091575, 56.502871904228137,  3.952125102041653
12.367357635295839,  9.123305941558071, 36.118180454754274,  3.733105901761673
 6.158209313582110,  6.515125476018125, 70.378284727065605,  4.118803320619767
12.578952243321485,  6.336191526206235, 42.278824697009100,  3.873763171944649
 8.979209963974538, 13.734074560953189, 61.942262419553288,  4.064482516537736
 4.892303886376251, 11.914167851896414, 65.281323635689162,  4.114073975082945
 6.424479909055155,  4.843775373495323, 66.673710329658462,  4.021282168552070
 5.021928562551597,  4.553641813729095, 79.626308513980234,  4.146360227037055
 0.480532693381313,  1.974161136790278, 64.614038723768942,  3.959635014322225
 5.172971496001606,  8.364676641394182, 30.417104558900359,  4.088271260810455
 4.108301609233451,  0.306815839789225,  7.423010785262526,  3.869527675051500
10.770444132697465,  6.280085282131438, 38.561640196350140,  4.378466105797133
 2.480014274814550,  2.740911900488639, 53.327679143571217,  4.145544980375907
 8.920844983531971,  7.513444552070528, 33.741721488868471,  4.072844540072377
 1.859500705683832, 10.507459644805305, 41.256989829982885,  4.002478513215087
 1.079412544063160,  9.858162067922807, 73.437427401970467,  3.698282279631224
 3.821699693100166,  4.084658925246925, 83.636430710872773,  4.236118748702929
13.771398133730548,  2.008550275355755, 87.781116273661667,  4.241104047665774
14.558405217298459,  7.789392484668673, 93.389060901361390,  3.870408013647709
13.532542888760045, 11.819250556627127,  0.169943017477756,  3.892245251238059
 8.730736977249206, 14.958077778925846, 84.633602590633316,  3.953369303419574
 8.929963293876160, 14.257917720588122, 76.273535673978088,  3.765000399684830
 6.236413860378401,  2.719938135952945, 44.321350522752702,  3.990044381751556
 1.911497788854026,  2.039851040230525, 90.655172567414311,  4.049705638000618
 1.886549728429734,  2.102601927863854, 80.152168244616547,  3.876910994504317
 3.440288604343084, 14.955368211752445, 62.923107057318020,  3.953384168089896
 3.729062555506863, 10.535008920122630, 86.833918799272226,  4.114277352582182
 8.270194194544976, 14.216095587124522, 29.441198182554576,  3.622087152103554
 8.337302957559759, 10.960279692863434, 50.846159160239573,  3.901864893156193
 3.884014784352036, 14.663782053125663, 58.948834349839039,  3.729626018721379
10.159025632444900,  9.112327124416618, 18.804162279455262,  4.438342782509713
 6.556365024977830,  6.594890902278307, 25.965390723837469,  4.132333235113261
 3.662875207848195,  7.672518690459244, 38.895115390169259,  4.197973712705936
13.465692937514554, 14.915925025663935, 15.174509853909964,  4.579106302919446
 1.080629023361179, 11.425610514680567, 22.941401704797109,  4.199411947388963
 3.918100409083510,  9.708112129431305,  5.457589896309408,  4.202406340898431
10.032087875068518, 11.039825048319608, 91.580971856816049,  3.848999191615150
 0.227397615584739,  4.948953477047252, 70.645446635966167,  3.966532039191374
 0.968452208020416, 14.393421198974012, 31.489521721497312,  3.899146982752534
13.311220434885396, 14.549966531336681, 91.148442271673446,  4.176028623919789
 2.577684473105707,  4.619449844442568, 67.494297729873892,  3.858135922693762
 4.720069270152510, 11.152837858160465, 82.826203275695860,  3.820068149039809
12.491623338134465, 10.251963361538792, 60.089135399387558,  4.214952330638202
 7.739991644357213, 11.192786358314853, 85.232925281485166,  3.857275460226808
 2.576620688032715,  6.971811727866027, 19.521303394574808,  3.605395435973711
10.753280440358013,  9.088979802345483,  1.027566332812677,  4.084721811012234
13.391203305797944,  6.429901044653551, 83.470744429517211,  4.019140377801961
10.118024354451858,  0.297039124113953,  4.522866083715376,  4.168775754585991
 6.959662803070097,  9.405854998803612, 54.113092631944426,  3.777878339999332
 3.250471531714624,  6.229646962869038, 92.492141085573181,  4.180385808671079
 6.399421724042841, 13.232224163987460, 53.492446359219336,  4.050149410393070
 5.675609651058149,  8.450102337389644, 89.864950262868376,  4.175350756818545
15.028096761428239,  3.634607564220314, 46.357728687723920,  3.852371755848425
 7.630915558527339,  7.284420165717737, 93.229288508067825,  3.904169616930854
15.024433431544603, 13.137690187675602, 87.664348230221364,  3.928495372365144
 5.939440142807327,  0.394812971430166, 73.960532214489760,  4.094886943852933
12.026427382804185, 11.557803668906267, 78.465653269414716,  4.365562398261574
 8.537361433412125, 10.683434960836301, 31.087256995442491,  4.177818506836740
 7.102405510010176, 14.864618832733232, 49.866254778743716,  4.009117395516670
 6.382712115121263,  8.238373446226287, 12.245528337044339,  3.662879594605915
 3.331933058956734,  0.025597877155758, 83.151855165069591,  3.971264673019992
 8.714994127974482,  1.561440787927152, 38.321838019863073,  3.831735084493048
 0.740800682518198,  2.976421141336049, 26.004791805475840,  4.252168444411461
11.775055682079879,  7.678325414799296, 64.233667362115426,  3.997947216795398
 4.074103317587220,  0.022341020240010, 19.698273691783633,  4.108897694610623
 7.757104409339907,  9.179600167328967,  3.870760657765449,  4.167590249432449
 1.984875232759247,  3.643234228945560, 21.539611836218302,  4.204253514150868
12.551194234483974,  2.433148263158379, 38.948315892229679,  4.060290819723165
11.643453041858008,  3.715873598270979, 27.988786314030104,  3.908471002551463
 3.375445368202072, 13.068946499045293, 79.747921938822600,  3.894603737216324
 1.381884572446637,  8.142719418634861, 29.096547548534488,  3.598878632344732
 6.126454831440356, 14.494811779248726, 26.248892382894937,  4.079270632280969
10.482210762817324, 10.177514890296919, 39.533436593253178,  3.653900039243870
14.187586205212003,  9.419917963056024,  5.717314676328123,  4.060292780599034
 0.613321009198217,  0.519544705948361, 36.827963579912840,  4.315793163305887
 8.237562114665351,  5.200411917330311, 89.220791326870042,  4.163145894630533
 1.993972074689520,  6.061045068025276,  2.421297626774502,  3.862983713373618
10.595567060320739, 14.994062991606619, 80.907662741504851,  4.343211849023583
 9.374236192525791,  6.680596492787350, 49.045765583956801,  3.742050881603828
 6.278975854061751,  7.572488528351593, 19.058839515957867,  3.793303124245552
 6.309754652479914, 14.048705171163725, 70.240464881912558,  3.852683762229437
10.453730964139199,  7.910766091942656, 52.684425341049256,  4.208766973109922
 7.781392355812409,  1.446848695324148, 67.809480989470686,  3.618979441633609
 3.520656032667269,  6.663249080718015, 52.577810215868908,  4.104413060239628
 2.765961011078350,  2.392547063711770, 74.261836155283746,  3.415065744290399
 4.164893795454114,  4.805708900464844, 88.733756451916776,  4.028278489228149
 9.034608592467947,  1.867883203887716,  0.502930046844207,  3.712196987186843
 8.034613070183145,  8.490408780136512, 22.466101662011145,  4.081372857699130
11.337113878749669,  2.227448494052553,  7.974408633743677,  3.967317525131533
 2.275061274865138,  2.353624803810868, 33.569221562327172,  3.826914443292778
 7.650844511253608, 12.312072179886108, 20.562433594541641,  4.072589790912772
12.365522137808917,  0.177081616409830, 66.400825876969762,  4.094982212236171
 6.432572451154384,  3.709943870645627, 92.456719443067115,  3.782141882571927
 4.070149099275639, 12.071434316460103, 72.696844775353952,  3.860503017885543
 9.394980049969272, 13.829203526398091,  8.700358827531934,  4.028854112865832
13.562753505156691,  8.588584224915159, 70.741528457600594,  4.065458947100408
11.076614408024597, 10.444758606272536, 67.973309842362724,  4.126955340388758
 9.459397102491589,  7.085490090957910, 84.519356458099224,  4.127624112925639
12.953626224161376,  4.260358597164970, 62.569841123341774,  3.954593293316413
 1.530030567431846, 15.023514210216637, 76.825566596401714,  4.016072879365566
 9.687996220097617,  0.418726535302651, 44.340982843892483,  4.260691353374066
 7.942180028512222,  0.292191453780434, 58.133171373116994,  4.188570913002647
 3.862224081011720, 13.858090877865310, 34.113715837032096,  3.977369935723679
 5.477752115090548, 11.892990323904405, 61.123150966235869,  3.976615354892717
 0.561607640799674,  8.058985489695841, 16.081224588609953,  4.586548189423996
11.119148494354034,  1.099025588644930, 55.322381221633719,  4.385224966582053
 7.239644154110136,  5.624759899494836, 53.585279135913311,  3.872993273660020
 6.414953586417677, 10.328868862435042, 68.902266621698431,  4.054680974429028
 4.718214969939698,  8.513100414955947,  1.430434086022337,  3.722838121781007
13.003851392443831,  0.063701680154913, 28.934947928107626,  3.972786640571686
14.156977481830740,  2.693594680125457, 73.772581297547390,  3.945999331735697
 6.764865760691885,  4.160836539071521, 32.088083397634641,  4.040652032674849
13.813150358135919, 14.393443546675206, 24.891429453509943,  4.252846959877865
 9.958001046545961,  3.681116195066071, 35.074769411564922,  4.302086128506085
 4.708960807382469,  3.002648511398386, 25.238865021475995,  3.719813621319108
 3.315272694150654,  2.684910760693036,  0.745346505867931,  4.124044310154009
11.664449912706198,  5.374517229842900, 72.305071150396444,  3.930221590446731
 3.962487881942619,  3.994558594227173,  8.674409518731613,  3.855990368344338
 6.406894108492748, 13.988297622697702, 46.122765327334413,  3.755307172411192
 1.837904984647257,  9.935606335870601, 58.572405614473226,  3.900515177189252
 3.813084938703625,  6.300473014762644, 60.628440253159631,  4.449991588453847
13.620960173674224,  4.942057762972144, 66.757835881843505,  4.274787686540970
 6.008412409765593,  1.206633568580100, 89.397762976642937,  4.162202749264992
14.863177057222337,  9.008703981372845, 66.803221588914127,  4.225398432520485
 3.807093905549196,  1.685722076349788, 47.534069620129451,  4.281767177424105
13.301103501296934,  5.901027130736479,  8.456106690737272,  4.214217192901348
10.664352566982879, 14.858077133791365, 22.178924839304482,  3.976116241948134
11.581651670478912,  4.860897066215915, 12.091217198095737,  4.092767814762223
14.265635181482409, 13.140466190318998, 49.432361067393821,  3.964624379169134
 5.255182687615020, 11.469526636792605, 57.055012959341830,  4.159328184298026
14.693298345113860, 14.657888706968222, 20.857957536851501,  3.983245702074786
 7.741554708811432, 14.441755302748145, 33.271512226425905,  3.947812263719221
 0.718466220856103, 10.921694475247461, 44.943623063469119,  3.710242222590561
14.543280642202493,  7.041868799925994, 52.505002904732443,  3.944648546001070
 1.643497836723690, 10.984012521456847, 76.958672172195548,  3.761446066446312
12.935693091897672,  4.996709995321869, 49.505968065008055,  3.871810082716506
12.532759863566007,  3.341033882830824, 58.806943279211204,  3.773513169297868
 1.241799308364149,  6.056322530283023, 80.588728642871345,  4.159895667175092
12.606513406333171,  0.406533619624921, 62.482552676644886,  3.767829379822500
12.833144073707009,  7.331687625124037, 28.711175778645750,  3.779489568758161
 9.661578384951090,  2.574005309038174, 61.232773535302719,  3.897342480198238
 4.187300140822024,  3.241701185164804, 57.154147164774827,  4.268784473734980
14.222060660488554,  8.134874483749224, 77.827139353687826,  3.863096343293190
 0.994717047484510,  0.525172459962738,  3.118658825521103,  3.769444207051559
 5.575412927793077,  3.421008345063153, 50.835830098814633,  3.903976075483861
14.448871125348507, 10.974057345992723, 19.138868663473019,  4.120889684720860
 0.996436681490545,  6.425057310619351, 63.768148906851394,  3.934508615301863
14.098398792196004,  9.259211375099701, 86.375150338419232,  4.081506325120683
13.437477860268590, 13.563281570033450,  8.190961922454701,  4.126518017378444
 0.131785997346773,  2.311820832757362, 83.638098515355196,  3.925946298185255
13.796133977884018, 10.352293611712073, 90.355086251218481,  4.183058444299496
14.483820531518598,  4.050934305504525, 14.889812726139091,  4.009275519535314
10.975384395923829, 12.883164399422748, 88.021375579753254,  4.179000085585375
12.742312966915435, 14.217907252349374, 84.497188416995897,  4.136481617080433
13.175602623056504,  2.912246512632713,  4.215812556485542,  3.877717667853781
 2.142881319843659, 14.272602113221682, 27.556741750907463,  4.306227759894649
 5.803584439050707,  2.417590274673244, 60.784220703573119,  3.826057852310006
 1.096831953458738, 11.904962679755844, 84.076674391680299,  3.972472113852530
10.217010603869669,  8.528642109177854, 25.952561224645525,  4.105461166615760
 3.225299739221128,  5.842199137816327, 72.998846797715231,  3.860504468040137
11.735645182516953,  9.159487997512571, 74.782012817815172,  4.258443397247891
 1.099857753786974,  8.287807976784554, 35.757161594334491,  3.967570538251510
 9.530690219001395,  4.289286071833708,  4.328076292807658,  3.886341257820983
10.858601911637827, 14.077910907955193, 51.480616915626101,  4.196968880664280
 5.019058688165614, 11.990743142339078, 23.443404883800667,  3.735005772537876
 7.482631786459322,  6.052690293744179, 15.523800285806777,  4.230748236500713
10.063379480957989,  0.365256049646447, 26.271450692796890,  3.984051141450677
 9.417441959976827, 11.290131262459626, 34.981470801113353,  3.886894601809017
 7.834779901124711, 11.789736320741927, 11.820550733115615,  4.034159706947138
 1.687636304901235,  5.673208836787400, 49.193776110099073,  3.825877901824762
10.104571655269186,  2.031313855199897, 31.240186416144596,  4.034567863151963
 5.939633336873873, 14.962921758134385, 93.264289770206943,  3.955995961982099
 3.188343999625532, 11.375651917836576, 37.141102627077046,  3.963047196307361
 3.059067988173428, 10.324582435405572, 26.436728539299757,  4.047029477404247
 6.331101889316258,  1.526813079727464, 14.914794623158583,  4.194033845277858
 5.261677220504727,  0.928033898351635, 77.870448295279274,  3.902110855766457
 7.345222035456908,  6.510338548780885, 45.558614035806585,  4.276242834251114
 7.402053067833491,  5.491109376380677, 62.793755363561317,  4.078514811065000
 2.062786376029865, 13.168673010319669, 16.673949894205549,  3.995722238640040
11.307710103354825,  3.140589086042669, 91.587045049321588,  3.979978957099718
 1.065983513989042, 10.073352872047140, 80.608753764596145,  3.841949460211810
12.013755785501578,  5.832557692792019, 87.549528991256665,  4.180945835287058
 2.703179855403559,  1.671351345259192, 86.748190325010768,  3.940353478863541
12.521055213315503,  0.428245409993012,  1.196310503290589,  3.932980139227335
 6.273743393714211,  4.979842433853804,  2.171333921939135,  3.881913529732672
 8.368980231633262, 10.239230374838142, 15.371452822206946,  3.541334664650065
 1.094707902869348, 10.470856548658368,  9.227241649215241,  4.227905702191075
 9.992185823997394,  3.383573687664257, 65.227099189666788,  4.170111539929399
 4.602035046735924,  3.904022597488576, 18.009047830008395,  4.340710596451681
 1.237001579497084,  2.607415587009017, 60.480194631275147,  4.534618208619000
 3.903983227245305,  8.133972294287995, 66.466596749556572,  3.928195752840835
 2.293599699443888,  2.203471357384282, 43.355486238549517,  4.173053748377115
13.993619538220530, 11.971166829874422, 38.627994789389653,  4.340827888756970
14.399885597433604,  3.879606434161470,  0.372191707256526,  4.067535586309614
12.847215190867376,  3.606929004116900, 80.472385951265409,  4.257269103596509
14.186056530855501,  5.330515865684922, 18.829487312239934,  3.527385241608593
 0.442665488945252,  2.200051684665635,  7.554917969243255,  4.341996537164195
 2.309022882567615,  1.352172632240713, 13.910077831456086,  4.081159267062042
 5.762356125922159,  7.197858951856775, 86.044335054210649,  3.838371862611114
 3.475649276072201, 13.310301864482259, 43.655134479532677,  4.024801321213920
11.703268090128464, 11.734846147312215, 71.867930228807651,  3.501767038697899
 5.600028754568623,  7.338768899061000, 82.295784807545090,  3.642784608305768
 0.600147516657568,  4.455185059853079, 40.462643025735552,  3.899864586898335
 4.286874474609738,  7.894043747314541,  9.061873325096325,  3.888928576155351
13.610175730103565,  1.451382619938363, 11.194534692111842,  3.953781741384498
11.380073692059259,  7.360886663666928, 80.272021309272532,  3.759465661879149
11.555148411450300,  6.702175023798456, 15.684530991657153,  3.913405594050640
 0.305703680607766,  3.092306027392607, 30.169512642082555,  4.059963200243096
11.940085492411464,  1.306030979602567, 47.933325868863896,  4.383538906238638
 0.933393358726424,  5.217932955989920, 86.381404805480500,  3.998177915149709
13.232886176033817,  2.813640910791267, 22.772565827260181,  3.918443580915665
12.118220524299574,  2.138784445634899, 19.029512998058223,  3.992788873266323
 2.083988942229764, 10.104416224854532, 62.744577679733105,  3.972214171001724
13.101238427088017, 10.109202805566950, 42.206805761617730,  3.742560017905141
 4.084653638852289,  0.956589398202429, 66.873444887108974,  3.902248366947034
 2.656637279904962,  8.670109276063602, 12.479495101523250,  3.826203234351144
12.425617403501816,  9.447989314847144, 32.111515047183154,  4.224937672035545
 6.102846884385025, 12.918844246856024, 16.842383100315477,  4.051251986322905
 8.171568964553416, 11.542276463122088, 43.421434729077895,  4.099077251071683
 9.928795272000858,  3.187205846721053, 51.675943265401756,  4.294886999958383
14.615643787880382, 11.461909134249549, 29.266156878187306,  3.947575141475067
14.480266669527362,  7.957133996768802, 39.283728241666076,  3.832758469830045
11.755796400293651,  5.200359451387087, 55.520044660340425,  3.910077420500321
 7.954974967494571,  9.523272657041273,  8.189829908807578,  4.290196452138883
 0.949825439193670,  1.938014150411080, 17.927301781622610,  3.899511588736996
14.178922161280314,  7.626499927459565, 46.619114200659048,  4.322032285270941
 4.108027925679880, 12.405917447507349, 13.284663153524352,  4.035712269316359
 4.156558280813673,  2.605264184707337, 70.678939683255109,  4.272353429040421
 5.922078725499404,  0.301297039907060, 10.968273478048776,  4.090375821030925
 9.281458793943036, 13.000613424183101,  1.135944186282969,  4.185104048652940
 6.177664450339166,  6.036934062247703,  6.060782294368703,  4.113183434246245
11.412394347138934, 13.417814385303579, 32.129752915675574,  3.907446012446042
14.672201370015461, 14.780686707058537, 53.024057309638174,  3.973703652230811
 8.942445796400008,  6.741459499674686, 29.589020815972365,  4.280965879871366
 5.638660063651455, 11.050386300066863, 40.221764076722138,  3.891454058319600
 9.012209731740960,  9.736431420643539, 62.199703583716420,  3.907545404120349
10.671879745928955, 11.428660968211227,  5.677235303720874,  4.033851039621512
 6.621165637443853, 14.863087632235230, 41.364545316697452,  4.304893999216913
12.017945864730510, 11.771423406122858, 64.018163486299670,  4.209043821549363
 2.136391825359771, 10.260644240705252, 54.410718724159040,  4.321355121261492
 6.690677297380544, 13.395389670621608, 37.045861938279131,  4.077172103402857
 8.138506203606267,  1.082763051345184, 18.665298808031746,  4.135344282852156
 8.139609841588742,  3.123602366601965, 47.815344552592386,  4.008025056092122
 2.213499562383991,  6.207113266001682, 32.403335954171247,  4.219398502501377
14.638185393815910,  6.630843039519459, 59.682922154896303,  4.195686705207033
 7.091668204464267, 12.249248110634499, 89.186761513751804,  4.026214508342456
 5.096022605069294, 12.409243594377031, 76.370008286507527,  3.791237302732921
 1.314029207104065,  7.162846336153437, 43.201908239532209,  3.793200869134460
 9.569538467301676,  8.187595444617612, 56.601170726756976,  3.800649280179185
 1.221695842134304,  9.907893144694103,  2.296507233611137,  3.980605966710888
 9.715280574024009, 12.834420628951760, 47.682222155523895,  3.910307741621745
 6.356588661656349,  1.002493469449187,  3.128125934198996,  3.973177511627403
 1.550904392748288, 12.935016685008293,  5.817562580843519,  3.831578340797499
 1.705138376230591,  6.797777862304008, 25.723936755158871,  3.630154741871897
 8.200070468150216,  8.392298985820439, 65.867406528238234,  3.979691967134117
 8.385215028244316, 10.423056907792493, 76.773173001765016,  3.933242638771932
 7.039394680991268,  8.338399141716712, 59.316832887689976,  3.612426938908574
11.706342812007483, 12.786073843012078, 11.834187750366592,  3.917511585450771
 9.916350745871718,  5.844371763043339, 68.640342121524199,  4.227509907284665
11.678621448953358,  6.216622262012326, 21.448198759951918,  3.904074597568385
13.881718994231059, 12.741353676750013, 74.813289454605481,  4.087862557572646
 2.255937105141294,  8.089512545626748, 83.958238992984718,  3.967332572943288
10.729954824578456, 13.945268538420139, 40.544572916861341,  4.159897798491425
13.325211673810401, 10.949894594850287, 52.716165144250972,  4.141445796108723
 6.932609490651493, 10.345513653111475, 27.388698701398742,  3.913204185977595
12.168132058307226, 10.657139596942883, 15.378994488608109,  4.073193232592574
 7.426829706639999,  3.716838549100825, 85.529484614074633,  3.931740688504290
12.501444019696931,  0.936613110442538, 77.127926302020114,  4.298087048162799
 1.674954654851910, 14.140908748453286, 93.468083856038703,  4.058364076082142
12.019330892746861,  9.808747311791299,  9.146051859014852,  4.072136897055007
 6.758314146438952,  4.963581770912581, 38.619937067456327,  4.034365656744688
11.277599403439330,  3.068469049025243, 84.481067083056175,  4.136353540046962
 5.387838744839899, 14.019191734957415, 86.218543168065963,  3.679131019567920
12.051323845808216,  2.463713600516286, 69.684886469111206,  3.911096560210094
 0.225602725761556, 11.657248310970484, 13.039699743396522,  3.886495387678024
 3.236620664998993, 14.332995839774437, 51.109715288405894,  4.164635811614629
 0.457707085018395, 13.269081376208245, 60.578771030848117,  4.340170579761333
 7.468800721125783,  2.291101958244813,  7.062218732349123,  3.950467784786479
 1.754073259454087,  7.915829554429139, 89.142108342866408,  3.861607586884197
13.503623451538072,  8.797205088708365, 56.280429240826642,  4.182191576532370
 5.785337068475499,  2.242517085144959, 35.646294668019856,  4.218977892825996
 8.206865711634522,  4.498072028019394, 57.355987977652383,  4.118931916380252
 8.880615078724881, 12.072504144440957, 24.403890370368508,  3.994100297712871
 8.147372230406184,  6.728230931876460, 78.183100737836227,  3.986281993091619
 0.184112933356795,  7.543786490584416, 22.320468399799307,  3.838063105156716
13.674707117710209,  3.396943662277390, 52.845750771014963,  3.560911245382598
 9.313344736289471,  3.767350040946428, 41.756023623702731,  4.192508458130349
 2.874130348517606, 14.068066650382667, 39.894019574030501,  3.736094556553633
 4.324066872099676, 10.309238215969968, 50.740240911321514,  4.077577215754063
13.162838951431230,  2.405456734461733, 43.017098681242992,  4.168265217556736
14.759834437204773, 13.813011806703120, 42.204161794540774,  3.846064078962750
 2.926604511270579,  6.890772568842801, 76.861722493095002,  4.166361114055239
11.165458869408688,  4.812721613259738, 45.712852734771964,  4.060062264654887
 8.834698984879584,  2.748105017122741, 77.893440868372323,  3.946580553602484
 3.796114348106132, 10.784412501697405, 19.668526976493371,  4.399329633549461
 9.549693906861643,  4.040868068226762, 24.307416444587783,  4.406648290486679
14.660341596646001, 13.882145791341040, 80.885005028736060,  4.066686743378872
 5.830518339731217,  4.195749957073678, 75.576837880100612,  4.139021022419541
