BANDS
8 8
NANOPARTICLES
cell(1), 15.047
cell(2), 15.047
cell(3), 94.045
11.244213341482732,  7.569750985197500,  4.645790468440759,  4.117508310340184
 3.520307013290811, 12.757105907914600, 90.852042600224237,  4.141340904174196
 7.526645195483646,  3.075324300375916, 62.443250769479263,  3.934102377353391
 2.780608657755297,  1.715126267198423, 27.023011646409511,  4.050683252643406
 5.998615778752331, 12.837586380406730,  5.309991405223186,  3.949845987875388
 8.756353728003107,  6.824584169973441, 38.022455263102714,  3.837568145367222
 6.769624331380755,  1.914783355649722, 27.625543107968920,  4.000447263860420
 5.708745875957461,  8.882724557863359, 70.183721155607586,  4.176697965864730
 7.792098753181790, 14.731449656559054, 83.749696245409027,  4.143885974509845
10.014365048099645,  9.485152275772119, 64.523123796062919,  4.157528840174250
10.297962177617560, 12.050586855257887, 32.813185470557755,  3.890221880332340
 6.299827133312538, 12.166992139346892, 80.886594664382756,  3.936228069248757
13.160941595700400,  9.504210906743470,  1.708544300600789,  3.872213185315447
 5.570224933411631,  8.816521339770739, 58.428634040280222,  3.981775639610914
 2.109582739167287,  6.519173023689200, 13.970179805271030,  4.161059457208632
13.706614054508456,  6.196590894942183, 18.259758369959673,  4.002661936032201
11.499718953390790,  9.277544709427890, 86.470333257020854,  3.846114738168190
10.171322057882364, 11.763811962241382, 10.076406987765230,  4.115119220358851
13.829283952782211, 12.576896577688478,  8.955674971894378,  3.704999789954648
 3.697911968751715,  2.689557555207084, 77.509543974426379,  3.897211361222047
 8.430431491119435,  9.370381748548967, 74.356069399456615,  4.217233305159492
 7.278197466298790, 11.174577702241891, 67.117648010187722,  3.982180017909531
 1.162322394599504,  6.887137866430630, 84.316865723965805,  4.108407819367950
 7.871097273013451,  4.246194900838761, 89.308697761713859,  3.938141730868746
 3.064374899544728, 12.871569543250251, 11.546825665039897,  3.963188662226156
 2.585814104693511,  5.308166829764522,  9.627545836039644,  4.017023188563167
 4.092846031224011,  2.156194233415248, 35.083813750813214,  4.321468911969005
11.462112305413088,  6.841353973849473, 45.255058421842158,  4.167872688862135
 9.542191622034670,  0.348965714628735, 93.753007922893616,  4.273708648892221
 3.778734307489464,  1.106740257228838, 70.631555519262292,  4.190876082788114
12.484320763801607,  8.534366005913187, 75.233392923957268,  3.847222031542271
 9.897699770370254, 14.788920082626765, 80.220213276145060,  4.042175695548549
15.025380880982716, 14.796008666521574, 72.167096322112883,  4.431416334934982
 3.316381641874198,  9.259616358613501, 61.696593256406210,  4.001188898471296
13.116483153567604,  9.321451428338793, 56.939440369689066,  3.976104219497392
 3.376807476396951, 13.072250054541676, 24.948326194017884,  4.470877868162470
 4.779971704610490,  1.794131986561730, 59.687141577365921,  4.126268076372772
14.940447096735102,  2.437212529436917, 29.904837948487980,  4.221334298199794
 1.444385484906362, 12.571941910373795, 18.059749579991990,  4.074232327145019
 9.499121348481125,  5.407234697873702, 65.110425729275036,  4.143692780718903
13.562183835566930,  8.150695787003460, 32.905492522424943,  4.064227166294639
 3.759569321576464,  5.481315638417656, 37.831414398396184,  4.275867181918617
 0.937256104147561,  5.277732572547769, 24.042917924207320,  3.558783203092271
 2.475162279640842, 12.964405566755985,  7.518225171622704,  4.176565801014983
 9.216528512394875,  8.431873908944340, 52.290447661362613,  3.831616483102557
 1.169348436221116,  4.246812018818154, 70.917303192158542,  3.984164313951519
 2.437489538692480,  2.619286857076194, 49.242140496447696,  4.001537093891006
 2.242268719069567,  8.689894818799718, 91.054241146955533,  4.143204449195101
14.825156633887522,  7.479533160085805, 60.027099838880396,  3.973745420234579
 0.757494055975965,  4.977735805683815, 78.738706239054792,  3.934151454943637
 1.914865969776739, 11.241647854969962, 78.027074713885426,  4.177561386250818
 9.305950000127201,  7.983952481092331, 78.257289474002576,  4.216685927058323
 0.390495465059465,  5.733286412434309, 39.842175022589679,  3.552519456042775
 1.811945717071120, 14.739530356623787, 32.188776210054264,  3.883663755176305
12.260195526833080,  7.686231640944825, 39.441279281402096,  3.893863698084024
13.871579085263281,  4.075336498869969, 65.954332542193427,  4.155051503029099
 7.873509253334606,  8.251213702446639, 10.272709179711834,  4.245736420285625
 9.657386732368071,  4.750183732202361, 34.928054897000692,  3.806812148167617
 5.708676436413135,  9.064640780722137, 36.837670965247298,  4.087370752528644
12.822162631430022,  6.970866194136324, 53.227394352761756,  4.115960117472606
 4.800466412480912, 13.760177931040989, 53.038490842941854,  3.920481066524661
 1.066028985584559,  0.276532896506328, 60.122690050315668,  3.925533323029260
14.482534108773528,  9.073130844801717, 46.944478323551046,  4.046064642958919
 7.416105154929975, 13.354771925170617, 73.798725523876513,  4.068163751212330
 7.802191666929112, 10.301800303680125, 55.361095104042001,  3.824269071213560
 8.952756175414446,  3.946379924281401, 79.557195569461754,  4.251016854692154
 0.159705374331135, 12.531739637789661, 66.079237151883191,  3.899879389980515
 8.937191345922393,  9.264157779049642, 89.870276288040685,  4.603301579866468
12.875108083181869,  2.597583160827413, 70.306090168724978,  3.564417414566122
11.098800699168144,  3.393069714823453, 18.404299291530769,  3.603473907429112
15.027571779567772, 10.425419075627627, 11.872448071259656,  3.918143213599728
 2.774639491996500,  2.613617963212397, 12.655722187089193,  4.073812070837534
11.589489363695968,  5.886705396485006, 88.709734648357284,  4.275630612229159
 5.515026631627368,  6.838118096817477, 25.757440020154885,  4.096328027351855
 0.419096726331757,  3.766166826727398, 74.890779731794467,  4.134185074836307
 3.065063667218974, 11.992740311390031, 35.922116765105443,  4.005995852478920
13.085937001852322,  4.045900675320095, 42.307852560164456,  3.929752604041155
 4.683802352928830,  4.803055233663915, 81.276499344070814,  4.031397923550974
 2.148358763088898,  8.123015982144668, 34.919318015101496,  4.194699546359300
 8.685216814544001, 10.140818975742349,  6.624729673533195,  4.071579044193900
 9.159925327503492,  3.502979336476294, 46.288916918993891,  4.132981619370092
14.148896975649269, 12.007825185270415, 32.383111573098475,  3.807127756721558
11.320411632222331, 10.552627262552896, 49.425462536984718,  4.420380454423321
 3.046114689042772,  0.011080676785651,  4.179024574051810,  3.773382364088767
10.217683610125823,  4.039383120542992,  6.245069484117977,  3.891203482099863
13.630913390871736, 13.926645892983453, 12.582449126986424,  3.716529704176289
 0.451085965572745,  6.344380524169233, 49.678016805209836,  3.886034623785505
 6.178211312386415,  8.383217977272983, 80.705111701059167,  3.631935553053478
 8.959263400332359, 14.643989211282253, 61.371627858742322,  3.874830501760044
10.465349530660189, 13.552238681886138, 41.228670158239645,  4.140095216149997
 3.054583412679325, 13.826376375390689, 49.636952102258441,  3.726837856477649
 4.089394965746147, 10.226528364987143, 27.977370390151801,  3.941958591554207
14.679077939980759, 12.019451493331987, 89.287758452068118,  4.286736385016195
 4.081026797946576,  1.352700096235286, 83.784737895590524,  3.957199928257964
 1.476595627273208, 13.784441717097065, 39.096227563331070,  3.929609885272586
 6.204502862088374,  9.603331140031353,  2.918358861447313,  4.035098507136523
12.621506219901983,  5.077016778585455, 57.139188136908793,  4.494122367720866
 4.197391426522725,  9.646524254508366, 74.099398344566140,  4.279258065059247
13.864071331674728,  0.558046567846884, 19.051443747182660,  4.185512400565122
 8.422237469994815,  1.464241001943129, 57.992707099979746,  3.915509761869584
 7.689164841936948,  1.136451995185231, 43.076104793884532,  4.332426688256798
 7.153794648578883,  7.377065601290300, 62.062665692719193,  4.450681186259351
 3.140140212349535,  3.898575380499079, 93.105508056380998,  4.201843663754114
 1.045475209411584,  4.385089734063627, 54.128956432098164,  4.409176675837567
 0.760187105084454,  0.517427248166154, 10.023884367871073,  3.721868682360566
12.068062332680887, 13.032190124605526, 63.515529627275086,  4.267256613889687
 2.203476938273522, 12.812480719522551, 62.833841886073280,  3.779416277410893
 6.295310762917763,  0.783201472252746, 91.071183958364884,  4.146710388336532
 1.499568019895819,  6.858827305508762, 64.451644366747274,  4.125103991045517
 9.339768661825175, 12.696219100044550, 23.167791290423406,  3.785732186912414
 1.088123048121775,  1.239565418482626, 23.469953012537044,  3.838295377481054
 8.373162122182270,  4.723466545826970, 55.682652861806730,  4.041656705207489
10.619751381069698, 13.251523162524769, 89.048916831235488,  4.199022908023681
11.698681025764223, 13.612157191345144, 29.374052244736159,  3.422135575661170
 5.476735483702185, 13.728132810946402, 33.233812353351084,  4.001331575944870
10.594314880825461,  4.961156062360543, 10.215914530159601,  4.292329048086525
14.040434695153291,  3.073787622508164, 50.902274181832489,  3.674354966883547
14.068607498372147, 11.036257795797914, 70.285873444106088,  4.033556760209424
 6.712938035465211, 10.988299870755684, 13.340094096465172,  4.293963776794167
 2.161560508694273,  5.620915161281441, 27.565199527591027,  3.884974351707708
 9.207879807594884, 10.546250747625969, 38.878356223336013,  3.832680688085487
 2.853631969039026, 10.947591878892682, 32.032088552778646,  3.980888554364802
 3.824806032083950,  8.926313247158236, 11.071089239690103,  4.117007815624036
 3.233663001506084, 10.111263899039729, 44.530162866966627,  4.294752420835688
12.284328104438103,  5.669230331475890, 14.693525469667462,  3.731155679001161
12.199168907156704, 10.165391120648705, 22.699360224889418,  3.903311659318791
 8.276942530183774, 14.573173844720907, 30.487665197646226,  4.015907135006457
 9.418609399772615,  3.254127141235152, 13.787146736950243,  3.950314583852841
 8.463606718176004,  5.552091389828168, 28.332056558648610,  4.143766512700021
 8.327987252486816,  1.006126344444440, 76.730897207618867,  3.961535628128243
11.254579765842005, 14.366538556904848, 70.594495510304114,  3.772207375598620
 4.003748785953745, 14.213680367471015, 66.974747494838837,  4.064385096436226
 4.464893322558830, 13.995365003045812, 29.387722415531325,  3.961357007756956
13.656669988029321, 10.247435612300182, 19.131798224292297,  3.547502323644470
11.878372811060176,  8.487455854807179,  8.535949037530790,  3.886574055512423
 9.537941393796590,  7.974360700201361, 25.047721420843004,  4.294941796434464
 7.366975207476437, 13.019446017889710, 26.650347662180785,  4.202952949844190
 0.253822106173567,  2.723664241481361, 33.920313937285421,  3.756183304188558
 9.190517922132226, 14.172979285362286, 46.616908510992687,  4.313538990320576
 7.275615005278667,  4.018363126017074, 93.116945356556073,  3.755235845327104
 8.405175356638839,  6.578690602671325, 86.085562106539470,  4.055222051166778
 7.242244593822448,  7.710191565151153, 48.872089150970567,  4.109716530067734
 7.795649860610075, 14.804062053982504, 38.500933979720237,  3.730067306817000
14.971896975683313, 10.646465693071438, 84.956876001341769,  3.891336594208169
 6.286758628122595, 12.320022822979956,  9.407051414215642,  3.844982111930908
 3.549875254324772, 13.473086414967458, 73.447201940306826,  3.578707327457889
 1.004019090462234, 12.595520985858775, 46.803976848171210,  3.668834111037107
12.231679648019831,  2.169395573936048, 36.237727862641783,  3.889250452705761
14.651525023409210,  5.927037492110125,  0.450195412903626,  4.167866220462155
 6.644243727261536,  0.530531452165644, 49.862160087664755,  4.239910235108329
 9.544605502582373,  8.053154928934024, 68.332419710851724,  4.032402434347484
 1.333856849869334,  0.398833569785696,  0.579199873313506,  4.195703669634002
 2.695725783040395,  8.585774585649229,  1.124900295163807,  4.093254559636706
 4.547932122391401,  3.440767623857551, 44.730490355475190,  4.126692487720718
13.163005989812737, 14.434428131879422, 92.192274583171354,  3.839880194946618
 3.878788303577521, 10.949018718557562, 55.587200685274276,  3.884355686089548
12.843645636751296,  4.823184920817098, 84.971303730777862,  3.889975053285155
10.899622223221906,  8.684431735022486, 17.362343543654212,  3.705731835060408
 8.977543860150931, 11.246092516614487, 70.728399626293282,  3.955350614946090
 5.948408393356241,  0.128798467356984, 13.147703012265014,  4.002267000276900
 0.832087848885954,  2.496738261987622, 37.800456706932437,  4.073794420583049
13.119822439608921,  4.254353923843669,  3.758251550581174,  3.633359536529392
 5.233371155622625, 13.177944166926357, 16.605733950810524,  4.102840384479030
 8.542821977891679,  6.259991059040574, 71.738947169296409,  3.913358078010162
 0.312474732082633, 12.834095090323132, 42.921373278631421,  4.216708038241850
11.161279140845325, 13.479624757877735, 37.065142993667664,  4.047656734416138
 1.274668798960349,  1.189868541322616, 90.515798977885780,  4.165140099028191
 6.091765961136072,  2.772599567912550, 20.049603574498231,  4.370801114376037
12.379081078221537, 11.471084608103599,  5.490110281245204,  4.097697577416843
10.579726783892399,  9.103216643699440, 35.437241203493414,  3.959823923941063
12.924149995886570,  2.367490850300990,  0.490850321290248,  3.739786118468355
 6.670902559409726,  9.837402392739177, 32.908513871529259,  4.146957726827497
 9.422904528653774,  8.439497154759991,  0.715491583390049,  4.085553722664214
13.068412997659832,  3.751705262686468, 25.801091932508488,  3.857091485884117
14.188626651012461,  8.890222490841877, 15.402444997084153,  3.877255569333300
13.438933137421404,  8.916441572575325, 79.318279761798394,  4.518069476155245
 7.131082493975964,  4.709677942688446, 59.186858611216977,  3.385930135314924
 2.723930768174906, 10.512211037415412, 14.782522921950312,  4.074416037551061
 1.136077896377291,  3.643378421138489, 86.819407208321181,  4.050843291069419
13.584991285051498,  2.817243407187286, 12.308650388165333,  4.130537105901497
 9.719650140581958,  7.326551359022021, 31.810701774269354,  4.045592106873631
14.667049205311162,  3.755669463089010, 61.602468186132583,  4.112153522731843
13.606086709951777,  8.940454567303172, 66.409658207816051,  3.960508438989518
 5.105499143914614, 12.136978817723435, 39.459592515744944,  4.071376882854959
 7.038283198982040,  6.694688622442819, 44.770984004798919,  4.035710407535499
 3.056228924785065, 10.478294702968023, 87.403841276967682,  4.051614098667049
 3.006425098449939, 11.871621330822698, 70.031326413601661,  3.878823515374419
14.944481373324441,  7.763869019922903, 21.580682920067449,  3.723914042104817
 4.909225714460936, 14.604112674393718, 46.154065357915158,  4.159880478919731
12.143607149109409,  4.963509763675845, 77.058842778662367,  4.094413907972180
 5.897998252582808,  4.106619057193523, 48.353419118703890,  3.649703550819943
 0.446091126491076, 14.618959232018710, 83.957835820799076,  4.135967344027103
 9.586211600012257,  5.871797237686935, 41.745744768417346,  4.017571407203230
11.629857301425979,  9.574666390006795, 60.867905684594398,  3.807582817639973
 9.981017631080494, 10.886019370172097, 80.992911157776902,  3.853944893450550
 3.672309765948155,  6.745529926757357, 46.841129806750587,  3.867417416243148
 8.620961184525772, 14.467967641526981, 65.281720274956655,  3.941134859684895
10.867277253209730,  2.352874480090313, 29.218838089678126,  4.030415018734779
12.246975649496571,  0.721110804913189, 44.212021707832442,  3.875476622008512
 3.878642808628658, 14.514433466559453, 42.333065132221513,  3.754403812917626
 6.047072438127324,  1.060468528548193, 80.305113797114188,  4.042653367044831
 6.715338835433161,  4.433508565879438,  8.399340862637290,  4.312453744283483
12.472757655509477,  6.295495240419907, 28.772103737587496,  4.050939912129333
 1.869902041471540,  7.715640105183476, 68.669165802240840,  4.384941757965725
 7.958737485820436,  4.931736011466329, 75.549132451272399,  4.238398810906030
14.157126058965263, 10.467732173160522, 36.018413885654176,  3.779374458054947
 0.423123917956199,  3.271593627709290, 15.992475393305069,  4.194784637865395
 4.175744304555002,  6.191792217039366, 51.022657179280706,  3.918111617273387
12.213332495535949,  1.618096825793544, 82.850787750825944,  3.873292937408203
12.093893178682519,  1.224979953509650, 75.048084915735757,  4.296461847778634
11.917419411233553, 10.813672903212449, 53.542188363713954,  3.787727427568571
 8.594405426659092,  9.590041728999351, 20.401259285151450,  4.088921435827785
 8.527003052406467,  0.710984126803618, 17.145699576609946,  4.235538321907110
11.823270999455538, 10.046187812376211, 29.914979899859361,  3.784734965731201
13.977933999327865,  5.819258118425116, 36.274168246059574,  4.159161445033599
 0.368411175521974, 11.174737177182115, 74.223183578062205,  3.931670811983432
13.039518200361995,  3.065150293541635, 22.063370898877551,  3.719749910415039
 2.046992720592357,  0.040929388271396, 80.115350400797766,  4.195918694712258
 8.590824130962179,  7.260054289483166, 14.401845189497843,  4.318326880850336
13.398537683483099,  1.585932714818398, 79.036891164389317,  4.099271471619462
 0.584806908145445,  8.796194554500991, 29.430554598400825,  4.098318589773045
 6.282094591659464,  2.568018146813824, 66.327861590984341,  4.168802542680488
 3.018309883222975,  6.520409055445888, 42.399038350616721,  3.937106087022990
 5.878547936425762,  3.289705391605869, 15.491839105865985,  3.860287738665974
 5.428962090691840,  1.674284780531227, 74.223268777780689,  3.789765797003485
11.025776377336616, 12.828886905169306, 19.685128523686664,  3.797788796406797
14.616926546466342,  8.679200903791280, 42.551271131168683,  4.155392186375821
 0.322896551417549,  5.591229603552375, 45.148861068253275,  3.984339043772605
 3.831589706498041,  3.811098299200942, 63.406284907718437,  3.810289198954663
12.261519359725876, 11.864906019770530, 45.289003051036708,  3.808264171928454
11.098096653727556,  6.453406029410353, 21.406566912615872,  4.184483706752625
12.613429550136365,  5.121507741243299, 81.058049615337396,  3.960737297908892
 7.179520896563143, 13.330246916975920, 20.083792539535942,  3.831798267173346
11.135650123820701, 11.524422205889326, 26.371246844835639,  3.923948706618728
14.966474700164408, 11.955057870809291, 51.034835428591144,  4.024984936096875
12.367839561159577,  1.498339490596563,  8.451410065004854,  4.078718891261373
 9.803100829308379, 13.926395643208116, 13.572428344429117,  4.129623552594579
 8.966882656314516,  9.952032602503115, 45.995254768889545,  3.911028942595695
 2.711580610222143,  8.875854614894676, 23.838702359766085,  3.804523448871355
 5.945024429066633,  5.902991315446909, 34.232979477474615,  4.087857837641454
 6.347494936378736, 10.282935892823188, 23.787996141909598,  3.974151585931397
 5.966350217715255,  9.157293092825995, 17.122082623835091,  4.121223595967855
 3.345951621736818,  1.304212021283454, 17.604524593580322,  3.546232671652877
 4.082349243629823, 12.329926487301924,  0.990507721316120,  3.842351888954571
 4.640370137007331,  0.916744314704727,  9.389787726225402,  4.083186630847187
10.985477847124441,  5.253636620777061, 92.774431743579342,  4.030757723791859
 8.677705909377091,  0.815606032677660, 34.740303005018852,  4.258346753419939
 5.662522969971548,  6.688482733644352, 66.061373545742597,  4.145654115629815
10.450746606423374,  2.101215634944095, 49.957310194504437,  3.996873162502455
 0.162349681681405, 12.310878779499314, 55.071645972035647,  4.056893287767930
14.176860926793164,  6.670923296953812, 11.259191885048152,  3.869228917646125
 1.969240074627493,  9.320260673006651, 39.041391115601378,  4.311299380001116
10.875052724296898,  1.135541346348780,  3.567770623710082,  4.035783650906574
 1.177796273940456,  0.043996190471880, 76.163032414795921,  3.864259470569255
 6.855937094974066, 12.005606605239658, 43.219756651456173,  4.181746146749921
10.645323437674579,  9.680753797797701, 42.435301642326920,  3.976484485839673
13.026790515437064,  6.256095265499593, 69.278632367562139,  3.958776128937930
13.062320116081459,  8.734127947089000, 91.640111936525187,  4.382612497122205
13.764853344050278,  0.991903786146583, 56.114042740343599,  4.202451545636570
 8.245961225108317,  4.267345598435369, 23.500110449008631,  4.100508278776513
12.861644577925050, 12.538321135515035, 16.200073556553654,  4.043633269096509
 1.856789818717257,  2.476838703773274,  6.907796688563028,  3.956825696006476
 9.427111318008661,  3.573515186521299, 68.865097879794561,  4.145716586879034
13.397331401774208,  7.395180550448520, 25.246173697656115,  3.519580023656141
 4.120970853359924,  3.585586225482642, 89.306419291863733,  3.658035062057333
 4.898319645886742, 13.943644528440172, 77.015985697026409,  4.104141901435765
 6.420430276385301, 13.625676339483217, 56.502526459497069,  3.713957956906508
 4.578871410247760,  2.646220504693734, 52.712076478159268,  3.959392034103444
 1.171301469209361,  1.166311140973529, 64.185131908173830,  3.821369109027302
 8.262969358712787,  6.004504465333536, 18.397968352478312,  4.083437135073046
 7.781360071722825, 12.161573283811354, 35.820182609372239,  3.602497692292082
 2.112818221847426,  7.559771626475229, 56.740761894966973,  4.082571065196179
 5.979693973337604,  4.302382394148780, 41.068484740702893,  3.904186510046394
10.120609472521632,  0.957678931851048, 25.358026237027389,  4.300202672428645
 8.031703103748912,  9.585417202374423, 28.895476206571782,  4.022340649949793
11.322253723166813,  2.120103568653604, 63.358669729448984,  4.093428822511799
 5.065842989229554,  0.209196569258173, 63.327911021536480,  3.800101298070216
 1.734543713601458,  3.924709863479112, 20.266828149593035,  4.583757679811407
 8.891876726396672, 11.765905980180580, 16.762430045300803,  3.744206511765248
 6.550603767839265,  0.325885404043196, 23.388480607797852,  3.950536689338674
13.752531300959255,  0.660054801303795, 40.779305345058702,  3.606260884462804
 1.169313326539330, 11.489877168915793,  3.757508702872583,  4.306933096083856
 7.924084878266242,  3.470577928617167, 31.733369756962638,  3.886436874644899
12.118617837102812,  1.251621710069345, 15.609162308697300,  3.651069909830195
 3.728717236964277,  5.790987681594124,  5.838063375822144,  3.946871763289426
 4.580247351933112, 12.522522948786461, 84.394707323450049,  3.752622787939230
 6.867594046210242,  1.813885241639957,  5.056130034594452,  4.179376488801858
 5.597490429646331,  5.418892789412673, 12.242501964160040,  3.923476929835715
11.066835542416536,  2.095755407404286, 90.287211666725284,  3.994642450248838
 4.612162088850759,  4.993757652111196, 85.296281477971064,  3.987355193498635
 4.484526144109553,  3.980851877044724, 56.368720379290721,  3.827032902079853
13.123108297688686, 13.397223953948474,  1.865648565550217,  3.878099433867028
 1.194340333903982,  0.404586299021311, 52.660471945044932,  4.071346363382570
 8.905508398091968,  1.854292264075675, 72.503879197182968,  3.954780627660555
15.015522243805044, 10.733417929885871, 25.917260678315845,  4.014567931918086
 7.809731640467550,  3.710673117880688, 83.432528484162304,  3.840031878143829
13.464326579211246, 11.359377421326315, 39.685661043648146,  3.842205237814221
 2.808233439793705,  0.127621961754831, 56.428768813440747,  4.139410321132292
 1.918050565679757,  8.542690281816697, 18.284419126448537,  4.026360375111624
 0.922072124048081, 12.634889481317060, 29.205011028976202,  3.621283947036211
11.157992937523804, 10.235984419631899, 13.545400183555282,  3.717899217365351
 1.590110933585538,  8.677161486687746, 52.831518656997204,  4.106471953128204
 9.513239882982745, 12.148176350039236, 77.195470777972290,  4.014167198565358
 5.263068467639917,  7.248815876883790, 88.622268221284756,  4.130969551082218
 5.928395148709665,  7.755580688703667, 92.696090800530087,  4.138176653840079
 9.400498415273455,  7.100179686026710, 82.243372236460360,  3.945777746608344
 2.369750940982331,  8.076470555516311, 80.627003398777390,  4.005141676196062
 6.680152593037771, 11.586057361498311, 63.075220772893296,  4.230534492194931
 1.178539075303664,  3.429700974891562, 58.044666714164300,  3.628362033597780
11.410647718204777,  3.258230759890846, 53.583502200246905,  3.836293896106813
 9.781916457143108,  1.166578659385148, 21.206083428816239,  4.002715302951577
 6.615223797731557, 12.502104241705442, 88.051964833295585,  4.139295030689722
 0.839639991654722,  8.842533863399421,  8.244550697358763,  4.040471267567388
 5.508095385909985,  9.927196324312641, 52.093289452232405,  4.070821103400659
 1.793134092795142,  2.737148281363172, 41.751795327652204,  4.073354739017464
14.825172951428788, 14.276406457875050, 35.534873468079930,  4.000799835606580
 4.363973278596115, 10.730928907966058, 20.452857647117650,  3.834375488550021
14.312216125882602, 15.008306511342671,  5.259982532927068,  3.975679202330233
 2.826571286693258,  9.971049923858089, 49.015148749810628,  4.091153496116254
14.047670184213073, 14.933391568032651, 26.650008571683522,  4.236108293880490
 4.078222295593948,  5.404180753799834, 73.594736853476221,  4.232245655420884
 1.592928576367909, 14.582428760120026, 14.715930163380579,  3.697640475938938
 4.683530695092858,  9.484651805834021,  7.087986525579879,  4.079992260951380
14.887166426180027,  8.131909286111560, 87.905426619078582,  3.853701708576921
 4.375919077945026,  1.305700460109763, 39.063539451828817,  3.806844892760963
 0.224177376147748,  5.157723158444282, 90.488278345532962,  4.025768502234720
 0.891605403444608,  3.314069333736063, 82.365200415313709,  4.037835454456492
10.404007091229163,  2.391424545610778, 39.803781574690781,  4.118387812525008
 8.685098517091200,  1.160837989827366, 10.286656111084300,  4.176784605779750
 5.419040243691751,  4.786211174007645, 69.700623058538966,  4.078062360726403
 5.308544957888536,  5.613250992281668,  2.143969641431146,  4.079065610890165
 7.502123955081125, 14.791327695759465, 69.212793279181611,  4.228004277661497
 6.377263137300191,  8.431259297879800, 40.950165552957529,  4.312166069898955
 0.557613055828693, 11.577134038673243, 93.423015424922809,  4.034668631982338
 4.254277550102512,  3.531864894804468, 23.725429250258738,  3.963295166864223
12.748190705444827,  6.818996739416424, 63.265223845077557,  3.816702913827061
 4.666808460850063,  8.710231432078038, 84.127832697632016,  3.799430742697218
12.126223229888367,  5.148204432059016, 73.007138692928820,  4.002378914316790
 2.832372440352095, 14.467730880902790, 87.216331688173852,  3.931185478239350
14.753874286845118, 10.024203480884884, 62.920194286164801,  3.697858984306222
 1.429693719512988,  5.677244049481952, 31.791030516842564,  3.875242028401435
13.928749202090469,  5.194198615035785,  7.502793378363159,  4.139109714621756
 4.044217294307908,  2.766988096523278, 30.853566815160303,  4.168804011733574
 4.665860159363103,  6.610779360147685, 77.576309473339137,  4.169489098402841
 9.272893530991359, 12.418439169114055,  2.806766470316413,  4.286746995496211
 0.740228444731643, 11.678068808232483, 21.938540910819871,  3.999934505057211
 6.476384064972321, 11.677545583872542, 48.535186111929406,  3.994938145477070
 8.354317871645074, 11.573789781115458, 59.054197852073600,  3.889364834422471
 9.501648509531730, 14.143430981091061,  6.801889777626401,  4.086271573121207
 4.398030436530975,  5.742757713418310, 17.824355419200970,  3.506984131956970
 7.972549374194809,  1.101527774896146, 54.068170772421333,  3.920936255287977
10.431102523087693,  5.084578464298697, 60.673659623007559,  3.813594084356704
12.877857027459465, 14.254694128979803, 22.785573297998209,  3.948171467060963
 1.223318022303955, 10.938241410894625, 58.725896946559786,  3.936266787554465
12.258238726044739, 14.584307271539318, 52.518272908576876,  4.052421953382193
 7.460646193858067,  6.729932561015697,  5.192823210712713,  3.707981820134385
10.093928766927800,  2.277210210573482, 86.344171143311826,  4.088538318141465
 0.014823879947783,  7.737255316368774, 72.371546693758233,  3.891602658760421
 5.018979435881618,  6.959834724714201, 30.287543353046967,  4.261950129720296
12.814498238090401,  8.202741651731293, 83.217110277064819,  3.488760973126840
 0.497030770551051,  0.939501021437206, 68.095283801722061,  4.107652547166527
 2.649076311732105,  4.069669957733316, 67.010328181876361,  3.774900284391744
 1.817071284939983,  3.615192174809458,  3.067596871597851,  3.993250908487544
12.298492968275021,  0.484842472628913, 32.583066134726621,  4.151328239053006
 1.956105585940451, 11.631625557758381, 81.950835339202982,  3.614916953131394
13.623049612085804,  0.574200095898199, 87.470765527961319,  4.047389582246409
 1.147001935597902,  1.240384794340847, 45.543803735504504,  4.129337881155888
 3.620068276430181,  5.668630656396681, 59.965683855989788,  3.978415385104143
11.890961805959245,  1.824088025726752, 59.522922509416418,  3.681204315630750
12.366549465038531,  4.451617391071780, 32.243128711679006,  3.812132583115538
 7.197516679787316, 12.139310168249704, 92.615285451294781,  4.049099844880854
10.361143278746733, 13.513650583634028, 56.049395815243741,  4.201271104455974
 8.648550501060257, 12.620823603139977, 52.114665275092506,  4.201818554747897
 7.863832101489793,  4.736968645922142, 51.640870115650742,  4.105693312318743
13.086411730394961,  3.141574129984151, 47.214838878668488,  3.881401750626519
11.163990680981016,  6.158025412620699, 49.427973766286222,  4.308156848018618
11.468501750976030,  8.632410396376255, 71.701392001304868,  3.484041749812970
 6.255394995251488,  1.387355916261057, 87.074320655677326,  3.915505932054882
11.304683598727822, 12.032064156533668, 67.471200077185458,  4.024868679986787
 4.570160364333383, 12.799251274122302, 59.765230802312161,  3.967106892693685
13.010604210484834, 14.392535100801068, 48.447424763803845,  4.086134067880694
 0.341089109479236,  7.375745186897449,  4.289440411762730,  4.148259529672204
 5.440513081370293,  6.867993058898164, 21.486116042610934,  4.402859856289377
 7.202964795935993,  3.357524538154304, 37.519578086028638,  3.826785071378808
 1.139457534714091,  7.800520583157751, 76.076807489767049,  3.846878194696039
 5.572679861882291,  7.271229266038032, 54.916601117266261,  3.663077564698332
11.511277309513405, 12.045403189214449, 73.715415716333283,  4.013612933131696
 6.145963473079747, 10.276645627461953, 77.540880745626396,  3.711741648750357
13.395445478320703, 12.835312569608034, 80.980726623306339,  3.973235394473173
13.361847079857284, 12.712379308616494, 77.114270556845852,  3.760128616731596
 9.482960200314137,  7.879882585155962, 58.009084258869727,  4.099100182089016
 5.498822097491456,  1.059660250610760,  1.152919094827242,  4.222361855189583
 9.296799804882697,  4.702723327317820,  2.394169011947670,  4.109307125941774
11.719363643408574,  0.850544680743960, 67.099383580551503,  3.765540925208651
 3.518962722666217, 14.538103982161525, 20.924200569563158,  4.013945043446055
10.963419766113519, 11.666922314243955, 93.343776474431053,  3.592967793668198
12.863691912967825, 13.044732080052022, 59.369913475797709,  4.144142789990536
11.592664678310287, 13.052949125873548, 84.785030352582950,  4.411161485770256
 8.164424013543664, 10.513243020269506, 84.656778159935158,  4.122405665251635
 3.535022930080774, 10.310958049052568, 65.666975043085344,  4.219608210096918
