BANDS
8 8
NANOPARTICLES
cell(1), 15.030
cell(2), 15.030
cell(3), 93.936
14.160832218148373,  1.784831418396063,  2.999253953661583,  3.809640365753610
 0.436761679233326,  7.323399190118424, 84.741571671765342,  3.966272872327785
10.281893115589227,  5.954024793068784, 61.251683674507923,  4.093599380416045
 3.302007414575624,  5.569390085870263, 25.481023452844312,  4.139621358564070
 1.093398036563108, 14.889553465084486, 85.360400606990581,  4.029822846681058
 6.653629911887564,  2.377315293253373, 72.309047472602970,  4.543738310473024
 4.282826466920656, 11.458462194814540,  0.794847781881516,  3.861219610308837
13.984308826498674,  3.466250221700614, 13.612337314280762,  3.781029712497331
14.530550383259676,  7.955287773652340,  1.023608300636733,  3.912114501626273
 5.190958828636421,  6.998111809478537, 49.454477348054439,  4.129959777811109
12.383377519207279, 13.645265632210185, 52.474796075504059,  4.254404063766467
11.359727204894885,  9.137066029633306, 63.446702347230364,  3.838385287406341
 3.235756799572144,  7.926663723277318,  1.807032541853469,  3.709126330115367
 5.053374849220440,  7.407825577540740, 39.794440947995298,  4.212781330194550
13.458405552339341,  0.393857870725555, 29.231399159422896,  4.395220250581894
 0.289941110334991,  1.384752586933950, 46.135513405492219,  4.086295152627639
13.814593988325120,  5.350328214500442, 35.003345523661224,  3.792556108930815
 6.818455789384526, 10.541486816233601, 15.528661095041523,  3.799176790721162
 3.357161277316985, 10.808227074610624,  8.430868967254010,  3.838578929954175
13.955049569704837,  7.249615270672150, 55.248781598447643,  3.958731028782416
 7.216996927617434,  9.538221348325399, 36.780839153118627,  4.317338456800691
 0.065996053964985,  3.627800167262838, 86.139749909077935,  3.929503499591962
 4.913057373085879, 14.751956783792179, 41.450922558767644,  4.136942670865678
 5.997994654557829, 13.528764994549404, 37.521858025748600,  4.110559685433275
 7.776431001459231,  0.129078463687142, 31.394435646134554,  4.453635304702612
 3.658845204869594,  5.225371499992415, 85.743855131698112,  3.963405077380454
 2.697201369612911,  8.530675919125995, 56.130590286113993,  4.130622284442565
 7.234832305068963, 10.360463663101642, 77.649497321832484,  4.173006088164314
 7.080302789770490,  8.410344933504774,  1.557893745408166,  4.050364348928486
15.009999084831671,  3.354949043842750,  6.803595516187078,  3.683307364253212
 3.357158425636519, 12.037049835104449, 69.579467814485469,  3.737831978600899
14.221237308672185,  4.179487770206354, 31.198368949975912,  4.210832376663979
 1.983851224600720,  5.527016564296792, 61.229668623353369,  4.173867299027175
 4.675590274773395, 10.314303131639187, 66.379107080268795,  3.962485509080988
11.917440599050996,  4.871620178128333,  4.128877579408191,  4.093263562910264
10.185051174469288,  2.601444861715843, 63.619568279818949,  4.058418933326369
 7.987119271330566,  4.560308435192334,  2.726345549223702,  4.197642207856640
 5.447648712297222,  8.726286006729167, 26.847906885620556,  3.966875848216395
 6.582808606348987,  9.646298133933518,  6.415235014303017,  4.056933302763595
13.963920915735446,  0.837435825060859, 88.574100591674309,  3.778840829188057
 4.553194106122651, 12.687236930731524, 87.037082475889932,  4.029561121565836
 5.899930519289000,  0.346251596155040, 60.907155186585314,  4.023139767916186
14.966042568270856, 11.221720282495820, 84.367973196285433,  3.913317682284823
10.084743538823609, 12.356397278923113, 46.072504956991537,  3.706421710957088
14.872657850030865,  2.273162332236535, 49.980909175604758,  3.849830737155833
 3.949213180088960,  1.427988262573494, 25.123729240511238,  3.887299581984538
11.404850637898493, 12.915490457323477, 82.630518535328832,  4.087924464063095
13.655962880979443,  5.832994725377662, 63.740176606489030,  4.227984660209184
11.186305201703505,  0.796058020114432, 13.545599497673447,  3.895423313905673
 2.656334326812253, 13.290183383969378, 44.880708517263898,  4.122723254912836
 7.794377798998195, 13.075982283830514, 93.234982984909308,  4.407861884439271
 7.069147092449246, 10.452468155535692, 69.904695809385686,  4.334091387992367
 3.068119151761818, 11.668533442628512, 74.990859268844900,  3.914625947877267
 1.413976777691114,  0.605512694565827, 68.294973082954684,  4.382001363871698
10.226071283408141,  3.387481339337439, 48.908726353269621,  3.615302902271891
 0.422479045806518,  4.813313511319039, 10.346654058946340,  3.827884850275614
 8.632810058834362,  7.492978567610087, 16.878657728358490,  3.788399517530302
 0.446170148183749,  2.740124441078908, 39.764810018634606,  3.812856891683028
 1.880332745499056, 14.161249229177438, 38.796687913903263,  3.988356528956187
 0.718486394351004, 11.586386691437990, 41.685052804234815,  4.082190796337711
12.087398916552113, 10.322363572830415, 42.543263238131523,  3.848929722369474
10.815441034028321,  8.430343125717634, 57.280924879533501,  3.871897922836786
 0.306591431120353,  8.869299423222527, 44.600325975792849,  3.914934046028232
 8.040364776018253,  5.661951949454156, 57.864421234479067,  4.043471706583317
14.465845848591501,  9.948766134954317,  8.929042613394250,  3.863870970090567
10.568034359847706,  3.821605662380124, 71.500343102714794,  3.949019015123635
 2.697716472823477, 11.589745766621219, 14.953880524772773,  4.087890552881395
 8.019781126933639,  5.977441358551476, 13.338776194486837,  3.974907696499669
 0.345869995347510, 10.838269547966036, 53.725285730853884,  4.022126917842744
13.287819916606603, 10.136966090233404, 38.750483629575363,  4.104264593566323
 1.171767624338755,  1.898352811873241, 36.065860826915575,  3.876569642995945
12.300615162763245,  8.217249922574917, 77.344707084660158,  4.267879097839199
 6.230051568761192,  9.265067658716021, 11.854698389585629,  4.062287931924081
 6.953026692187813,  9.374806412589699, 56.178291762191506,  4.365042862972488
 8.382763354749283,  0.237454405309213, 83.904016421105780,  3.937729885492619
 0.859154313102814,  5.138450697700010, 75.656250745162623,  4.237397753012844
 5.358859535672417,  3.831531928258640, 15.131686199248177,  3.723488163017053
11.989370432294960, 12.740687879056779, 86.824655432880235,  4.374698414901454
 0.516753085226013, 12.940162891870051, 11.362222497254132,  4.123353959514456
14.080619636498806,  1.695144112231345, 64.645833064218564,  4.196260585232854
12.601538072763823, 10.215677768325088, 60.079137816587739,  3.657100814730726
12.365815047870463, 12.843797288962451, 20.395756189778737,  4.429511511176850
 4.710242374704160,  6.032027869041015,  5.151348834422772,  4.433455302340666
13.109184419626166,  5.688944513951679, 50.780895207943800,  3.986759871986580
13.110715283550949, 14.025406962189338, 39.958767172010816,  3.834669652866351
13.958723117474964, 13.259443751560877, 36.006527386834136,  4.308362773946797
 6.000410037394818,  3.845632552449068, 32.284920276352992,  3.965377551516414
 5.332429613414163,  5.723151652606592, 54.474180827239351,  4.238687129342834
11.956625830586157,  7.670989963449037, 32.167891838428723,  4.317254959752094
14.321562820185925,  9.126648136752459,  4.942949050888267,  4.276676836161140
 2.778988379248196, 10.829354272764920, 50.834712669116172,  3.506294978560767
 4.278290971787876, 12.816157042408134, 91.013574039703300,  3.907260992581200
 6.255395194818663,  9.879533598292962, 73.830277777643133,  3.750858075063190
 2.761325729322318, 14.585367522400846, 28.452067845991802,  4.102009221287729
 7.919017892038111,  3.928739993176302, 68.361937626686824,  4.255118763192010
 2.233958150981785,  9.785215638489209, 81.659889878334369,  3.745305234133607
10.803058366788772,  3.986919542729106, 11.244962571046697,  3.980646878250123
 9.510888895115986, 13.999973863968110, 66.119994864072879,  4.553388193037233
 3.841846521476155,  9.194616172996541, 34.229217430663454,  4.164293139716821
11.867673613630874,  6.179521117248575, 80.840035562752632,  3.844918828639755
 5.567082298015469,  9.126776008353776, 91.794683930162677,  4.033715074369740
10.780321853352186,  3.685291935789235, 41.176015878511556,  4.095969503602503
 7.741976128266816, 12.039891315592360,  9.407721553451786,  3.889548406943400
 2.332262903221924,  6.805377666488051, 65.050446250581430,  3.862260559640435
13.919797171559596, 10.485749112760171, 14.148908172305077,  3.980770897358829
 2.298849624850381, 10.466630316255813, 28.811538936059076,  4.217379505613755
12.061106564692933,  1.072343972878768, 17.568578527144961,  4.214457248443424
10.301831838186175, 14.831207406911171, 56.890592542232881,  4.075361353337309
 9.382930372494341, 11.577530259474488, 23.095675247092615,  3.964209610280584
10.550130415625437, 12.815695702908121, 27.631026516302153,  4.023745126695300
 6.602188880596393, 12.459860210252234, 44.431262159799047,  3.988702855744960
14.960661751285535,  3.612250497479466, 53.752489811651408,  4.148875641866539
14.126591247988253,  4.251790352368150, 17.134418005673584,  3.398515461118732
 5.929899648355437, 12.554614296254528, 49.822523149961960,  3.873111116262417
10.123808510912273,  6.021575234886916, 36.345340637361573,  4.136507338133330
 0.878453860397221,  5.240657097132386,  3.568029027402938,  3.984153741684058
13.411859873080976,  9.014458696039933, 87.516679002429214,  3.720968526887650
 6.841577551477143,  5.408166923772996, 92.748940252788316,  4.051514629601023
 0.923367673779331, 14.140548676737115, 22.586213292243720,  4.312787457694562
 7.666246980203990,  4.485842706179914, 38.917508094477576,  3.563675759804810
 4.935229789132127, 12.715188717943711, 18.044625814600042,  3.840268539715691
 6.519082264456581,  3.593950702547997, 82.561046323068240,  3.842065145358319
 1.425086467634160,  9.368967584302460, 59.828741673004345,  3.851798011095652
 7.160582564426302,  4.523193995998947,  9.735964400732527,  3.966517395311344
 1.916152625139043, 12.672477683847047, 57.458435683769167,  4.218551204870225
 9.457381090817828, 14.102592267773645,  6.503286764884551,  4.006919046376656
 3.551209396344907,  3.597515580417653,  8.370128600466913,  3.943905208506299
11.250370063942983,  2.592029664036023,  7.464616829569720,  4.094705566820742
 2.398333690034010, 10.185461277229930, 38.182916449798917,  4.115978651832378
10.570313587394775, 14.721686327335899, 90.370957276389873,  4.182677037089188
 6.389767108029648,  0.620620270942915,  2.529613643034147,  4.268345385178144
 9.018761768375111,  8.053408831268788, 25.159445585120384,  4.037220366109596
 6.620678043224675,  9.560190944406164, 52.101294687196130,  3.729976057926067
 8.629442000480028,  6.993305723758373, 75.420950362893947,  4.365529033320320
10.912189295744346, 11.915104663998147, 78.046554347386987,  3.621913965049728
 3.913392146930756,  6.387424477482800, 82.004558874468955,  3.864541299647819
11.795776746487492,  8.828122464246583, 46.638087028234743,  4.199268030087418
10.640363520756328,  7.153577564954929, 69.355491749649303,  3.975854159130023
13.334193912186439, 13.553143636086437,  7.597683290900039,  4.117580124698793
 7.640327973029966, 11.552812041785632, 89.326187225215534,  3.965415003572712
 8.799274231304560,  6.208513736989903,  6.453703111279073,  4.106447467730454
 1.815727191100957,  7.170770100770305, 52.136558836675192,  4.486542918651470
11.773072081588555,  3.861315315382354, 56.708430663926720,  4.555269894085548
13.132056976410826,  2.930906417351186, 60.748561643571428,  4.166001043015591
 1.816219801874909, 13.018121677823716, 61.822558331393608,  4.459815675713849
 9.270265344696108,  2.311002071882196, 59.781219894788507,  3.847639319841373
 7.895539672805095,  7.291492192982061, 33.152777910929963,  4.052346377471495
 9.756369978388662,  2.443758837728712, 28.277138476937459,  4.252832288924802
 6.774041319936764,  4.622294987427369, 18.533003800293088,  3.804941061231476
 3.474209496359429,  3.227688612702030, 51.636140351099300,  4.098012202367076
11.165222855497310,  9.543900956439536, 53.564949097992269,  3.850269219321443
 0.026647934267780,  4.595839125676312, 67.530044227083394,  4.203509732801405
11.124787121453176,  2.653943859331587, 52.611235946472220,  4.078549406970036
 9.128041444164744,  1.981733541665575, 93.708745169410676,  3.939132302312400
 4.623736841159509, 13.070525698481589, 82.943148416964675,  4.193224854922809
 5.529582653305335,  5.701923356964204, 36.007971194892249,  4.016063518000436
 2.893989511778981,  1.385492363224780, 55.393757959827795,  3.952343430646865
14.744707711231511,  4.373090082162897, 82.438877504557354,  3.643194328837501
 3.292261846085932,  9.870857444357112, 47.136156741255618,  4.166928425295447
10.788320658646740,  4.865084634276408, 19.032891846555284,  4.241801391246944
 1.507566305792803,  0.817048396018492, 32.197207274371578,  4.176486917984992
 9.444475316330943,  7.708297943424829, 10.111037043853559,  3.855112634124001
11.108294993669864,  5.787829846802312,  0.116146093382349,  4.287009895189843
 4.367687834127722,  2.072316810780473, 44.887196766098668,  4.227500383745087
14.873919278399729, 12.689814368138173, 26.358059802149032,  4.018066659013821
12.866838257897522, 12.855837103194570, 63.559846541335858,  4.173260662360367
 1.960537156527402,  2.076047788833777, 15.639060081705777,  3.973627198202603
10.335960003804425,  8.367118487700157,  3.618349927962503,  3.636829770245075
 9.780121443392092,  9.430030299355495, 80.658979842427968,  3.888422982032586
13.339776329979237,  6.025924728276999, 38.941111609192156,  4.123837030977169
11.244914570668348, 12.686255565813749, 31.606536132076830,  4.049352873079299
 4.958920241147013,  3.157538001599352, 58.245995090784504,  3.929421140907633
 4.621413481989711,  3.498206231642072, 21.713474992661173,  4.193073912755237
 4.797832908099087,  4.292640402533261, 89.437277070079517,  3.984084258087610
14.163016778976043,  0.236837521686515, 55.855184874746683,  3.953005161891930
 5.197369115962987, 14.358794731631095, 21.711942862881472,  4.213588849620367
 5.631568107319533,  0.053945381252511, 52.835303691213049,  3.942334596607903
14.796965052338837, 11.947548055384839, 77.300107746613577,  4.148966430538396
 8.567367572575753,  0.911860151158277, 39.390785124052606,  3.823690070671439
 6.101566377978172, 14.225569311347183, 56.873454470155764,  4.359040833320894
 5.301028557266354,  8.684731806534826, 18.673635232613179,  4.080580368030383
 7.531286784521499,  5.644193579512208, 42.507535469774851,  3.932271653619019
 0.014987411556163, 11.772734001958337,  1.370171378984975,  3.781979278175006
13.591262505366188, 10.188141356339237, 80.711734644912852,  3.881276505289827
14.614249020718407,  9.543820249417125, 21.487115432723161,  3.847925379450983
 2.518376009613839,  4.342753188825506, 47.830832159141444,  4.056819503226373
 7.435640356225768,  2.450484562896710,  6.124180007106418,  3.871500287665220
10.108058196732578,  3.797349681405802, 32.319959608217339,  4.248793578386628
11.652514736796276,  6.208136226581447, 27.805590674760644,  4.228285082073003
13.762583468843813,  7.199350102249367, 91.041729600749960,  4.207837998653673
10.976369372798670, 12.554825792981381, 15.901712094191844,  3.918418083456924
 7.973699381516457,  0.492433777749993, 46.548312592969431,  3.938692607064428
13.689492662840186,  6.678332926762709, 59.216533923745587,  3.887539846169685
12.314463590897324, 14.512160868183180,  0.271682155939086,  4.218174759025086
 8.930804791041005,  5.855741858449042, 46.253384628466620,  4.063898764489397
10.076809883147943,  9.339367862438193, 13.818788974878998,  3.914724764382047
 0.197071891286354, 11.800013748199110, 32.198663827429911,  4.183794459439000
12.553589435675338,  9.864787865403381, 24.771850534108857,  3.886828126790072
 0.419010243192426,  0.282371103373131, 42.492352459296036,  3.518539719813028
 4.846259961712787,  7.341559172528402,  8.892242075519578,  3.494936674560193
 9.073383000712042, 12.685141215195605, 74.583776764677680,  4.333106824288614
 6.473323559032671, 12.425848792006807, 28.281150875170052,  4.223409880624603
14.840325462350831, 10.847610002341170, 70.877667579290176,  4.178959152940187
11.441818041601316,  1.593614185542993, 44.694793541565389,  4.187874167364996
10.126397145684379,  1.583845060718368, 74.632777464553300,  3.797509716000493
 2.112057194706657,  7.916119319397517, 88.512255691098815,  4.304791291020775
 9.073786445998770,  3.438717582705334, 90.091001279378162,  3.857157750714061
 2.103671544640374,  8.952072482691221, 11.793174230633761,  4.198213066582600
 0.725527634760471,  3.899827459001279, 89.954569780713854,  3.792413046605763
 0.379986342537500, 11.915444797223868, 66.633722478416814,  4.024128590246116
13.118476485494869, 13.098781495821108, 73.797957145948388,  3.933695398873478
 3.971158948044093,  9.320926282359073, 62.738635650689403,  3.698700277878125
 3.480852897950234, 13.853922539121838, 65.368683803829214,  3.548519139581053
 1.007054184301496,  7.860102509883042, 31.652138994442865,  3.891870521867742
11.822257857734549,  8.833175501962250, 83.983626401639000,  4.001014009539092
 6.535168708409724,  1.500944210106672, 64.607056250929304,  3.817309121256112
 7.451042496813056,  3.883037013169223, 51.534461624725083,  3.881092962447018
 6.030880791538300,  0.688972505553060,  9.242582888696539,  3.819433522820087
13.117614350249321, 14.310017815596972, 70.182306573887061,  3.677679519843857
 4.145482626918229,  9.155946729325166, 85.011605649597755,  4.066340059882990
13.657843335495768,  1.331582506088836, 10.440942300038117,  3.888018368165808
12.210539047506657,  5.597539481665783, 74.390585810857999,  3.588055711272868
 9.300562922009979,  9.716412777763859, 29.791609776389020,  3.897690689588390
 2.400350118729684,  4.777897906280287, 33.681900591368667,  3.978072154346523
13.188476039569052,  9.948962787090482, 28.844973832555457,  4.103236584219712
11.030651436447259, 10.504207290105390,  0.430084449849383,  4.154410997622553
 0.684562055594417,  3.273419351344946, 93.774990239487309,  3.824150589706281
12.546330364903490,  2.884909507180135, 91.671534943912491,  3.746580810901815
 8.189490655779080, 14.752825346760028, 17.553253608200791,  3.899458685169759
13.048478902956077,  1.300864837944309, 83.526762044520169,  3.684148548554188
 5.183084524896778, 14.957621661818035, 14.902902061905269,  3.732588939802767
11.595253094804226,  5.862023802346771, 15.223794023420956,  3.699333269876445
14.441424107502659, 14.278264595391240, 14.910085772572375,  3.772478818704958
13.089984876305195,  4.717101582396261, 46.759321887545376,  3.990063774280334
 7.436655757494441,  9.771620039260537, 47.370037320916474,  4.131836112401364
 9.564906060791063, 11.385913146288932, 50.344363720433932,  3.832862517217412
 0.957326328546718,  3.127894852619339, 23.342442941972937,  3.857127628784152
 0.951589044666728, 13.302308425424764, 81.288322407064811,  3.765753625680032
 8.743732103312146, 10.949524336267171, 19.020337058971364,  4.187071422442389
 2.897599191176942,  1.954437147535625, 63.122359534213231,  4.087179005806866
 3.524912148945087,  8.319029023955281, 77.315992558083153,  4.241012671201985
 9.684354386593615, 14.158080016884785, 35.104059186279251,  4.121939413520602
 4.782040117401340,  5.617434347144804, 74.437641233168691,  4.030288900689034
 3.820723355731447, 12.503976921801051, 25.146005613126533,  3.986773139723769
 6.818896048522753, 11.058854944373209, 40.670279212814869,  4.044300647324460
 0.156962214367205,  9.575261987208339, 63.466965858878879,  3.860336787581021
 7.581540316753848,  6.053803222686961, 79.496393109927141,  4.246971818663263
 1.901023466929088,  0.432913570302309, 77.986484870947862,  4.159143113426449
11.698544626603734,  2.184557510675881, 68.009031656165732,  4.087588173153708
13.988539891475146,  6.251942226535300, 24.536995043344742,  3.782741502946792
 9.857658509960908, 13.611315866390264, 42.335381947525548,  4.082777845699605
 3.183520258970283, 10.686102310182228,  4.512981466129671,  3.986584866658622
12.280771978378342,  9.034588488082541, 17.660411720750847,  4.282799105482795
 7.835594479424668,  1.861641676749364, 42.972134676844831,  3.706542320964774
 8.587263074379081, 12.530634847471829, 53.980485162386216,  3.986219445955880
 1.366739145387886,  9.233514479805333, 17.943765283377694,  3.977352413490957
 2.863564920103344,  0.814358474360369, 88.874613831472274,  4.019481782291170
 7.785369479775449, 11.283699907048709, 33.033235032190696,  3.907369172469568
 7.620236717853480,  4.314981477209792, 86.398885656182458,  4.263676867897638
14.586642844351294,  5.655652608226951, 20.592044169816131,  4.118456609218572
12.700864473383316,  0.890638864605567, 33.245420999311662,  3.733863195306243
 8.330698800964587,  7.014577090360708, 83.392409731188664,  3.910900611966675
 4.126730379706129,  4.111816042993841,  1.456438549581548,  3.956922448325221
12.665870989663906, 11.696751750952126, 56.429755530798460,  3.814373224902357
 3.172992860694656,  2.079179815476213, 74.562095069760446,  3.734446532433360
13.338902229851088, 10.188528479442510, 50.273707801381050,  4.082856246100724
12.915158875285455,  7.337514080073010, 11.922018820660234,  3.981252287968042
 2.800019133177172, 12.817483210958001, 35.380652648846414,  3.579600991457664
 2.508599251599639,  1.777861430613865, 82.117365083131972,  3.979679463721188
 9.928339032117245,  7.562830439495685, 87.177815638976170,  3.834052962992782
11.508931178342140, 11.908508227769614, 10.987265679768003,  4.244711013202617
 0.751513641495700, 12.793933140208415, 48.398635387616913,  3.934971144214074
10.176840086730653,  2.696601325504211, 81.383517811337768,  3.956436789493845
 4.582503405725470, 12.960495469343938, 11.630777274482080,  4.025719539960628
 5.626578794329529,  2.429575508133997, 28.551610078545902,  4.003361405443735
 9.369194207270477,  6.145256084777036, 54.118086526791693,  3.856012986518072
 4.931211370862679,  7.661562938802573, 59.394702276615803,  3.957153492448338
 5.804764122701871,  0.091377398198865, 68.429999488958956,  4.457513339468998
 8.619892802227421,  9.848791388036533, 66.127269524282866,  3.906777886414374
 8.277232112753580, 13.229146036544595, 13.120568085130476,  3.931406002455509
 9.539825544526758,  8.378675544167089, 91.097431464984680,  4.170078762650988
 9.294843344878332, 14.393284049992769, 70.757231797509789,  4.048333674504003
 1.258711939336614,  7.686811971479192, 41.060761493215551,  3.744804846415610
 0.153614453402187,  9.021610017199963, 74.507788089590278,  3.976692510033502
14.423054887329375,  3.349261784416121, 78.905738746659068,  3.739032462805259
 6.467027196586647, 12.459485895362512, 63.592725249012197,  3.925197053187863
 5.028358142388575,  7.127528407332600, 68.457165918639092,  3.651496250669487
11.500862390552054,  4.811782911976675, 84.571281874923869,  4.135391100955236
10.776536380663815,  4.080877999743493, 77.636205178780571,  4.112558454520669
 3.537983086781393,  5.560901955315555, 29.821839893684270,  3.496041205293547
 4.185871757709544, 11.675462338224852, 54.141971890950224,  3.873830092185900
 5.623317509295995, 14.517945327530049, 76.288446296787214,  4.161826908355030
14.347299056709515,  6.633681223573445, 71.213662839238509,  4.330428062786369
11.328312504677914,  9.345644329213661, 72.878664959806684,  4.414204095524314
 7.741798789170240,  9.109026289238628, 61.850671800164619,  4.045628516027315
 6.461447016508935,  4.344542943652340, 61.806973578823104,  4.156584147217350
12.894283340119630,  2.733477909213600, 25.671109973999709,  3.924422583534470
 3.639341965049169,  0.495925389113126, 48.620019869963372,  3.996157353936928
11.065386648344118, 10.309711382888418, 35.316485784134848,  4.059937626547634
 5.578588090949363, 13.569987551653282,  5.972184000448822,  3.799550077955387
 8.452542357041626,  1.917936575957615, 21.009644783944928,  4.210426115098348
 1.078121584922151,  2.002445646966425, 19.555781670287192,  4.041402557263329
 6.213823503418029,  6.994428621632282, 64.859818712954677,  3.918633195141247
10.901389719763822,  8.266342506703673, 21.482489011615939,  3.977026851331679
 1.105392944057591,  4.898243884476674, 43.945366386263551,  4.282964345401070
 4.313887664753643,  7.700883484825610, 14.954696845164341,  3.855779549474205
 3.922840352435621,  3.740548183157131, 41.182352742865206,  3.936630521934093
14.315499315507326,  2.520124409201904, 71.852905871824007,  3.982672636026554
12.692227737672761,  6.461407667680729,  7.914568697449500,  4.211744140012290
 5.241285331108566,  1.479223324286972, 92.416204729946045,  4.211894504426844
 2.921413171161762,  4.270795477313264, 70.855590079324415,  4.289972011396595
 6.019303515263713,  9.570679746117385, 81.512644298242122,  3.815457864537245
 3.065090550667072,  1.954285295753066,  4.724434410442448,  4.110579252315024
 4.844568758737076,  1.379422231869514, 85.379084833752259,  4.061591603139281
 3.170451156626447,  8.361505487377555, 71.862731505727353,  4.149786433893978
 1.025155626830639, 13.209696545312198, 18.293188088554519,  4.007230800085432
 1.571489398552347,  1.345485654221336, 59.243599739741619,  4.007946337256818
 0.550217771787878,  6.925149336524638, 27.965896357969871,  3.753828321318049
 7.908474043095146, 12.737488904862104, 80.774222284417817,  3.672307096093057
12.582212174415041,  2.076747359219841, 21.585713046574480,  4.073844510779852
12.471849442165764,  6.582876309613935, 43.331122838478983,  3.831417135559050
 9.151150626947178,  0.325958012472857, 78.206908254840513,  4.026812658450116
 7.132450987422260,  3.182191578092130, 76.404210236954029,  3.771078671067984
10.654052661523616,  4.946778768572602, 23.413890291421655,  3.716285345218578
 1.547353575994579,  4.819206379163814, 57.258088325054764,  3.910158480907457
 8.790010538951515,  0.193877223028200, 50.422122720983275,  3.991697923076741
 4.231372564807596, 12.717362511943264, 31.807388939657478,  4.116654671860140
 5.525850009832458, 13.335271549475481, 72.434564286100269,  3.842472890935255
 0.778457461710691, 13.751747078843824,  4.520985809548557,  3.763410884367042
13.667557682523322, 12.973794265414048, 44.918607972367347,  3.914283334533199
 1.686879756269276, 14.361557913565299, 52.053926766464286,  4.224830842479238
 1.553891827638259,  7.045425779577829,  7.493152988043514,  3.676898734751570
 9.953781378202615, 12.284887678834634, 38.601228455361216,  3.813444314095203
 1.522821453024561, 10.107176744067690, 92.067618184820390,  4.096482310121460
 9.646456399572283,  0.276398720545467, 10.135167809132058,  3.653309964869115
 3.848676569057296,  4.158533663342058, 78.565571824628805,  4.323620845695939
 4.723159717159525,  1.467658116114360, 18.306746658550058,  3.729487859166939
10.356911378345478,  1.282857338111007,  3.387252769325257,  3.800661140211303
12.933885098605115, 14.860632122909719, 79.444136789325455,  3.975560623512343
 5.720270359349095,  0.711250205676519, 80.118564647920977,  3.863402672081651
12.079744150619989,  2.143675523181951, 37.261176105707314,  4.699369931391586
 0.479778323961900,  6.837257730526191, 14.883707029068088,  3.946718898250275
 7.314092305967475,  6.555827591546091, 71.478702643867422,  3.973282629333618
10.776859429680639, 10.192188686849519,  7.130047738155588,  4.313858489212277
 4.902238884370912,  0.689390022724863, 34.356126654932943,  3.869581917397029
 7.925677036750382,  2.620667256115994, 55.224994568829359,  3.967841580979274
 7.250619587527721,  4.318533714994865, 25.282520733198073,  4.147445871895422
 4.024898941379357,  3.644764153798717, 66.812032705236533,  4.119953986820156
 9.327603847444079,  7.283415540115704, 50.200793392035450,  4.296228280370856
 7.381679378965240,  6.472918731661888, 21.873448463619859,  3.901033507634409
 7.923767724332572,  0.028369640940179, 25.084536964575481,  4.538912667739817
 0.545090096453297, 14.102310648067578, 91.688213548005848,  4.045896344162954
 3.947501438690125,  9.592584995489634, 43.105732385789558,  4.012376534048434
 4.968447577846260,  2.291472784548502, 37.795481518156436,  3.718770122119066
 5.583677486384270,  9.196465784897311, 30.667197542977849,  3.727053602797798
 3.005984475963897, 11.115212795175298, 20.907255717243679,  3.763389522859926
 1.947077619494006,  6.343436828733478, 37.388914661196267,  3.767675318073236
13.282703639452212,  8.540985233396130, 66.766786989085318,  3.920140042547176
 3.835192842261419, 12.076120471638163, 79.034121279743729,  3.913679116037315
 1.164271742640545,  3.141060197713889, 27.817522619992669,  3.830650586856759
 8.075346759197519, 11.912099107659373,  3.372000740571493,  4.068547445197553
11.954034701536306, 14.266678707607433, 24.266334390617626,  3.823999080547529
13.839137177338459,  1.481064241528741, 75.628306064120693,  3.892660290543930
 6.306749121289708,  3.591922217696432, 47.969706918730530,  3.622995803409965
 7.977186100534088,  2.681820469040107, 35.564655748841531,  3.807749888451716
 7.372490917750524,  1.914013926162094, 12.581775359660991,  3.763976753058436
 1.632526293593972, 14.285118115942662, 72.317622122096992,  4.098698441773085
 2.495482636801723, 14.978174908866080,  1.207660971780900,  4.056695740281339
 8.144551936588652, 11.050756448589873, 84.994388032458261,  4.780872331050262
 5.863248529855663,  9.826550421663844, 23.114659382741550,  3.860591800204634
 9.033489779495547,  3.102435096844097, 15.817236189039079,  3.871799476378348
 3.948573000951655,  5.319990597355589, 11.898863218567101,  3.917879722712721
 5.251107794014534, 11.564567954141204, 59.922785052024032,  3.911097888664686
 7.600012196278117,  6.039160481080482, 29.151052942944933,  4.305424298260379
14.886048845310221,  9.082185141941684, 35.203467876030501,  3.942694963502437
 0.829440023687851, 11.889590993644614, 88.166369061321987,  3.906852115037153
10.626867358221537,  1.607298189781857, 86.815842533653750,  3.865925539780100
 9.493443544686205, 14.167412742211472, 61.898897912584793,  3.761048623765555
12.823762217279654, 11.243104828843251, 90.712644989508277,  4.113671288522283
 2.327708990585509, 14.649990021676762,  8.057974785088591,  4.146619426211660
12.228051077151305,  4.677127378440717, 88.418045576879251,  3.689228248822805
 2.847623654930314,  5.385581706779631, 17.933563665584465,  4.235334871246484
 9.793769589000245,  8.101492789588201, 40.004173648689594,  4.302938924927933
 2.790002076255190,  6.248483862258584, 92.288171235108365,  4.007431870925787
 8.515883686538203,  9.163953669619154, 43.648274916311969,  3.704573429756305
 2.708520192634874,  1.521168305740981, 11.717496123316799,  4.030536020745163
 1.453496979138134,  9.245781993284563, 24.956268535590354,  4.044393704640554
12.240469807229674, 14.742338597817573, 48.322117884422823,  4.135909974160467
 9.121464782808362, 11.615534382347164, 59.007538441700042,  3.976586728846870
 1.743034641356379,  8.697140561151105, 68.238212171494752,  3.642889393405472
12.063183620128131, 12.478091659940791,  3.870460629775129,  4.038777245651690
11.143816475335491, 11.157566409591226, 68.966995389885042,  4.128262097065006
 6.203036733382510,  7.720843704431333, 88.145142816761208,  3.846304735828195
10.004628452012954,  6.117261001464305, 65.574622399918383,  3.963803667935980
 0.478734318708595,  6.939951847431260, 79.703907624647044,  3.926663345470690
 3.085941859970998,  7.317933878524015, 21.791642096555037,  4.032785049748301
13.309791526267302, 13.997588371236390, 59.586413550827423,  4.099831388428383
 6.888035627585746,  0.446273243041597, 88.749601551601771,  3.995021868752824
 0.295483484101805,  7.524131694545858, 48.189421905623547,  3.731169412282386
 4.979349403715802,  6.506920270182553, 45.429385338213216,  3.951533220186000
