BANDS
8 8
NANOPARTICLES
cell(1), 15.018
cell(2), 15.018
cell(3), 93.862
 9.884792151717960,  7.959829648710933, 40.112691330492943,  4.147146097214080
 1.892355050310579, 14.926671762522608, 59.082099291900235,  3.874000302891526
12.096421922469567, 10.394573035076208, 85.043683850723511,  3.807840406112855
14.516459971691617,  8.700479290060819, 87.451089364197927,  3.787889761853262
 7.503636644919080, 11.246412756603439, 24.335277981156590,  3.794190565726838
 7.406409869207365, 12.736166089198365,  0.141850927440759,  3.876463569940753
14.262031729813254,  0.054239804598919, 36.892647554813195,  3.918965667740752
14.412099037931862,  1.267624270826049, 50.491648829313149,  3.877806439898992
12.377747671306478,  7.674114161342422, 26.957769430354418,  3.794000645104474
 6.884881959295311,  1.073422858087347, 91.263968973155144,  4.100362575515572
 1.694818252777711,  7.673650120268459, 45.733499995968145,  4.378744171988179
 1.754793930143030,  1.525614182838673, 20.119760728188297,  3.836993702976333
12.317173013897280, 10.283386976255166, 51.153661054699199,  3.750463580162270
 3.883590355052773,  0.704698448284713, 13.506277686872011,  4.012319570631409
 0.076225730984533, 10.872408978023904,  7.822194686220596,  3.665010766070630
13.545154073333071,  9.787612621916681, 39.248587273790562,  4.184375145694595
11.652022465933147, 12.359075759598760,  6.196294073811986,  4.414006345516219
 8.208798342195850,  2.957085345819075, 83.598162680271088,  4.124511109349500
 6.896539203338230, 14.275966740332631, 86.420189104135801,  4.224908520258013
12.552990640373617,  3.970461445180178, 52.503114539896352,  3.799388332681395
 4.051238026550147, 11.366714097992753, 87.641272920365012,  4.230158446578492
 0.679354018162615,  0.000234811145826, 44.368490884861522,  4.468300322756869
 5.485978578780637, 11.087112652294248, 83.828952235960784,  3.933332925242210
12.485112637692064,  4.528844862419573, 71.538329392363892,  3.875330394472081
 8.506172957978244, 11.085847483649415, 64.031771110802325,  3.781640683546234
11.766143310931190,  0.822693966585245, 64.972217833125441,  3.992151937514210
 0.196939652781856, 10.041063931641562, 25.311476282689050,  4.224869270186417
 3.506522138554850, 11.956963345842203, 14.694867689138160,  3.890671195349098
 8.457312033939392, 11.279097495302780, 53.977400469826023,  3.717424192949449
12.429707108721097,  3.029050783554869, 13.520707397595150,  4.009650470931647
10.905292308389289, 13.506171323095099, 44.840544890365372,  4.168895231941635
 0.506721007159741,  2.105718417532874, 86.563570158592768,  3.772629158254188
 0.889192464770269,  1.429045169123653,  1.942859007905856,  3.847344933626023
 1.315674796964621,  5.483266479981898, 71.755214739762692,  3.875020656793772
 2.474503526830898, 10.367209874568006, 32.636032398423509,  3.780771643671423
 0.657326002990677, 10.493861520164842, 29.261831389694908,  3.777507682445160
 3.265977643717438,  2.754667700854232, 56.922085289381030,  3.772401416179447
11.077415694757146, 11.375574560119315, 69.716559423436863,  4.077867376077241
 3.585629609901317,  9.126570321566208, 67.794075040022250,  4.026826028341452
 2.369816258125067,  2.478405882694072, 30.086124699927073,  3.988863868938811
 3.071517050013436, 11.152903046790588,  1.358260639198872,  3.813858485901699
10.101990328405849, 13.472557414729614, 22.151465884458855,  4.047710345560435
 1.202953675751584, 12.501678895015960, 56.032288333053941,  4.009997594227304
 2.867983458913181,  9.089109006330515, 71.746001883783705,  3.969096352106964
12.791620633189810,  0.097901227107843, 16.088502202868053,  3.791349335355649
14.496366060441398,  7.023300782606159, 50.976220113380570,  4.055450286991759
 9.284346377468534,  2.498640478160581, 77.454800594587098,  4.142884103648858
10.426842914567823,  6.848642285817435, 50.827774472947780,  4.091378070973645
 0.049717224080705,  8.730342339801281,  2.553234457681508,  4.119787815835680
 4.722796875531801,  8.640682267466829, 20.310069611762096,  3.978778128325700
10.615087843570608,  3.499959272663078, 23.107998318757254,  4.108150302352143
11.961017088529195,  4.416871831327315, 17.209745052317555,  3.918957166681639
 5.818806348951671, 11.768732899888974, 30.259738179367822,  4.095633805979683
 0.502216018500704,  2.826120637146886, 16.645968462695883,  3.926124025703713
 0.580571940036576, 12.716915494757064, 71.511401014628078,  4.144595605985608
13.704926122110829, 12.355409826681655, 19.099652862126810,  4.007766339948406
 6.608096637048994,  8.880071403958651, 35.066104595297077,  4.030308907891872
 9.513234002918932,  8.287607434707107, 82.881051152360115,  4.127545416985275
10.019136745651185,  1.338087511277747, 29.152355245140583,  4.132207824218505
13.445656839799387,  5.242241270855024, 30.010152807123081,  4.289906115469273
13.138831216222806,  6.669897466905388, 36.515460572804081,  4.110255941469202
10.055822257379187,  7.516190613015969, 71.682229947736829,  3.808501464365770
 3.241564147402993,  0.345630044151207, 88.965234281434789,  4.302866789631243
11.883422619242488, 11.113591420899644,  1.754865076207334,  3.993584441746254
12.079723810887236,  9.088379952835419, 77.057237595837393,  3.959324479669590
 6.517130334430114, 12.443499800360486, 61.000106795598796,  3.959429650103311
 0.349788249793509,  8.126732531023503, 61.870848572240909,  4.263832701109870
 5.844734505179493, 11.061245060442864, 11.674375403443612,  3.902121283076165
13.928754489237759, 13.599402214802106, 86.425381747878419,  3.965286377986406
 0.590040791423069,  7.357174393649674,  6.302448674213679,  3.870397904180185
 1.492747158400171,  0.979887031196064, 33.710106450243039,  3.995699431410213
11.064685926534244, 13.758910243245571, 76.535010252077768,  4.364918876990586
 9.270124715960806, 13.250592872000428, 31.449124252945957,  3.736428900489405
 2.234682147268413, 14.542580146978443, 48.331622171319346,  4.053239935824558
 4.936115094212354,  9.060197144451015, 47.871605379775666,  3.769586228906501
10.482373088595871, 11.324157157899599, 79.987677250681955,  4.048983286296841
12.367559075139935,  5.023650182694392, 56.321514717856047,  4.117205761457714
 5.425209633348018,  1.671479934766549, 49.497490194656677,  3.931468851481518
 9.683476259154077,  6.110286040849497, 63.825011019152662,  4.382541694094209
 4.393123476800405, 12.896321821656297, 26.691351629362998,  3.841784659845325
 3.114745888887817,  8.856594743980434, 56.010184662983328,  4.167459816286162
10.012507136812300,  2.821164236607107, 32.829819589877800,  3.788335378512709
11.469484762525655,  8.074952967063876,  4.352689804405069,  4.006666827426710
 2.465057122235499,  0.666957981001356,  9.718210632609683,  4.067694328137849
12.530312014978740,  4.679006899615627, 40.191017414784596,  4.263732678703354
 1.044283675164439,  6.636558982833208, 39.502434610453420,  3.890724498071898
 6.153125349686336,  2.745449187172103, 80.052002540963628,  4.007645100127787
11.613638188223577,  5.923543917472270, 45.046073322039021,  3.738196168901281
 5.807613570995934,  7.980889263408112, 89.054735163744809,  3.883782418193042
 3.003698631123252,  3.994004431440840,  4.268649109513091,  4.263972616789521
 0.536922511747243, 11.916916516469195, 89.532846127854839,  3.804385480577457
10.383168464964172,  1.921180643394801, 69.615129355680978,  3.813918203931065
13.862666186081869, 14.202503821755865,  9.128203019544376,  3.798023911384426
 4.283930364159450, 11.367371349948607, 37.450578986843063,  4.281132856519491
 5.475867665782234,  7.043963116513596,  5.873336870376536,  4.213322455872763
11.499833390959502,  5.237432542843488, 67.629249643440488,  4.215061768666895
 0.200785916473408,  1.759333363244929, 72.357195167043031,  3.953667398728038
14.950640661359563, 10.840768236645994, 68.013314746785113,  3.899223332735113
 1.917617813528705,  2.647567644306348, 92.209162067358861,  4.019657642870235
 4.281570216228015,  0.095275606418259,  0.392238659790136,  3.984325332004433
 8.206626080624542,  8.926034139354645, 27.767875839584764,  4.459860644053850
 9.572873694789005, 11.593639959323246, 48.702178158679821,  3.843862088195782
14.194206173100863,  2.884264434967436,  9.999858837315809,  3.832638071849190
 7.210523895619542,  8.078357527547789, 43.026832840468415,  3.747872481742471
 6.736597359981895,  9.202354546506792, 70.267568519822433,  3.982795607918307
12.023706691294425,  9.990168563389176, 21.919442193411250,  3.917126442008499
 8.051799580337439, 13.072376412727042, 71.792815953977666,  3.998486249150960
14.841274010617198,  2.738468126344434, 23.462227251602400,  4.215242508487551
 7.722754859088561, 14.994310743110141, 42.741263634840678,  3.923710820496181
 1.566619428260527,  6.503642816774324, 16.146068742542326,  3.794500899082554
 3.630576754095646,  6.472205634345254, 42.353877683917609,  3.770700425560795
14.700132333211593,  1.829341895648364, 82.905407825195496,  3.731053654848533
10.725780616887086,  6.540525437407671, 20.359558049232493,  4.056683482446151
 9.835657485605131,  6.133036468338893, 75.553497677693173,  4.033335027304903
 7.321979977429145,  5.506550568106721, 33.177160691966527,  3.827923313999751
11.206502544517695, 12.801252564223949, 37.856873158661010,  3.910489212468545
 5.299651799155372,  3.051606354276144, 43.110152299652938,  3.916861021319247
10.745020111568769,  9.536718999251873, 43.823858580377831,  4.022133336090571
 7.902327633498765,  4.699207013957350, 60.235881244729569,  3.930639628959004
11.097842423056736, 14.281446036468502, 51.174596799538996,  3.922484680980730
 8.505048915854076, 13.024710913846762, 27.670689694362462,  3.759074548806150
 7.782076894154768,  1.317528586775234, 35.526252110642929,  3.822351988433053
 5.297543213572957, 11.239177595272123, 74.045812365175678,  3.959418581860334
 7.024483204352932, 14.636329794729392, 64.216121325037932,  3.880892630754135
14.681687450160963,  1.747237971471503,  6.192294040495444,  4.145966398094830
 2.981575539370778, 12.999976009273833, 66.698350772027439,  4.016788237967305
 6.614595948409988, 10.631123288363561, 57.377756222261837,  4.105184727524366
 3.590866378259426, 14.852125598493059, 73.298401241290819,  4.049835686007008
 3.687996413058725,  9.984740878052667, 77.503508941129425,  4.063131837277370
14.700734196445355,  1.608797840831435, 55.381705842182136,  4.355199385828059
14.061464585335642,  0.622963025054249, 89.997443741725959,  4.258287282811199
 2.152524988953745,  4.700421550622788, 33.159823130980911,  3.598734529694911
 7.450752049886582,  3.406378852910665, 38.876467679792974,  4.101204925182141
14.351289202342103,  4.603730065633842, 47.619044376681835,  4.224800109417209
 6.487612108159738,  1.531689637204914,  3.648788974916132,  4.335776658435093
 4.937617523075564, 12.044997879387907,  8.138361468070821,  3.638992749400994
 0.326357452487676, 13.379512648102843, 93.313589975387004,  4.135244093088577
 5.438456309976652,  8.055390742331202, 16.332233486806700,  4.097797035745102
 0.640692002208645, 10.290137119421120, 74.859756624289076,  4.025675789297567
 5.104320428398617,  5.301335388112406, 28.958373668134097,  4.102609486676732
13.606753989403581,  3.591101035928673, 33.690944884377757,  3.761766719529721
12.139974120759311, 12.962444141205610, 28.963339232472119,  3.866503469439712
10.593120968272778,  2.690013079807395, 90.745141066162091,  3.947717036529027
13.800860225577662,  6.440709538268430, 74.705341314173197,  3.898815237624643
10.738279923353224,  2.758477941762707, 61.840791372030822,  3.651205945204520
 1.424431694193476, 10.057242416777404, 49.123634216273253,  3.919659460698654
 9.112652488787319,  7.140525707899518, 57.265498557570247,  3.851992048703846
13.975770438496014,  7.631462896846219, 42.608298715876067,  3.844401971152349
 2.575852943363383,  7.721939100897719, 35.778080492936425,  4.434865333212427
 5.304452983635740,  4.284303993321977, 11.105782808877974,  4.030636039563094
13.751553334304866,  1.006877370295391, 30.803419076894006,  3.937655207535509
 5.461442722475416,  5.854219131081197, 57.402559924060476,  3.884716180035996
11.064429274419554,  6.538534620813410, 33.078671766535273,  3.896408595122457
 7.945398303401578, 10.283148378829479,  6.385075984453295,  3.991396657300275
 7.201960500704960,  7.725260875900637,  9.716805017710641,  4.287395256409820
 9.237806023455171,  2.865868159341345, 50.466432497327830,  4.250149360248019
10.590371061048026,  1.464168541004390,  9.080021145722453,  4.099596975079901
 8.478521201403275, 14.172896510610306, 57.986188198520658,  3.983964139716557
13.070936270634636,  5.938750569217827, 90.610310328804943,  4.209009224046950
12.108956300834084,  2.248423278170595, 43.615380826148403,  4.085258759195566
 7.956346070239842,  5.144983481229612, 17.719692276857071,  4.080735808608966
 0.969466800552937, 10.686995195513367, 84.379103301573437,  4.082479212964969
 9.282698383999199,  2.061358991849078,  0.590266662183984,  4.004924892625160
 1.292697471455089, 14.122244517673682, 16.884185757459388,  3.688842351205616
 3.986769250061420,  9.100366249247081, 27.804795605010433,  3.986970680695177
11.848518399562256,  6.852440477295257,  0.561098601660961,  3.993189331861445
13.940312363953590,  4.788062904556980,  3.422990084338004,  4.199292389907042
 3.183010734108474,  0.787599144717388, 53.002014293893261,  4.261819029053463
 4.979981337104991,  4.497073626225278, 53.646109913726946,  4.071430024873293
13.492930534409524, 12.747894177487517, 48.199173339791159,  4.269272806313635
 1.926674919972507,  7.144651615875492, 30.433657782847426,  3.719471892347045
 0.407835443982968, 11.348586836333244, 35.947003846065464,  4.016458331521474
14.675664821597179,  2.523388519084432, 27.387708690593460,  3.649476165123693
 0.680867639808857,  4.203025954093744, 43.554586537607804,  4.045872477694251
 1.602422147077876,  5.954915396232705, 58.529884872482050,  4.089764845626424
 6.673867910172775,  7.985626850531887, 54.424332364856078,  3.814861482113638
 4.465404978041212, 12.408371245195100, 70.307570419333970,  3.864831928556616
 3.952285576573815,  7.668621811659200, 12.640045719007617,  3.865117330518419
14.528847536681075, 11.471065064455670, 59.545247177803965,  4.036604633511848
 8.599348900307763,  2.605468668747083, 12.450385743573303,  3.822373924878280
 8.775505910897163,  7.916645466362533, 47.115830417460643,  4.306275892694478
 6.053153607030167,  6.559970990600216, 65.916462120395494,  4.019808299323789
 3.780073411621038, 12.268138271629606, 91.585626311816924,  3.877187256398051
12.597702693056352,  5.046800723626188,  7.226276488681191,  3.879862737479973
 5.784446406367253,  7.700327401827997, 24.514166841026977,  4.004361740812874
 7.911972310997419, 14.279513303240643,  6.894168806200276,  4.059161471995743
 6.107815558772313,  0.842665212947526, 28.496661344954315,  3.793879931541719
11.881312650497993, 14.442676210173088, 72.374699850681978,  4.188209714478097
10.550393775679058,  1.174837117914347, 54.726879352902600,  4.091866520190435
11.470163847463628,  0.984833779122570, 84.645718359789669,  3.658554295464080
11.376805026979630,  8.357772505355255, 54.373809389745333,  3.846034780252128
 2.339285277278809,  8.712671074966211, 90.677159611956881,  3.877765591881169
 7.033559192539991, 13.468362838852952, 79.012319235999414,  3.730383150785492
 1.073036315093101,  5.498198424116477, 54.440979705818762,  4.114482569945507
12.396065560063770, 14.964208052031688,  1.613075610456301,  3.780346258323248
 1.125550486971607, 12.844758354702179, 39.542200950966482,  3.849905276614273
11.736598147781837, 10.117467418095169, 62.095237288693163,  3.992850081886544
 2.327087071996114,  3.000932336964482, 62.149977463381575,  4.286987978643431
 2.923838341452110, 14.413826542401452, 84.723195248745995,  4.361761392055974
 0.643471492420786,  9.431715219259425, 13.774513440958115,  3.961015030546895
 7.542550564091481,  5.123057352064687, 69.549946131679903,  4.337715337231313
 9.365378395078903, 12.713596597244457, 83.534126456040426,  3.829392842110792
 4.567096774559856, 10.161075603529548, 63.892122655081266,  4.280378133701154
13.176954835990578,  8.330849712509368, 65.428923068037918,  4.078127401839540
 9.750932093331615,  9.695051515052185, 92.469880605782251,  4.079709257429513
 0.501573498413085, 12.747753330693033, 51.967016551967362,  4.085339778620231
 6.546746662398689, 11.562256798477792, 67.204195855826853,  3.729656063766030
 2.469529227335284, 14.642598631194403, 23.696291686016124,  3.966458880960930
 1.021838155100602,  6.127534065844625, 26.719836436637422,  4.170690887875275
12.178310351079322,  9.287879321065461, 30.490417025084216,  3.976453756771813
10.873948579491545, 14.254545160310979, 12.625702804272221,  4.289029359369970
 0.304832054889943,  7.059905831288147, 68.439194989413195,  3.739133207336888
 3.292455211384464,  3.317086171452444, 83.092186069081336,  3.954853454149324
 9.746784844811335,  7.525606524234153, 24.114830343420945,  3.944295532384356
 4.644833507707768, 13.453743814982252, 33.846805265585338,  4.076893237773439
 6.149983681489256,  5.688216742115767, 49.655276627566600,  4.230438286462241
 8.084645067843965,  8.704739166712207, 60.811879848819260,  4.156805348572044
 6.722303054105038,  9.760911494217403, 80.240291048746315,  4.100323777462245
14.905545889391995,  3.266726586943899, 68.737496842133311,  3.909138582750250
 4.988071489835305,  4.509402453427076, 90.527236234261636,  3.829014748104250
 7.280056911073547, 14.796809647910562, 52.589481079019826,  4.202223507293639
 3.769678351933926,  7.400615137789750,  2.288335931559984,  3.754501696058515
 5.459620535909532,  5.974917743153790, 45.673627913930879,  3.860084853953423
 3.297766654487909,  0.433738484790180, 37.346830211615170,  4.110184235000839
13.193668565022495, 13.218932610392926, 82.434849931833000,  4.178424346470641
 4.785659520412241, 14.892927003567600, 45.275373715233187,  3.835522088022602
11.952076891581187,  0.250166745490979, 25.497888828320431,  4.385247594791026
 9.079351766987820, 10.208486136978374, 13.425435887036711,  3.649309938940144
 4.973746095483859,  4.070994384926663,  0.590473837372567,  4.066936574500126
 9.656810187654710,  7.525959450814779, 89.139581486745627,  3.855431840135362
 9.717658832620721, 13.120849324249336, 17.953764168014267,  4.386764249742332
 8.282164636382296, 10.663301607401616, 76.637764708658068,  3.940516303891259
 1.137840260238445,  3.329093967388355, 76.132593010100834,  4.375159794999156
 4.824392448702755,  2.532123432918616, 22.334760161257609,  3.995236355369587
 4.659043344482392,  3.493292169794505, 72.061655699643936,  3.899417372981736
 3.077335346473589, 11.515696614783234, 45.694477006279278,  3.763907688681592
 8.329230299053036, 10.237267544600074, 20.614597090678362,  3.932152304673316
10.522018984568660,  1.006484530535504, 40.082127530418703,  4.035958128753919
 9.275506447796097,  8.726919383756632, 67.146480049154334,  4.112274909697691
11.859356033847957, 12.024191958139742, 65.716224156777130,  3.774206209210457
 5.051454715352548,  4.175508293702328, 15.098127068427445,  3.953420558230492
 8.188405812103547,  9.561315271803345,  2.414830086386731,  4.083922637528910
 9.675825419957329,  0.446838724268298, 80.862231042474875,  3.845319156979730
 2.990764530111923, 10.291920730340079,  5.240286708135453,  3.982262604343461
 1.587763682404242,  4.098489193236933, 12.956694864064302,  4.174834370415518
12.919377836417924,  8.643458814992361, 47.572305630484827,  4.106646013980210
 0.886254333736581,  3.685852475642838, 36.843459123239455,  4.037626628245871
 5.460461992871757,  3.471405812541276, 76.049530442578046,  4.229393801352183
 2.200492904021812,  9.918848014879959, 17.659027447800160,  3.759161556607857
12.423928724728748, 14.535581984644608, 58.131057371017953,  3.915569618750709
14.906840794495150,  9.465255640892712, 53.912623686739515,  3.608264412693639
 4.553633825819794,  1.842502328135015, 66.246175366472613,  3.903809246330745
 8.586116669619493,  4.585152403249709,  7.226775506772843,  4.165376310759654
 3.509143902517565,  4.873119032767140, 68.550442580099570,  3.987003310656977
 7.491118730997391, 12.138342573996241, 90.012750678332196,  4.168885427260801
 9.171409269879282, 11.877697313611625,  9.787156514948517,  3.855886610465058
 8.954705033307439,  4.601816236497724, 42.495971194969407,  4.089706644659882
 8.350853473713446,  5.645456731907548, 92.552268802305562,  4.298493037865024
 3.691780560449742,  7.653039416811387, 85.477594536760236,  4.358298694578055
14.950298144810246, 11.606257072433023, 78.834602251057660,  4.455973492371639
12.324146564478285,  2.552360855925792, 74.869309728224664,  3.838995953674397
11.820591040415030,  4.632158609310391, 82.265849077341016,  4.267232822914180
 4.825176421346540,  3.933543537131576, 35.788448485452463,  4.037960383738743
 5.596398552761761,  1.313242928456672, 59.982424238018851,  4.248660836280145
 2.547474535262214,  5.862837681053608, 22.860393323095142,  4.140691949776349
 3.790432203127862,  5.670802997163547, 78.953487124926369,  3.756015035079361
 8.523592670739331,  2.786984450010598, 87.515979212873134,  3.725334486442491
 8.255652064828299,  1.665317807476348, 20.102741228495557,  4.366297541847287
11.646244898937551,  6.618857367759167, 85.891891940422980,  3.942997793640906
 8.460805081084127,  5.375660414371813,  3.024827817173400,  4.378751366501429
10.578857548355808, 14.778904987168781, 88.199134919949230,  3.706633934577348
 9.006860800992628,  4.874003641826905, 54.056562243092806,  3.989036619844359
 5.744157767737191,  2.018709860471424, 32.225570447295539,  4.053121781421001
 3.266386390031584,  8.704833943202818,  8.900597871077840,  3.984684928127232
11.658182708947221, 11.037253597463422, 89.015731973613100,  4.222929721498208
 5.497562664604760,  2.217034372446300,  7.855155563238230,  3.682930627171302
14.637596272262314,  7.054867690725930, 10.392832599440938,  4.555059775744112
14.280455925134333, 14.667438466992477, 62.043593738122532,  4.059486673591564
 9.320246242548993,  1.756023022635570, 16.118430148105841,  3.823168276831255
 0.133568230657013, 12.835262063549692,  3.649031530233872,  4.275105152954588
 2.705777240549905,  0.715374094599347, 69.531195120640021,  3.810217950838391
 3.277572821030038, 14.713915626064761,  5.784974278092277,  4.195635623399989
 8.348215026898195, 12.495550714686555, 35.126651279094673,  3.978889549877019
 5.755848984512474, 12.659457592045728, 49.308594343648963,  4.152801911651903
 5.726334664342892, 11.749395902886313, 18.005161555926961,  4.012485677385039
 0.546259968872291, 13.788935198886035, 27.131572827615411,  4.065994408558568
 4.512468809768562,  6.610505365566522, 61.544209332646425,  4.233012889128275
12.363176092202938, 11.268118172374152, 15.198423321337751,  4.102485781189943
10.226755289094184,  2.529114209570992, 58.281727169037502,  3.530036956191307
11.463442735001962,  4.075488910499899, 26.820122334434021,  3.572544546411223
 6.070697709112478,  3.469752660102869, 63.254845717091101,  3.545040264908351
 5.987637720426741,  6.211443817980013, 82.202148427936919,  4.141253675482472
13.590157642809482,  6.676050797262494, 23.399486825864681,  3.968970966567352
12.237509120022587,  7.144199185231638, 14.122311488837767,  4.288367952565010
 3.595238297902436,  3.762351550323306, 39.681548963351347,  3.792343855872059
 7.814005792252857,  4.623431417127137, 26.049998977718882,  3.960268575566698
 6.038584767971620, 13.521591812425234, 21.591949014828003,  3.897435459454680
 8.157515433545081,  0.022975952917190, 47.247555627804800,  3.755591765756053
 3.387175835102497,  2.716214562393348, 26.159642209622579,  4.134438672826908
 0.324084108821521, 11.490787137697028, 64.185357886329314,  3.889411051325705
 2.350102567581187,  1.298254996002737, 79.689540299871496,  4.145490743518731
15.009166452953618, 14.846227592273122, 12.843473348350557,  4.075480901633239
 3.879061947003406, 14.909343229882456, 41.315212349492491,  3.874157870190395
11.667666840065532, 10.152815401644270, 34.786269249662517,  4.174498553328224
 0.562618561023043,  7.531195672348680, 78.022862045055419,  3.922945216404005
11.846316679952153,  6.526179793772396, 60.162933805784846,  4.158299685864525
 9.666104768109339, 12.073110364841622, 41.203661308376532,  3.579112687635954
 6.553425666645555, 14.820428447424197, 10.657959718898859,  3.984336286339914
 3.357079771455971, 10.240427294549512, 59.881452139429143,  4.062396923312710
 0.217865747503769,  5.480130811026498, 84.585423695494526,  4.026907719559822
 5.769337293836729,  7.362366100199080, 38.951058463271401,  4.460366047771013
 8.420934623733938, 10.227976554598943, 86.465842293515436,  4.080067982866245
 8.696566668226289,  3.804840929996385, 46.456749565175564,  3.994844909806738
 9.256277842547407,  5.313818375451659, 29.754503070340768,  4.039576788697242
13.932161666632817,  8.429892261216059, 57.283352756666226,  3.619170301580517
 0.863407317766932,  9.242087972838226, 21.275796295636692,  4.045674961864533
13.693477182975215,  4.405230989890319, 63.983317920789744,  4.331301640599472
 6.302590633387674, 14.692314354922452, 82.486438506371513,  3.757340366219671
14.087229403161635, 12.293792238615119, 32.301703895559321,  3.960517678420384
 7.110080966503272,  5.576695173172226, 21.533473593714945,  3.778491991286962
 6.604587483639693,  6.653207097966905, 73.278982899650572,  3.908198633616543
 7.159188928528920, 14.686154883587408, 75.341350954179802,  3.995144159924523
10.879531618322250, 10.728449180807175, 73.675425510313133,  3.928687508257644
 3.002184160778050,  3.074194571963478, 46.631660170263991,  3.965914162131944
 3.383914661618121,  7.891042556909475, 51.933438969079809,  4.167733073296191
 5.750127412446714, 11.373343287744980, 41.391066971059239,  4.120719402469039
11.531532480704586, 14.560370058209021, 34.184107933509019,  3.822129994286088
 7.183056049420934, 13.569418384425203, 14.539579533390102,  4.131592252074971
 8.602285903456526,  2.918256952766808, 73.153227588027832,  4.349166862265678
 3.807538898979797, 13.828199368040808, 77.017907278010455,  3.677521791975159
 7.675180413842188,  0.682961127921403, 24.747198401648212,  4.336865286005708
13.550261994298641,  8.389009631832606, 17.972022294761835,  4.207702676032082
 9.294726577121176, 13.747421606520737,  3.223960280661045,  3.607240216180589
11.759586789640858,  1.420599423759684, 47.549185216342281,  3.984928798673266
 2.014456373856204,  9.916195248186792, 41.895932098946481,  3.845547894993806
10.753077043615328, 13.828259258852432, 92.035116917169233,  4.167117743530222
12.649454848938515,  4.762985538861413, 78.152467483389074,  4.075159429723946
 7.982443936811818, 10.773428028581993, 38.401576214475725,  3.433849389816809
11.111114644696082,  8.658943261317347,  8.382287904883679,  4.167516181966052
 0.132247888630892, 14.267709344680283, 75.492116008619575,  4.073376713485955
 8.621389587883181,  9.614190699649150, 31.872492427293057,  3.654652025071954
 8.110622015521150,  6.400896214597790, 13.619360946649662,  4.147587085572217
 1.010686363014780,  6.287874259151024, 93.406182113206953,  3.842619795249013
13.852891019196640,  9.677687175814897, 92.303525105649982,  4.084862068885478
 2.144097516282451,  6.370440429671645, 65.128348446783960,  3.957986347193056
10.244064971373740, 13.897539618756387, 61.718932457357788,  4.168357048638227
13.021531380577914, 10.971568801601112, 11.187683727169000,  4.045520951345623
14.801012941584872,  4.995532808801030, 19.963065920061332,  4.049032488617483
11.208007663058263,  2.842017426297256, 36.612599249881079,  3.929898987197308
 3.633597253499186, 12.568851144229253, 80.639378601469801,  3.994078678962955
13.397769021162112, 14.546724652243064, 68.482816753386999,  4.156027143235898
14.562112666985035,  7.977011757842601, 33.138567639220362,  3.597598688540251
 0.572668214857202,  4.778280975768538, 80.759970941109486,  3.768754588707637
 9.153882560917356,  6.211623699260884, 36.565021649587322,  3.885658804156003
13.300452114768147,  0.933725043893335, 79.350230337152212,  4.049986119645550
 0.358510952210220,  1.627357884107310, 40.411434507907657,  4.091774655240325
10.669414048243475, 10.714299089285490, 58.202527510895884,  4.163708386931565
 2.326045232059716,  4.092187396614137, 50.518769554174789,  4.166268856232798
10.734860030257837,  5.333675679298878, 10.686609403965647,  3.935156435883637
 7.651996936624530,  6.258290171656596, 85.968832020195777,  4.049014618512989
 6.963730701728532, 14.364711468805458, 38.854890607965586,  4.072385031302272
 6.594602655675256,  1.042341789877641, 69.580967657675515,  3.963893205545419
 2.338124549345146, 13.610707260322055, 30.648115962807399,  3.815863091400532
13.962789541272034,  2.968725640535166, 59.591703246569701,  4.176554147702482
12.129167503814609,  3.231693532156864, 87.370134718723691,  3.502811803608068
 4.847365469552900,  0.854731929172603, 17.551625159250399,  4.292295871915975
10.792006380348573,  2.100685480630542,  4.611292513338792,  4.254044212472569
 0.719665411001654,  1.097359785259427, 65.522064792808507,  4.014937587834646
11.210027932577997, 11.141759801207170, 25.610754689796167,  3.980114074863793
 8.447428440051491,  2.805712216044680, 66.157208845651795,  4.071921776860584
 9.472036542343275,  8.912685330919729, 17.023541789556134,  3.926187915170858
 4.788009173675817, 14.220111910833253, 56.485537070426489,  3.971257406164929
 7.039635563646510,  2.422793799252995, 56.378952263847374,  3.824403941856581
 9.053094451891766,  6.013894271589265, 79.517112266134291,  4.004266422656119
 7.136352622375714, 11.540292468754014, 45.390921380742178,  4.350503676257516
 2.020372947478005, 11.887155521586187, 10.953804969380556,  3.965202436009309
 1.624229031034961,  5.407636695790549, 88.478508653241008,  4.166281770565472
 3.883801318068547,  4.808020268567223, 18.995946737659484,  4.282016162920558
12.279956386013851, 12.354191331344829, 54.629712297922140,  4.325939354114380
 4.808748076609143,  3.482644258827153, 86.760010421519723,  3.981215729554167
13.224169248206778,  3.213617736758507, 93.625720912605587,  3.894894674658738
 6.476757441485343,  7.336477914823670, 77.000093133678021,  3.635165448454550
13.777631006289939,  8.899759963697699, 71.538121730767756,  4.096339144540179
 3.219206401631266, 13.963559658860561, 62.754690726342687,  4.095056540621148
14.386254001754727, 11.009263977346896, 44.574065189372817,  3.957046471042320
 9.221213876825711, 14.150090060531568, 67.364724880574641,  3.717178760563716
 2.369964404097390,  4.476075045737743,  8.339294963850000,  4.029294349968744
14.088510309057988, 13.044500110861897, 22.870548479743505,  3.696914151081993
 2.771236254704786,  8.635537648654243, 81.288398044319081,  4.041254185063832
 3.763255070430101, 10.919190884839473, 23.422289757663801,  3.901074209541195
13.053753256060858, 13.291431837977104, 41.598735357492735,  3.609722557240022
 2.468185637004286, 12.735915563092282, 20.238593936954523,  3.872336765720974
 7.335117465987685,  9.344549506318351, 50.895458160778851,  3.846462088120883
13.524676681884028,  8.505439811478977, 81.571444512363882,  4.241460462726883
12.646073795822387,  1.318751490507461, 20.009199150756174,  4.417915750456992
 5.823389350059095, 12.476683507792403,  3.650998865756717,  3.811636217512938
 4.450676454260080, 11.738137212152944, 53.237301962491586,  4.228294144114575
 5.271932718273257,  8.171860155262893, 31.546447013759014,  3.616855661399001
 5.681151449275913,  8.965291677250752, 92.996349784700087,  4.242801581751162
 3.079329510446447,  6.863091152307359, 75.038062092011856,  3.977193391916513
