BANDS
8 8
NANOPARTICLES
cell(1), 15.027
cell(2), 15.027
cell(3), 93.919
10.305624776204658, 10.113109788084579, 56.119551009441423,  3.806274212108095
 1.571011055887073,  7.626154772555267, 64.286678990330842,  4.058774858643771
 0.561605827948137,  0.402978493440685, 39.171585672949334,  3.911063147822612
 2.578732288368117, 14.355078045722435, 60.110270589081523,  4.374176330346501
 1.427639234655928, 10.767317244806874, 93.214980782471002,  3.854667430398306
11.831966794443645, 12.111727139243817, 61.860390552424626,  4.045038108652165
 2.865050567903184, 10.638030987668325, 33.657891557467309,  3.867626092866860
 8.792875019758869,  3.245218249999353, 34.450365440887047,  3.964520339165264
 0.571374051573038,  2.992961060718662, 70.027415543393431,  4.056861123418773
 1.364947410572093, 11.164377550442708,  9.450388124435534,  4.056519526830342
11.612454490988062, 12.104988005718447, 69.191337643841479,  3.884947704968290
 2.261647481818964, 12.895605138905985, 75.853453281838057,  4.081420954184138
 0.899788747764150,  1.997992165866142, 89.980669745033154,  3.943606367012508
 8.243691884341153, 13.282584196878185, 39.446572268944315,  4.167601288321569
14.579975224822459,  3.048449515939501, 29.657297609853963,  4.111134532865319
 8.768821548903203,  7.094025154169323, 64.142041270760998,  4.011552787285309
 3.734203713271707, 14.595654441082099, 79.311897387157074,  4.144734992780933
 3.561048578006146, 12.973244074645928, 15.699688392924273,  3.934710479034448
 6.973417619318712, 12.361042536241200, 49.971520100695656,  3.653852048987754
 8.609700963052681,  5.952788254445363, 17.771589425292539,  4.026428557613852
 9.276800454706475,  1.728604185402049, 42.777627008278394,  3.906591264470363
 9.226122772744604, 14.991896442007034, 24.573070317308179,  4.043024182751966
 8.026423592758517,  6.106051691738500, 68.164461697582084,  4.396721632019889
10.900801620138639,  1.578152175964420,  9.423346301162558,  4.456481487336650
11.724505877691588,  0.492238659521549, 81.121049580389624,  3.880838453290409
 6.007101970913256, 14.754758777917102, 86.282287273916822,  3.964422029771580
 8.952966108440181, 14.544512712194184, 35.678987974189255,  3.885387230040659
12.726730860552976,  4.879870319443106, 57.593211916120985,  4.216700707749008
 3.882886759573214,  3.031787722662898, 29.906563093520703,  4.465777368176352
 1.511141718464663,  6.168150065641737, 56.966149448540008,  3.868400666186419
14.461148611040164, 11.156644337629000, 50.305400016366008,  4.196545099656585
 1.511106000911869, 12.174449766212627, 56.805553385704350,  3.818860631310550
 0.776187328559201,  9.607661395104824, 44.582757868513163,  4.017006425104270
 9.449993888983276,  0.817406872537646, 13.333058944515354,  4.009997036036045
 2.664948438075965, 12.186618444016849, 66.039673579211453,  4.141671933081124
 0.776275014220311, 14.113618235283360, 82.241510392831032,  4.150637102171825
 3.974893871288625,  4.625250699395989, 21.953886393270555,  4.003840128065320
11.882546977226117,  5.842588926155798, 30.801378533753024,  3.984993540023673
 7.402168472105759,  0.468316723137802, 32.085086950103864,  3.702346521701865
13.326555549019146,  8.129976232435387, 38.300324220928296,  3.947684265757626
 7.841117951171158, 13.680668601303141, 69.896244532360797,  3.774480259972365
 4.528705854857065,  3.734721805519525, 70.473264282026634,  4.042939146921976
 1.904756783024960,  6.725774748364044, 28.989927112673620,  4.057841561589931
 8.024031971061241, 10.934808938947809, 83.242243300536657,  4.148951339273565
 7.660170788410746, 14.306965543555888, 80.764635224875349,  4.246553701658008
 4.183447894006978, 13.799784355838572, 39.214664403489962,  4.024898571972534
 2.603646970126139,  6.279977924420318, 90.710574201208672,  4.025026554590278
 5.267808789794834,  7.249762619560716, 19.352968271064125,  3.797608638579104
 5.713582151460486,  6.783177016214469, 53.458778229977163,  3.586558879438738
 6.228646485689755,  7.950171103381811, 75.363218106561632,  3.728972272789533
13.654400715028880, 13.884820114194898, 58.768984936483363,  3.950973910078279
10.583103043048053, 10.860050240481980, 17.156665289765801,  4.004636385204633
 0.451883151247547,  4.531522650686099, 14.114953898533514,  4.180261667298998
 8.986085958897942,  9.364381928680674,  6.526939772050559,  4.775270615418761
14.886131830408388,  5.795712044938405, 67.321253431182939,  3.786206281043738
 6.136064362173474,  2.901034467051110, 18.995949855882724,  4.090755251298838
13.404501727318978,  6.013477092003741, 27.039300040675045,  4.128254987212062
13.555781847859940, 10.202930865303978,  6.519233134468187,  4.285014315565404
 6.146117047573091,  2.741191799097083, 46.554825036888808,  4.199957537012244
 9.466196071196844,  1.945765969558569, 21.087770557799697,  3.847224309729926
 8.519518783302681,  9.387527813885102, 52.594596048898502,  4.220386441084093
 9.579114674885744, 13.365899552110230, 52.676047147141368,  4.010186187409412
 4.242551750732186, 14.889144819965626, 68.785792948556193,  4.131227208222814
 2.686645370241411,  2.990341920027798, 66.417243106531657,  4.308028809911851
 7.628800716298833,  4.181601927253695, 24.814924756280170,  3.833420604574906
 9.694626065467807, 13.503717768849592, 28.984454386094338,  4.433209574410582
 2.956194554398885,  7.354772853722132,  0.721732053600673,  4.147302029373320
 2.041228214483864,  2.557533682107574, 19.196814244938309,  3.895196637078089
 5.544239944278532,  6.062532860237688, 27.571707571905847,  3.857364172811404
12.475897545300548,  1.685181097029655, 92.363858712438372,  4.266345188688413
13.872342559013481,  2.184944768929847, 84.032055291519100,  3.968009507826256
 2.424310012697851,  7.268099218890736,  9.369810649969370,  4.000035247616936
 2.214969121965830,  0.811032902836978, 85.728245096682897,  3.985503232049227
 2.046970072230178, 13.826148994254837, 35.810872198464935,  3.977085470288840
10.801297253615981,  4.639769957262224, 84.901168340947592,  4.075093459383296
12.306763589484008, 11.060280126699002, 45.989085959990518,  4.013926688623418
 8.519690624771718,  7.269521102075718, 32.825370191433109,  4.096343759351674
 4.472735195078291,  3.160921922853230, 88.331164621408874,  4.255886919270601
13.138778682439362, 10.648669229997449, 41.620194787231270,  4.218746771051609
 0.068550351948023,  5.110985834973173, 77.559616410814982,  4.338238532829916
 5.027475940268882,  3.236111223751541, 79.394868791096314,  3.610716538773670
10.388182199438901,  0.493480034717411, 67.492389412953486,  4.126396981917119
 0.900093339346493,  6.906962051500588, 70.897670250074626,  3.981558515316070
 5.702594113137013, 10.897046564855609, 18.232540028673057,  3.873448640250305
14.538444965233991, 11.597330044107265, 71.916334204096941,  4.174827383148155
 0.184673419609735,  5.844095935556563, 18.231664051827067,  3.892315723831872
13.085607101833094, 13.812078664671963, 26.340484440359724,  4.184866650779352
 6.554539783254325, 12.759255149027435, 76.808098426936041,  3.896804068538021
 9.429877599231387,  6.111469391436897, 27.646719608735360,  3.904046932066567
 9.860072267578619, 12.997687536996189, 73.262421392258403,  4.109606181800401
10.084174929028999,  7.847874192394621, 14.642911416314977,  3.858936491925621
11.970987796162659, 14.588013834447096, 40.721709164794952,  4.122968696100895
 1.490104127883777,  3.026910744567456, 81.042947348271255,  4.111080381005311
14.127570475895030, 11.566128668465881, 34.242773543859307,  3.974381967926067
 8.273070362303070, 10.090188304206716, 61.418147103126103,  4.140406355038699
 3.900701792008517, 13.151840201398283, 24.924417207187876,  3.684184429529474
 4.346874368909655,  0.511118823236174, 52.527730474503784,  4.223808935984692
12.230383869117642,  7.741466896996291, 51.430718213176171,  4.215050614247453
 8.831056905145170, 14.405035572480273, 92.969833308460935,  4.218422081692596
 2.494374052988787,  8.901521853599956, 17.214186563018508,  3.898964822282522
12.053997831390133,  4.917514682011289, 16.238815916690740,  3.788346124150820
 5.857255141758309,  8.780149307569252, 10.878998012866200,  3.830410074418173
12.408512973116935,  4.801792000899447, 45.160363423967304,  4.104996186087885
 4.543091419189350, 12.556124686875515, 11.916092734322858,  3.886465515867962
10.156911799369732,  2.159115087599876, 74.049823452147052,  3.840599872680827
 3.619134866897525,  4.207576257094961, 60.636925369843446,  4.304141900352110
 2.357444157122055,  9.236208225943352, 13.076464530442884,  4.391108907104197
 4.562020893994382,  4.765398859162381, 37.116931364052476,  3.667355883978877
13.644936828613734,  8.283863114656800, 55.423982561062431,  3.879468200373163
 9.444772123455218, 12.879682164986541, 58.713858929646882,  3.959750308698287
 3.611063296928719, 14.273278538129162, 89.376528451800397,  3.842208067985232
 7.918879905117033,  4.416216967815122, 14.222003203424121,  3.813652111916113
 4.902431059028053, 13.433197403752404, 93.211934079896210,  3.886007342056428
14.936650725553928, 14.980133145798904,  9.440925031142251,  4.088035545702313
11.003250117642080,  1.874873317706073, 51.867649024409310,  3.744799498615145
12.866024191711686,  8.531371630898064, 63.009168692442124,  3.722391968867203
 7.146062897736788,  8.030957746647820, 49.228309492142579,  3.528417702400953
 3.271757098715899, 13.114766326736195, 49.383459979790892,  3.960405137883766
11.338841201125609,  3.221728720902240,  5.501901484394367,  4.070440569851686
 3.980437483113727, 11.463253880562393, 21.568036979927555,  3.718928663695089
 2.528885826735471,  9.278988212213241,  5.880714194291148,  4.023096697136627
 4.914157239652532,  7.145623974391809, 87.642832202774798,  3.848137990820335
 5.868167649524971,  8.585067177344836,  3.417813441135156,  4.154915610461575
 2.564622821419515,  4.252257203599327, 53.035117095227704,  4.117403533400386
 5.475388208536160, 12.926367941721280, 28.526765400052867,  4.126070137624744
11.802939745832260,  2.448629761417480, 77.652539490104914,  4.081119257976797
10.281710531838261,  6.422634229101970, 54.741400197804218,  3.899139587184317
14.267476598856952,  2.586530335155473, 42.240302662922709,  4.039559539632520
 9.379656711011316,  7.733354303040911, 23.945272201740657,  4.176358383837587
10.403253282347677,  6.573246948211966, 91.406227438278307,  3.886486986473289
 6.910607007310072,  7.579937220304886, 57.088773030958606,  4.113491787514557
 9.396864860538562,  9.149729665767616, 73.832213046631878,  3.693195324338431
10.906430216742192,  5.918510089816607, 75.552456159932760,  4.217712512400666
 8.634464073910669,  9.250856897233470, 20.245837582491632,  3.934878631249414
14.311884156828283,  6.489117329295664, 84.239635141701953,  3.655163716196757
 2.934254275834472,  4.770855230941604, 84.633115204897720,  4.356196950484001
 6.351777317236539,  1.937964016251703, 11.191344944074244,  3.810451869533314
 9.545982236426742,  2.104546770196358, 17.070536721088274,  3.890125735738323
14.354907567692678,  7.428307356277979, 74.336073584106657,  3.638686068701395
 6.951751353176880,  9.156646494768697, 42.679520678630610,  4.142942410890464
 2.088358998524875,  4.005631055241586, 39.872099121680172,  3.886085647395702
 0.933885938542006,  7.990766852625513, 87.430900326855351,  4.090922029310695
10.803986146468187,  1.518747901573711, 59.760434528082556,  4.093190897939640
 4.134140718668761,  2.067862274900845, 76.084684594715981,  3.631713467591791
 0.741162143999920, 13.756429039187951, 43.073986583499227,  4.397798252147914
10.215549583893594,  0.130559487038457,  2.978703891646135,  4.217999435492045
 0.710628131607095,  7.938031233031713, 35.315451160507514,  3.705214104047714
 3.688410523908133,  3.534004270409114,  8.844808207980677,  3.947908450348779
 7.735796494895959,  3.485082973908820, 53.515216717571427,  4.150507882366155
13.321527767683509,  3.800914853937078, 49.243698556401895,  4.183975875837402
12.002100265193246, 14.666163254473226, 48.970029264909719,  3.805971314067693
 3.803381074431113, 10.153795381906949, 90.068600600146169,  4.008676780201615
10.058174947639856,  2.468504707275435, 47.338342634238423,  3.795253961871356
14.853365333307648,  4.043681019481094, 10.027505464924563,  4.116628883893975
 2.476962616892776,  9.387868887675923, 48.193709151644079,  3.977670475892186
13.965891445395547,  8.142603696649555, 15.232828938999150,  3.960552585628190
 7.583082577640980,  5.641473921129164, 60.631202783649123,  3.849271131747126
 5.916119877390488, 12.127355136337224, 54.319929808449260,  4.078120575388716
 4.226235625760641, 14.921855129701774, 56.451977680120997,  3.709800733206047
11.627011897535079,  3.066968582833133, 88.519559871305844,  3.713455318842076
12.007088928011722,  7.054178269272279, 87.834619399773828,  3.883364254155398
 4.838275636522662,  3.918113745579638, 56.517485847605798,  4.213355535606188
 0.891824693616127, 11.428696872048427, 38.742615612093878,  3.928952994670559
 5.328249589951555,  1.552020374422977, 15.155157568407818,  4.123322182257417
10.503172989649496, 11.127943677537900, 49.523207841913383,  3.871529171342593
 7.141374577754254,  3.326291064473811, 85.343354152888821,  3.736955384949324
13.747749159288050,  2.110154766045501,  2.464617291526300,  3.943378759345233
14.642298869791396,  4.075254588850651, 63.852475537960551,  3.943489384620371
 1.405077782554878,  2.771452165496937, 36.064553385353378,  4.073946426267495
 3.756619557355925,  6.778226760455756, 42.427554237888202,  3.828556493317362
11.657616117528113, 12.436279226016218,  9.463996304517227,  4.017350772546323
 4.370093819269099, 12.654235390829594, 83.348431554705599,  3.906470841509945
 2.700010970348097,  7.809711044318002, 38.723737119087595,  4.125760373100307
12.094953600613346, 14.346384570850470, 15.932022176593314,  3.945553099061340
10.619247299284458,  5.154539371052865, 40.968380015804499,  4.151919370153046
 5.432180919581038,  5.039461550191959, 64.226110422127846,  3.813704980157653
 6.058199457900727,  9.685806183176336, 93.437146571496882,  3.934278682968739
 4.260270349666131, 14.437310869939328, 19.212137347408923,  3.793529241921102
 8.287948708806587,  5.474031576526272,  4.253982295365132,  3.889040587492860
 5.164820505830062,  7.281157452272884, 46.075858695064980,  4.055770137062344
 3.590857062954485, 14.277851422768164, 32.034018706833010,  4.229299104182431
 3.852359179680220,  9.603769882758975, 26.704778332509221,  4.117667501335655
 0.063151296857285,  6.403506240046534, 60.635335042438818,  4.031950871651941
 1.366954655877027,  7.178923165961688, 81.006112733124496,  4.085454423673894
 1.910633501179743, 11.852663683703067, 86.442571822034566,  4.113710778624739
12.380667874342819, 13.173613842593680, 84.141260171267305,  3.859505892259377
 9.545990286603736,  4.983257507174685, 50.200736860961776,  3.862033656529462
 0.675253476424006,  2.482524511568224,  6.128397354929876,  4.373936430180536
 5.919861292363499, 10.133073542465489, 38.993816348845563,  3.698625134739913
 2.796220973283545,  2.001570504288318, 49.091815334586656,  3.871984142907835
 7.595804498710300,  1.119519009093788, 50.068396421648664,  4.014469370292909
 7.630557007405958, 13.175554908355691, 21.131073432961465,  4.357363626396957
 7.825119281059318,  5.432850933957557, 10.198455870428578,  3.991757960975194
11.417883284973808,  4.872581829630519, 12.265614782311660,  4.207337371182737
 8.784422359065578,  9.067268705007960, 88.394004710023310,  3.776356991741525
13.729443707029176, 12.662076786481288, 30.245735894510688,  4.016140937295180
 6.959530355806528,  6.439408826330948, 39.610687416728332,  4.005168745996459
 2.605606961061253,  0.674459388454550,  3.027458205154556,  3.749110522273396
 8.357822639824857, 14.008695135011020, 62.425452431372818,  3.924052931422437
13.480767601843921,  9.946101031835969, 58.955441043969273,  3.903927215444896
 8.597140498006171,  5.281280438084402, 88.221456879031891,  3.801544641049704
14.761252728321194, 10.029012567384083, 27.196609083554481,  4.220064847033357
14.373122621588534, 12.574996538931719, 78.808076357368947,  3.863250606658641
 1.665981125226735, 13.443695395473510,  6.176115453944630,  3.928103985219187
14.776091948153807,  6.410739466156470,  6.800243415190466,  3.601747780631839
 1.524424355650022,  5.806989007611399, 45.399711953082054,  3.830743716973661
 6.741141138958987,  4.234578036081636, 74.341443903893222,  3.983021177352610
10.530697054359582, 13.579015889715905, 77.830042620565507,  4.086916447949767
 6.057454293947487,  8.103759560684230, 15.272529487979840,  4.239745351763195
 1.298857619704381,  1.209986290984248, 73.613017675321416,  4.080537751658218
 8.789880823310577,  3.974534772764919, 57.360918772939478,  3.864322607077870
11.312168212597630,  6.102895676971777,  8.345098614893985,  3.998794443278233
 5.803819882582872, 10.813736129654767, 86.660457595784663,  3.951121621705350
12.167495981375874,  8.185237749528470, 34.077874382616741,  3.826542755382846
13.883468088564015,  7.715223636582958, 47.625574516861818,  4.073063840530813
11.223089796561096, 11.013067129286478,  2.953766932011969,  4.275020204017472
13.920348677792397,  1.828075522089154, 66.812596674275355,  3.521402933611979
 5.841468699545739,  2.502540842274961, 40.128189161988793,  4.155064810027283
13.340769757830328,  1.353533372032066, 12.820883478245989,  3.888278338955350
 0.000089025262382,  9.359494532681332,  2.718675877958346,  4.029651372113745
 4.870503999130504, 11.935949487675611, 62.623096718025167,  3.958819209332102
 5.439315043113311,  8.254419887925271, 35.590508131432848,  4.133502588351630
 5.554961473328538,  4.684212460495464, 50.200644124501615,  4.132788885734850
14.737737857005044,  0.555872048736125, 32.955382277347823,  4.154125087588252
12.157755049894082,  8.314540430870553, 71.264358071831523,  4.027640445894318
 6.941499340350691, 12.496962498250669, 89.976462238578208,  3.798739554827792
11.045923433856832,  1.651840406490555, 31.551117946714349,  4.019764577717519
 1.113826769972697, 14.756543251876025, 93.315615208305886,  4.126412228765406
12.769418746185025, 14.500534199621692,  6.094053534034495,  3.943304630460699
13.686029499823663, 15.008972724319019, 87.383168560982313,  4.007777641517180
13.506678302080799,  4.391750818127417, 53.534339467946118,  4.094549957898804
 6.162604898578560, 11.137370387777281, 73.154486780450497,  4.006363319571792
 9.392897910709369, 12.622904579877789, 86.743572969194702,  4.088420451157059
 9.243211189428324,  7.803129992882946,  1.144013677453963,  4.083101147189766
 3.904320741155756,  6.532077048145615, 78.026705720688071,  3.838940515477554
 4.566920852259120, 10.741928745192437, 69.419265589207370,  4.117279213025380
 4.134748412091652,  4.060152300707665,  4.166102652649665,  3.995078927782366
14.765228288687647,  6.671934288619310, 41.860565518400662,  4.218126900836998
12.561798423573419,  4.800229329160334, 81.070073370853237,  4.328552731136868
 0.820879542817685, 11.144904934928210, 62.294133291141875,  4.136627167249716
11.447107036390214, 13.718426089518866, 19.730058280819058,  3.836386994591700
 5.265818559075315,  1.293571628286379, 35.365017288786277,  4.209831050830291
11.976619167061891,  7.047202187935655,  4.185743978605102,  4.115463931810024
 4.741859530338505,  8.049687156955208, 61.822998511137030,  3.970477791513767
 9.708875332815378, 10.465275149849271, 91.955239507354435,  4.086800859812515
13.515008266214771,  3.930970845475443, 73.224505773299185,  3.765548805690158
12.606544682995018,  0.665760899092687, 36.507744626779093,  3.949550049343696
13.842731321264553,  8.184039291388768, 10.955466375986873,  4.069958247833898
14.739762061125388,  2.411255457125468, 60.222779299288653,  4.022567310485404
 4.737796775669057, 11.250133516836405, 45.473879872174400,  4.004070267380281
 9.466092063536790,  0.615151403950572, 84.206343377633615,  3.748868287582945
 7.960598693483389,  0.175343603408546, 55.770264061676272,  3.838568176766513
12.953749764771903, 14.767135068889468, 74.978164814830521,  3.757916056159765
 9.190417185176214,  5.976712068185476, 72.004574565814252,  3.630042083346694
 5.514931587997052, 11.557328939587729, 58.474355556114304,  4.345619091326457
 7.293691459151848,  5.121203508348601, 43.394605171355693,  4.031553527356901
11.067453746429903,  4.230785882624750, 65.670349568418459,  3.941296703239231
 7.992916031905999, 11.151393987564514, 13.457710289777799,  3.823690953495069
 1.795631559460889,  8.165368190187785, 21.128108902838143,  4.177991347609463
 0.639716044847535, 13.070045102007002, 12.939093360964350,  4.013434431117336
10.393560128720816,  3.892093229726927,  1.271828655848747,  4.013273476627544
12.915813853475017, 12.355199560466598, 93.381546139867851,  3.880674677155622
 9.570856861200035, 11.407955819287100, 64.980568666297117,  3.760457507565545
 1.809739093398250,  5.703639915925558, 49.306311150603520,  3.801555943335224
13.886047092290596,  5.203090740041445, 90.604790459514959,  3.754630553584715
 9.113424627712117,  9.811237062251555, 77.605890663104248,  3.964075747097029
 6.315847065122488,  1.145847243273020,  1.917080673131476,  4.052518562252313
13.527005747150689, 12.167207159183214, 65.625437033097512,  4.205014124321015
 7.656307105200954,  5.529396778163910, 77.978956619653857,  3.901388989987995
12.447180134446132,  0.574010601101504, 71.127999502588224,  4.168883469317871
 3.599849851916432,  8.832184593964916, 83.972256475814149,  3.977945553444884
 0.391418532832713, 11.967677778487802, 23.300120041400014,  4.313666839042504
11.116774500269038, 11.630164223822206, 23.132239858793479,  4.118268286774859
 5.322926611644380,  6.222911709237949, 81.615309241477419,  3.848627485890673
 9.295820653462954,  7.629340071363171, 81.032880464683245,  4.159132991004393
 5.369815522956282,  8.206448303425422, 23.165570464354744,  4.045827619748995
13.436549437546232, 10.250428844677311, 19.973138237969579,  4.103542108876751
 3.409948454830763,  2.906951169882096, 43.458197490466965,  4.055173830900307
11.390477323307131, 11.118604089206102, 80.916326311021621,  3.980381056807104
 1.878791892565435,  6.430839148922782, 24.927582385672949,  4.087455478510457
 3.687600462124957,  4.997858018352312, 16.561027922735640,  3.971426318525616
13.475664345709207,  8.239253796742259, 23.573974467794656,  4.103373076312081
 0.509027720549982,  5.484233569899768,  3.272282613131693,  3.848934564052636
 2.563673657927953,  9.419698808981488, 73.551056318893131,  3.989018905623318
 2.233431798368497,  9.261529604436955, 59.118549688028949,  3.758934185092859
11.274196826287449,  8.788590021190023, 84.387921291776010,  3.966798658881117
 7.759775709776789,  5.391271844063222, 21.381776358735411,  3.431834338444378
11.666120647347514,  8.438691346091979, 67.000137160578433,  4.551328855385882
13.160230815381228,  6.631181950384849,  0.310531724083453,  4.001312461417676
 1.042694165314039,  3.849554381500425, 93.582856291238087,  4.111467698286953
 4.422379090776056, 14.742107160531219,  8.762475163948521,  3.790060152358052
 6.013449681007586, 14.293338408978897, 42.901258474135794,  4.260642867590041
10.002012501263447,  6.272288090242222, 36.890251500175687,  4.157966997654673
 0.206056973489497, 12.625439624806875, 90.100618358194225,  3.791578158546210
 0.297193068104724, 14.015265255443534, 68.767180121925918,  3.913681076702760
13.010681238669251,  2.347973671263724, 19.132135583146649,  4.173436876710665
 0.777352727475798,  0.176312255410699, 63.884531767507823,  4.139360969708865
 0.027837681371437,  8.782989896173696, 31.712928641106402,  3.727383240872600
 5.989156287518894,  9.693354754097884, 79.986477425525393,  3.872399180797605
 7.286903230694665, 11.422794522172083, 32.137302214780227,  4.252791377029187
 3.434984262787516, 14.905935100663049, 45.946246675505172,  3.777874012250974
 7.317413829247533,  2.591951206385626,  7.046640729862697,  4.353845039093079
13.057683417817186, 10.890263453017882, 87.322003616903686,  4.070663992237852
 8.375051681194465,  3.255707700447542, 91.818535782715131,  3.918076885497452
 8.148028450257300, 14.101481363997891, 46.546743569319617,  4.131160466559107
 4.575072698544778,  2.254370492836680, 92.370653666636443,  4.008394272741246
11.929734916859269,  1.080822434168091, 55.726859703992474,  4.299963134918594
 7.402066620013642, 11.305877549559751, 24.977157519567918,  4.193463528491985
 5.470569797249381,  7.449149865403641, 71.618484823055041,  3.901519292557524
 6.673709424255451, 13.542755683843311, 65.998578882624443,  3.716971794072048
12.039535411089544, 11.211240476216121, 13.350913053344186,  4.165437687907970
 6.295723282656649,  5.017113575597805,  0.791632512185842,  4.003152647580185
 1.748733921943864, 14.705590878169387, 28.134617629145396,  4.166206646863219
 2.316009415498595, 11.119604101672387, 29.958203841708141,  3.641182383347358
14.899816118296700, 11.700553539426860, 16.562448337930448,  3.856641585162053
 7.811514333760661,  1.565458587660027, 77.216191000478815,  4.116414994110760
 8.009542024817566, 13.581827863501942, 10.440084335131225,  3.871583564149669
 0.308477853730949,  2.177713255877789, 46.061919668322417,  3.937483251443561
14.633092399334192, 13.312732338528763,  2.839220735958802,  3.916271537213368
15.021003113121777,  4.447362992123873, 21.943062724585094,  3.911846507992619
 9.117386637431217, 10.154392569669497, 35.677347463774865,  4.095040928741319
13.286230096759915, 12.231953910115408, 54.287661315411029,  4.360319955010095
 9.565014164773148,  2.046327293265704, 38.554239453539658,  3.833302523226514
11.793465868451362,  6.386439526938951, 20.298322770047555,  4.137095980010533
 3.291499198626117, 11.749089872164486,  2.750419543382473,  4.092491795673525
13.195029592810736,  0.456865729079775, 22.665685372368380,  3.838621156412705
 6.317751164442218,  0.257325624925767, 73.278053169233090,  4.292530554884495
 8.454933298553698, 10.055812614122770, 46.350997070999355,  3.968792832823870
12.144569708280207, 11.932065828032647, 37.667723069315699,  3.973244620594528
 8.645358077514791,  0.769271036180689, 88.910128610330929,  3.736781443459999
 6.810305502746790,  2.317863260264548, 66.753810656345379,  4.037967231272746
 6.001183798889540,  1.471395200025009, 22.713665650946140,  3.644345892499986
11.381901771916869, 13.448977797189519, 90.068026596822392,  3.724979945898870
 7.832697408365632, 13.657277256859679, 16.446376772849600,  3.954054602762866
 8.425744395944220,  2.813040407736728, 63.148552121169338,  3.853331056667362
11.883216558936301,  4.625811217459585, 69.586303796089908,  4.090047391514855
 9.029636893824581,  6.271070095390845, 46.673956225471699,  3.704388295274588
 3.744698951777718,  6.905993598609031, 67.868784777278009,  4.305341045449068
 9.800005438889036,  8.856724017292382, 10.832190627150485,  4.013998822798826
 7.942319456197924,  3.941530389152555, 30.558465758219334,  3.944084576691143
12.790842304466238,  4.211271000449016, 34.461032866816943,  4.229953720545427
 5.607830530943926,  6.525393040971825,  6.987647672310848,  4.049176792282605
11.376616631826330,  5.084449857764721, 61.720284476144180,  4.108979060795053
10.725442449764337,  8.154406443532961, 43.746621216663549,  3.907897519855229
10.308023363790280,  7.723225232553599, 59.031293152503565,  3.714882494949399
12.600201542077167, 10.758975518144851, 75.563398835748572,  4.234751687287218
11.436651562419081,  4.161637480378841, 23.727687660817146,  4.037907574128958
14.975817104430604,  0.580275265529155, 51.886286576124775,  4.585583915268518
 1.044237174754218,  9.232475996440240, 77.284318627777523,  4.078615788656404
 0.385213329507651,  9.839001073492009, 68.323363814906401,  3.837744452459280
 5.359333746582558, 11.122343473211354,  7.920341135970068,  3.737000328264202
 2.179826248456443, 12.184029063382235, 53.041847088195205,  3.816800499065157
 2.746526176032740,  5.238808501090730, 74.184585538274874,  4.259647139399518
 3.344042658191324, 10.763553846317778, 41.763738262043191,  3.941725766957662
10.808807912395356, 10.191182306406276, 26.779347261899130,  3.731670675367085
 6.548663947896959,  1.245538444290147, 59.458658844272520,  4.344333368791507
 8.489216644980772,  9.822526914607684, 70.122845981117678,  4.045754134396992
12.134838417963332, 15.006250403003698, 44.988105725903168,  4.108146153260700
 5.314270052063095, 14.148335092180661,  5.120067577868295,  3.767879378786389
 0.327965562074907, 14.055548679961628, 19.681871901320331,  3.998546093205625
14.886835999232179, 10.215030235891200, 83.299752597202783,  4.069120860609580
 2.525327739749072,  1.542070901186088, 12.157198377258339,  4.082291964903584
13.499748318004736,  9.146512277183694, 91.028834469231001,  4.148954786850457
 2.217375897474101,  0.793876498203362, 22.739398972768392,  3.991718762378315
 7.064839984206926,  1.480802372608624, 27.621545186456309,  3.915373805370173
 9.706998322742724,  9.411077944638189, 39.650853739773190,  4.061420983884565
11.086383345867292,  2.335178610880428, 27.456534052771477,  4.254381561011355
10.907637403210503,  9.772470437806659, 30.662568810242544,  4.042079057603282
 8.431173297380942,  2.508478088375548, 70.466376944108347,  4.053694800506248
 4.365299576870135,  5.345960513057513, 12.490604468987454,  4.288498300125283
12.497934519050689,  8.113502874070212, 78.641075234610000,  3.866960158317015
 3.093216556196827, 13.170671311242023, 72.087881941665032,  3.649642060641793
13.509292794007933,  3.946312353529822, 38.483872412563684,  3.840260251479294
 8.435042746666266,  3.470006549024863, 81.495788295709971,  4.384610455428485
 5.348471341785594,  4.869159237852352, 33.391949899883421,  3.936915512692923
 4.877769746982255,  8.191516450209800, 31.274945494246062,  3.975289940963967
 7.507343487287758,  9.406280043487802, 28.572483375058635,  3.940189323543750
 7.306138824404843, 12.262475037897079,  2.332185433784879,  4.034874211186916
11.742258971059456,  0.720169251311979, 63.640731516967364,  4.042264805827050
 7.604256863398533,  7.140585353389534, 84.739602191454509,  4.037908731901821
 4.670326782224436,  9.722309566951113, 51.422486442712390,  3.845347407323723
 5.704308210383004, 12.289470340989981, 35.836752306053391,  3.952686349036340
 1.206624039854807,  8.058063169288722, 52.418272513724695,  4.054401681995799
 4.836845940668490,  1.525069196554743, 82.797781106427649,  4.005754106572043
14.835135753048228,  4.260773891268691, 87.114113881626025,  3.678192081314447
 6.084731188376380,  9.672944666691766, 65.738193665036434,  4.083043226323701
 2.445310404793403, 11.020815744533355, 80.460906214826693,  3.725830813846455
 0.806581803974808,  0.825781236141417, 15.868979496836598,  3.998256986640758
14.917814401327474,  2.482598333163952, 25.596900178955050,  4.074119917373873
 0.981424506650488,  2.186254699019555, 56.301759354997429,  4.223579329257909
 3.530756328758196,  9.152661531872294, 55.491208476007927,  3.897304561672761
 9.638334010417925, 12.242494363121384, 43.184964752448991,  4.071577996556234
 6.491952661011932,  6.572912581140285, 91.128425140131199,  3.812927359864077
10.886117386284093, 13.004270110456375, 32.825290566268777,  3.662991680045559
 8.898891434889904, 13.759779283848372,  6.611044450851567,  3.992982650094568
 1.408893573921272,  5.137402131131379, 32.698571682070600,  4.069208639023573
 0.125796576667524, 13.494188222527441, 47.133663218772355,  3.794199712271958
 4.853841727826088,  0.928873412892198, 63.383532458339488,  4.207804279220541
 0.478501805666233,  1.026769109072976, 77.500466650887461,  3.854912267354339
 3.949915553033327,  2.998089454363406, 25.643793674715646,  4.053787547584055
