BANDS
8 8
NANOPARTICLES
cell(1), 15.030
cell(2), 15.030
cell(3), 93.939
 6.616682241783274, 11.919370979291635, 92.887979974245809,  4.227610323327353
12.800707934419028, 10.872865388092215, 54.670260183118550,  4.145823537469054
 6.574032520910835, 11.602810303324958, 83.251213561148234,  3.911231032737987
 5.823282078148855, 13.826399971142108, 48.027015718724250,  3.819730035295917
 2.659056015958526,  5.180966639333479, 47.028167735815522,  4.196802381971088
 7.755831596915063,  6.048399233437952, 26.341493232348576,  4.227937101305192
 5.118951967930611,  0.334923606117656,  0.497083579179648,  3.852135128811828
 5.277666644342772,  5.515410729519909, 40.371136865190280,  4.236984149119914
13.876961973717995,  2.948304337945525, 39.411145857383808,  3.998432309407028
14.545340977556034,  0.533291831439001, 42.565013814104780,  4.041997060333763
 1.517099945363748, 10.093230815795790, 45.383766016945223,  3.826682727537412
 2.499050343175051,  1.507060749323122,  4.739380366451892,  4.010551492137514
 4.348792995454978, 10.706198772622024, 31.757887645628795,  3.812924702922878
11.432247925142864, 10.004329703100250, 88.659035738920153,  3.669757108378604
 1.952216174591653,  1.851459771149804, 58.617376956684872,  4.287741853112457
 1.085174241951964,  5.094607226656928, 88.355121679591875,  4.241765026512409
 0.649760393607454, 10.183022537712350, 32.453019289745598,  3.784304326443430
 6.702061041672221, 11.972287226066864, 76.112963646604086,  4.008000209966214
10.422283339428702,  9.908809913122759, 36.878890483616317,  4.343587547979819
14.217445699255007, 14.502382498003296, 60.747764658845163,  4.112605249371567
 9.366962288659098,  9.687304849999173, 16.294143686650152,  4.119905446343661
10.759281673697425, 11.192759535407761, 61.117304309266956,  3.619699848309169
 3.084209891116184, 12.911773390056323, 59.265902545734257,  3.988304406450034
 4.753338291397055,  3.510307210248746, 43.999095758138260,  3.889270523815594
 6.789625728930781,  6.120606426704333, 46.138624578183290,  3.963689216053880
 7.017350246229996,  6.793004022840236, 56.378178299638336,  4.160093693376923
 6.557122629666336,  6.078495080801328,  6.488227719490203,  4.089622810634802
13.070899596699856,  5.553892315179716, 23.711958157693733,  4.281944871198782
 6.818358235732342,  1.254814223514757, 85.124221778980342,  4.093487820762551
13.509886159813945, 11.788095509596968, 91.169744599684023,  3.752479191119091
10.523974654003592,  6.326513254232887, 81.785834709332136,  3.783345264038768
 7.741732329010056, 10.301719528233502, 68.179712939759511,  4.261049116249735
12.708035047143484,  1.331728955982605, 24.121123430371778,  4.209287961549095
 4.843478595607969, 11.273377087377593, 86.924724556733835,  4.226825205144227
 0.958533006984806, 12.450827958624240, 88.042855894428953,  4.113063256412465
 0.634187693723586, 13.655897065943755, 45.641796249828836,  3.531007943409836
 8.370536584977692, 11.913312484374599, 13.253455489482635,  3.659543483890099
14.602397558316239, 14.729357610643163, 27.337794458091963,  3.921882005721584
14.419651862135714,  2.842548768520345, 45.895363303668255,  4.043154323828928
 9.014893798301904,  1.462191083954466,  8.554185382023956,  4.228344766171013
 3.349422043268897,  5.631632054078283, 57.738415431395794,  3.961709673996619
14.348057280237756,  4.681143002617239, 35.788483177901298,  4.082326850623488
 2.742157182872352,  4.945353602314933,  9.509252918677966,  4.042592228255162
 1.954264638256923,  0.211539560707873, 76.518554443767997,  3.630864051802646
 2.616358671003169, 12.802110401956151, 34.770312049930943,  4.208308226826609
 1.465321646464601,  1.325156021143284,  0.999777783283369,  3.752148019889865
13.601901407014607,  1.433247163393803, 77.520198123525631,  3.770883120164594
 6.226151651229853, 10.512549227710515, 22.932217172903329,  4.019002505435267
10.529024843597364, 12.439384864289778, 70.253009145021579,  3.869345813569610
 1.250304070911512,  1.197376734797982, 81.409963194842234,  4.227716623329317
 5.346225437921240,  2.715241597327549, 11.455664954118507,  3.819145558927482
11.978968328734101, 12.446891515914684, 14.641297748617436,  4.135947918028547
 3.269905282504397,  2.475850704607831, 65.549434688940437,  4.073433159703932
 4.145653711137680,  6.963843807125898, 76.270614704545466,  4.197951401258559
 7.916054704757210,  8.374947253024889, 61.040006344891680,  4.252844036773479
 3.377028854822433,  4.303831546598050, 19.044670961922790,  4.155529345856786
 4.965954553156363,  3.626128932511425, 51.951126153834331,  3.895383328627422
 9.250178303117647, 10.153382926337393, 56.433913080975444,  3.909425467085580
12.883805679050928,  0.798611260877031, 18.613981922727802,  3.610722547631919
 1.868624364969861,  0.607890164707182, 15.337569048217992,  3.733349264881777
 7.854580864028778, 13.684784698511550, 88.202081222338720,  3.895754251669012
 0.325953082292655, 13.627526726787575, 56.405310520525958,  4.075875589870641
10.686061322587742,  8.185020683223870, 69.867562549373730,  3.715606673799113
14.270061069965182, 10.578081483724308, 59.887461444281918,  3.890210778388496
 0.230530361246416,  0.515995569368138, 52.837395819466245,  4.008520087777258
 9.116591202785667,  9.750916245297519, 85.628960702480924,  3.953678701790876
 4.196112700928212,  6.457368667425498, 62.038486023590899,  4.340504835894846
 7.887316054975916, 13.906541136619333, 55.696983039549046,  4.094333859482390
 2.704145753975968, 12.401362577797757, 28.406350360940891,  4.167255077074116
14.394605312539380, 13.663467496734498, 21.442881186376002,  4.109261472603191
 4.233588294140377,  5.405827680557239, 24.297068720269184,  3.969242238694122
11.124929094580157,  1.524040038299507, 50.089682213932164,  4.490131983676560
 7.301324728517379,  9.215001395529798,  9.037115023032289,  4.119534279768475
 1.863751130091071, 10.293066150996639, 66.618969063079973,  3.893655753727676
10.720667838006008,  5.789073105453099, 93.442941396227297,  3.718068307302560
 3.710431180608818,  4.928476289071897, 85.185477276964747,  3.894637246707124
10.522176615980900,  8.928439045470602, 28.154526047842836,  3.863735050378247
10.551670207537608, 11.089568160232256, 40.881635238108146,  3.969183951080983
10.385636981969578,  9.621253939392865, 92.441958234805583,  4.212539172851140
 4.652956314781119,  3.211325604653833, 32.066152799471830,  3.828867707220432
 9.100930821909246,  5.344930657395783,  3.155496446850403,  4.309706262207466
 7.284400429877278,  0.077884088511914, 51.650156498225620,  4.278916717953826
 7.113054706864268, 13.068680875281951,  2.930111294426018,  3.923066299256805
13.640623013181758,  8.778211718737726, 26.006418024801381,  3.711955439094587
 7.549295135556003,  8.598957663576572, 42.895730676786442,  3.990157114028476
 0.482458669285637,  8.494601619636164, 48.815364163588420,  3.907711412000389
 3.149989076267305, 13.009111916293092,  2.953434859821081,  4.003858518918694
 8.245603913999432,  9.318450573998696,  2.017569235053460,  4.037713575871318
12.796018066896155,  3.094329997590148, 87.293520753977276,  3.601322446703790
 1.323143436552348,  7.791852832464362, 23.731794215535718,  3.630629427861944
10.852012316876099, 10.450475353297845, 81.849377022897457,  4.429537191114508
 0.976357052711082,  2.441315017799957, 12.072086608095104,  3.906547273578583
 2.957871949727441,  4.761639091492860,  1.139324110356891,  3.714485716615085
 3.827083789262133,  7.374095920438982, 43.756123208276129,  4.011932997657933
 9.830624944795789, 13.576767803410611, 84.617006267400683,  4.054705268515209
 7.545964047507888, 12.127625659978888, 59.357796371788545,  3.921903674942301
11.482111609199064,  4.060837037380674, 20.149958010080063,  4.030922428035493
12.613997286424040, 13.175063980597248, 35.772033921258888,  3.800676507551109
 9.911422324319426,  0.373082410805866, 21.048184013646104,  4.095404061319477
 0.562235266987760, 14.849073878581351, 37.434699822116549,  3.666983762392487
 3.488232570588069, 14.881910424327359,  9.897725178113527,  3.671937045345640
 5.579410355490390,  3.407652919887020, 88.280581455329084,  3.931346753532449
14.092959515667069, 10.909052241532867, 29.078995386431071,  3.809533863257974
 9.076998627355643,  6.682052309286217, 39.466060748136293,  3.833430697774552
 9.549722017970440, 12.789448841306195, 48.810204991538079,  4.062239375298022
 5.765655716100976,  8.112097391087492, 84.614290354053125,  3.740445657723399
 8.929831450032824,  2.378834095989714, 80.459433640930030,  3.670497036416282
 7.062706757178660,  4.765583502828326, 82.960042139121143,  4.155144426998480
 3.474854676500869, 10.915607808938375, 42.070762679032399,  3.828615838998258
 7.489783135155462,  6.761598539900920, 22.303235253613408,  3.940672346523002
 6.946883722153133, 14.124469454346688, 69.680090412574259,  4.079067128263340
 0.036483373959434,  1.087020332947530, 89.946324754261909,  4.329586407526281
 9.733458958436731,  8.586488399212307,  5.666107293056779,  3.971498241756938
 1.956013639539361, 13.345972002523256, 92.535316427905030,  4.000119908587390
10.487252097456889,  4.941396049456252,  7.035233231665342,  3.908145206839546
13.160299884630840, 11.128347600946949, 85.368325765999884,  4.093939172576420
12.921176811844866, 12.723260645973385, 51.047912243795011,  3.939145815594718
 5.415843193583694, 10.797564871091209, 45.496489068213748,  4.045795657145625
 9.926712024341736,  0.542227958176613, 77.361747152729549,  3.795569958494317
14.205421667183344,  5.886586581249167, 56.387746704845839,  3.920688841327124
13.092104575853600,  1.351214509180112, 34.062717168633249,  3.509187762461822
 6.436888372445040,  4.843625848429822, 78.944864924984799,  3.964231875230138
 1.282313478418188,  3.621982442591724, 50.547142657278670,  3.967816135948359
13.203344769188224,  3.352244731050326, 59.988751547930285,  4.021338944204037
 6.878305760854969,  4.149966165680903, 64.409191982126856,  4.166791308253845
 3.763329950945019,  3.183580300856472, 74.538463451220835,  3.868322243456827
 7.179398325153009,  4.421676207605496, 59.800176004389215,  4.155037818012800
 3.529703203435562,  9.645265769595289,  0.684388919152159,  4.142336236937659
12.960974565846906,  0.454336736326362, 71.146442900060720,  4.117963460721167
 3.891378018636320, 14.428298673265790, 25.323310944567094,  3.584460887079326
13.293659777422059, 11.321837037550447, 47.293447227276914,  3.861705811812040
10.807963257305325, 12.392524904251573,  1.678693093720074,  3.992116367409781
 7.628071833490518,  2.435588230907139, 29.504898780793525,  4.138593244992819
 4.715058268287151,  9.974877122056172, 78.496717974532615,  3.359678781783414
 5.346277497888787, 11.379411944019735, 51.148576339810226,  4.160456677510178
 8.616143679318002, 14.304959475867474, 73.404724933330655,  4.076036495293835
14.842379718154870,  3.114666104459333, 29.959630186371484,  4.075222529205688
 0.594401063306882,  1.743921088034475,  8.241843642380060,  3.916189859797723
 5.151607655689639, 14.237290686255514, 13.498341909128460,  4.282456656551183
14.292604060246520,  6.859380750078802, 45.391020894765141,  4.033939451192302
 1.089631889784109,  4.517954447695563, 42.519573517131469,  4.224636258408784
11.958512655408427,  8.401214689218017,  2.499812380015495,  3.643172334831313
 3.989675410490571,  9.267264253802180, 25.995593869440459,  3.957647552146467
 7.022808337507316, 14.700016685102373, 62.439410809654859,  3.959842981984085
 6.343001690865989,  2.443627472454902, 67.870294710002909,  3.612453546809704
 6.643504066277760,  4.005172079534930,  0.098935044044828,  3.969363626033755
10.930849968722304, 14.440365365703803, 63.088993309857997,  3.947581238966196
 8.027270763745980,  5.068745838290151,  9.992910335905149,  3.773265024735204
11.442166734909549,  7.528385269150573, 42.555698619868693,  4.096245672996942
13.360630575516542,  9.738613515565113, 22.189278861840563,  4.143638092847107
 4.491867468806930,  9.132844202109629, 59.014392416248469,  3.751512824967767
12.149920237144840,  6.211924799405121, 89.687696137235207,  4.318909150229837
 8.881131126474509,  3.748553227356644, 53.124304538231364,  4.250895813259461
 7.054389472699573, 12.691091458187381, 42.203292386829411,  4.155817306045325
 3.546203880298551, 10.411048498602844, 90.576732409271017,  3.702723832681630
 5.295411432122059, 10.594885934079079, 55.328195283035832,  4.336122637140831
 9.928841625515462, 11.713401679639070, 22.500137156644925,  3.795286428825659
14.566427432064069, 12.750615957803994, 78.173558003319741,  3.999784475137128
14.974388056838025,  0.285523695631312, 48.898434948380050,  3.899316457663984
 1.636365510796565,  8.570931266832332, 85.646963400601351,  4.524488410760882
12.365484985864441,  2.975096315026811,  1.658452642642023,  4.048082434873011
11.501092051180965,  7.742247437068779, 58.820218805369059,  4.229451837836716
 1.224819795729108, 14.400202014059229, 67.181560757160810,  4.045103083585007
 3.381483099271317,  4.277938551524366, 14.812140795802982,  4.251850558152529
10.962584856956063,  7.185212364673546, 54.339848850278827,  4.112388388553844
 1.960729759459983,  1.270238517678210, 70.703474826882683,  4.072529313479734
11.397898388717653,  9.024395059598893, 50.265572996159612,  4.155984201240154
 6.735942967146041,  1.633457280013210, 40.941891657750190,  4.130814871448191
 7.603762872427224, 13.205585320948375, 16.657131148733551,  3.758959880851810
 9.143854325479735,  6.065074381049756, 30.374483058115015,  3.880531542351856
 3.409393600570999,  0.367638833062146, 50.563453146585012,  3.784085637821264
 4.826820777811322,  7.332619114489339, 88.340978984985270,  4.060934089156867
10.596791690881240,  5.718022202221821, 36.150252918811937,  3.711999439453719
 9.035001194583808,  4.955333969874703, 71.374212971097279,  4.121023596209008
13.457545957119159,  8.738052951956385, 17.065620378219968,  4.413936993065964
 7.203716659910648,  8.379950260155685, 80.858437501476629,  4.187469975856796
 5.922250993517531, 10.036327006381994,  5.238004300710042,  4.029699376349691
 8.458319474825620,  0.001933837632916, 66.037345577101291,  3.814590091313558
 9.580370638438378,  0.671333285471639, 26.524503993907807,  3.785137508498946
13.694508063377802,  2.091239193507999, 56.384692596502340,  3.657114821755283
 3.691268477531950, 12.559128801648463, 17.026486753418023,  4.053596933879310
 9.113914035776524,  8.801537212770432, 33.107885845498807,  3.833685835177568
12.798058874105436, 11.264734441135358,  5.044075067588620,  4.030193411786096
 6.523962969575516,  7.836002168669573, 92.581945045009633,  3.957394465114299
11.444913923864517, 10.673041308856593, 66.617762002449581,  3.743573476568098
 4.210848377624531,  7.710758751684437, 49.841892773209587,  3.948107159640502
10.479242878429062,  2.795746279201559, 64.650994279787895,  3.539587028818945
 0.208579161483032,  8.846963334702460, 89.546091854271580,  3.798452319590911
 6.638446681942269,  9.040417167635756, 29.008007780531177,  4.075010043341172
 5.173961219298338,  2.450339549539965,  7.552366492897252,  3.939687697685998
14.992762336264867,  2.393326534178831, 74.044382286715830,  3.953150111131607
10.882070732144557,  1.898033654441417, 37.009235014549901,  3.932956332940506
 5.684444784476860,  6.972830496253536, 32.312373622092842,  3.913459915076793
 5.371737508209216,  1.354099620629467, 17.050728545132358,  3.997450920348536
 1.451875973829768, 11.590395992989064, 52.755446743471083,  4.268457379022792
 5.224392468816538,  6.587264505705123, 12.035478039838695,  3.750333893866337
 2.455590827478603,  1.699500225832294, 86.776358370089213,  3.726679229110863
13.994378219467047,  9.812320765277233, 75.316943455620006,  4.246831212068293
10.838915174548152,  4.317352472527261, 12.582552321724323,  3.995143403836602
 1.634096787508865,  5.951926689977598, 32.493234083949048,  4.358548561248739
 5.343035161970055,  1.426125479527323, 81.382354298497390,  3.940903132001920
14.906202162690859,  3.975876956454476, 92.786385383455325,  3.777789024369872
 2.188418094006779, 12.071676989561178, 48.663669796271606,  3.927155120961687
14.079035405576850, 14.903886181375597,  3.499433063370994,  3.740016470117819
 9.426935680600421, 14.593374412502975, 34.037192079701462,  3.987034167552330
10.937354908212349,  5.022641146959586, 67.647777440212678,  3.927945603248883
 0.249029744070009, 13.544401717562828, 11.614350253780524,  4.111758519087333
 6.348156050832166, 14.131596316177760, 20.056867147648344,  3.718680939495085
 6.950141024637905, 13.178211317841738,  9.903511126310319,  4.020581118515644
12.185743709041665, 14.469478930695230, 67.242752046772040,  4.092071863686446
10.503822160759229,  5.630009799346404, 16.464357221796096,  4.213318513188700
 1.801519459364366,  1.782305773537399, 34.348261685974769,  4.013396915109628
 5.466760240862207,  9.635957986055487, 14.669647069984524,  4.240805235156920
11.909459727720682, 13.899061094370445, 88.173338239765783,  4.143047810963226
 9.298726987439178, 11.592839507895921, 52.666666896578313,  4.024019784790148
 6.489564808721920, 13.858219936637104, 28.027682154388838,  3.975111087800566
 4.835732781293486, 14.468974039183674, 31.737515906225916,  3.749367624665355
14.170938726697944, 12.343114466833798, 64.309453987636530,  4.141039825929801
 0.461773294004846, 12.165067260816775, 82.117806311124227,  4.167144945068897
 7.626526728354095,  9.249357369296668, 48.492892584434522,  4.012331954544429
10.438141801524960,  5.365002233493139, 61.929900016439248,  3.795374812790198
 6.259360605907955,  2.328054477398146, 25.787227787075331,  3.774081760360775
14.995319655481410,  4.039437290202176, 84.198096491022099,  4.038118926120159
 1.024825543289358,  5.624782790846840, 26.905890897979639,  4.072158639950270
 8.343205323629093,  5.933443563914527, 86.740897288529510,  4.146939937840046
 8.930428689612402,  5.650283253122598, 49.496343453554303,  3.852709680803973
 2.773340975221740,  3.477715982079781, 78.352498353771551,  3.943723768293544
10.742775103682805,  2.931011652103560, 83.958814907044172,  4.230821446917322
 2.613565747321390,  9.261407336404622, 72.945927980230152,  3.890763597147083
 7.025474128304018,  7.235149345391807, 36.083513183312590,  4.043413518505402
14.193835464561461, 11.552758379431639, 69.184910111695714,  3.957599125318122
13.837583921860874,  7.768272497171711, 67.610412087609703,  3.989849655811047
12.087753915642717, 14.774356489022905, 81.089921862977761,  4.650760618817543
 2.469836922239644,  5.629443450522605, 81.584065901523104,  3.815886586538304
14.753798917582346,  5.930311504517965,  2.652992250337506,  3.778962556900380
 8.211138759357917,  8.123853604395444, 76.744579212564631,  4.297551755237270
 2.579168944072598,  5.551268182814332,  5.434794942991422,  4.192526523302627
 8.482412492205180,  4.764162164817578, 42.773704395826648,  3.901607167919506
 3.576808745511484,  4.675129311915459, 69.236081159846862,  3.999464589079224
13.641169372132325,  7.350060193698637,  6.211859521620466,  4.187724381717640
 4.428514452173563,  2.438484352642576, 61.821043425859756,  3.715297438129547
11.302770796573036,  2.402236328100739, 91.460716433989987,  4.191453850267104
11.478077281862138,  4.162854855087217, 27.526033937101495,  4.383729677698113
 3.528437318312789, 14.058178243088193, 84.125187066407562,  4.082404440702184
 3.263628761398537, 12.928617220126004, 21.949037790475657,  3.873297856790644
 2.081730932251656,  0.471745376293735, 19.148466424447548,  3.869975193699618
 0.495678706015821, 12.151673955026702, 40.104082290911769,  3.724097264012836
 2.622983793552362, 11.594968881621107, 76.043858901764892,  3.843049422201730
 5.045074097431214, 11.142367372137798, 62.338385343299464,  4.090861199246651
14.447625442916348,  8.172700361717782, 81.986085754219786,  4.073717413913268
12.141955131355799,  3.622411321098680, 42.820169828295100,  3.752832403203153
 8.331578427146265,  4.980452610203572, 90.618664260704875,  3.835806748075738
 1.607370720410358,  5.597732425936325, 72.487402606303462,  3.760027605786533
12.373197769962132, 13.847283845875394, 74.856920428960819,  4.003244168131838
12.931155757221255,  5.336124263004125, 48.979363618976272,  4.223991283496327
10.127106128322579, 13.589974405443300, 91.746621237678056,  3.859366454691235
14.876612316996740, 13.163709254503720, 17.187179236337457,  3.613698368190217
13.103123882215955,  7.219624871385555, 38.798211972270323,  4.137410011458517
 6.481427006888349,  6.560494499501083, 17.402974902443994,  4.179435529022982
 0.123148829032888, 14.156511723483771, 31.466952317663793,  4.468631105115291
13.667307151555740,  5.041585233453310,  9.697371616207795,  4.161285728162542
11.213740025618829, 12.277703111598067, 10.304574739718042,  4.560398912783899
 4.168269342714132, 14.523234989860075, 89.398961852929233,  3.931376438275557
 9.125651628809628, 12.577381055202645,  6.446730484066215,  4.219903574186799
 3.496634234771949,  8.541007928509979,  7.991422134989304,  3.881740069620907
 5.988219713457290,  2.453639398359979, 71.530171477842032,  3.741111981502767
 1.186796049829029,  3.941787810933371, 62.511542170810053,  3.558439570346581
 7.129245684451581,  6.194172195547655, 67.983698117088608,  4.031997392947912
14.068784145605141,  7.817600823114010, 93.190050017081617,  4.121731697693435
11.450591966497431, 13.300976250405636, 57.838585498189580,  4.267147266266248
 0.268278930089293,  8.664616587233050, 41.936408340352266,  4.006963680151507
 3.587813874903357, 11.065314026835980, 11.150786174588712,  4.199707471819829
14.124821042603958,  8.365785644569570, 71.509683409532698,  3.879397402330759
 2.727241388229069,  6.822112190618880, 91.763314036992298,  4.031170002031771
12.030175500113566, 14.820913817973006, 46.463838067134922,  3.716982221633997
 3.351658039946908, 12.316258840320920, 69.899938372965138,  3.969539708077727
12.075673525454315,  4.559233791100006, 32.499610275874403,  3.893774589931704
 7.463168321606579,  3.467497692743138, 19.969807855765463,  4.083207176922618
 1.261366679188639,  8.960103693365292, 78.576980516520933,  3.814805807567260
12.510264661313480,  1.275448444481676, 10.650930716294269,  3.924121434314838
 2.858631958235863,  2.134592976467686, 39.581858289064556,  4.124942363733920
12.917561219319966,  8.837607643104807, 12.847384014733123,  4.080056154846290
 1.488916873225655,  2.183022838768262, 25.054717917492521,  3.789469877202425
10.080630691284142,  3.442170206119741, 46.290970222846376,  4.263726554357728
 5.233284022570677,  8.591775188015291, 65.424779715147011,  3.925335290347595
 8.467102289568183, 13.800625996086165, 38.313209783041572,  4.373253283846254
 9.668471262777004,  1.266237788210967, 59.898139807464773,  3.818211776472837
11.157842693762323,  8.177475546165166,  9.298695729329859,  3.872847170228543
13.119723198519440,  3.944110171685420, 53.037746777021816,  4.073823397761237
13.602279900645197,  7.074966917675250, 29.796980911567264,  4.040109297654029
 5.003924702674808, 12.899452558079386, 66.150495328796893,  4.298146956564061
 1.124864954960189, 10.740479163940883, 14.468190370929925,  4.054967123218841
11.442297632081777, 15.025509584031793, 54.052948333552465,  4.018542473747034
 6.332178673410187, 10.675288594972590, 72.168153501019489,  4.203254682301512
13.082176260196221,  4.551042885233267, 71.302419479261133,  3.993302565026675
 7.487356011829410,  3.660966336792202, 37.600813857734110,  3.748529931531648
13.535453389576531, 11.860076147950478, 43.281963809090392,  3.766464208168260
 3.632267401378295, 13.253121792967143, 79.745410153340757,  3.924272357897449
 0.576593384502104, 12.665741785617518, 72.772388263232685,  4.044909354224495
10.981945411881611,  2.525029982254797, 74.082390719640486,  4.066541329469558
 2.203953554879016,  8.555143330959343, 29.381845247752217,  3.828782502217375
10.756868841274720, 12.734903756261518, 28.602481920589529,  3.815205102457690
 0.164634036978170,  6.654005716415337, 20.274986719127529,  3.984744326247301
10.500817677186767, 11.610984458775787, 77.724999467114003,  4.167192412823648
 9.511301843127178,  1.620085456043937, 16.982718537449689,  4.047789238304338
 6.798602915779128,  9.918606284266598, 39.143930613753483,  4.100255265269144
 3.522835941503959,  4.942542423835588, 36.478432515336188,  4.338724712161270
 7.984117338993424, 12.094754035967195, 31.268061640814540,  3.982095946226916
 9.939607256095515, 11.248751594904050, 44.948097500566384,  4.242855908988179
14.647050212503640,  7.805349288671402, 52.647144188748491,  4.068146539753148
11.351902898719073,  1.052600343633060, 30.670519357892399,  4.133472187946386
 4.399794731311488,  1.813465996832882, 22.268501123327969,  4.240338501227173
13.324053645465394, 14.693013170430387, 93.631054858884411,  3.865713685612224
 3.531444114377063,  6.950266357957872, 53.841787987979856,  4.258428965320489
10.150722503433517,  1.520490438528796,  4.632580100600725,  3.915548381225593
 1.295680715882764,  9.456981737106394, 56.510125048361687,  4.293067109065436
 8.904938378927362,  7.903734228336573, 12.607017169746365,  4.122741324431297
 5.334077596961883,  6.964363645301713,  2.910346416697419,  3.658073600953534
 7.235612079142639, 14.285980503977182, 23.757708412989697,  3.788010971974370
 9.007585410667749,  0.717065316341860, 12.645964948133944,  4.076890627011815
14.757958333161103, 11.329537463663014,  1.400788621872759,  4.204978154056346
 5.575239645395608,  3.127364896701573, 55.737096781926532,  3.819738468319599
 4.564977388286813,  5.490203865962272, 28.843174937328659,  3.951836109708506
12.265851510611885,  6.996134466229154, 85.420315944050145,  4.357554752804959
10.438370279498258,  7.991316799805954, 19.930682342448918,  4.006454723796134
11.869684664323172, 11.524841115448792, 32.273366251713043,  4.055222479322826
 7.291219699503979,  1.235823678494264, 91.149082708406695,  4.009031258898537
 3.916527673743247,  7.895901795682264, 20.922182859408217,  4.019302178488144
 3.343416901635856,  8.800534238750249, 34.979834936412750,  3.933605479308027
 7.418541216265441,  3.892741854807097, 14.496557620776183,  3.880541749265056
12.702336868269365,  8.799701225034648, 63.207550288227232,  3.809202368498966
 1.283775090279015, 10.558319420733353, 19.535651491319541,  3.963294645204216
 5.914363414351439,  0.651900563534188, 58.745948328766843,  3.986976300852162
10.360703825768647,  4.065306570314068, 57.086592085980492,  4.212404503033070
 4.212279150166051,  8.561990019719870, 69.204301108917264,  3.850105560061456
 5.399921776214626,  6.507845223590306, 72.378428545202723,  3.983586886970537
12.417475977889216, 14.267523329627121, 39.463277968860282,  3.891876144374813
 1.951256089056689,  6.311216001631272, 65.581312579769744,  4.024527933583045
14.311163462781472,  0.058760546287997, 84.986259468637670,  4.183354424879566
 8.332434723237004,  3.523690039175055, 33.697963269195846,  4.232416393821295
 6.650966134667024, 11.361906515674695, 35.164524385417998,  4.370866540939154
 1.805271287298793,  3.438887248297991, 54.903272445521246,  3.779764799378634
15.011906604980473, 10.184584232530490, 36.675707555098136,  4.074004011920254
13.760551385241421,  4.433145151303851, 80.222927423722453,  4.305238152309557
 7.375267505581121,  7.951244352677081, 52.390039187515541,  4.163816020801910
13.642922875743665,  3.410545343429328,  5.359020110580345,  3.821203421893675
 6.330869887819848,  2.234748144688697,  3.745040636806170,  4.023342786780911
11.395803323429295,  6.614746863158264, 74.401899903028436,  4.162551831693467
 3.515874452590297,  2.797387865444647, 91.709249559894360,  4.157412208745981
 1.604599560383325,  7.624562092410361, 12.130733740384215,  3.776715194020686
14.918622179356532,  3.411943008931157, 67.791720846448939,  4.248028758121968
10.291052962083757,  8.432021780051695, 24.370927022486278,  3.765722943015247
 6.458819463380090,  2.726123790850623, 48.322204206867617,  4.125216338781722
 4.395562836275812, 14.268746583972499, 73.474928650290224,  4.349712767230622
 0.306254712222439,  6.768271539601742, 60.117465448396544,  4.033484804620034
 2.944910406593784,  8.607974789549253, 38.940110319594012,  4.017438163247717
10.185139583989899, 10.517956813997374, 73.737734482704866,  4.108545968703939
12.174557732022778,  7.923503353689407, 78.545599813923673,  4.060236120923104
 1.483801688693958,  9.431736665144159, 62.850819538832418,  3.865093121691324
 1.782643294286291,  9.504422442100648,  4.506062907265872,  4.079347906475842
 5.242578339602094, 13.761793996364313,  6.357788904392512,  3.860110341101613
 2.535479553503678, 14.271823907729120, 63.069659186326078,  4.047665225752564
 3.393794330252953,  9.386625473871538, 81.853321390368848,  3.928127048419748
 9.331610796245940,  7.666597541587587, 64.921357814526658,  4.065756337193539
12.836515638357143,  8.074720792099422, 34.050521908079567,  3.939751052077791
13.037459744167048,  1.494576501115404, 14.721338216925410,  4.266733669985433
10.542113537427555,  4.360584994530756, 77.659671591398507,  3.906360677893546
 4.158579265417896, 13.212550692187978, 38.750302242318405,  4.357942108403278
 9.287704151886020,  2.305167263864848, 88.014617402742118,  3.714440387073785
13.309704195438435,  5.214664404312970, 64.485448481712055,  3.894610200182105
 9.254498039294830,  3.452061704741751, 23.563439810254337,  3.934164116408211
 0.284728172128346,  2.934218670714200, 21.509172830268351,  3.834176861741032
 1.018251754666749, 11.593108593357064, 24.800278585511464,  3.832053485276451
 9.734045025149374,  1.742778683947888, 69.220848724348230,  3.606774119904189
14.898390612986022,  9.988768725069429,  9.315668490063624,  4.330553295658413
14.718847429423780,  3.841993716102074, 17.665105988553982,  3.725614821690137
 3.931551631983393, 14.630830687337266, 54.502181969691335,  4.294683161244543
 9.016479923202319,  0.855124117259517,  0.831849436330496,  4.027925953825698
 3.084603962323982,  1.179439801354826, 46.711633812454046,  3.859375094546167
 7.492152269374503,  4.356396207936778, 75.116254731622405,  4.033333691218888
11.519084875905140, 12.186063194108934, 18.866378790108804,  4.144744002543221
 7.919542464883779, 13.686069232495630, 80.173611900028376,  3.984814839497746
12.545185264426211, 14.669428867682264,  7.078602390394096,  3.894550224601575
 5.847876233862507,  0.888377021707139, 77.264438445158603,  4.383549866140380
12.397251360265676, 12.371681045448817, 25.248344287578210,  3.686330389370618
 5.668240591834341,  0.689675610809096, 35.511299652774511,  4.350372752647861
 7.709757177867592,  9.866583473669209, 89.412894999538310,  3.865439454980427
 3.545507928173684, 14.812822186876142, 42.954288577977117,  4.159925710243344
10.612644454676861, 14.878140068571378, 42.884245529707037,  3.933269808924031
 3.435938635360912,  1.538857998536876, 28.584008969763872,  4.264700415106669
 8.504495817186957, 11.554227280679848, 64.306224617535008,  3.906261536330742
10.525345118768614,  7.495903501041413, 46.463602244482352,  3.877471173231724
 1.254159343930791, 13.059834421308706,  6.652271773529591,  4.250231987525754
 6.398117209118375, 10.319968936704880, 18.956244456279396,  3.949556024369282
14.135374289887087,  1.375284260869501, 64.304689699761369,  3.950644178048534
 2.542443951495520,  7.744101402718691, 16.968256701472516,  4.049989317888503
14.319936096023739,  5.338451575104772, 14.180417630634597,  3.896544293133875
 0.021834900556077,  5.802859743459935, 76.361504229531263,  4.285784535958723
 8.473419659481262, 11.274807053123441, 25.987368498023077,  3.710582030424917
 7.323698352555467,  0.675620273572251, 44.931621067501993,  3.983902425964648
