BANDS
8 8
NANOPARTICLES
cell(1), 15.020
cell(2), 15.020
cell(3), 93.877
 8.222431391837913, 14.808363073212545, 54.046902720244141,  4.111788394455659
10.204116287237593, 11.931072128983200, 47.229029572905219,  3.999107334851152
 7.300692489699892, 14.147331474257454, 48.808833442154736,  3.952726628185693
13.375736589274883,  3.198735010492187, 57.205755890977372,  3.820750081723721
 2.804175056395731,  2.004943189556040, 69.638263096425604,  4.025585948199510
11.161859901337490,  2.486592765497342, 28.860666269928483,  3.653789646903762
 9.398656357616320, 12.814894213437441, 42.230793492669200,  3.759247935136929
10.239361373150487,  8.878837461313639, 89.259144306236507,  4.248120970184694
13.226372431457893, 11.202358992566868, 76.651586322856005,  3.817766982359852
10.956762692875259,  9.822392170094288,  2.646930229182872,  4.088707995693971
13.093133930606127,  1.417175849298050, 89.633045094225281,  4.264052127417008
11.512438892089559,  8.254085064851440, 37.595051959497191,  4.014061411070265
 9.279526328309748,  8.612470669916412, 14.401697072878958,  3.813520775764980
 5.839427538599697,  6.821167775535426, 26.754169607889846,  3.800361237193229
 8.944427858824033,  9.000831554589373, 57.570175703243478,  3.844348690271823
10.138834828761134, 10.414555364106207, 66.936274059834801,  3.726384065437897
 5.151184399978063,  3.900288102518598, 39.483560197018228,  3.833861285792066
 3.680348929578837, 12.901676128797508, 64.133457182268870,  4.058932413123650
 0.448516024184343,  6.207698621413641, 21.819586888426066,  4.149451266793054
 9.612255665450746,  3.800791408126877, 86.027369712724052,  3.855388462879589
 4.049635947653943,  4.046600607588890, 66.388516815650945,  3.988791455930861
 3.485414111206548,  7.826801689429071, 48.733676468088341,  3.761321689788876
 5.828369115101068,  7.002237582131010, 72.806700453191297,  3.583709721883822
 3.429135313784888,  9.717392260677091, 28.083843278560717,  4.182327582012621
 9.870225647205954,  6.548260474969768, 44.206309088942135,  3.881678335557353
 8.346494708141032, 13.651884835078331, 34.942941087712285,  4.039233369131715
13.866508220785589,  4.829125515443972, 18.009100990140166,  4.096254085573438
14.255341334793892, 13.457009159772737, 91.984516678678133,  3.639962352923965
13.009764147968271,  3.466632739004203, 14.261996993451984,  3.827297195094181
 1.213084970171140,  6.365030762268603, 86.227206286361110,  3.838266756638040
12.341584361946659,  9.612530151317893, 44.698069988464141,  4.048244843299908
 4.385721454821961,  9.258390623481089, 24.267519477866401,  3.730250693702843
 4.200916232066863,  4.579092283334503,  5.368661956912269,  3.830183378921143
10.875432893838394, 11.430472309645735, 54.800586520471732,  4.177328459713359
 7.256238066482233,  4.340210122745995, 92.772160536245565,  3.637925321887604
13.945615838334827,  5.989425311396251, 64.061096008559346,  3.896706258515310
 5.364313687415366,  9.420128281356551, 83.410920238630979,  4.143896876904526
 0.711242829358054,  4.888868466114529,  2.467977998081227,  4.140054086638734
 8.481923279120236, 10.868323988051987, 24.466308499889404,  4.115272891684656
 1.436944702316094, 12.759413912331835, 25.656290758360193,  3.940013703835530
 4.416785703117614, 11.618683256151467, 37.122431842929615,  4.020111405941143
 8.054779318304977, 10.493105593088208, 20.402496293264694,  3.992577788720580
 8.105480134951520,  2.375325943495020, 50.921631027089255,  3.958014811053111
10.897904195884392, 11.411950343240104, 92.416269037682099,  3.946726705179413
 6.245531445164513,  9.976543303060481, 88.765462646854374,  4.060477724835158
 1.755965697868696, 13.704413266566261, 10.060781683562853,  4.050880707331833
14.892216067735918, 10.463979417437244, 12.037040041539946,  3.905896377609003
 6.387992998078527,  4.368834043573539, 18.355113176118572,  3.919993877071624
 3.412045874328463,  0.102033001724865, 74.828397759852194,  4.199085810685062
 9.122401382692878,  5.254106134737489, 27.570410904461927,  3.646319546074672
10.132080796056327, 14.560214474666662, 31.295061678850242,  4.252258856651551
10.429017587445664,  5.926290660221898, 20.063726913696328,  4.075949048566384
11.783801072410503, 12.966065631710491, 19.086938624229582,  4.239763879445003
 2.826370493767971,  7.845805149534244, 11.709703615321983,  4.010497498268515
12.050731009526908, 11.247292110211282, 59.177625547621858,  4.457261233745409
 6.001359019986483,  6.681191802587388, 45.939515414084269,  4.099125397147944
11.251969757095695,  5.062229266387815, 51.342758355823655,  4.316878796434886
 2.450242736755351, 11.785149847707165, 40.792082389629805,  4.276776911364959
 6.268032513962126, 11.591869295146665, 92.418550972262864,  3.912466648026991
 7.030642772233572,  8.346478020785487, 79.456265170475518,  3.998089983061285
 6.983217943191065, 11.168938407636789, 54.511173968703780,  3.630575481960048
 0.236180973962418,  4.672494875575214, 91.019884540460993,  3.991052843244362
14.402596417657227,  5.503299419135547, 38.368140832133314,  4.112451495226996
10.789028801647495, 13.914914244118830, 23.028657477958365,  4.032542429598799
10.432202548947844,  1.023895486029926, 56.901780481318674,  3.511012421514146
14.821384364453589,  8.555045636838251, 61.086762560312984,  4.142831610535863
 9.200782279923857, 14.731304781927555,  8.156749678015862,  3.688501062041592
 0.836571180803655,  8.944923908495019, 69.796141776234791,  3.754161393707928
 0.741010112190517, 11.046705352230694,  7.251680155819899,  3.943367969970482
 8.643805578938963, 13.191234388950248,  1.036460010621479,  3.663708629974518
 2.748592109200270,  5.734166562324016, 18.566172581226493,  3.852308016747519
13.235781071593655, 11.692927491956999, 69.684752077830453,  3.840725750282147
 5.531437414440505, 13.954561109479863,  3.005843543453146,  3.847675732201243
 4.494037872986335, 10.657409801156023,  9.076312445742824,  4.359291849609817
14.396023635965097,  9.425233032014097, 56.002266956681048,  4.185982342360375
10.279821495544262,  9.168298805680987, 41.282814460943783,  3.970527387522987
 7.513351936973065,  6.831409752729221, 30.568724999290644,  3.850727972358967
13.826610170550412,  0.759972676040552, 69.270828887919848,  4.345559243699335
 5.960636404212112,  5.253985857323572, 56.701157810097953,  3.794674585847726
14.570553160819495,  2.303449716133031, 25.109986280327472,  3.994503490685334
 3.446851966345245,  1.189997748766311, 44.863189751102020,  3.790491888178552
10.916170998156954, 10.584208026292153, 30.456302995690454,  4.016405114257525
 2.636314166106041,  2.214065316034261, 12.270994524764845,  4.449690664530311
10.979972711710154,  2.310163263914998, 37.415813047908827,  4.024307267118379
 5.420876011007469, 13.435736796646225, 81.780084069101704,  4.131589505268250
 7.983404888633567,  7.463819230430715, 86.000742786465665,  4.162206181699363
14.760846458686659, 14.363770194820191, 22.368481158000982,  4.067505016812626
 3.451731399603490,  3.772059728871933, 93.536137406605206,  4.010383990990520
11.046764436961601,  7.709314690192100, 75.442998910491369,  3.997559236064517
 2.137434158584366,  3.484481919666712, 56.396995096299456,  3.926733105088609
 3.916240888940973,  5.008916488450692, 29.667365956570382,  4.063910276098437
 2.610615320813096, 10.250615599431590, 86.548294403312568,  4.366124904620920
 5.375485535428692,  7.889624302075557, 92.762366329623831,  3.730396975912686
 4.257349223226478,  4.623568087149091, 22.080207416286942,  4.082912748763210
 8.782264880174045, 12.191442414988932, 16.351081710227287,  3.948140986441593
 3.179234548145070,  5.021026808912287, 75.215895720943365,  4.319953066852040
12.406827313636397, 13.666751711187970,  1.419086923791188,  3.951192442689146
 7.339629658967122, 10.375621497776711, 32.552397335457158,  4.276941063921804
10.674740334159777,  2.002495449637224, 18.716785310133279,  4.164249028021262
 0.697724363365644,  0.183867720628477, 42.424644163060087,  3.824318717930409
 1.661596520787367,  7.798016462025728, 82.546845139933225,  3.922515132725292
 7.067488171343051, 14.855001183856592, 63.486703048074119,  3.858645124481462
14.655095071002306,  9.796587719578488, 79.789140395947626,  3.617752588119805
 8.349032202755676, 12.949705731383782, 57.764745574130480,  4.141910988364336
 5.529435996430749,  4.829556500097765, 33.458110497121453,  4.168651622760899
 0.778527178596275,  2.555288092330269, 72.997979059755139,  3.865363792955282
 7.516567343344828,  7.696914624652032, 68.072216978677503,  4.059248974427976
12.790392408240406,  3.289227072895861, 21.807313209539661,  3.752098857055384
 1.280974256301719,  2.484247042545669, 20.332069340324903,  4.023268116403872
 2.653012915604578,  7.385537479637326, 39.900007031188906,  4.032324615956633
 8.708466839753711, 12.149515246308839, 70.038086235052205,  3.893249187086599
12.073024411018570, 12.860765253851662, 80.041649946244888,  3.901572571366653
10.365683884269451,  0.145098357379913, 86.931595023772729,  3.822366990800269
 8.522913064322998,  0.340161749871180, 79.606169284930914,  4.323768035398888
14.562367631392396,  5.601623358767628, 80.121926310972924,  3.838325680694937
 1.398767531561198,  5.518674859732720, 14.778748351171407,  4.193718876317604
 5.216207072746935, 13.950571781416269, 70.876536268051538,  4.140923809478112
 8.678928084444664,  1.376104804465772, 70.417448608022795,  4.367624711857609
 0.836580882559507, 11.908831737751907, 44.845510199528078,  4.345752391422674
10.800840525796861,  5.158276955197405, 78.675411113410462,  4.251081867563491
 3.551014332533029, 13.547715069422429,  6.355110751974803,  3.790821252190672
 6.284611298489866, 11.385256364564139, 66.851366437018470,  4.056706681190464
11.335301045852066,  4.738343859475282, 91.276558512437816,  3.819990053368230
 5.236887535763207,  2.563140165989577, 53.754717118949124,  4.032033763159126
 6.064531448561403,  2.734151064667156, 47.431092005974989,  4.154992519517723
11.678986173054355,  2.252705683176114,  7.066638817908981,  3.730351008101586
11.409381389119115,  3.642823580381339, 61.841847061552606,  4.292630766517399
 2.388913142458228,  5.680511324937344, 70.749202913471478,  3.697036146133099
 3.351809838825565,  6.481441782484654, 53.863137232642650,  4.251508761754266
10.274044032581170,  0.723806302727061, 92.571626831632017,  3.983667032986996
 8.727081212669955, 11.115801014002626,  9.973479337116308,  4.336809725913546
 4.030868329231308,  2.312061810491238, 81.056349535985078,  3.941426540118980
13.463275555327026,  9.346634009586246, 86.602150912089570,  4.133934404224624
 7.350019910958373,  3.676758410728576, 43.776695359762300,  3.775683843831454
14.905003632379410,  9.690650513349951, 38.634672465389038,  3.599126279576098
13.560136775794895,  7.845045884316116,  7.905428989739164,  3.934917159543496
11.770783905873031,  6.245337939021121,  4.554307086839236,  4.147642050635175
 2.635695940056459,  0.835296882477811, 48.842623745825463,  4.176240228593755
 2.345949309052516, 12.338779730648904, 68.118656486026154,  4.396465261162120
 4.906725932875514, 12.645866995085933, 44.074428180277970,  4.068407521058624
 5.642709370271194,  2.430193648570097, 77.397400821698611,  4.037899098017077
13.031666637870039,  5.256372902897285, 27.190210338841815,  3.814689717262980
 6.078122471433085,  1.369445559132896, 86.951940005014137,  3.726998039574983
13.668135095667489,  9.645208992359064, 73.051856178079660,  4.050196909737908
 4.762911965595364,  2.849776004473996, 90.065708708713203,  3.629658012431118
 7.009818593425977,  8.107398237404364, 17.474898117570199,  3.819056065424705
 2.967983700152299,  9.305026504522132, 16.344010695435109,  4.565727488603628
 1.371551708426163,  4.963695941094128, 32.876355671868367,  4.103048247188654
13.309276814729161, 11.860968165513851, 41.403478091467015,  4.123429812481241
 8.076205262191838,  3.067220927135300, 21.648430287050012,  3.924988405654500
 1.135518042279520, 12.802628674802909, 72.196671370811373,  4.152084742553151
 9.003854100683027,  3.780286403303464, 54.671607431195298,  4.090320971043121
 0.622419297115552,  6.955019454714498, 29.240570169613139,  3.632784906943607
 6.455381401597163,  7.219358583353499, 60.166901784819231,  4.174957305279960
13.358670874757198,  5.209500299222182, 46.520900454152368,  3.917252872050132
10.085389193548796,  6.755988200371666, 65.024279495282173,  4.050773233938556
 5.496742333206589,  6.211775561446729, 14.316720917822371,  4.128145917281755
13.864840897709048, 13.473242501532493, 48.163431728721456,  3.979518002803021
14.275750841647945, 14.690059465829652, 13.096505458771590,  4.042088746681061
 3.580360229066125,  8.388806523254489, 32.061153741982281,  4.185571406948846
 3.632674616048347,  9.811797028031195, 61.547649494601572,  3.971168345745927
 0.355617515428083,  7.955511829494708, 25.539252303085039,  4.033452377921558
 7.396491433918419,  7.410171485064884, 53.755047980768268,  4.048327754944770
 9.518836298690850,  2.328534617954296, 75.835586166304452,  4.163189857689584
14.346576290621961,  1.777521908847274,  9.789826968389347,  3.755442001700185
 1.631922654082654,  2.560781912390664, 39.651497238617232,  3.702856208500322
 1.413298654905791,  1.953899039221269, 52.859511328582663,  3.899670702440096
10.458339027615791,  7.752727628464178, 61.080867651370468,  4.092513352045360
14.206095976179661,  8.948877913255664, 32.317160164765490,  4.182879666860666
 2.674320130644000,  4.705947916059117, 25.814523463389506,  3.966362604365943
12.390335565885531,  1.413004412556847, 78.515091693165346,  3.887617449966673
 7.259806511348843,  6.290781313143680, 89.684663067994066,  3.659963826434078
 2.761414539405062, 14.336267699288648,  0.442630321126474,  3.709382036152673
12.086454449602282,  2.463894756853213, 65.782302506502745,  4.002471444756314
 5.309455707784878,  0.284462159264147, 66.996766223685370,  4.023897065031609
13.447552281047123,  4.241392343165757, 75.648805937172597,  3.981870384603459
14.615310743366347,  2.361514827749542, 35.928402497615842,  3.824343565216652
13.453788793487679,  2.205731425689327, 85.591994898847801,  3.992337481366445
 1.095374504015293, 11.824323003921943, 82.854114045765598,  4.217100353300443
12.895574703550936,  5.882752224142924, 34.647803126366334,  3.943239122400881
 6.655346337289175,  7.358294242563558,  7.146750226536454,  4.388620681351438
11.190546548693939,  7.137284065477849, 54.996210935158238,  3.937655382187674
10.833979525153961,  0.298911578422229, 15.032959589893013,  3.947005047488274
 3.182359163529760, 10.576178459538394, 54.763941116145837,  4.052252001445183
12.719314016979297,  5.499977549060552, 87.717429686194180,  3.963649341059282
 5.650521979381359, 14.635686565720922,  9.651609125420242,  3.998231623239454
 5.566461222751564, 12.894088258257451, 77.651401168805521,  4.173273030231316
 0.860302743091269,  7.757717142287743, 44.919982117800807,  3.933526489402280
14.539215280300223,  8.740775214032780, 18.782084238874699,  3.955759859495775
 7.884904246499445,  9.945364515645689, 44.355694314303776,  3.970394678301076
13.319699382520986, 13.326933643283761, 85.287844357649206,  3.779249638275519
14.731556395496780, 14.400358258160633, 38.503575331188664,  4.050380999394898
13.223808090843827,  6.433186723509348, 83.883715811507543,  3.788234354582475
13.921778673793279,  1.990131127229884, 93.684337263778659,  3.988066504010295
 9.349789932017758,  4.919448343774198, 58.538331352636881,  3.836484241797984
12.314665575514301,  9.799228753628594, 63.910839896442731,  3.805711716075483
 4.195079457285795,  6.929137625155011,  2.344512061976463,  3.817736838782265
 8.156326573398884, 10.331938203681650, 37.099835549620373,  3.848615155120858
 4.155863463425690,  8.867104466431293, 43.204248515262869,  3.806409460844141
 9.198084364888221, 14.070496654278035, 27.119516183459428,  4.309467166145048
10.460782181654418,  3.951466853854029,  1.270462844110461,  4.269698911457762
13.937034714060038, 13.028353927584250, 31.594984186914491,  3.963505511451607
 2.970363936871954,  7.376930705862268, 89.678703221268876,  4.146931287896097
12.191908734790079,  0.966325874617219, 41.116708214994638,  3.856869633278867
 2.477787246927425,  7.208877924608703,  7.741962061309177,  4.046805105592466
 8.225525558057898, 14.323581295620878, 20.175452669473795,  3.678791838931588
13.062684058147152,  7.846392017800357, 14.997076559278600,  3.985393992631835
 1.738847380271833,  1.092533379790073, 91.215007434110504,  3.725977296654440
 0.536838735551136,  2.780222521098555, 29.023915747015661,  4.132079788874092
 2.626017952818326,  1.432360468986840,  3.717753608971926,  3.933420806173761
12.644599711002542, 13.049062686578722,  9.545270938195706,  4.359516011156582
 3.468541386437632,  6.045053128865342, 79.352749410450429,  4.202502826944961
 8.809088027330173,  4.033938898267468,  5.721435958455872,  3.516131410894511
11.106177499216203, 10.727145965484953, 34.464370203562716,  3.989828109205754
 3.536669073339920,  7.739523993425698, 67.453724226191127,  3.729547651124947
 0.139026010156253, 11.760958062706173, 35.304174156346150,  4.239950184020457
 1.754870828006805,  0.636402869260981, 59.602800164912310,  4.116099394618552
 8.007086211789042,  2.993030152248599,  9.001091256550737,  3.450009231643631
 7.583416665673042, 10.444073508466177, 62.780402203944860,  4.398017458340831
 1.743834043707037,  0.908637943961802, 32.471924537165172,  4.072694755630389
 7.281601955276113,  0.849058631315577, 16.721909756269149,  3.991712212308334
 3.629696158556720,  1.779066866508905, 63.131239424876647,  3.983324677319068
 5.934650128146203, 12.698467814427053, 85.781180611324999,  4.017340992240309
12.886075998597528, 11.530290105117345, 25.175667146750762,  3.632673800966661
12.443334231356221,  1.706407628759018, 53.656055327113634,  4.098439651483154
14.348996382598605, 14.808069813203886, 75.450554061318684,  4.074184651711001
 8.637014831812426, 13.354409711725129, 89.878956754986717,  3.876706922090482
 0.241193686829158,  7.769133015983596, 76.509582943513252,  4.131044688766750
 1.853149892148912, 11.649240658015483, 58.445191984578720,  4.053012154049103
 9.148550387608463,  7.195699683256869, 34.492132144137550,  3.994531378840123
 4.853292328474234,  5.027685543218260, 86.942859640144988,  3.985299747782105
 9.319822517100841,  3.269260793551173, 33.819794428277184,  3.979363029945330
 0.842070297361588, 12.724061370354820,  3.511758425772888,  4.206141379351538
 2.346830560152198,  4.528266938020159, 46.872161002930490,  4.144796700938862
 5.361156382008265, 12.817447746471117, 26.150632543888381,  3.962470379698223
 0.325410617082963, 12.904134608164943, 52.178087017781550,  4.626154715409844
 7.419806404533069,  5.917299138795823, 76.192587321643643,  4.151670298652130
14.906688206847718,  4.371003374543023,  6.471777608310420,  4.044282402954574
 3.639774109787335,  4.181889423895704, 50.657510444243357,  3.650423908083461
14.452124499255113, 10.514601438434562, 28.511278841072766,  4.010612830375207
 3.271187487669915,  0.979860947461685, 23.873336932405987,  4.256390435901833
 0.167033199021372,  4.532536249395267, 60.398446837108537,  3.987202871514836
 5.153418493392993, 12.659650237952683, 18.250560949351478,  4.291126525226592
10.732138517276210,  8.674098097972287, 70.393081656834013,  4.100392593244168
 1.773213056801757,  9.188405116691817, 51.589650712617811,  3.427650369981847
 9.385493191821105,  5.247187643756001, 72.470765809367478,  4.354287722701787
14.294505535246165, 11.652803636780339, 15.890452630150333,  4.202613968877744
13.400054165510934, 14.438208883587324, 27.788655219236862,  4.219136934416360
 2.149741473722083, 13.881821881511964, 79.499454021482805,  3.835414132243694
11.877245709344542,  9.670053326765508, 21.811873971629620,  4.302522703190307
 7.184794679786465,  3.764688663974054, 62.483710909240259,  4.256578718686450
14.770161641450935,  1.600176048653609, 45.974608377676901,  3.884848701649398
 9.645284067263701,  0.707181474151045,  3.883570544007144,  4.218782705393212
 5.927322726214920,  4.492725786024878, 69.886694888751308,  3.950611866921665
 2.184187996639642, 11.171040586913449, 91.013535252699995,  4.049241340165869
13.879484384980813,  7.729195673935211, 41.605545823178261,  3.806979621463547
 5.210840332580799,  7.586305171211547, 36.633644817920924,  4.255931624703856
10.783887833716253, 13.371766833765742, 62.771702179464228,  4.263349030138683
11.175616006541320,  3.199373955307938, 82.369447061405666,  4.142494189387310
 9.522552453557633, 12.245316827650267, 77.084283234984696,  3.918996177875750
 1.658126272871420,  2.835010433700444, 87.801376712967084,  3.913584368773797
 0.110496919694388,  4.528729911089068, 67.676146643045868,  4.238725926508843
 7.658436394243791,  6.932981662210947, 23.099318858676618,  4.363756999773109
 2.804424973794510,  6.047218950401398, 63.079419932168264,  4.075520457925914
 4.786980452629333, 11.473621456136625, 73.925794761111987,  3.753123189272368
 7.176954756048466,  4.549289710116049, 80.304333613129415,  3.770800524896405
 3.859013113269014,  9.861452135157949,  4.977255346644510,  4.083323719049710
 1.210820224846640,  7.843353857624507, 35.652102411446727,  3.899246323753832
 6.184137639628238, 13.605472155242257, 30.073322231342580,  4.165375260194322
 6.973681793025560,  2.809085381699208, 12.667758403111172,  3.988345238929480
12.752437574472989,  0.334937323382304, 59.759380776010737,  3.950524138156281
 1.239725302782070,  2.517172886560881, 78.093073949115663,  4.202558692349120
 6.235756821782479,  1.434987106141695, 57.563458073904137,  4.046999001202073
 2.731738305236146,  4.418745615496126, 36.571167018516427,  3.786016388837030
13.987378792766089, 13.780831140424768, 56.246814437633226,  4.118192077173827
 3.016027096478684, 14.583929223083736, 55.786145101017475,  4.185628010953886
 5.845358828219338, 10.331058323015835, 13.163407259146151,  4.249337859206276
 9.357543777679554,  7.682864218751661, 93.262260089004712,  4.287522794531666
10.329499625059629, 14.392414678906661, 83.144530036387209,  3.842959752478448
 7.960051413759394,  0.060597866453980, 45.007740595828764,  3.959604558842664
14.358007838389893,  0.743699889262679, 17.112831614714938,  4.250830385474808
10.220222554781810,  4.939898479680521, 12.223996224429676,  3.625764480421270
 4.866784091423626,  4.867847377585816,  9.928247589012242,  3.886126668795349
 2.652443714725481,  7.431193294246962, 58.018430753075918,  4.347585496705304
 4.459406365346910,  8.742402199394155, 20.436512364524628,  3.999822792509059
 8.935532317971745,  0.880494457097636, 60.313578527422308,  3.687476684608362
11.484850265623848,  6.210750966004105, 30.711736972481571,  4.103453344793942
10.261888584634178,  5.869424137412669,  8.589351199096377,  3.871928315349062
12.179767852871207, 14.078418008462332, 44.554950360680898,  3.904945696262660
11.362293007050813, 13.143786200105803, 73.014193987399182,  4.316737829398124
12.417058384019004, 10.052439323934987, 82.787947656472340,  3.879769844576440
 6.983745229273835,  1.918887979803995, 36.699300139049313,  3.896910583760424
 6.455985139949799,  3.018393803016715,  2.433786380795269,  4.023038746521659
 6.239469348412396,  1.325648946298035,  6.086099724484450,  3.980697446637790
14.166931287361811,  8.529026498743455, 90.590112940028618,  4.044430609964514
11.184217289393558,  4.827027081621322, 40.849557155456630,  4.099975117227454
11.156548660011286,  5.052992676967047, 68.690880669667649,  3.870651810737741
 6.888705050617422, 10.277107393043243,  2.515549239065222,  3.750091621867822
 7.343285714760118,  1.998394912110611, 83.305269560723005,  4.079793143026387
11.065784523368984,  2.819090286486208, 44.360203138474994,  3.933988302130085
12.305364038189818, 12.456068360359417, 88.894602195448329,  3.907291508907633
14.719636404282287,  1.470440284534077, 62.968423310547678,  3.906473912690405
 2.229427394798148, 13.313578622075314, 29.434789595646070,  3.855175147151332
 9.200241045039627,  9.999634082110388, 51.341458263401023,  3.887769693600195
12.886881934692530,  6.688281456841766, 58.317868052900096,  3.566422910390477
 8.515964293766528,  2.663234488916985, 89.610168227776100,  3.913696783086217
 7.758534451994263, 13.946713592301737, 12.960558287812601,  3.940107337170184
 1.725315364933605,  7.310143948159054, 93.405053176221926,  3.696306110629943
 7.407035434335840,  2.704112300435198, 30.168461895578847,  4.310023979122751
11.197274709018602, 11.812444710279303, 13.243592055792625,  3.946189207599836
 4.056078943111267,  3.950315743095369, 59.819645250493039,  3.958202542947149
14.420203904058601,  0.585712039194722, 81.935059893805374,  4.231326736283929
 7.226871708549131, 12.023339181683619,  6.094480970994717,  4.171761812576577
 8.337353647437341,  1.797348218695952, 40.493375852503235,  4.037103367101355
 7.580857862838471,  7.328116802115235, 11.130959292608477,  3.787398386082303
 7.165551194070482, 14.973881727107635, 23.625423150510045,  3.595219099008806
13.866217595018762,  2.154226502597294, 49.816905206296006,  4.067315348398791
 3.701741325649041, 12.394739048155857, 33.184278431228520,  4.130615655336873
14.752294757212258,  4.029754125509996, 42.734978774781489,  4.111965942570704
10.720576875134752,  0.816924315440301, 47.740367284573288,  3.928057834919431
10.675949518799783, 13.285276431282361, 38.417101035265425,  4.331632950922737
11.327271161669961,  8.166183994111845, 48.425642448906935,  4.199962397135682
11.579177306813861,  6.229122447652014, 23.849801831080768,  3.715641545937354
10.955310766832621,  8.625533180095832, 26.887998336383653,  4.119346297804093
 0.115814614445017,  9.703150079911321, 48.304259667488488,  3.977247547270844
14.306770434546173, 10.291889819727597,  0.362019484905845,  4.056928172049180
 1.558937102527480,  0.790599461635032, 66.206149178942511,  3.668875164642330
12.109246008694440, 12.696166037924677,  5.344336176431310,  4.114776574425600
11.066213581959344, 13.627184419805337, 51.196025147114817,  4.272910779788027
 3.813147288064564, 11.816824605760361, 48.057543556342246,  4.353385705635401
12.000693765390796,  2.122493826620742, 72.705192102615186,  3.794304085392613
 9.641472123542670,  4.584452080898703, 47.565002417035153,  3.899844599046762
 9.548316022555744, 14.378265368886193, 66.720051426822252,  4.230573270600999
10.968882913291866,  9.219213582710129, 79.118909814988470,  3.915826897902575
 1.206821186376700,  9.671762389069679, 64.898675920663138,  4.188212960677083
 2.449040966899422,  8.532966197500244, 73.235383043352570,  3.867429012279461
10.767116279595152,  9.212743546285047, 17.875779978418400,  3.830684146201368
14.502264701920684,  5.513644627355308, 11.068810830442745,  4.145595843588239
13.599063218644529,  5.726809251502640, 71.805155160880616,  4.155819847441565
13.690696011286017, 13.092794093553827, 65.895829964473691,  4.284272549843564
 8.428895479082556,  5.355272683733823, 37.949793764176725,  3.966335147969673
 2.000431336021940, 11.519078959025141, 76.499197835292961,  3.797163342785107
 4.735919491253755, 13.970010637075822, 89.647893475572772,  3.996965978422847
 6.182064639002594,  2.787120692004860, 73.439751655294430,  3.945793585747270
 7.486706138397232, 10.114502692965855, 28.396407204080163,  3.993174975370016
 3.059526101408431, 13.385650660207133, 14.468779359018818,  4.413650614320741
 5.585568326404924,  0.854237944929786, 33.280474819936366,  3.777103444060878
10.225906586557286,  9.370822180448092,  6.548136815343708,  3.876179245014167
 1.247316462945402, 12.872738487354228, 19.093102915186858,  3.687417433235664
13.018173831901731,  2.597902216772160, 32.286964358150897,  4.137659075462244
 8.108475907360862,  3.353909150509428, 66.613907955661190,  4.233375963629781
 6.475992010179203, 10.756469636781871, 40.662826708569881,  4.029928885119122
 0.217109218687927,  6.037809608128514, 50.117153053361037,  4.183754566417344
 0.985632436056659, 13.819307974755292, 88.131418576421368,  4.089221658411908
 6.864181769474161, 13.900780780470434, 38.725523266629274,  3.391594242299088
13.053487781416052,  9.179208447525472, 52.069306078518366,  4.113740786198333
 9.673898408179944,  5.017693101246651, 16.057655723142940,  4.108213550102015
 9.675373982469321,  7.042698375521483, 82.241568022419315,  4.107742629337555
 6.405493114205248,  3.309435833410329, 25.196793319366197,  3.926320961987442
 7.537905005203742, 14.167371433866704, 74.240657518172782,  3.969686597709374
 9.834974701987054, 11.294415862064303, 85.775157057684780,  4.263465017018280
 0.063604014632697, 12.634997759010032, 61.975691316951249,  4.073032935765411
 4.796103533227850,  5.507421267435179, 83.088486666381613,  3.780342940916721
 3.344615489244644,  2.193612597991647, 16.603954307162482,  4.329353590021248
 6.258134390460566,  7.049918301013170, 64.492029120931392,  3.635523586274190
 3.302877016021418, 10.533396227657578,  0.993763629466523,  4.050676561184313
 7.021844582293965,  6.813872898188512, 41.440579539434523,  4.074214044044514
 6.867457409466636,  6.239225781317253, 49.904596661995100,  4.065064235528761
 5.336838454377075,  9.902974511127379, 51.362396360069781,  3.837314498113019
 6.258694926342194,  0.606130013989614, 93.040762393231489,  4.098309675441345
 3.711718577921935,  4.957968746909144, 43.014781033880531,  4.067729934507880
 2.845238153262521,  0.385169791651706, 84.608583929549383,  4.473048557150009
 1.088810918013577, 10.389676672510170, 22.228925627712226,  4.303411330194773
 3.116073750978194,  0.439301849885520, 36.401725031095587,  4.215580173938340
13.133575204072132,  8.076445006048706, 67.255937467624975,  3.886650664696730
11.628953934151523,  8.382380033147108, 11.309430938370314,  3.960606288293924
 4.990317248566921,  1.208916138296491, 20.224681806898765,  3.821012299074868
12.216135043408492, 14.559288060227450, 34.811111403538476,  3.914150562829383
10.434224892129981,  2.552519270001447, 24.966411579391711,  4.266174904808372
14.482981827579238,  5.169174198616448, 54.030275717210920,  3.964137130988334
 5.113967228741280, 13.380171860866074, 60.328692059639572,  4.120544202812675
10.794821163609933,  1.339099430999049, 11.232549412364332,  3.931205428317667
 8.716191208732436, 11.087115745695783, 81.807190494424702,  3.949933145448787
 4.488791481949371,  0.388569010727250, 41.139676773680037,  4.007970347665598
 3.447366950896662, 10.195629645334002, 79.896033131207631,  4.005775450180892
 5.448192300403737, 10.334127304537237, 57.933963246026551,  3.644790313294314
 1.228735259693609,  3.974657434386392, 83.206128318403998,  3.852562155611623
 0.014729339846134, 14.752190688221928,  6.810486589312883,  3.591918668345599
 8.443813735117702, 10.122717701258944, 73.467314864524923,  4.089775958275737
 7.233669325773361,  9.664881321930620, 48.118140134439138,  3.679219319675170
 4.950693473383618,  9.858422704648337, 70.381320908031427,  4.029260536424615
13.670642528134838,  1.614829598547199,  3.789229562339491,  4.023049824665677
 2.799343910853545,  2.035706213347725,  8.030964217037404,  4.033876833102726
 4.538150030914252,  8.668981778250092, 76.459025208464737,  3.819872099215732
 4.192033363797373,  1.405266665760158, 27.880824489612451,  3.998037882638526
 4.686788822895794, 13.869439146930565, 51.970179037335029,  4.264925405392892
 7.981064325272470,  6.631253885407840,  3.167412733480006,  3.952939166884926
 0.050556560388208,  8.671986936269761,  4.069241759540668,  4.100328642158005
13.158116360354683,  6.605136563801764,  0.080115828418042,  3.658840295979537
 4.609133793805653, 12.499585757120663, 22.295549101212679,  3.869410620572840
