BANDS
8 8
NANOPARTICLES
cell(1), 15.024
cell(2), 15.024
cell(3), 93.902
 7.021386427650754,  7.802075584454861, 67.809299524221032,  3.560366883617941
 0.797473286648296, 13.092211756155514, 12.000947045008362,  3.856823855457393
 1.182093165281079,  9.436866760388554, 64.703902499994712,  3.817503038057290
14.369810140384196,  4.141651847626228,  0.220854848743270,  4.146608178708571
 1.814763539344551,  2.310383034123633, 18.273323244201229,  3.945766014503958
14.914494226500375,  7.764317768969589, 79.169433206713848,  4.144929492612279
 4.883314742382640,  5.625919120893983, 33.661600370464619,  4.147709267818200
 0.005271197869122,  6.604628195868112, 31.427950733610242,  3.732042508697079
 2.296391721502717,  6.391635922827902, 81.944118523340194,  3.619669868928096
 0.668318855283209,  7.946649783508022,  7.132428378385065,  3.672103686390885
11.700223641243719,  5.104129515990293, 13.164867416652525,  3.880624068190908
 1.449582328375133,  8.919378915327551, 44.554963001801148,  4.019394371660402
13.867349262126616,  7.773637712469074, 41.049298655168414,  4.031081396384393
14.834547585785211, 13.847023516964821, 29.165342646061543,  3.881021975802102
10.817652720331070, 10.850538962790145,  7.945385065638845,  4.068622993557158
 7.455827080662921,  6.240298383642111, 71.448792225348967,  4.243267754857182
 8.779311054440029, 10.590517819753908, 66.042348260039489,  3.903880722551371
10.618098537653944,  1.259352947141036, 76.454749549002898,  3.953259562699236
 8.266659666410321,  4.890161771156633, 78.283224587298605,  3.642092224710359
 4.854478286606338, 11.430166812147915, 74.119002578638941,  3.972458899875100
 4.561696665245988, 13.735728869901278, 70.903577629508973,  3.953593774697393
10.538297416544792,  8.722700112909161, 69.254935045985789,  4.242407711641711
 5.768806965817145,  4.310236901867031, 68.082774075689102,  3.812893549390513
 3.658099189075665, 14.170804368491137, 40.849342973190787,  3.737424732303364
11.053242752212634,  6.757592550421871, 80.207988308209849,  4.086124725425348
 8.178691186253747,  2.998053259281484, 32.638042748545587,  4.523913676921407
 4.327806303748775,  9.013168718817607, 31.558560240783429,  3.748284073090759
14.858132070816163,  7.252492137328097, 48.479366805527533,  3.977297319033895
13.486391064876814,  4.819098841698342, 16.617889147950411,  3.680259293806345
 8.415131945384877,  1.854089846017914, 41.233608355307837,  4.197521186649046
 0.432074841215332,  6.704865748007444, 72.069195799144893,  3.983584830947735
 7.954922426633763, 10.131796590026543, 88.447310864013389,  3.821073470636119
 5.923742098687033,  5.333996688315416, 48.347927888727440,  4.074224526273332
 4.620322429715769, 10.462387607525688, 51.750271764295547,  3.931825740970811
 0.746439079858745, 10.208050471754721, 50.999077647589452,  3.973472936379447
 1.178971517731002,  0.203732826005175, 25.651184282966227,  4.140142693519170
 7.779100569016180, 10.209239116573622, 45.016110739262537,  3.969338875741574
 1.028147018608761, 11.517873986652159, 61.541151288642865,  3.740351101607955
 7.413103151914865,  6.727989212510535, 30.569224483887890,  4.138286145270447
10.321597565215512, 13.935538887108436, 79.555278682158473,  3.846477144436061
 6.924811464554654, 14.537376121385472, 30.241412537825749,  4.291120731201617
 6.709839761930770,  3.300694716493694, 92.142935485817389,  3.838126607914900
 4.500118155348823,  2.674039246799341, 58.007667501252293,  4.376130654567259
 8.102558697312553,  7.020000321012399,  6.844416864412556,  3.935750135671134
12.303603180148329,  0.210981412082877, 42.071961691468573,  4.380764812635245
 6.117621762377931,  4.101888835770230,  5.079578677656897,  3.941270868393954
 7.784391506293557, 11.496241459120979, 58.431578375679848,  4.014648423028195
13.319382943821905, 11.273692470023988, 43.196948861445023,  4.102268629341208
 5.288028237131308,  7.043638619056123, 27.041069949614659,  4.105691947264593
 9.304312972986432,  3.946823679968544, 59.203010393219152,  3.890434126015057
13.618531659531435,  2.381993504930768, 62.065650674446793,  4.175168781218437
12.621332612674840, 10.968344563085447, 80.405149620240138,  3.847480917291651
 7.198998766192471,  0.346047109267955,  5.570073170338379,  3.919981767582319
11.433462899798092,  6.590217442983575, 72.700954160701642,  4.045127301642966
11.903504763599543, 11.886915656884600, 31.607419105171051,  3.710773850649321
11.096509216557294,  6.696263579101087, 85.990686589506254,  3.967817825240322
10.089941734479510, 10.426008172200195, 73.463206753156229,  4.192729237766984
14.585920952224017,  3.681974892767078, 79.288104235355974,  4.020987786631418
10.896382795456315, 12.996324565469619, 56.058244560158059,  4.319574048153018
 4.637129743772858,  2.950602281560243, 88.803365473264066,  4.053834941526016
 3.564123483252067,  0.291943640625110, 67.409799693914707,  3.955505948404585
 4.066215448991637,  7.764480117256341, 39.660130624726413,  3.980949027588078
 0.308033715740559, 10.346842025598084, 31.698346585952862,  3.792701257214437
 6.946759015316058,  6.355133593343361, 23.360525709945989,  4.075352440706783
 5.987922074008199,  9.420945434926942, 77.314600029842353,  3.906366594185739
 4.494017724763105,  3.008079548289121, 40.153499509378236,  4.246293323174625
10.420398138286489,  6.543057446069016, 52.994770288836456,  4.026862485297933
 2.591214712055913, 10.493458925623697, 58.109299203510915,  3.997812931276235
 8.188897795652482, 12.322038250890765, 85.178970872344621,  4.054830336219975
10.548888765356347, 14.052465848978857, 65.604209071848146,  3.851822101650844
 3.165305686257673,  5.035077798554246, 10.829036854098810,  3.961609106687177
 3.646637514545741,  6.321645829441811, 78.257446196915907,  4.081753990760594
13.466880866094195, 10.752676269056138, 58.558602422222968,  4.077234779652916
11.977038689291675, 10.390416170518471, 21.011635915212320,  4.078922743439473
 9.239645031724020, 11.322160234290504, 11.652223947163446,  3.923433409181088
10.019303121091514,  7.625301470867152, 93.787133556432266,  3.828757397306215
 1.071105286451471,  3.763808647273840, 33.839804721581523,  3.916357131562470
 4.346110216565049, 12.882660827012200, 10.055726056641397,  4.227801436777016
 9.514587001104530,  4.310696417879744, 25.467490533032969,  3.719549525382794
 1.073021103803095,  0.986525265993810, 42.468207731958799,  3.368586629808185
 2.788863481542642,  2.240852949725961,  4.362033796117010,  3.817859068397085
10.037056809963318, 13.571938804738679, 45.270679894918509,  4.112403125305965
 7.765549518310442,  5.616252671355962, 64.770388485646578,  3.978870868105778
11.866511589619975,  3.364824681544158, 65.720252495861459,  4.119975047823266
 8.199973619133397, 14.536042621487232, 51.138860514788448,  4.005272529451245
10.513699420005052,  0.350421222034123, 83.481001844936955,  4.308793104270986
 6.749810277511823,  3.194177205347839, 28.161655606692392,  4.141642591205152
 1.413704411093161, 10.825989274345659, 15.582956668635781,  4.236257449723707
 7.713832574172032,  4.912229062223309, 55.631772840369059,  4.092019976340239
 4.932846916078365,  2.163842410577046,  8.417286367853587,  4.063425339119085
 5.313281127939338, 13.653959242133812, 26.194675857296868,  4.029017572197162
 6.402078890565731,  6.825052487085800, 52.176701130158534,  4.192139241165523
 7.370833777825768, 11.452180686715250,  5.952727857090069,  3.944311480739974
 9.635225540544738,  7.934504923624421, 27.173415774893609,  4.293656362310357
 1.903778932654862,  8.124333001829628, 34.277277990225315,  3.725128596356887
 6.296821329638062,  9.100646686435997,  9.883368114935925,  4.242274420267440
11.060594458864500,  0.370974611551845, 30.105447071162867,  3.997198412239354
13.884996804241506,  0.818456585146311, 55.121648351355901,  4.143630803655430
 0.853551087326533,  0.213683114206533, 71.275330214352650,  4.075188661245793
10.058484675075807, 11.001404195861594, 24.493718876840031,  3.858679263594481
 7.554991164042319,  9.972741311286423, 38.742128751131176,  4.063862153596462
 0.486437153885263, 12.239126496180706, 68.188825484151167,  4.284073979479930
 5.266383835635400, 10.783944799328319, 41.964340010512970,  3.984718126528326
 1.795955958794072,  4.140301386708427, 14.681619757881469,  4.107097715005635
11.184568653387839, 14.666572067811053, 22.606856481135729,  3.646958424621398
 7.071861557060394,  5.786678348222559,  1.635042956413737,  3.948799534327021
 8.054065885627518,  0.456348515854578, 57.865072634897913,  3.986450527010552
12.804718432523135,  2.422439829721328, 26.306746535691204,  4.048373449928715
 1.499578920232189,  9.609286826907399, 89.830890899036845,  3.835758442122312
 1.199251524406782,  4.109746663971098,  7.422863509929635,  4.026692843451213
 8.226907326917138, 14.326310736755017, 72.298338812385552,  3.848064700191819
 4.551065558038899,  0.291193047044341, 74.534499180641802,  3.864218530464586
 6.404375313096173, 14.113328402470129, 89.328746833217778,  4.152683333961941
 8.050268619976155,  9.679257303311733, 21.442439163023273,  3.903768711567698
 0.434749156085055,  2.677556921476183, 39.184979850309801,  4.110347506036614
 0.158158442317120,  3.674208435009167, 58.237161894799769,  4.477653788680523
14.836884025951340,  3.120647414987219, 48.248011478165040,  4.247093543627749
13.569723876917058,  8.542600068334622, 17.775851211164973,  3.941874380523786
 9.122853419302455,  2.612919965892286, 19.815361680476055,  3.912427832987742
12.131864565648080, 11.854301000802803, 84.862270238384667,  3.904972334123931
12.705775549994671,  1.051764638018812, 92.096166985157922,  3.932962443279382
 8.848856356686204, 12.836392764189121, 41.416953502568290,  3.937513691245398
 2.472074918954702,  0.055205794650823, 36.618699391183860,  3.979392708826271
 1.296614875194776,  0.531105198961831,  8.992925763296265,  3.764856786460032
11.663783021406386,  5.132880244878028, 76.481434140132620,  3.971608412898578
13.899599601414263,  6.177701696517487, 27.795394637311908,  3.924191055078015
 4.238598716730393,  4.750782124303893, 85.035411149019552,  4.309844842130276
14.180097059236383,  3.457617918962608,  4.160542460980996,  3.781602726391717
13.694167148670212, 10.308614945858324, 71.472586948075914,  4.028122071324253
 0.808911337510596,  1.743497563482800, 22.000913003197692,  3.777392039739654
 1.953215496083819,  8.380002934113199, 28.671053687486101,  3.772329372526373
 9.975320071215380, 10.810978245544524, 35.700599754973098,  3.848515254659616
 2.313958736797919,  4.546700629145686, 61.763711572691427,  3.711806789699499
13.376635569918399,  1.618258277264237, 35.906651217014151,  3.930550905912821
 5.400265990303158,  8.577191461085844,  3.984564807963539,  4.049181286871501
14.419885032603963,  6.034892226195119, 63.856952798343038,  4.047717172088230
10.002658342900069, 10.997501512705194, 91.715280166851031,  4.077704500284709
10.232957987376675,  3.631194058623009,  0.126268657676549,  4.177502066234291
 8.434724870663068,  4.348034059620524, 83.177811968233982,  4.394960327028479
11.822612383954066,  3.383951889876040, 22.566376405764938,  3.919224099129054
 3.035782889568102,  2.370598762665348, 77.541697043346574,  4.012215785503590
 9.413057938593326,  5.108787949369735, 68.175205174856401,  3.625085078977828
11.163050633865259,  0.990679120064616, 48.642581986926132,  4.281192708854162
 9.701464031905726, 11.982862242888910, 28.357683906469376,  4.135395728045447
 1.564491031103725,  1.965211834149596, 91.362111823395807,  4.167105467178334
 3.384360306657253,  1.263428862980155, 12.236379206262104,  4.078730235334525
 6.178745081159625, 14.112617628093117, 64.808420753032181,  3.753036492627558
 5.311441931571237, 13.189575057640891,  2.752755232305596,  4.133323097809448
 3.286213664562674, 12.593156895145386, 30.533073007462857,  3.980304268805234
 0.335970950731819,  0.002778212831599, 15.405912415353319,  3.968598881599190
 7.149495003520580, 11.690956312441244, 80.412854373952626,  4.111114888005316
 9.439536015898332,  3.212196648575307, 73.287408161217101,  3.849021194099320
 0.852740410375243,  2.556489187619325, 65.512677143882740,  4.062372066188286
 3.577153777771025, 14.033695394287845,  6.261652140673998,  3.835641691634710
12.630422886451171, 10.167427429977954, 53.481469933054711,  4.032362601781975
 2.780300699537894,  5.939521678562330, 50.680527555678339,  3.829517889017034
 8.203295232960979,  1.976049169608964, 66.296512446034953,  3.798979281092234
 3.680413148704624,  8.905527191426552, 48.053644860531669,  4.271237464281503
 7.484703547560184,  7.238863829326587, 13.302623101526207,  3.881289263682427
 4.025485979095728,  0.393525123655903, 23.108907595553344,  3.425155692085819
12.345504734375151,  0.800435931430895,  2.076021172482314,  3.836919505746322
 1.403103482342543,  4.021453374839780, 54.027309684769399,  4.290731538307747
14.458177237263452,  2.797533386090289, 30.162841693365809,  4.345987976498280
14.338649303458141,  9.262230446615071, 24.209900712333134,  4.170575519229081
 6.861547192299214,  0.341482168135756, 81.960513377302604,  3.598013094760152
 9.614707220397166,  1.557645587570844, 54.317017110102000,  4.046936159259386
 6.559368004783646, 13.379730400296475, 54.702974635647763,  4.171467268391137
 3.843441340370337,  3.550634564756317, 25.212331299315970,  4.157886866609229
 5.092737804359253, 10.647658941809926, 91.057383805101466,  3.943472220745737
10.854663572901089,  5.297362278483178, 62.433823419688110,  3.767577392765916
 6.689120049667054,  7.162459194157589, 91.878126462855946,  3.894028904830126
 9.537961457476227, 12.887769617892713,  2.544753787371485,  4.298136327577236
 5.665236610268255,  9.331684908588153, 35.193744449067076,  3.973203437503720
 6.165767858196701,  0.812584088561717, 61.350407895121997,  3.966522027905623
 5.092628724574206,  7.473074551828680, 44.073318772994703,  3.855491767502634
11.625317745225558,  1.656683394337844, 15.241032066300640,  4.152020053119402
 0.651893231625542,  0.446140509403881, 51.501709205820781,  3.957442756682311
10.676054801472201, 14.517364565107274, 38.262418596351047,  4.026021033189361
 8.704637075802827, 14.087572206742932,  8.934540596616323,  3.885397900105778
 7.412313001822484,  7.391357520971148, 58.750543066819567,  3.893979691583208
 1.522397292798266, 10.588831405736522, 41.060260616226650,  3.724914172888436
 0.157779934272506, 11.867931275223720,  7.756538757983232,  4.333321562756370
11.368727819043665, 14.394692112058340,  5.979629586132534,  4.044886670026736
 1.809565781151357,  6.043212198204768, 91.442799389014453,  4.000410734879031
 9.771418400913490,  3.386150565339246, 36.846177162512966,  4.169430135191850
 9.373093694193809,  8.848107037904152,  3.601376562769143,  3.930183738399442
10.521013430309232, 13.661970095749988, 88.437662230159901,  4.289437990374348
 2.081804938541867, 12.839302481945413, 44.134368096698701,  3.959956253559971
 0.111698692714523,  8.548507494990771,  1.534395117954761,  3.724075211786888
 2.702404815395616, 12.851577855983745, 64.596255875776777,  3.635820158427447
 8.636656352995731,  3.548602446569846, 50.884566695286743,  4.111123755281690
 6.684496443450060,  7.493571401599886, 80.813958641065653,  4.192364816630850
10.352170423471915, 14.541145911734342, 34.149036473027785,  4.217775816334114
12.526292187463572,  4.554737107358419, 83.066256728290767,  3.704932326221800
 1.041660590307517,  2.882575514924858, 82.998359508175881,  4.125681519420259
13.892368099076833, 12.288806413162510, 91.285715865629015,  4.163619960190045
11.207789489406487,  5.904011937157696, 19.544288136335613,  3.891961476573160
 2.489096846031000,  3.364646861917095, 73.232499643505847,  3.975193316006318
 4.408682009931960, 11.242955230974921, 87.203204123543841,  3.971404021646966
 9.760981922704689,  9.643806989084304, 82.664151908704028,  3.907504479248362
 0.966283564884200,  3.664650504318464, 87.336586095076569,  3.961661755101467
10.286672495246046,  1.888111297880666, 11.437141267592141,  3.924985432021071
12.061631944069411, 13.883055532427036, 52.070673851368596,  3.966818672957409
 9.846812606762130, 13.683993742507148, 19.157434046097567,  3.982056765298465
 3.273011515761178, 10.015725856280985, 80.380761209678269,  4.328838011291327
12.158607971728127,  4.613294488559281, 33.274994635362610,  4.159756175774355
13.965005842877265, 14.660408630857169, 45.897004571153211,  3.998736787378566
 6.872360707404157,  1.288795861988312, 78.241076803374668,  4.074703961380060
 9.730539923849992,  9.122219714151734, 17.996457951068169,  3.831653285519845
 2.380937355504245,  8.086982033784219, 53.762156919435753,  3.707099995875452
 8.846422290811812, 12.871109992973910, 62.144590295886260,  4.169434615405573
 1.784873998432891, 11.290243197592639,  3.816695832458879,  4.131912649737695
 2.915259925640794,  0.135091475618981, 55.095790052003153,  3.953734402990951
 0.009487250246334,  5.332779352722043, 20.032189382109621,  3.876733479118667
 6.902643818760294,  1.252347880475374, 85.766118009140641,  4.227573109741386
13.778559101556594,  8.341795819597179, 83.291643625337869,  4.279731231236556
 6.624014532303548,  6.140515315636565, 37.219096438571455,  3.789165317917392
 7.430048520031256,  5.956218802920399, 41.118929524313437,  4.181376435648554
 2.725890639263960,  0.020660560939118, 80.726507606620800,  3.919346342342418
 6.029013197961628, 14.251860418916223, 44.123220335273039,  4.325430154023078
12.170667694437709, 14.261024342853862, 72.738105870688727,  4.039130726604346
 0.144031388957614,  5.155200001278104, 24.068542101605676,  4.199529793629143
 7.468880175446849, 13.444860375244982, 22.690334175562629,  4.094568940777224
12.761079465438788, 13.424240349318460, 61.415431141282838,  3.866302052930204
 6.319361913651267, 12.277114200155451, 48.247072247435916,  4.229017712912294
 2.685560428476233,  1.426079498007990, 45.779619435794821,  4.049207283913622
 5.130557066851295,  4.289345705945478, 17.110249027498586,  4.115233970338122
 6.320933976944610, 10.140135655922720, 24.835887688100271,  3.768657431131317
 3.237229872219778,  4.786325401684159, 29.890335794870968,  4.237209199008883
12.689539328002127,  3.255524213570087, 51.917563351216891,  4.245589039792490
 5.737059235172506,  9.319603045977598, 55.543897965689268,  4.274461525447956
 5.387260989499683, 10.890341851771607, 13.321942575314379,  3.630150212410754
10.092452850801109,  9.039016910749309, 41.914243522010906,  4.114727945384953
14.346699781582570,  6.214824081087146, 10.369004099107178,  4.129726978645375
 5.302032970049591,  2.739852383138103, 53.142025047381615,  4.086638089186077
 9.861023157209260,  9.824719140289316, 77.889988604556990,  3.960644898076072
 2.842816623009143,  0.131987292647918, 86.319640432370193,  4.266675850983602
 4.827380760031213,  3.504956348674212, 81.037892027356847,  4.140632272509847
10.150839746868137,  6.828705516650383, 89.915875442170545,  4.070777545354155
 8.083949859898539, 10.661864835273825, 32.067490809683378,  4.346536087218832
 4.525610850044632, 12.669524217346638, 83.413224173227448,  4.090667406641544
 0.513585786852287,  5.512131558650859, 75.892427514358005,  3.899543883536200
 0.281142653867775,  7.455135358391249, 86.934122797157201,  3.777637271722656
12.291296862555782, 11.129923525005958, 39.403977111380968,  3.676142866876999
 2.811616116609847,  6.103789915920363, 66.120365898980083,  4.121782720260845
12.667995004160286, 10.679176221672199, 65.709823492937460,  3.849657660864770
10.109445050287572,  3.369318372585794,  4.308231123147995,  4.136867771345548
 8.123409536824129, 13.023477022664439, 76.089693851701639,  4.156260517717289
 4.672108037547514,  8.737773332798431, 20.179360947220928,  3.541342421396104
 9.803975102780239,  9.002534265281909, 56.074833992444944,  3.947343384231074
 3.524348957781536,  3.878429303476647,  0.688236416024265,  4.277950675573775
 2.062093294564647, 11.385457128800144, 26.323524655651202,  3.856827684860728
 6.125411404606067,  4.751669211738321, 61.290557286163789,  3.862220954762579
 6.221930150120425, 13.722222583356828, 34.384698557008974,  4.163217467175652
 4.270356096038288,  7.466023041743145, 73.799690805804971,  4.020636298460872
 3.810312756139375, 10.355137913881089,  7.052110676298232,  3.695605243319541
 7.155124928162475, 14.638651336602660, 12.596652168630413,  4.119896018918383
 8.648534898586121, 10.497215361739118, 52.423486400032495,  4.221010814506197
10.190684719314040,  7.540057003633260, 10.327682584169168,  4.181472868036104
14.645693151816774,  7.455093312834187, 14.163026434710147,  3.874558020793568
13.455587413823332,  8.207895893518614, 91.923692906367066,  4.075136841875696
 3.846781674351958, 11.459740245056198, 38.069060347200427,  4.030637127957890
 5.958998859329593,  2.380402584913005, 71.465747844052075,  3.977146521132971
 4.932811345896143, 11.919914704667608, 61.460297618694874,  3.968601745798035
 8.474207750361320,  7.188731375884571, 75.297197275031493,  3.895428001353241
 0.067538414780082, 14.687306101127170,  4.860994747454668,  3.739532260675805
 2.626227656311404, 11.868613302435657, 34.340231097509580,  3.856024738751147
13.451107241152824, 10.187262357566503, 28.184299965735629,  4.180912700322887
 5.999363741355279, 12.203429503697516, 18.998656532151394,  4.227627093902838
 4.252116622986967,  6.613662574478444,  7.414931066158398,  3.865606820281273
 0.427398416343009,  9.168102324337124, 37.662517247388969,  3.944104691432305
 4.477098700719585, 11.505064659980631, 67.660396484989604,  3.887848462514980
 0.121375470314818, 13.735321507651271, 39.464138008063024,  3.864221754549956
 3.722571265318933,  7.950741398317786,  0.421500928103450,  3.886120898711157
11.186169247267948,  7.216988825403383, 65.618759198626577,  3.684314529894503
 3.876255901380105,  4.752145730559001, 21.052214903198784,  4.180979367810822
13.469956243701917, 12.524765060901940, 17.901591439153229,  4.017811239392020
 0.392285823000827,  7.474296243503066, 60.128091513872093,  4.000674332139855
 2.090993076070110, 13.132913098648148, 48.320387954463740,  4.391930170881222
 1.071512676539977,  9.719874704278720, 20.586465397656781,  3.931349881629833
10.114394215580699,  1.635525112766863, 69.766141797264936,  3.977505817227554
11.554133256441750,  7.248632366375465, 59.162635409594216,  3.964376796145570
 3.597030141226594,  7.610176057424469, 13.759929487545213,  3.883476508665886
 2.357368177382317,  7.300184260912112, 17.541375609068545,  4.019239162360593
 9.847179626137311,  2.693323624425155, 89.834320699980026,  4.037187423582804
14.265412046171031, 14.092716035191939, 64.846880792289269,  3.724792332180503
 0.528823059586173, 12.068014381157584, 82.664733055457788,  3.870501433621994
11.640282175305712,  4.457466443224201, 56.145006535162040,  3.867504132098479
 8.945814003338901,  2.716593734597143,  7.959632788237683,  3.632085572697917
 8.584145872662049,  6.316574639392803, 45.464077948122913,  4.004778183211739
 6.003637101306298,  3.984737456979704, 75.220716000318177,  4.185041254902283
12.267644619556668,  6.412404321791522,  2.727161543151490,  3.805670346205185
13.790697364371024, 10.871112523191790, 47.196970543508037,  3.956461591165737
 4.666811653254094, 14.850821868484372, 92.965524824803225,  4.019339900119127
 6.600664998995268,  3.495514195484466, 13.511763899666178,  3.814719106325964
13.516915831975954, 12.110689489874892,  1.468910465748774,  4.043419370491484
 1.102608442189051, 11.693045757041926, 54.646461340742462,  3.902702104509275
 4.131739080573743,  1.646860156838781, 32.465095932497107,  4.010607428901784
 5.298914843254737,  9.053358235190462, 64.552821704486391,  4.193202264314639
 8.813561421003120, 14.882987417222965, 92.711049008575884,  4.287585827919989
 9.998926220033511,  2.600588989818521, 44.935066349302993,  3.985999990001343
 9.130090802198806,  4.927735949346051, 16.233449774259302,  4.127970752904658
 5.704198547303010,  2.439726365526687, 36.152111250967678,  4.104983374045446
 3.532114435100688,  0.992485419250143, 28.699217029861376,  3.709697062648376
 4.446359244567515,  7.175760950267714, 88.518165377018931,  4.184498681167648
 9.746819335160239,  1.681265188167356, 62.805025962807598,  3.817383160333922
 7.070885458086971,  2.398312104243330, 23.113634364099326,  3.851705074396270
10.589402188380596,  4.364019997124149, 29.276348718918889,  4.184318855520616
13.279835144721194, 10.111280416202318, 11.044527889988011,  3.982184453777955
 2.584556204934354,  9.254622290244729, 84.358239722275172,  3.859177613130627
 2.094972507355620,  6.144013189434874,  3.954977196185726,  4.151300053246551
 2.498322220572686, 13.346336034131825, 89.938754622538767,  3.852522813868956
 3.803668583925208, 11.819467950224574, 22.472329056985295,  3.885753746016769
13.121553926587703,  9.720744867868227,  4.753130262379759,  4.099168476599455
 0.583072892415793, 12.514841307297692, 78.488785670704019,  3.849572889765596
 9.054713035726355,  7.170295865398296, 34.304533804559995,  4.052961790020492
13.545470758091609,  0.741119847512943, 68.154435351497511,  3.779091567253673
13.417886595541786,  3.060429412314128, 73.473630460699155,  4.114052229513010
 7.037654301509021, 10.143059460354639,  0.619000792177807,  4.058112598087491
 8.434232590552311, 12.034710392942269, 15.566263489720159,  4.179584126973266
11.519695841038228, 12.664983670274912, 69.162273879944934,  3.874201826712595
 4.793660202626945,  2.878121039160250, 64.531339796381445,  4.081343080888642
 7.425547152442690,  6.442670331517523, 19.477922454100483,  3.744909771679018
14.060377218475443,  5.395770646451402, 36.690995350931196,  3.762617952963035
13.725905436849295, 12.460159581568128, 35.829258847264491,  4.342760589206890
 2.831823419635030,  5.082715561442203, 37.068472338754582,  3.875140658210744
12.251198023005067, 12.751431990515284, 13.989244075713529,  4.188262868106157
 8.225286747703288,  8.634832152385160, 48.742725265144244,  4.007453624104206
 1.980339513326988,  5.545707403766464, 42.257156746634529,  4.021527688114541
10.957569480606271,  8.858509338340040, 14.270968719572739,  4.011681529289887
13.384832925831317,  4.492415061873039, 90.187156445470762,  3.917790799443940
 2.208477393595648, 11.669446873044093, 93.650861460120936,  4.078769093834553
10.915323885989329,  7.207510793162564, 23.283708514421996,  4.014746219555017
12.148127727494387,  2.759538434020629, 86.493882709577704,  4.069013653660764
 6.568869941263919,  8.413376112020430, 84.995560867127637,  4.370678351306495
 2.525158791677242,  5.415459554466879, 46.207652788524520,  3.945830154586520
13.013772998780864,  8.578629744849568, 34.622927082337213,  3.903249916988428
10.936541007641985,  7.581029857235686, 38.040161444312034,  4.325185388562072
 7.047393443555302,  1.389067845607008, 47.663773168440265,  4.215945196322644
14.542882772326180,  0.782928709343639, 76.590247966959936,  3.897714115059263
14.349181383627922,  2.095831545281798, 12.059229805521577,  4.166905108059487
 4.675684303791935, 13.696693079678997, 58.120366630162707,  3.611851450886451
14.773814780461688, 12.995581691595627, 22.544738303993661,  4.014592948390750
10.426180978250358, 11.958712043870641, 48.998994362950846,  3.978972983799172
 2.169540079120515,  9.631893463436247, 76.400737074272101,  3.938133961194667
11.313993757686260,  8.054215152571578, 31.021508685358562,  4.103286256817785
 6.677361257137938, 14.259490680600685, 38.413843384276255,  3.956661943611453
12.428541829021370, 13.875719353069824, 10.099565622556998,  3.902744168904881
 5.422879427676433,  1.191879625355007, 19.739349116419525,  4.012939265704482
 0.761642809917097, 14.300298638114578, 58.604025083122657,  4.352279608614598
12.414205342317791,  9.823295089405315, 88.305162428841200,  4.097385770327516
 2.163241554106261,  9.304763710030960, 10.452455361448981,  4.082175516425053
 4.279770610937678, 13.929248860863378, 15.552455710358123,  4.210947775919616
12.548649208709694,  7.545855742455569, 45.027279627185770,  4.342302815063699
 2.556117391417450, 10.439455252764910, 71.147484311238188,  3.775636154501961
 6.997440596441845,  5.117673967012003, 10.059037737055114,  3.840857076030252
 3.760801269071091,  7.028278148771752, 69.903431176180746,  3.861370154563075
13.084457281171494,  4.455550008825465, 69.562308635368950,  4.216511421039670
 9.061397600200083,  0.388184049102852, 26.026721771904928,  4.254150447590929
11.832724014271912,  4.217743501275350, 40.545892400103845,  4.210852026817677
 4.202439966491228,  8.114927966981861, 60.799510053880056,  3.841068426858955
 7.738938789929860, 13.687594996360428, 68.390976831448327,  4.094296455495717
 6.897425972397256,  1.822744327430279,  1.915239596973880,  3.983417397024096
12.223705386823640, 12.636795535986630, 76.403119242305024,  3.961320010774376
 4.397478994950725, 13.048842120461089, 77.744576928843586,  3.994678535760663
12.735162074005039,  9.385893125209385, 62.152501225191514,  3.712151221631299
 5.863146794305656,  3.503563723709840, 44.148338743208797,  4.213586658919187
13.928752088816008,  3.598939449013784, 44.152343507169483,  4.179308528210766
 2.299178139364580,  0.728348498578330, 62.170751498339129,  3.940305815828977
11.762337016813291,  8.623629707599200, 50.126316764827472,  3.546430527108747
12.136479896132164,  6.171908850036719,  6.775108889384054,  4.301456212883957
14.302046946617279,  7.491084116088657, 56.141276075176840,  4.200593078738706
 7.728122525518727,  1.067054663758517, 16.405385719104782,  4.066781631329139
 6.040089921640996,  8.806903607081811, 16.643580823339125,  4.036462093570647
 3.127961359865794,  6.592261614928528, 57.303510743587942,  4.041078654032243
 7.731523862354817,  5.004569366361290, 87.263625656302068,  3.977877371365477
12.727674057123711,  2.356638801330141,  8.306591879689694,  3.988273165655909
14.271298724718102,  6.905208519307237, 52.231131040964165,  3.648370784976292
 1.282535819050683,  0.360000609943194,  1.254064235131671,  3.977982062975911
 5.995855966257020, 10.608796971549577, 28.564981334656629,  3.774626734519082
 0.561155779059301, 11.820938696351005, 86.696317541328327,  3.849413677166534
12.978849320195653,  1.373379777940107, 19.224253282967496,  4.214891136877550
12.620403210811865, 13.467119047938759, 25.990806886759010,  3.854372010738154
14.421636153576497,  0.121054582057515, 88.478144734489746,  3.862865254269224
 2.067218803771957,  3.519767498982246, 69.252830727227732,  4.033850795829436
14.267099648453589, 14.948846942718527, 84.730128483388555,  3.614365222788037
13.791776526099504,  0.122690323744852, 80.942593421130283,  3.978045036672230
11.266532926777364,  5.321353754938007, 48.335440049612160,  4.026432695270027
13.344965977133951,  8.854085288777730, 75.508994012310211,  4.109171753766988
 3.586469552812890,  2.344272565557813, 49.538251251493016,  3.877120798140365
 0.524865866318145, 14.910796904868441, 32.965485638395023,  4.015739064332117
14.785886609421420,  8.052545993947790, 68.189397675795831,  4.201787618770450
 2.106177154560781, 13.484912935088634, 19.247925341780302,  3.981936272824613
 8.818254119741185,  8.708276022314875, 62.288738951475089,  4.156982495583492
11.900880071070015,  1.040080294059173, 58.639941252222229,  3.944886509254960
 4.293699961566908, 14.268404284427071, 51.599184110247577,  3.700090415016495
 6.873106834313451, 10.361772789732498, 70.726045880385840,  4.205634057802943
10.802974774228799,  2.746525166021101, 80.129225073403347,  3.946511719294234
 0.674053712191251, 12.727495319247845, 74.454127774459906,  3.938005479743521
 3.204082495575880,  7.978870175775196, 23.626276577859134,  4.097388228239121
