BANDS
8 8
NANOPARTICLES
cell(1), 15.036
cell(2), 15.036
cell(3), 93.975
13.015017284036729,  1.748182332860002, 67.185587579629299,  4.293538052815576
13.895826344334525, 13.962827484558717, 12.193479741119701,  4.347693044709144
10.405129689914576, 11.190530023890320, 76.808407118482279,  4.205200136090507
 3.075898618053652, 13.684707199870912, 48.249214371993389,  3.934787760781064
10.741147747146185, 11.816695475654686, 56.470106445767051,  3.630372037141680
12.908345425924471,  3.918554948258792, 63.584291857259622,  4.034489236932261
13.469776448991361,  7.662590677402330,  3.075796423572613,  4.299900301425664
 9.488027807296323,  4.585336981510441, 81.247222669493055,  4.313379735958129
 9.670413422839594,  6.587033017897799, 18.510927963452552,  4.262301766437680
 7.141999401834969,  0.401016314789805, 70.208587198698652,  4.123808664733304
 0.292728510568841, 10.174823685864526, 37.179121880910216,  3.764357190525502
 5.623202102108399,  2.318030890088977, 60.203839306908300,  4.181767892191485
 3.541389602747788,  9.195087851584475, 31.335513460123448,  3.877499179755670
 6.499766465065297, 11.951003314060891, 92.047543817793468,  3.994225307236893
 5.656628516789596,  9.514177638516824, 24.090985406452422,  3.733773791262178
 5.972791891735530,  8.050737015311354, 93.627818221222242,  4.443523511284173
 4.540147688298404, 10.710633214410340, 15.959659178884531,  3.937473006760912
 2.020102352011905,  5.666066334315628, 16.255439006077427,  4.099274854472221
 5.441942216451356, 10.456831125781312, 62.986837493541771,  4.135759833878031
13.619673848402396,  5.376897106189697, 41.561234304381770,  3.839663955351774
 2.206773201029256,  3.774140443672012, 61.928083441984938,  4.006758103324209
 8.973676768458816,  2.847565905754811, 85.117537639946377,  4.218592078545183
13.987935019555037,  5.883123118990228, 55.647526368393855,  4.438697452486931
11.653052311933525,  3.840734499809144, 77.007663209153307,  3.826763618326536
 1.884095523635053, 13.692142078130500, 16.541598367294085,  4.115753939784121
 3.346606574343521,  7.685032146875695, 19.436300415862920,  3.726834663675141
 5.147104361223620,  3.848043000720074, 84.112502643462392,  3.892075716390658
 7.390589320118370,  1.604563803346464, 74.079934298224458,  3.880881769685732
10.815728116152338,  4.989165864963780, 52.938950234084139,  4.089991157805956
12.260029872786333,  1.613769920468314, 80.808349720806774,  3.857963519574143
14.152866362684604,  9.375675565470200, 91.945404273431194,  4.277365172706963
 5.196421237719384, 13.045396106490998, 44.841695274541387,  4.099585088253866
 2.661286126454330,  7.629873097004626, 51.279856863479452,  4.302111039863635
11.631622873202968,  9.482690775672777, 25.424731579497784,  4.064124973147316
14.911951123745933,  6.670918513121937, 59.911908190457709,  4.419938482366364
 1.468347383051388,  6.857784635742370,  0.293407977625600,  4.029421919973509
 4.387964666529588,  7.178434539340191,  3.302609404902406,  3.647920913253166
 5.853889868820723,  0.937637672518483, 91.359654319894190,  4.246649256706100
10.727570000472129,  5.157873389525930, 60.531941852352830,  3.804435943316446
 7.151415141555511,  8.273760954200556, 70.381163591098826,  3.764170870640845
 2.069262192167427, 10.756753239788905, 65.200653160534003,  3.832579620005096
 7.759845379124971,  1.284668848997535,  1.166024559274414,  4.175052982963706
13.255729580607026, 14.719500405100488, 41.653532142856726,  4.139304317176818
11.657687312782519,  7.628995874454827, 82.866889174441454,  3.777052843071175
 0.041340129505259,  1.957010775824302, 14.881761500692161,  4.081517240116921
13.454616725421706,  5.309740166218312, 80.361390007223207,  3.939173590762503
11.329894676479153, 15.030561179150899, 63.549707373863058,  3.965347091708879
 2.590399976362529,  9.596558302519234, 47.345423158984460,  4.489888661119509
10.258825517568170, 14.841179528143435, 50.418495506046703,  3.993498355233447
12.836087358188726,  8.919046601179540, 21.469555444398818,  4.066549281852861
 9.026580811182482, 12.581240279702284, 16.141867246571231,  3.805987978453576
 3.583567692645111, 14.020679121296535, 63.223419927118194,  3.861661306432579
 9.419124672039633, 14.085010755429584, 42.845676762186940,  3.829384546474911
10.181578534221066,  0.535174927506433, 13.648969216517170,  4.244745359323816
11.701912846148305,  5.386432541740148, 27.379597322251616,  4.224252612664809
 1.664508248045996, 11.180039947283397, 61.104269953786236,  3.914793820002986
 6.895207999211649,  5.846870662456356, 87.078241159519735,  4.048609835427651
11.904272620183811,  5.656198300171786, 67.024656817381185,  3.835904586859804
 3.704221749574133,  9.482069221979415, 68.705569347285547,  4.215057352696430
 7.152964030445817,  1.409468287699856,  8.011656153602948,  4.131585365167260
14.417548416097224,  6.644440309037777, 24.483259600400508,  4.087270987364238
 7.112468965841337,  9.860280972470475, 18.919398559507282,  4.065938745430658
 3.678460052840875, 11.965987176877928, 19.854700813294620,  4.168301844723191
12.375744842017633,  3.807068335904239, 12.556389091881741,  3.924383964238021
 2.956409724418419,  1.721228707680072,  3.636409941077670,  3.652259757221892
14.168381005722633,  0.707440111723181,  6.050746433374135,  4.098145388354255
 7.761171914739727, 14.341306953224441, 84.120118067725599,  3.524307353826054
 1.072866198949622,  6.311333317877092, 74.444311842167068,  4.228663956196863
10.849240189177873,  7.864983954208139, 43.187749633593178,  3.962862877156129
 9.351612974800688, 14.522695174555993, 38.642666405469427,  4.377405929446132
 7.348393506870017,  8.337103970241570,  5.377371171916413,  3.897605460695765
 8.909221713342719,  2.458364759372937, 34.364250743536900,  4.062997883053550
 0.052616198762229,  0.714831877924671, 63.026345364891064,  3.734471788924092
13.400233145554390, 12.214802302441463, 48.228123302040707,  4.029862727979479
10.780399805776348,  6.301860987430826, 86.374391508910918,  3.892050401033456
 6.761372463481608,  1.460509294143491, 81.232869564706547,  3.906761596250410
 1.507353726976492,  4.069092494781125,  6.401330791329944,  4.156315301751070
 9.419365577131195, 10.881195141392341, 87.304555165670280,  3.762516368752256
 5.893342882527809,  0.450814297530590, 36.054437426791466,  3.930168243923114
 6.097071513148077, 11.654593826146986, 72.084088819384789,  4.011705994478774
 3.753305424816166, 12.229052447293675, 36.620242097588331,  3.920468555875464
12.170959498032243,  1.609358649620429, 28.244730599798643,  3.554478484898824
10.621905545466248,  0.222565806043588, 31.406285316885732,  4.007480640660527
 4.014800502219988, 14.961372449686747, 84.364270075992223,  3.994745982522126
10.037390990769476, 10.913418913989524, 50.053776741220183,  3.908148694380050
14.457790979935709,  7.643541635589147, 34.332777779180034,  4.021774184764972
 6.417512415654701, 10.193708571298433, 76.206190757041384,  4.094033277725355
 0.092953498756703,  9.510134682707543, 53.864764173496603,  3.885326269682218
 9.695742807848488,  1.326371781526509, 59.899146475557032,  4.174737279946379
11.274501089821692,  8.826463039053188, 46.982599083928527,  3.899602642833196
 0.235751610168207, 10.446647877100323, 27.077339430987745,  4.081977064066845
 1.931476566400847, 11.180268964137531, 72.276680439280284,  4.241901813457329
13.377476526192355, 14.156433355303623, 74.668980898327760,  3.765599893110132
 0.084462862878823,  2.952414340892429, 30.140345276107109,  3.884613071489741
 3.814597903038222,  7.656736489673550, 55.339298971665364,  3.947647420449583
12.675672398302018,  3.016926937214299, 33.157037642936821,  3.735789983664267
11.958823220872469,  9.523904640990651, 66.851368606362556,  3.899140038806649
 1.183816759442320,  3.611064397114169, 65.645004810400920,  3.708923912459019
12.947942081667632, 11.286755057662454,  1.308275608206305,  3.760422723516630
11.604026770367081, 14.369622486859885, 84.906255502831570,  4.286346656723517
13.834445318624949, 13.952721685902823, 92.542575375861020,  4.081137249888456
 7.747001096444906,  7.601342725104020, 83.555572767419065,  4.002305615431615
 8.919771735795873,  5.048065571226007,  7.247411515971723,  4.082661898522024
13.136945323043875,  8.705781845609044,  6.890733178616767,  3.568849888924880
 9.242963978716075, 13.262650371672065,  6.515365810851473,  4.034895193903234
 6.861492798989283, 14.823504515551861, 25.143955778488081,  3.702021761776668
 3.085443705941843,  1.870588683984856, 25.002171708315661,  3.930808479919107
 9.257847062850502,  9.427098961564878, 73.346324846667031,  3.814279878224585
 1.248563206435674, 11.445047372169041, 50.776968352565021,  3.740624831269280
13.579482384813874, 11.849231105588615, 64.108381449373368,  3.858088990524736
 6.676847644543941,  7.390288582387517,  9.890331410867610,  4.272851133759614
 7.695653468817335,  7.022299229590183, 36.449274658685248,  4.252983679014132
 5.403904127155871,  5.892650366522692, 80.544009628949837,  4.348296274512278
14.265507807540480, 11.501570162224905,  4.809021784346493,  3.732038110025301
 1.627141190066595,  8.390198434964944,  5.616176809022773,  3.948789967862560
 6.045902041691523, 14.654032508260013,  4.505113953608500,  4.008000102802857
 5.139600030616159,  0.695563431492517, 21.331170074298758,  3.533563515710213
 1.244417632970249,  4.874084610843227, 12.349274556082257,  4.007569505333850
 4.076476253276986, 11.958683883619859, 53.383027134151725,  3.931339948167512
 5.733519547978464, 10.689945477175828, 12.182547506719185,  3.974270553349121
12.297736710187101, 13.783169723943480, 88.868014403532428,  3.813275883193954
 4.653576899285521, 13.134872278723000, 88.083997283047680,  4.280516668413120
 0.188976426091122,  2.373394233620663, 78.149342140776128,  4.204571325508538
13.160915394779835,  2.593230332846963, 38.524669884539620,  4.403452430776690
10.017394529453441,  7.632591189374012, 32.918261239166895,  4.111610352716232
 7.910313134616874,  4.982139928252048, 42.506930560717009,  3.553519753269820
10.475661120562494, 10.969240926359683, 40.631841541758838,  4.036060700720809
11.909726624746252,  6.433654921980679, 73.866670120853499,  4.246260365659018
13.384331855048863,  6.121535480020504, 89.416568880712376,  4.105169461190759
 9.519848250898207,  1.348483607476516, 53.985439966045902,  3.898678154429215
 6.220024213747930,  9.386386256397262, 88.957189197581229,  4.029374418900374
 3.146874169763545,  0.313871707419508, 80.109719531963307,  3.996548621903423
13.456647255410555,  2.583993178148099, 91.360778317579687,  3.659427651497709
 2.890561337154487,  8.185702232047152, 90.791768260569427,  3.935796675510654
 3.371688567784056,  8.233879592070895, 35.175470264405483,  4.024967763178060
10.108916573629976, 13.039552518481702, 24.017368223322659,  4.005663260361681
 5.763779555209211, 12.833009790237085, 28.913913356241572,  4.135884879192945
 9.610847733531998, 13.666520577559035, 80.730002793057693,  4.108790328057077
 1.539517588336007, 14.831035311578029, 21.950024586090326,  3.984781560290345
 4.472616784926981,  4.291818859329541, 35.837483098978332,  4.262829506557343
12.126617280343147,  0.322875836379261, 56.777872697229142,  3.980110429648593
 1.307869580868574, 11.394683049149013, 33.741503122845735,  3.790405049041798
 1.410476903276894, 12.683677600716756, 40.004851185904634,  4.111641599701569
 7.764102582549548,  6.830174990808247, 54.975439299470494,  4.118695077407581
12.193672970954665, 11.255884896904256, 33.642072529812800,  4.464408784400106
10.907922089794507,  7.669437875965961, 70.142732622502663,  3.833732017951233
 4.099046942599175,  6.092691600804402, 66.353801619954822,  4.071769332370203
 8.867881507295126,  1.024580207471516, 66.554870264602229,  3.887192360719846
 7.733854195947006,  3.280471179799327, 38.092764556058249,  3.916949447078955
 7.488789675238065,  6.530885809735203, 26.018122606831678,  3.883773253802042
 7.986566593400720,  4.923767102910720, 66.396567942092560,  3.772399102083425
 9.733795779148053,  9.627548163682278,  8.248931288449272,  3.979634533458917
 7.725615610018076,  3.123848773620697, 77.732498529577938,  4.020034360619414
 1.900491858954571,  3.815621652671412, 81.750519626443534,  4.118630457741263
 4.635329389763136, 13.306517810535723, 32.850652011357624,  4.085881304992891
10.279392046661965,  0.284679099576313, 76.707394819276601,  3.814330255936661
 3.524790853964232,  9.142258496310086, 39.095918628312305,  3.992463225886461
 5.431771044715370, 12.295205172299967, 40.804340952611746,  4.124851057821618
13.792796902484518,  4.398413394485471, 70.555828527811229,  4.366289045328063
 1.011802494973901,  6.523071494188188, 28.353186078199315,  4.310840336014959
 2.623532501848040,  3.398458912352567, 49.462212163187345,  3.893743229156462
11.054250786171226, 14.886786319285529, 70.159209512836696,  3.734738361494037
 3.751000186007382,  7.536637206211648, 84.033791795110119,  3.980768917396762
 6.453031474417892,  9.140720275013788, 51.936103218125041,  3.953690096434686
10.498417594274501, 10.320958889039890,  4.128680458804837,  3.933823372242088
 1.912336234714869,  9.446869131722762, 22.719913650770632,  4.238423793625527
 5.871289256420371,  4.602262001521826, 69.695494579571417,  4.046739096813975
 1.690341182909898,  3.360076521140111, 40.556454068889245,  3.751793057136285
 6.438130610294101,  5.284324520519220, 32.498558024978280,  3.720695467301704
13.543987620013676,  8.666781227397022, 50.279637148430815,  4.104064965400240
 5.054296628545397,  2.314213362114032, 87.641600316879618,  3.805789176711582
 4.026256910066812,  9.390417355847493, 27.511727046846389,  3.833418894743704
14.185809481155017,  9.423679118307696, 10.910734184357475,  3.972722136897374
12.552268780438787,  4.410180487018517,  5.542825074260990,  4.034434889755677
13.276372869543327, 13.459462448447086, 60.263316647655920,  4.275905937347599
 5.419874871945875,  6.065930764979405, 48.544292969242520,  4.043708683179030
 2.268637289066408,  7.549585779727847,  9.448973440690796,  3.863651603310432
 0.982074961640918,  2.484783009473859, 85.618084578689022,  4.257291809820907
 6.073957592338069,  3.717199239165544,  4.616148193950269,  3.964978585141962
 4.101061485151418,  3.925318385705869, 73.181554064829925,  3.883935318878495
 3.081726461321332,  3.974448255446168, 53.558175349872911,  4.348135061210765
 2.888910939924415,  0.306116911181880, 42.557175896917201,  3.811749616360393
 0.515450306964947,  3.837004654580842, 35.419703815382860,  3.743276636019291
 2.371229757158624,  2.310827527947748, 69.272144476208084,  4.350546780140873
10.496606089557675,  6.120377781751764, 23.484125161935996,  4.016238995928743
12.448162175909935,  0.056777501088134, 21.485186755533835,  3.817199992757512
 8.708748145182582, 11.560439691834119, 69.082779422626558,  3.939824641583875
 5.289502310865135,  8.103280886492911, 44.293205648344603,  4.177913110499256
 0.075632523031561, 11.359953119681467, 68.594519302909475,  3.821336185489016
 0.326779015325173,  1.974600160945946,  9.725718477546534,  4.017946844983261
13.238070753215371, 10.065339520554357, 87.915915873593207,  4.078991369036795
 8.558531384352698, 14.721576138262401, 87.859322261407556,  4.156249256699940
 9.768819449766140,  3.491467824413393, 69.596577042295024,  4.060938556534031
11.215224360483356,  1.226501402824901,  9.337794076387150,  4.350246171237383
 6.519518523003869, 14.096416753170885, 77.842551301957357,  4.358567768494715
13.088002285349894,  6.074076896091468, 31.044533093374589,  3.727686296391836
 5.644594492999367, 12.757030857337790, 81.594004248738756,  3.783874178697140
 2.539637904392423, 12.605738650240122, 12.884359035030085,  3.597601852559942
 2.770835133017160,  1.707579061722235, 33.226072512150601,  3.731553362263306
 9.140460845154092,  7.032551748806505, 49.832501677940975,  4.064642344721394
10.109057124902854,  8.700681447124959,  0.472746110389214,  4.037831927174508
13.352760372813506,  1.491029436473155, 53.186833707027844,  3.935431644817807
 7.824771827849779,  5.543455636873508, 73.210624761328262,  4.212018466019678
 5.870070339864025, 11.169411292523279,  7.978863700107849,  4.322662887108699
14.824281213244126,  3.203082077880795, 22.630738063317001,  3.766419760401025
 2.140538450979443,  6.875657899939895, 42.047847005186725,  3.936759604396273
10.209818002476572,  6.050325508300123, 39.641182911819676,  4.097199672418581
 1.939987139766674, 12.477662001168074, 30.043152811345365,  3.852745604658677
 3.050456166010730, 12.045657339759705,  5.019397410408084,  3.985226909488587
 4.102261564646881,  9.619864591559423, 80.383951230788867,  3.506401246387070
12.030779379511610,  9.548473636514879, 61.202239559319864,  4.116446573539945
 6.178959308168009, 11.035202052796054,  2.689323189770525,  4.068615458308827
14.403827267872650,  8.284948768695102, 71.396196497801185,  3.667133468817971
 9.041059932973512,  9.620271909653585, 22.395166078418864,  3.837987170031141
 3.090923189829899,  4.697320199874198, 58.009799537541348,  3.979491219375511
13.688953536602590, 10.347087327623296, 74.527264334358961,  3.874925817361136
13.748351509671577,  5.701703559578416,  9.248164374248963,  4.159038231320153
 9.985452042932822,  1.117216487971547, 17.958147945106582,  4.211706120738163
 6.980953525205869,  3.403255538083371, 19.515172618315720,  3.946036387690391
 2.522905252901930,  9.684888620436610, 87.141637150700731,  3.952884025399936
 1.548652880047147,  4.602787177925817, 91.113330640587208,  3.700172850501546
 8.483958893126374,  6.267353912564826, 45.967926059926029,  3.913816381868550
13.954347701220344,  1.383515732517630, 48.973929734488088,  4.525835789216917
 6.216340302258902,  5.750054669596146, 62.626959838402684,  4.264648860475488
 8.018629920843594,  8.924212664049854, 15.015976099727753,  4.096833096911817
 0.223985017591269, 13.316851490013258, 55.174182708368342,  4.143712623857338
 8.849801849318091,  3.355971693716054, 89.494623269450869,  3.896759758484631
11.507453258661840,  9.142834673650478, 37.226710665612359,  3.933826345539397
 0.610108633854314, 13.341530477513709, 86.578450926132717,  4.346473492696085
 7.429616702804164, 14.768592417759994, 62.917800788428828,  3.932033662246663
 6.987932850316446,  9.596195214878366, 47.644325095492938,  3.888541866604325
 7.216854751922737,  8.192183158090989, 29.790088601380404,  4.336708857940637
14.682181045220384,  7.025172687386039, 85.446917131916678,  4.252311622075072
 3.530405531516636,  0.656365646061827, 38.958286118008154,  3.511208570414624
 4.437915922606569,  3.959191646377774, 43.156252334267414,  3.798260879469129
13.494927106184756,  5.496983137480636, 47.582339941308227,  4.188517131908412
12.874196926855189, 13.800308355915718, 16.237172420027996,  3.995131729136089
 0.063823439216528,  2.654889758010012, 44.102137735886345,  4.155799186714993
12.107085711478653, 11.303476035222545, 71.075596351119074,  3.940504412183345
 3.548856150328004,  2.143181176333959, 17.612483351533591,  3.888128111957281
13.793613065496492, 10.718053123774963, 84.090974050997858,  3.759196914734712
 1.717927056168431, 13.956156514685686, 76.660027030027877,  3.914090832004241
 5.465300005296464, 13.098346519901845, 59.924171070939138,  3.950181304656629
11.538507184594653,  5.412458579557390, 35.915543191084240,  3.913261377139688
 0.509893669553490, 13.834168990583228, 45.223581117197661,  3.926287793920076
 6.432488612339849, 12.649430744791827, 50.065651825979138,  3.964421692958159
14.981606552011462, 14.532412368144422, 26.815770198574679,  4.014671566707746
 7.772965129489871,  1.999867018185921, 45.081463285411097,  4.157645739045218
10.020446423783577,  3.305629735118627, 48.327063240836999,  4.155581729474397
 4.155372283890848,  3.830555202640831,  9.663127013821278,  4.120031656060891
11.516005743513805,  2.366972530730468, 24.517797937462909,  4.019452412340975
11.285794526544679, 10.828907278111226, 13.372169896210925,  4.120027254218924
 2.325594738036786, 10.681221920690470, 43.323056524556520,  3.846734960219206
 9.726470987015755,  4.162446086070585, 30.790603237836930,  4.017053589970703
10.584311006718291,  7.254244403357067, 11.426025243580128,  4.121919072290873
12.955387297950493, 12.809976444695419, 38.278881217099425,  3.630047941237134
 2.282928276618887,  5.526383588949193, 46.041005346038617,  4.051655536544244
14.736059561580202,  9.470010898210756, 30.870105569344091,  3.821730996974842
 5.398591691454408,  5.007036643952901, 90.739417799519444,  4.023438553221586
12.825836662955814, 12.472790365678401, 52.157709895902400,  3.738473798384870
 4.527506754267940,  4.038073773194244,  0.771632935371411,  4.345364718582725
 0.045085112144792, 14.439051619026285, 82.542853351908562,  4.091636886000019
11.640043123321750,  3.706776247870661, 20.588400992341910,  3.857858400418086
13.342373217667333, 13.868552693167553, 78.434468432446693,  3.765374443776222
 5.091382874667358,  5.562293104408521, 13.242165463002754,  3.992712387190657
 8.435048876039522,  2.776087938732775, 27.166156943698621,  4.133831244437070
 6.944205622596463,  4.270099555931687, 51.871411945701468,  4.061281479492229
11.316531326050551, 13.220467559197068, 66.899483229642385,  3.602100110786795
14.798249388666129, 14.483433651748371, 71.049037038143766,  3.999936974515047
14.547147118560252,  8.263684222501080, 44.710361652649517,  4.032235171683183
 3.843013982193171, 14.915883580678578, 56.009640210754533,  3.900823374703113
11.327489559627143,  2.239992655586807, 73.311292838794472,  4.178217913047812
 6.190539241811196,  1.522020135569798, 48.895058552406098,  4.146706278467391
 0.465093463561758,  8.975930429821489, 17.548939615348267,  3.622477185132635
 6.266854856055417, 10.989176066309888, 84.981808046152210,  3.922123490249810
 0.612534158582788,  8.342864260122038, 81.663871379148944,  3.977126020826513
 5.142241626428651,  5.893639245119061, 76.428053403043648,  3.891604756786325
 2.247854231338117,  9.903513525379235, 76.397752839401065,  4.255933214636344
 8.612760811941278, 12.448538645263694, 53.352311985769347,  3.894765583432065
 0.221181396609212,  7.551910450152339, 67.719552267707058,  3.976990598332512
11.893279143117958,  0.016473789443588, 35.404451555021382,  3.923226374557348
 6.503031556253539,  1.185916475500480, 41.257408369203162,  4.060243485609155
 9.408947401673252,  5.592239143906305,  3.139215129271087,  4.217097572800187
 2.034144062567000,  0.222121618396536, 59.620538370841814,  4.180513506544854
 9.480450298523003,  7.245627639472270, 90.108015663541224,  4.078343641625754
 9.579360027777916,  1.829375071558692,  4.782755574906467,  3.978431502234704
 1.789663034964242,  6.216339359092870, 78.481846306323348,  3.970787179667544
 2.577352994510573,  7.611513780078686, 62.971659289705833,  3.938271667300961
13.076114856330133,  7.944413338474804, 77.501339972917776,  3.867393464369715
 2.890396495470546,  5.634875950351922, 87.624751847303557,  4.038527683327191
11.720407239265210, 13.911237898810962,  3.638750153585621,  3.657262425019828
12.411968924155628, 10.603327488407102, 80.407536083521450,  4.083047661608227
 4.554561298845913,  6.360660664339410,  6.786788401078987,  3.501626553982027
14.070791545558127, 10.219615542443808, 57.677913530319302,  4.126232809290183
 1.325898625844155,  1.781735385905822, 93.587301980006643,  3.816635666914865
 8.602127605047880, 13.239996382548414, 34.438428199041340,  3.808360366353420
14.896681167206125, 11.030183141139457, 14.659666932011502,  3.554512234730960
10.647360491807119,  7.920485052573135, 57.695252662130407,  4.096399647664605
14.546753902159450, 12.164428235447035, 19.586036611629972,  4.173100614093896
11.003506665665478,  9.107777437672018, 53.592720149304391,  4.247292157628125
 1.324002439859658, 14.413761882328620, 66.460677222789712,  4.029126505904796
12.263007409437829, 11.651677009474820, 44.276359513925023,  4.167561172038329
 6.290092867251038, 14.474218269492724, 18.063011194224789,  3.829298013684939
 0.273161002816979, 14.339029623413772,  2.422566082278065,  3.965874678407773
 3.732010845923057, 13.466124339147962, 69.449346875222830,  3.872232236955319
 7.152637464320864, 10.185336100995785, 57.296910308984984,  4.121062748741855
 5.037366149933336, 14.204504784980783, 10.573821421926635,  3.819279975604096
 9.334845622927828, 12.302020600767415, 59.984962292545369,  3.948543733117363
 2.384038095783805, 12.162175092078005, 91.524603748975139,  4.185305768763998
 9.920480250201768, 12.549379644058009, 19.971855484848898,  3.962729483422745
 3.661777236816901,  1.778572532603949, 13.126025730789680,  3.967107205438357
 9.024669430227529, 11.687449350535974, 30.951585823921601,  3.864851988697578
 1.845401885343656, 11.889355659713004,  9.034190769485493,  4.082528497163834
 5.898953156743378,  6.216064684655825, 17.031695474838795,  3.863880511495148
 8.763824355566836,  0.813460575592096, 21.733711982359058,  3.714598914461884
 4.915608159992459,  4.625876133583018, 28.746014647587049,  4.401958613358034
10.424322204011098,  3.935904665139189, 56.815290040963745,  3.970468232866866
 6.685565946394486,  1.375809445917891, 30.985896507276230,  4.234432810910795
 3.556431998586599,  6.107239868588654, 24.857297840274121,  4.344371379935478
 4.598954782910931,  8.030844467090633, 59.581125812552955,  3.965906600608373
 6.526938004169389,  3.415633954250213, 23.598845606037909,  4.054667781778606
 9.086563946089443,  7.019634247251996, 77.052385987288773,  4.331076246947781
13.919653518809756,  7.652850890994782, 64.089072704391910,  3.755578414131107
 6.710802552930601,  9.900260110808839, 33.632565237504764,  4.033395545702375
 7.748369357813199, 14.219909246295330, 56.823871726332825,  4.070281255463571
 2.556853681895450, 11.318551320065799, 83.478632743690198,  3.998482298925630
 3.789417625635698, 14.892265153277034, 73.260076767804037,  4.265420143865774
14.558690461721190, 14.675243444651707, 32.386942264892191,  4.148339206098458
 3.989102846335786,  2.149452994627147, 76.674727947812727,  3.955007191117019
 0.632946512334159,  6.422999769128656, 38.347350471487530,  4.045599294136648
14.028221858300203, 12.228290733326089, 23.653716932107095,  4.027493915841443
 4.550756038363573,  8.156746965439867, 73.255670271662083,  3.987430500446894
 0.795843980608899, 15.031202359853943, 36.341252298445184,  4.163219259981044
14.875984367236461,  3.279951994740891, 26.334165118700756,  3.608585057360108
 3.415704378013849,  1.774793439550864, 46.052813686824670,  3.734549139638514
11.227994467176661,  8.909713284717165, 29.325303382793276,  3.845663108258011
 2.296952085957965,  5.511039621497360, 32.321595472138519,  4.134249055924943
11.929011434456774,  1.906890282921282,  1.093788190924292,  4.224562545627579
11.973805931736377,  0.475436342425400, 45.372990487808032,  3.875088963958645
10.014348885196075,  7.166394890213111, 63.877358919956507,  4.096373129017278
 7.184537915017128,  8.606799648753718, 40.673593453977055,  4.044548346296871
 3.065464258142736, 11.142761450697694, 57.292032245711944,  4.171017458676408
 1.909978534035262,  0.925852613962837, 89.718039120715773,  4.185040620932893
 3.178281801510467,  0.865271130414182, 28.765672659479950,  3.849580762589073
12.683699879426360,  5.731987739408347, 93.436536657176163,  4.038791181761398
 8.280604740562989,  3.654397546434164, 11.396056234745236,  4.297566374659438
14.861435887904509,  1.851964349975889, 18.948766476588254,  4.043342526065095
 3.381019706473988, 12.740554637722722, 25.146113162498800,  4.402866802692082
 3.330640408601522,  4.120741176250959, 21.108089917988675,  4.144483486625874
 6.507184599387960,  6.809225604781270, 21.476238564782811,  3.948806912383150
 1.970589982115225,  0.186071446513417, 51.877557688755928,  4.232332890125033
 8.864384107355271, 12.877587028068664, 10.627912793538384,  4.254295323612175
 6.401986741394512,  3.048743153952865, 56.117452290661241,  4.234324879880557
 5.928003095463637,  0.429421015374905, 52.759260653665436,  3.881814088756400
 0.086737454582857,  3.932720696882708,  2.570438820921103,  3.882326910461025
14.905473366319047,  5.852274837013021, 19.735973838746823,  4.067016887995567
14.592715586090403,  4.859624169975743, 51.483263930132246,  4.009278762583468
13.658909827513900,  2.584005323825060, 59.797680513111636,  4.121981133463381
 1.169769739769652, 11.769194761846650, 79.824231289937615,  3.837696144440470
 8.203775470079986,  8.682903844578023, 60.759197952300752,  3.703712679321569
 4.933004106951915,  5.512985854553836, 39.682390560897701,  3.857273971439578
 8.278503336552928, 10.623344256687076, 43.758839650498345,  3.634847522799973
 9.516028390601905, 13.350242879157134, 73.387118145696874,  4.045647110224689
 4.955823588246353,  1.993114791881996, 65.612533644365158,  4.281358346762749
14.162305621569589,  9.297332574385379, 40.818863739227872,  4.043551352807874
 2.457113590077186,  8.613877619894378, 13.264104940620397,  4.061379179917881
 9.361125327164252, 12.606344354522401,  0.811963273484850,  3.926622995736546
 0.504489956584523,  2.270456382764486, 73.851112000792483,  3.964418823779690
 6.085963468062461, 13.958514321378141, 14.208590687012267,  3.724911788231783
 7.426439574304841, 11.014784503733717, 37.441632654674336,  3.971941503717229
 3.159105013973829,  0.363276010595919,  7.287250368464386,  4.111617057591229
 8.934855525675074, 13.172817405804549, 46.791382334609423,  4.301342046031965
12.756647241922584, 12.513766933644520, 29.460495350364816,  3.957019735415920
11.774130130240874, 10.056592731612197, 17.383976934005673,  4.042864490243080
12.646823070904176,  3.880497960298344, 83.873270201060492,  3.802576813763743
 9.976620351383930,  0.210483142998055, 91.758912816816206,  4.158138082033171
 6.124055684899259, 12.921058924299249, 66.272433125454469,  4.154886330202764
 6.943302628713091,  2.615904936309988, 15.438727919822629,  4.227244903759906
 8.606237832524528,  4.763269320223720, 93.171939478018089,  3.982417859685974
12.314102471752996,  2.533613649923939, 87.620025985849765,  4.151031527430513
11.377659665626970,  4.183240575827035, 44.444940450692762,  3.817637458702265
 7.567574005505438,  5.732045686985548, 58.694177724209098,  3.551678329398682
12.788912304258655, 12.341474853046032,  8.388426263407137,  4.188167950414947
 8.003653486650171,  9.853133534164662, 80.098007816647694,  4.263048133129556
 9.499780026949763, 11.380629933907672, 63.964148559591990,  4.207934916319197
 9.125671766859103,  3.108903352757395, 63.348572030548915,  3.665156167039239
 8.116492565554136, 10.594691272915579, 26.680787523594368,  3.715661779614876
 2.398878306452834,  6.244042568744867, 70.651022398394986,  3.776532874794322
10.201907081991706,  2.413301426377502, 41.308873393286270,  3.718096631744593
12.466796995300751,  4.164041228141032, 16.857370198598449,  3.806208923361846
10.391638965242175, 11.133020321223741, 91.156615273420442,  4.154750952023048
 6.780316850945010, 12.635354361332928, 22.150483554219957,  3.661059942009499
 4.125776797406370, 14.172514726987142,  0.853090263721245,  4.275478373730810
 9.482270462383596, 13.970440578218764, 27.824699368133892,  3.912362526107211
 1.814279637227842, 10.745727841932007,  1.403063933984637,  4.050495515843208
13.583952462393665,  7.287186807450580, 14.456445560400791,  4.364353642795232
 0.602738379411532,  2.118785726643829, 56.329579100298091,  3.889414005907172
 9.665542004310913,  5.384196152169563, 14.714468128670546,  3.645529464440145
 7.197652279963556,  8.848418764143783, 66.430187782360989,  4.217018004625740
 9.878471616300178, 10.907131222121897, 83.548311066245077,  3.795468436148330
