working on sample #  1/48 with threshold 0.140000
no. of electrons, holes, nanoparticles =  50,   0, 400
sample  0 at temperature 400 finishes with time 248.40 s
sample  0 at temperature 350 finishes with time 250.12 s
sample  0 at temperature 300 finishes with time 255.50 s
sample  0 at temperature 250 finishes with time 257.46 s
sample  0 at temperature 200 finishes with time 262.61 s
sample  0 at temperature 150 finishes with time 268.78 s
sample  0 at temperature 100 finishes with time 275.42 s
('fitting is ', 1.0)
sample  0 at temperature  50 finishes with time 280.66 s
working on sample #  2/48 with threshold 0.140000
no. of electrons, holes, nanoparticles =  50,   0, 400
sample  1 at temperature 400 finishes with time 280.78 s
('fitting is ', 1.0)
sample  1 at temperature  50 finishes with time 283.86 s
sample  1 at temperature 350 finishes with time 286.55 s
sample  1 at temperature 300 finishes with time 287.76 s
sample  1 at temperature 250 finishes with time 290.18 s
sample  1 at temperature 200 finishes with time 290.58 s
sample  1 at temperature 150 finishes with time 294.02 s
sample  1 at temperature 100 finishes with time 294.13 s
working on sample #  3/48 with threshold 0.140000
no. of electrons, holes, nanoparticles =  50,   0, 400
sample  2 at temperature 100 finishes with time 261.91 s
sample  2 at temperature 150 finishes with time 262.97 s
('fitting is ', 1.0)
sample  2 at temperature  50 finishes with time 263.34 s
sample  2 at temperature 400 finishes with time 264.22 s
sample  2 at temperature 350 finishes with time 266.01 s
sample  2 at temperature 300 finishes with time 267.46 s
sample  2 at temperature 200 finishes with time 267.66 s
sample  2 at temperature 250 finishes with time 268.28 s
working on sample #  4/48 with threshold 0.140000
no. of electrons, holes, nanoparticles =  50,   0, 400
sample  3 at temperature 400 finishes with time 235.71 s
sample  3 at temperature 350 finishes with time 237.72 s
sample  3 at temperature 300 finishes with time 237.88 s
sample  3 at temperature 250 finishes with time 239.40 s
sample  3 at temperature 200 finishes with time 240.09 s
sample  3 at temperature 150 finishes with time 242.22 s
sample  3 at temperature 100 finishes with time 248.37 s
('fitting is ', 1.0)
sample  3 at temperature  50 finishes with time 252.11 s
working on sample #  5/48 with threshold 0.140000
no. of electrons, holes, nanoparticles =  50,   0, 400
sample  4 at temperature 400 finishes with time 254.70 s
('fitting is ', 1.0)
sample  4 at temperature  50 finishes with time 254.95 s
sample  4 at temperature 100 finishes with time 256.32 s
sample  4 at temperature 350 finishes with time 257.19 s
sample  4 at temperature 150 finishes with time 257.70 s
sample  4 at temperature 200 finishes with time 258.43 s
sample  4 at temperature 300 finishes with time 259.26 s
sample  4 at temperature 250 finishes with time 259.64 s
working on sample #  6/48 with threshold 0.140000
no. of electrons, holes, nanoparticles =  50,   0, 400
('fitting is ', 1.0)
sample  5 at temperature  50 finishes with time 233.96 s
sample  5 at temperature 100 finishes with time 237.58 s
sample  5 at temperature 400 finishes with time 240.53 s
sample  5 at temperature 300 finishes with time 240.75 s
sample  5 at temperature 150 finishes with time 240.78 s
sample  5 at temperature 350 finishes with time 241.58 s
sample  5 at temperature 200 finishes with time 242.41 s
sample  5 at temperature 250 finishes with time 243.89 s
working on sample #  7/48 with threshold 0.140000
no. of electrons, holes, nanoparticles =  50,   0, 400
sample  6 at temperature 400 finishes with time 263.39 s
sample  6 at temperature 350 finishes with time 267.05 s
sample  6 at temperature 300 finishes with time 271.55 s
sample  6 at temperature 250 finishes with time 277.62 s
sample  6 at temperature 200 finishes with time 282.01 s
sample  6 at temperature 150 finishes with time 288.64 s
('fitting is ', 1.0)
sample  6 at temperature  50 finishes with time 290.90 s
sample  6 at temperature 100 finishes with time 299.55 s
working on sample #  8/48 with threshold 0.140000
no. of electrons, holes, nanoparticles =  50,   0, 400
sample  7 at temperature 400 finishes with time 260.35 s
sample  7 at temperature 350 finishes with time 264.07 s
sample  7 at temperature 300 finishes with time 268.40 s
sample  7 at temperature 250 finishes with time 271.89 s
sample  7 at temperature 200 finishes with time 274.59 s
sample  7 at temperature 150 finishes with time 277.72 s
sample  7 at temperature 100 finishes with time 280.04 s
('fitting is ', 1.0)
sample  7 at temperature  50 finishes with time 282.97 s
working on sample #  9/48 with threshold 0.140000
no. of electrons, holes, nanoparticles =  50,   0, 400
sample  8 at temperature 400 finishes with time 262.37 s
sample  8 at temperature 350 finishes with time 265.66 s
sample  8 at temperature 300 finishes with time 269.33 s
sample  8 at temperature 100 finishes with time 270.35 s
sample  8 at temperature 150 finishes with time 270.80 s
sample  8 at temperature 250 finishes with time 271.55 s
sample  8 at temperature 200 finishes with time 271.98 s
('fitting is ', 1.0)
sample  8 at temperature  50 finishes with time 274.91 s
working on sample # 10/48 with threshold 0.140000
no. of electrons, holes, nanoparticles =  50,   0, 400
sample  9 at temperature 400 finishes with time 266.31 s
sample  9 at temperature 350 finishes with time 271.80 s
sample  9 at temperature 300 finishes with time 277.90 s
sample  9 at temperature 250 finishes with time 283.17 s
sample  9 at temperature 200 finishes with time 291.93 s
('fitting is ', 1.0)
sample  9 at temperature  50 finishes with time 295.95 s
sample  9 at temperature 150 finishes with time 300.90 s
sample  9 at temperature 100 finishes with time 309.39 s
working on sample # 11/48 with threshold 0.140000
no. of electrons, holes, nanoparticles =  50,   0, 400
sample 10 at temperature 400 finishes with time 253.73 s
sample 10 at temperature 350 finishes with time 257.37 s
sample 10 at temperature 300 finishes with time 260.48 s
('fitting is ', 1.0)
sample 10 at temperature  50 finishes with time 262.22 s
sample 10 at temperature 100 finishes with time 263.08 s
sample 10 at temperature 250 finishes with time 263.84 s
sample 10 at temperature 150 finishes with time 264.99 s
sample 10 at temperature 200 finishes with time 265.28 s
working on sample # 12/48 with threshold 0.140000
no. of electrons, holes, nanoparticles =  50,   0, 400
sample 11 at temperature 100 finishes with time 222.70 s
('fitting is ', 1.0)
sample 11 at temperature  50 finishes with time 226.21 s
sample 11 at temperature 150 finishes with time 231.26 s
sample 11 at temperature 200 finishes with time 235.84 s
sample 11 at temperature 250 finishes with time 239.24 s
sample 11 at temperature 400 finishes with time 239.53 s
sample 11 at temperature 300 finishes with time 240.33 s
sample 11 at temperature 350 finishes with time 241.16 s
working on sample # 13/48 with threshold 0.140000
no. of electrons, holes, nanoparticles =  50,   0, 400
sample 12 at temperature 400 finishes with time 258.59 s
sample 12 at temperature 350 finishes with time 262.93 s
sample 12 at temperature 300 finishes with time 266.46 s
sample 12 at temperature 250 finishes with time 272.75 s
sample 12 at temperature 200 finishes with time 279.31 s
('fitting is ', 1.0)
sample 12 at temperature  50 finishes with time 281.52 s
sample 12 at temperature 150 finishes with time 282.87 s
sample 12 at temperature 100 finishes with time 284.96 s
working on sample # 14/48 with threshold 0.140000
no. of electrons, holes, nanoparticles =  50,   0, 400
('fitting is ', 1.0)
sample 13 at temperature  50 finishes with time 244.48 s
sample 13 at temperature 400 finishes with time 253.84 s
sample 13 at temperature 350 finishes with time 258.30 s
sample 13 at temperature 300 finishes with time 262.82 s
sample 13 at temperature 250 finishes with time 265.45 s
sample 13 at temperature 100 finishes with time 266.14 s
sample 13 at temperature 150 finishes with time 269.64 s
sample 13 at temperature 200 finishes with time 270.36 s
working on sample # 15/48 with threshold 0.140000
no. of electrons, holes, nanoparticles =  50,   0, 400
sample 14 at temperature 350 finishes with time 257.28 s
sample 14 at temperature 400 finishes with time 259.13 s
sample 14 at temperature 300 finishes with time 260.43 s
('fitting is ', 1.0)
sample 14 at temperature  50 finishes with time 262.54 s
sample 14 at temperature 250 finishes with time 263.53 s
sample 14 at temperature 100 finishes with time 263.85 s
sample 14 at temperature 200 finishes with time 266.18 s
sample 14 at temperature 150 finishes with time 267.61 s
working on sample # 16/48 with threshold 0.140000
no. of electrons, holes, nanoparticles =  50,   0, 400
sample 15 at temperature 400 finishes with time 253.94 s
sample 15 at temperature 350 finishes with time 257.22 s
sample 15 at temperature 100 finishes with time 258.02 s
sample 15 at temperature 150 finishes with time 260.56 s
sample 15 at temperature 300 finishes with time 261.14 s
('fitting is ', 1.0)
sample 15 at temperature  50 finishes with time 261.96 s
sample 15 at temperature 250 finishes with time 262.01 s
sample 15 at temperature 200 finishes with time 262.29 s
working on sample # 17/48 with threshold 0.140000
no. of electrons, holes, nanoparticles =  50,   0, 400
sample 16 at temperature 400 finishes with time 257.58 s
sample 16 at temperature 350 finishes with time 261.51 s
sample 16 at temperature 300 finishes with time 265.20 s
sample 16 at temperature 250 finishes with time 268.91 s
('fitting is ', 1.0)
sample 16 at temperature  50 finishes with time 269.56 s
sample 16 at temperature 200 finishes with time 270.78 s
sample 16 at temperature 150 finishes with time 274.19 s
sample 16 at temperature 100 finishes with time 275.60 s
working on sample # 18/48 with threshold 0.140000
no. of electrons, holes, nanoparticles =  50,   0, 400
sample 17 at temperature 400 finishes with time 258.79 s
('fitting is ', 1.0)
sample 17 at temperature  50 finishes with time 260.78 s
sample 17 at temperature 350 finishes with time 262.72 s
sample 17 at temperature 300 finishes with time 264.91 s
sample 17 at temperature 250 finishes with time 268.33 s
sample 17 at temperature 200 finishes with time 270.18 s
sample 17 at temperature 100 finishes with time 272.23 s
sample 17 at temperature 150 finishes with time 272.26 s
working on sample # 19/48 with threshold 0.140000
no. of electrons, holes, nanoparticles =  50,   0, 400
sample 18 at temperature 400 finishes with time 242.62 s
sample 18 at temperature 350 finishes with time 244.86 s
sample 18 at temperature 300 finishes with time 249.71 s
sample 18 at temperature 250 finishes with time 253.74 s
sample 18 at temperature 200 finishes with time 260.60 s
sample 18 at temperature 150 finishes with time 261.87 s
sample 18 at temperature 100 finishes with time 263.53 s
('fitting is ', 1.0)
sample 18 at temperature  50 finishes with time 264.34 s
working on sample # 20/48 with threshold 0.140000
no. of electrons, holes, nanoparticles =  50,   0, 400
sample 19 at temperature 400 finishes with time 252.45 s
sample 19 at temperature 350 finishes with time 254.93 s
('fitting is ', 1.0)
sample 19 at temperature  50 finishes with time 259.25 s
sample 19 at temperature 250 finishes with time 261.02 s
sample 19 at temperature 200 finishes with time 264.29 s
sample 19 at temperature 100 finishes with time 264.56 s
sample 19 at temperature 150 finishes with time 265.67 s
sample 19 at temperature 300 finishes with time 289.58 s
working on sample # 21/48 with threshold 0.140000
no. of electrons, holes, nanoparticles =  50,   0, 400
sample 20 at temperature 400 finishes with time 247.98 s
sample 20 at temperature 350 finishes with time 250.91 s
sample 20 at temperature 300 finishes with time 254.96 s
sample 20 at temperature 250 finishes with time 258.57 s
sample 20 at temperature 200 finishes with time 262.63 s
sample 20 at temperature 150 finishes with time 264.81 s
sample 20 at temperature 100 finishes with time 264.96 s
('fitting is ', 1.0)
sample 20 at temperature  50 finishes with time 265.43 s
working on sample # 22/48 with threshold 0.140000
no. of electrons, holes, nanoparticles =  50,   0, 400
sample 21 at temperature 400 finishes with time 243.37 s
sample 21 at temperature 350 finishes with time 244.07 s
sample 21 at temperature 300 finishes with time 245.92 s
sample 21 at temperature 250 finishes with time 248.28 s
('fitting is ', 1.0)
sample 21 at temperature  50 finishes with time 250.16 s
sample 21 at temperature 200 finishes with time 251.47 s
sample 21 at temperature 150 finishes with time 253.90 s
sample 21 at temperature 100 finishes with time 255.47 s
working on sample # 23/48 with threshold 0.140000
no. of electrons, holes, nanoparticles =  50,   0, 400
sample 22 at temperature 400 finishes with time 260.93 s
sample 22 at temperature 350 finishes with time 265.00 s
sample 22 at temperature 300 finishes with time 269.11 s
sample 22 at temperature 250 finishes with time 273.02 s
('fitting is ', 1.0)
sample 22 at temperature  50 finishes with time 274.35 s
sample 22 at temperature 100 finishes with time 275.66 s
sample 22 at temperature 200 finishes with time 278.15 s
sample 22 at temperature 150 finishes with time 279.61 s
working on sample # 24/48 with threshold 0.140000
no. of electrons, holes, nanoparticles =  50,   0, 400
sample 23 at temperature 400 finishes with time 261.12 s
('fitting is ', 1.0)
sample 23 at temperature  50 finishes with time 263.17 s
sample 23 at temperature 350 finishes with time 263.38 s
sample 23 at temperature 300 finishes with time 265.51 s
sample 23 at temperature 250 finishes with time 268.11 s
sample 23 at temperature 200 finishes with time 268.68 s
sample 23 at temperature 150 finishes with time 269.01 s
sample 23 at temperature 100 finishes with time 270.32 s
working on sample # 25/48 with threshold 0.140000
no. of electrons, holes, nanoparticles =  50,   0, 400
('fitting is ', 1.0)
sample 24 at temperature  50 finishes with time 222.77 s
sample 24 at temperature 100 finishes with time 227.90 s
sample 24 at temperature 400 finishes with time 232.59 s
sample 24 at temperature 150 finishes with time 234.93 s
sample 24 at temperature 300 finishes with time 236.23 s
sample 24 at temperature 350 finishes with time 236.43 s
sample 24 at temperature 200 finishes with time 237.80 s
sample 24 at temperature 250 finishes with time 237.93 s
working on sample # 26/48 with threshold 0.140000
no. of electrons, holes, nanoparticles =  50,   0, 400
('fitting is ', 1.0)
sample 25 at temperature  50 finishes with time 241.65 s
sample 25 at temperature 400 finishes with time 242.49 s
sample 25 at temperature 350 finishes with time 244.56 s
sample 25 at temperature 100 finishes with time 246.17 s
sample 25 at temperature 250 finishes with time 248.25 s
sample 25 at temperature 300 finishes with time 248.27 s
sample 25 at temperature 150 finishes with time 251.26 s
sample 25 at temperature 200 finishes with time 252.24 s
working on sample # 27/48 with threshold 0.140000
no. of electrons, holes, nanoparticles =  50,   0, 400
('fitting is ', 1.0)
sample 26 at temperature  50 finishes with time 214.84 s
sample 26 at temperature 100 finishes with time 219.74 s
sample 26 at temperature 150 finishes with time 228.43 s
sample 26 at temperature 200 finishes with time 235.68 s
sample 26 at temperature 250 finishes with time 240.59 s
sample 26 at temperature 400 finishes with time 243.65 s
sample 26 at temperature 350 finishes with time 244.11 s
sample 26 at temperature 300 finishes with time 245.97 s
working on sample # 28/48 with threshold 0.140000
no. of electrons, holes, nanoparticles =  50,   0, 400
('fitting is ', 1.0)
sample 27 at temperature  50 finishes with time 250.27 s
sample 27 at temperature 400 finishes with time 251.54 s
sample 27 at temperature 350 finishes with time 254.75 s
sample 27 at temperature 100 finishes with time 256.10 s
sample 27 at temperature 300 finishes with time 257.05 s
sample 27 at temperature 250 finishes with time 260.14 s
sample 27 at temperature 150 finishes with time 261.41 s
sample 27 at temperature 200 finishes with time 262.35 s
working on sample # 29/48 with threshold 0.140000
no. of electrons, holes, nanoparticles =  50,   0, 400
sample 28 at temperature 400 finishes with time 258.46 s
sample 28 at temperature 350 finishes with time 261.45 s
sample 28 at temperature 100 finishes with time 261.52 s
('fitting is ', 1.0)
sample 28 at temperature  50 finishes with time 262.70 s
sample 28 at temperature 300 finishes with time 263.52 s
sample 28 at temperature 250 finishes with time 265.18 s
sample 28 at temperature 150 finishes with time 265.79 s
sample 28 at temperature 200 finishes with time 266.97 s
working on sample # 30/48 with threshold 0.140000
no. of electrons, holes, nanoparticles =  50,   0, 400
sample 29 at temperature 400 finishes with time 247.06 s
sample 29 at temperature 350 finishes with time 250.07 s
sample 29 at temperature 300 finishes with time 254.02 s
sample 29 at temperature 250 finishes with time 258.61 s
sample 29 at temperature 200 finishes with time 262.15 s
('fitting is ', 1.0)
sample 29 at temperature  50 finishes with time 265.39 s
sample 29 at temperature 150 finishes with time 266.12 s
sample 29 at temperature 100 finishes with time 268.61 s
working on sample # 31/48 with threshold 0.140000
no. of electrons, holes, nanoparticles =  50,   0, 400
sample 30 at temperature 400 finishes with time 245.96 s
sample 30 at temperature 350 finishes with time 248.79 s
sample 30 at temperature 300 finishes with time 251.51 s
sample 30 at temperature 250 finishes with time 255.50 s
sample 30 at temperature 200 finishes with time 258.92 s
sample 30 at temperature 150 finishes with time 262.38 s
sample 30 at temperature 100 finishes with time 265.22 s
('fitting is ', 1.0)
sample 30 at temperature  50 finishes with time 273.82 s
working on sample # 32/48 with threshold 0.140000
no. of electrons, holes, nanoparticles =  50,   0, 400
sample 31 at temperature 400 finishes with time 252.34 s
sample 31 at temperature 350 finishes with time 256.84 s
sample 31 at temperature 300 finishes with time 261.80 s
sample 31 at temperature 250 finishes with time 268.12 s
('fitting is ', 1.0)
sample 31 at temperature  50 finishes with time 271.69 s
sample 31 at temperature 200 finishes with time 272.25 s
sample 31 at temperature 100 finishes with time 274.99 s
sample 31 at temperature 150 finishes with time 275.81 s
working on sample # 33/48 with threshold 0.140000
no. of electrons, holes, nanoparticles =  50,   0, 400
sample 32 at temperature 400 finishes with time 216.13 s
sample 32 at temperature 350 finishes with time 217.15 s
sample 32 at temperature 300 finishes with time 218.91 s
('fitting is ', 1.0)
sample 32 at temperature  50 finishes with time 219.18 s
sample 32 at temperature 250 finishes with time 220.34 s
sample 32 at temperature 100 finishes with time 221.52 s
sample 32 at temperature 200 finishes with time 222.54 s
sample 32 at temperature 150 finishes with time 223.06 s
working on sample # 34/48 with threshold 0.140000
no. of electrons, holes, nanoparticles =  50,   0, 400
('fitting is ', 1.0)
sample 33 at temperature  50 finishes with time 256.04 s
sample 33 at temperature 400 finishes with time 257.71 s
sample 33 at temperature 350 finishes with time 259.58 s
sample 33 at temperature 300 finishes with time 261.83 s
sample 33 at temperature 250 finishes with time 263.45 s
sample 33 at temperature 200 finishes with time 266.97 s
sample 33 at temperature 150 finishes with time 268.27 s
sample 33 at temperature 100 finishes with time 270.82 s
working on sample # 35/48 with threshold 0.140000
no. of electrons, holes, nanoparticles =  50,   0, 400
('fitting is ', 1.0)
sample 34 at temperature  50 finishes with time 252.77 s
sample 34 at temperature 400 finishes with time 253.85 s
sample 34 at temperature 350 finishes with time 256.83 s
sample 34 at temperature 300 finishes with time 257.87 s
sample 34 at temperature 250 finishes with time 260.09 s
sample 34 at temperature 200 finishes with time 262.25 s
sample 34 at temperature 100 finishes with time 262.34 s
sample 34 at temperature 150 finishes with time 263.17 s
working on sample # 36/48 with threshold 0.140000
no. of electrons, holes, nanoparticles =  50,   0, 400
sample 35 at temperature 100 finishes with time 253.91 s
sample 35 at temperature 400 finishes with time 255.72 s
sample 35 at temperature 350 finishes with time 255.98 s
sample 35 at temperature 150 finishes with time 256.00 s
sample 35 at temperature 300 finishes with time 258.05 s
sample 35 at temperature 200 finishes with time 258.09 s
sample 35 at temperature 250 finishes with time 259.44 s
('fitting is ', 1.0)
sample 35 at temperature  50 finishes with time 269.28 s
working on sample # 37/48 with threshold 0.140000
no. of electrons, holes, nanoparticles =  50,   0, 400
sample 36 at temperature 100 finishes with time 229.81 s
sample 36 at temperature 150 finishes with time 231.92 s
('fitting is ', 1.0)
sample 36 at temperature  50 finishes with time 232.77 s
sample 36 at temperature 250 finishes with time 233.49 s
sample 36 at temperature 400 finishes with time 234.29 s
sample 36 at temperature 350 finishes with time 234.67 s
sample 36 at temperature 200 finishes with time 234.86 s
sample 36 at temperature 300 finishes with time 235.60 s
working on sample # 38/48 with threshold 0.140000
no. of electrons, holes, nanoparticles =  50,   0, 400
('fitting is ', 1.0)
sample 37 at temperature  50 finishes with time 230.51 s
sample 37 at temperature 400 finishes with time 237.93 s
sample 37 at temperature 350 finishes with time 239.11 s
sample 37 at temperature 100 finishes with time 241.14 s
sample 37 at temperature 300 finishes with time 242.43 s
sample 37 at temperature 250 finishes with time 244.05 s
sample 37 at temperature 200 finishes with time 244.43 s
sample 37 at temperature 150 finishes with time 245.05 s
working on sample # 39/48 with threshold 0.140000
no. of electrons, holes, nanoparticles =  50,   0, 400
sample 38 at temperature 400 finishes with time 242.09 s
sample 38 at temperature 350 finishes with time 244.83 s
sample 38 at temperature 300 finishes with time 248.34 s
sample 38 at temperature 250 finishes with time 250.83 s
('fitting is ', 1.0)
sample 38 at temperature  50 finishes with time 252.33 s
sample 38 at temperature 200 finishes with time 254.13 s
sample 38 at temperature 150 finishes with time 257.48 s
sample 38 at temperature 100 finishes with time 258.01 s
working on sample # 40/48 with threshold 0.140000
no. of electrons, holes, nanoparticles =  50,   0, 400
('fitting is ', 1.0)
sample 39 at temperature  50 finishes with time 229.83 s
sample 39 at temperature 100 finishes with time 237.25 s
sample 39 at temperature 150 finishes with time 245.89 s
sample 39 at temperature 200 finishes with time 249.76 s
sample 39 at temperature 250 finishes with time 250.93 s
sample 39 at temperature 300 finishes with time 252.72 s
sample 39 at temperature 350 finishes with time 253.13 s
sample 39 at temperature 400 finishes with time 256.32 s
working on sample # 41/48 with threshold 0.140000
no. of electrons, holes, nanoparticles =  50,   0, 400
sample 40 at temperature 400 finishes with time 241.67 s
sample 40 at temperature 350 finishes with time 243.69 s
sample 40 at temperature 250 finishes with time 244.23 s
sample 40 at temperature 300 finishes with time 244.43 s
sample 40 at temperature 200 finishes with time 244.52 s
sample 40 at temperature 150 finishes with time 244.75 s
sample 40 at temperature 100 finishes with time 247.49 s
('fitting is ', 1.0)
sample 40 at temperature  50 finishes with time 251.28 s
working on sample # 42/48 with threshold 0.140000
no. of electrons, holes, nanoparticles =  50,   0, 400
sample 41 at temperature 400 finishes with time 249.19 s
sample 41 at temperature 350 finishes with time 251.39 s
sample 41 at temperature 300 finishes with time 255.13 s
sample 41 at temperature 250 finishes with time 257.85 s
sample 41 at temperature 100 finishes with time 258.09 s
sample 41 at temperature 200 finishes with time 259.88 s
('fitting is ', 1.0)
sample 41 at temperature  50 finishes with time 260.28 s
sample 41 at temperature 150 finishes with time 261.13 s
working on sample # 43/48 with threshold 0.140000
no. of electrons, holes, nanoparticles =  50,   0, 400
('fitting is ', 1.0)
sample 42 at temperature  50 finishes with time 233.11 s
sample 42 at temperature 400 finishes with time 244.88 s
sample 42 at temperature 100 finishes with time 244.93 s
sample 42 at temperature 350 finishes with time 245.33 s
sample 42 at temperature 300 finishes with time 248.79 s
sample 42 at temperature 250 finishes with time 249.10 s
sample 42 at temperature 200 finishes with time 249.29 s
sample 42 at temperature 150 finishes with time 249.43 s
working on sample # 44/48 with threshold 0.140000
no. of electrons, holes, nanoparticles =  50,   0, 400
('fitting is ', 1.0)
sample 43 at temperature  50 finishes with time 245.00 s
sample 43 at temperature 100 finishes with time 249.68 s
sample 43 at temperature 400 finishes with time 251.46 s
sample 43 at temperature 350 finishes with time 252.86 s
sample 43 at temperature 300 finishes with time 254.43 s
sample 43 at temperature 150 finishes with time 256.17 s
sample 43 at temperature 250 finishes with time 257.48 s
sample 43 at temperature 200 finishes with time 258.25 s
working on sample # 45/48 with threshold 0.140000
no. of electrons, holes, nanoparticles =  50,   0, 400
sample 44 at temperature 400 finishes with time 257.06 s
sample 44 at temperature 350 finishes with time 262.15 s
sample 44 at temperature 300 finishes with time 267.82 s
sample 44 at temperature 250 finishes with time 274.28 s
('fitting is ', 1.0)
sample 44 at temperature  50 finishes with time 280.00 s
sample 44 at temperature 200 finishes with time 280.19 s
sample 44 at temperature 100 finishes with time 284.79 s
sample 44 at temperature 150 finishes with time 284.86 s
working on sample # 46/48 with threshold 0.140000
no. of electrons, holes, nanoparticles =  50,   0, 400
sample 45 at temperature 400 finishes with time 246.50 s
sample 45 at temperature 350 finishes with time 249.72 s
sample 45 at temperature 300 finishes with time 252.76 s
sample 45 at temperature 250 finishes with time 256.52 s
sample 45 at temperature 200 finishes with time 260.27 s
('fitting is ', 1.0)
sample 45 at temperature  50 finishes with time 262.59 s
sample 45 at temperature 100 finishes with time 263.27 s
sample 45 at temperature 150 finishes with time 263.55 s
working on sample # 47/48 with threshold 0.140000
no. of electrons, holes, nanoparticles =  50,   0, 400
('fitting is ', 1.0)
sample 46 at temperature  50 finishes with time 236.85 s
sample 46 at temperature 400 finishes with time 238.36 s
sample 46 at temperature 100 finishes with time 239.00 s
sample 46 at temperature 250 finishes with time 239.51 s
sample 46 at temperature 350 finishes with time 239.93 s
sample 46 at temperature 300 finishes with time 240.00 s
sample 46 at temperature 200 finishes with time 240.88 s
sample 46 at temperature 150 finishes with time 241.84 s
working on sample # 48/48 with threshold 0.140000
no. of electrons, holes, nanoparticles =  50,   0, 400
sample 47 at temperature 400 finishes with time 248.99 s
sample 47 at temperature 350 finishes with time 249.44 s
sample 47 at temperature 300 finishes with time 253.59 s
sample 47 at temperature 250 finishes with time 256.94 s
('fitting is ', 1.0)
sample 47 at temperature  50 finishes with time 259.66 s
sample 47 at temperature 200 finishes with time 260.97 s
sample 47 at temperature 100 finishes with time 262.83 s
sample 47 at temperature 150 finishes with time 274.96 s
working on sample #  1/48 with threshold 0.160000
no. of electrons, holes, nanoparticles =  50,   0, 400
sample  0 at temperature 400 finishes with time 244.68 s
sample  0 at temperature 350 finishes with time 247.37 s
sample  0 at temperature 300 finishes with time 250.75 s
sample  0 at temperature 250 finishes with time 253.30 s
sample  0 at temperature 200 finishes with time 257.33 s
sample  0 at temperature 150 finishes with time 262.51 s
sample  0 at temperature 100 finishes with time 267.25 s
('fitting is ', 1.0)
sample  0 at temperature  50 finishes with time 268.50 s
working on sample #  2/48 with threshold 0.160000
no. of electrons, holes, nanoparticles =  50,   0, 400
sample  1 at temperature 400 finishes with time 258.51 s
('fitting is ', 1.0)
sample  1 at temperature  50 finishes with time 258.68 s
sample  1 at temperature 350 finishes with time 260.62 s
sample  1 at temperature 300 finishes with time 261.90 s
sample  1 at temperature 250 finishes with time 264.25 s
sample  1 at temperature 150 finishes with time 266.06 s
sample  1 at temperature 200 finishes with time 266.49 s
sample  1 at temperature 100 finishes with time 268.24 s
working on sample #  3/48 with threshold 0.160000
no. of electrons, holes, nanoparticles =  50,   0, 400
sample  2 at temperature 400 finishes with time 244.47 s
sample  2 at temperature 100 finishes with time 245.99 s
sample  2 at temperature 350 finishes with time 246.21 s
('fitting is ', 1.0)
sample  2 at temperature  50 finishes with time 247.40 s
sample  2 at temperature 300 finishes with time 248.15 s
sample  2 at temperature 150 finishes with time 250.32 s
sample  2 at temperature 250 finishes with time 250.37 s
sample  2 at temperature 200 finishes with time 250.67 s
working on sample #  4/48 with threshold 0.160000
no. of electrons, holes, nanoparticles =  50,   0, 400
sample  3 at temperature 100 finishes with time 233.63 s
('fitting is ', 1.0)
sample  3 at temperature  50 finishes with time 234.91 s
sample  3 at temperature 150 finishes with time 235.21 s
sample  3 at temperature 400 finishes with time 235.74 s
sample  3 at temperature 350 finishes with time 237.34 s
sample  3 at temperature 300 finishes with time 238.50 s
sample  3 at temperature 200 finishes with time 238.84 s
sample  3 at temperature 250 finishes with time 239.67 s
working on sample #  5/48 with threshold 0.160000
no. of electrons, holes, nanoparticles =  50,   0, 400
sample  4 at temperature 400 finishes with time 248.91 s
sample  4 at temperature 350 finishes with time 251.76 s
('fitting is ', 1.0)
sample  4 at temperature  50 finishes with time 253.03 s
sample  4 at temperature 300 finishes with time 253.73 s
sample  4 at temperature 100 finishes with time 254.81 s
sample  4 at temperature 250 finishes with time 255.12 s
sample  4 at temperature 150 finishes with time 255.38 s
sample  4 at temperature 200 finishes with time 256.03 s
working on sample #  6/48 with threshold 0.160000
no. of electrons, holes, nanoparticles =  50,   0, 400
sample  5 at temperature 400 finishes with time 235.67 s
sample  5 at temperature 350 finishes with time 237.94 s
('fitting is ', 1.0)
sample  5 at temperature  50 finishes with time 238.54 s
sample  5 at temperature 100 finishes with time 239.28 s
sample  5 at temperature 300 finishes with time 239.61 s
sample  5 at temperature 250 finishes with time 239.81 s
sample  5 at temperature 150 finishes with time 240.02 s
sample  5 at temperature 200 finishes with time 240.36 s
working on sample #  7/48 with threshold 0.160000
no. of electrons, holes, nanoparticles =  50,   0, 400
sample  6 at temperature 400 finishes with time 252.39 s
sample  6 at temperature 350 finishes with time 256.96 s
sample  6 at temperature 300 finishes with time 261.83 s
sample  6 at temperature 250 finishes with time 267.20 s
sample  6 at temperature 200 finishes with time 271.43 s
('fitting is ', 1.0)
sample  6 at temperature  50 finishes with time 274.37 s
sample  6 at temperature 150 finishes with time 276.47 s
sample  6 at temperature 100 finishes with time 284.29 s
working on sample #  8/48 with threshold 0.160000
no. of electrons, holes, nanoparticles =  50,   0, 400
sample  7 at temperature 400 finishes with time 254.27 s
sample  7 at temperature 350 finishes with time 258.01 s
sample  7 at temperature 300 finishes with time 261.14 s
sample  7 at temperature 250 finishes with time 264.97 s
sample  7 at temperature 200 finishes with time 268.38 s
sample  7 at temperature 150 finishes with time 271.64 s
sample  7 at temperature 100 finishes with time 275.68 s
('fitting is ', 1.0)
sample  7 at temperature  50 finishes with time 276.41 s
working on sample #  9/48 with threshold 0.160000
no. of electrons, holes, nanoparticles =  50,   0, 400
sample  8 at temperature 400 finishes with time 260.02 s
sample  8 at temperature 350 finishes with time 262.22 s
sample  8 at temperature 300 finishes with time 265.20 s
sample  8 at temperature 250 finishes with time 267.93 s
sample  8 at temperature 200 finishes with time 268.98 s
sample  8 at temperature 150 finishes with time 270.34 s
sample  8 at temperature 100 finishes with time 271.85 s
('fitting is ', 1.0)
sample  8 at temperature  50 finishes with time 273.70 s
working on sample # 10/48 with threshold 0.160000
no. of electrons, holes, nanoparticles =  50,   0, 400
sample  9 at temperature 400 finishes with time 251.03 s
sample  9 at temperature 350 finishes with time 254.02 s
sample  9 at temperature 300 finishes with time 258.99 s
sample  9 at temperature 250 finishes with time 259.07 s
('fitting is ', 1.0)
sample  9 at temperature  50 finishes with time 261.98 s
sample  9 at temperature 200 finishes with time 262.79 s
sample  9 at temperature 150 finishes with time 268.06 s
sample  9 at temperature 100 finishes with time 277.85 s
working on sample # 11/48 with threshold 0.160000
no. of electrons, holes, nanoparticles =  50,   0, 400
sample 10 at temperature 400 finishes with time 253.73 s
sample 10 at temperature 350 finishes with time 256.67 s
('fitting is ', 1.0)
sample 10 at temperature  50 finishes with time 256.88 s
sample 10 at temperature 300 finishes with time 257.53 s
sample 10 at temperature 250 finishes with time 260.00 s
sample 10 at temperature 200 finishes with time 261.80 s
sample 10 at temperature 100 finishes with time 262.42 s
sample 10 at temperature 150 finishes with time 262.71 s
working on sample # 12/48 with threshold 0.160000
no. of electrons, holes, nanoparticles =  50,   0, 400
('fitting is ', 1.0)
sample 11 at temperature  50 finishes with time 217.34 s
sample 11 at temperature 100 finishes with time 220.35 s
sample 11 at temperature 150 finishes with time 227.45 s
sample 11 at temperature 200 finishes with time 230.84 s
sample 11 at temperature 400 finishes with time 233.82 s
sample 11 at temperature 300 finishes with time 234.90 s
sample 11 at temperature 350 finishes with time 235.20 s
sample 11 at temperature 250 finishes with time 236.51 s
working on sample # 13/48 with threshold 0.160000
no. of electrons, holes, nanoparticles =  50,   0, 400
sample 12 at temperature 400 finishes with time 255.30 s
sample 12 at temperature 350 finishes with time 259.83 s
sample 12 at temperature 300 finishes with time 264.31 s
('fitting is ', 1.0)
sample 12 at temperature  50 finishes with time 267.97 s
sample 12 at temperature 250 finishes with time 270.19 s
sample 12 at temperature 200 finishes with time 275.87 s
sample 12 at temperature 100 finishes with time 280.08 s
sample 12 at temperature 150 finishes with time 280.66 s
working on sample # 14/48 with threshold 0.160000
no. of electrons, holes, nanoparticles =  50,   0, 400
sample 13 at temperature 400 finishes with time 239.75 s
('fitting is ', 1.0)
sample 13 at temperature  50 finishes with time 244.95 s
sample 13 at temperature 350 finishes with time 247.99 s
sample 13 at temperature 300 finishes with time 252.13 s
sample 13 at temperature 250 finishes with time 258.27 s
sample 13 at temperature 100 finishes with time 261.85 s
sample 13 at temperature 200 finishes with time 263.82 s
sample 13 at temperature 150 finishes with time 265.02 s
working on sample # 15/48 with threshold 0.160000
no. of electrons, holes, nanoparticles =  50,   0, 400
('fitting is ', 1.0)
sample 14 at temperature  50 finishes with time 238.04 s
sample 14 at temperature 350 finishes with time 244.69 s
sample 14 at temperature 200 finishes with time 244.99 s
sample 14 at temperature 100 finishes with time 246.07 s
sample 14 at temperature 250 finishes with time 246.12 s
sample 14 at temperature 300 finishes with time 246.30 s
sample 14 at temperature 400 finishes with time 246.30 s
sample 14 at temperature 150 finishes with time 247.41 s
working on sample # 16/48 with threshold 0.160000
no. of electrons, holes, nanoparticles =  50,   0, 400
sample 15 at temperature 400 finishes with time 249.96 s
sample 15 at temperature 100 finishes with time 251.53 s
sample 15 at temperature 350 finishes with time 253.21 s
sample 15 at temperature 150 finishes with time 253.26 s
sample 15 at temperature 300 finishes with time 256.51 s
sample 15 at temperature 200 finishes with time 256.54 s
sample 15 at temperature 250 finishes with time 258.24 s
('fitting is ', 1.0)
sample 15 at temperature  50 finishes with time 263.49 s
working on sample # 17/48 with threshold 0.160000
no. of electrons, holes, nanoparticles =  50,   0, 400
sample 16 at temperature 400 finishes with time 260.73 s
sample 16 at temperature 350 finishes with time 263.28 s
sample 16 at temperature 300 finishes with time 265.71 s
sample 16 at temperature 250 finishes with time 269.44 s
sample 16 at temperature 200 finishes with time 272.75 s
sample 16 at temperature 150 finishes with time 273.80 s
('fitting is ', 1.0)
sample 16 at temperature  50 finishes with time 274.75 s
sample 16 at temperature 100 finishes with time 276.24 s
working on sample # 18/48 with threshold 0.160000
no. of electrons, holes, nanoparticles =  50,   0, 400
sample 17 at temperature 400 finishes with time 255.42 s
sample 17 at temperature 350 finishes with time 260.05 s
sample 17 at temperature 300 finishes with time 264.30 s
('fitting is ', 1.0)
sample 17 at temperature  50 finishes with time 265.41 s
sample 17 at temperature 250 finishes with time 268.14 s
sample 17 at temperature 200 finishes with time 270.72 s
sample 17 at temperature 150 finishes with time 273.90 s
sample 17 at temperature 100 finishes with time 275.86 s
working on sample # 19/48 with threshold 0.160000
no. of electrons, holes, nanoparticles =  50,   0, 400
sample 18 at temperature 400 finishes with time 238.51 s
sample 18 at temperature 350 finishes with time 241.90 s
sample 18 at temperature 300 finishes with time 245.23 s
('fitting is ', 1.0)
sample 18 at temperature  50 finishes with time 246.55 s
sample 18 at temperature 250 finishes with time 248.69 s
sample 18 at temperature 200 finishes with time 250.54 s
sample 18 at temperature 100 finishes with time 250.93 s
sample 18 at temperature 150 finishes with time 251.55 s
working on sample # 20/48 with threshold 0.160000
no. of electrons, holes, nanoparticles =  50,   0, 400
sample 19 at temperature 400 finishes with time 249.61 s
sample 19 at temperature 350 finishes with time 252.39 s
('fitting is ', 1.0)
sample 19 at temperature  50 finishes with time 258.11 s
sample 19 at temperature 250 finishes with time 258.32 s
sample 19 at temperature 200 finishes with time 261.12 s
sample 19 at temperature 150 finishes with time 265.27 s
sample 19 at temperature 100 finishes with time 268.13 s
sample 19 at temperature 300 finishes with time 286.77 s
working on sample # 21/48 with threshold 0.160000
no. of electrons, holes, nanoparticles =  50,   0, 400
sample 20 at temperature 400 finishes with time 245.13 s
sample 20 at temperature 350 finishes with time 248.33 s
sample 20 at temperature 300 finishes with time 250.98 s
sample 20 at temperature 250 finishes with time 254.82 s
sample 20 at temperature 200 finishes with time 257.97 s
('fitting is ', 1.0)
sample 20 at temperature  50 finishes with time 259.22 s
sample 20 at temperature 100 finishes with time 259.96 s
sample 20 at temperature 150 finishes with time 260.19 s
working on sample # 22/48 with threshold 0.160000
no. of electrons, holes, nanoparticles =  50,   0, 400
sample 21 at temperature 400 finishes with time 235.32 s
sample 21 at temperature 350 finishes with time 235.58 s
sample 21 at temperature 300 finishes with time 236.57 s
sample 21 at temperature 250 finishes with time 237.90 s
sample 21 at temperature 200 finishes with time 239.17 s
('fitting is ', 1.0)
sample 21 at temperature  50 finishes with time 239.23 s
sample 21 at temperature 150 finishes with time 239.87 s
sample 21 at temperature 100 finishes with time 244.60 s
working on sample # 23/48 with threshold 0.160000
no. of electrons, holes, nanoparticles =  50,   0, 400
sample 22 at temperature 400 finishes with time 251.62 s
sample 22 at temperature 350 finishes with time 254.82 s
sample 22 at temperature 300 finishes with time 258.32 s
sample 22 at temperature 250 finishes with time 260.60 s
sample 22 at temperature 200 finishes with time 264.80 s
sample 22 at temperature 100 finishes with time 267.28 s
sample 22 at temperature 150 finishes with time 268.50 s
('fitting is ', 1.0)
sample 22 at temperature  50 finishes with time 270.76 s
working on sample # 24/48 with threshold 0.160000
no. of electrons, holes, nanoparticles =  50,   0, 400
sample 23 at temperature 400 finishes with time 258.65 s
sample 23 at temperature 350 finishes with time 261.85 s
('fitting is ', 1.0)
sample 23 at temperature  50 finishes with time 264.18 s
sample 23 at temperature 300 finishes with time 266.21 s
sample 23 at temperature 250 finishes with time 268.48 s
sample 23 at temperature 200 finishes with time 271.30 s
sample 23 at temperature 100 finishes with time 272.34 s
sample 23 at temperature 150 finishes with time 273.49 s
working on sample # 25/48 with threshold 0.160000
no. of electrons, holes, nanoparticles =  50,   0, 400
('fitting is ', 1.0)
sample 24 at temperature  50 finishes with time 219.24 s
sample 24 at temperature 400 finishes with time 222.92 s
sample 24 at temperature 350 finishes with time 223.98 s
sample 24 at temperature 100 finishes with time 226.15 s
sample 24 at temperature 300 finishes with time 226.51 s
sample 24 at temperature 250 finishes with time 228.18 s
sample 24 at temperature 150 finishes with time 231.16 s
sample 24 at temperature 200 finishes with time 232.36 s
working on sample # 26/48 with threshold 0.160000
no. of electrons, holes, nanoparticles =  50,   0, 400
sample 25 at temperature 400 finishes with time 239.05 s
sample 25 at temperature 350 finishes with time 239.99 s
('fitting is ', 1.0)
sample 25 at temperature  50 finishes with time 242.37 s
sample 25 at temperature 300 finishes with time 242.76 s
sample 25 at temperature 250 finishes with time 246.07 s
sample 25 at temperature 100 finishes with time 247.30 s
sample 25 at temperature 200 finishes with time 249.23 s
sample 25 at temperature 150 finishes with time 249.35 s
working on sample # 27/48 with threshold 0.160000
no. of electrons, holes, nanoparticles =  50,   0, 400
('fitting is ', 1.0)
sample 26 at temperature  50 finishes with time 228.54 s
sample 26 at temperature 100 finishes with time 235.12 s
sample 26 at temperature 150 finishes with time 238.30 s
sample 26 at temperature 200 finishes with time 239.79 s
sample 26 at temperature 400 finishes with time 240.21 s
sample 26 at temperature 350 finishes with time 240.48 s
sample 26 at temperature 250 finishes with time 240.79 s
sample 26 at temperature 300 finishes with time 241.64 s
working on sample # 28/48 with threshold 0.160000
no. of electrons, holes, nanoparticles =  50,   0, 400
sample 27 at temperature 400 finishes with time 249.54 s
('fitting is ', 1.0)
sample 27 at temperature  50 finishes with time 251.49 s
sample 27 at temperature 350 finishes with time 252.35 s
sample 27 at temperature 300 finishes with time 256.98 s
sample 27 at temperature 100 finishes with time 258.40 s
sample 27 at temperature 250 finishes with time 259.67 s
sample 27 at temperature 200 finishes with time 262.72 s
sample 27 at temperature 150 finishes with time 262.90 s
working on sample # 29/48 with threshold 0.160000
no. of electrons, holes, nanoparticles =  50,   0, 400
sample 28 at temperature 400 finishes with time 257.15 s
('fitting is ', 1.0)
sample 28 at temperature  50 finishes with time 259.03 s
sample 28 at temperature 350 finishes with time 259.52 s
sample 28 at temperature 100 finishes with time 261.19 s
sample 28 at temperature 300 finishes with time 262.89 s
sample 28 at temperature 250 finishes with time 264.79 s
sample 28 at temperature 200 finishes with time 264.99 s
sample 28 at temperature 150 finishes with time 265.00 s
working on sample # 30/48 with threshold 0.160000
no. of electrons, holes, nanoparticles =  50,   0, 400
('fitting is ', 1.0)
sample 29 at temperature  50 finishes with time 227.03 s
sample 29 at temperature 100 finishes with time 230.96 s
sample 29 at temperature 400 finishes with time 236.28 s
sample 29 at temperature 350 finishes with time 239.32 s
sample 29 at temperature 150 finishes with time 239.50 s
sample 29 at temperature 300 finishes with time 242.15 s
sample 29 at temperature 200 finishes with time 243.05 s
sample 29 at temperature 250 finishes with time 243.51 s
working on sample # 31/48 with threshold 0.160000
no. of electrons, holes, nanoparticles =  50,   0, 400
sample 30 at temperature 400 finishes with time 246.42 s
sample 30 at temperature 350 finishes with time 249.25 s
sample 30 at temperature 300 finishes with time 252.66 s
sample 30 at temperature 250 finishes with time 255.93 s
sample 30 at temperature 200 finishes with time 259.14 s
sample 30 at temperature 100 finishes with time 261.51 s
sample 30 at temperature 150 finishes with time 263.36 s
('fitting is ', 1.0)
sample 30 at temperature  50 finishes with time 265.11 s
working on sample # 32/48 with threshold 0.160000
no. of electrons, holes, nanoparticles =  50,   0, 400
sample 31 at temperature 400 finishes with time 248.55 s
sample 31 at temperature 350 finishes with time 253.07 s
sample 31 at temperature 300 finishes with time 258.26 s
sample 31 at temperature 250 finishes with time 262.90 s
sample 31 at temperature 200 finishes with time 268.14 s
('fitting is ', 1.0)
sample 31 at temperature  50 finishes with time 269.34 s
sample 31 at temperature 150 finishes with time 272.02 s
sample 31 at temperature 100 finishes with time 272.20 s
working on sample # 33/48 with threshold 0.160000
no. of electrons, holes, nanoparticles =  50,   0, 400
sample 32 at temperature 400 finishes with time 210.81 s
sample 32 at temperature 350 finishes with time 211.05 s
sample 32 at temperature 300 finishes with time 212.65 s
sample 32 at temperature 250 finishes with time 212.83 s
sample 32 at temperature 200 finishes with time 214.06 s
sample 32 at temperature 100 finishes with time 214.38 s
sample 32 at temperature 150 finishes with time 214.48 s
('fitting is ', 1.0)
sample 32 at temperature  50 finishes with time 218.65 s
working on sample # 34/48 with threshold 0.160000
no. of electrons, holes, nanoparticles =  50,   0, 400
sample 33 at temperature 400 finishes with time 254.42 s
sample 33 at temperature 350 finishes with time 256.48 s
sample 33 at temperature 300 finishes with time 259.83 s
('fitting is ', 1.0)
sample 33 at temperature  50 finishes with time 261.87 s
sample 33 at temperature 250 finishes with time 262.30 s
sample 33 at temperature 200 finishes with time 266.49 s
sample 33 at temperature 150 finishes with time 272.65 s
sample 33 at temperature 100 finishes with time 276.97 s
working on sample # 35/48 with threshold 0.160000
no. of electrons, holes, nanoparticles =  50,   0, 400
sample 34 at temperature 400 finishes with time 254.07 s
sample 34 at temperature 350 finishes with time 256.33 s
sample 34 at temperature 300 finishes with time 259.02 s
sample 34 at temperature 250 finishes with time 261.45 s
('fitting is ', 1.0)
sample 34 at temperature  50 finishes with time 262.55 s
sample 34 at temperature 200 finishes with time 265.09 s
sample 34 at temperature 100 finishes with time 269.18 s
sample 34 at temperature 150 finishes with time 270.08 s
working on sample # 36/48 with threshold 0.160000
no. of electrons, holes, nanoparticles =  50,   0, 400
sample 35 at temperature 100 finishes with time 250.18 s
sample 35 at temperature 400 finishes with time 250.54 s
sample 35 at temperature 350 finishes with time 252.42 s
sample 35 at temperature 150 finishes with time 253.26 s
sample 35 at temperature 300 finishes with time 254.56 s
sample 35 at temperature 200 finishes with time 255.11 s
sample 35 at temperature 250 finishes with time 255.30 s
('fitting is ', 1.0)
sample 35 at temperature  50 finishes with time 266.07 s
working on sample # 37/48 with threshold 0.160000
no. of electrons, holes, nanoparticles =  50,   0, 400
sample 36 at temperature 400 finishes with time 233.49 s
('fitting is ', 1.0)
sample 36 at temperature  50 finishes with time 234.44 s
sample 36 at temperature 350 finishes with time 234.70 s
sample 36 at temperature 100 finishes with time 235.49 s
sample 36 at temperature 300 finishes with time 235.83 s
sample 36 at temperature 150 finishes with time 236.20 s
sample 36 at temperature 250 finishes with time 236.47 s
sample 36 at temperature 200 finishes with time 236.73 s
working on sample # 38/48 with threshold 0.160000
no. of electrons, holes, nanoparticles =  50,   0, 400
('fitting is ', 1.0)
sample 37 at temperature  50 finishes with time 224.73 s
sample 37 at temperature 100 finishes with time 228.84 s
sample 37 at temperature 150 finishes with time 231.28 s
sample 37 at temperature 350 finishes with time 233.34 s
sample 37 at temperature 400 finishes with time 233.58 s
sample 37 at temperature 250 finishes with time 234.73 s
sample 37 at temperature 300 finishes with time 235.72 s
sample 37 at temperature 200 finishes with time 235.83 s
working on sample # 39/48 with threshold 0.160000
no. of electrons, holes, nanoparticles =  50,   0, 400
sample 38 at temperature 400 finishes with time 235.43 s
sample 38 at temperature 350 finishes with time 238.16 s
sample 38 at temperature 300 finishes with time 241.25 s
sample 38 at temperature 250 finishes with time 242.37 s
('fitting is ', 1.0)
sample 38 at temperature  50 finishes with time 242.66 s
sample 38 at temperature 200 finishes with time 244.60 s
sample 38 at temperature 100 finishes with time 246.80 s
sample 38 at temperature 150 finishes with time 247.07 s
working on sample # 40/48 with threshold 0.160000
no. of electrons, holes, nanoparticles =  50,   0, 400
('fitting is ', 1.0)
sample 39 at temperature  50 finishes with time 224.95 s
sample 39 at temperature 100 finishes with time 226.69 s
sample 39 at temperature 150 finishes with time 235.07 s
sample 39 at temperature 200 finishes with time 237.51 s
sample 39 at temperature 250 finishes with time 240.48 s
sample 39 at temperature 300 finishes with time 242.65 s
sample 39 at temperature 350 finishes with time 243.89 s
sample 39 at temperature 400 finishes with time 245.09 s
working on sample # 41/48 with threshold 0.160000
no. of electrons, holes, nanoparticles =  50,   0, 400
sample 40 at temperature 150 finishes with time 229.29 s
sample 40 at temperature 100 finishes with time 231.03 s
sample 40 at temperature 200 finishes with time 231.65 s
sample 40 at temperature 250 finishes with time 232.85 s
('fitting is ', 1.0)
sample 40 at temperature  50 finishes with time 234.64 s
sample 40 at temperature 300 finishes with time 235.10 s
sample 40 at temperature 400 finishes with time 235.67 s
sample 40 at temperature 350 finishes with time 236.32 s
working on sample # 42/48 with threshold 0.160000
no. of electrons, holes, nanoparticles =  50,   0, 400
sample 41 at temperature 400 finishes with time 244.99 s
sample 41 at temperature 350 finishes with time 248.65 s
sample 41 at temperature 300 finishes with time 251.48 s
sample 41 at temperature 250 finishes with time 255.47 s
sample 41 at temperature 100 finishes with time 257.87 s
sample 41 at temperature 200 finishes with time 258.79 s
('fitting is ', 1.0)
sample 41 at temperature  50 finishes with time 259.88 s
sample 41 at temperature 150 finishes with time 261.23 s
working on sample # 43/48 with threshold 0.160000
no. of electrons, holes, nanoparticles =  50,   0, 400
sample 42 at temperature 400 finishes with time 243.34 s
('fitting is ', 1.0)
sample 42 at temperature  50 finishes with time 244.40 s
sample 42 at temperature 350 finishes with time 244.69 s
sample 42 at temperature 300 finishes with time 247.78 s
sample 42 at temperature 100 finishes with time 250.99 s
sample 42 at temperature 250 finishes with time 251.54 s
sample 42 at temperature 200 finishes with time 252.63 s
sample 42 at temperature 150 finishes with time 252.89 s
working on sample # 44/48 with threshold 0.160000
no. of electrons, holes, nanoparticles =  50,   0, 400
('fitting is ', 1.0)
sample 43 at temperature  50 finishes with time 233.77 s
sample 43 at temperature 100 finishes with time 237.73 s
sample 43 at temperature 150 finishes with time 246.04 s
sample 43 at temperature 400 finishes with time 247.13 s
sample 43 at temperature 350 finishes with time 249.74 s
sample 43 at temperature 200 finishes with time 252.09 s
sample 43 at temperature 250 finishes with time 252.11 s
sample 43 at temperature 300 finishes with time 252.60 s
working on sample # 45/48 with threshold 0.160000
no. of electrons, holes, nanoparticles =  50,   0, 400
sample 44 at temperature 400 finishes with time 254.54 s
sample 44 at temperature 350 finishes with time 258.98 s
sample 44 at temperature 300 finishes with time 265.00 s
sample 44 at temperature 250 finishes with time 271.50 s
('fitting is ', 1.0)
sample 44 at temperature  50 finishes with time 275.72 s
sample 44 at temperature 200 finishes with time 278.16 s
sample 44 at temperature 100 finishes with time 282.56 s
sample 44 at temperature 150 finishes with time 284.68 s
working on sample # 46/48 with threshold 0.160000
no. of electrons, holes, nanoparticles =  50,   0, 400
sample 45 at temperature 400 finishes with time 249.36 s
sample 45 at temperature 350 finishes with time 251.81 s
sample 45 at temperature 300 finishes with time 256.23 s
sample 45 at temperature 250 finishes with time 259.64 s
('fitting is ', 1.0)
sample 45 at temperature  50 finishes with time 263.37 s
sample 45 at temperature 200 finishes with time 264.17 s
sample 45 at temperature 100 finishes with time 265.36 s
sample 45 at temperature 150 finishes with time 267.43 s
working on sample # 47/48 with threshold 0.160000
no. of electrons, holes, nanoparticles =  50,   0, 400
('fitting is ', 1.0)
sample 46 at temperature  50 finishes with time 234.15 s
sample 46 at temperature 350 finishes with time 236.99 s
sample 46 at temperature 400 finishes with time 237.23 s
sample 46 at temperature 250 finishes with time 238.21 s
sample 46 at temperature 150 finishes with time 238.21 s
sample 46 at temperature 300 finishes with time 238.46 s
sample 46 at temperature 100 finishes with time 238.58 s
sample 46 at temperature 200 finishes with time 239.58 s
working on sample # 48/48 with threshold 0.160000
no. of electrons, holes, nanoparticles =  50,   0, 400
sample 47 at temperature 400 finishes with time 239.91 s
sample 47 at temperature 350 finishes with time 243.79 s
sample 47 at temperature 300 finishes with time 246.37 s
sample 47 at temperature 250 finishes with time 248.29 s
sample 47 at temperature 200 finishes with time 252.16 s
('fitting is ', 1.0)
sample 47 at temperature  50 finishes with time 254.17 s
sample 47 at temperature 100 finishes with time 254.57 s
sample 47 at temperature 150 finishes with time 271.69 s
working on sample #  1/48 with threshold 0.180000
no. of electrons, holes, nanoparticles =  50,   0, 400
sample  0 at temperature 400 finishes with time 241.82 s
sample  0 at temperature 350 finishes with time 243.74 s
sample  0 at temperature 300 finishes with time 244.74 s
sample  0 at temperature 250 finishes with time 246.47 s
sample  0 at temperature 200 finishes with time 248.25 s
sample  0 at temperature 150 finishes with time 250.77 s
('fitting is ', 1.0)
sample  0 at temperature  50 finishes with time 255.97 s
sample  0 at temperature 100 finishes with time 258.11 s
working on sample #  2/48 with threshold 0.180000
no. of electrons, holes, nanoparticles =  50,   0, 400
sample  1 at temperature 400 finishes with time 252.35 s
sample  1 at temperature 350 finishes with time 254.39 s
sample  1 at temperature 300 finishes with time 256.71 s
sample  1 at temperature 250 finishes with time 258.55 s
sample  1 at temperature 200 finishes with time 260.89 s
('fitting is ', 1.0)
sample  1 at temperature  50 finishes with time 261.42 s
sample  1 at temperature 150 finishes with time 262.25 s
sample  1 at temperature 100 finishes with time 264.83 s
working on sample #  3/48 with threshold 0.180000
no. of electrons, holes, nanoparticles =  50,   0, 400
sample  2 at temperature 400 finishes with time 239.88 s
sample  2 at temperature 350 finishes with time 243.63 s
sample  2 at temperature 300 finishes with time 245.93 s
sample  2 at temperature 100 finishes with time 247.18 s
('fitting is ', 1.0)
sample  2 at temperature  50 finishes with time 247.25 s
sample  2 at temperature 250 finishes with time 247.79 s
sample  2 at temperature 150 finishes with time 248.28 s
sample  2 at temperature 200 finishes with time 248.36 s
working on sample #  4/48 with threshold 0.180000
no. of electrons, holes, nanoparticles =  50,   0, 400
sample  3 at temperature 400 finishes with time 233.30 s
sample  3 at temperature 350 finishes with time 236.08 s
sample  3 at temperature 100 finishes with time 236.18 s
sample  3 at temperature 300 finishes with time 238.29 s
sample  3 at temperature 150 finishes with time 238.42 s
sample  3 at temperature 200 finishes with time 239.19 s
sample  3 at temperature 250 finishes with time 239.34 s
('fitting is ', 1.0)
sample  3 at temperature  50 finishes with time 246.36 s
working on sample #  5/48 with threshold 0.180000
no. of electrons, holes, nanoparticles =  50,   0, 400
('fitting is ', 1.0)
sample  4 at temperature  50 finishes with time 245.29 s
sample  4 at temperature 400 finishes with time 246.15 s
sample  4 at temperature 350 finishes with time 246.46 s
sample  4 at temperature 100 finishes with time 247.59 s
sample  4 at temperature 250 finishes with time 249.60 s
sample  4 at temperature 300 finishes with time 249.61 s
sample  4 at temperature 150 finishes with time 250.74 s
sample  4 at temperature 200 finishes with time 251.06 s
working on sample #  6/48 with threshold 0.180000
no. of electrons, holes, nanoparticles =  50,   0, 400
('fitting is ', 1.0)
sample  5 at temperature  50 finishes with time 216.27 s
sample  5 at temperature 100 finishes with time 217.85 s
sample  5 at temperature 150 finishes with time 219.33 s
sample  5 at temperature 200 finishes with time 221.21 s
sample  5 at temperature 350 finishes with time 223.00 s
sample  5 at temperature 250 finishes with time 223.44 s
sample  5 at temperature 300 finishes with time 223.66 s
sample  5 at temperature 400 finishes with time 223.95 s
working on sample #  7/48 with threshold 0.180000
no. of electrons, holes, nanoparticles =  50,   0, 400
sample  6 at temperature 400 finishes with time 250.78 s
sample  6 at temperature 350 finishes with time 254.93 s
sample  6 at temperature 300 finishes with time 261.03 s
sample  6 at temperature 250 finishes with time 267.72 s
('fitting is ', 1.0)
sample  6 at temperature  50 finishes with time 271.67 s
sample  6 at temperature 200 finishes with time 273.31 s
sample  6 at temperature 150 finishes with time 279.00 s
sample  6 at temperature 100 finishes with time 282.15 s
working on sample #  8/48 with threshold 0.180000
no. of electrons, holes, nanoparticles =  50,   0, 400
sample  7 at temperature 400 finishes with time 237.27 s
sample  7 at temperature 350 finishes with time 240.32 s
sample  7 at temperature 300 finishes with time 242.94 s
sample  7 at temperature 250 finishes with time 247.08 s
sample  7 at temperature 200 finishes with time 252.35 s
sample  7 at temperature 150 finishes with time 258.84 s
('fitting is ', 1.0)
sample  7 at temperature  50 finishes with time 262.42 s
sample  7 at temperature 100 finishes with time 267.22 s
working on sample #  9/48 with threshold 0.180000
no. of electrons, holes, nanoparticles =  50,   0, 400
sample  8 at temperature 400 finishes with time 252.44 s
sample  8 at temperature 350 finishes with time 255.99 s
sample  8 at temperature 300 finishes with time 257.01 s
sample  8 at temperature 250 finishes with time 260.24 s
sample  8 at temperature 200 finishes with time 262.78 s
sample  8 at temperature 150 finishes with time 263.65 s
sample  8 at temperature 100 finishes with time 264.87 s
('fitting is ', 1.0)
sample  8 at temperature  50 finishes with time 272.18 s
working on sample # 10/48 with threshold 0.180000
no. of electrons, holes, nanoparticles =  50,   0, 400
sample  9 at temperature 400 finishes with time 248.75 s
('fitting is ', 1.0)
sample  9 at temperature  50 finishes with time 251.60 s
sample  9 at temperature 350 finishes with time 252.64 s
sample  9 at temperature 300 finishes with time 254.61 s
sample  9 at temperature 250 finishes with time 258.18 s
sample  9 at temperature 200 finishes with time 260.02 s
sample  9 at temperature 150 finishes with time 264.22 s
sample  9 at temperature 100 finishes with time 268.49 s
working on sample # 11/48 with threshold 0.180000
no. of electrons, holes, nanoparticles =  50,   0, 400
sample 10 at temperature 400 finishes with time 252.90 s
sample 10 at temperature 350 finishes with time 254.00 s
sample 10 at temperature 300 finishes with time 255.95 s
sample 10 at temperature 200 finishes with time 258.64 s
sample 10 at temperature 250 finishes with time 258.95 s
sample 10 at temperature 100 finishes with time 259.23 s
sample 10 at temperature 150 finishes with time 259.94 s
('fitting is ', 1.0)
sample 10 at temperature  50 finishes with time 259.99 s
working on sample # 12/48 with threshold 0.180000
no. of electrons, holes, nanoparticles =  50,   0, 400
('fitting is ', 1.0)
sample 11 at temperature  50 finishes with time 210.17 s
sample 11 at temperature 100 finishes with time 216.84 s
sample 11 at temperature 150 finishes with time 222.42 s
sample 11 at temperature 200 finishes with time 226.66 s
sample 11 at temperature 250 finishes with time 228.99 s
sample 11 at temperature 350 finishes with time 230.01 s
sample 11 at temperature 300 finishes with time 230.35 s
sample 11 at temperature 400 finishes with time 233.26 s
working on sample # 13/48 with threshold 0.180000
no. of electrons, holes, nanoparticles =  50,   0, 400
sample 12 at temperature 400 finishes with time 253.14 s
sample 12 at temperature 350 finishes with time 258.13 s
sample 12 at temperature 300 finishes with time 262.24 s
('fitting is ', 1.0)
sample 12 at temperature  50 finishes with time 267.75 s
sample 12 at temperature 250 finishes with time 269.38 s
sample 12 at temperature 200 finishes with time 276.18 s
sample 12 at temperature 100 finishes with time 278.12 s
sample 12 at temperature 150 finishes with time 279.93 s
working on sample # 14/48 with threshold 0.180000
no. of electrons, holes, nanoparticles =  50,   0, 400
sample 13 at temperature 400 finishes with time 237.52 s
sample 13 at temperature 350 finishes with time 242.99 s
sample 13 at temperature 300 finishes with time 249.27 s
('fitting is ', 1.0)
sample 13 at temperature  50 finishes with time 249.69 s
sample 13 at temperature 250 finishes with time 254.13 s
sample 13 at temperature 200 finishes with time 260.62 s
sample 13 at temperature 100 finishes with time 262.58 s
sample 13 at temperature 150 finishes with time 263.20 s
working on sample # 15/48 with threshold 0.180000
no. of electrons, holes, nanoparticles =  50,   0, 400
sample 14 at temperature 350 finishes with time 238.45 s
sample 14 at temperature 300 finishes with time 238.75 s
sample 14 at temperature 250 finishes with time 239.01 s
sample 14 at temperature 400 finishes with time 239.34 s
sample 14 at temperature 200 finishes with time 239.86 s
('fitting is ', 1.0)
sample 14 at temperature  50 finishes with time 242.23 s
sample 14 at temperature 150 finishes with time 243.59 s
sample 14 at temperature 100 finishes with time 245.51 s
working on sample # 16/48 with threshold 0.180000
no. of electrons, holes, nanoparticles =  50,   0, 400
sample 15 at temperature 400 finishes with time 241.35 s
sample 15 at temperature 350 finishes with time 244.10 s
sample 15 at temperature 300 finishes with time 246.89 s
sample 15 at temperature 250 finishes with time 248.12 s
('fitting is ', 1.0)
sample 15 at temperature  50 finishes with time 248.53 s
sample 15 at temperature 150 finishes with time 249.55 s
sample 15 at temperature 200 finishes with time 249.81 s
sample 15 at temperature 100 finishes with time 250.54 s
working on sample # 17/48 with threshold 0.180000
no. of electrons, holes, nanoparticles =  50,   0, 400
sample 16 at temperature 400 finishes with time 260.89 s
sample 16 at temperature 350 finishes with time 264.10 s
sample 16 at temperature 300 finishes with time 266.21 s
sample 16 at temperature 250 finishes with time 269.55 s
sample 16 at temperature 200 finishes with time 272.41 s
('fitting is ', 1.0)
sample 16 at temperature  50 finishes with time 274.27 s
sample 16 at temperature 150 finishes with time 275.36 s
sample 16 at temperature 100 finishes with time 278.82 s
working on sample # 18/48 with threshold 0.180000
no. of electrons, holes, nanoparticles =  50,   0, 400
('fitting is ', 1.0)
sample 17 at temperature  50 finishes with time 254.77 s
sample 17 at temperature 400 finishes with time 256.01 s
sample 17 at temperature 100 finishes with time 256.88 s
sample 17 at temperature 150 finishes with time 259.58 s
sample 17 at temperature 350 finishes with time 259.76 s
sample 17 at temperature 300 finishes with time 261.80 s
sample 17 at temperature 200 finishes with time 263.11 s
sample 17 at temperature 250 finishes with time 265.09 s
working on sample # 19/48 with threshold 0.180000
no. of electrons, holes, nanoparticles =  50,   0, 400
sample 18 at temperature 400 finishes with time 236.03 s
sample 18 at temperature 350 finishes with time 238.58 s
('fitting is ', 1.0)
sample 18 at temperature  50 finishes with time 238.79 s
sample 18 at temperature 300 finishes with time 241.84 s
sample 18 at temperature 100 finishes with time 244.20 s
sample 18 at temperature 250 finishes with time 246.15 s
sample 18 at temperature 150 finishes with time 246.88 s
sample 18 at temperature 200 finishes with time 247.93 s
working on sample # 20/48 with threshold 0.180000
no. of electrons, holes, nanoparticles =  50,   0, 400
sample 19 at temperature 400 finishes with time 250.51 s
sample 19 at temperature 350 finishes with time 253.21 s
('fitting is ', 1.0)
sample 19 at temperature  50 finishes with time 255.00 s
sample 19 at temperature 250 finishes with time 257.13 s
sample 19 at temperature 200 finishes with time 260.21 s
sample 19 at temperature 150 finishes with time 262.72 s
sample 19 at temperature 100 finishes with time 263.54 s
sample 19 at temperature 300 finishes with time 285.49 s
working on sample # 21/48 with threshold 0.180000
no. of electrons, holes, nanoparticles =  50,   0, 400
sample 20 at temperature 400 finishes with time 247.08 s
sample 20 at temperature 350 finishes with time 249.12 s
sample 20 at temperature 300 finishes with time 253.12 s
sample 20 at temperature 250 finishes with time 256.17 s
sample 20 at temperature 200 finishes with time 258.97 s
sample 20 at temperature 150 finishes with time 261.54 s
sample 20 at temperature 100 finishes with time 263.42 s
('fitting is ', 1.0)
sample 20 at temperature  50 finishes with time 269.16 s
working on sample # 22/48 with threshold 0.180000
no. of electrons, holes, nanoparticles =  50,   0, 400
sample 21 at temperature 400 finishes with time 239.06 s
sample 21 at temperature 350 finishes with time 242.05 s
sample 21 at temperature 300 finishes with time 245.53 s
('fitting is ', 1.0)
sample 21 at temperature  50 finishes with time 246.35 s
sample 21 at temperature 100 finishes with time 248.98 s
sample 21 at temperature 250 finishes with time 249.94 s
sample 21 at temperature 200 finishes with time 252.76 s
sample 21 at temperature 150 finishes with time 254.73 s
working on sample # 23/48 with threshold 0.180000
no. of electrons, holes, nanoparticles =  50,   0, 400
sample 22 at temperature 400 finishes with time 242.75 s
sample 22 at temperature 350 finishes with time 242.83 s
sample 22 at temperature 300 finishes with time 246.06 s
sample 22 at temperature 250 finishes with time 248.09 s
sample 22 at temperature 200 finishes with time 251.04 s
sample 22 at temperature 150 finishes with time 253.33 s
sample 22 at temperature 100 finishes with time 254.25 s
('fitting is ', 1.0)
sample 22 at temperature  50 finishes with time 257.78 s
working on sample # 24/48 with threshold 0.180000
no. of electrons, holes, nanoparticles =  50,   0, 400
('fitting is ', 1.0)
sample 23 at temperature  50 finishes with time 259.39 s
sample 23 at temperature 400 finishes with time 259.63 s
sample 23 at temperature 350 finishes with time 261.97 s
sample 23 at temperature 300 finishes with time 265.81 s
sample 23 at temperature 250 finishes with time 267.95 s
sample 23 at temperature 200 finishes with time 270.01 s
sample 23 at temperature 100 finishes with time 270.15 s
sample 23 at temperature 150 finishes with time 271.77 s
working on sample # 25/48 with threshold 0.180000
no. of electrons, holes, nanoparticles =  50,   0, 400
('fitting is ', 1.0)
sample 24 at temperature  50 finishes with time 213.14 s
sample 24 at temperature 100 finishes with time 221.87 s
sample 24 at temperature 400 finishes with time 222.92 s
sample 24 at temperature 350 finishes with time 224.57 s
sample 24 at temperature 300 finishes with time 226.86 s
sample 24 at temperature 250 finishes with time 227.65 s
sample 24 at temperature 150 finishes with time 228.45 s
sample 24 at temperature 200 finishes with time 231.43 s
working on sample # 26/48 with threshold 0.180000
no. of electrons, holes, nanoparticles =  50,   0, 400
('fitting is ', 1.0)
sample 25 at temperature  50 finishes with time 227.19 s
sample 25 at temperature 400 finishes with time 232.53 s
sample 25 at temperature 350 finishes with time 234.40 s
sample 25 at temperature 100 finishes with time 235.32 s
sample 25 at temperature 300 finishes with time 236.57 s
sample 25 at temperature 250 finishes with time 237.77 s
sample 25 at temperature 200 finishes with time 238.90 s
sample 25 at temperature 150 finishes with time 240.47 s
working on sample # 27/48 with threshold 0.180000
no. of electrons, holes, nanoparticles =  50,   0, 400
('fitting is ', 1.0)
sample 26 at temperature  50 finishes with time 222.63 s
sample 26 at temperature 100 finishes with time 225.33 s
sample 26 at temperature 400 finishes with time 234.44 s
sample 26 at temperature 350 finishes with time 235.05 s
sample 26 at temperature 300 finishes with time 237.93 s
sample 26 at temperature 250 finishes with time 238.39 s
sample 26 at temperature 150 finishes with time 239.01 s
sample 26 at temperature 200 finishes with time 242.15 s
working on sample # 28/48 with threshold 0.180000
no. of electrons, holes, nanoparticles =  50,   0, 400
sample 27 at temperature 400 finishes with time 241.35 s
sample 27 at temperature 350 finishes with time 243.89 s
sample 27 at temperature 300 finishes with time 247.95 s
('fitting is ', 1.0)
sample 27 at temperature  50 finishes with time 249.41 s
sample 27 at temperature 250 finishes with time 251.36 s
sample 27 at temperature 100 finishes with time 252.56 s
sample 27 at temperature 150 finishes with time 255.32 s
sample 27 at temperature 200 finishes with time 255.48 s
working on sample # 29/48 with threshold 0.180000
no. of electrons, holes, nanoparticles =  50,   0, 400
sample 28 at temperature 400 finishes with time 259.44 s
sample 28 at temperature 350 finishes with time 261.79 s
sample 28 at temperature 300 finishes with time 263.84 s
sample 28 at temperature 250 finishes with time 268.26 s
('fitting is ', 1.0)
sample 28 at temperature  50 finishes with time 269.74 s
sample 28 at temperature 200 finishes with time 270.82 s
sample 28 at temperature 100 finishes with time 271.94 s
sample 28 at temperature 150 finishes with time 272.79 s
working on sample # 30/48 with threshold 0.180000
no. of electrons, holes, nanoparticles =  50,   0, 400
sample 29 at temperature 400 finishes with time 229.37 s
sample 29 at temperature 350 finishes with time 232.51 s
sample 29 at temperature 300 finishes with time 235.50 s
('fitting is ', 1.0)
sample 29 at temperature  50 finishes with time 236.68 s
sample 29 at temperature 250 finishes with time 237.88 s
sample 29 at temperature 100 finishes with time 239.74 s
sample 29 at temperature 200 finishes with time 241.58 s
sample 29 at temperature 150 finishes with time 244.42 s
working on sample # 31/48 with threshold 0.180000
no. of electrons, holes, nanoparticles =  50,   0, 400
sample 30 at temperature 400 finishes with time 237.05 s
sample 30 at temperature 350 finishes with time 239.26 s
sample 30 at temperature 300 finishes with time 242.72 s
sample 30 at temperature 250 finishes with time 243.47 s
sample 30 at temperature 150 finishes with time 246.39 s
sample 30 at temperature 200 finishes with time 246.47 s
sample 30 at temperature 100 finishes with time 248.42 s
('fitting is ', 1.0)
sample 30 at temperature  50 finishes with time 252.44 s
working on sample # 32/48 with threshold 0.180000
no. of electrons, holes, nanoparticles =  50,   0, 400
sample 31 at temperature 400 finishes with time 245.91 s
sample 31 at temperature 350 finishes with time 248.85 s
sample 31 at temperature 300 finishes with time 253.27 s
sample 31 at temperature 250 finishes with time 255.96 s
('fitting is ', 1.0)
sample 31 at temperature  50 finishes with time 257.83 s
sample 31 at temperature 200 finishes with time 259.04 s
sample 31 at temperature 100 finishes with time 261.61 s
sample 31 at temperature 150 finishes with time 262.75 s
working on sample # 33/48 with threshold 0.180000
no. of electrons, holes, nanoparticles =  50,   0, 400
sample 32 at temperature 250 finishes with time 195.89 s
sample 32 at temperature 150 finishes with time 196.17 s
sample 32 at temperature 200 finishes with time 196.37 s
sample 32 at temperature 300 finishes with time 197.27 s
sample 32 at temperature 400 finishes with time 198.69 s
sample 32 at temperature 350 finishes with time 198.89 s
sample 32 at temperature 100 finishes with time 199.33 s
('fitting is ', 1.0)
sample 32 at temperature  50 finishes with time 206.39 s
working on sample # 34/48 with threshold 0.180000
no. of electrons, holes, nanoparticles =  50,   0, 400
sample 33 at temperature 400 finishes with time 243.43 s
sample 33 at temperature 350 finishes with time 244.72 s
('fitting is ', 1.0)
sample 33 at temperature  50 finishes with time 247.72 s
sample 33 at temperature 300 finishes with time 247.85 s
sample 33 at temperature 250 finishes with time 249.07 s
sample 33 at temperature 200 finishes with time 250.35 s
sample 33 at temperature 100 finishes with time 252.09 s
sample 33 at temperature 150 finishes with time 252.78 s
working on sample # 35/48 with threshold 0.180000
no. of electrons, holes, nanoparticles =  50,   0, 400
('fitting is ', 1.0)
sample 34 at temperature  50 finishes with time 238.71 s
sample 34 at temperature 100 finishes with time 245.83 s
sample 34 at temperature 150 finishes with time 253.58 s
sample 34 at temperature 400 finishes with time 254.49 s
sample 34 at temperature 350 finishes with time 256.10 s
sample 34 at temperature 200 finishes with time 256.75 s
sample 34 at temperature 250 finishes with time 258.80 s
sample 34 at temperature 300 finishes with time 258.94 s
working on sample # 36/48 with threshold 0.180000
no. of electrons, holes, nanoparticles =  50,   0, 400
sample 35 at temperature 400 finishes with time 243.01 s
sample 35 at temperature 350 finishes with time 245.93 s
sample 35 at temperature 100 finishes with time 247.06 s
sample 35 at temperature 150 finishes with time 247.23 s
sample 35 at temperature 300 finishes with time 248.08 s
sample 35 at temperature 250 finishes with time 248.20 s
sample 35 at temperature 200 finishes with time 248.35 s
('fitting is ', 1.0)
sample 35 at temperature  50 finishes with time 263.70 s
working on sample # 37/48 with threshold 0.180000
no. of electrons, holes, nanoparticles =  50,   0, 400
sample 36 at temperature 400 finishes with time 232.65 s
('fitting is ', 1.0)
sample 36 at temperature  50 finishes with time 233.70 s
sample 36 at temperature 350 finishes with time 233.89 s
sample 36 at temperature 300 finishes with time 234.71 s
sample 36 at temperature 200 finishes with time 234.85 s
sample 36 at temperature 150 finishes with time 235.96 s
sample 36 at temperature 100 finishes with time 236.12 s
sample 36 at temperature 250 finishes with time 236.33 s
working on sample # 38/48 with threshold 0.180000
no. of electrons, holes, nanoparticles =  50,   0, 400
sample 37 at temperature 100 finishes with time 225.90 s
('fitting is ', 1.0)
sample 37 at temperature  50 finishes with time 226.65 s
sample 37 at temperature 150 finishes with time 228.96 s
sample 37 at temperature 350 finishes with time 231.88 s
sample 37 at temperature 400 finishes with time 232.04 s
sample 37 at temperature 300 finishes with time 232.32 s
sample 37 at temperature 200 finishes with time 233.20 s
sample 37 at temperature 250 finishes with time 233.26 s
working on sample # 39/48 with threshold 0.180000
no. of electrons, holes, nanoparticles =  50,   0, 400
('fitting is ', 1.0)
sample 38 at temperature  50 finishes with time 203.96 s
sample 38 at temperature 100 finishes with time 212.17 s
sample 38 at temperature 150 finishes with time 216.75 s
sample 38 at temperature 200 finishes with time 218.14 s
sample 38 at temperature 250 finishes with time 219.04 s
sample 38 at temperature 350 finishes with time 220.93 s
sample 38 at temperature 400 finishes with time 221.51 s
sample 38 at temperature 300 finishes with time 221.75 s
working on sample # 40/48 with threshold 0.180000
no. of electrons, holes, nanoparticles =  50,   0, 400
('fitting is ', 1.0)
sample 39 at temperature  50 finishes with time 229.20 s
sample 39 at temperature 100 finishes with time 230.41 s
sample 39 at temperature 150 finishes with time 234.04 s
sample 39 at temperature 200 finishes with time 235.33 s
sample 39 at temperature 250 finishes with time 236.83 s
sample 39 at temperature 300 finishes with time 239.49 s
sample 39 at temperature 350 finishes with time 240.03 s
sample 39 at temperature 400 finishes with time 243.01 s
working on sample # 41/48 with threshold 0.180000
no. of electrons, holes, nanoparticles =  50,   0, 400
sample 40 at temperature 150 finishes with time 228.54 s
sample 40 at temperature 100 finishes with time 228.76 s
sample 40 at temperature 200 finishes with time 229.80 s
sample 40 at temperature 250 finishes with time 230.95 s
sample 40 at temperature 350 finishes with time 231.69 s
sample 40 at temperature 400 finishes with time 232.76 s
sample 40 at temperature 300 finishes with time 233.34 s
('fitting is ', 1.0)
sample 40 at temperature  50 finishes with time 233.93 s
working on sample # 42/48 with threshold 0.180000
no. of electrons, holes, nanoparticles =  50,   0, 400
sample 41 at temperature 400 finishes with time 237.43 s
sample 41 at temperature 350 finishes with time 241.03 s
sample 41 at temperature 300 finishes with time 244.18 s
sample 41 at temperature 250 finishes with time 246.81 s
('fitting is ', 1.0)
sample 41 at temperature  50 finishes with time 247.77 s
sample 41 at temperature 100 finishes with time 250.70 s
sample 41 at temperature 200 finishes with time 250.96 s
sample 41 at temperature 150 finishes with time 252.81 s
working on sample # 43/48 with threshold 0.180000
no. of electrons, holes, nanoparticles =  50,   0, 400
sample 42 at temperature 400 finishes with time 238.67 s
sample 42 at temperature 350 finishes with time 241.59 s
sample 42 at temperature 300 finishes with time 244.86 s
sample 42 at temperature 250 finishes with time 246.92 s
('fitting is ', 1.0)
sample 42 at temperature  50 finishes with time 250.55 s
sample 42 at temperature 200 finishes with time 252.18 s
sample 42 at temperature 150 finishes with time 253.14 s
sample 42 at temperature 100 finishes with time 253.54 s
working on sample # 44/48 with threshold 0.180000
no. of electrons, holes, nanoparticles =  50,   0, 400
('fitting is ', 1.0)
sample 43 at temperature  50 finishes with time 234.67 s
sample 43 at temperature 100 finishes with time 240.49 s
sample 43 at temperature 400 finishes with time 245.58 s
sample 43 at temperature 350 finishes with time 248.20 s
sample 43 at temperature 300 finishes with time 250.13 s
sample 43 at temperature 150 finishes with time 250.89 s
sample 43 at temperature 250 finishes with time 251.87 s
sample 43 at temperature 200 finishes with time 252.27 s
working on sample # 45/48 with threshold 0.180000
no. of electrons, holes, nanoparticles =  50,   0, 400
sample 44 at temperature 400 finishes with time 251.45 s
sample 44 at temperature 350 finishes with time 257.00 s
sample 44 at temperature 300 finishes with time 263.96 s
sample 44 at temperature 250 finishes with time 270.71 s
sample 44 at temperature 200 finishes with time 277.77 s
('fitting is ', 1.0)
sample 44 at temperature  50 finishes with time 282.77 s
sample 44 at temperature 150 finishes with time 284.19 s
sample 44 at temperature 100 finishes with time 285.45 s
working on sample # 46/48 with threshold 0.180000
no. of electrons, holes, nanoparticles =  50,   0, 400
sample 45 at temperature 400 finishes with time 249.84 s
sample 45 at temperature 350 finishes with time 252.23 s
sample 45 at temperature 300 finishes with time 256.54 s
sample 45 at temperature 250 finishes with time 257.82 s
('fitting is ', 1.0)
sample 45 at temperature  50 finishes with time 259.01 s
sample 45 at temperature 200 finishes with time 260.60 s
sample 45 at temperature 100 finishes with time 263.07 s
sample 45 at temperature 150 finishes with time 263.65 s
working on sample # 47/48 with threshold 0.180000
no. of electrons, holes, nanoparticles =  50,   0, 400
('fitting is ', 1.0)
sample 46 at temperature  50 finishes with time 225.62 s
sample 46 at temperature 100 finishes with time 230.69 s
sample 46 at temperature 150 finishes with time 235.76 s
sample 46 at temperature 200 finishes with time 236.64 s
sample 46 at temperature 400 finishes with time 236.73 s
sample 46 at temperature 250 finishes with time 237.01 s
sample 46 at temperature 350 finishes with time 237.34 s
sample 46 at temperature 300 finishes with time 237.91 s
working on sample # 48/48 with threshold 0.180000
no. of electrons, holes, nanoparticles =  50,   0, 400
sample 47 at temperature 400 finishes with time 239.32 s
sample 47 at temperature 350 finishes with time 241.24 s
sample 47 at temperature 300 finishes with time 244.88 s
sample 47 at temperature 250 finishes with time 248.30 s
sample 47 at temperature 200 finishes with time 251.59 s
('fitting is ', 1.0)
sample 47 at temperature  50 finishes with time 256.83 s
sample 47 at temperature 100 finishes with time 257.00 s
sample 47 at temperature 150 finishes with time 279.34 s
