BANDS
8 8
NANOPARTICLES
cell(1), 19.105
cell(2), 19.105
cell(3), 119.407
 7.442917185566317,  4.653278530019212, 75.809786191555929,  4.256570911213881
 1.950493262716640, 10.380348023106096, 69.898037169719345,  3.959090853936604
 0.100822286864655, 11.816530182442142, 49.934625537317608,  3.571184737035245
 8.392711961775056, 12.321540148410090,  8.268118089587192,  4.177152043488819
 5.880861333029500,  7.287158881554092, 43.565462665219407,  3.816274528915830
12.708811394645842,  0.142994023518753,  7.972536778888053,  3.801089110356588
18.665297053749004, 18.112034528568071, 76.774890669691288,  3.786206367828836
 1.677203575816890,  2.653963313676612, 113.705179001190317,  4.112869641992519
 7.383043866481526,  5.912563199558296, 23.293473517078958,  3.949431533962326
 7.194969352060508,  8.227748212152797, 32.739909034983185,  3.976542710191594
18.327514352101648, 10.622250485488713, 114.029637783535051,  3.873761650828749
13.214858025254351,  3.636728008698757, 60.096612360268630,  3.952385594288669
 7.110775955930234, 15.265329355619764, 27.288674957068604,  3.760837151881826
15.403303709245032,  8.523925505202010, 78.963275919785190,  4.145001835426361
 9.693109220064343,  1.056000823948533, 114.072875427893138,  4.175620614387288
 5.085952532793047, 11.955785917270259, 31.944679557477183,  4.130186057189741
 9.037264475237896,  2.219001018134435, 38.240333249330504,  3.913974166759238
18.445342065145134,  8.231261808257274, 54.797594441582106,  3.803622832439163
17.213331496464846, 18.619317123602571, 106.846526776828583,  4.205835385224455
 9.071395229758107, 10.329488603307182, 86.775254163090295,  3.660968610399177
 1.643151384819498, 18.635135078926332, 27.022062525037459,  3.557889882606605
 1.562630331295473, 10.801421573740773, 57.395013902076194,  3.937275602448429
 3.689782283975491,  5.654659373872315, 50.175438196295666,  3.625340548769700
14.581373659643624,  7.594829878838151, 44.950625448802811,  3.951140853789731
15.343040864887824, 17.807453059739540, 63.897030682334830,  3.698857118962072
18.531508423797057, 12.540233149579507, 88.153224419188675,  3.923459929395803
16.959383559653787, 12.307146879205208, 84.412328564437544,  3.927417337246502
 6.248541809127560,  0.492704423668877, 48.642530291849177,  4.066172642475807
18.925240008549370, 16.449931064218152,  9.980119870756594,  4.065701141857678
 8.802626889661246,  7.665988569176504, 19.781749510621260,  4.064185734330635
12.920112809108213,  5.953327491944252, 90.802798534031908,  3.806960887579009
10.077419391053004, 18.497424446335138, 94.059593959697438,  4.169959509924580
 1.846482779073402,  0.007397536642131, 73.467794556151134,  4.427059255654059
 9.380599461523826,  9.892447629060788, 117.394925300837883,  3.933042082811414
10.457536626732722, 14.656075902190265, 95.708959692557031,  4.025570328193104
18.598562713572516,  0.347277517544157, 52.106793047466660,  3.848311929987029
13.976933627211444, 11.279342015014173, 113.990797503239520,  3.833620309261768
15.610465479579585,  9.071399907981069, 62.998855931866572,  3.800892824507667
 9.595655476346547,  2.963901262745332, 24.849367498795395,  4.033216412163513
11.879824575540457, 13.416413950747291, 17.983312822645480,  3.935991705321689
 6.658257576574734,  7.681504653211873, 48.464332274077428,  4.189219145899067
 6.918795946811406, 17.404408485556971, 66.204609741845914,  4.457125607870818
13.879451889031953, 12.090665005321965, 81.869726221250247,  4.038207727492334
 6.967284933637216,  8.691840878298155,  8.483480204099704,  3.617440458971076
18.113361177533523,  6.047366823729441, 99.720166895145184,  4.265054223348626
13.239033278054114, 17.941127118999027, 60.514464281109440,  4.243532778912951
 8.110285747080798, 13.679962595811689, 68.648428118840243,  4.020204304518426
17.933882341879531,  1.699340582180371, 55.827993780370221,  4.085194876460521
17.488381806304666,  0.989601427649512, 25.692358430259510,  3.938385187515127
15.071210678169646, 13.925730822320073, 78.536853766499135,  3.929787863084075
18.632916187270254, 17.757142564700285, 47.642352123455666,  4.089290105370081
13.727578139675233,  6.338520842132312, 51.730671739434996,  3.802613244345680
 1.518577331142180,  6.271344757109943, 28.675308178493847,  4.308845648334586
16.733471150452960, 15.841816131229796, 70.567516204005415,  3.790899486045173
15.468812274935077,  3.672141543927224, 13.146430781607734,  4.002135507979966
16.946154496492657,  7.642915255440016, 34.682928534499062,  3.944466701486376
14.550347600961953,  7.934085569279839, 55.254849147997263,  4.043583154736475
11.058965602048998,  9.736707640319354, 38.181242603073308,  3.740328332074112
11.843469079656501,  8.647446065693204, 82.659715031567714,  4.012070031623912
13.700751425854625, 15.409524467566719, 75.156423353414397,  3.890459991456363
 6.565454903422818,  3.707880025194395, 61.482525385755665,  3.718817412140824
 5.792610974245174,  7.074760687264559, 63.549167817771227,  4.316541920502740
 2.947470898684345, 17.254762402252585, 38.633426385432436,  4.128373662014190
12.751494119119913, 16.682292943123699, 69.831286164700487,  4.450787064567162
 3.343509768044328, 10.772849458846053, 16.310267248336089,  3.812543000810332
10.294787693613545,  2.494992872661288, 57.055658141250163,  3.946540120740222
 9.265031628056150,  9.245315577450809, 13.140785813576379,  4.384538974805417
10.017487991450190,  7.049444639726155, 51.819423627804262,  3.734646535814860
 5.401867236139175, 13.246073809355821,  2.012960142439070,  3.946237379919391
12.700814348622293, 16.602403054529042, 101.357471043775178,  3.722789718271429
13.465833649033680,  9.852782449965471, 110.196312892134586,  3.613052016394145
14.971791894127906, 11.157662528012285, 89.769377681374934,  4.310901177513086
18.018563206985100,  5.363780941208775, 84.230727799909999,  4.107248054667669
 4.533762942236584,  9.812807240381597, 96.167903361569117,  4.194183789823916
10.056208428452805,  4.521409589110895, 107.396825658607398,  4.272604772951207
 5.160270933782235, 10.073024140845934, 35.492894851965161,  3.782708884263925
16.756515502229771, 11.811496892040021, 29.597983243708821,  3.766586523976800
 2.825178204436774, 13.846614722433552, 11.175187210101274,  4.133031807029637
12.537930451615686, 18.386687423904490,  1.998090717040237,  3.864154738320237
 6.093730918834306,  9.297385925987381, 99.943354687875996,  4.018550787263075
15.123517968252425,  6.582695224383354,  2.098211339700712,  4.137812727613522
13.558624324222851,  0.824097925271810, 92.372176248831110,  3.940806162531297
10.012967124081914, 18.896258132060815, 31.057853099686778,  3.720768475809280
13.869029763096176,  3.802503361989990,  9.097145634510548,  4.088641223610294
13.250645345176443, 18.900072354508001, 107.751858603414092,  3.941898201368073
18.876443022412751, 14.010221087989597, 31.840463166451869,  3.655941096433962
 5.499906713915675,  3.964617432175590,  7.855982070235110,  4.102336915249750
 4.309349854955822,  1.593612295245739, 63.576771928916948,  3.740301334232353
12.672830734782050,  1.648212045726503, 63.582277556117837,  4.098417224924978
 9.737206702190980,  2.397928564692282, 72.253435980767435,  4.051474413193472
 6.646035782806846,  0.839884261687229, 56.460034677654342,  4.117573634492530
17.218554070185434, 10.405894148630908, 12.155349775816303,  4.024709367210616
12.941398324355738,  6.830201556130364,  6.495556655482378,  3.917350293842216
 6.845516573621482, 15.975065750770581, 31.427594728948556,  4.567149389447966
 7.250003991560472,  4.040774160976640, 50.382671972040129,  4.079645512434648
 3.311849697282966, 14.103110498233651, 55.870635330506659,  4.093991309287079
 5.802920415543787, 11.101382673605169, 57.200895787813650,  3.896217435873114
12.732490480568684, 16.269746233605961, 56.727445935583440,  4.025305094783356
16.853627181066958,  0.177639290293800, 32.286669609907072,  4.074855970365413
17.109641723842671, 14.079770705745771, 17.294081467284016,  4.176959141698858
 6.084951488202917,  2.098746488517021, 100.884628684107511,  3.945618395089080
 4.794216598896221, 18.830457775768835, 76.722839507311960,  4.100456295909049
 3.316353232209210,  9.856699971987858, 114.007760721594394,  3.769586641521009
 3.191376263864401,  1.138349043454237, 15.752654005618885,  4.211719598538103
 1.051066301967891, 15.275383120461518, 100.229718473108548,  3.762261433823824
 8.643857759789626, 10.218564185680377, 80.711272753845762,  4.066063181249572
16.894127792647279, 12.305110436920202, 35.941887988097186,  3.967941596724696
 0.051813652468724,  5.515924902535081, 76.389953068721312,  3.755513334966816
14.993601332041781,  5.069043147209245, 117.337297286757746,  4.121354760745692
 1.366171738798017,  8.958489106719224,  5.028447755572012,  3.971770534997448
12.610459810344459, 17.697268455429501, 34.575813740061257,  3.773216254229362
13.797728122061187,  0.170418893316794, 114.361869578586351,  4.179382360803964
17.026812872768517,  7.052641650777774, 95.546479720383260,  4.316978759544981
 4.220741628545217,  3.054532909525857, 28.848970485479857,  3.990978392791057
 4.006327892973808, 16.799869983971025,  5.010780721879964,  4.151620086813921
 5.331610722128774,  8.399980126768808, 14.142233874560084,  3.732580181423036
16.344999822965704,  6.210304561511541, 73.531309018158936,  4.214890160093181
11.750896254649607, 12.311810494681067, 10.967685948807045,  4.439208251788355
17.718237446038660,  0.618965534604638, 70.717021466921750,  4.141952176089739
13.877363949617395, 16.253383211381198, 94.016426636945681,  4.095386880776484
 1.435281974957123,  1.636217913979862, 105.526034263985224,  3.888772032341963
 3.467003871868471,  0.673532857602807, 67.164436308532174,  3.829580863109987
 2.911416713995035, 17.019564698530058, 64.304737593331083,  4.188355505637898
 5.689954415459548, 12.761355383335488, 105.835434111541971,  3.806031667278470
 4.952551745678550, 14.022479040387228, 97.357359018902386,  3.860919401713232
 6.525036085660078,  5.100447576305729, 39.538501319426665,  4.037677918348024
 4.825017997635730, 17.200869692010002, 42.297304278030971,  4.081329436696489
13.042100683240468,  7.462653163526148, 35.624423861300144,  3.895983732212083
 1.582632176277712, 10.691490906711930, 29.822964729502313,  4.108190785570233
 3.415380307253320,  9.997987607817315, 61.087379033758609,  4.133523101523960
 2.673493557097266,  4.589431383627208, 39.478612863417048,  3.725183382707174
17.400842993862980, 10.595502878929265, 23.175428002168363,  4.016746281674519
 2.432134979388888,  6.378711968390566, 69.507679463804507,  3.799170505485177
11.549988744091030, 10.442594476043535, 96.122620638838058,  4.099246911210232
18.187808079569002,  6.519706728604938, 110.099856104277407,  4.025489832529636
 3.413346541278389,  2.648223981111136, 70.497444498871019,  3.793687400504356
17.960146740847584,  8.457970097026898, 117.302005482384530,  3.870733981340125
 5.581537870273149,  1.626034725799928, 114.161102993062514,  4.002753206717859
 3.048633807767528,  0.685596414807733, 19.590809393753275,  3.514965972897973
17.706192335428732,  9.784167984905878, 101.471644434288407,  3.959494202603019
13.347885587731026, 12.536896289791915, 40.546795512953864,  3.680607167190179
 7.451073052820284, 12.215940154186814, 60.581538629438498,  3.862342105142337
14.279765762201121, 14.989475910737278, 37.432369852282207,  4.078474112570384
12.787575595755376,  6.332240824588670, 63.282442077699628,  4.084363901406981
 4.859444466183262, 13.215023065624619, 19.977508729003272,  3.949933084263446
 9.752740470504676,  5.771681753392952, 60.579936342571308,  4.068843361482450
 4.433495327976793,  9.022088904545738, 106.681230767161765,  4.229759661401673
17.510919581152660,  3.312788421566860,  1.986856268497722,  3.898487626843489
 5.691376715620774, 10.959068311727181, 110.327567188256154,  4.334089932128407
12.607119524927745,  4.030856965124025, 45.195296185934851,  4.149256576894457
16.421770510161579,  3.759700522152104, 65.249157374843406,  3.979614040285403
11.378436946111885, 13.315006599962393, 88.443474509201153,  4.250635429254745
17.595100222439218, 15.338103692225850, 95.454541540544270,  3.723329888404830
 8.057275665997080,  3.135602174370575, 117.300306363804935,  4.059412303437525
10.160412580196429, 14.286215352744000, 72.146353109366203,  3.825428512579482
 0.039706846212056, 12.605630119229367, 26.476742835497866,  4.188540952990701
 4.637888664612932,  1.057294127867081, 107.761505004014396,  3.978771216810825
10.001471220697956, 13.312041899305052, 47.068931715784608,  3.791716062799401
 0.808877434399288,  9.093556389417806, 97.666035866179726,  3.906541177156718
 8.955928644410026, 17.129799730615268, 46.892795754406386,  3.955243301813006
15.486621652490006,  7.093956953601500, 22.411589255601484,  4.017945016750511
13.465657353044426,  4.856150856914613, 105.199010352692923,  3.848330431625511
14.952851727844347,  4.720764158903529, 77.276817440974853,  4.132956782406413
18.217135081663272,  6.350882819301654, 19.198109119483853,  4.079232123406999
17.581130282369411,  8.298700337781977, 91.456380311068969,  4.090901720991805
16.791678332463949,  9.132071884750173, 51.318717012890772,  4.103998655741441
 8.761665099671079, 18.894707493172021, 34.790648351250290,  4.148003938611722
15.061136138028681, 14.916145345702015, 88.667132495673627,  3.508839748271099
 2.524110172094452, 14.607224560834045, 29.314156727649305,  3.892972872252701
11.598473989514856,  2.247407512280462, 110.578965228972251,  4.082409609127913
11.995894862288456,  6.313417442303127, 110.611140108663250,  3.994547193825252
 3.624364739427155,  1.409166899402384, 51.568079535478816,  3.932306146606127
16.831769879530899, 17.761010485020275, 85.303324350728417,  3.874798401240412
 4.660080570045971,  4.658112015386225, 32.333109300834991,  3.662107187762411
13.017249702081976, 14.930871732722903, 63.177720591986500,  3.795836278472085
 5.409962995560924, 13.641236309251457, 14.499761692629518,  4.091212578084442
 2.660746404565395, 12.150131742622069, 23.218413366061494,  4.084280305096459
11.682019209929548, 12.501649670011620, 22.897040915375104,  3.954450077788001
18.841128451316489, 15.494143873775515, 51.228594809491419,  4.229830824776423
10.390209823609846,  3.408988707827506, 92.581361580240326,  4.177768376386011
 9.704750353848366,  5.003912922285511, 88.986660650068814,  3.745842719207149
 6.149455308654766,  5.190003580372678, 87.193425429577800,  3.867348930750909
 7.532540393785925,  6.326768827952905, 79.953576736903401,  4.163089103125954
12.855452059153036, 11.776546057352377, 35.278622403471104,  4.106003801334452
12.632783937658770, 13.897443352104309, 66.761161347366595,  3.691095818341954
 9.739637774045136,  0.906303384639707, 82.556417283579194,  4.057233224942253
14.057362596195007, 17.474625125544982, 41.157291354771836,  3.941727562150684
15.960034770753387,  4.373516464196898, 69.569682899402665,  4.417675743636382
15.625326065719330, 16.742948401632145,  7.771543847705595,  3.754285098078485
 7.277286438261458,  3.512244513945100, 34.794409387326375,  3.781338906165764
 3.189696149488161,  9.489022748443720, 50.253123331980760,  4.013732557419987
13.936917787898572, 15.846497786503820, 110.070492762647660,  3.817430440949730
11.369791225127086,  2.083969929774436, 101.636413146590840,  3.992281179877374
16.448099790684775,  4.588738619249042,  5.787821986095610,  4.393682867866880
 0.613815922659310, 11.841551044208595, 92.013054282086784,  3.865613067191213
 0.939236169424559,  4.252833294553696, 96.411576505108485,  4.070395125040313
 6.439162670100965,  8.893803342086828, 25.832894620192516,  3.853411123230567
13.373463506276369,  1.492052630691437, 80.309946597038930,  3.804983207164379
17.376563019170700,  1.942169451911569, 78.904638051569236,  3.883338873541727
 3.796848163196324,  3.808090372912829, 110.421081683930026,  3.816178082174144
17.705807766309491,  8.226407600943546, 69.742640142307238,  3.983348449548169
13.551994852584055,  9.625263850413926, 25.207586018343800,  4.260550991149068
 6.353226699450707, 13.994048649610573, 35.970131673424767,  4.298580139099323
 6.464228272654949,  4.893537657925277, 71.720057411426367,  4.162944453783065
16.570131549497919,  5.552521210892166, 61.694061579252370,  3.943620630842594
14.967743591214518,  8.686205317381193, 18.094882584043361,  3.978065163228285
11.428607333617160, 12.893804577157345, 110.729455022246171,  3.769317788509554
16.894503356591230,  7.247667564466386, 14.804664215310110,  4.165356591113960
15.268104250757801, 13.245096477068268, 101.858763693714636,  4.365749901616012
 4.797942368879015, 14.263165355469988, 93.278266311948940,  4.247495959995653
 5.898643229879947, 11.089043825381992, 11.334094930279912,  4.074424312776833
 7.264465029142181, 10.756768724517709, 16.595084646144652,  3.897392808881884
 6.920005100703438,  0.639858380512389, 44.651744570224615,  3.997772557243973
11.416911406214192, 13.099533916970637, 100.143758331829787,  4.070004570696899
 0.264320423560244,  5.162684975034223, 32.530555416471067,  4.095206645418833
 8.216856552376576,  8.280131387524984, 96.864556529804773,  3.729335623050066
 7.250811987570319, 10.235574501348671, 38.804675560046007,  4.040182993528198
 6.725475818811077,  3.738559793138181, 91.037618445814942,  3.719821750441750
 9.202399570928419, 15.506386229544399, 21.562940408135550,  4.159268354652463
11.412150462495497,  4.082319143238788, 75.326706505954718,  3.707360286362344
16.239145065227426, 14.732711017556682,  2.128910226065561,  4.179892602620490
 0.448647956876303,  7.801248667941803, 62.827532984234757,  3.852927105805618
10.167833330349191,  7.451122929140814, 93.557485110236527,  4.037265098886180
14.082135119329889,  4.309541089960416, 85.415281380222197,  4.328346554538960
 4.909530494538970, 17.283021680615281, 53.739584235203395,  4.190172145818380
 3.141707029377850,  6.803163488945620, 46.590100211221007,  3.803922443867973
 9.398707955166600, 17.262409515669297, 62.653583091286578,  4.122485892941278
 9.621058537090398,  7.275949177732596, 72.814275489083556,  4.023605931155767
 8.960794205620607, 10.907358252514568, 35.139956507866067,  3.876181608316723
 2.063181862013483, 13.148867393459888, 82.221565262238400,  3.984156558568412
15.271672636987889, 17.367721380003253, 50.114578807479695,  4.112731575610815
 8.178262626486237, 19.028971755828515, 18.507870575142874,  3.995318349577549
18.436273855547650,  6.008032177768403, 80.208719978403693,  4.057979145406919
12.386952927566501, 13.009029214036753,  2.001156069345594,  3.967595190867161
 5.824571347636788,  6.703137637696041, 103.318728709807203,  3.978004278139958
12.629710478095951, 17.763589425172725, 97.465594042979177,  3.830513343858493
15.608488418178219, 16.706349847679167, 44.786608048706242,  4.099127972035972
 7.035482770375220,  3.783877929436976, 83.121772205759058,  3.606930658553125
 6.972444983074648,  1.960486158899089, 68.686708098299647,  4.178986055893693
18.657802238713547,  5.500386162648198, 88.656603422605258,  3.848580501450285
 8.607923748864412, 15.707518621646120, 99.064760295926902,  3.892135488123181
 8.235311876123662, 18.283614026618352, 101.806612432454102,  3.537050078249843
17.805673494823463, 12.542106414654313, 98.661151147765537,  3.902714461014637
 1.938688822637582,  9.251590498410017, 20.363609631063163,  3.948841856775751
 9.879751620449126, 13.177370490802954, 14.611123661659468,  3.899518272956662
 4.515476741781428,  8.181123889998535, 75.847243296442812,  3.946330167453596
 8.940152481600357,  3.728021646333710, 42.721710677872160,  4.063798680642084
 4.633719978703952,  4.324221172537009, 54.183894234073783,  3.956237771414152
15.517965588877116, 17.733519414555392, 78.997992240393273,  3.674385989135254
15.700489472275661,  6.985718767802951, 10.971574573027956,  3.815196794961388
15.402702196400197,  5.323868663070853, 48.232747431461647,  4.169123952953074
 8.009926309133535, 10.958393978452865, 93.909482281048739,  4.174478645088133
 1.750172937688272,  2.716971781841834, 81.066538922242657,  4.219416657103143
 7.934680506929177,  4.433113826491299,  4.719014248934243,  3.815258939502981
 3.071403576861544,  8.188483292137445, 32.717246293036126,  4.082237895262723
 8.298450789080210,  4.746598625577848, 31.194071092358179,  3.949986850445121
 8.136365514244966,  0.823731702506975, 52.650422422252028,  3.911614735936785
 1.532811973285998, 11.437246573575839, 110.918311992222613,  4.021430361679261
 6.237040027643554, 17.740440939872720, 14.051538462413792,  4.312666171546721
 3.055500702081293,  4.528531388938178, 43.380103413360388,  4.065046531735748
13.461474360040324, 14.956048987595922, 85.185895843811267,  4.143988461569583
 9.533911616764682, 12.435257592964733, 114.200890113006352,  4.048034336057191
18.848302717806384,  7.426582074830931, 58.845697003962073,  4.255888308836210
10.281115266439272, 10.013049620866907, 58.747545827423465,  4.091946268263329
18.546812634925413, 16.309216101031648, 24.879274081340732,  3.963615014763159
 8.199123773162565, 10.871095305511565, 71.572800981742247,  4.081023627048735
 8.596013463172191, 10.800730816537675,  2.142589956633193,  4.101986250047847
16.494202139726287,  1.788308790422868, 82.818002926012426,  4.144798798447654
 8.260394903959229, 16.316080149775978, 83.322078651980178,  4.043398994668223
 6.842760607254678,  6.911499879850513, 117.455586063322215,  3.873710069192775
 9.995488058715329, 12.977967282475809, 50.995155573409683,  3.695176106441481
 5.317710880053677,  9.602050151869090, 87.604039995391432,  4.044758800432424
10.255916980256595, 17.180147022783459, 86.857602045784461,  4.147224903209814
18.220238742550130, 16.815638535650194, 29.305568646120641,  4.003965648874758
11.691242011490329,  3.109133290530305,  5.413517150848628,  4.199823610422885
17.630167679192297,  9.770724975566411, 47.012634815295293,  4.168500912824759
 2.310157744361306, 16.366701456800151, 14.472915817618132,  4.009609636430865
 4.072765619298279,  6.033353212818651, 25.271331189645295,  3.639794957259996
 4.087581532490689, 14.190218163123289, 67.328781983197089,  4.396428337167494
16.156326933404596, 10.744971163729913, 105.179532873986503,  4.134045817848086
 5.700893809799949, 17.473465272023134, 21.278392010235354,  3.840856782344250
15.515595455737799, 18.800143627931345, 19.371790272329203,  3.977914744482001
18.653640978740491, 13.025763514722819, 68.427069213627377,  3.764942649528243
 1.810522041089439,  3.121606288336298, 21.935146033742253,  3.653288808669511
14.858395833766112, 18.621111587398715, 23.247874479748862,  3.801240261603219
 3.831582966573903,  2.193996909521960, 59.105570905806417,  4.066238858365086
 2.124849981708411, 16.953860950726739, 106.989546949719951,  4.149226991085108
12.752924398516484,  4.192171066042785, 113.973989944123062,  4.067972571380215
 0.491199215549337, 15.045682673722105, 85.362141216775910,  3.861516933502464
15.127976160828322,  3.933067695258853, 109.374393087387745,  4.079861256541927
16.920977050998239,  0.733719477801751, 117.236630395510588,  4.324753147973852
19.000930298694122, 15.501868076469744, 117.512468425549443,  3.785424012986366
11.567771410933368,  0.100179546630438, 27.436659902966600,  3.847819342359754
10.643713050255091, 15.514707499761444, 107.444291794731001,  4.300796426881645
15.976318983827845, 12.771290556943175,  5.792099807865739,  4.124469198268280
 5.064644908071221, 11.965851536063933, 27.883673766966556,  3.929199258674669
10.907838434017068, 18.396385363178748, 104.457476874646005,  3.968083046595260
15.595608144921325, 10.768425117816975,  1.917244693830206,  3.818876781897325
13.253941490750197, 15.833724217814895, 20.838637759965252,  4.027212420706892
14.063727354065344, 16.634508890249574, 16.415941861582649,  3.904293804132247
 3.950427906717539,  9.524875322469445,  2.058221534214182,  3.981797299742756
13.513049357816925,  9.308422981525990, 13.497524238782276,  4.127554074443893
11.878783817756053, 11.188824041874314, 78.251019579336514,  4.276746803276624
13.996776620811959, 17.060334614040265, 30.589135596060629,  3.878193923421644
 4.668777264299369, 13.699478863052605,  7.619678916895759,  3.757274872162369
11.704287669098520, 10.310657348608920, 45.178931702562551,  3.936937133833024
 3.438116159993094, 15.514736528729991, 25.479936211748580,  4.141393999087781
 5.229069061041280, 10.939830103418110, 78.716035860878023,  3.955047276294362
15.968677848713440,  0.357765814449144, 95.876020755625646,  4.047842688896784
17.126826282749345,  3.629612798281112, 105.864642320952086,  3.957570429323139
 8.991811780110419,  7.644126777793837, 41.271155210474539,  3.847411526733426
 4.694507988641587,  5.699966879389001, 113.949004482853326,  4.324133530626351
18.981234477351997,  3.675914977961328, 15.233470179331773,  4.123964127269463
 5.960912817849562, 10.886230477267739,  5.238450745195773,  4.006334269315248
18.576443814361667,  4.382464503052677, 92.587873304818118,  4.050386384055269
15.307863821881424, 14.021878419801993, 23.902810681444809,  4.066025223589345
 6.432165590840025, 13.058417924118398, 85.699477024405041,  4.118917187734988
 0.336426924039451,  1.581668191009594, 44.674316976469029,  3.986829501425125
13.471785003950192, 10.789789572776199, 85.811186167269497,  4.150461496250903
18.335530713845159, 15.431784799483268, 38.073953473441435,  3.956979756789814
 3.764433026694890, 13.915752512742886, 59.931458458784775,  3.972304617070971
15.243539321781430,  0.405900275777093,  4.843775835024942,  4.222517750998801
 8.480813238298907,  2.179554699458577, 64.729225493318225,  4.274850898499571
 2.397413989976758,  2.054534448871249, 34.020228162343599,  3.992636509391688
 2.653674414095434, 18.241908749661778, 31.114884708973044,  4.170781718533685
 1.501433022771847, 18.889247093500323, 86.204682531751573,  4.154926938117460
11.786600856760174, 14.820353208008164, 43.532026053294963,  4.398687763946784
 8.224968479485049,  2.414859660020525, 104.286378218403286,  4.056310331197381
13.020163300514191, 11.380891085560444, 61.308712016268629,  3.887910458134232
10.877172611330311,  6.135889040570182, 117.327500473364523,  4.120297403258919
18.669432072095844, 10.585936651912249, 33.095070703120918,  3.566066019820040
12.112470361441982,  1.356894217368701, 17.725639103862900,  4.234872112992116
 1.279219323586047, 11.634499934696487, 117.349445208990119,  3.904826628692599
 4.185766332813429,  3.470960524478892, 103.741742050125907,  3.318326981418547
16.488776533016178,  8.734708291668833,  5.227444333157822,  3.920155664580846
17.986503149993855, 18.489372555601744, 40.721422351503705,  4.154491243733833
 3.249793601469802, 13.429643368594075, 51.296281674698193,  3.913616058611566
 8.797768074144447, 15.076658712101798, 92.051564868513324,  4.050897210160852
 0.436241014866777, 12.862169448243046, 14.289985776502702,  3.896806455698035
 0.513682068998126,  2.891030562941284, 68.062867990641720,  3.767662471222793
 8.538115144724671,  7.026210335649225, 36.458178360168375,  4.266777026690513
12.040729430837432, 16.812811844159384, 90.501799140767631,  3.911108645885900
16.197362774098366, 18.538164672456826, 36.425838015362636,  4.090643829409121
 2.862546473550810,  7.542839514505894, 117.329289549482809,  4.154661912679144
 2.018681049823764,  5.682720933924022, 107.337434427293687,  4.094533565368897
 7.760917575626752, 17.960793210634378, 79.529112052315043,  4.221069319805837
13.810003752803297,  7.770109280428819, 59.424167150894924,  4.374493036092661
 3.528023492540309, 11.222485691572158, 103.185453095899163,  3.619487614975480
 1.511418206718564,  5.121991260579533,  7.080910021813621,  4.324358533144126
14.497804815527571,  1.106161396714350, 104.147971300433511,  4.076709752377337
 0.292404714838871, 16.932751661409810, 55.174725119398659,  4.220464230029842
16.661305014958920,  9.340425719425099, 42.121430792615691,  3.856624285842870
10.701328051572082,  3.020201702607505, 11.469092082953301,  3.877027112604482
 2.944411631129656, 18.766622560093516,  1.816733422783090,  3.587452063956624
10.691637344925525, 17.334656628819793, 117.172424157037028,  4.427728198711280
11.461427330816699,  1.495485189958926, 88.958479209867363,  4.094790457893819
10.719742198766106,  9.255805558644102,  8.576344500702321,  3.537222233534546
18.622917519760200, 16.503339719162824, 88.967232923529764,  4.150175517954045
 8.955843685892154,  8.244281124159397, 29.309336112408751,  3.713340344990210
 1.934515252378696, 15.119642809913049,  1.961681074782247,  3.918162639217793
 7.667903475502945, 11.877979055488058, 89.940119415506643,  3.924178154004182
11.778675977023330,  0.361986871793461, 54.086786668050365,  3.877670695813462
14.827003227010406, 16.220709816644170, 117.247204643307242,  4.009758426188660
17.448806697770291, 14.312048492462756, 107.018693622048445,  4.098825307515471
 6.501154370128710, 11.816895980734119, 49.377164305607046,  4.242991693938401
 1.819092685918264,  7.454027872849190, 94.031801659128490,  4.079164797457991
11.016774085746725, 17.857836440439470, 73.515806471017186,  3.996662392026564
12.131472717934370, 12.885557091790206, 117.324588419225790,  4.122572941138320
 1.888399560002357, 18.825238232773053, 102.122606042625620,  3.595552684268401
15.748261744244205,  5.900017574757285, 38.123433211663652,  4.090625924319978
 5.796533836783375,  9.649372552887570, 21.885647692996205,  4.274102143119300
 0.537059963011089, 17.086371713964180, 34.552415682984055,  4.208281611103535
 8.617426437348069,  0.650513537004227, 75.970517908170947,  3.843199566924002
 3.944723336119599,  6.112095592388539, 21.546479402900612,  3.730899002646486
 6.618788652781242, 17.893592606386175,  1.994074979843980,  3.926945018866746
16.294349338065192,  4.783095398311963, 30.255457670122585,  3.480318976066136
17.043864489269499, 16.191143748141958, 13.666585507076055,  4.104291407207248
 2.418333777153311,  8.159698055758550, 101.141470189116305,  3.943940999546497
15.143730957633739, 18.768455513574374, 88.826175321693370,  4.103106193098068
16.449519463359014,  6.984532754387149, 103.928378053538935,  3.750957779115983
15.677031677231550,  0.154794011385689, 10.931166039377249,  4.312598229907715
 6.770707177493757, 17.203283653546904,  8.397591487020419,  4.467389542371978
 6.448541604526634, 15.872288055442551, 57.873139133709671,  3.789601948383007
13.229918244041128, 12.784763565630124, 49.192049182701368,  3.651885418152114
 1.952241672993946, 15.835552986576413, 21.327827216672393,  4.315550711607902
12.696046428281711,  4.231290773327584, 66.833078661408692,  4.092137189852854
 0.051039473263451, 14.321258364373273, 58.472577022006476,  4.020934297830645
 8.230450390549267,  1.794066171392993, 28.365672693836856,  3.863546305388064
 6.674198208195887,  0.316400952666914, 85.994519276591262,  4.462910454546805
18.879420021672267, 15.303656318848953, 79.272763658890952,  3.738533146506720
 4.027596590637718,  6.229848403348842, 97.908157086575287,  3.771018783014215
15.513392251308279,  2.126220463358989, 39.180473549187752,  3.731224732193016
 9.822900246363584,  9.542695948278231, 111.139271664241747,  3.683095828787627
 3.314908382230597,  5.371420978050729, 78.196286957388750,  3.699796188039810
 9.574046444039787, 18.309701811431992, 11.374825480889790,  3.995459077245927
 2.620027668884371, 11.886224212601755, 99.580361544593799,  3.729065822950286
13.697131897975462, 13.304736314496219, 27.591873443277208,  4.007979555996664
 0.037580311957278, 12.328393810389679, 54.058544243587896,  3.986043377527292
 9.613920617768621,  4.616230186224979, 96.445888326119913,  4.064919637549914
12.179101200165434, 12.647447689416055, 92.558182231817923,  4.106490632298425
11.878180497103751,  6.701055756771027, 10.992840021481674,  3.797179789537558
 0.100012540778845, 13.121558672683662, 103.442768656799245,  4.074231479706993
 2.516483768426459,  9.389508257589355, 26.133242514121918,  3.934239601592033
 0.307116083010401,  5.196368633114442, 36.545247349246054,  3.889618037090586
 9.027999216467741, 16.539948320692993, 54.826956842522158,  4.253249503131372
15.530230938278182,  7.689185351994356, 113.620023810351256,  3.751247545758229
14.783483980121350,  0.667619367438987, 100.115367685546602,  3.998063259101890
 2.210191685238394, 12.678437098315845,  5.046332906273387,  3.574837023200319
 9.592761329927997,  9.204732128477998, 23.487099912696166,  3.899835407023740
 1.531927790232322, 12.684013713144017, 95.787391837687906,  4.074189854409246
13.279766408811428,  6.613589210639819, 31.710982952919547,  4.046915528682718
16.677089346004962, 14.197148931893635, 91.953713993802097,  3.824308058663517
 5.973680200895696,  4.857541076087152, 106.977374392604517,  3.955279879718848
 3.945473497116603,  8.137186112659194, 39.521905480752757,  3.778704915030004
17.924813370320155, 11.404409199242837, 72.346485396300039,  4.197951718068447
 3.621373494232658,  3.056733344212954, 84.747216627820663,  4.058544026177834
 2.140679068218786, 16.694209139428807, 96.442556628989706,  4.102116634484105
10.596482087262995, 15.472444000275649, 29.158037199011464,  4.151278923223744
17.556035557368187,  8.774225568261881, 26.900771926237805,  4.128599436598513
12.802129132583625,  8.735630383665304, 41.542716099650264,  4.040866915067023
 7.834503424380584, 18.811158481291457, 90.326305364875083,  4.265506393940327
 8.330160822238225,  6.231474582994398, 15.956202849927115,  4.020932792603004
 8.256545425160295, 11.994198121980787, 97.863686706575777,  3.928639875529904
 6.758749611243812, 13.102904877148768, 53.505087960453103,  4.334845848233829
 2.652132290311496, 11.363705733380476, 74.045885248532059,  4.111885214669305
16.811189065945911, 11.269637990439026, 94.915674428689869,  4.201916821574563
 9.256153817299044, 11.777107431301021, 31.231077499093296,  4.086986434841886
 9.929639420998354,  2.976174334797828, 78.949726808517752,  4.152647090699134
 6.702116988471744, 14.148185047222551, 40.204049677601184,  4.173043629718045
 1.809690333058427, 14.305193376950101, 47.633205278350687,  3.834951446932291
12.399232103246495,  1.974299633260033, 95.731854014421302,  3.427677214254467
18.619163627369090, 18.548382450585883, 113.675316019489912,  3.605632281914186
15.194202277413911, 12.029861787002051, 44.556979667298393,  3.932991798487893
 6.769307323086024,  8.279892422074004, 59.712481165421522,  3.884660774906842
16.207019002479125, 12.980687362725551, 63.674460603649379,  3.725187994143777
 1.790527592730823,  7.260341032795650, 15.596562278246227,  3.985796538037956
 7.828714152895743,  5.610088867780957, 99.956872385446204,  4.043874725097589
17.497656445824397,  2.276452064816834, 86.811170857442022,  3.826105002709860
 2.617318465209366,  4.353714845672407, 18.312381303637590,  4.080743096700494
16.167909468949716, 15.468325055134194, 82.093044088710812,  4.068867559149965
 9.556766984572294, 11.876179670881646, 26.831709876061165,  4.629764912760214
 9.026957451858108, 11.656835676002133, 107.847875545208694,  4.007871315766590
 4.175379467952871, 18.575371973599932, 92.536240077361910,  4.126639794144840
13.193673725039238,  0.228077700674584, 84.821289380868635,  4.065572152072662
18.731711674361726, 11.583923536660144, 39.507031159193929,  4.180103089293211
 3.537829865685845, 16.451827771248642, 79.950214738668265,  4.180414822781507
 3.573235830503940, 10.595066445309770, 54.009771348397337,  3.813245367617922
16.611790760339247, 10.739243507653102, 57.163636634854448,  3.858255973966957
17.567493218330149, 17.012901011288953, 102.795402898278311,  4.212069865962077
 1.125327787299902,  4.967548061750815, 55.836492709827169,  3.899456881908867
18.834869805769475, 16.255210554785361, 110.447580685516698,  4.212158687355324
19.056168109015381, 12.545609928290240, 20.319577121992328,  3.638897927090935
 0.760147923577378,  9.097698583191898, 104.790882128652498,  4.019399309565892
 9.010888256716393,  0.693711466293584, 98.090040389929882,  4.519630502134602
 9.553072867915915,  6.917363126444026, 45.177656688547664,  3.997617100674093
12.659020134568266,  5.204908079332339, 71.817202845121940,  3.588581475142399
 6.538259181324619,  4.364339643744631, 46.093977469088976,  3.967540100232009
 1.016065126204993,  7.730501473402825, 72.965621905489868,  3.971059653835879
 1.607529737899305,  9.504241483026430, 89.127253302500989,  3.780674878486525
 7.702962039321243, 16.258335662514025, 50.734038299754317,  4.251694155477526
 2.157623446369582, 18.855956981090252, 117.060968333815481,  4.223553547393318
 3.223969485645068,  4.475795952953405, 74.279737713154546,  4.117578597510535
 0.770483206826638,  4.065345256879998, 52.021341571353545,  3.915543427603603
16.198229716508656, 16.177307258758450, 98.985680611327453,  4.049166295475925
 5.808662226823354,  2.583131274670274, 21.161192366094784,  3.881620785329091
 6.329068270232658,  1.450392082003144, 40.905142553778909,  3.754375872242762
 9.389209350106501,  6.208822557415251, 65.517840572536812,  4.036352392091850
 4.357069481242248,  6.022698051564229, 36.081987836702005,  4.314856211802296
 0.135216597757961,  6.678559576032779, 49.139548735981222,  3.964528115438494
14.131972717051923,  3.018911464613161, 20.818549911567402,  3.741121078213932
 3.876540665761197,  6.178530688708476, 82.040141953291879,  4.100093915093538
 3.025754099268334,  0.006216149261102, 23.574298880300255,  3.758203056469690
13.860908855241336,  9.071185775015557, 48.551479151165836,  3.946598361177167
12.047043054311203,  2.246589622401761, 117.419079018992420,  3.965832438938354
17.598507626213213,  8.072705392816319, 30.712176088745711,  3.601609013848280
12.546062912676467, 10.183366005212534, 52.351555440399856,  4.301534078230874
16.344076318590790,  1.589165541560702, 61.555577229342447,  3.998734745959027
 7.983099927141504, 14.499798205116381, 110.383073663960687,  3.853645439251643
15.112252456428335, 11.192478117402310, 75.497531418816209,  4.191664671926902
 6.266450116020837,  1.000250932987970,  5.241317598002104,  3.843394624825901
15.496361204381149, 17.955758003858673, 54.162046878163999,  4.062811341873966
 5.069490067109226,  0.467396022047962, 82.064189335123601,  3.799389621198031
 9.352074265947120,  9.306688820180744, 62.786167022485145,  4.221498920811514
 7.029279359378394,  2.082066028383395, 94.557203945581165,  4.018217528599050
17.422608800771375,  2.257183902427094, 74.750281732403550,  4.237796820599088
11.529905940643655,  5.755263890640807, 22.388516732696896,  4.264299581875187
10.128639447792747, 14.661246364355968, 33.990034019746439,  4.035388762475770
15.334079757254147, 14.310655729897915, 59.881056792016203,  4.099609096420339
11.874057491156217, 12.108889893961997,  6.157293721359897,  3.970248929621418
12.652170836609928, 15.211613788293629, 113.853810676519572,  4.261049704601991
 6.997416262777092, 16.159298492740803, 74.030619534132654,  4.364831210431730
17.840291979788848,  3.532618350110375,  9.789211616901390,  3.950531688835504
11.989518930575416,  7.988795537790147, 68.296182656792467,  3.865851350387235
 9.889804412770204, 18.222467971023384,  5.092749385848562,  4.130622754555495
13.680975774052310,  2.913472303060429,  1.888749431448885,  3.751220404046471
13.806565702377757,  1.421673927684318, 71.957612258209608,  4.201579336897170
11.727633613853394, 12.758727387332867, 104.236051290761438,  4.006519387669433
 3.106438486555543,  2.853539284924546, 47.611572858081324,  3.965985752159177
11.352942711485920, 11.644581296176225, 69.385650765002353,  3.673528616850079
15.910183980565581,  0.138438376929869, 110.787616698356359,  4.123463895705512
 6.276008631429597,  6.959819641990064, 68.085904976993049,  4.120370946528532
12.821796751649972, 12.114877568408993, 56.158990557020417,  4.253675710424470
 1.723243488434545, 12.843791067330271, 63.804368005816990,  4.416609125898445
14.541097261837793, 10.010568193208613,  8.586020978768584,  4.220562427017876
 2.115056317260913, 11.184398658158306, 85.627011627288283,  3.862664530191124
17.399983234804981,  4.806049580629563, 26.540173757973115,  3.781714696046381
15.876634535809757, 15.497947874757749, 33.681028467976923,  3.924354048797640
 4.166641483338499, 17.231608832949721, 88.729685001771983,  3.860814480291853
 7.766800309073014, 14.101170610437979, 117.404702145517788,  3.900508723842417
15.108114630044092, 11.114133612448970, 68.320286311702574,  4.187737792766124
13.760274196742197,  9.054547374444768, 117.321573525896980,  4.019968757159019
18.650892730143411,  0.464101086975510, 65.051622491956579,  3.963386605814594
12.012113361325207,  1.758089841827227, 40.971348822087414,  3.950327033641496
 8.941028787423923,  8.263664110803155,  5.272316349360900,  3.930658155209289
11.441041963724816,  5.967114768459564, 48.501686151892500,  3.787378549658464
 0.707485157547278, 16.953766593397525, 68.023115492155100,  4.243997314076735
 7.284481195383287,  9.003245044982407, 114.013494291753361,  4.043372116487469
 0.512607859264445,  6.289716938203417, 11.971439790513939,  3.916506416079547
10.934556902031838,  1.044655643972006, 68.456682427838089,  3.800337540261888
 9.686060236816955,  5.048898772379452, 69.317911366935377,  3.859010001745605
 6.178724379169609, 16.415462000080808, 107.182862345922331,  4.008068604630757
 1.656234844868876,  2.159713737624342, 77.094949221516316,  3.793880306330559
 4.279788492351304,  6.801959667431176, 10.596674168467496,  4.153995713808814
 4.451502627762262, 16.977001789949643, 17.707899437609338,  3.782792808145552
 3.189496843213715,  0.701962391463094,  7.536787199419924,  3.786368642241946
 6.558319186805764, 11.881134944547227, 75.102083246437545,  3.888512518478016
18.361694462268570,  2.548637095685236, 48.655784935885869,  3.958867998082279
15.907934406488332,  4.807429263989696, 57.420694094868523,  3.906203828010255
 1.984231740848224, 14.245051824021816, 41.028032259958614,  3.549749322026119
 3.304691138654919, 18.184786456865307, 46.006083613747023,  4.164379557204258
 0.518625860977728,  1.335968296809032, 37.510619863036567,  4.032893555345759
10.300856602551550, 13.742068831376699, 38.015472516961893,  4.210228259356846
10.221087759501096, 17.290178691923124, 15.415519092696755,  4.102336173883606
11.089415631448638,  0.382917614257141, 21.830967533859258,  4.418192899890156
10.071599099347790,  6.503970912280357, 103.508839884534197,  4.362289158644987
 9.777944124715638,  2.292984733531504, 47.635627371590445,  4.090430938849465
11.331252940700850, 18.522316982962156, 50.120765643568795,  3.953397233281318
12.552099961682014, 10.375059002049470, 65.179549097695329,  4.013621500881065
11.162728146691073, 16.962806111826964, 77.594737459359990,  3.783429042093527
18.569291803770863,  0.031688307866171, 21.966557009424601,  4.004792180637949
 5.619838100283890,  2.483142978385942, 25.132635536211243,  3.971112461546963
 1.113137483379928,  0.216724122012212, 61.399478236478714,  3.998889024736664
 2.437082444532915,  7.184077669300614, 53.148260455857113,  3.498273892288148
14.960855260325438,  9.848800612341476, 38.378634572562540,  3.875383340048296
 1.342732865415612,  6.171588821660829,  2.093620284182395,  4.095692527455453
 4.044218080186136,  3.475728994673806, 117.380971492909438,  3.952841210688553
13.903925209629644,  8.967108031472861, 71.628482438052387,  4.058154896052820
13.109585124750179,  3.965982288531285, 54.743720272640246,  3.853262945235526
 5.467053589477738, 13.177000317099363, 113.826028877722052,  3.940123010460985
 8.797399201492548,  5.272864644479378, 113.960692095048103,  3.920754556737591
15.521427075693676,  1.461252002732486, 43.360549458659435,  4.110857869755145
 9.464280069855068, 14.187363407139348, 79.968477434042342,  4.086468889658351
14.678911790301722,  5.111515237569925, 41.899572225077215,  3.905872715361046
18.662740378364823,  8.584241510036975,  8.726088209635813,  4.254185798494984
11.535565998446327,  6.778034995237717, 79.036882124207708,  4.094701176343207
16.639681922077145,  5.088093218755133, 53.697607290855295,  3.642831883535944
18.410937633295536,  3.657097466227140, 41.335727663964740,  4.080820776550198
14.761084383833138,  1.283838709846066, 47.384370655326109,  4.081929475748201
10.764999895755173, 14.387457675683505, 59.977822509598319,  4.077937438542842
11.869819925081073, 17.485473605202390, 65.802975834764169,  3.864511624609209
16.719820194066251, 13.981338297512862, 47.853300898024678,  4.172177621972858
 0.123170025683040, 12.057998049869935, 43.720439428924543,  4.222244632856675
 4.497632153726242,  4.618355320750558, 14.011939022904816,  3.955153392103119
 6.227864742275748,  3.218642870883431, 17.287330203541572,  3.739335528774336
 0.190794857719474,  1.282702808589758, 90.163741894688002,  3.937593293089012
 7.523852443215647, 10.514255139599106, 45.497226823097208,  4.182760963403420
 0.112839797145655,  2.249102278924971, 29.465654532696281,  4.348366446870742
 0.228709257647157,  4.167280206381543, 71.778448958914467,  3.651322988425475
15.231767617448901,  4.245988110768814, 17.217440969828623,  4.173104406856286
 3.125997856616577,  5.871177582422464, 60.637504936855954,  3.937238912898790
15.251462271766336,  7.566467603066680, 107.579510497307410,  3.981571313334655
 2.104581986989604,  8.760271852688964, 79.069449791778069,  3.667096436161490
 3.510390424378639,  6.114170900348455, 90.331623766644881,  4.303175059283960
14.959402604140985,  9.512379784094055, 98.389670806467876,  4.251983644482500
11.017393206496054,  9.424674028337773, 90.003293824698488,  4.034250356441945
10.537400929498418, 17.471177024777479, 111.104841430044871,  3.982185475644330
 7.594721396987686, 14.601617417058600, 44.168247071519623,  3.958807600125305
 1.619658763791556, 12.321002825422484, 77.798920303844866,  3.818066835258940
16.722829676889429,  3.484263914709508, 113.163736240359441,  4.110306510702959
 2.992363924703922, 15.304041781644562, 75.412283233731969,  4.239129203730184
 0.145800243833409, 17.732939355165854, 17.870146899881231,  4.344863918537247
 5.900953990589629,  2.751176734694783, 79.081059701938941,  3.871795442977999
 9.800661444291258,  1.868398981894107, 60.943408153443514,  3.706696805418260
 9.154035500603481,  2.113650124971920, 14.967238656102634,  3.877027260718481
14.922909361811282, 12.163872350145661, 20.282599836437036,  4.092189387934615
 3.593400703376020, 15.206771740318230, 103.591528652050897,  3.997562132351605
 4.888202204550496,  8.635913622188291, 71.911437781900915,  3.932690995967578
 0.027545700814451,  3.355298089290562, 59.274810976876090,  3.881526390029465
 2.507085882587111,  1.188748019610648, 41.251320142843888,  3.923164711554390
15.699017438990252,  3.417622497709593, 90.043197111639344,  3.845242292275175
16.157311854006153,  3.513498648052905, 34.707319722676999,  4.281882973602084
 9.314218926659708,  1.777953396992696,  2.020785945792795,  4.032907013326018
 0.852817281502418,  3.846142785162542, 63.247310088800525,  4.081746068252916
12.509715520175284, 15.535558587759686, 52.641523633697361,  4.189649393362985
15.267337045808841,  7.378966768174209, 88.018967228962950,  3.995503128553355
 8.898838758598504,  0.408015952034659, 107.883836736222548,  4.269800275106774
10.797863843476728,  4.798747368339368, 82.481280955895485,  3.955035226641198
 5.972898981950342,  1.014544338368715, 73.014681297850203,  4.064757845988940
 5.112892495791149,  7.644963657799653, 18.010035645105134,  4.106993642467430
 4.605857610854002,  3.333056098514489,  2.249336566694668,  4.435611600765093
 5.092704672378437, 10.931396776327507, 42.175982172966471,  4.024193758852229
14.185401258306632, 15.985051878722105, 105.095646584907684,  4.132357710504508
 0.053113785013617,  2.490322172884910, 109.346470116279491,  4.380039623575189
 3.697683660409487, 13.945239390139125, 44.299511278213679,  3.856775073378370
11.616188096925471,  5.406319419390488, 39.032313656225995,  4.304366262564919
11.134085046518429,  3.342219521136669, 51.378573785167504,  4.004719018453152
15.005460689729482,  0.498583777646645, 67.463711892013407,  4.315811295444416
 5.586403188035744, 15.243570122269357, 47.436305110855663,  3.786251860275797
 2.243203216542065,  3.269631263301975, 100.169743613131871,  4.116866995845528
18.199449447267718, 18.437020905974741,  2.081227840314861,  4.131354316202137
 4.704258345222275, 17.786317357813569, 34.835837909022771,  4.260405232134046
 8.256037152180417, 10.475286464015078, 103.621345816029390,  4.363490673450485
 8.339315114867592, 15.147209902463809, 103.974497033808973,  4.058130939160408
 7.646088388638098, 14.759301451116306,  4.990021157376058,  4.095150624289516
12.758727329011027,  0.748938398911667, 13.797316135922395,  3.778251041396770
 2.744851228949770,  1.072214855129238, 55.447142509295567,  3.783748517212360
 6.607411677099400, 13.264644011697106, 23.893667346048716,  4.131971799369742
 7.340702155677515,  7.705982594193834, 90.520561094876342,  4.001245388065256
 5.184017513008490,  8.125498012320699, 29.379337541557764,  3.817294467629844
15.043543282492926,  1.478936361761646, 28.865570631268600,  4.088799328209099
 6.265441975234169, 14.639516513806436, 77.719675035974547,  3.720442557119185
 9.111183788957772,  9.847313257540419, 54.801157054921894,  4.010104123608835
18.187587506165737,  9.106860883835544, 86.293731396506047,  3.602537312413393
 1.732990239782137,  3.079114055840836, 25.740793317846919,  3.907209050597707
 6.941075094353790,  6.969292844686760,  1.961893039342022,  3.845465516496475
 5.871880553477715, 18.319867886950828, 60.844282009127113,  3.919269525826950
 0.097800630384789, 12.710170691623860,  8.345594460853691,  4.030863146164836
12.538721997815246,  9.855996975948242, 29.327564063182713,  4.049371289994502
10.787534613066676,  5.634599896169063,  2.130102718763835,  4.170780122765321
 4.348787017294997, 10.160323070598993, 91.993048790442813,  4.182791421250959
 2.964634536022978,  7.674819128631714, 110.740027631610474,  3.892574729306195
 8.524794601938844, 17.536332179715153, 70.298526865242565,  4.136138327654257
15.060823957151955,  3.919616854619466, 97.713186512807582,  4.102879209038581
15.446660957453284,  7.390879971183395, 66.594648650741476,  3.886176645178888
11.161841731155691,  9.590380681493770, 16.929464313787495,  4.078789407656483
 0.855537057982754,  8.815794070631780, 82.700955286677697,  3.977715406319040
18.286430910525215, 10.088229551993880, 65.817771564020958,  4.066548479961756
 5.396872533173422, 10.830474851909164, 117.306612882866887,  4.142755480713220
12.274666015251420,  9.246152269224455,  3.317047604748752,  3.993331884323766
 1.153051429318365, 15.942571793785831, 92.617777311128194,  3.881740417785499
 8.880272754519181, 10.049270514101982, 66.880910602924700,  4.051775648698402
 8.000792978403199, 14.659269915198371, 11.536029039619390,  3.886940939863946
16.373511939707150,  0.609411274026104, 15.571603826295094,  3.946321474733970
 6.384125547736089, 18.108030451755557, 117.270985314730865,  4.256785200504139
 8.241260807029164,  8.017804304104265, 106.877438749905878,  3.647946401458842
14.011979204447227, 13.477795228364245, 97.039991289077989,  3.912651240190130
17.336381489788181,  3.636883530632193, 22.787730945682039,  3.776711763777145
 2.142967254408916,  9.903058553174976, 12.274130209479416,  4.019359993751134
 7.847687267628677,  7.536088149097585, 84.186297003186397,  4.267118850512587
15.766861533607386, 13.773681550101635, 10.366735862338729,  4.122656887934385
 1.427009265755789, 14.139272801774899, 113.990176690343731,  4.152285505440182
 6.204675625017182,  7.855614602312584, 52.669051681451442,  4.191235168887800
15.041558339134042,  4.231157168111531, 101.764468363198176,  3.789689269464014
 9.258625003022026,  3.653036451784410, 19.661089427533362,  3.938670945798803
13.195560355755832, 15.724030490541971,  4.867838080749146,  4.070568059950002
 3.790373757872951,  1.351315949562776, 96.873756688779238,  4.074594497141396
 0.030493185355871,  6.281247585685607, 66.495858716985552,  3.755474657104658
16.719387233953544, 15.348575495594091, 113.915859438738025,  3.847567348468576
12.273758361658780, 16.866536183614517, 81.526466466990485,  4.276189992109881
 9.204862465775628,  5.591474345670519,  8.257401662620353,  3.985716367406687
14.622335319259724,  5.141987318939522, 81.341635553394482,  4.055017143747515
10.676458562659636,  6.650785562233664, 26.303203573925330,  3.887849502642950
19.083242908903046,  7.345661669420269, 39.815792612584403,  3.878809001944300
 1.313775755452615,  9.154377790085078, 36.418526943929301,  4.260886549820535
11.883484841242748,  9.238511210406132, 106.181680670964056,  4.041434908843640
 8.110097779904072, 16.194182217747574, 114.046614914934381,  3.992039645621460
18.294226640800641, 15.901595951904154, 62.130969093147208,  3.949314810308469
18.424213819178412,  5.741932093164326, 45.096177172835027,  4.479614111135573
 8.699916789989043,  8.819400759574510, 76.628556239879273,  4.108186719600887
18.378029141270705,  9.871276594332304, 108.247351598534479,  3.628111231132486
 6.205996519968664,  1.106082879002548, 31.807048786371432,  4.009362659278520
13.876375440958569,  3.145035206820251, 25.067700691548584,  4.505671522776970
 8.972109701968831, 17.615555277147678, 41.864393205978786,  4.112507896778782
 7.589718921642851,  2.863769447542705, 110.908300358182700,  3.893846263308856
 3.898210240366314,  2.146395880116620, 88.785731579919826,  4.128646702820829
 9.713273903482893, 13.844575918219942, 76.030503021914015,  3.755683443293249
12.973920978620443,  7.708674033217952, 75.354468250440647,  3.976511430033315
 9.750498249407714,  3.081271179990561, 85.774042147567599,  3.698451346341550
 0.523029585000642,  6.815190942144994, 113.936509415247187,  4.167696653177333
11.572714918645236, 16.021665504125583, 24.998212222390745,  4.164364707041334
13.541964282338860,  9.170706668395781, 102.323776333350196,  4.139102546728619
 0.299291220606284,  0.365068743800057, 12.818023287584191,  4.044675536589700
 3.274929481258886, 17.075186953719435, 49.923180911878426,  3.720274305779430
12.675000098764182, 16.029785488692806, 47.386804526124585,  3.853111255503905
 2.872889183451911, 17.431117175812396, 58.353164879628949,  3.927834350686863
13.208565717344065, 13.322797690309987, 31.579115518202460,  3.938007116704969
 4.746327582029170, 10.145534163796052, 82.803051972050795,  4.128690012869813
16.975595548703588, 18.023184883872123, 92.249275838430634,  3.794242821172189
13.624928697402405,  0.805921951410961, 76.201592263607537,  4.359649998873472
12.927355339873822,  6.792426038485694, 96.179322565576200,  3.681131992375388
16.659584424531523, 14.466264817286321, 41.588322198250772,  3.978429710168096
 7.291820718914834, 15.297258992288649, 88.624282522460760,  3.427901208352707
 1.948974737997140, 14.068039878337656, 17.609106513987566,  3.725745805807356
12.622156663368637,  2.178170156496777, 36.533199877950409,  3.981857746808858
15.109528031303222, 16.952837226375806, 26.814997687648173,  3.928500543047970
 1.951743316149621, 12.353468304222270, 107.005435936638634,  4.055050652398082
10.842530540489193,  6.503263864492535, 56.740388805517419,  3.967141389510870
14.251545705201313,  6.610434305085905, 27.835275745045085,  3.823817482616501
 9.805402725562866, 15.806963401881125,  1.835326053807866,  3.632962369235149
14.165132858240929, 13.146923112852601, 14.621430709195760,  3.869848150475169
 9.431575941013671, 13.335897467308962, 64.286368967875688,  4.191722573973863
 3.497036315759894, 13.156888142518509, 89.014970747314621,  4.412083179527063
 4.203293880428967, 17.032756297781777, 113.989742046342343,  3.854600718923249
17.210279699377836, 17.915275944426764, 58.683880692664644,  4.162222271597072
11.660141228990691,  3.843738131834369, 29.069484119742746,  4.139940176224274
 4.318123200885545, 17.346312777149489, 70.279148471946172,  4.244026434591392
 2.721569983946436, 18.902734327647391, 110.940290228284098,  3.773784440638519
10.207222062320533, 12.615465782805465, 83.755581631739730,  4.208131163058656
 7.953946819139005, 18.200482132724197, 24.610656416348391,  4.304232840841185
 0.496637320780124,  6.930967985795195, 23.478027598497725,  4.330400527247977
 4.042701891770260,  7.550450915298629, 56.664573245762107,  3.985111472640612
15.011645575931595, 10.052357864108231, 32.366253968635007,  3.631193760490121
 5.557851099106379, 10.746106582586989, 68.773711396869743,  3.596210403503186
15.866351260361606,  8.658061234371679, 83.064164174550584,  4.063325226822076
12.078580443618861,  6.134273975529116, 18.509392280445891,  3.602697089269091
17.809991174897700, 11.607384620550368, 80.458287145845247,  4.159942363449518
 2.586175624302917,  3.063359593879091, 10.848009974706555,  4.050842936521668
16.209449838446545, 14.375666850835829, 55.796175684239678,  3.923637264097663
 5.229951829687562, 18.838371176372434, 104.051747796285369,  3.977025463934952
 4.698443762907031,  2.011135493223318, 37.354640236318538,  4.072666999027557
 5.939802363903448,  6.145364639535438, 94.240196386533725,  4.260547921625577
11.926774755982166,  5.644054625905144, 99.767432419999651,  4.093340234207207
 3.538171018279772,  4.522812930542337, 66.217888727514520,  4.010211265536839
 3.442313383302799, 17.891234412852633, 10.892973024046132,  3.936160652531435
18.351676731207132,  2.444092561197573, 18.936240536881989,  3.749333290933824
 6.160406363488596, 13.211229232137265, 101.078822238983406,  4.118862672198619
 6.800988590760045,  4.793156133639959, 57.730472953272589,  4.068117104584705
 7.822400008036235,  5.565037970090041, 11.963952689657646,  3.813882815521116
12.055467655965554,  5.249284857528620, 14.678295913624044,  4.082258792856591
 6.440450148449735,  1.744687982051248, 11.183662421485206,  4.067335013361354
16.143340725915557, 15.415843738892219, 66.774876964283607,  3.910487061950858
13.017646822255401, 16.178987550052540, 12.280461081760512,  4.106252149165053
16.446476164444270, 17.623709630138674, 73.824903432527080,  3.639325620002115
14.098478170815754,  1.083941796390431, 57.206310208374411,  3.927417221256467
10.032624186317953,  9.876035916860101, 48.816962426864329,  3.865623065838627
10.846990295282094,  4.672452938046846, 34.123184527095376,  3.809313034319896
18.376558275200352,  0.414907825000884,  7.409705356989634,  3.827743309816223
10.898133306210136, 15.692281080440951,  8.384373828047401,  4.217733719112992
16.333016808780080, 12.312592056582021, 117.205828673626314,  4.274224828647132
18.662350642595850,  9.355964111998162, 76.273549131116951,  3.884334576451403
 8.536993044774995,  4.449689215743034, 54.163838403059593,  3.851788110256117
18.250428032870360, 11.095425429310584, 60.810550017408588,  4.140930199838981
18.604293692105184, 10.220019023523257, 17.139462173382537,  4.090846705354419
 0.330000918208950, 17.921864813565438, 82.164766039775756,  4.080135871643067
 3.831579079606994, 14.937342915908530, 110.388620554239878,  4.396181152646944
15.685731205760897, 12.944264608065902, 52.139985700752327,  3.995473930828522
 9.581097066041947, 17.999417750690831, 58.561971282279906,  3.833741384533598
 5.930317343335809, 13.718591460638937, 81.585800439269917,  3.733520786694328
 0.410396644117254, 11.393361790997137,  1.988774553182155,  3.966665003589743
 9.066706064499565,  1.621419280216387,  8.151805295994135,  3.941111024961555
17.992232606566432, 14.276723838772268, 75.424751043100741,  4.219354864620115
 5.747315686686504, 11.346049782747262, 64.507001997106187,  4.177998974346626
 1.246840840192132,  1.987877125736623,  4.379226883715212,  3.960480252372522
 5.140983465847897, 13.482170848633396, 71.320325279087157,  3.924524338072475
14.067429513900013, 13.090180797571190, 71.860351829735379,  4.166633016843573
 6.954818019270489,  6.868730331443362, 110.425771158248992,  4.226396929001295
11.841701475406120, 19.009450644297086, 44.645839933827908,  4.260657878789132
18.921340893236771, 15.857397004741411,  5.499831149348755,  4.423475007661513
13.913110411836731,  8.935160120199097, 93.136992516440515,  4.004251159970979
 0.833910283849344,  5.265103964383115, 103.453798292520801,  4.067942311016971
 8.984125475119979, 13.091166806049145, 56.809301416962434,  3.622533108264523
 0.518147594742370,  0.857283245086841, 94.340832388926827,  3.899456499125401
11.427934906369064,  7.331730565795269, 86.436584290642699,  3.968022554118795
 6.335466333795094, 17.432528007166791, 95.801698448344752,  3.953951273594114
 2.172446866620032, 13.152999603832473, 34.908858733128703,  4.316705592776954
 3.050738178130232,  8.777199606066279, 66.304796948961098,  4.075347388960964
 3.811849215595517, 14.748316581407563, 117.312628742488840,  4.105714589314418
 4.182601527876361, 16.300879000318282, 84.247995307568132,  4.247668247310145
 9.460217034900953, 11.595413974592043, 41.963600352584251,  4.126067020521975
 4.835981759703301, 17.316310963264577, 99.832299007116291,  4.338009003744411
 0.013162641611974,  4.392356575666010, 117.307095660504629,  4.152102067609115
17.976437505304663,  1.905711481087345, 102.475736101453265,  3.760583284021616
 6.495652066930433, 18.115343723045495, 110.958180535075925,  3.933508256856755
 7.786396217973029, 14.830728887835962, 17.712616351412592,  4.109789146109991
 3.349109014366898,  3.190993922422573, 93.367196286674627,  3.663351333045886
 7.149260235839965,  5.419532066623363, 27.409320378452826,  3.894477620499206
18.877999070514644,  0.215103306667659, 98.798564266719865,  4.078739832183551
11.150884167532485, 17.855353324200845, 38.296111050094744,  4.207514048514536
 1.246552948101237, 14.688392938507450, 71.646120218255732,  4.074837918975891
 3.622687005994040, 11.886074535618391, 38.597294843527251,  3.938766756774884
 3.392627183309340, 10.083907477322985,  8.288865897957766,  4.017762380860836
10.150091980874841,  9.280005182454534, 100.067492233346755,  3.968977656597353
 0.425545627127250, 16.159116580412814, 43.905495008864584,  4.007217929050359
15.203568163017168,  2.350908418088630, 51.330586529104878,  4.133192936005407
 8.964278177938626, 11.686329120064805, 20.061894104392177,  3.999600093517601
17.075977094692874, 15.633695753235688, 20.886529150989762,  3.614810000291858
 2.024441510195302,  8.444911060830123, 43.054405642598390,  4.036515283357874
 2.448854733969522,  6.914874363324831, 86.076619824452195,  4.386952570859265
11.703851213040743,  8.163116618937886, 114.049324745068063,  3.759289765677832
12.203908764531375,  9.375248751985284, 20.709929657673786,  3.724648655046791
13.767127409889502, 12.797058781668474, 107.667346423564993,  3.885362991408627
11.349106130249208, 11.033772941723164, 74.025299427551744,  3.884067286283408
16.493683751310439, 12.462826016929974, 110.791684248162241,  4.419155615928958
13.050432007795859,  1.851574904476331, 32.420535382319919,  4.090179911491599
14.536583050501877,  4.263502950004505, 93.815569841554435,  3.754419960860436
 4.926362904045493,  7.036381325094668,  5.430021587494428,  3.736366975853447
 5.205777392105750, 18.454730725273834, 28.045742244280230,  3.797920633606288
 7.030837033599909, 17.777036328853161, 38.322219979749221,  3.931944523903291
 6.097034712611193, 15.059809458576625, 62.887388931526679,  3.788526466759508
 3.075761057514113, 10.698329745420132, 46.435934560807134,  3.992690918558974
