BANDS
8 8
NANOPARTICLES
cell(1), 19.123
cell(2), 19.123
cell(3), 119.516
12.290074168469205,  0.026407390521352, 19.107772056401885,  4.041989866453013
 7.581317463666418, 10.932367522285595, 40.309169947344870,  3.864900238764847
16.521044159785845,  4.780471740292830, 50.985730346945751,  4.098146883678202
 8.522352647158305, 13.852749043261646, 114.945183876302679,  4.059893818442842
 6.758510829507745, 19.063898882382375, 51.541611874734045,  4.213849812384304
 7.680901507834313, 10.419794272423285, 117.403023893652389,  4.192911132734982
12.090183771624403, 11.331319176570268, 64.967608606668719,  4.004078027809005
10.338340397814580,  3.974082737810366, 65.262487528841845,  3.790593480405102
 3.105090819575047, 13.717408406773353, 37.861557127083202,  3.973950145833033
 7.343569531248908, 11.734925160251311, 52.198127291204472,  4.003304021803860
11.967876502338125, 17.491808303399129, 25.761528606817890,  4.135304157573285
12.628928100534747, 18.483876282010716, 86.301503258526012,  4.049531639945789
 9.115479181117113, 16.913840758561832, 105.338215279319314,  3.833322760385104
 7.262542977812547,  6.009396219903475,  7.780759499307361,  4.269411503605378
16.405097872322536, 10.333939568713953, 97.069812173764518,  3.808719845695358
13.443506258657631,  1.504767134961315, 93.438172827104424,  3.813448820898736
 2.249573732987721, 12.692343915916211, 28.791789178923413,  3.982808603272082
 4.837711140210137,  9.823703018548196, 29.995485023934751,  4.085775686189681
12.367330951341232,  7.384856969870829, 88.111142577058459,  4.142353122662302
 9.174666960428709,  3.520527530568015, 44.407884940978505,  4.035767030929693
13.331812816799898, 12.925831322421072, 21.839220667049350,  3.804030202607067
 5.292495001113728, 14.401172779902685, 13.318294716325550,  3.824988660472439
 6.254608793821756, 10.268488851173888, 91.981632695633962,  4.105604642071281
 5.598065115070879,  4.315836950185526, 53.456046047682804,  4.012567738183351
10.134522380688246, 14.101768188392226, 95.473868577298077,  3.737926534237643
14.990055723363659, 16.588585889820777, 21.850021734427873,  4.185262888210714
 4.507187368878926,  7.781109940180142, 117.589387260743166,  3.817056622772028
15.184175004126038,  3.857431689113509, 12.229535251030244,  3.986872505415894
16.214018309592802,  6.776247845285591, 68.320947607986653,  3.886464084160700
 1.549149350694845, 18.220917546685406, 72.161832919034381,  4.287994937727958
14.326709984225612, 15.183740086024818, 75.060308137810523,  4.029075870444044
 3.896693993840818, 12.014560539836245, 117.496410309182892,  3.967763196352329
 0.743464367969289,  3.227331444359081, 72.432452070171550,  3.958711993734342
 4.978835285984640, 15.015432344602361, 83.057535925883130,  3.939221431642744
12.918491752026082,  7.820395209738231, 82.393043624029247,  3.698128263653643
 3.943493879225388,  0.208091282220781, 12.026348993881967,  4.116701435520633
 6.353414007884561,  7.002683495284383, 50.214611496127937,  3.955529416943595
10.568546600525490,  5.725362082998336, 77.392809171872457,  4.396147760969197
 9.700721493813749, 15.293040700399633,  1.913418084599445,  3.802448061252343
 2.954543349736786,  4.860594317104575, 104.173722036745374,  4.151668568727390
13.184350792098062,  2.506165621193370, 83.983555131092544,  3.473365220723366
 7.262303228070540, 18.612818026895845, 43.914423183130303,  4.106435912277918
12.549605031923241,  6.235569790132864, 18.659815259335694,  3.635321927261551
13.524070025588747,  7.750049980330958, 114.341068840298945,  3.986913721251719
10.218854055444096,  7.406466438848364, 95.295398240798420,  3.693069953822419
14.164379531018414,  2.775990044707843, 74.099329434832313,  3.799085888203525
13.271952187303846, 15.209870425141377, 44.243072545496496,  4.043637916783709
 3.483100297957690,  5.141840229225647, 75.942525355098596,  4.070560381755054
 7.007077562391540,  1.839204393875495, 63.811422153969424,  4.090924489389742
 6.646507236524910, 10.281295454018878, 19.123450852667958,  4.022955523336464
 1.583788918670173, 12.645325862021721, 65.499381770972491,  3.841085449842318
18.142137623760416, 14.027852093619542, 79.981619474826843,  3.968385831620640
 0.355060337149203,  6.754742788734764, 89.816957483090164,  4.073652625988876
 7.675186400345833, 13.098057280798752, 47.979970910957654,  4.054805162056243
 1.564108275499378,  1.374904129901980,  8.984504838393422,  3.881743640393287
 5.913058009124013,  7.418675769565126, 102.756912347274294,  4.164744846609397
 3.989647809932235, 17.261082156735920, 75.519695296175442,  3.966476827491590
18.972314736085522,  0.862209540194560, 103.480198607645576,  4.277810525197859
 2.899868012535681, 13.750906784885034, 104.438286653338892,  3.560003154991114
 1.327856723534133, 18.827752005527884,  5.579334738692386,  3.683688205407157
 7.734472691363880,  2.766879120868296, 114.311980457749470,  3.675835404161190
 8.303315813935980, 10.713622815856384, 95.536861966048946,  3.962426530708793
 6.663369292949572,  8.579317416765393, 85.409638757553893,  3.632484540689655
 1.169995561849710, 16.634899046343271, 44.867954705754421,  3.770261619147212
 2.188551803704231,  7.273316652854953, 96.415333930086703,  4.025786493949401
13.027109473274388, 13.720577489671086, 85.882514270990953,  3.817435064741469
11.576028357326390,  1.885807064752766, 12.386825110606102,  4.173173522018510
16.928513339024590,  5.507539418188303, 46.879185010191584,  4.210237593661278
18.007807548188836, 15.115746271188605, 73.167782152283351,  4.137823391152631
15.414846240439720, 15.226747725654075, 107.364437089156823,  3.874417139952966
14.699526989529950, 15.899449098111045, 88.603308048382331,  3.914282147927672
10.971408654408902,  0.458105555931764, 51.079610134226563,  3.797431970809007
16.744936362376443, 18.976744096580408, 107.763027272270151,  4.080629920161658
13.176019487215767, 17.445891637339948,  2.018042964660217,  4.028553116238791
16.439053516154789,  8.660899164689521, 28.349642543869237,  4.265875795009908
14.788585589869985,  5.629874164178338,  8.668675714881505,  3.893151541426347
17.452541028954737,  1.574265445977590, 58.528493980145299,  4.087784604603888
 3.856694540177804,  7.024782761379444, 39.047285343134945,  4.133264933155884
 2.196639129874409,  6.182605325703476,  2.091119591146894,  3.922915590528954
 3.367412435247634, 11.711843186389403, 10.667256702740044,  4.215962711943053
 5.548485065175050, 13.876243095267782, 59.476371518742042,  4.043015760112023
11.636131175455938, 10.959912102614309,  4.448376414708983,  4.278621021690853
12.689769253734655,  7.589511235930002, 59.095249779466428,  4.033561215701461
12.291732704462245, 11.052022810949557, 57.084786417738918,  3.898428956766336
 2.072310444915086, 10.476562023061827, 39.711095353988199,  3.713290546752371
 0.038386807556089, 10.796560456253022, 25.842178584571197,  3.927005233760082
 6.054101979280428, 17.413864071732682, 22.430300866024524,  4.197426319284166
 3.050167313090938, 11.246047365025516, 14.803526720248209,  4.104993691550926
10.013509021642419,  4.294933403361942, 100.742127132920217,  3.928730186159871
10.922641842067627, 12.069600673727917, 16.106042688502704,  3.830524441791654
11.057171240121393,  7.869824232656089, 63.170488183539760,  3.821450848951904
 0.653884000252690, 16.475370997589511, 51.785846208945642,  3.854969839851641
18.499298872613686, 12.960051835012703,  9.127132356887310,  4.405515448637098
16.650245475972554, 13.776011271304203,  1.844834442810992,  3.683239672247234
11.570742536761040,  3.118484290500660, 26.174322309489366,  4.323920951965087
 2.740979039629015, 17.421308769682611,  2.125699862911035,  4.158043002422019
 4.611213613548565,  4.507378298059760, 42.756147359573127,  4.276154463900927
10.781587950901850,  0.382137618581821, 98.670661489720857,  4.127825282187297
14.113930715686200, 13.391647916758924,  8.963254626142765,  4.049718626150812
18.124204824494250, 18.895211667764563, 62.307112024293353,  4.047089562914683
10.793677074366107,  1.322223052699703, 34.489264325908977,  3.922824032561070
 4.946398621048240,  1.104540189867287,  5.702433645614231,  4.012347283710082
10.486543600482626, 16.351697504721756, 21.906838378944979,  4.330422829311249
 0.141926852292340,  7.547709120667550, 62.762689314179539,  3.755350687486879
11.698064741209212,  3.863943946860530, 96.059204147721118,  4.041308254894659
16.251895710297948, 10.214236209517749, 23.280320903054466,  3.802860558467658
 2.295651011101286, 18.954652569606829, 94.383918451949640,  3.737844563131705
 2.360409898792628,  5.102164060429136, 109.258524082745424,  4.132426820381206
17.183447657495289, 17.132463966662051, 96.724414827381537,  3.866060701533637
 6.418742640402780,  7.276358305155641, 74.383483901137780,  3.748421039912283
17.702376164533632, 17.428385323199723, 117.308936406233840,  4.227841839606003
 4.138522829552831, 10.880308085719793, 49.834850268576041,  3.880248749589764
18.717454624591724,  4.831480692340944, 86.240376274685445,  4.047236572482865
 4.301572027519859,  9.172775854865556, 99.511412912845998,  3.880136428048566
 8.485763269371814,  4.516725175052560, 11.717912127409583,  4.030416065522655
12.741698806478912,  0.985919642191698, 113.841452938185583,  3.898587970003224
 1.869502690302032,  3.545332792677952,  5.353158134426126,  3.800946133953713
 9.740387713331854, 13.940541465327632, 58.636501976881100,  4.269440204038127
15.718147206447931,  2.980424026790502, 25.541906044493075,  4.070790119481257
 2.229893720111112,  1.113341035334165, 15.597051428142647,  3.882983187916746
16.449838361812262,  4.869339754353385, 71.636165938590537,  3.731061573749370
 3.294853370342203, 13.068786420512396, 92.400141298524062,  4.005472839833500
 6.871656035038775,  7.166251863529521, 27.382198659198181,  4.098390178079819
14.611409982212107,  3.401648731036016, 20.043587601932945,  3.885649759102332
15.991486342299785,  0.685623003143965, 35.765360964095223,  4.112231701563464
 6.125336312891100,  1.069841153768595, 55.734736179603900,  3.984573724111691
 5.220183343036673, 12.336407558367902,  4.878017817760457,  4.012371856833086
14.523748573167932,  4.992777349271438, 98.606247115392506,  3.820020246900539
13.079564552798477, 12.287954856987946, 108.593494762622171,  3.959314279785462
 6.096628422680444, 15.563386398952298, 117.600587882606931,  3.818834701962639
 0.891711863008344, 14.756555435868929, 41.191920087645926,  4.271794494020366
 6.029613198452480,  2.086310308138373, 16.822378986731533,  4.259014699193203
 3.222907969221759, 10.444994892115023, 71.048878382368798,  4.455987252413838
18.795878695545643,  9.881667113680107,  2.275118816782775,  4.388875343766355
15.952533148244409,  8.868717191686709, 89.721039080954483,  3.960419941943739
 5.005836319385140, 15.205035191393943, 44.790607842595847,  4.063353334986085
 1.246394886573794, 18.524821005785707, 98.335604753559736,  3.748251916906121
 9.035090043649092, 10.530510560609486, 67.697009402424314,  3.951854053222370
 7.252813784840004, 11.208282988539754, 101.586192289327101,  4.134576392805775
 8.084215501875470, 11.584246934225488,  2.062789357503931,  4.088125853629462
15.701016481714120, 10.999107576614833, 31.768022146883794,  4.143244771675980
18.196037847296243,  5.058226404278423, 23.041248136723237,  4.048005969105060
 2.918932142028706,  7.439533477173955, 55.738586790490885,  4.113777879388152
19.014083121066111, 18.660050873068009, 12.719509550299131,  4.125200286489768
17.236429779652305, 17.692592621936789, 69.949636875965581,  3.921403580001450
 6.731685937588931, 13.804130810651015,  8.306847131005236,  3.712572426504338
12.842283265521042, 11.526538299470319, 89.302409480160975,  4.264319391025314
16.053283839782424, 16.367436927068471, 29.706667720539730,  4.043363109036608
17.006633439516289,  7.601284233407935, 100.007210259838629,  3.818137704752564
 2.733107077460041,  6.079934265123933, 29.754792244021509,  4.337217891055066
18.429009447737634,  4.971544152881480, 65.598766885503153,  3.990288513069462
 1.608016960700316,  6.193908803467322, 100.401428183891028,  4.156992619745353
10.309389831483491, 13.464909956332361, 35.475977449866448,  4.180153488743133
12.491743892633606,  9.833180258300304, 29.674335308189715,  3.841537542116404
13.276624369011698, 14.376615403511614, 32.591383250944482,  4.241418123119693
14.649838832756176, 10.753647216328037, 92.805516923968682,  3.714302783944301
11.435599725676830, 14.560743111489936, 39.208402002771656,  3.875425723996293
14.102868975156243,  6.047938988015386, 102.535271338524922,  4.295698024974725
16.270800024645379, 13.546111349501009, 19.457950285940885,  3.848795530932950
18.676298506979705, 11.339903969687917, 55.252520426329653,  3.848415141089649
 9.250890013649890,  8.272145527118933, 81.451123215549273,  3.923003150201518
 0.359440970189955,  8.531396749188504, 16.082332048385446,  3.911379160306573
 2.969133872737963, 13.063964184674056, 80.197929654032279,  4.048882707463870
10.152681859613075, 12.830650067903738, 72.617834582631659,  4.188344183844930
 7.013607827802859, 11.623548003986423, 56.319783601448421,  4.115342466206824
10.215609902644891,  1.564439229647571, 117.319354162878753,  4.113612172040351
16.859913246550569,  9.042504400738389, 103.684027313985766,  4.011784192445070
10.788507545891731, 16.445278969613746, 109.210246579300204,  4.425983133466448
 3.925268743085358,  4.121948443850174, 62.659484678908171,  3.859865145872723
12.170787282238885,  9.106065852936585, 22.467214552841888,  4.147277842755924
 9.247822419164105, 17.512728523312607, 63.613012963362216,  4.137643328208388
15.490138452691053,  4.340808156591160, 81.536348645784798,  4.111634906281497
 8.865422258097734, 13.750688856313978,  5.213189730220453,  3.649032753667421
 9.198559355308312,  6.413096361181266, 69.447956414100744,  3.804684453799854
 1.188062452154634,  3.351110358641907, 12.408066985458289,  3.933181788920898
 0.093559728234657,  5.196051846051604, 57.709757230628952,  4.096206136032730
15.334622176899650,  2.427595459230923, 104.847975042019968,  4.036504989992159
16.032675046469084, 10.638179972039675, 80.352191740163249,  3.915725415325313
14.004233827193383, 10.056967819478762, 41.504483145941542,  3.813344624881450
 5.329421999067742,  1.543113645929520, 24.514872423730235,  3.648198972634206
 8.442115323688933,  2.523325927216404, 79.293370860681108,  4.030326992879825
17.968037767322500,  2.981026446498094, 99.650862861700972,  4.392795594878075
10.183739644482586,  7.850874567158931, 10.167235025807621,  3.989980605737915
16.537002705297521,  6.766038729244388, 117.180711682633671,  3.993365582822051
 2.823971822461805,  2.683148541350707, 84.668620802644057,  3.959009003630382
16.639442038909849, 11.448500024050414, 15.954337646645554,  4.186230331267853
 0.691602398188609,  2.243660455236514, 19.032083023229845,  3.965545573160155
10.819280465874678, 12.289228219006825, 42.444587092696992,  4.117152043036281
18.320159601358945,  1.914253514062747, 83.121509815632649,  3.955135173608061
10.095011881953347, 11.541855844344322, 98.860994366899718,  3.766206420663846
14.150443127735906,  7.738364537053135, 95.253594215882643,  3.906533311376924
 7.404239059108993,  2.997740359665573, 27.588821680013613,  4.309076146535988
 0.338084458631022, 14.198721119796614, 98.315685898834047,  4.132190603630284
 4.408883953289922,  9.519319297102916,  2.012959918023002,  4.007691630572001
18.018078180577671,  6.411109686764129, 13.184622169721496,  3.831599196825882
 1.035752112634127,  1.158252334092578, 35.932177712601032,  4.271564136443479
16.360318035605165,  9.195510659213307, 38.630194726209702,  3.806356646567512
11.453836686790751,  0.693050579940487, 72.113453320966201,  3.809449717349786
 9.644983244928341, 13.044182985809575, 31.589806642977241,  3.745844377861701
19.074578968811899,  8.925771238438521, 45.494141183638128,  4.300750873638997
 6.171453795253440,  2.083339164209944, 59.768006349195623,  4.120348170890809
 0.113566172214022,  3.681245865655194, 61.561451559015552,  4.101844998292473
13.214773520016918,  5.619005449310052,  2.025534076575877,  4.012220647515587
19.047686141038746, 12.733734510901375, 22.211776192783134,  3.889864815490460
 7.473647101779354, 11.619696298266216, 11.465395533360942,  4.097595794479619
14.222913388379327,  1.044751232030613, 28.817391854198380,  4.036798064396063
 9.860720692167131, 12.087715372119106, 92.169773020461477,  3.937258640921998
17.387449139021243, 16.379544579444332, 15.845705819063939,  4.130593669958979
12.079468928510279,  7.929492495924896, 98.530765745061075,  3.817628392522529
18.013245771461680,  6.790853201989251, 79.272198750338177,  3.855177031141332
18.603782741350727, 17.350275310999614, 81.906036384659842,  3.745120301110689
 8.202964665394793,  2.031008027709179, 37.280510103799358,  3.808128670335459
 5.331541602611351, 15.806120418490845, 86.963008243161184,  4.004232301095023
15.007552417385703, 12.884651230887696, 71.459119525464416,  4.068209784683667
 4.952638906786976, 18.776759439485698, 113.482304033925104,  3.864397643552720
17.364483234566702,  8.858096992455332,  8.515424020445245,  4.050700967547095
 3.700448371539862,  2.301352151785605,  2.034824253515093,  4.062703093967990
 1.273399976665774, 17.734105264392863, 114.194297440247539,  3.906654036831229
 4.423364265929918,  3.797955000091461, 116.092359781219571,  3.898920457763769
13.310270730654869,  8.297810650672270, 48.536830448684775,  4.089696597942218
 9.384460926001871, 18.336122179334868, 54.499505929234637,  3.828402957345282
 2.219792883371195,  0.737197689566592, 117.443112630410724,  4.005639871211395
14.877540527786648, 12.075117511764766, 54.059189495926439,  4.236888516644480
10.399212824772251,  9.586281084216235, 85.068417402287153,  4.099314942190766
 3.221525782864705, 14.490191591970309, 72.124360467490504,  3.845559732873618
16.369326128007845, 18.228026147645114, 100.433001565786185,  4.009886804017731
10.703630599147676,  7.251880228153130, 25.872683114500465,  4.027834957640435
15.404373595596518,  7.109185947667116, 21.072555146015020,  3.910623993309607
 8.833042118561936,  4.197931440591119, 93.262754071300805,  3.905862989583384
15.027951987390782,  9.747376982798789, 111.273807104413279,  3.852629153871455
15.916053319053363, 11.664667289299251,  5.421841861684586,  4.609008081301633
11.720240357927061, 11.496442870512046, 11.857713359469347,  4.216382290411483
 2.540550227587207, 10.651821664583368, 113.988695998235357,  4.019455937605929
 7.776074273192183, 17.749437352070395, 89.403406317119220,  3.882743617203639
 6.058567989584981,  0.337439754261331, 83.605408895831971,  4.175147450569637
11.943254736469688,  7.833137680056817, 67.004998579348637,  4.040867657688256
 6.119807763484782, 17.933317482402490, 93.603715452136029,  4.165445732561921
 6.157706821503616,  7.075325023393137, 94.910483277679020,  4.471764617070874
 9.839254088555997, 13.711475518832911, 62.708130311515312,  3.760230011407848
 9.749471070467532,  6.437864987076043, 47.983375857114851,  3.959078361274187
14.524942294476846, 10.388978646292964, 117.451736808411667,  4.114614043756055
 1.589112030760574,  1.722588146987716, 64.843944985794565,  4.031517857679751
11.633613118508661,  8.586938309085976, 91.898513692346469,  3.897725179184053
 0.515903729655593, 17.247403417214151, 58.804819925487742,  4.066142037886110
10.308615927195069,  5.949077967815707, 29.694756053242500,  4.034548635946156
13.324713985709144, 14.906591801515622, 56.701433522677497,  4.065597215117617
 4.211658815917551, 18.048367997157580, 18.806102248816504,  3.985741780336860
 9.172090558689513,  9.058799672238994, 31.772477306224253,  3.749478643605819
18.507788970214545,  8.942845125507851, 86.453786807766875,  4.106685378909855
12.420078104691111, 11.115198058795301, 95.837639147353869,  3.763909815512774
 5.833312725051042, 14.849190355855681,  1.927388250150744,  3.802337739111982
 1.737003004002804, 16.787482068998290, 78.734616249802286,  3.879936054012062
 8.052203286857504, 19.022235544441788, 67.478907947618154,  4.244617433316531
 5.281162998637922, 10.160538036919299, 78.641828240735634,  3.959007246428361
12.892845205020370, 14.754416016017005, 92.067851330055888,  4.130467830247272
 8.893387694655519, 17.063340734149740, 85.521219293840943,  4.080827363515055
 7.181141121596904,  4.831150107658193,  2.524787338227894,  4.498168366850726
10.392986891384790,  8.346978066187640, 102.306727514940889,  4.394296105267285
 0.997846857337124,  5.846504698828347, 69.265484918465148,  4.028202960619850
 9.751473344045390,  1.189949274874791, 111.122501439990828,  4.180748595350426
11.203634821828064, 17.111235205968374, 15.925363142021423,  3.728677061213665
 2.990251549759433, 14.297273457565375,  7.588986338111319,  3.823988282483389
18.207236678475798,  6.135956664907589, 32.075602409866491,  4.039720705201105
17.648031890116194,  4.695745584447357, 36.136484032943862,  4.233608256046442
15.851910069548087,  2.822771008197550, 63.383930968832786,  3.750137950524682
10.052102992819872,  8.074613816970409,  1.970668493699537,  3.941000599994461
 0.172856426160958,  7.194885061130317, 73.072803151280624,  4.159042109117630
 3.299974740450909, 17.547635894417834, 26.012828038191675,  4.238541331626693
13.468995983621980, 16.529667767291386, 71.467097784545118,  3.813832504119877
18.216961428187190,  8.395120560149728, 49.711091720529339,  4.251693592865971
15.135087702128825, 10.114437807021041, 61.574052360979934,  4.121835567639573
19.029734826456679, 11.393396722933623, 62.154945473876445,  4.029498138707382
 6.578359760263835, 15.609941508354149, 55.160205465799059,  4.038811937545927
 7.405293942164689,  9.457961922938066, 71.237355317573190,  4.100206886178102
 9.267729831522372,  1.269932060337059, 107.083986249933474,  3.952536284673043
 4.448411565667426, 17.992550115966157, 64.734311213141439,  3.954025225727079
 7.256158451933451,  3.545424820968107, 71.413134251775190,  4.136484906205605
10.381833016994834, 15.175096596415377,  8.953136833834542,  4.170107395096284
17.318295068879255,  1.034550323109036, 22.124772469517158,  4.288032529100518
17.476358995337087, 13.987355803756900, 44.419655639945525,  4.004578312492884
 1.333193277161759,  3.672778233360495, 78.947991054622463,  3.803892033348669
15.736951780858421, 11.864698929169650, 12.135207362990878,  3.701758538709199
12.360757054604928,  6.317059915552306, 54.889030312945629,  4.217049550084278
15.018130842108585,  0.203434050389090, 14.073432585637793,  4.194731535992268
14.519357027983796, 14.762579711526763, 117.508386560364670,  3.979273070889433
18.834668944899164, 16.509733939988532, 23.416597064274704,  4.023723391713090
 9.611727938156296,  0.213587205060667, 40.657941836703621,  4.047057305128189
 3.322464865175682,  8.517901564049657, 42.848934090983121,  4.079168488099127
 4.427371167009909,  3.334322724896723, 37.197212623104875,  4.143549266755114
16.710073924038788, 13.634229782906086, 91.391749838012103,  3.814145783714383
 8.650334382940908,  5.420904720543892, 89.171428416580639,  4.523717116387034
17.191491233270970,  1.177648970303398, 79.209884815563655,  4.288121572136006
 3.117379556002578,  8.477757218122273, 18.812676400747208,  3.830753361107729
14.806492198427549,  6.878576527613958, 25.002391368161707,  3.982145881214191
 6.383756047268030,  5.612733354228808, 57.371816884280342,  4.372318422989562
10.830006659844296, 13.391562905498576, 25.043805022380926,  4.312113325139848
14.284854260090578,  0.503485015477123, 89.792791236432137,  3.875518250037347
 6.203479656150573,  3.929500680618533, 107.518733755573891,  4.125090779276976
13.586290276557467, 13.969118474920480, 60.733347215769896,  3.766068931334437
 6.423892951296732, 14.701269035749116, 103.537882850098811,  3.924738203446961
13.341826817008508, 13.583243660934269, 28.483494656875507,  4.099346537468946
10.656287440596779, 16.730687254072407, 74.385680290394589,  4.011964203785961
15.472727622908147, 19.090912083958546, 51.546816459448600,  3.903031431135970
19.050762720347855, 19.107450723612292, 54.991303428015144,  4.253753555411281
 9.128741395582571,  1.070614368179163, 23.289701771911780,  4.253551424471503
15.518559500946161, 11.383447644339292, 50.025552493219223,  3.764138379500860
 2.189507599098566, 14.627496125762489, 48.198779961250267,  4.243890683635228
11.696705579288276,  9.653315323837115, 70.610552860837174,  3.935879169858845
13.104233927863605,  4.014936456568056,  5.475360442382415,  3.600019749114351
 3.363605640215400, 16.906441982812854, 90.487209619708850,  4.358547172175164
12.324830637335410, 18.479344662338249, 68.099940619452454,  4.175135333581466
 1.446673928986493, 14.447811272421923, 87.459357814459651,  4.276689345735032
 3.934630177594595, 11.185569757230235, 61.904195954323228,  3.888114914627382
 9.539418251690753, 17.736539415957477, 47.934124930294743,  3.960757928414973
 5.901614774245180, 16.550226485047446, 48.518521511117342,  3.779071815356678
 9.978889955015781,  8.650507932998968, 17.492827971163603,  3.771136250000142
17.136791793130694, 16.702222471102360, 38.241490059348195,  4.149533160027153
 6.329597613052295, 18.554262180020391, 30.198015439193188,  4.296408976936442
 0.594477765194988,  8.407864629421173, 36.790742642484382,  3.985976950044595
17.899703909133443,  1.727550726400269, 91.239885572365878,  4.241964357714825
 0.425488882841880, 14.264540161225055, 109.021873089947277,  3.754829691732198
 8.143018033757441, 10.131346946127431, 23.844193821538124,  4.285240165344222
 0.215342277490673, 15.894293605535077, 102.132855449403664,  4.209415624387330
 3.080172584165107, 13.588164749331987, 32.859924865613849,  3.948351024390682
10.583019863887605, 14.965794469834776, 88.714725084521660,  3.985478964352703
15.288339850144572, 18.592728092729054, 83.256784994166694,  3.724045858570592
 1.255645355373490,  2.513667652433424, 31.826851222605725,  4.299234477041439
 3.993913973511051,  9.795162623830967, 25.896614282573161,  4.169126141138953
14.654896138260735,  5.486193586779904, 39.105334095824908,  4.295423578091675
 9.337136461198540,  3.365327195337661, 54.740208152076356,  4.114180621303649
 0.453508479628585,  6.873707896847629, 26.359347298023327,  3.950831570010750
 7.083945450781696, 15.934702097084942, 111.457553750192091,  4.272234600998176
 3.029218253864912,  7.236562951251200, 85.710758148016680,  3.991652487601497
14.250544792103430,  4.055744652705226, 57.833803855178623,  4.075274893166519
13.240826798891730,  4.396027094318440, 117.446181046960149,  4.110999596026672
16.989652682122788,  8.733446295954383, 75.972693185590217,  3.833576885683804
18.781800850086196,  2.148594407211590,  2.423483293936394,  4.039908320518314
15.462166909204210,  8.647897815300805, 56.286478314848424,  4.020977750732234
 9.216622070570471, 15.181467347308761, 44.880362155774350,  4.003061494349667
10.595216694161218,  1.731374025307010,  2.187432812912304,  4.346107831769793
16.353155175219314,  6.382676225777274, 60.412699734169649,  4.044508987531604
 4.924170869082112,  2.900398192685407, 94.390706022605912,  4.147085770731882
 4.197359677984344, 10.950870512585789, 95.803500231382785,  4.192884895147583
14.956062776459973,  6.881586939484047, 64.275103024696634,  4.216507684736770
 8.556659188112109,  3.617956470625675, 50.686464325150503,  4.143682586867174
14.949377415733347,  8.179030001553397, 11.595211259911308,  3.825661531827883
14.306603830728951, 18.812692027303154, 76.672177768696855,  3.843441635846944
18.767799243784477,  9.223767316492102, 58.664775749935849,  4.158865423147923
 6.552184328422756,  8.225725215637345, 54.022014174810160,  4.047522473903940
 0.923192908304798,  0.753565206216799, 76.037656967089461,  3.965117612277523
 6.476580103026089, 10.892253661169594, 112.935079956306765,  4.107052609083236
17.956824034669562, 12.116464651024629, 101.419205053849424,  3.883898564224423
17.378944989910092, 15.214755278136575, 55.543224746274525,  4.271348065906399
 3.682748455656509, 11.519652517144490, 21.558592485846233,  3.901874476007874
 3.820943199595833,  2.738257306319392, 50.348047769698340,  3.702449040793764
13.282166001912968, 10.524688522024462, 104.503918345013446,  3.855505657817009
 5.622199386942553,  8.179218239599081, 15.707404911114720,  4.075411806133686
10.738836350704091,  4.842982352343845, 37.910006733871519,  3.852165206048735
14.118727875774884,  1.139900702501367, 60.486909874454852,  3.590866526062315
16.018381409204455, 14.730137384443603, 83.385390337735387,  4.015900505141371
12.860433722916827, 17.145217362228848, 102.089816968232256,  3.993541950334120
 2.598189088865562,  5.074742540875123, 16.450881709355276,  4.251768151387128
12.138400349684137, 10.580977175781129, 33.444726974965185,  3.699608528206933
13.189917414544421, 17.560054317066054, 40.952790301681773,  3.882667877282552
13.329461883245896,  9.460145298879759,  8.155731492289643,  4.100353791781123
 7.002652451195230, 16.898889502559872, 10.668530888870293,  4.085953204107150
12.867193374554002,  5.094396931007333, 45.588385472943557,  4.322088832032575
 0.150392403502395, 13.931746981036884, 113.533333147628070,  4.108919671027782
 9.534747413073363, 16.411263775681078, 70.446189718878557,  4.175870512205719
 6.969503763790941, 11.197721113080043, 74.985422074160439,  4.179107385221799
 0.638194816748102,  1.018802115586030, 87.623395899697769,  3.924233302715927
18.373492740472084, 17.009855984683945, 89.776109372737494,  3.696389656027194
 3.289931976787933,  9.371393391589153, 33.911858980294731,  4.044032436663968
 4.618284326655805,  1.513591046584652, 77.804037065345128,  4.242212554799325
10.605490848496832, 10.444186401657042, 114.483047800684560,  3.906540433827088
 8.187424895025767,  4.049927129242803, 40.663305487104267,  3.688203847911043
 4.484512204445689,  3.960888145968575, 81.063356331665062,  3.766024171365575
10.842329525057622, 13.180680228729567, 102.369220773536014,  4.075252669285372
 5.999261981992064,  6.632966943816668, 35.287301925112686,  4.049212980851793
 4.745120296151167, 17.524558110712785, 37.160038719061596,  4.412011870501056
10.272991833163850,  0.258549971508518, 28.972453725570315,  3.928292774267923
13.615433216647308,  2.010355983570660, 101.168337861830778,  4.086055394601532
10.081878691610964,  1.651449443821652, 16.154471689877340,  3.940775996965145
11.998545035950618,  8.407110434141510, 107.842735020868844,  4.217698087483551
15.366235047242514, 14.949598808682298, 67.844919358309042,  3.791075651895882
15.465779371006647, 14.473427861151288, 99.350795287248388,  3.977138920884431
 0.477079222443984, 15.639173448066028, 93.482905583282047,  3.882549833696025
15.590510052490858,  8.844767477681154, 71.840659109720491,  4.097026939376457
12.293567189307554,  4.752350433878545, 91.417884564329114,  3.928450789779240
 9.793631075328829,  1.657122713011204, 83.322250115148080,  3.640504194495267
 5.286345277061083, 17.367787787436757, 70.226113303389099,  4.118462071401200
10.886955227577648,  7.727955331139483, 117.447344661606692,  4.017159233637414
14.002600933456684,  3.443040861844962, 77.915691581740120,  3.897796706421076
11.416305654311628,  9.937860938274143, 53.386787293974528,  3.793610817214625
 6.806403858785513,  6.546145394372934, 110.785107226944135,  4.095319654665469
18.762885776929302,  6.053459533185289, 19.092415221026439,  3.845768046155436
 3.674367643281279, 15.588478262273341, 96.159884094548744,  4.272308432350059
19.105538981959111,  7.025287979392568,  5.402617103879496,  3.913461625620819
 1.142078343618735, 16.236437593935332, 35.602228959273589,  3.834643657188538
 5.826497047121175,  0.393503079344268, 109.615861554495069,  4.027525733993648
 0.711013207114710, 10.213675423406395, 98.671630519639422,  3.733528355275270
 4.976191292784592,  7.498419849471718, 82.285582200482082,  3.774337302778930
 6.663552019845973,  1.732889501455917,  9.330666146235457,  4.099190787605913
10.154873972405483,  8.489404355321472, 74.144788735267554,  4.111683505250147
 2.356483444713309,  0.309686538965440, 22.220879701053754,  4.154603333907054
11.210357520165614, 10.564301189592200, 38.841536316387739,  3.879223341262622
18.320762775525569, 13.238255816696741, 105.178290469031140,  3.966721542870593
 6.947474079767527,  3.852935595519539, 67.345977593363983,  3.965505691793581
10.158996282047429, 13.520869353524770, 54.492509031236871,  4.066356471637047
16.053121245408615, 17.966926399541766, 25.945319991515955,  3.960307091119935
14.148049832855563,  7.495509337670479, 78.728253034779925,  4.024856929222737
13.259898702757853, 16.651625004771272, 36.189108116872433,  4.200868252639277
 9.411802183064102,  8.380233021762463, 56.786963106463290,  3.913771180304852
10.697696225803250,  1.340656567343094, 76.060060615208670,  4.057491177324064
 0.482812338513018,  7.255200304563525, 106.363312165984837,  3.967378730511550
11.094542399623618,  4.282434362868795,  8.714139575621749,  3.926971937328349
 3.164943325478425,  7.195560947628838, 60.012872585913122,  4.385860390147341
10.716119355653543,  4.477993351543347, 73.356187794580322,  4.013139267459408
13.638543517208801,  4.040000217393064, 35.134813100188019,  4.015844981455520
12.404159098278827,  4.933965380660654, 50.595213349632424,  3.817585847569234
 6.456491971251362,  1.451317064891218, 47.560911837905856,  4.310137838210753
 8.933754590580717, 14.863104735761308, 18.138968881963471,  3.978625383363181
 8.091077344126665,  8.090838297889757, 98.667579509310585,  4.163761673779519
18.760441783894752,  4.970715768475857,  9.019203883228718,  4.176271742674817
 5.279300786904605, 17.372430258030562, 79.982301791440065,  3.676157496706145
 7.014257904106818, 13.834484078717818, 37.797743471036377,  3.843184833062377
16.854349156742749,  3.528385620294698, 54.811793115995513,  3.964542032338507
 7.996282549094670,  7.525629877928254, 114.525984911215346,  3.827813943896452
17.116404299025188, 12.563370982724962, 28.527547407701260,  3.581327514461335
 7.698404945772491, 17.944373437754191, 77.018093730702034,  4.003534086269419
15.665769387884930, 13.184760748381509, 64.296425758614063,  4.149938682381995
 8.399541649317825, 17.960597030603118, 58.396194598705968,  4.172425897037619
 0.888073947578685, 14.116688849802481, 83.432599046413912,  3.866868117066435
 7.406430562841073,  1.397293303149285, 100.439008590216176,  3.720421297074533
 8.174758914959236, 16.880665024123520, 97.090553811344677,  3.786422654463666
 0.633149346501472,  2.182699330955498, 25.448120199572667,  4.057759076665712
16.708294662293369, 12.563683572386497, 87.511180941962579,  4.166477652473206
 3.522678724565731,  8.934841285218301, 110.382144346199411,  4.030350694719928
14.243214849722460, 10.703559793877693, 100.564537466888254,  4.244129368038601
 0.095075898539571,  1.459344932982666, 50.961180552788612,  4.227576209879509
12.534577845510769,  0.842705623309670, 64.214563681564314,  4.134896430165171
 8.119169227658382, 13.672538513926263, 107.435436228301540,  4.030328994027022
 4.960760142007486, 14.089111270686296, 18.156821625745845,  4.073993682762834
18.206845496955882, 12.495218774742325, 38.211257442366929,  3.793590621559686
 0.535171737182559,  5.170342786516643, 43.721552098196398,  4.073470806676718
11.588201800269506, 15.118282406540375, 98.883573375963294,  3.925381805493094
15.827302929522094,  4.643337242175341, 93.406776770794892,  4.030083482458562
 6.930099587879572, 15.154288902105302, 73.770084975711825,  4.053894836366815
13.758860308684818, 18.524088951748926, 32.475152824864814,  3.998535562336575
 1.622987061383192,  3.935534855834196, 53.911114668303426,  4.022812521079149
 9.860546744121928,  9.950003341234778, 49.735035022973619,  3.870763001355979
 5.000303969288475,  3.266881157268550, 33.225597858828316,  3.828970294567255
 8.728240272830060, 18.003179843440815, 81.097041931664549,  3.647426528835649
 6.644290511995130,  2.032652914413891, 90.886911102128181,  3.837739705027428
10.491014309028056,  1.286672984859886, 90.719072405707706,  3.996064469872275
 2.897998079168070,  3.458832312986780, 46.564049092424561,  3.970201161822577
 9.870929652693976,  5.776533878473051, 34.014819966320310,  4.215634081879425
19.055824363029991, 15.501143541725154, 27.232851659509787,  3.869044572097316
 8.759132744388637,  2.637925169056447,  5.845679032725916,  4.027356694620361
16.958559976602373,  3.063840948384835, 110.521543455817678,  4.175973037258109
 1.054081127746090,  4.989598103172727, 49.520304694658002,  3.604263688486412
 4.669160739647259, 12.861000739647501, 109.730891074291037,  4.202976003182084
14.508697641661360,  9.708207303411415, 85.444485229466181,  4.105494737216488
15.539893168115395,  6.276273967020095, 106.634638913976346,  4.390922647429170
10.223620932994558,  0.902106174651484, 103.151963597367839,  4.042759858538830
 7.365183459118914,  3.661356637058891, 75.534751852921787,  4.066032839640683
17.536397393819886, 17.179023390986266, 86.076100178696379,  3.834024108949788
14.963603799097950, 13.745763186459971, 103.235970946406880,  3.820586871544610
14.808573864961817,  1.913152384206902,  2.465595801940467,  3.852017436784226
12.742530336947960, 17.016595569476742, 95.536104664286171,  4.016547526286673
 4.942390932243436,  3.856941992647081, 13.319011820038275,  3.839473189078774
 5.946027894071875, 14.105420392152737, 29.810376003292884,  4.186683248657884
11.286421576731705,  7.097108739099364, 41.226364086710483,  4.233010133578827
11.082968828557330,  9.003777251970732, 45.069822791193864,  4.230476193479892
 2.196839103022897, 15.577713031541675, 117.455731356215665,  3.900798393373456
 7.715963900158036, 10.593650041277423, 63.654090433366818,  4.004929570733380
 2.353202527604793,  3.472684738307872, 97.495431533336159,  3.756220175247607
 9.714079166806489, 11.194332410645286,  8.123452649187483,  3.890194194031334
 6.577657721852319,  6.252251806986205, 31.298715311941461,  3.945384200926017
17.940071113343723, 16.958952932443530, 48.269261989853177,  3.898532283051799
 2.490172237874954,  0.619935131486452, 81.241916363725096,  3.981610393993627
12.554432513956167, 16.557811012721199, 53.059968894525838,  3.985302971711810
17.615221973652400,  4.332519659354375, 75.907041053239524,  4.515795989815640
17.252548847829203, 12.617968736210075, 76.348346781910450,  3.971408311512534
 5.061929201548445, 11.029338932922354, 66.797354989450767,  4.231102719890287
15.931735079329249, 17.491935628925582, 92.892549721397799,  4.195279075505275
 8.924178029235570,  7.527476291993815, 20.894306948126477,  3.696919633700436
12.877932344459980,  0.292284654172258,  5.418881971749332,  3.688466479207571
 3.592752011185979, 17.990932653937229, 53.750169192038001,  3.775735291967768
 6.475231212852170, 11.576057838704045, 33.139287130527393,  3.776848520330301
 0.224102026862056,  1.227192809788680, 42.939359912882097,  3.925171407213686
 7.464473782765483,  7.739900464275804, 42.969675514705159,  4.203210644567297
18.184077640820938, 18.157553487541353, 32.695052494179706,  4.014182662311191
11.594876125571167, 12.706178292266257, 47.019121199516334,  4.048441342981917
15.188162802619452, 16.762266723189889, 79.895427340928663,  3.885176724828056
19.069935347456667,  7.323414988030355, 40.443981079776854,  3.704893772049818
 6.552673716574605, 11.248439997868742, 82.472911231249952,  4.297636875385459
16.853048317136501, 19.000963796518946, 73.685569729602051,  3.997043275328610
 0.533362169043879, 10.231752547236310, 78.338487372965474,  3.882497989196249
12.362123581609435,  3.196961702628515, 31.513929009664977,  3.735266938784589
10.239989151141435,  4.418922471283831, 58.572936486385032,  4.000497691524997
17.721226992233049,  5.789789480802163, 96.625391586281225,  3.754270903881698
12.555905199705075,  4.418491295710304, 61.906158397652980,  4.085756196089617
12.670275627772487,  7.914376128663292, 36.262181045211030,  4.057640361256272
 4.276380131804213, 14.369335691692472, 114.193036895764408,  4.160773220589904
 7.738988370110103, 19.028876336302417, 72.985287830194437,  3.831370659590618
 3.618495461469323, 11.136730277213813, 53.904027967705581,  4.205056186389421
 5.933631559075689, 14.323279937275590, 63.639287132226741,  4.140358396414266
 8.516247413576080,  2.753946963038906, 31.588756108409211,  3.988312216004377
15.818860431949270,  4.829020576935750, 89.319176758710185,  4.093498241962647
 2.002700588385603,  8.465282455786189, 66.570156175000079,  3.734112064843214
 1.698163353261676, 18.024743294121201, 67.893771425607838,  4.148954662460908
12.732738587511063, 15.105791829782435,  5.422604361890452,  4.278255728925074
17.944215853144520, 10.816316566008036, 41.891558503451407,  4.101353465514852
 4.839471776119501,  5.447505114921912, 91.319772647751208,  3.789569314986508
14.150628074671143, 17.371973986516515,  8.514551929302673,  3.861925270536854
13.248600815369468,  1.054905928813507, 22.924076707287036,  4.001634405424871
 9.648354353582715,  3.638370572786778, 19.819159804733616,  4.405456171925695
 9.641847486303888,  7.019654245858553, 52.078502627810053,  3.519346235486895
 6.884192269063822, 12.169406227716742, 86.685775377187085,  3.757830543939935
 8.271846627417840, 18.678025490235573, 19.214097904298843,  4.008617796592365
16.139508731596095, 13.553514184985151, 110.895275305563842,  4.018182564573237
18.711363361564306, 11.160686221041892, 73.021910322977760,  3.846370179354410
 0.687446523199255, 16.842242888149894, 106.126643126116292,  4.005670114845034
12.622995476142181,  1.282841491105567, 38.090076162905874,  4.129269914703251
14.206121003034204,  5.157651590526726, 28.704242739522702,  4.038485510671996
12.093848949586501, 14.587040274839525, 105.734513157896842,  3.597202754244875
 2.794869704734987,  1.834779494060554, 91.223708259286923,  3.753492465526794
11.931556717203886,  6.071945432717145, 13.377852335699478,  4.121745897865871
17.298665121134349, 17.543744567049380,  2.018085247639389,  3.964130342857328
12.184208207039545, 13.120003913774173, 51.022110219789823,  3.972029586112527
18.356830335544959, 17.160100353162527, 110.991517620702865,  3.630732325869240
 2.806534283523437, 15.292034150553112, 21.270927907955610,  3.859080091458556
15.646666490813116, 17.149326605792400, 59.042964552578887,  3.901958216073222
15.197164218701431, 13.881365175239956, 40.706546782380350,  4.274668379895671
 0.437185849177787, 12.439891429621239, 51.440304983379356,  4.226135935657330
12.624439457647865, 11.812582704495350, 82.324730842123998,  4.249589615036081
 3.921482582741187, 11.717485335140765, 88.873957137086109,  3.610108917106584
 0.891920685209840, 13.068921375870174, 17.866838764199478,  4.209037204756399
12.733700392499124,  0.806714773332908, 80.614288355769148,  4.001125404521438
17.559343166104043,  2.640819545899182, 117.385206971628449,  4.255828177978261
18.056384255110533,  5.049629543648679, 103.338623910716734,  3.980221562691151
 0.366756071516401, 10.915610980189745, 90.262604723293748,  4.147179394974572
17.606127545051272, 11.348289258750393, 83.672811996489145,  3.462460580518205
11.414396087527905, 19.044338660135107, 44.472173547310881,  4.187568782861566
 2.343545486745171, 13.104903531496024,  2.127036441330448,  3.904460947164364
 8.505837655056093,  5.297302935544487, 15.700254187005621,  4.043087202047783
 2.957204254440303,  4.177630378183895, 88.263601001903098,  3.803129238429183
 9.917673708196501, 17.022388053712181, 32.367870174336268,  4.232092867965260
13.492860449167761,  6.912462834636821, 32.290582230811914,  4.049914426632639
16.155514843583614,  0.482618132680267, 17.988404461585709,  3.890620985093994
 0.630565387799597, 13.291006059038416, 58.714548505201243,  3.809805406805123
12.966600733919325,  5.931328869063465, 70.357137065675261,  3.933292495146775
 5.554316803578948, 11.151280314704016, 105.376109402161404,  4.103727137277708
11.782973279598812,  0.850642490064408, 57.228439082895008,  4.034230564063409
 3.494348739605181, 11.392101390027383, 45.835480627718148,  4.155752976207068
 5.916333626552175,  2.233045276243501, 20.862180533508479,  3.795692872863451
17.759251973645345, 15.024756892604508, 61.431997929294099,  3.734420328727795
 4.415402558542236, 17.509679610933347, 58.087391197924497,  3.826484012417867
 6.456651914634453,  7.824356766390943, 11.317645704615492,  3.740041364561053
13.012388175046146, 13.568927866790750,  1.803914499330308,  3.600862096889061
 6.582776904033189, 13.792773819947946, 25.642439887712285,  4.169789631712088
 7.944547485051859,  3.065027517738398, 97.092989711830114,  3.794683093622041
14.629584708923415,  9.337386171723056,  1.962113212324576,  3.899647830019640
 2.735624527620151,  7.690522838354116, 51.704947373595679,  3.958006199777510
 3.764004805427948,  4.539167584022346,  9.688921408446907,  3.910244155980627
 7.161927933835984, 11.855675330128934, 44.120242700601771,  3.955703961211215
15.174697647972778, 14.267114711310978, 47.582035223487587,  3.790579127351359
 8.504870089298066,  6.995287257378848, 105.958244229285540,  4.099131740598327
 8.610815300807840,  1.730385283153782, 86.984453538007003,  4.043727593462198
 9.356979631308935, 13.723676710335811, 80.489366767754035,  4.076371128525529
 2.664111770562377, 18.765905065520080, 48.234912941654464,  4.072765141201611
 8.894254142000083,  9.578772269303082, 35.649618579669088,  4.092617031356133
13.721748581653715,  3.574377818344959, 16.105105772124023,  4.090235543012676
10.578971337285857,  7.826188973317125, 111.606423899618406,  3.818171060116582
 7.865564323087490,  7.284947141238755, 38.730604484659935,  3.849276258017403
11.351244592924653, 16.736013067717980, 78.450988649276368,  4.181498538664463
 3.004928576800137,  9.358368475375167, 75.276842249109222,  4.177603052597011
 8.783669876538648, 10.977063960829692, 28.115660673343204,  4.500874516853592
 1.517553644625367, 18.559078561764363, 39.654500656346642,  3.986957049007224
16.194138958594937,  2.610138868232993, 32.102841714588713,  4.074332037794349
 1.138839616264611,  2.675301655413119, 114.136693782664764,  3.719416512598075
 4.450909415725349, 14.653328272889128, 51.760278060279184,  4.179962882647098
10.970095669993174,  2.193374414279396, 47.714109435436143,  3.751057780237215
12.287677376182256, 15.352419722253899, 65.300570148508186,  3.968293026856180
10.003832376539480, 13.385676415413496, 76.583829015289737,  3.812428167804806
 3.026807125518247, 16.420705092104459, 110.906430844746765,  3.962184452998261
 2.098661150100861,  9.472372357099490, 103.195963962988174,  4.365727925588133
 9.249896799443782, 14.701501894639671, 13.495280633949433,  4.090753245493266
15.876027387911874, 15.863448313293633, 114.062227212642526,  3.738479627188129
 9.701008759751625, 15.473951682544316, 28.551531185368745,  3.978634261099122
 6.689250573264958, 18.764052310105420,  2.022242101049071,  3.923508715480172
 9.760573405697178,  0.512565777407108, 94.662042402579132,  4.110191838684095
15.878079440840013,  2.771843782123711, 43.946906672524051,  3.883200412985652
 5.172127530236700,  8.220978618656810, 88.787949080370538,  3.723553210796689
 6.640183407714490, 13.363084213999787, 98.124520270398733,  4.054856600369971
 5.606443434567265,  1.119086455950966, 40.541640725520018,  4.044549254582275
 2.610000887158444, 13.632608847493199, 24.860735357706208,  3.850239726475590
15.524652940690469,  4.305961908968116, 114.136957145119325,  3.909746960097112
16.162683957433362, 17.213495081693821, 104.196810575738937,  3.733926514283018
 0.859675489492198,  9.279157134806557, 117.499482386905385,  4.012805673525488
 1.296904975637718,  4.788108697833850, 93.284091129234838,  4.013251281884802
 6.924547142393129,  9.366477546915304, 59.825590707369130,  4.177334699937669
 9.403098536480101,  9.817741851079813, 77.861208496203091,  3.817774592354986
 4.296174950957826,  1.841311410686054, 73.656708834086942,  3.995528286988534
18.086848127987317,  3.975019356893754, 28.691706620190683,  3.985006554418248
16.436973760355691,  1.596040203874819, 39.956169541951709,  4.302460514004930
14.811692111990443,  1.617273182984275, 70.441860331457548,  3.907562255904242
 8.125213124747468, 15.498545400288597, 41.103142639730308,  3.790598190931706
16.033043125379230, 15.094765803700520, 51.385519957011013,  4.127229708039634
19.116535042649865, 10.859222868903625, 110.875477855119371,  4.008804674065994
 7.967991660857475,  4.959340886391847, 117.506184029914621,  4.008401470484526
18.824190811817360, 14.286295629735774, 31.311445859942662,  3.577745530153763
18.644727638642223,  9.713418054004185, 69.297429700910712,  3.852090562770751
13.944005899058418,  5.934552759332210, 110.614531893214476,  4.145820291497743
 4.192722057721509, 14.963489742052083, 67.203392753321182,  3.823941364318117
 4.727619722226459, 16.184093953661954, 107.014898816941994,  4.361222233057280
14.835871223200103,  5.595998554714635, 85.363636443572105,  4.039470769539775
13.837689051487565, 10.190902124018010, 18.795383644704440,  4.162757524801749
 8.143998306064212,  7.231149066283575, 65.703813135816802,  3.912490794099079
 3.236408959727299,  7.621168240952439, 47.698720950445228,  4.027840958380519
 2.808142853671575,  7.230472201471007, 12.789528669223584,  4.197425644720203
 1.336854884369662,  5.389802080924313, 117.631781131535860,  3.623176225311929
12.058166781218718, 16.192381286513111, 82.657644753471871,  4.394812158217948
 1.093748586362829,  3.592780034921951, 39.720106123771785,  4.188074012747389
10.502449255801766,  0.227234532844819,  8.688716070248470,  4.199025996066882
16.099813260783620, 19.073623751214807, 66.083589673505728,  4.082725065883844
 0.063288805474670, 14.010409916620977, 69.107659268254679,  4.430803920221199
 4.672455911928892,  3.326276115254180, 112.085887600137227,  3.945676176060410
11.061018201031379,  4.620127136065470, 113.867909304909460,  3.972145882766431
 7.742670827720469,  0.909287954327169, 13.133197644179290,  3.822652654122177
 1.194966296743989,  8.543227531157600, 22.669700745805606,  4.134728073348044
 0.230087551367542, 11.908597894700092, 94.847337222453731,  4.045694308496371
 4.499974682498578, 16.537742446977358, 41.093941396822295,  3.712681731341543
 3.444532847709526, 10.782100068704739, 57.981458409080545,  3.871243952298669
 5.390236491368846,  5.046937483468978, 99.296938318291879,  3.972349384713852
18.304796232263907,  2.037177923451990, 95.446212680028395,  4.146464016642108
 3.188522819202985, 12.723712939916869, 100.790757579628917,  3.857784671149054
 6.100324401518205, 14.228234914379236, 77.749386802315811,  4.203544257735103
 2.437288398931188, 14.703776798591003, 55.493932853433250,  3.945373518034146
 8.683485236501912, 16.868523029322319, 101.032212839592376,  4.088402317046344
 8.556738450376832, 14.775717628063296, 66.710192671488699,  3.868933663840793
 6.677550964424062, 13.929638683335799, 94.061127912920611,  3.714482815466075
13.203080587046349,  2.118733372312248, 109.036591910000226,  4.063570950931261
12.801142707320533, 15.118499965850194, 18.734982949000713,  3.855642380036451
19.037393900966027, 10.001406638931583, 12.051322745907942,  3.873883210441573
17.374239730316198, 10.309262200274114, 114.485183599083015,  4.054647315844699
15.997183096194123,  1.757824591962315, 86.423195173841734,  4.080684959557165
18.665845803774022, 17.138967954415513,  8.593791677031250,  3.996119178409117
 2.728003266485158,  7.220919242582606, 79.198017254513687,  3.764301330230821
 3.396783692101492, 18.304287420708913, 33.127932034633773,  3.987679114214683
13.182032235022962,  2.445824888597720, 53.648493773563494,  4.021118333535649
 4.114265524952812,  6.968974442749842, 113.792131217704465,  3.919717382891807
10.788342679548528,  5.655319660798087, 84.865058912469280,  3.805491895217328
17.906747503330809,  9.919283375910164, 19.618910171930828,  4.091501983506197
 9.581557705069894, 13.361448258733816, 84.405502442620346,  3.674857432040028
11.862713967833921, 17.324315198455722, 60.325302589250747,  3.808673144569977
 4.692523497657424,  0.658616722757139, 87.632106642428809,  4.131272225994769
 4.489961653623889,  7.534461731120769, 106.783291306785614,  3.920147341635841
16.014629618001671, 12.275649183501274, 58.217899446335679,  3.970146922333827
18.574586482065950, 15.952822042345813, 65.144934246656973,  4.041714007560053
15.254852358855276, 18.388316455585791, 45.694828676033325,  3.926059362265727
16.222059496956078, 15.776953403599315, 11.599412290680259,  4.190459445991892
 1.389742775728462,  9.647936673596043, 82.119753216062847,  3.892724060383332
 7.565576052338225,  5.053029262445444, 23.776942787080184,  4.330881530351654
 4.085741346189058, 16.709481228698699, 100.590651172495825,  4.248996194314131
 3.574695681291768,  0.332898303458103, 44.534463725447196,  3.556889183566152
 6.310524831492880,  5.455148989878571, 46.352524935711955,  3.890849256236657
 5.146225268882289,  7.250080606749518, 68.603863545776989,  4.119112260599121
 7.063604617802530,  0.150681011183969, 34.150990756415929,  3.840748321028688
 9.102809422371871, 17.224036849688773, 37.010222032766684,  4.263943860193195
 9.337497624627796, 16.110788679838830, 92.545103792284195,  3.508033451301762
13.883689916088656, 14.411526843450218, 14.783121329804018,  4.158569581046955
10.376250556577508,  2.818240870582259, 69.007635875407672,  3.811999287438424
18.235260335116777, 13.007578972613018, 117.434493046011127,  4.123513573748651
 5.994343384509378, 18.778361393400150, 103.662541470526335,  4.013790664023368
15.486123171955294, 13.803180526303514, 95.219869904871175,  4.189874407547011
 9.031768368065357,  9.732488031604182, 88.950957414970063,  4.116161183318374
 4.131896539313389,  6.584610070240815,  5.367767181488451,  3.683232705704168
18.693981952178888,  3.363490444890618, 106.881550741439341,  3.884614539368364
14.895455691823214,  8.291097277644552, 52.321142393268509,  4.006772855553310
19.117330111559241,  6.544935400077543, 113.975149448378573,  4.180555584455884
 9.103302192200079,  8.852908934548896, 13.804968100382633,  3.802992525757441
 4.409763078098282, 12.808371323359193, 41.557018519683808,  3.790083599870836
 5.979295617005998,  5.682372420442424, 18.883576970938194,  4.004417814511280
11.330700128184088, 10.829407579064679, 60.798872468892839,  3.764077151481063
12.333816496269122,  3.270107027302308, 87.659144067918234,  4.114094249044665
 6.514923004291926,  6.286541027578498, 78.552788017597521,  4.104052871160506
16.860684425831799,  0.530088984864070, 113.800611691028564,  4.104863176859953
14.573218200432667, 17.811759216074197, 110.987134923801221,  3.974013336767314
11.817287387252255, 13.311975288303252, 68.798713709347354,  4.181188563939602
10.813400606160704,  7.094880452751155,  5.771308545357420,  4.044560777280153
12.318017497806608, 17.004225067054659, 12.038040013396362,  3.976984413441028
 8.800399872238351, 15.433925854444180, 51.164921747910498,  4.053170562516364
13.536227119869132, 10.468346540729412, 25.990560556815463,  3.868691446794556
 7.158736777085456, 13.513118010176811, 21.560492994472273,  4.087472659003536
18.374538461419309,  1.558348133527602, 46.852259264192391,  4.104564813252618
12.129075445801307,  5.117004892061296, 22.697783839810196,  3.708584007413442
17.764989607337373,  3.274297991812312, 15.609521023174683,  4.073470357918978
18.378649678860512,  7.170893079794033, 53.957962119827528,  3.911436255763242
13.373173663305311,  9.438743528535523, 14.878093203577638,  3.766010242733382
 2.840886177921724,  0.320301327656326, 61.261490838884100,  3.942154763417841
13.310351540303285, 17.368936723993301, 48.880551083136105,  3.772137413855460
 0.567629606238492,  9.691270848210353, 30.898405226932418,  3.968562515915621
16.520056399022049,  1.426462519466958,  9.217366387123210,  4.110499277677328
 9.592457936215702, 10.717038570221503, 105.461506012803056,  3.622907127437953
 7.861962265435472,  4.822108846596397, 82.563071297677482,  3.812164323741368
10.120402126768502,  4.804298392610032, 109.055474910031862,  4.105434386155886
11.864422621633016, 15.801216315948377, 113.362071547007631,  4.215665058802447
16.680042850448089, 10.313855046636366, 107.607977188075182,  4.205205928615753
17.898088517310210,  7.047755018774027, 110.069945894210363,  4.060100191337966
16.770267125931035, 14.990349010769892, 34.565400840155576,  3.816787330087385
 0.029419591004889, 13.613374832265539, 13.510104607562713,  3.879143629159090
 6.048113339594281,  4.624819120782101, 85.958950561268949,  3.863398047554313
 2.877278353901311,  4.721853612202399, 21.288582287549549,  3.999090920207549
15.032668405199303, 18.556282834402488, 55.426849327862620,  3.891426756805523
 2.648146150400641,  1.868763790842421, 57.575255596080339,  4.041371071777465
 2.319448862698687,  8.198562382457807,  8.555319367161131,  4.204420707710920
 7.569284497012858,  9.935376040289112, 108.757483201494466,  3.918579134034359
 2.342520703782826, 17.690168109077803, 84.809895136283174,  4.242639786909272
18.992089524090407, 15.018967502051312,  4.939441003801601,  4.465331387963925
 3.454268777192020,  1.861782292869844, 28.336164910790874,  4.039030764225130
15.844921935094016,  6.986177380462212, 16.625711561217205,  4.013874028372950
18.281214994240113, 12.133423465690877, 47.685351048605725,  3.616600107377042
 6.707012739107973, 17.133764157218099, 15.775381503942931,  3.928535540002242
 2.472737590119098, 15.477383455596332, 62.106739426626319,  3.646115180936113
13.951147926775493,  3.677741260828540, 66.963488494091521,  4.213515717652609
 3.805834015685230,  5.686311102659244, 72.025384146693014,  3.849640534918461
16.577266687075007, 18.798231096757572,  5.648015718422012,  3.815048246743269
 5.160057836926786,  7.921424302772818, 22.044635906434547,  3.891245626760729
 2.189684366177880,  5.549106875697350, 34.585852381462153,  3.885783312268406
 1.619100672706407,  1.144750722846419, 110.457610791944475,  4.204788212230377
11.466156027407886,  4.508978634068010, 81.253993443314400,  3.871778514014282
13.941662315689305, 12.384670884735229, 113.985242865155470,  3.856611620394018
 3.895705266617716,  2.129824822628962, 69.443688502817182,  4.139971354806059
 6.101438830609649, 17.421163868161308, 61.454716237677317,  3.444252069405136
18.863039597698382, 11.607984936025522, 34.413862412301903,  4.112094981769213
10.911694610640922, 16.620041871127103, 117.429220453576463,  4.110960038203733
 6.684480066049005, 13.382208418556935, 70.008600061464620,  4.186653129193571
 5.307338895735983, 10.409374307895195, 37.199372084406136,  3.893028363907398
11.257240782542812, 12.620513656733284, 117.603309139243450,  3.791875807937251
 9.368243607468024, 17.797381203983740,  4.996557042617939,  4.083921325261005
 6.916440618740728, 13.914220991174346, 90.187396799427987,  4.032193874143410
15.884415526702375,  6.794254979642075, 42.964895238939718,  4.196253126391837
 3.955715998339779, 17.722950223925878,  8.496229183413330,  3.456985108852803
 4.799502546942724,  7.808116096419948, 63.789702027754203,  3.879606184759742
 7.112340965970167,  9.217673841711360, 47.047263775459783,  3.907290124501392
 1.858204515903194, 10.979234908442862, 107.239268420239924,  4.139045014321749
 3.367606983823968,  1.855711331199785, 101.124855091529099,  4.390137053002356
13.555113259638006, 10.970846254923460, 75.106923438501568,  4.473511914538629
15.056285517823961, 10.620189310306479, 45.453358012100509,  4.368442620619324
10.251644808400213, 11.587424639766406, 19.991785693526626,  3.835763782206501
 2.767796712561176,  8.416435306412556, 92.666754770497079,  3.866233082099651
 6.254573671601354,  0.378598671260646, 117.392547688882246,  4.063714764019773
18.353620633551586,  2.235762000257336, 68.631455538569497,  4.089110822390977
 2.231633285228713, 13.516823134183648, 76.012596233760760,  4.346777418131883
 3.799700111339226,  4.908911294866498, 25.453675508568185,  3.898867127881019
 7.302656107804588,  3.676369809000290, 103.619491236271898,  3.983023317344782
 3.237138633433875, 11.532325480942895, 85.131447814406414,  3.895859237611663
19.099153294153552, 17.376681521136735, 19.475638370220960,  4.018019854107851
 5.666946557180225, 16.264609403287125,  5.542917218120884,  3.964055002312306
 1.411200265735852, 11.176403637044709,  5.881380608821090,  3.928699191741828
18.867771845619988,  0.014788108299105, 28.794076642876025,  4.043902752984788
14.080485585687223,  0.237222856238907, 117.524629124763109,  3.960289461194910
14.786523361892996,  2.238652674931834, 48.453013931931167,  3.857791182182700
17.234512562850561,  5.911975026002653,  2.059050934082986,  4.045115499203229
 7.771333143224708,  5.567001013448468, 61.833554636437647,  4.465966359200000
 6.457475367707302, 15.398685876641091, 33.906304396948308,  3.990824102821613
 2.341994400659760, 15.727825247535012, 11.172688090662318,  3.936451447462660
 5.110280159931802,  0.216726562583114, 97.529983915993810,  4.057278491930507
 2.647164273389308, 16.422613446717378, 29.814220788560725,  3.764437495114801
17.517351357937290, 16.720042792813270, 76.813512611389896,  3.824506540888538
 7.453478182718850, 17.860840235860792, 26.249918921577649,  3.970527296805373
13.621429964393670, 13.345730217634513, 78.610627891214236,  3.972883020601595
 5.982751427330731,  9.947455017825574,  8.052549942275528,  3.973890688561524
13.809843486664320,  6.664262445138277, 74.778169003720947,  4.013282443844408
16.316541295920121,  8.411952960298406, 34.781281115982821,  3.868565014189965
15.136965137612728,  7.226614713275221,  5.146145292197572,  3.806716557101846
17.849798290207360,  8.299885375029385, 93.372468439667344,  4.300847807678280
 7.206379492081767,  8.618515919254293,  4.589276586925427,  3.800471141640583
 1.105433018540792,  5.643809449450465, 82.459852055516052,  4.157968696549098
16.836465987113176,  3.672592970875630,  5.520323265253827,  3.876595506385665
15.877957826413780, 13.893095972409462, 25.045257107791024,  4.270687991149209
14.338610910011758, 12.126434996043843, 36.518771871090841,  4.418157646382332
 8.732857754785691, 18.179151761660346, 114.461619727246415,  3.876228005375175
 3.137629618256044,  1.165571155561528, 106.362109221350309,  4.402267626885878
 9.952617376746618,  1.480083634549611, 61.164784669815489,  3.810441966249738
12.380750760593280,  3.059263834964748, 41.847794793498728,  4.181015559305799
16.897778083604795, 17.312562694874043, 42.267748821263631,  3.958747551718134
 7.120807798901364, 11.867978047192178, 15.560349510437952,  3.804413641699954
 3.115066143387360,  5.000245458351817, 66.199778802695974,  3.536540522489192
11.557270718901032,  4.116422779879753, 105.294510600938864,  4.051583263732023
 9.859247859963208, 12.674401021036022, 111.107540246203300,  4.208916250869569
 2.494229304140136, 16.183655907110698, 15.566680825415574,  4.131881296194102
16.928664161715517,  7.848820262587614, 82.916571044380817,  3.818265734801777
14.627550920550568,  1.123648135536155, 97.266188571840900,  4.160402467368449
12.821130661348551, 18.463743469397599, 105.992034122038106,  4.190480900653574
14.736319920307952, 16.974823332021916, 62.776198518934201,  3.751761402221965
17.648375046571473,  9.690615975044988, 65.532974728660790,  3.918606428955019
14.785075166856963, 10.500565202223319, 68.162528861949767,  3.987018167849790
