BANDS
8 8
NANOPARTICLES
cell(1), 19.119
cell(2), 19.119
cell(3), 119.491
 2.749326752353737,  6.341079078600783, 54.081908191153886,  4.148346102819848
10.567941633799080, 14.561460488292370,  5.117442329791830,  3.879626500734483
 6.607627358345559, 14.637520224407526, 103.348844392552635,  3.835324331476946
14.362854521590387, 15.829122288320086,  5.299668951211224,  4.078714952703472
 6.389280530203518, 14.757877033135493, 60.750230488001868,  4.000628251933392
11.190093487202095,  6.538174590916042, 23.921811289290829,  3.757766379232362
11.384956865802270,  0.445469392758801, 18.345256013079986,  4.141765854960823
 2.591348385410966, 11.465974483013603, 79.581817082529966,  4.198563175336545
10.918692319419941,  2.030062514613008, 93.580967196580815,  4.116838296656137
 6.555018390227196, 17.524088733176509, 29.322865588341703,  4.185963109455840
14.294504556638897, 11.472511607267522, 68.015715805211798,  4.129753423442393
 7.651401564465063,  8.011307599134900, 65.788035056969093,  4.022446752538010
 1.522199540714401, 10.898818904882775, 23.128900017143490,  4.006233771459768
 9.831968980181420, 17.317157761740066, 35.254852276521412,  4.249675695588789
 9.242490478398263, 10.645252573795219, 113.643613845891622,  3.907768103225251
17.585257821312485,  3.614684626009577, 76.225013425966765,  4.328921289589138
14.451305178008550, 13.831107833033013, 109.411643525608596,  4.105114202173998
 6.419022936108571,  8.135791230834053, 53.905242683516903,  3.746728965712314
 7.207202953276728,  8.715396992094291, 108.040848889415869,  3.988801568926370
 8.421534504843152,  3.734866623298261, 86.071079470862358,  4.272334915708011
14.119524141407323,  7.001758899089154,  6.557837881959831,  4.249970233127279
18.547896811347641,  6.813596277991048, 13.676939760564148,  3.953453684755059
16.083278032194478,  7.507303792348547, 49.526157180720091,  4.076455067062579
 4.565069303594269, 13.917291928521980, 53.200231836157947,  3.971821110579537
18.228175574608816, 15.571873177267866, 36.709728677360850,  4.211057799136366
15.420495849565379,  0.542763991908650, 41.317260454313256,  4.018683017745246
13.347469254024206,  1.597671010040041, 77.842610063118002,  3.932812414277839
10.177641621795491, 15.923722393000828, 23.682951666809391,  4.309421732128302
18.073931657827554,  2.733303375656616, 19.780721855462986,  4.218972003907788
 1.385273253175350, 13.048736429404769, 31.210138957517593,  4.227268300895090
 4.478157551532133,  6.892143197831241, 68.953572445191696,  4.144671183585400
 1.107331518841562,  6.974640331447964, 49.779672011283573,  4.208232381397003
 1.646175975141404, 11.420188982006838, 15.720001448116754,  4.042303008649437
 6.075671141284722, 10.858914241353993, 90.218149142395461,  4.088553276007050
 5.620357960927567,  5.213141444648111, 109.380654683430549,  3.894527445551282
 4.455577142697060, 12.771635532790874, 74.902347355238234,  4.209011142721750
15.786833315018958,  2.090726043023292, 37.480325632287730,  4.031775016518012
18.694540710079206,  0.011940696597274, 39.071254584377662,  3.758183707907780
 2.123575725643756, 16.591776177705935, 46.097059227161900,  4.359477630221958
 3.563511529324003, 12.269857736629641, 62.344116859868535,  4.124860055466692
17.569160112316617,  4.794705026533681, 80.514430195752567,  3.894326618944224
12.902779967112487,  0.633405149950195, 44.464766646892286,  3.725372323361328
12.693414125238405, 11.324903032289454, 33.003198174433685,  3.978727770733454
 2.999673427720332,  0.888048677309885, 117.403122790602964,  4.104965270313100
14.542894615253815,  7.791010073764881, 11.499290781134375,  4.002689054532743
13.524047785215858, 18.343001344971785, 81.161912387288609,  4.233031605037822
 8.737084443210538, 12.363457981231514,  7.916548943440450,  3.817979037346088
14.962823323381151,  0.595775858126433, 11.494313548294221,  3.848546750755593
15.358702608309265, 10.902152411109487, 63.986096984249677,  4.113173999478667
13.756174727230466,  3.150002768143577, 47.384222097508932,  4.096349823861389
10.260644916566783, 16.698402518922574, 30.967652017208426,  3.980784575465883
 3.917563850348340,  5.774803881140731, 91.505527049617669,  4.284816487450218
 4.160912322542855, 15.399499357923014, 96.719182271538457,  4.069998663734048
15.987950570819145, 11.286189521365126, 38.926167855778949,  3.752349181761189
 8.292665451056116,  5.551836449675010, 81.894047270827940,  4.300881934607523
 5.940618615638619,  0.111607239471759,  9.012144709369021,  3.927613355485426
 9.730352658928755,  8.782243347290846, 44.281991728387702,  3.697730242390519
17.089802021464134,  5.660467769976910, 61.494949175875114,  4.155825330301327
18.377844192967807, 18.056635474230362, 30.238714424268171,  3.900790809810728
16.953871811982463,  2.089806486092962, 107.620204794362735,  3.739778247136933
16.768606849533342,  5.544689486663464, 36.047886583139629,  3.670348397673299
 9.062987783641491,  6.499370111818392, 95.854964251367917,  3.736959113019270
 2.164978166233233, 10.201906683711929, 69.345555477152175,  3.896611666785952
 1.347215932557671, 16.087013391937099, 71.528963354286049,  4.193780655662152
13.771272793344524, 18.243761108179392, 98.956901311089425,  3.791132271011756
11.941677449795074,  5.592971756032897, 44.268749071826470,  4.046849912963771
 8.896805112813949, 14.207026247030281, 88.316712528085674,  4.201010731772644
 1.658416523295633, 12.866335456697518, 86.123565979733570,  3.736576821224354
10.474222092105379, 17.367943976478291, 111.159336555394404,  3.993661344842272
 0.903414762774790, 10.025577632589764,  2.250704064850880,  4.463308416087315
 1.063224528769141, 18.578793768892737, 58.059918748164002,  3.720269864804834
10.712603118980955,  4.851588841020422, 65.379297149454956,  4.138306134690144
13.259667548316765,  2.670923270749421, 21.320066927166149,  4.058124898895210
12.857879677281604,  0.521402495308807, 50.496239857398095,  4.112412458823058
 3.691031416844632, 18.252946195834667, 49.837712364272981,  4.113840334196900
 6.366806912303263,  9.514985030575968,  5.591177921101261,  3.947087981880932
 5.759549404298290,  7.522868001873753, 100.878473178011120,  3.670895887038880
19.095020626483759, 13.625281531037668, 93.898572611814714,  4.374662786316070
 2.971415523462623, 13.785176367738110, 35.600021616663945,  3.894850638786928
13.386266288022034, 10.870057149438288, 60.172253618915605,  4.332517652859038
 9.426831000118412, 11.158566882121471, 92.575638047496568,  4.048293493875049
 8.454691368992568,  9.479806742021502, 98.478539301170201,  4.015674184163801
 1.670296773499275,  7.956570995324206, 117.642404207795920,  3.689215154632565
 5.083288356915451, 17.769433140589449, 58.399431661805316,  4.012256028012802
14.993550359080029,  2.936922498694154, 110.752584617128733,  3.765070205983708
 2.156140694084526,  5.793932148477515, 30.715061500787797,  3.829299898544407
11.221316728036872,  7.105983940187952, 16.236525444728112,  4.360773850477058
16.744446731684029,  5.905148450896643, 72.570129603073909,  4.407490419029119
10.626084435173212,  2.105838950909138, 73.478266456822212,  3.653016643554556
 7.742174145192973,  0.187090233770283, 99.828736218457991,  4.037446818676659
13.044945450998100, 18.804005467648015, 24.035411342708962,  3.815385302213049
 0.086896883928401,  0.223821932536406, 48.426584174615229,  3.870261761259218
18.047745993385991,  6.479238862782384, 28.715333989115951,  3.796892875863100
 9.251797872654155,  9.694502751171717, 22.894569451055201,  3.786852646004513
 3.604805349275678,  5.970876285814556, 46.608141589964646,  4.066013881982265
 1.253302076260949,  3.767850546178923, 72.210118961699877,  4.021818474894816
 4.019853440779548, 13.741527971209159, 22.401630474238690,  3.698086990805158
 0.880703492261119, 14.908406884475749, 107.773660345138680,  3.983782753321846
13.293313406517580, 14.050473435060294, 102.320797623265165,  3.319918917115374
 3.361949256020809,  0.091611589777123, 82.936358294161238,  3.898170956474640
 0.639604602716568,  9.109424488576789, 32.146833604371459,  3.957129189642730
 9.922185224294982, 13.044549583156563, 35.446146755760488,  4.154986850040904
 0.613971186110713,  9.220072183294546, 104.519451185257751,  4.330271594455994
 5.272062653179109, 13.362447751156646, 40.118067515192948,  3.875283772212531
 8.598167719928549,  8.992093699551306, 19.057645925902417,  4.065014124435283
18.968006058699778,  6.009229567319228, 101.719753281722674,  4.096826601934454
 4.656598057232975,  4.390974993924944, 95.932261558296815,  3.761149296561507
10.332310803357016, 17.406744243729690, 117.475656383158366,  4.008447469851641
 6.741221383391331, 18.411458767198337, 103.520646041756549,  3.715521335442764
 3.163701701279287, 18.620530545013978, 19.515616936329362,  4.056957092618252
 8.403509374795949,  6.207277170057475, 31.416466074552517,  3.956393384853337
 7.440056365819899,  1.165545430560821, 110.730354316985398,  4.158717003247652
 7.864685618503849, 14.908980607097780, 92.267983274547731,  4.043803013614313
 8.370192676703004, 15.366264053377726, 114.312570686172265,  4.233349984596660
16.209846298135467, 11.502021329972495, 46.072557429580527,  3.988819822708104
 2.744260470765415, 10.138520194803599, 83.634832963228803,  3.951735178959767
11.514652305258988,  1.163948383406061, 29.420540814778182,  4.021928804044345
 8.266313771992456, 18.875764536406844, 91.758557320258731,  3.726980244834786
 4.248973566592831,  5.623650428856933, 64.656537794022938,  3.877743225397643
 6.537974955738279, 16.665956937589364, 12.128805226541459,  4.216449037814097
 6.504609637101976, 11.378089446896780, 85.916869069714181,  4.329037354444504
14.142282009664441,  5.276287378377963, 107.497136046883455,  4.378292374517311
 2.752247802291634,  3.536051690537039, 80.252486377574058,  4.085998709104556
10.774319254969756,  3.405432367934610, 112.088103142828160,  4.307111352079349
12.363364746528516, 10.560720058817669, 46.559491561374152,  3.976288732978722
 3.365741504359353,  0.361704306805655, 72.916034147998815,  4.083404936303788
 7.404977462914279,  8.617232547456709, 10.071618374051276,  4.435797538808475
 6.363848759752736,  5.307486097578095, 77.882796690520834,  4.401539242511681
 7.942974236383045,  2.598551607816957,  5.157029103390300,  3.937851875040642
 1.333450440788043, 13.647342479396439, 26.655183263633464,  3.892982084289261
 5.100904852114857, 11.025512336172980, 17.946928898896804,  4.017614764046897
16.645670709380262,  4.248609907666332, 11.200188318665639,  4.071735938251616
15.503315291417644, 11.407095079429281, 95.693743756263814,  3.702749696878740
11.028549604163326,  4.037722322933060, 104.918457552475303,  4.000839826949161
13.185563393381674,  9.631254183210867, 89.781712628397983,  4.052659640300258
12.732693225072465, 17.402734504266448, 107.457102827511733,  4.167201553436426
10.243158193717248, 12.348110579692895, 17.114255898211145,  4.147454795956675
 7.256911090427978, 11.620371260452002, 64.060489187267294,  4.009266366102174
14.629036285314301,  2.944690038368353, 81.932439155321092,  3.603138094638340
15.362177216570043,  7.864164677254536, 81.855853414226658,  3.923113783228138
 1.696276795795264,  6.277707187181809, 34.887850135474892,  3.858400539308185
17.972934006469725,  9.203613866375292, 84.654154586012652,  4.048332919545004
 2.800672929710939,  4.144389135113970, 19.547384640553332,  3.923990394535492
 1.655196657178415,  6.451296216887597, 94.785204474197485,  3.783378520753916
15.437569411847358, 13.717453573096343, 14.774120324886962,  3.990402607678831
18.042765835245373,  0.232161500712399, 117.472326692800763,  3.960336385286720
16.162495255991953,  3.171869101465571, 94.426525446195640,  4.133575095191354
 5.083460519812339, 12.994051304317210, 82.539463196723460,  3.570367979361631
11.119600048133503, 10.948220187020123, 26.323919339584670,  3.964382213188704
18.704204932423327,  8.680705602510896, 37.527902456140900,  4.258323625345927
 5.069019576067502, 13.541660409141098, 45.746548418485951,  4.143690901765309
10.019646748251802, 17.901586496482480, 53.140802955079302,  4.168532590734644
10.157438766986882, 12.997350052670637, 100.576384780777829,  3.957338622399218
 6.613890694165921, 13.013410151718729, 78.687503994647471,  4.485712776852451
13.180559265351194, 18.255853357186279, 87.364253807394988,  4.198296548694269
 2.746973765180514, 10.299169702098959, 52.053453611495257,  4.366256059107197
12.275442983792354,  6.871369706773771, 48.169704024877625,  4.062124330332379
 1.031717958816949, 12.151639772755745, 72.569055895830815,  3.969989721265557
10.423414631134216,  9.595141976438191, 12.881743286116489,  4.002353916948326
 1.883174514252997,  2.104724776739608, 53.879714932732611,  4.505098312525482
 4.972371354258213,  7.342074456858033, 19.608779058321147,  3.806130813399168
 7.442966459413723,  4.080178541029828, 71.601865927416355,  3.596994756292848
10.829813919505245, 10.170487675877290, 109.416802986138677,  4.138259890465287
 5.651054329057766,  5.713708195487239,  5.262695165295055,  3.787095591780776
12.591387595656794, 16.282793534978669, 16.113775445617904,  4.034378987438524
17.024002914069762, 17.187287729994971, 94.043938599750632,  3.869105450879957
13.877252096811361,  8.334767164785786, 70.574183753021487,  3.948480516671582
 9.729012135686672, 11.551312078886856, 39.568897674250486,  4.027546901739994
16.211782102994793, 11.867488537705363, 102.692917846899903,  3.949654803296985
12.395901541548874,  8.612875051882506, 97.716290150667390,  4.078682989894153
10.310935903928760,  0.211530881177819, 104.400567824846249,  3.826995547459325
 5.094067273989944,  9.208690588424846, 104.462397071277650,  4.354658216837032
 3.245399259871955, 16.853209331278336, 104.280104543577465,  4.049253804544097
15.233057589054642,  7.667862380687634, 45.643765855603476,  3.875329740590616
11.109004492934332,  2.859640166567332, 80.741645888866685,  3.792538466182333
14.856702359465629,  7.728223282364559, 30.967544150542643,  4.148092300788718
10.943151062696593,  9.098856198487123, 29.988324022228952,  4.238963082851842
11.353306718370796,  7.788759036678768, 40.808300457150182,  4.184479138741182
16.267448796452513,  7.118116748617938, 111.117863749486560,  4.082750823413548
18.401886002812944,  0.329943493704534, 110.702203018366447,  3.908900569313837
11.882994741871943,  9.344972326372611, 82.139776220269439,  3.607813179882952
 2.996640002586835,  5.209200117530156, 99.273801042723520,  3.876134114563512
15.772841314052782,  4.021147141371490, 43.780038358584363,  4.272550441247295
 8.441991982743366,  9.702890234247798, 76.381699555155393,  4.052734519647890
17.904444795915126, 15.435462583328546, 111.206675824107464,  4.097688139025750
17.855566771329158, 11.868480676349483, 98.846995988133443,  4.009651286696243
 0.326575146584238, 11.796351056620374,  8.967601073829933,  4.107213270171108
15.469526745319437,  6.032471286418844, 20.210768034286389,  4.224172376014786
 5.040981366414544, 11.162802629622369,  2.055910735696998,  4.079205099628560
 6.684932963860637,  1.848833040456034, 75.106799663406889,  4.390595508796513
18.449862895216043, 11.356531397357038, 117.452389266402051,  4.055556907163121
 6.586699096150207, 11.115769893743927, 36.984601022970388,  4.138332108341178
 7.595208839850572,  7.503348016553926, 111.853999880753165,  3.903830452624692
 2.168223487359225, 14.188123390870469, 42.548271321845760,  4.159720453606521
10.098348272606268, 15.843271780252232, 19.442078410426266,  3.898729856240610
15.839941548356242, 11.843121137980345, 91.926254519158263,  3.911866036942138
14.633906999344953, 16.774403741625584, 38.396794852903312,  4.071911781455449
10.447978715783265,  3.699316014808065, 49.741653160227038,  3.840592633309696
 9.135229027287698,  0.328455084303484, 114.293420585890090,  3.898683144964422
 5.871509734049181, 12.363089126888628, 100.005625114933906,  4.256047079717282
10.961920136082702, 12.715415314725751, 96.406105123719954,  4.025394971215774
14.027234512462885, 15.061480439207582, 59.558635501612926,  4.194246350550414
 4.121508765182846,  7.691943069579088, 80.661677446492916,  4.176964789424214
 1.650053051240906,  1.948013787603675, 23.053214016465656,  4.395604574046166
 6.284121833688584, 10.888440039845980, 59.672354988051971,  3.956894268230112
 3.317393717231904,  1.846195401927422, 110.001601999211744,  4.277174253359925
12.451675077905914, 13.985191043117707,  8.484894415028275,  3.901821585405534
 6.616509597464451, 13.769084858961223,  4.932187035575326,  3.987341092390397
 0.018859844825483,  9.337940668264402, 55.124135416163931,  3.894737207192708
 1.942763393590621, 13.803509727267828, 100.425258328296422,  4.012387674196643
 4.456036029194832,  1.019097887421524, 86.783911433689198,  3.849719972986338
14.164648644817575, 13.874154648509402, 41.196630058527901,  3.960952356078677
 5.458982084635622, 11.823227071222812, 114.042243409790274,  4.055237625200545
13.875773892044649, 19.059981515993041, 95.224910164321884,  3.816427842489437
12.417986654425267,  6.805064340360083, 110.791175833052307,  3.659633617185389
 5.089697453479505,  0.122631997662034, 113.941061635878967,  4.042212633054328
 4.394969065829129,  8.967402099279147, 76.698054918896219,  4.109830117504547
 6.866376710448270,  3.937449863161865, 113.815571817677522,  4.173986569209028
 0.045152554181434, 10.397802132630993, 62.831845609819943,  3.882341829577872
13.327134076590841,  6.500766197216523, 37.180819625938746,  3.794974150465924
 1.948415573168068, 11.119911542630096, 108.163170607555983,  3.830341329502523
16.501997642206359, 15.034727983479016, 117.338058271737353,  3.942378792293910
 8.941899505689610, 18.921757750845263, 26.240555479170194,  3.903524793159161
 2.438895819894859, 13.053892464058684, 111.532986870613385,  3.895472583818231
 0.967278656304594, 11.236799252154272, 58.894635028355722,  4.181030875218525
 6.234789187651001,  8.405254407527144, 45.099856150863928,  3.518494325806402
16.326630156461338, 18.262522882521868, 58.222829887959641,  3.960396836604112
 7.309375406769753,  8.138861623208225, 40.434732733095714,  3.959070482136485
13.909528602464418,  2.966145726921104,  8.549447498465481,  3.899669080634650
 8.598003419323591,  3.614649131775352, 19.032729681619156,  4.200562955195377
11.445829077337725,  5.613970672656802, 10.208895057494017,  3.974899608567413
14.328349888778179, 10.223878648599282, 42.750635197396399,  3.835734384606986
11.680010860388863,  1.999778761038300, 108.309231173698180,  3.731686147917397
 8.922506815772078, 14.742660348069194, 45.503900907430278,  3.938888118993192
 1.749472954087894,  2.978815988055487,  1.932574068742712,  3.846955784398970
13.344050822122115,  5.554060938286920, 101.963907937461158,  4.075059278151236
 0.283017209300223,  8.169889786678064, 41.721364085758644,  4.253457918851625
 2.578039771822742, 16.137907607661706, 38.929074593414349,  4.101179019636065
14.249624945311385,  0.457777075681871, 91.320659967090805,  4.066962241219097
10.765419233448878,  0.809600413935238, 97.358124233520130,  3.789912130938083
15.481908295936170,  9.036691382021546, 34.864569507438425,  4.129134797114021
 1.273127947732014,  3.843099631248693, 106.774810934856617,  3.906164868040558
 6.918575431195339, 18.756525958972627, 62.073306360665661,  4.409353503293001
 7.891310713087648, 18.257933247541143, 87.839116480307524,  4.170733684144585
 5.562810597708490, 18.966524980990521,  2.100961693331842,  3.904560886691047
16.252868696718419,  7.871847584732970, 67.366363250257365,  4.081210134857153
 9.443597571315516, 17.749685848831522, 74.483445219832262,  3.937267925949564
17.203782464970626, 13.774161092466132, 70.034619835443124,  4.237565704731533
 6.221424492974165, 17.936323943487764, 46.521134235462924,  4.233425523072032
10.460532243390800,  5.299095390656173, 61.446667862275739,  3.674642022465379
15.920748425584108, 18.787430825854241, 27.055571221465293,  4.204331103118941
 0.396739959786934,  3.153878905327902, 37.090271015777716,  3.724844668189038
 7.685606581103503,  0.340664350711050, 71.420683041908717,  3.800154227211001
16.424676058578239, 17.580961982922311, 114.616618949335034,  3.490581482780707
 1.397718252157567,  3.535194595060914, 66.857676454186688,  4.138341618122197
19.061784529589204,  4.667377646125842, 91.808022671031821,  3.915371046154569
 9.876059381696082, 13.748880151396724, 53.032882648392551,  4.060742834345779
 8.421839268909926,  7.163511682086470, 69.553896655127971,  3.786266515120995
 7.819857572689952, 12.632933964542739, 20.240857955840138,  3.706315068004230
 4.503675712324111, 14.291362028831003, 88.513192492097488,  4.057097893332886
 1.256855934622834, 13.707125202295687, 19.414099836612476,  4.269603812890147
 0.307560596804530, 14.315463456547612,  2.090674730753909,  3.677996611093640
15.577918248440350,  2.345515875195723, 31.918481010915976,  4.207113267227203
 4.524573298069094, 15.890113110799451, 64.301223984151832,  4.207435235349846
 5.258859170465588,  2.728415289132484, 16.584754265108796,  4.192388467928522
 3.232417525299979, 13.818484393705408, 49.342179753923062,  3.916544264007427
 7.551980926491391, 10.561120423677272, 28.235664084602256,  3.929127394928173
13.717469807703129, 13.819373557421596, 24.888420497013907,  4.202014487053538
 0.671976932940971,  4.895560319587798, 44.126079425744429,  3.892007097396487
12.901722868539759,  9.252823299617843, 56.357776834203904,  3.997536535998166
13.566436748746293,  8.965458086559725, 85.664814840659616,  4.213156844218624
13.505498100843257,  7.412948786802604, 27.034824322490348,  4.143294646122484
13.442195173098673,  3.129975155953913, 62.861730121368375,  3.843428082293447
14.527541554003340, 18.113838199553030, 111.150870345957514,  4.100249115918762
11.310860173733289, 15.820263236622241, 56.439461309274620,  3.982999921857890
 9.014642602143921,  5.890774430692114, 13.074461851656743,  3.558743247681176
18.917173598181893, 14.770003577441095, 103.798051209897267,  4.031693353083372
 3.264710106733184, 10.493903416196870, 93.168446846385024,  3.865437574410138
 0.743382261393083,  2.264308615619302, 103.088759896740996,  3.988125302816495
11.838975241484551,  3.761792919272748,  5.175769309844704,  4.132983909509736
 5.635449017281783,  9.188979564800659, 117.459832027109300,  3.952819758603213
15.743190337026112,  0.333962156013165, 84.406343918176262,  3.865286517337415
10.485001769286820,  1.453737983408158, 61.007912874885065,  3.822077627977391
10.464231908079103,  9.685040805341300, 72.292549939326435,  4.144584913929681
 6.886479166807401,  0.517460357161040, 67.486579614770221,  3.870260475056394
14.372960099536172, 11.067772949517456, 49.896097203360384,  3.846003989213448
17.001619274154933, 11.558830862711362, 79.403691509866164,  4.038635926395189
 7.691635241884041,  4.505448450936512, 93.093924377875297,  3.605975604526504
10.137693529540119,  4.591647553146208, 38.570553011912452,  3.898569507423451
 8.676521200222528, 17.433732045439992, 107.539153896949017,  3.936901036676377
12.973827139103008, 13.414997551058418, 88.060411384981563,  4.061921956505206
 2.976533581434215,  9.857593496550994, 35.653361401739566,  3.829862977598983
 1.780980771844575,  7.195481123381012, 58.016515754788756,  4.114308935845981
 2.315144215137830, 11.733425231701501, 96.895612134748973,  4.113849332198350
12.916414244394181, 13.902346463323326, 63.214070021126297,  3.770246407908278
 7.132077547947556, 17.831885324898913,  5.526449187373687,  3.949575350142891
13.563731398780156,  3.240095299635830, 86.359202967930301,  4.270678072580914
15.462850282394763, 13.788166301813099,  1.888585331220434,  3.722491627274774
 2.745065613502972, 15.535381659567507, 83.731999582874465,  3.713397337788570
 4.097499768006547, 13.725326290433614, 57.549832764179328,  4.108299268169583
16.728115510137588,  4.255035377754093, 104.477771027302438,  3.786374373817422
 9.517383505225649,  7.937904987376914, 85.178645686590613,  4.083866540740684
 3.588468321746050,  9.885188566820554, 29.576707096838199,  3.968994772044914
18.897073500294926,  1.049348459728290, 12.551199378488430,  4.182221123118896
 7.307698547633931, 15.728398670895919, 55.657037507715778,  4.079770037287413
12.338431897167006, 17.101310707019220,  1.999072269760521,  3.890688741393428
 7.548106226683571,  3.517384240366215, 59.353427842493154,  4.080284370523649
 1.343432765483537,  2.472553289400482, 33.178153452081169,  4.434269412254465
 2.901431108488155,  7.347194825283224, 107.506651680030316,  3.929409560090721
 6.228657961768808, 17.127044300448851, 22.343180731126974,  4.341800295343584
 5.512382960210632, 16.694677235247632, 42.505091548720429,  4.186608262252680
10.394415510534284, 16.803654666992038, 100.815278589280439,  3.502250289947334
 8.805840967585416,  0.077744521107324, 57.214101048724906,  4.061000356797165
13.355498803269938,  5.124547749196079, 68.396198735373403,  3.878025016686065
 6.726421979570674, 15.499109405373838, 32.959535631798332,  3.980238140810327
12.236644756507065, 17.268412238139788, 41.604280302039442,  3.870637001036369
 7.460021589803701,  3.611651345935394, 24.770041802191365,  4.051537955039313
11.201592867572787,  5.633986847477978, 71.935874418454304,  4.119257093141012
 4.486632256909202, 11.353368296453860, 25.720776186854607,  3.819243976054015
18.284122552412153,  4.183085952370777, 25.596507905037974,  3.901836516604254
15.287920392738316, 15.665643356546843, 90.726291562722608,  4.086043948780349
14.218253231893263, 11.127824623128376, 117.248500105791663,  4.258359131910956
 1.060421422199271, 18.946918792413229, 107.066466837303508,  4.133694312908043
 1.502679872081613, 18.053803938736280,  2.075204776349740,  4.149931233523750
 3.548718192682341,  1.298362494286367, 29.759076230096312,  3.952073691209126
 4.872505351756248,  0.422064735041867, 39.224736305007376,  4.043723509101762
18.154242446993102,  4.372605137919399, 40.463356933321009,  3.921571812209069
18.648550628436922, 11.882367302119823, 34.845412677066378,  4.028044609408681
 5.032586323789376,  3.629665436535419, 83.595236335272020,  3.995280515895676
 3.871210090708800, 14.579863136879855, 92.645434638671730,  3.985332986197070
13.647457609488006,  4.156489361423918, 74.837671591888864,  3.965190486055769
 3.936894574202611,  1.768030409122119, 12.786029880367643,  4.010459031373179
18.283597804420104, 14.994650776382997, 12.085259990931814,  4.226557059692040
12.701610875702467, 15.147152589663932, 33.500214181027026,  3.704478785566490
17.877158761252989,  7.981209924049172,  5.304461826065721,  3.897266926794649
 5.464388419478220,  0.020292938354517, 34.067015889022535,  4.023322118810798
 7.191266880734391, 11.355672654578765, 42.950186144391900,  4.004436002604692
18.486467220533619,  6.133285029258762,  1.934431503988369,  3.801824487921094
 5.592288679498991,  2.097312974486055, 21.462735049054583,  3.933360185351157
 8.410748809670913,  9.485370464433892, 33.617305329142710,  3.760711817383313
 7.085008705457155,  4.380231383386681, 67.233208599776418,  3.811157876185912
18.683822123303116, 10.840604465252277, 49.237051523351283,  4.138003957497820
 4.381516037290861,  3.299459849916816, 36.322270262389871,  4.081648273650988
 0.460258238251608,  8.174892041774982, 98.198967291112240,  4.169190841939439
11.814699952553147, 13.329284962470721,  1.806196620523501,  3.604808353495798
 1.913121548805517,  0.748701902838826,  8.969052379149344,  3.977625503107956
 0.043300536301517, 12.971712543550197, 82.549064184547873,  4.060326789963318
 9.779792080029168,  7.340968909450726,  5.728679888582892,  4.143427957486115
17.439024847020136,  2.486809876061842, 114.001289692460944,  4.187245514886282
10.325830859506645,  3.200204243973566, 15.444395381725633,  3.799653001741716
 9.537036142743958,  0.597446091395414, 77.954248491911841,  3.923977914413852
 5.967020907936281, 19.083196909048283, 53.263101029493896,  4.274522737382767
 8.482879627652268,  5.846778442093145, 117.310597009733343,  4.288003615289126
11.134692871279496,  0.856021166230197, 84.041410950028805,  3.918614666068205
 7.008347479758599,  4.224013529321196, 99.110031300198344,  4.140524276425641
17.200796484446688,  1.419455198751615, 72.589651663587318,  3.863316653119561
17.722251902547484,  6.018691952828879, 53.130284034321477,  4.288146445777876
 0.181636193290682,  0.049406791173448, 16.710561493400228,  4.171134736224183
 1.694417953900395, 10.286434011693181, 114.314264714765997,  4.026613072598492
 1.623666461784632,  9.443279523212045, 19.321779282672001,  4.081565839002297
15.358256409807471, 13.330934267653079, 113.792302740853700,  4.038957101989276
 0.432042383129169,  6.605127100071119, 69.451994006668684,  4.018143489708236
12.802276191022129,  5.445583149628481, 95.132209127630460,  4.077905061348981
12.595146866799224, 11.713543466348630, 105.405641935957647,  4.488203559780794
11.779899291247494,  7.591478073321150, 75.445036807008833,  3.865652458977774
 7.290838848285672, 18.678514672134391, 18.495888203403002,  4.215979125425970
 3.131517222136235, 19.032148798041806, 78.613917950463858,  3.779804600273211
 6.543468240665300, 13.924982452725551, 67.145681071033906,  3.789235332929469
 2.693364444703711, 16.417635987802893, 75.455916643276225,  3.960451812524992
 0.145540635635556,  4.448861277374363, 110.646101735825226,  3.986240687322739
13.333592761645228,  0.889890652245810, 14.928072878433428,  3.737888200354083
14.200227472965407, 18.435262892956931, 117.508179286551538,  3.913491374909167
11.062705927917527, 12.218338390857658, 43.235417135499965,  3.873826362284250
17.445010786036480, 10.738166290929534, 12.582536650686203,  4.411049446252432
10.659324762333641, 16.664849751495883, 94.839322982914368,  4.221208802779800
15.382323830557445,  0.211519670974277, 18.069086507890518,  3.867041020120480
 8.500456120289375, 17.920501727983144, 39.825570171515913,  3.879210565496087
12.737182314859261, 10.551389208159039, 37.261569672478252,  3.692462596844079
15.202742431449130, 15.045156597207843, 105.248403859749743,  3.944111468495880
 1.275050219847313,  3.837885021136592, 62.898497084648426,  3.804911199209741
18.483532305979139, 17.855016617638000, 21.117010763384812,  4.051233048201883
12.963312344884082, 11.087886221701462,  5.032675966415704,  4.425207595810486
11.080455301173055,  2.699663673716250, 53.525840989694125,  3.944525861501425
 9.572021706771221,  5.382276474648556, 108.518754984103580,  4.155314510620185
 2.951994851280556, 16.978590565409799, 55.132351778909694,  3.938883614690099
10.945620041158557, 13.806007479644750, 48.901123806837390,  4.180924359027103
18.408412095586968,  0.911678612395228, 91.943952088125528,  3.710249663669611
17.930131946713825,  5.675739395521280, 32.491889664026431,  3.734900756711266
 6.082264004233473,  2.857185208642707, 47.467081719302954,  3.939632467830933
15.616339001922077,  7.600999471902645, 40.134682124548611,  3.996320506421490
 8.623235509092236, 13.569475444977437, 74.816662290990052,  4.246962999028550
15.310550873872396, 15.089432033534260, 55.542553215985805,  4.227152112269812
 7.182118365137439, 11.669734764996765, 55.677388277750971,  3.933860891677544
16.579081592391645, 16.323918630319209, 73.168983545241545,  3.869958062911180
11.710378087422557,  7.536103580274141, 33.758677117616308,  3.873439024737246
 3.157436791991707, 17.515620412776073,  5.758001514773914,  3.953353304112411
13.286891601937507, 10.536549011117664, 15.341328879917961,  3.770193717058500
17.935815421379328,  7.020530786884089, 107.504188375890337,  3.802573883779939
15.664492622786115, 10.339246869668409,  8.591734859237668,  4.019548390654298
 2.395163383202890,  2.187258030840849, 89.925960921053687,  4.000595974317813
10.330814133270534,  7.723424840069280, 79.189355132909810,  3.684658417744628
 8.895166750005252, 16.533335904071585, 68.807000954196155,  3.965719378034720
11.222389305906662,  5.987327285802087, 88.262766210884337,  3.886688318497864
18.712467213304251,  7.595005734518614,  9.424492902068955,  4.345939180093527
 7.239094565856758, 12.967996408436960, 117.421575275154083,  3.916163520489703
 9.725259347595165,  6.561866064858398, 55.654910684222088,  4.243286916879037
13.479290542593665,  3.835155651486589, 17.517265009009627,  3.638664344464192
16.462627544709676,  9.657338031018435, 52.599094148835547,  3.457600666064657
14.826997119348070,  0.795295391873846,  5.330941500190571,  4.052798544575306
18.180088950809544, 16.349800007397363, 84.589191721708957,  3.975070104164736
 2.804795114850621, 13.343734246832879, 66.868864999725901,  3.787368156784629
12.066526812451091,  9.539489430041739, 101.727901500328599,  4.096154296028804
18.717169330903712, 14.715473301612056, 48.633625152010453,  3.677118970009841
 7.522779323841509, 12.487392352887959, 110.392646282652890,  4.111018658708693
 6.490446078922689,  8.022121268628570, 25.163325553852417,  4.022794943758185
 4.742090123687188, 16.742501943839581, 100.547299713280850,  3.966386016389428
 7.300551134969524,  7.455051308270944,  1.876005523262724,  3.734468604228754
 0.812002796292447, 17.821347646889556, 101.130109638806630,  4.137381926536126
 3.227784118070635, 12.571550283257359, 117.389555315878653,  4.081840904291645
 6.138681357209125,  1.753564925720255, 43.457692145868990,  4.195642818050310
17.332370187936085,  2.042622697091122, 51.522171104735591,  4.188451861313970
 6.486577584466438, 11.998097839345020, 95.578133498547331,  4.443175437956730
18.091292284670956, 18.025128267732864, 54.370978637607891,  4.126675368113374
 7.887108797689566,  0.399478035257620, 14.622482245623420,  3.786815362008122
17.850814624982899,  4.021832428064979, 47.643561907841523,  4.291605170517874
13.841192265253838, 12.150651787836640, 99.166342365711998,  4.014669764531748
17.043558283979969,  9.166709560930753, 60.022155678898848,  3.439196226576117
11.030128137276609, 13.570900311899718, 117.592275703248831,  3.592552260615472
 8.291281752410363, 10.159664807542629, 102.368253165737883,  3.491650807938932
19.021527925194281,  1.462850644742111,  5.324343784641717,  4.416808154061675
17.422262189716839, 12.002756176009477, 106.667286332619227,  4.064964258851794
16.633374815170683,  2.839955359779426, 15.412320088793116,  3.929723530111590
 9.764102898430496,  2.228965719594528, 46.071792332048396,  3.963285534218905
 3.967147895329330,  4.943392234847223, 87.360733746364559,  4.088410807593876
14.014171005851997,  6.987194756130815, 64.014609620407555,  4.162797150673425
15.246161613133633, 11.866315220109197, 83.169357612224630,  4.075634455656751
 6.142746362656780,  9.303398134018785, 72.720114764306032,  4.529882752485063
12.136833519973747, 16.531555615421464, 66.198812145861623,  4.215572734332483
17.203847548702377, 18.447390750779761, 104.189911805126400,  4.099617941598577
17.109681944501880, 13.710629848658158, 87.529899209506013,  4.164243012889829
11.479616533101312,  6.116765462880331, 20.166277435485277,  3.755660850070644
 3.665456616998966,  5.252608906131870, 103.309551654972324,  4.181596501539487
 8.352864469466461,  0.414699088483794, 49.689923727019369,  3.876067065186052
16.875042909726815,  6.756967894774586, 57.115155262887818,  3.842383015424097
13.395657132666756,  4.441074846389333, 91.240674457175714,  3.977164821892929
 7.332517923828669,  6.956279485571437, 89.161069700241782,  4.288326477185991
13.080880249523522,  8.279837079367264, 52.561480495283966,  3.826889539628536
14.122248770756771,  2.838982317570299, 97.889727820458916,  3.912580700962249
13.621167769978980,  1.446228312676743, 66.698403948301944,  4.232937311647690
12.545353688862983, 13.646494392813405, 92.838541311445653,  3.795362694470487
16.270401332744804,  1.998258208479594, 101.213625169051639,  4.068146715037712
 6.988071445755704,  1.813551355767072, 117.441771481388074,  4.064536796174295
 2.237781157933645, 15.853224847365311, 60.714777220598492,  4.168552853560211
13.905237342851526, 13.369638184294180, 18.393160303250902,  3.763718644763062
 0.375035202549405,  7.038814210220272, 64.970725395354108,  4.019095862327367
11.577493749597604,  3.007644821580482, 25.731304506786032,  4.164489060117603
 4.917181397276142, 13.960933736347711, 107.547438939016359,  4.143883752844572
 5.165592528628497, 15.121177680044740, 18.786289201975222,  4.072145090689252
 1.134502285237087, 15.762716792602852,  8.639437768120631,  3.843742398662854
16.990361883522631,  2.566857085986203,  1.912451723171433,  3.767555284447048
15.060925420219217,  3.669299984727751, 27.979550480365720,  4.163731797498339
16.949733764992910,  7.432698202373657, 117.477087229387081,  3.960596205677789
16.723386251801593,  2.708334863742594, 55.699695874869505,  4.321929206437114
12.556832783305902, 18.985504352956251, 58.310256924336691,  3.674426797991845
13.938769801377187,  4.576553789668862, 51.358634346573702,  4.050092528722451
 4.277620040791812, 17.859247704264995, 90.306804868008200,  3.811910740100134
 9.914899699907286,  0.754444086538570, 64.885972505612500,  4.056843738133537
10.649413641380303,  9.391757701694479, 63.209101887116979,  4.238883304654116
 7.667489259178240,  9.941986731115119, 81.892187484326683,  4.445305376215732
16.670258292363485,  4.210390057403297, 65.184487873166589,  3.777864719069332
 3.929536289082170,  7.356027231360567,  8.672220981879308,  3.397500654212501
18.367529409462868, 11.360595275301115, 66.804004283783641,  4.141467872477721
10.725597066974101,  9.949736037185879, 50.074789782689663,  3.790168809361648
 4.982849656601720, 15.312998148452426, 25.930978525683908,  4.057241115164206
17.012244703323095, 15.091128159730458, 32.720806074785727,  4.137120238702774
 2.663227827148814,  9.454052681724029, 12.022096095393582,  4.497194139566357
 4.344435155238319,  2.800892526133226, 69.663690356491912,  4.125367653537291
 7.405449645924352,  3.252914628831403, 55.299153793053399,  3.832127181668171
 4.093011419825173,  5.416133216980186, 23.152370895893831,  4.067759178369745
 9.765378699508590,  4.641704184724755,  1.908401611327223,  3.664463142251689
12.960496910275488, 13.764159233569195, 29.896093677501902,  3.845635960394072
10.072704053494617,  9.744263333616722, 117.463961630147139,  4.050810876715857
 6.366425013442554, 10.404671629803154, 68.620533360975031,  3.808238259420866
 8.504059637662063, 15.807829255144499, 15.755375947774064,  4.035407291083152
16.345186877653308, 14.305200376264173,  8.473391931527997,  3.905471135693927
13.034198296754731,  9.481004079137202, 93.820057325320505,  3.533114585756956
 3.959808621103007,  4.685407736177544, 60.370468840820415,  3.724628835332203
13.934844538745480, 18.700593717539608, 34.784602362517084,  4.203967079830602
16.866544939122008, 17.210885197422751, 50.699468609186439,  3.762382337313935
 0.163512192398888, 13.870211669622879, 114.571655927905354,  3.767696525879505
 5.949289728105642, 16.816849439676993, 117.515068808483505,  3.937056491903051
18.701209183832020, 14.970022729030044, 77.743959610727288,  4.104050670137632
13.309653080505653,  9.514060964405488, 19.171695215927791,  4.155991919149797
10.695835467756716,  7.086254623608284, 114.131941385550633,  3.835930985374043
 5.373671627746584,  3.688737219869174, 32.415238615499852,  3.987827651764348
11.814606656099256,  0.795437275770891, 38.360287545984107,  4.344283107653667
17.762835666243653, 15.706915871831468, 40.879286161803471,  4.136882996717422
17.160722200826974,  8.128731860462256, 25.213794133216428,  4.137760846730811
 3.137474104336951,  8.245525531333438, 61.689782100334881,  3.990916395988273
 7.561036118865935,  2.733622013484307, 11.494770545150493,  3.911321180355074
 1.526323717795291,  6.272744557169252, 77.585201136143112,  3.932060099621013
17.950215596731432,  0.670427856879082, 44.721400294314755,  3.825033952594472
 5.181843368671418, 15.279278973697108,  8.469875950042317,  4.020563128419449
 3.567207302773591,  6.782466307905602,  2.237407396291312,  3.819614727893925
 9.567579240972693, 17.727391601613544, 81.310791662705697,  3.719701079002758
11.313798513437476, 16.600042382863187, 90.604898531017170,  3.980605862970958
 4.378578055001433,  3.767674556817556,  8.801478572739942,  3.777129837291812
 4.410507439574315, 13.266190211379188, 70.497920613746885,  4.042362900470728
 8.758341329742398, 14.437045316580212, 27.466293440084559,  4.251471341649562
13.889822991599743,  0.189603427276524, 74.265782222239665,  3.831321174898419
 3.673313461119727, 10.086801105204710, 56.067257030982951,  3.789108376183981
16.943901349488293,  7.243119674817364, 77.768432820304724,  3.560260204361113
 2.534321161259491, 17.244968098092148, 11.994114432998774,  3.876838483287369
13.768693514855258,  2.609416553348087, 71.273745379635116,  3.791108792420537
 5.891033558366009, 16.182255368824780, 72.969432821409029,  4.140134274986721
 7.102066276033080,  6.349856017983494, 16.414565878825051,  3.937781830867791
 4.633924181218937,  1.438289858611248, 93.302036794751359,  4.145842752488768
 6.370476799391628,  1.629651269217679, 80.226562883740542,  4.067973539626153
 6.313120361960436,  4.212649503874061, 39.853733687189639,  4.146261362002766
17.200515184884587, 18.195081889743498, 87.961843749961986,  3.903981187218564
13.575608631477991,  9.651145810123056, 23.416914374203891,  4.044064151349037
10.639779092968569, 11.688417974844439, 79.352023128419518,  4.083015853891194
 1.142013458589062, 15.899799143004325, 51.826779056508755,  3.779144027841109
 4.933540301054628, 13.794798814017650, 14.836820798424034,  4.253582143470736
17.250377477370474, 15.454534858201230, 44.978794001144877,  4.120650902589642
14.996526882673232, 13.327127337550072, 35.864977640465234,  3.799309513774685
17.338807930778771, 12.092859731432263, 25.016311689551969,  3.784088527768090
11.017628135066129, 18.566671554432368,  5.175345112943991,  3.584872443902579
17.806436178971261,  4.426814400320415, 98.101965859266116,  4.117561920791876
 6.640677856800084,  8.338317724324913, 93.399060226246078,  4.040409768491520
16.898186489225345, 13.439902090078030, 51.964214564821674,  4.191103247583081
 9.517592002995773,  0.806596388249689,  1.998112705967237,  3.920147383395297
17.158693030601317, 18.284197245421243,  8.428291519415939,  4.149175851210307
13.613839988609492, 18.133644773660425, 62.417945159160460,  4.215243729808600
 1.999773479226639,  8.280181138153409, 72.828980796393353,  3.944835394664039
17.173804694037745,  9.685985403126256, 21.410910203983679,  4.016991560351620
 3.245953860628571, 12.851923293911540, 104.033028809624483,  3.849279649305303
10.444563750602558, 16.095176900818249, 84.811270393810716,  4.063530785583822
 1.377830322264585, 16.239529697069084, 117.500617473542164,  3.953266436632167
 8.276980980559427,  6.269287635699632, 47.518297863449355,  4.084247768073573
 4.158759237515240,  1.686617032097442, 105.259953785812627,  3.878752315766464
13.502874071742863, 14.953076369689921, 69.567068648202465,  3.553866809660257
 2.792867978851572,  9.892999308374616, 101.082329738107745,  3.918869623622014
 6.708187504293505,  3.715157946597929, 51.383303089107720,  4.165765203209435
 8.565588929418720, 12.977346635338019, 70.677525668143758,  4.088311727942513
 0.210329013870057, 10.088851050136405, 76.184163093857038,  4.427005648117381
12.899167283435526, 18.202514863035699,  8.477116506280039,  4.048413226028676
 2.348067034365540, 17.052333702682510, 23.706468961452533,  3.657104247910292
 8.726488617610089, 14.611528862880609, 41.568587161984652,  3.553160859220575
18.484374770931996, 18.597094839528527, 75.774878313372710,  4.007153845973662
14.427195053364247, 15.371895149819995, 84.874871774130455,  3.785458649810508
10.393820591259628, 12.628388658527609, 66.824024262367374,  4.208591033408864
 4.365347898044871,  5.048585466748555, 117.340847141109975,  3.974282163485455
11.094250403701835,  2.445417860347854, 117.302197628557096,  4.238279274346710
16.187226002830030, 15.183196002691144, 80.945756185137853,  4.004326101240898
 7.203792516623658,  0.259279552646516, 83.962070380340663,  4.014436983920100
13.519431885696124,  1.181460792310709, 114.226505399727515,  3.665171206554204
 4.170963523656016,  2.353165056002132, 57.387710396577852,  3.836825142593978
16.294682056636574, 11.374834297465112, 57.095297159065304,  4.040201907998226
 9.169592114136023, 16.399095812225454,  8.829920194103451,  4.208274569586617
14.938562569793852, 14.555835425920209, 48.245044836221936,  3.903028101012767
17.882235584743206, 15.967872689610626, 24.680669713526747,  4.023226865177991
17.048348075174427, 15.715539639423090, 17.887851130689704,  4.042134261504679
11.369523325451560,  2.004418410555483, 11.827469739172816,  3.860977062553419
17.875072307412974, 11.910736402507053, 42.425883017299071,  3.945819567335128
 0.194885413963693,  6.165590958074521, 21.958680877124806,  4.215463994623011
16.372422030911260, 17.663909423096200,  2.126114732174699,  4.230784436488156
 7.155204601396824,  7.362900971944274, 61.819718330432970,  4.075749121990878
 8.971447056873526, 11.076642616289963,  3.030894002175887,  3.996585508493182
13.699431321393389,  5.486438590439001, 55.264704633807789,  3.924983253243451
 4.843404222239085, 17.927129911334632, 107.731858989548655,  3.779941212012558
 8.701433964990423, 15.421625645845783, 64.053533216706512,  4.118700111115110
11.238626290657125,  3.353797678812859, 57.663228353922726,  3.886560782140154
11.742060320879668,  1.894013861230170, 101.051504983593929,  4.065875922359201
16.717613415354389, 17.302057898888648, 107.963387528534909,  3.717727446453709
 3.316221853266845, 10.364942655775078, 43.636455729695854,  4.095673400160942
16.011250654476907,  7.554682065220443, 96.305216884305750,  3.919724824997112
 5.732396367138128,  7.113512225979348, 36.869129281580129,  4.037557154917720
 0.056295614252736,  1.871679112772662, 82.526205702000070,  3.572982855863498
13.191869798702518, 10.022200532628714, 112.745491614897929,  3.993159854426602
12.377141448366135,  3.551512944481230, 34.536593557165041,  4.330603194268375
 2.712096727903734,  2.923574163289703, 41.464693857960974,  3.888427618996033
15.441194993014598,  7.328305252354292, 16.154968342837034,  4.052026583522198
14.829872386416334,  5.025761889225524, 24.050612155804732,  3.790203446760131
 0.333887742293894, 14.167695146868608, 63.972049579050164,  3.965715922806439
 1.877758506350521, 17.712387581313827, 94.303825405491281,  3.998230053243958
13.476912760813004, 17.669480074673348, 102.839814437546110,  3.964133586333008
 8.334834197758916, 16.050504364470040,  2.059782957347144,  4.099578761691682
16.291595028318262, 17.616432136892406, 14.479901322070589,  3.898284735668927
12.823110602444432, 16.480914266501568, 114.404795083534594,  3.921252565876050
 2.374702071515140,  2.553241874272461, 76.017772640036071,  3.763094153015242
 9.130773469762710, 18.195063492649265, 43.728314380621029,  3.818997729588406
 4.305712794657129,  1.639405018457432, 101.330535016629327,  3.972222380935514
18.411941606578594, 14.922242684274377, 58.150758183766847,  3.800877509131852
 4.220139639912023,  7.242490958959194, 114.055749424479544,  3.883156668421676
 3.057172611708918, 13.515367967775086, 11.251854256165107,  3.733150169267901
11.705862478375138,  8.115122764868348,  2.099729607328629,  4.184679693668819
17.428008597303585, 11.324744680373175, 110.686873390634403,  3.983296480171958
 1.237223561204581, 12.229870058328300, 90.037656613140101,  4.191872073000331
13.591858482064820,  6.711842785346352, 59.625186493244826,  4.018296567034067
13.733762645139015, 16.849916392888112, 20.670858065749300,  4.015953289726717
11.018833117883599,  5.052573956814654, 98.766719399172473,  3.833289449929111
 4.860907903101237,  0.408042210015834, 25.724140792603137,  4.382657619090110
 9.959759064073225,  8.725397634267345, 59.266860344436857,  3.854235031774661
12.740102127649113, 15.409837703646296, 74.167091330123668,  4.148831429536515
17.205572183992377,  1.474880105360146, 62.037922391798134,  4.264268921864527
10.219460091648061,  2.575595340888450, 69.136687573572416,  4.333013819967631
19.034981038396232,  6.049558904822224, 87.879850205982748,  4.322231042350996
 4.254771095875958,  1.541387146207688, 64.740033145636701,  3.993727058523744
 8.131986350010921, 15.401033364087127, 97.940911753546089,  4.159818646857698
13.875748276596552, 13.382224954247709, 78.445500279123024,  3.434077889402440
 7.414933834199863,  2.627780427522521, 28.894952742510288,  4.399499912940624
12.252713348780450,  5.685906752443018, 83.166643986134147,  3.994136358591458
 6.834476973004477, 12.615923705980080, 11.360468503430363,  3.996417120892306
 0.285747270506069, 16.240370829111146, 67.558364611027770,  4.006646630307239
16.072873019594052,  7.532907692439115, 92.153461447659026,  4.380078453874360
16.653065806582457,  2.814171669620654, 89.069147718399037,  3.966528885022279
 6.813206249944203, 17.652022186063235, 94.951130131591441,  3.691667006203244
10.117763589720271, 16.653065742046604, 60.193578911609876,  4.038726727475211
 9.359365122344020,  6.140510006768404, 27.418109913149493,  4.150384098370790
15.198763327423803,  3.250829040057472, 117.483875462898951,  4.012562716217762
 5.277249779779833, 13.564243594374847, 29.619839136702250,  4.097911111863547
16.372271897823403, 15.469275013172421, 100.505775091631776,  4.360330349655985
17.326416257674104, 16.537582338734946, 61.611778923182648,  3.879069447987359
15.370673218460505,  8.202440943725557, 104.511253690992348,  4.297130560233025
 8.603835045864797, 13.974250898811560, 82.130026354604055,  3.682673174879292
 9.828899274888311, 12.824027484974238, 61.226913493597756,  3.849877953102748
12.989767656456797,  6.900308964282360, 117.444928269742263,  4.025193797837252
 6.528526597020477,  2.747565987619858, 89.808562975839706,  4.199272590549738
11.455722181362244, 13.546728433668216, 112.098357177822166,  3.952810152332131
10.369748104580164, 15.333905854337566, 104.457744649538284,  4.112392460512426
 2.613394135911407,  1.669152131495227, 45.713737615161847,  4.066789883662115
11.040283465427938, 15.172279433452358, 38.624305332960660,  3.793619797902277
 3.138919741493880,  7.608870379684798, 15.895076452484092,  4.033788508150266
14.648381459851626,  5.451451457215080,  2.758143276111611,  3.839176047830941
18.709258450349967, 10.383671319630173, 28.360666357511967,  4.092949311038195
 7.429016893052152,  3.559893063703673, 63.384854315557128,  3.923297899373912
17.256379830555222,  0.324699285220919, 97.422322786440787,  4.117748624187156
17.158804894816576,  9.732433074623422, 88.682571668981481,  4.087355099324198
 9.422601739277907,  6.797891297293988, 51.668643210265444,  3.711949251418498
13.729425975889232,  5.351675340132368, 79.070562062820116,  3.966336665166555
 2.037984920071412, 17.129129116082183, 87.137324996800430,  3.896349104192877
 5.299213091424853,  7.421537988130878, 50.177237857654511,  4.121734285949477
10.730525097712800, 15.698183344597963, 77.925290561181882,  4.374405995518027
 7.772946025405250,  2.122598408964184, 106.773805272629858,  4.003666686406199
 2.500458308509872,  9.263980041206821,  5.924837416537685,  3.620343785827275
11.987036646558021,  4.915729736156391, 30.521844220814604,  3.852824498784739
 2.609858538997526, 16.544709288372008, 28.901892119223845,  3.862374651467908
15.997702536544315, 18.100238487907188, 69.377175186882567,  4.453285557206210
11.554111738209942,  9.542673972849784,  8.870748978544023,  4.309414490688450
 9.982975673187019,  9.977817113140718, 53.734050693414822,  3.598725777347412
 5.486853609162694, 10.269696714306452, 22.087927308840761,  3.841200998950885
 4.616999316706800,  5.415896694235808, 73.977884053585584,  4.135849941638739
 8.160997250309929, 11.073318612112491, 47.152426182522447,  4.201907974903785
 0.048212530080839,  8.425953590957244, 80.787264669407051,  4.051674172215809
17.911617580441948, 18.664918255000053, 34.314324159709408,  3.623158600998409
14.718477657813926,  9.581108564060175, 108.360220508606005,  3.865826282889481
16.922870694151992, 12.669324643218840, 60.802309158563958,  3.671574278605966
14.786067734488052, 11.175990595488795, 27.732096979719962,  3.772199866208709
 2.199698632754714,  8.026791284210159, 26.094903044313284,  4.263100634931939
16.203386152258439, 11.450568402816124, 31.342724407258338,  3.785832234828340
 7.098559366456267, 15.519442051371103, 50.114369284447612,  4.563722713189992
 8.225734981291456, 11.911626070511963, 105.847140887394048,  4.022794251438205
15.287490124960543,  9.206712531246023, 74.753771337065388,  3.955154733078694
 7.832240119135062,  6.300526390846637, 21.905419443731894,  3.801481323556025
10.374261400171193,  2.472885071974399, 42.022134278335145,  4.176743787615443
15.186973283144594, 18.431067674857712, 47.345473807105151,  4.063410302699786
 6.443219793371147,  9.762555411184501, 14.284256431132658,  4.175214144724460
13.513911451849001, 11.826798966143404, 11.667472731880121,  3.902789188436310
17.282668980233286, 12.090074709160726,  5.085478272834806,  4.377970295222684
 6.314887725239921, 15.750942033272786, 37.024991431934986,  4.191808274876569
 1.309962716837363,  1.917614738768534, 99.179217095192044,  3.382889338634230
 1.779405915696578,  5.457701031437103,  5.860989033046444,  4.035893841882336
19.112562481491327,  8.535362915684029, 45.866395443250767,  4.039769613078897
13.215562674388737,  1.928157465212424,  1.919884988161519,  3.799387986570688
13.693211834095937,  4.075184884517220, 40.222300907007238,  3.902090795634904
16.713553349463368,  5.066254596085169, 84.366763096995328,  3.973565897797889
10.707565518284206,  1.948477426211939, 89.323532746182465,  4.248267225940672
17.530356647789059,  9.729023310019844, 70.858889737292600,  3.861338076425529
17.016936220855719,  0.869765832901088, 79.439389680812951,  4.182589638211902
 1.433227424127856,  3.728385090920225, 15.296920767197012,  4.073911975002513
 2.137430582641958, 16.864770023698981, 32.921934499976047,  4.154448707841530
13.999349984283938,  1.521081302117161, 105.345489454186875,  3.791748897647221
11.056832865549694, 17.655491693292412, 47.353153165887036,  4.021577158852477
 0.849692846937052,  0.621685994440086, 69.697293647255478,  4.035580800012958
10.668882231320355, 11.944966088542330, 84.860579557730603,  4.226143594340946
 5.459883293346070,  6.510301182266424, 28.705106667281530,  3.943162967396164
 0.830369307437590,  8.347116048662850, 91.057497107152273,  3.693649797070484
 3.395164301377139, 10.123604646395082, 47.730636948140557,  4.090031960660919
 9.537162911060005,  0.862331662654233, 22.206831663447279,  4.395999142196027
 9.332605006694035,  6.494071263342540, 102.088535989410701,  4.091351055336356
 0.333306571141867,  4.130264123232728, 117.354724659897713,  4.268269144720016
 4.032841621476822,  2.221251898088611,  5.137681615582827,  3.893132053348211
 6.382823403486272, 17.110513433960303, 77.133783107354205,  4.225814109560429
 5.956847722316514,  3.749549373203002,  1.960250323120859,  3.909120138726945
 0.596503660897091,  2.120073234778172, 86.297545442860937,  4.061461260519217
 1.484494583479778,  4.473623895942998, 11.321564130449206,  3.831462031814787
 0.861689144175395, 13.297113592860336, 54.851391434630656,  4.169522376587304
14.983626748611689, 16.902085246004646, 77.378937705997004,  4.235364626830053
 4.157668004645005,  6.548386336192397, 42.520431624869019,  4.010005972552891
 7.567547883184274,  2.055699676018131, 95.845305665104434,  3.689229521075227
 2.218546244253525, 19.041850706045341, 36.266952261133270,  3.713222582962629
10.424242071287125,  7.153637988385329, 92.084386478188037,  4.222927635230675
 7.008279680533297, 11.157335887766383, 51.270356094286427,  4.331216602922254
 7.921906935247003,  5.447900493775109, 43.473532076080311,  3.971396226031489
14.157727431702437,  5.070034196744134, 113.992402726183300,  4.123756040997667
14.309563939865569, 17.594285307947729, 30.764884003827866,  4.151567186768609
 5.531788584218421,  7.501769931048222, 84.653667447573298,  3.978948249078003
 3.697579484176500, 15.472950568496694, 114.335237754547933,  3.903133442656447
11.867894789372471, 18.237784876744762, 70.971659957475396,  4.135434138238153
 0.148050656689531, 15.840271390816532, 97.444407544796277,  3.965179739637951
 1.032490622135583, 18.231451510817724, 63.963388162193745,  4.187445566104872
 2.945357873990028,  4.000863767875632, 26.847725564206339,  4.062159499508707
 4.574784418136280,  9.723843122827331, 110.798350166024875,  3.868381623253591
 2.422010256291762,  5.947902579097111, 38.862297547027211,  4.033267428064148
14.393056840107393, 15.188066957147628, 96.415429051818919,  4.247266456129387
10.610393554652175, 17.317912129876213, 12.639720991921898,  4.062685617556969
10.846618800368779,  7.894117409587172, 105.659275456379234,  3.857167020948487
 3.063159454916252,  9.032063616625535, 87.743830970959309,  4.311135058804434
 4.095043426451943, 17.171822481872539, 68.628730832928142,  3.888327273406384
12.156175629338403, 11.576116112404216, 75.620997328121376,  3.952651021136185
 2.420047602085988, 13.295793903774532,  5.484157103137451,  4.485442599566329
 7.960319688456789,  1.407837601586665, 36.949484129160638,  3.858215136803079
 7.017392713673956,  5.743447095443761, 105.464681949211467,  3.784262522536959
 7.580757137223552, 12.846207819509214, 24.009754132234335,  3.662858989792768
 9.212836610780354, 12.714228938902270, 31.300438225439954,  4.180504412324257
16.840485948159461,  9.637646691843317, 114.219850522322844,  3.898074456662573
 2.674805803268254,  3.127289381561933, 49.659513372758632,  4.103184707928831
 7.712132038761940,  2.935300523117750, 102.902907464542267,  3.884287282138521
 9.079916347803501,  1.528055902968573, 32.745781957334422,  4.156355367303000
 0.691262723222470, 12.482731797649505, 38.944604226763985,  4.002302186425819
12.168285435934004, 16.821012033208422, 27.335546054904672,  4.056803420249027
 1.102104238736652,  2.500258246164317, 95.282548765724471,  4.199073789499383
 5.917707039115332, 16.721273804496008, 81.338911355821480,  3.832167965340744
17.120907985029554,  4.502031072890056,  7.218597297658254,  3.659241962137169
10.561090013341376, 12.145035109447862, 57.512106440006775,  3.783337734572654
13.342903206730863, 15.682966759784573, 51.843292492150226,  4.201834680822738
14.219311579595937, 15.799610009037224, 11.549422577084590,  4.031358989009792
 4.398669488263109, 17.890170988746185, 15.537259207499451,  4.047847253154390
 9.637177678047887,  8.251959328782004, 37.083210649059431,  3.976564646412406
10.439722889050271,  4.317400576458113, 77.143192169577304,  3.885623185710922
 6.042005777550773,  7.163196112770618, 57.786966574094151,  4.278474524549229
 6.403260957572851, 15.534281420741996, 85.104354121097074,  4.097875290069489
 3.805622235824434,  9.583779232401902, 65.583389406575748,  4.295764901973615
16.992956779957275,  3.422401561910484, 69.083270884248094,  4.162011273088044
13.918849075563086, 12.075724352685404, 72.053783310715630,  4.064963643735529
 0.935693416756308,  8.330529203719793, 110.742843205630521,  3.888508451536238
 3.641257934956207,  9.766267628768473, 39.564970896495410,  4.016566052536115
18.875587144609817,  6.213251316414369, 17.893089526815949,  3.846232839233703
15.897678551454762, 14.615880259635849, 65.899131396378579,  4.095895056701711
 0.513353325718955, 17.241723401503478, 80.979166120239526,  4.000587589772536
15.036391843615998,  6.402170935185093, 88.340796780311578,  3.741868750910192
 7.980854386549064,  4.895614353006932,  8.320187629795788,  3.816081881490838
 2.675143098123681,  3.465027317043444, 113.829846841965974,  4.133270694447937
12.351921867926897, 14.446342908629990, 81.701970647584602,  3.914799222632279
13.175079530419357, 15.211511235488150, 44.814426413470393,  3.917508165138533
 3.263634429272494, 15.319727594064162, 79.084309709845115,  3.655142427080599
13.805675094344799,  9.322607283215186, 78.462030382825745,  3.977925054674688
17.017342396825441, 10.950651530414655, 17.473101679101916,  4.258207046024975
16.083025320036040, 13.050875502857457, 75.324391158507268,  3.977956114857758
 4.388707138346784, 11.145261087082067,  8.590828660164128,  3.870027700876359
18.741606053337378,  9.625518956934593, 94.369426799960280,  3.684132694865116
15.836357980561155,  8.497507667586364, 100.271676962373590,  4.231086531217634
 1.232290737425009, 15.402581358106824, 15.582306314931760,  3.936756754359950
 2.546698927099565, 16.934739327848209, 110.786440812039800,  3.974348889689101
 5.318519784796565, 11.759746441823191, 33.202282860730513,  3.917458343790601
16.863100261530565, 14.662231137116521, 28.513963026044451,  4.168184354192268
 4.251290411642305,  0.387162475647228, 97.315403711363714,  4.172404229948802
 0.805367530905867, 19.064066445041242, 26.569191281427948,  3.816342387960226
16.464744743772467, 18.365626530407031, 65.173600731862152,  3.566063978761410
 1.607760400009259, 18.305931481495598, 42.296085234874866,  4.035334932193034
11.432049723682619,  8.552142229800380, 67.302985243182164,  4.140344836526917
18.419263916356769, 16.056660478865272,  5.278565936023805,  3.831605253650159
13.526927640908601,  4.657265944504205, 13.763663491442324,  3.986340754463435
18.984149528111363,  2.688477039823552, 29.241788152611299,  3.950744010168715
13.810149756037536, 18.876269647451981, 54.551144228440684,  4.148761444716165
16.407598369437796, 13.722184122509979, 21.491436502619823,  4.191850305184452
 0.809857710535926, 12.474438314931511, 45.905034949330769,  3.679246404602509
10.321617144072800, 13.469287739240501, 13.010002242094984,  3.635497818283129
 3.157675211824618,  1.002182045106334, 60.954437244058894,  3.895095386480639
10.559646853200992, 14.057750233920151, 108.256575326424198,  3.900513084286738
11.548671517506126, 12.599479674819293, 21.461680287141121,  4.107484003042199
 9.620482112034551,  1.373630101281691,  8.450128893885093,  3.829840621709208
 4.689749054365454,  8.251937868495382, 97.119532415563214,  4.266074736323713
 0.998984429581916, 18.427758096432566, 114.164092961582725,  4.029559879046420
19.083945552324181,  6.464947065493518, 114.026968712495247,  3.870433724559916
 0.387568804312111,  3.320241946684426, 58.935546748750653,  4.289140018485707
14.726059439920681,  2.926094944951130, 59.211788090372437,  3.754376372338760
13.448708203227470, 12.056961203264466, 53.615693988596888,  3.815691255977162
 4.917358495699461,  7.738763134425982, 32.861908195971914,  4.169544267754663
16.509884788420599,  1.440865715324162, 23.366680110683131,  4.000641753077028
 5.110168283345394,  5.849554923019387, 12.563326348324424,  4.274847967246999
 8.363609434257954,  6.298643266458690, 74.511349987952201,  3.624661765642796
 9.542335219534744, 10.244423649542211, 88.372169461328653,  3.773159402702577
 6.468792647885698, 16.300264086341350, 110.791689455106990,  3.810826671632023
 4.369828115589925, 15.182618721115677,  1.982213385072255,  3.907652644388880
 0.392412241863881, 16.433942804784234, 90.710628708084258,  4.087193962391619
15.713028703929670,  9.404974450703259,  2.097996090972111,  4.184561255532159
 8.417406776222483,  4.779306755257100, 35.079413669649824,  3.886096298777878
 1.649975289020717,  6.055696737708969, 83.889992181256630,  4.336039211681756
