BANDS
8 8
NANOPARTICLES
cell(1), 19.107
cell(2), 19.107
cell(3), 119.419
17.036707756820356,  7.451055224710347, 89.105367220406350,  4.010734055470127
12.421006000089344,  5.455407127260151, 55.644579433366758,  4.458186673518195
 9.595522694902876,  1.329461048682736, 77.504288085494323,  4.386863618251828
13.201085835814444,  3.411357279079905, 61.889389581595530,  4.230173609956239
10.812800255425767,  8.355312454319627, 37.546604764278577,  3.642004448139318
14.328321747030305, 11.868402407003757, 94.604086583429250,  4.048491793120182
 3.336612849070358,  3.792055267826692, 56.868108770151103,  4.475851802246307
12.803507641028986, 11.039283542551756, 90.881357346036893,  4.028923039343554
12.622815689695882, 12.901850290425099, 83.473872542067923,  4.074224999943661
 0.339561972746883, 15.497482487256931, 86.718814028564537,  3.942364321838614
 8.294399177198056, 16.905932194851584, 79.137819977501650,  3.670449873457421
 6.437444589657364,  2.030855536221010, 11.861411496118016,  4.103299589886866
18.569275088073095,  2.580244852024952, 77.502625808224138,  4.036931285784859
18.276628085261464,  7.461841391662638,  9.318913149758069,  4.301543305379020
11.740314224427243, 11.196449874205051, 28.755277307982436,  3.930968993443011
13.299199510772144, 10.195540389159021, 56.002084462478940,  4.146394489357803
 8.349832886254010,  3.585915335564384, 34.630023872494618,  4.034265552179488
 4.905159535690357,  7.568391434211812,  4.852991351112896,  3.643737747082363
12.600214700036760, 13.927125439682712, 87.748488163039539,  4.492170759734567
 3.378707832637149,  5.052748319032865, 104.834497821905757,  4.152183742534616
 8.238864205444496, 18.745646055520599, 59.027219223810377,  4.222675463101723
 2.108408031243527,  1.274824854928580, 99.069015898878092,  3.839041344955553
14.829527233166802,  9.985873021274379,  9.005340679797476,  4.033267001565146
 4.662232113048688, 13.013158250939362, 25.750901750304752,  3.935283920467829
 8.909950224930679, 11.117378916134038,  9.124874432756974,  3.997776095539015
13.659792256427840,  5.521032879325493, 67.259089936929186,  4.071174019823829
 1.100067420814101, 14.703840524764603,  6.136333255123438,  3.828616244397843
 7.957719082868185,  3.343173719002636, 50.261962178096837,  3.870566845735977
15.382535095411685,  5.579497882584175, 25.961559341710469,  3.863832724620048
 6.492449362548129,  8.132489989382339, 76.561966409936815,  3.795773559164143
15.969679659991561, 13.597987920735264, 106.725807186318647,  3.966934942895534
 4.306124409929961,  9.421286074383993, 31.350177664685724,  3.773237251641790
 5.949359853702033,  6.202366707677989, 73.051538597378510,  4.016572256687492
11.586700575302718,  9.875954668769504, 49.664652018510331,  3.641954389971337
12.725816525246366, 11.341620281327533, 65.701337662030838,  4.145091095677189
10.394650119808215, 19.051953862908796, 36.041249494800631,  4.141992288237605
 5.454402171544748,  3.129089387852413, 100.133281867320136,  3.995199877078012
 2.658235192946519, 13.492832869786108, 49.813442885192018,  3.733960878601874
 4.044480141376511, 10.132417075726707, 62.607821360517420,  4.038249307560006
 6.026491735656297,  5.862628349248741, 47.720193105826482,  4.236735733048821
 4.309624487782403,  9.584653153809022, 49.798758274716569,  4.109696113025122
 8.390214580799409, 12.218339900287978, 23.288631739587785,  3.901954536404342
 0.779636203490867,  9.143410129462271, 110.374785976184313,  4.128931352175171
 6.189554336837599,  9.800923239088874, 38.844955239276381,  3.714783956182489
15.244511941680438,  9.456130813926698, 28.653088929503468,  3.880876154063177
17.725192180755112,  1.660545094367273, 51.989956992464975,  4.233796534622783
17.429797824067272, 15.648762150624284, 25.238258451562977,  4.025967961523807
18.920476769849213, 12.270388710783468, 19.491744250936417,  4.185266819749812
12.486143725685046, 12.491789400628356, 11.331697758973238,  4.181437345653335
14.640844136027438,  0.525437827476274, 96.807347979588471,  3.957869168827189
 7.380522853248651, 12.558325205184875, 44.254924987708044,  3.937574738136339
17.962188348039120, 17.025235125963107, 83.231481083730117,  4.191503255107524
 3.301625413204591, 10.809135011362201, 18.564843605255998,  3.589682715623755
 9.370967723596710,  2.181572799787848, 61.901448164506640,  3.758685743813568
12.346247578766917, 15.221698720315155, 19.092052399824247,  3.940725042401217
17.591393486903634, 11.451498763535302, 40.888454798205046,  4.072791707438959
 0.735035852737474, 17.942226115142628, 41.444506135905769,  3.651238423213651
 8.496398877890293,  8.863829323080950, 30.156330182688531,  4.169301678365683
15.679195986487448,  4.213261119438243, 70.302201234268367,  3.667840882205601
 0.352420535698997,  5.442809216289525, 16.059254958351939,  4.186065997704945
16.054977710229561, 17.396429724874164, 67.187622673702691,  3.971613535800891
17.313932010365949,  3.280032230687283, 114.050052863157731,  4.062451186988048
16.968970495529206,  7.611302941538834, 71.578911828977525,  4.031270136205145
15.177223871113892,  1.354680633456364, 34.947931496922216,  4.180871872887979
12.109749886308107, 14.397258288622975, 35.541632970401011,  3.888978106077870
18.620813102556493, 14.585858681103606, 54.060006969921744,  3.560455105169162
17.287560946904204, 13.286554667462370, 15.767254855221941,  4.193048456417936
15.886261717582947,  2.635750729603523, 74.691609551719310,  3.621580584522862
 8.245544071939857,  2.565664646601909, 85.366692898186727,  4.014577081278679
16.830727449568965, 16.847334839890546, 98.770787192750063,  4.102152443137757
10.142730057448148, 17.995708288794848, 55.403975980472623,  4.048526862545128
 8.941775928138327, 12.119266385011480, 111.198062698715390,  4.081410850004199
17.420352151987355,  9.600181058959000, 25.282527150137614,  3.844656917873607
16.143361892396602,  8.284827922329786, 39.102135704548587,  3.625194773144199
 7.483894802677276,  4.708768795137654, 81.749951184153304,  4.462124066345709
10.322599229190395,  8.120083541125702, 67.054680051646443,  4.317295773786738
 8.760503223016421,  6.517630577215771, 86.482144407573330,  4.148443225436492
14.751728428728105,  0.932264130294799, 30.819814693143414,  4.069088597193562
17.828071111760224,  9.487353898033470, 78.354163182138322,  4.061379343167129
 1.041874027542112,  7.980151437419057, 51.397152749177970,  3.762964547800764
12.868463471149363,  2.079362628561177, 24.380036190290912,  3.912852346135905
15.198943281123844,  2.961640713137157, 89.028257126552020,  4.328669588418241
 7.896847286283137,  0.216336850028024, 23.866853146399638,  4.038422331071511
 8.587575366358427, 12.279791068958085, 83.523807671673396,  4.018730407152201
 2.326951221593356, 17.324683516184876, 110.254055895830234,  4.649262461458465
12.665462865043672,  1.929314610077969, 72.064705399642733,  4.398358661929774
18.917155013353536, 18.820910962486103, 28.491682806528662,  3.731353098997767
10.329046139885408, 17.513605516406123, 87.256677031510222,  4.026443057811789
16.594695967726832, 16.253968567672342, 30.286872612589221,  3.714088111431034
 9.795090283422988, 11.191591107829364, 35.066134039590281,  4.037956519598819
17.565522356930142, 11.822363328882291,  2.054145745798482,  4.107302178571138
 5.831148879498542,  2.158078180461956,  2.109792819755920,  4.138142044720241
 4.254509559449819, 18.125945826594517, 17.376348382114024,  4.117159557455147
 1.236328139774028,  6.682282575754648,  5.800101091342636,  3.984352382729817
 5.388689686718783,  7.121821724271643, 88.700152961505509,  3.875814614306174
16.672399753608033, 10.335082538741700, 66.192498024862786,  3.891282434134424
16.479597135868289,  8.769645435895201, 107.160660053321422,  3.800209426558971
 5.482621856611559,  8.286804963622886, 69.248684783999565,  4.499850172915473
 3.720385999434494,  6.672844151250219, 20.645453614746057,  4.406357275167435
11.442889728166797,  2.705986103269174, 97.341485670571743,  3.815916697899222
 4.688789300824451,  5.654157060794999, 11.443975953833579,  3.978068570546819
16.621285609443710, 17.735975712014312,  4.914328537798718,  4.005823883077917
 0.001092017523672,  0.310215302468246, 11.190210230503393,  4.156113495953996
 8.553660638471555,  2.639474314706358, 46.239738436611766,  3.991175874214295
13.238840526492925,  7.903596407673763, 103.201245161707035,  3.975048280155835
 6.702184825402996,  7.558469308472175, 14.040365203234369,  3.605867307627988
13.927276964240082,  9.234626439212875, 69.158533139726629,  4.286533095640708
14.810665195038512,  1.949534316062697, 20.938206037923923,  3.983246511759925
 6.229984660817171,  4.135380834631722, 77.303587312478470,  4.349252977835667
 5.096324416784943,  6.092446873340986, 51.787743815871146,  4.063331164228303
 4.881619879169774,  1.502896536876791, 83.033823039814678,  4.182631925921199
17.719298374292897, 14.957485404625931, 43.250136891193748,  4.090760329476176
 5.536263370715771, 11.662099297825883, 66.713260923154351,  3.872596054421894
16.185886966465052,  5.211056057001583, 18.828476724374525,  4.175223796178983
 8.871108593272137, 11.796340876596414, 103.870714783207887,  4.220740408302954
 0.884372535370070, 14.643601243376541, 97.382777753582857,  3.877375240583239
 0.643980988160501, 14.726595747199871, 36.034549599676346,  4.171780920048993
18.207716325354760,  5.005765527667458, 49.499638472566197,  4.105332275118815
16.254466486436183,  8.616726219751980, 16.490521907380078,  4.005409557612357
 3.274015550860280,  6.123212145563824, 29.008669010392062,  4.391498682495969
 5.041329010443020, 18.082132781142487, 100.426198963516768,  4.050626336439825
16.071831347702332, 17.081006321317741, 48.215362388757598,  4.304111275824153
 3.414032840032027, 12.298319292761784, 102.463927508826146,  4.179373424238427
 2.482187338420199,  3.100046831273137, 18.724612801954986,  4.066394649240257
 4.016567595134170,  3.936479501521379, 90.672697256513288,  3.970443160654533
 2.214069160377798, 11.078654968372597, 42.039690324563317,  3.630947958632957
 9.979282354469229,  9.843234073859618, 53.338278492992472,  4.148884536959400
 6.475784556722035, 12.892861319056296, 48.350765273250950,  4.266853565735699
17.914012262142936,  0.902504227066553, 117.330240828292446,  4.072308210101094
 9.096328556552960,  1.779880028088601, 17.301334266743563,  4.044478768834799
 9.259325022041212, 18.534884647138963, 101.366042137445532,  3.689045409387854
 1.282126006868650,  0.676626371315932, 113.945080313993941,  3.941188803658537
16.068325844994114,  5.079635362437536, 100.158875304790087,  4.057773919997532
 5.317740167841642, 13.211930750268047, 90.612884802814335,  4.268046506776301
16.893284477110637, 17.577402121920670, 91.635229829054651,  3.579172250039844
 7.519433241643061, 15.655029913708127, 25.417337120956336,  3.829032881599105
 9.143540829184834, 16.093980665676838, 117.349336303542898,  4.138585506713086
16.190079488269838, 15.193994317055013, 19.911465521309189,  3.777788313826146
 0.773755216680867, 17.713162804539920, 68.905113554450324,  4.327979552608750
 5.640024435495917,  9.223783423517926, 104.061180405689825,  4.012795114633573
14.072165067350571,  1.567254033816995, 68.242912772283987,  3.706184787934576
12.775850739479537, 17.190965792306084, 99.378915603214779,  3.952539618257533
 4.638345990112574,  5.094787560291709,  7.484877320614027,  3.573500990911052
16.048817748640168,  3.464690552937912, 64.877285119058143,  3.807178070526088
 6.864262224320877, 16.102473173363130, 65.464566308841825,  4.192776644515286
12.346365056114749, 16.349583530779341,  5.311061510730707,  4.027598921075548
10.309591412091336,  0.653222824663527, 68.632409353737884,  3.975421020697933
 7.397978421659756,  6.648664766432449,  2.027642998604513,  4.023175249526925
 2.623030315319220,  2.138740077049178, 117.439760963905641,  3.916034618362480
 2.856094906011819,  0.536679877794945, 76.632727227505754,  4.048969315337173
11.910771395200650,  9.434472417487562, 96.839982058690808,  4.008311729127594
 6.935885372089605, 10.302561106307456, 114.144105083016044,  3.873237103836435
10.835862500641900, 11.355672326076256, 18.792588851354154,  4.005688788333508
 3.706659845142884, 12.921585904520722, 75.810512520146162,  3.925470595760765
10.055773115737294,  3.175647386633270, 21.959060606587880,  3.739411207852756
 2.346589173618470, 12.500593929501623, 59.990462146973833,  3.730515509825401
12.736138658129244,  8.588541767911753, 59.884472570747214,  4.213506612663970
13.151147236054371,  8.886486109192401,  5.527010281846017,  3.949810183558718
13.546844570253372,  5.841135235156409, 15.514866061729732,  3.987503991207257
 8.509618337608559, 15.565488545184101, 34.174763284409273,  4.147455002768612
10.840739109784046,  5.936701953157511, 95.342652822497513,  3.856793177702681
14.521947581166588, 18.425568449427296, 111.720613486195802,  4.165513644700455
18.913874392457828,  4.032920962740412, 72.331791782528299,  3.865236734946421
 1.081417863189841, 13.028138244370780, 117.231631399479383,  3.824766524224255
 6.450362120193126,  6.578246120974930, 56.847125516726713,  3.852207810533963
 0.617547478067719,  5.994508644458802, 79.273764146939229,  3.983147245484866
17.024750574078912, 10.159226813995653, 53.722088348014928,  4.186841289312373
 6.148651219582521,  8.871759125272133, 23.771063109561872,  4.194624180115913
14.615293790539369,  1.688688054418949, 54.912524548050300,  4.106381380536728
13.122067901829363,  8.038996206060169, 19.203739677850994,  3.992012507794054
13.375705245215277, 11.473510481437293,  2.309816986838317,  4.303666474934520
 3.568739193838478, 18.457264786104702, 65.470556485466474,  3.815850907441058
 9.857126579680724, 14.086874269891961, 72.847144037537277,  3.936059656350472
 0.464955247824087,  9.124555033205315, 117.414530372566730,  3.970444171516413
12.896631140710502, 14.162455843167672, 40.233827425113859,  3.760220996125599
12.640623323520877,  5.982662361582716, 43.920697953454010,  3.897317880648579
 0.194335032997749,  7.987303049460947, 19.100907173627512,  3.610612953050145
 7.136617589227973, 10.773998695619220, 107.725313641455784,  4.135689853633258
 7.255016540702805,  0.595516257872164, 97.101016856036239,  3.919371845060428
18.360695520308699,  8.193794336026428, 100.599985419540971,  3.657429010106529
16.542968890638072, 11.763529519665385, 71.388026143806584,  4.242603811744915
16.853594859463357,  8.565951254333752, 96.196315942227855,  4.351501817300930
12.823731843628661,  2.387168030797508, 107.476689848629462,  4.073613602236104
18.120575616137401,  4.788898356615599, 84.997409649643089,  3.706090354017145
 8.162917238333716, 18.353335088208890, 114.091869494752785,  3.949644532176349
 0.574036784042792,  0.364969007029017, 58.191220013846753,  4.031570229136767
 9.060624566314612, 18.562972382027908, 72.523679253789993,  4.048436376147567
16.380064290938421,  8.928923208456304, 21.464072270201722,  4.095301077000499
14.906733077838139, 11.847925987939924, 34.646898231539879,  3.823057130616933
 7.572733147013188,  5.327626160849329, 18.828117423544207,  4.119199317901065
 5.073535807476836,  1.815554384707654, 113.975121244164441,  3.948140622216237
11.600088506680917,  4.225259514156570, 103.927901581914981,  4.106917817110253
 3.266617646974608,  2.369658576997893, 42.177872989120111,  3.938284294708560
 4.700602563469052, 12.227130903748066, 21.851034420730265,  4.008581438564796
 5.821622524574596,  0.563360022146939, 79.166141779354874,  3.743282791402505
 9.273703865949578,  7.579342565698628, 103.810234365257912,  3.974958652023053
10.196417926844973,  1.283578170625870,  5.484554262571282,  4.213583727447840
11.566238935484987, 17.777880835645227, 41.160868278770813,  4.164456098180128
 4.430328391694255, 17.152729491057912, 41.434609668696197,  3.750510569715546
 2.416444934506713,  4.915095628221151, 83.123080139676588,  4.038747150259145
17.766534067516716,  2.356892502994063, 61.297557459090243,  4.276624050471646
 3.514442948761061, 12.022644556244265, 70.180451924061131,  4.141541715966146
18.493712675872356,  2.482957365486655, 81.666863691759659,  4.119052858313757
13.442315806177305,  8.964430477767197, 24.702469031510240,  4.132769269714939
 7.358193354779988,  8.258870986562897, 60.508881877547367,  4.313354338668978
 4.516412317980237, 11.599983894883087, 83.075085855221715,  4.181921946950464
 3.087580297852016,  2.577821005001825, 110.409683869252845,  4.206291857750262
16.433855537860577,  7.620033200446160, 57.184212593164588,  4.256561205456585
 9.127811682471448,  4.387052085970345, 14.056215531214464,  4.257564244705857
 8.421213418900248, 13.999482531458062, 87.152515192678081,  3.906355463600233
11.005568279318016, 13.644598983049956, 43.422744241294815,  3.640510879364399
 7.616966912973303, 14.513867568722969, 114.028484727036911,  3.724212333118285
 1.814317570558748,  0.575818698526338, 54.358150422277511,  3.959779732003565
 1.717416175907209, 11.529833798230616, 65.706926856554347,  3.985745625983071
14.709497552834261, 12.709691852599240, 30.846104908350345,  3.924609527019254
17.627186888604456,  8.739296273034251, 85.267814070193808,  4.074959151409801
 3.803034033618072, 16.382708445620018,  1.980555777520750,  3.936854912327555
 7.581103050910639, 14.222560218699320, 76.277430301528739,  4.296881953414569
 4.480229289546578, 10.566477324363602, 110.835458265534442,  3.851469647645239
 1.021289444788803,  7.941409867803531, 43.798682147946430,  3.944050344987200
 9.423967013960006, 13.253572040526022, 90.876224222915269,  3.927658775651746
11.795210078931932, 12.815993367569096, 69.500121283707543,  4.045456197178308
10.808774912869669, 14.670046133187093,  1.968333779675844,  3.901757092374304
10.212781978051286,  7.991194164180364, 107.661813481253418,  3.920650630359468
16.187174698102769,  3.233196288555896, 11.016377399297015,  3.914782961719976
 2.918240638806487, 10.561602967379264, 88.484202189907208,  3.884535675141917
13.017348956004781, 10.789221005110550, 106.569428687221688,  4.184875773734763
 1.315682337045294, 17.153495400748092, 61.499812897413946,  4.178278434623525
 7.114847481176398, 16.363384865232156, 94.193682407172389,  4.173581377042995
 1.629744050178252,  9.477261608672462, 26.966923753928455,  3.579796170547859
 4.356630824419656,  0.440889839337148, 58.943579754159536,  3.653504114909499
14.328152677243445,  3.962872442688020, 51.565266967778733,  3.967793422967640
16.528131102732239, 13.083848220569919, 97.606312544739239,  3.689319329959601
18.091700692459508,  1.229724295585296, 110.309164125911707,  4.293645909581603
15.619052281896924, 18.756039890694471, 58.534775031692050,  3.980919815700922
18.399427429180914, 19.063055437507892, 32.534764733776541,  4.186860937054512
18.079599540221931,  2.369846484032771, 97.130555732376536,  3.789418341421930
 2.617622271794860,  3.033443978749286,  5.061835771210331,  3.955165318440069
 2.774108542080927,  1.319335848931777, 103.064962535777653,  4.195137727355364
 7.362534546624503, 12.229701224790855, 63.308269405295242,  3.582578972418314
 4.606352485239838,  6.504506737397496, 40.077590095814578,  3.924376355502231
10.174390169442644,  9.577246956572072, 78.038004439434658,  4.068296519545038
 3.310222673838549,  6.261144121773599, 61.177348526808430,  4.279912843144659
17.616202810581346,  7.944733983561419, 46.899037477128147,  3.733903415754686
 8.454455699422308, 10.673595701495007, 74.323469443354625,  3.966458580009233
15.777525341949534, 11.293158401385025, 59.129614809146496,  4.056723296419653
 8.339993230262325,  6.177274315219785, 44.362751147327636,  3.928699612509036
 2.169299806092091,  4.607148376711834, 114.176609552248848,  3.947755880728280
10.819575686856709,  2.505397407207278, 52.923769589310794,  4.098822398254037
16.738262290394793, 15.855794009241247, 70.914188157432747,  3.970506592102366
10.332352999891960, 12.168824925936853, 59.293826652828372,  4.148446243688565
14.433507386558002,  6.527829690591934, 48.532941314790840,  3.904909493327758
17.199041751677985,  4.030329726900603, 32.350154233450191,  4.300971819186816
 5.749979759019715, 18.862570911555860, 117.424523078766256,  3.849901398630615
17.538822482156771,  6.248677594853071, 75.582881619590083,  4.458655229087654
 0.002680870285495,  5.209055907634020, 110.916184167612244,  3.955644827491472
18.111972526507000, 12.926241357684541, 28.708569307176102,  4.111951066889076
16.733986399122813,  2.191634023992275, 93.426900530947407,  4.088883560974828
10.489685569603935, 14.858980666268550, 101.607411709814969,  3.915158306123125
14.980246334486852,  0.278935176951370, 81.396420380105781,  4.124852388061759
 4.101319538043311,  2.641977267039161, 96.090018602707630,  3.808500702665407
 0.845070567016171, 12.142624242739288, 12.643203485201258,  4.153649384142043
14.743978446827386, 18.355731852515177, 17.899480124602412,  4.125068388766587
 7.102985912324041,  8.815471940241315, 64.668963660052682,  3.766355738688310
 5.838291401612716, 14.965520364803416, 72.382668946807982,  4.329944877264612
 0.628537350597394, 10.524780597040190, 48.689261230806231,  3.700843847048851
11.461729259694957,  5.541185367511541, 83.506107892255940,  4.027035197239162
 7.954760838280631, 15.084539825569143, 53.636139827505502,  4.043018977303969
 2.568101019527185,  8.399759877471183, 76.578486110748358,  4.026732805628757
 3.611208610946632,  5.485839659923403,  1.920568195377064,  3.770444416565506
 7.974732024692462, 16.910655236674202,  6.387764168226405,  4.196104205960755
10.144248255468089, 13.686440981192606, 107.485754389058343,  4.168972793473810
 8.893674328022959, 15.861376265030332, 69.221784402374482,  4.358001534739553
 3.815361737957625, 14.222288104212479, 63.282408483425002,  4.181475488098556
17.147562479441174,  6.144297443022754, 92.837884574102546,  3.891870503286092
12.783812084416958, 12.531036216028230, 22.341149398904243,  4.399034889197678
 7.685310085247527, 15.483671821334619, 61.467629156824650,  3.920967568549288
 3.232751305066023,  3.025274587688116, 66.596851968788087,  3.882398197356103
16.618489427770612,  4.048432653673341, 107.681422781021908,  3.919255725695821
 2.961719010815014, 12.620433534769312, 29.482854367343112,  3.967527772127780
16.555904434027937,  5.397091641485677,  5.006543470112721,  4.067833231121198
 1.479510401808533, 14.135720985992645, 81.845335574987160,  4.065459332598896
15.919300987303190, 15.895032179463866, 34.307043414250096,  4.469829738076715
 3.380150120214181, 18.955339920429321, 51.010816890920111,  3.569621641747876
 5.805184782087541,  3.972774436237537, 63.832405775104000,  3.891032520940026
12.162397825950254, 12.326922806252016,  7.242682875904372,  3.881736617872689
 6.068829692243975, 14.562081021270163, 16.100240311215586,  4.132102424533081
15.496914568368178, 12.992005892117790, 47.300608861254297,  3.869380440184712
12.358565559066054,  9.832002713783655, 110.650940134197398,  4.202375886135995
17.515407224433744, 17.483809467534812, 14.706355945958217,  4.463056441797822
14.868720613973489,  3.764769527223111, 117.395534637628259,  3.955489020919467
 3.153070450746605, 15.707530173828470, 53.415467941595878,  4.101295352174597
 1.654580953176012,  9.574751724107699, 34.183605736463953,  3.951113716705331
 2.740428741279689,  1.928304277682103, 62.195510898341524,  4.115893096842021
13.870330747874174, 16.972852727387778, 55.554123439748409,  3.583727609297938
 0.278914930046030,  8.942038664145665, 59.907392366495003,  4.026812440488415
 0.545475563451623,  6.566743774416746, 107.263089176907386,  3.890804639187088
 9.406008739021429, 16.323151370382543, 110.753143624274202,  4.221972334233582
 4.611707963300987,  2.446971294127490, 45.822452644050500,  3.830028506785166
 4.128519757077373,  6.859175949686600, 101.301153364263598,  3.849224752489788
16.309489398204555,  6.468131867145114, 61.471240873090181,  4.452072253398054
 5.356114842994380,  7.624662878894702, 84.226321576330321,  4.246952988013396
 0.063007426622506,  8.440357015086429, 63.842866583753406,  3.906512302290268
13.689173802529655,  0.301498212013250, 64.583027995349653,  4.040367933894020
15.125132349576676, 14.108093644269079, 63.724043150894154,  4.166412445615806
 7.467307722282412,  9.413448408465296, 46.472196928099031,  3.759546964633688
 9.550104925544911,  3.109894688591710, 100.642107618598999,  3.834086896683812
13.267511070164636,  7.889087185031585, 12.098086319924734,  3.904831843030286
 6.148901250738187, 10.175470087436043, 100.120973597570469,  4.116304259416643
10.896865838785438, 16.247655365238224, 12.518886670426998,  3.835595713530329
16.655022206551873,  3.514547012236469, 38.310892148154430,  4.087321637670661
 4.973316686834321, 16.872282165143886, 32.395549822210754,  4.088162639741516
18.761944894359122,  3.366477287430529,  7.852543259731160,  4.199095810473473
 4.397688888226987, 17.469079835889133,  8.617168299198335,  3.777516867638873
10.342695262487709,  8.960836193335549, 21.999281988882252,  3.922539373862348
16.854681700847099, 12.581027377665862, 22.905321846501266,  3.702052932610806
 2.940612626408988,  2.895054618463190, 79.800733043564577,  3.752827863705336
 7.351586974586047,  6.226585542151554, 27.015512751078628,  4.221887596106551
10.296946225938996, 17.922673197326663, 45.266679920816081,  4.420650536322499
 9.295280360581623,  8.609464418595763, 81.916981641518717,  4.095857029173524
11.946038322390052,  7.037362622041322, 28.182944365156686,  4.337574430260792
16.380319768332150, 11.814864442375892, 117.340508460336125,  4.119181793025089
 5.855741756296398,  9.276675373970592, 92.084987529106670,  4.160616646605066
 3.882189085690039,  2.851636272847825, 33.958589207246760,  3.987022367473569
18.110589893064539, 18.341101655520863, 37.621552779126304,  4.344361946768415
 7.752524752440943,  4.560113452778453,  5.440322098318092,  3.913901338509748
10.003694845287662,  7.756021506434505, 16.498074181654317,  4.137335759883507
 0.783000256914407, 11.204758380891741, 95.703242407869553,  3.729260630791942
 4.446469792417299, 14.067718080700711, 12.207289896501511,  3.730350056944759
 4.384467972237475,  3.691488390255748, 86.590903108542278,  4.117970396423317
 7.574196000948230, 18.161584590792124, 14.569457516142100,  4.242396145003700
 3.422741293720517, 16.508249979433224, 104.034876803775092,  3.851428310470006
 4.597849624167893, 18.734948151598637,  4.950764632738085,  3.792602891301205
10.734109437698200,  7.171170413568344, 47.191963264454088,  3.720643445892970
11.816624889388372, 16.449646260629358, 114.180944897689017,  4.135904329760487
 5.174241703626779, 14.715758348744345, 117.253938018600707,  4.235171430207075
10.226335694712395,  0.942120393554141, 12.097412712546229,  3.758389534176829
11.850430148938425,  2.673222726461643, 80.673275749390314,  3.820744340597577
 6.837232576294305,  0.314020635409300, 43.468424701101462,  3.910047218958122
 2.877571618261300, 14.518221218566634, 44.014267238725736,  4.208153499565098
 9.276564984428447,  2.432625682465042, 93.928291803743775,  4.278309561608229
 5.105507866387486, 18.028179902460007, 69.331113354639172,  4.227886084271841
10.913251630605192,  1.241639334202494, 90.172530858783475,  4.183881664373276
 1.266500309074042,  7.686248599624713, 55.509923601357748,  4.068391946906313
13.703332286634284, 14.167600670030801, 72.969753512810755,  3.729915322048422
15.035515187373177,  3.931465621442797, 82.966447577992497,  3.810943174691634
 0.539255486133414,  4.603506411423558, 64.186121457296125,  3.817211148507433
16.495811368868701,  8.638800477263947, 32.469132367114511,  4.313407791262973
13.319882006959315, 14.647832542659666, 110.150318746538233,  4.328591226690314
11.652697035289366,  3.753374048590691, 87.076944593071332,  3.827146076808011
 8.695918039506406,  0.618756604890698, 81.758458681699878,  3.973169163028804
 9.684912686738862,  2.773672958687909, 26.574651138938187,  3.937375084628790
 3.772770922515513, 16.662659337282598, 91.847859480041990,  3.678538578831624
 6.359587027232689, 18.071821042713548, 75.663488213090446,  3.783488278505444
13.418139056261229,  1.917072868621422, 100.842900627497571,  4.270350816880884
16.680878942100417,  7.294474291933254, 81.583804188524638,  4.020834602647242
 6.843613582518224,  3.780060180414379, 41.734725137318698,  3.783764000530604
 1.489081232187633,  8.822931410807424, 82.239800398956973,  4.127774884745621
14.756287223831640,  9.924113499728099, 114.041747110522849,  4.044124738362789
 9.983428519670946,  1.279184352051098, 117.236071545506576,  4.345026956001799
11.840935781089884, 17.872169400337956, 61.138332420969192,  4.214236439519774
 8.153997614068526, 15.892648740308076, 42.276270532670679,  3.917760596310028
 7.156872238084877,  7.536807390507508,  8.832855740638669,  3.914328822262144
16.694272496019575, 10.648230659026122, 103.552411074423063,  4.292063102494179
12.238040162628890, 10.558935895541545, 72.884819013293964,  4.051166645102804
 1.137314318840766,  1.583557824046623, 85.228902247378585,  3.932943146945862
11.910266164634237,  9.913266231373347, 117.436606297971039,  3.946037885563613
14.198607179790793,  0.731005240280154, 44.964219575486332,  4.251907393442703
 9.005915227570489, 15.921850961821967, 29.994981860422332,  3.639820726797773
 5.511543347286690, 15.443353744077442, 28.650911103219517,  3.784973923100417
16.885913676672217,  6.128772407816799, 104.207381377088950,  4.149079139584659
 6.263776416952916, 18.982855397489860, 62.683543383039023,  3.775451598877785
 1.550920412830136,  4.137172817042450, 38.996237474566179,  4.058044957736461
 3.926108366877044, 11.497644248769719, 14.973718733151602,  3.675667801551226
11.530597413749806,  7.685941960904955,  2.034935216660586,  4.044010315591457
11.456066649035110, 12.712763085294366, 76.043769433560783,  3.641635181242608
11.970657032890585,  0.241033567994496, 104.244144200971732,  3.843745961176145
 9.107716295283717,  5.906308026588716, 63.229586456586908,  3.680203982681963
11.681877947409300,  2.193833774359080, 32.973157058393198,  3.839828871301644
 7.482591544021284, 18.735815782170835, 27.852376630730163,  4.022370393992651
 6.497769098622080,  6.578413867935809, 107.029535445042370,  4.038983455672150
12.836110409119716, 10.601085723858441, 15.151767254856855,  4.292049195755957
14.596786358419712,  3.358719755810970, 111.042839899502411,  4.007775886598155
 5.277699241606541,  3.240273866459081, 37.879670621175030,  3.799723263815216
 2.419811666229268,  9.275934607960071, 98.660188714523812,  4.042834178997959
13.811218521336045, 16.831399683337509, 23.020680329607746,  4.528682088094238
10.748306866278430,  3.204790758430000, 65.519931215932559,  4.112870271255627
 3.945289960229710, 13.331691674700121, 106.557856354422029,  4.310495981494955
12.461881957616711, 19.082531636730927,  2.136445597762348,  4.248315762917675
17.756311857406210, 13.264163531651807, 50.611988936553693,  3.962236792833882
16.246761394908759, 10.439634219769992, 12.746880910058010,  3.936464564636871
10.640329974485368,  0.686165229865379, 49.065412364584098,  4.016772475479079
 3.251717352112805,  8.316265373279119,  8.869355423706851,  3.966190260058606
13.731229331749590, 17.213674961647325, 37.583985494546177,  3.786922441231942
 5.638289597943723, 16.071818124457675, 50.507636744572764,  3.566463515490293
 0.562035061516564,  5.867167489853468, 97.677518254602447,  3.963143941078820
 3.721767039168271, 17.682545321074219, 96.418209102337144,  4.296145920407699
18.321236035006798, 12.421157215891427, 32.858535968826246,  3.957556426896972
 8.261753274537201, 17.860696557432604,  2.256435464144358,  4.225807940861221
 7.682137462631292,  4.149568845822140, 110.063097478153651,  4.014865171052634
10.198627408015390,  5.230173138366328, 59.423078950783065,  4.249550271083978
 5.499788995278398, 12.448709044432873, 52.203452002947358,  3.705064287133383
17.228367561322084,  9.475315989293074,  5.666767089210951,  4.239066424436310
13.270482690883117,  3.199987292746654, 28.006405903840740,  3.697123412960632
 7.692443049287875, 13.543924433853102, 19.613290885564219,  3.801623502057032
15.769021941363160,  2.013258070672905, 48.443114490140566,  3.800743030278467
18.205865235231062, 13.659949579312851, 78.418251042899158,  4.295391407511614
 8.698919433057096, 12.970662034340675,  5.345094657251682,  4.080567041769431
10.289286489982084, 16.836509364999554, 91.890811263347871,  3.704957227534833
 8.120449769381276, 16.019922816669510, 98.562008624124829,  4.137675297217750
 5.878010561321374,  6.045610971114133, 32.543197832659665,  4.040434814438320
 7.067003750343085, 16.928304423178471, 89.651438223931379,  4.126514637693679
11.371285332635168,  5.795470402150090, 110.920997425490526,  4.055145230434752
12.112103364055752,  4.000744193095869, 18.768956167342047,  3.986808335187191
 1.390886741118965,  3.018271434448954, 26.540111734102979,  4.208707362825397
11.405952413608599, 13.918140634009804, 55.614375889618003,  4.213570560255248
 3.482142235593832, 13.736916931695086, 94.365654117705006,  4.052596144805021
12.955135158474407, 15.645075755268310, 28.794422492810885,  4.045423243458527
18.559106890919782, 18.177624386520495, 104.309111786084330,  3.965286812643211
10.968486062258467, 17.800948350792961, 26.042845869648438,  3.990211318892248
 3.458450373836139,  6.586953403864017, 117.434968673915705,  3.708940666379084
 0.346363859560685, 15.410313234402667, 106.972420709732162,  3.894550053363526
 5.282025415782619,  9.637432075716674, 27.632990103554516,  3.831596687908699
 4.846226437272348, 14.278653533897215,  5.043798649634704,  3.751433416287377
14.973374072342198,  4.663540814522218, 96.218832168549710,  4.126896653042157
17.936703131988153,  1.554098255590042, 18.564057151630401,  3.842969736578539
 0.312901929953782,  0.707041902922823, 48.180357375895703,  3.939298274508122
18.394087870184954, 12.064688778179169, 62.379705111512969,  3.982645557555174
 1.782389809053447, 15.711631445862643, 27.249308939658032,  3.974925532657614
 0.073313453100718,  5.200555985001853, 58.862731294609851,  3.671401863719054
13.837332394680232,  0.833429240722091, 77.474204612356928,  3.829146565455167
11.054003982099275,  0.577043852966912, 29.462982344354849,  3.761806931681965
16.576666139321219,  1.359778315220339,  1.989670219843028,  3.973246133631975
 4.324000366754547, 16.953705941967392, 114.001350112424745,  3.719023727559948
16.690991547189313,  2.623980198089547, 14.933145869070470,  4.006551826084138
14.008464938274049, 11.230519732749030, 79.260062690560133,  4.389354936999151
 1.108502695200231,  8.412663358211427, 39.441969472152586,  4.096270396157483
 6.360877040249872,  3.703778167090070, 59.878496094779202,  4.055578795476205
15.919431294727405,  9.937340716808032, 49.668562961750325,  3.861702043711199
12.247211549879591,  3.688015102963849, 47.015013202305809,  3.837655999793813
 9.574185123987261,  9.547082514563776, 25.907169129458403,  3.896192600892359
 8.676262478184638,  5.992771037989226, 53.649098101458875,  3.822226220519005
16.924305727523169,  0.694867818104380, 71.026526243187504,  3.926295253524888
 1.311098729571825, 15.577566968204188, 10.426215201695317,  4.070166557839173
 1.263630916412407, 16.080686448034861, 75.898214394288360,  3.818791248350217
11.616418986052583, 17.328981449452478, 107.659558987656510,  3.623637115552989
15.460573492385253, 13.576952113232371, 55.798159880079822,  3.879785218972765
 9.182984808779633, 16.687034340222510, 104.809377959863426,  3.905370275094222
10.013792688045612,  5.406761876389863, 78.461716878691092,  3.942977722901901
13.019300532071599,  6.369760445450896, 72.474625185351769,  4.422536782187509
13.077102668162146,  9.508491718408955, 40.916189213524717,  3.804083841144126
 5.714067844097682,  2.670634681336451, 30.185699011281329,  4.198444329129511
14.876718919951729,  3.429338389728967, 41.957930140240968,  3.873573465131358
12.749091851292915,  1.900053483394156, 15.375829047526679,  4.024825759028002
11.070384170110549,  7.836071202934083,  8.729361598493353,  3.876863531035344
 0.784413237042907, 18.617903328992732, 24.812050960752206,  3.696185559489356
 4.674131964818594,  9.959624859555046, 73.404674000187157,  3.838244505052181
 1.448516794429567,  0.602320328154032,  2.070988512127278,  4.098936028767382
 0.766198940868442,  4.756062983394248, 101.634655631196296,  4.105314290310965
 4.295922938765193, 14.089056103164271, 86.528428093219077,  4.331109473762507
14.704847307515571, 15.513826531748006,  1.941080896743892,  3.719537284233906
 0.077529201715718, 16.994792881367726, 51.005199754930956,  4.024720128316423
 9.705195224147875, 12.925679548070780, 50.822379229555096,  3.825581181884128
14.508725875586052, 12.049252991897697, 43.377711316236379,  3.810698262037419
 0.067096371976019, 11.915562826814789, 56.856893861286949,  4.081290391332549
15.860145755391770,  8.049133587044668,  2.027815908736656,  4.011415174998833
18.686466117535936, 11.343902432663896, 113.955717798100665,  4.117907522191913
 7.705510705793293,  8.100481250570310, 117.375794730048796,  3.977708740822224
18.845629802187851,  0.410252987888871, 64.891205195493370,  4.176215796463899
 5.405856434612210, 10.321864346339137,  2.112493229778238,  4.036689283255712
17.754340527574691, 14.211273433597453, 93.913865582327034,  4.352888974507609
13.905135951672065,  5.953359398050880, 114.162018294037097,  4.061094173617704
17.449400681718078, 17.982196283494751, 55.065515600357131,  3.848299590340807
18.234580907706171, 11.279769017377143, 88.476071789918450,  3.703456512699817
 7.356483164514597, 12.272137577523356, 32.097106695694073,  3.828648023848674
18.256748648404152,  3.184617235673703, 55.795492800806251,  3.789084577630328
12.759714759989201,  7.499616989984138, 80.345991954900711,  3.712640350923779
14.163536231881402, 16.560700758061660, 84.600463892801301,  3.872588178561979
 1.807357050803488, 11.528297780368598, 53.130628941334322,  4.123478105472846
13.972010246452907, 15.690450922377089, 44.778123908973377,  4.054579817022049
 6.947967277441777,  9.481898981087252, 19.565252657234097,  4.388609644569531
13.795585873629665,  5.554179219087003, 22.268082963035361,  3.925627544545366
15.055689907721577, 10.146846282345583, 62.749681291341425,  3.663637539480478
 6.486888393598671, 11.216439641394784, 79.274712881069021,  4.338686919944142
 1.640928056207833,  5.943406134677861, 32.789982362136513,  3.795611224726537
16.294790855436975, 14.270159302995658, 38.257554865340509,  4.016225477645392
 2.951629172796457,  0.412617972212763, 38.862612166138256,  3.757332700928790
 1.256063244586825, 14.340729948513067, 40.133259397070894,  4.060834873913430
14.904950635258158, 17.848844890180366, 74.094158506884540,  4.334444065430588
 1.617356378230946,  7.231730204714759, 90.911504566884986,  4.122116352752171
 3.907097386122991, 17.998895678999816, 12.617206643295134,  4.051698166744299
13.942714889550109,  4.429673162698901,  2.050088193906520,  4.042872567265722
 2.393937434429195,  4.499393596507174, 75.502888120971647,  4.007786217532236
 9.989009655174431,  3.608568415079787,  2.030903634017753,  3.868814094223441
10.971686004419832, 16.643913468407980, 75.688227475977484,  4.010004411829274
 3.231815300157311,  2.186625178217641,  9.418457864792659,  3.956130519369963
 7.437858398760358, 18.976033606441870, 39.711408861409630,  3.719103259807667
 9.851993040251319, 18.588019728457393, 64.556068217380115,  3.770073214079935
14.595313783143451, 10.116343824867371, 87.458624330859436,  3.858327919105485
18.530553065432496,  2.865981705707490, 68.151268752840892,  3.941187348669343
17.184065065840450, 14.352744135151566, 74.529369689018324,  3.838235450859897
15.653141486900324,  7.259013576629100, 110.717758510033562,  4.089663089223605
15.568521458283907, 15.878439501665719, 52.507156644472857,  3.657445837323249
 6.105262559930232,  9.421596649947334, 34.882399116699723,  4.150109006913744
 2.970585478626539, 12.130871363400432,  9.246490766437745,  3.700662388078629
 7.820522656773158,  8.214634069424164, 110.844967636647340,  4.044011100660770
 4.614437073708038,  6.077031961118882, 97.616175150856719,  3.737004230821822
 9.798920845604473,  7.067370366873422, 74.946805374694620,  3.815340929774150
11.750786335566580,  5.129707763453896,  5.503575814513467,  4.023387177982598
 1.081104843668043,  3.951095180597485, 45.389193820297699,  3.821135747781006
 8.122833430529017, 18.763388843141911, 52.024249006437564,  3.915057748897274
 0.335892052966397,  3.764091832366754, 88.700068960690629,  4.328362313085801
11.970473804023609,  0.859905136358162, 84.270603618489801,  4.215715183104587
13.952534781563473,  0.018912257485588, 51.249639241035574,  3.975104857542996
 7.841780251789222,  8.231030401119984, 96.749833053189619,  4.202070482493541
 0.354091170053022, 15.681823064806759, 113.874441146484969,  4.189795521660017
 9.361331326225956, 15.602163145836265, 38.306252035929042,  4.252433434842113
 4.956015554919222,  9.269052947939585, 54.348764993087016,  3.983816019510373
18.768401581464126, 18.105810589360360, 95.251132767266952,  4.034936626750696
14.328194560691427,  1.962669334307983,  5.307240361175071,  4.111391287382727
15.032501608459386, 18.741778804693961, 26.848948589447687,  4.252896301476431
 7.970626358706268,  4.328503629247310, 97.374538631596991,  3.697599859225872
10.999473232935129, 13.394075504647171, 31.887735896409360,  3.794286370980516
 3.970481234539119,  9.350487645311762, 58.265804522982059,  4.052519975232855
 6.599184909650744, 14.878922974858806, 102.380541317710154,  3.986843910594872
10.674455655375397,  2.575520038098386, 42.847467363979128,  3.969588840982276
 9.003290893510499, 16.170770066319953, 48.820054827473392,  3.911207560876891
 4.269629019637997, 15.994943942682164, 37.770153058743176,  3.913664951110226
17.238530553613838, 17.781519000314407, 77.895364107275455,  4.185166967885172
14.861007789779125, 11.673387534616609, 18.724581274121629,  4.012759632860367
 5.656338596466276, 14.385494522959389, 110.255907354961963,  4.107036138849527
 7.526110626204017, 11.458943416348712, 56.215917702879658,  3.713855809109202
12.988388604315565,  2.205578777990094,  8.992646829607203,  3.633059624909751
 2.613295278150130,  2.052237009223798, 70.387682560402880,  4.000637941625082
 7.014272780200675,  1.380958786063933, 66.566748344713488,  3.873637416801553
12.947198808862685,  1.809311445909267, 38.790258301324627,  4.127262150218315
11.153246403548293, 17.610778079925051, 16.354911587881112,  3.657407672218310
 2.998706017199920, 17.989725002474614, 72.899749152343972,  4.026180319613415
 7.749213332265587, 11.862116352633887, 70.032573502176305,  4.104518386447852
 3.436456931899762, 12.789453073433609, 113.910616398623617,  3.995178398360366
11.545219909199622, 12.373907361883608, 114.302209173048553,  4.000074959691148
 9.835381565410032,  9.410669417978337, 93.251414733863029,  4.089941316878714
 9.280343826454205,  8.269368689101267, 71.215394363380682,  4.041095575813942
 9.714636370765358, 15.799651101567179, 22.127035163555551,  4.051830030271479
10.219218606003059, 13.870538227246429, 15.677921424601575,  4.088400059426120
 0.800276656917729, 12.562995289569406, 25.134911246097158,  3.784862142790831
 7.352498653522417,  6.484652075252323, 37.262619898652730,  3.769530305119172
 2.105847686574566,  6.915913406334092, 47.602335318837476,  3.853374498844899
 0.260091606487659,  2.566901359040654, 35.532593342807914,  3.900282001653361
 6.117537234555843,  1.596172612665004, 20.274187604162844,  4.367459134027292
16.038458655386233,  0.935910331444222, 85.336696870868067,  3.990287034954076
14.300516589003490, 15.706049414317723, 95.856089960263844,  3.921816788323266
 0.100665409993548, 14.566572006800078, 47.099664057306882,  4.017962693637669
19.018523722318708, 12.110928234024611, 100.366819200258902,  3.983241585044279
17.673867213174702, 14.926854432744188, 59.440369737340447,  3.990586859984015
15.844421377465538,  8.341665291525489, 43.486921569750393,  3.929613676239879
 5.210469084027105,  2.252795715161908, 73.673981211829982,  4.052036556488540
15.557397756352872,  7.771087116936334, 117.400188767840518,  3.979943866480294
 2.429649159404678, 11.409558594326898, 79.206694313223423,  3.751299275587761
 8.957010119823714,  1.237541997742387, 106.680731850426142,  4.082344945608511
 2.854245038123988, 17.217772350659118, 84.162876192649861,  4.006783894780269
 6.244830730373517, 12.262660715103550, 59.734281985599452,  3.854370281483761
 6.687808109475596,  1.422804772558041,  7.678118859990649,  3.907636982495449
11.882806644550961,  1.571827046602117, 58.021313568658698,  4.163065530609425
18.889781797012478,  5.268451075041532, 22.228359754163741,  4.415971232768045
16.294846285105894, 13.214262552036864, 85.734797463153029,  3.873375914087648
13.656545367124590, 15.628331876905364,  8.975660591786015,  3.840583633022832
 5.368554518444104, 13.285250161044445, 40.715332044037538,  4.321367656650992
 9.303338892137997,  3.931591971491185, 113.954145335573472,  4.143693753404476
17.621695557135379,  6.578424176571670, 66.986621057071574,  3.981199481962852
 9.612361889016722, 11.645862047945108, 40.152823365105824,  4.411292061007569
12.689532945817456, 14.991323516441515, 48.897357630596915,  3.718136376239614
 8.487484055017996, 12.072872198585568, 117.377080522627438,  3.953560247220054
 1.964473002039972, 10.914448720560339,  5.699983462570229,  3.949879649533266
13.599698577350988, 12.352941151689706, 52.220831834758521,  4.423397671249282
17.405200000866916, 10.182786634392881, 92.229427485257844,  4.286119695892531
 1.699420746792273,  7.487591624808517, 72.762812945412023,  3.959499529304738
 6.483874876453178,  3.207788889626003, 70.005651237567875,  3.883491828889248
15.439035773899153, 14.069704968131296, 113.903871512379069,  4.294800346274512
12.777458570975137, 11.826083525744981, 102.630017923840356,  3.945447416038565
18.014865936043904, 10.891882147799601, 36.882825498667962,  4.045296944066302
 7.970674257207965, 14.971612918046306, 57.578804417945456,  3.845321512682413
 8.697491331550463,  9.015468084109955, 89.463000746391160,  3.531899755185773
13.815205021992092,  9.053164210019359, 83.714954960236625,  3.922521295718745
12.860329541082166, 11.382624068411781, 37.727193844574096,  3.601731561313518
 3.491171649850485, 18.670287855304004, 29.098044616534416,  3.694376391675639
 7.300366880103421, 12.394775822671727, 93.994802040998366,  3.699038119193936
 6.124981700197072, 15.471417892538286, 82.219623633311727,  4.355244840400683
 6.551504605141633, 10.598077563293417, 86.808260810412960,  3.869888872200679
 1.288533001686561,  8.758917208372075,  2.132852296465128,  4.227806890365585
18.949710283225588, 15.298634972896556, 65.009331224427939,  4.223608224753808
13.607018197433559, 14.714085656985285, 59.103343184292953,  4.026988693405922
 3.297301767930746, 14.560909957213084, 18.973132168453912,  3.847033505548410
14.426811269684103,  5.742606564168340,  8.492062516209845,  4.003548501575753
15.302546171719897,  3.831910595356093, 58.313013614989750,  3.966093739190487
13.675043695952368,  8.005636939718949, 93.479391554368462,  4.061663182253960
 2.346336114741018, 19.031566622478753, 21.254761268972434,  4.010870207963929
14.956564231321078, 17.713768039087437, 102.525049626296195,  3.748607072469824
 6.983025472344929, 14.050239257740170,  1.922821452161197,  3.814738669887455
15.676061016326107, 13.645955651148572,  5.433093763843279,  4.432286825239890
12.360339843654755,  5.711918046043244, 39.906597155233122,  4.054633137712451
13.323444550546741,  5.802088570880377, 32.089806037636009,  4.204073242434319
 1.977922737845910,  5.836725856756529, 69.094643541181171,  4.005902368061856
 1.280467972218879, 16.797426474703894, 100.787803449126130,  3.898934664668920
13.235560186864536, 14.253220687551362, 117.426627214500840,  3.814671891759831
 2.877212224766529,  6.561602196402807, 24.815222167472328,  4.050868016175777
17.284685745774535, 15.796141518910627, 110.373534300406348,  3.908820647320869
16.952081848946616,  2.932412263874925, 28.294147852542093,  3.691525151423042
 4.435668064128831, 15.713644866589767, 59.154365404411458,  3.993598640324630
 3.453362738711748,  9.210865938703366, 107.347683584046564,  3.850011954694350
11.117276937521629, 14.000517840193412, 62.853106962204919,  4.004330884950129
 5.309309413157251,  3.557674732118852, 15.664661990792151,  4.185662548357580
12.939017208141939,  1.995019619524923, 114.413162608859807,  3.928054762783521
10.245019866073656, 13.406654031411515, 79.777362454943770,  4.329881510792505
16.172667060139382,  0.342495489120548,  8.433135567298230,  3.821530405828692
18.584435893901755,  5.139165507423449, 117.439804058357751,  3.929001880885298
 1.596537294085418, 18.268826067380488, 80.345085714059650,  4.010335779893380
 1.958223134301652, 17.297935070907982, 117.391421566165420,  3.996984848744030
10.716340435819204,  1.278279438195983, 110.958299883718411,  4.324428381289517
 5.351188334062429,  2.284938782487670, 53.300504879917256,  4.123267750230418
 5.023117245063684,  1.930696672182118, 106.853310900568474,  3.899208429537647
 8.201885269118129, 13.453538919578708, 12.261791327431846,  3.880972317428931
 5.923105113389356, 17.050894164443893, 107.123122519459656,  4.110523632807315
17.124907015595404,  6.064989802236724, 53.439635546237945,  3.963977685300321
16.458375541387607, 14.464048854172930, 11.730038422717371,  4.249501389234492
 9.068781510196406,  3.411010215071947, 73.560657386444134,  3.904381943138508
 3.461428277996446,  6.433624349712889, 36.258145661853099,  3.981612776918547
 0.681048973813788,  9.743610568803025, 30.456834893363609,  3.626781104266246
13.972744981895838, 18.348788868096758, 117.214127228852149,  4.148373216299320
 6.565098957060016,  3.973436591567438, 117.223740728167428,  4.333987980378683
10.753550429412055, 10.286261800951989, 86.365596734265921,  4.101632772612302
11.313770752313701, 19.014615496306639, 20.177755973733358,  4.102301107903315
 7.986855651481726, 12.442592500330207, 28.182674287839724,  4.039142866634881
 8.959403538292646,  8.689597809078972,  5.310086790885223,  4.301130188860092
 7.649808386009649, 17.285576570850672, 10.617233426740048,  3.843104672485680
15.070963342059233,  4.488707842515676, 78.879947628622361,  4.375841138585692
10.906826347038850, 18.284241243405503,  8.770519892689753,  3.668114943949736
 8.884243470972940,  7.555321951760374, 40.716987889588907,  3.940779256020411
 2.764771210581251,  8.015772180269877, 94.858309941881060,  3.892728382659129
 2.878272017541736, 18.466295708063921, 44.594823809076530,  3.628745795734431
 6.694703497439377, 17.945696685782014, 85.559669241117078,  3.993591474556089
 0.922375834717577,  4.283838428375958, 11.948384830845489,  4.036725724087774
13.595582968127918, 18.828220590364388, 92.907900724253565,  3.906357722148424
17.110454446937052,  2.235954243798489, 24.448030559280458,  3.873980586924939
13.657158460460288,  8.060919689712165, 52.425922356165302,  4.151435455397881
14.129480345793935,  8.097349591498313, 35.778753170041306,  3.883414249402908
14.714502519601581,  6.100552599736058, 86.163875675516778,  3.901705098918558
 1.356743339959424,  0.825269305216641, 91.813878582112494,  4.442118364806880
14.323829065940959, 14.994304403730082, 77.125767438033236,  3.896709253181665
12.018580443965217,  4.726110419969890, 35.976270865154305,  4.009188579966294
13.039417283047753,  3.969074447553528, 92.580632981252165,  4.224859693662387
15.160005878398039, 14.937180483627793, 81.023634434509958,  4.044074194989292
 0.982679002146478,  2.248660367217809, 106.743819259404034,  4.116443821456786
13.908947696445670, 15.361654757551017, 14.912790504947052,  3.905953113874858
 0.104007030923753, 14.225237873099045, 103.460268181862190,  3.514989713355486
14.766208824613827, 12.671709073822846, 26.271050726121469,  4.160006980525508
18.262227946198095, 11.270262990279956, 44.971988022682680,  4.039802875827449
 8.654540937038391,  5.281487264588793, 90.463856924480481,  4.162237436975434
13.381690293107003,  7.598532076131386, 76.493500669778726,  3.991274198652440
10.496933439612208,  5.985334313206438, 24.485544877584775,  3.833522038581660
 1.094633824709145, 15.231994039176733, 22.229493184846543,  4.087956811478655
12.041934267669932, 17.255892014782393, 32.565190005693800,  4.314923039409789
14.325446320957173, 17.892096806981765, 88.466401960360145,  4.246459343475940
 4.374335080982009,  5.811819773390465, 43.973475090321209,  3.862766017958403
 5.637044538643869, 16.185917458161374, 21.949372190158090,  4.117998116937423
 3.572230527740341,  6.997221316763308, 65.390406014969201,  4.243753820098371
 1.243608139675198, 14.476015056031592, 72.361825041880635,  3.827980389176481
 3.131022399841298,  3.357021092701332, 49.407239860607412,  4.126377386567650
 0.031852964470393, 13.532801137148715, 68.708343073672168,  3.976355961775213
 8.329664942364669,  0.133683911679216, 32.287611666752838,  4.112288507262802
 4.366230748836585, 16.016834614831705, 78.398585218497161,  4.102177554791690
 2.673671597949403,  8.586139026368146, 114.022188826255871,  4.040753650407146
12.777585294410395, 17.085217360635319, 70.448520738916102,  4.111241664647995
18.113377955325124,  6.629612259803402, 28.874280010552379,  4.112831684199922
 0.986764273359178, 18.644539379047949,  6.866096091476661,  4.098633625921554
12.316724451133080, 15.912793697381943, 66.449621976917925,  4.193809216206541
14.163839406643241, 18.746219322254586, 11.989754737537137,  4.379606979306947
18.311176624530177,  6.697560764438382, 36.025726043053552,  4.380982008381950
15.796695929976403, 14.107096735653503, 101.508571391192859,  3.884541025389353
12.632158342219785,  4.082734566698169, 12.154435871609198,  3.731852164558897
 1.863313827233195,  8.144472740974342, 12.860106350587708,  4.057817103204406
 5.831332241978612,  9.230347148733999, 42.764845620811137,  3.930654932110058
 4.506210845190343, 18.039209747187094, 25.385942566601653,  3.814455170481035
 5.678235620182471, 10.691804948304942,  6.885005524743037,  3.858063694843151
15.546753517511737, 18.157792034458893, 107.410664624537219,  4.376239619784104
 8.792361448479964, 12.124751221166662, 97.608921986629198,  3.977797706891427
 6.514589639553341,  0.195234687148732, 110.514846935689349,  4.082079925769479
 1.013450964137311, 11.905807145956475, 85.188738752492625,  3.967782682837092
 2.009459902154109,  7.028008672443391, 86.624532050688984,  4.054424047327700
13.545763592824754,  9.770091181709464, 46.386134712530072,  3.858276832189589
17.315138312167115, 15.954529987766573,  8.234353493932744,  3.521034751975824
15.464093736126911, 10.846805976805053, 75.322136454806781,  4.021252169566973
 1.571300146296250,  1.504585022258235, 14.992022530473411,  4.243556913854498
12.420808960312092,  9.785530325011539, 32.385701331118042,  3.966916620899065
 9.160549329608768, 12.884927974044595, 66.468448396890352,  3.752913074149931
15.769090541203051, 18.298055791299891, 41.323452683222300,  4.253888008916071
12.675899368183273, 13.111428720781072, 98.599246153846735,  4.253191788947850
 1.635931417473985,  4.458439842660124, 53.036715222111731,  3.974345585434903
 5.465207676864869,  2.684861340843396, 26.058347629453845,  4.014787135123788
 2.926777130209659, 17.013533708313691, 47.948471072775455,  3.635728223622653
 3.323406093582394,  3.271785260568174, 22.784581987839356,  3.588851557507282
 7.584304887625415, 10.883861946544990, 15.727000752799466,  3.854643687998046
 6.278770443922082, 14.093145109848782,  8.816361252763278,  3.958658573328866
19.038773423006020,  4.428157324373879,  1.976212572210704,  3.831149955502636
 9.686060311711332,  9.470734917836742, 12.691907581378624,  3.975141660096412
18.001538125305252, 18.427949863655765, 44.927988659308156,  3.636878253129336
 4.352543609620605, 10.558635688882275, 117.296083278121529,  4.239663348814180
 0.381946772148708, 11.046740566885848, 74.345929462307481,  4.153418834539372
10.768882022916053, 17.889508585262881, 95.795271785101548,  4.367439500426476
12.434087035244966,  6.980014018496915, 89.586528142370469,  4.289673759914704
13.587278325055312,  6.270132225021750, 106.741503608071383,  3.787656670484104
17.631101510508575,  1.252960168628208, 100.971641303003693,  4.214359708877081
11.999415961128991,  6.150514898790608, 99.438093110607696,  4.204665929643707
 9.433476530120563,  4.066813813474706,  9.530859679482251,  4.447354680126232
15.517586843412557,  2.079707302324156, 104.412994054208696,  4.018907043004019
 8.017642143525043, 17.257144130852975, 18.543026321609378,  3.872360858297594
 4.039515718820478,  6.638760695564253, 110.301419019859736,  4.056089281301507
12.782659044762177,  7.102799503346364, 63.688651358310487,  3.927196008593505
10.410623957069298, 12.336446606933166, 46.976734607179338,  4.003603203968988
 6.468457172028410,  0.113732617141310, 103.834945335645514,  3.658529197082217
 7.361368918982300,  3.959538455130820, 103.914947739947806,  4.157609727205741
14.790778198623755,  9.643249470786321, 99.777238432485419,  4.188736693098655
18.284989425213880, 18.895713756501472, 88.372535560791349,  3.894413843027542
 6.990434663126417,  1.840282360465723, 89.079161380796307,  3.919142000543945
 3.807486673806416,  7.623787157555444, 16.521845283690670,  3.999832599940214
10.231422578517989, 16.250938623335237, 83.201618114691925,  4.125951962163218
 9.286509640804768, 10.974193827189128,  1.937338663893791,  3.832799536235664
 1.398054104989259,  8.691715379561346, 103.908373987288883,  4.192875279175531
 6.764362073653388,  4.929018629468280, 22.964908942043330,  3.933939027553436
10.210437932107249,  7.968478898730808, 114.174742089789760,  4.100483332787366
 2.356320693069677, 12.781649129125341,  2.297349367173160,  3.692663538069253
 1.304075671349553,  4.390843304968831, 94.086344133075301,  3.904412197980514
16.833525036732595,  6.544902011820563, 13.079659915585720,  3.948625517822646
 7.426222063214611,  5.377585829364545, 66.946603813254825,  3.663068212596436
13.733129323848893, 14.920347256983435, 91.881078259876517,  4.169825121112387
 1.172551718198480, 14.056949884102441, 90.447587434962585,  4.152261290790142
11.166754897620118,  5.485216897825662, 117.302091168959294,  4.096363414171134
18.907465658300403, 15.813795830344853,  2.114522505165827,  4.152451433778351
 2.380665332322047, 18.350995256609682, 35.143110037781469,  4.007184022491917
12.920558783656702, 15.254461191691350, 104.710177980217665,  3.986481594293231
 5.949133245505953,  6.240945341655265, 113.809883984823060,  3.952413831559603
12.313922132608297,  3.887457488624548, 75.712866763319099,  3.840527094794443
10.026321465698626, 14.762258485705802,  9.171329413115361,  3.614281269294976
 5.490672540100255,  0.881596290803747, 92.828787373396622,  4.060556999413102
 0.422248048103940,  9.565358847476924, 69.083909446731582,  4.010616753569511
 1.656314507303976,  2.624211724332012, 30.598209699771555,  3.915845079445323
 9.791420960924913,  8.543190396884288, 57.117246797602988,  3.802765219721026
 4.977344729369957, 10.821760561279703, 96.266422541486037,  3.511727564167466
16.326656832472811, 11.489967709706116, 110.439092835179352,  4.352687423809358
 1.159554271606374, 13.174010807530754, 110.640814397493401,  3.907975453183976
18.515744175183638,  2.208801527333645, 42.414994101331949,  3.761807704406480
10.307393809792666,  4.650660870156829, 69.527614638545174,  4.198166261609239
15.306271209017494, 13.593066686581771, 67.853876123895049,  3.863458248712836
17.606589397347332, 18.252428904223692, 21.764002649429610,  3.875566510714692
 3.717613695131238, 13.103396481562427, 33.648710368182627,  4.241265640898394
12.094646226535090, 17.141528247153179, 79.617651700795861,  3.959546490515953
16.439773837543864, 17.635230436568346, 62.223708048964049,  3.898347043096607
 7.872022400271028,  6.578072585783241, 100.357186855626111,  3.733606235370792
10.825210186215486, 13.930108438987348, 94.576578391978657,  3.900382051189776
 5.689451834941506, 10.399892000075452, 11.520658845447942,  4.122508678316663
 2.075340451500813, 15.290621798318281, 15.149274344107246,  4.123614193034774
 9.603109134302882,  7.325943932955115, 33.819035485171788,  4.002450267609523
10.424498188066440,  9.650248485698459, 43.929367267845564,  4.049368233031466
10.911290578408121, 13.801361003636185, 25.857274164899479,  3.908335683892329
 3.351271331364635, 15.002648977378216, 67.213738377667369,  3.873585596345009
 2.896380820090095, 11.543927143023303, 37.487585156965977,  4.080441186266069
 3.968120483690337, 12.938200365833811, 56.266636052717573,  3.980980401109201
16.627473536763308, 14.704529471381294, 89.192618658730041,  3.664909550218056
 6.293991551205297, 18.984474448281158, 35.965678662187152,  4.054636091159191
 1.306287272830029, 15.809213686111383, 56.927979451356400,  3.605045715407879
 3.452510253625916, 10.614823414009628, 45.817579656404568,  4.236159212709172
 6.249658086113164,  0.100437641484079, 48.489488680915400,  3.990129803562219
 4.524574462190989,  7.205301829195879, 79.914192222939946,  4.060416724792831
 0.607687696929542, 10.208511804173623, 16.045297653784118,  3.658332337960953
 1.294695314821493, 15.678768084807375, 31.475220033746243,  3.811620885388050
17.192883167802599, 15.823184727831784, 117.373463264552427,  4.041094016142075
10.187164752000312,  9.694964058644455, 100.485355600044244,  4.015382066154751
 3.291821120398075, 18.392919972998197, 88.170262280698680,  4.363823120079408
 9.173728280154977,  3.308169986465253, 38.654374234172856,  3.988455516894255
 8.099065917757747,  8.473505585610930, 50.088087301143950,  3.731971541821678
 0.295822514919150, 17.022458622154012, 18.483261213932060,  3.933766371042454
 2.185105083865235, 10.755024714758543, 92.358542405090915,  3.569587365552551
17.891881207838384,  7.353771912802700, 114.179971222344363,  4.017751811017479
 1.298299883176142,  9.672438129805665, 22.429119658526929,  4.072472077584671
 9.395974943574858,  4.636556860220770, 30.683921957788741,  4.097076566637782
 8.295169252451554,  2.924346518915888, 56.275652896729824,  4.260460755815703
18.718436791140277,  0.117577142426361, 74.417917232390465,  3.792341237143710
18.167240063309364, 12.270556605320277,  8.596069619021124,  4.060208163064472
 6.592917139630750, 12.986182548861839, 36.747189833083503,  3.954255386688400
 6.172412210810845, 16.175447350728824, 45.845307441541763,  3.971104925139944
10.995320577447686,  5.702021573598731, 50.611163484800592,  3.736761815239669
17.904758188044788,  5.812208454409681, 41.373695552973771,  3.817883706286133
10.326841429286414, 10.020685851807004, 62.774552373802152,  3.829077670457219
 5.807741618968613, 17.991162726930849, 55.628771437536301,  4.154206651923034
16.247861042686353,  4.575458898832491, 45.522128456745982,  3.989613683361624
 0.243939431449143, 11.445431796068554, 106.789523817625295,  4.002444616965080
17.317980843978866, 11.501019298103451, 82.099171905533311,  4.339395750445892
 6.153569285768274,  5.450899634029017, 93.907827494399996,  4.333289532913394
11.681113992463249, 16.195437138943177, 52.280578653163332,  3.716410954114731
 4.600722902087268, 13.781184240078455, 98.717942256130925,  4.205703010657140
