BANDS
8 8
NANOPARTICLES
cell(1), 19.134
cell(2), 19.134
cell(3), 119.588
 7.179548146383352, 13.858097375507436, 41.857376072382209,  3.832524562747400
18.050145134864149, 17.666485329362160, 13.112642073422238,  3.998044486193364
11.816430577282009,  0.154032657287922, 94.274264204313113,  3.880048551270614
12.306121050545263, 15.197664792490446, 114.365057389137988,  3.866665856333684
 6.473034942158767, 10.256806670598658, 96.742433418663111,  4.175170531450368
 4.482553121270061,  6.657138778528322, 87.407743249814075,  3.598490560730977
10.663892096844437, 15.282898935733717, 93.467904183109894,  4.056013290442313
 3.074272019700797,  8.246160483250627, 80.823934726346209,  3.636521130917998
 7.007531616064480,  3.263175308768427, 38.612642885707501,  4.396411854771385
 9.585407288608366,  1.721401317372796, 43.443227663797359,  3.960742679662514
 1.438152935368349, 17.150334322077349, 113.712365908902342,  4.415984149316773
13.680908827192219,  3.254354898484251, 114.412127776307813,  4.007765133086991
 4.558697583594691, 11.071303410510481,  5.487614226973654,  4.313282735454306
18.835821578013071, 17.754974387488193, 94.460007317037423,  3.742212077438768
 5.955889447539552, 16.575041977308601, 67.266698385056984,  4.030962947351730
 0.131896052841941, 15.308667244117029,  8.480940039909303,  3.981594650969777
11.573262104050134,  1.902430847413552, 60.861659185458279,  3.921312245141668
 0.404638061681241,  2.730097781294829, 23.200512958649718,  3.920739921173590
17.273839786384631, 10.144830413533255, 17.460983790641787,  3.596938919558490
 8.422504276643030,  5.192043873404429, 50.135438825666540,  4.068797199933579
 5.385842636560621, 15.861606798326028, 114.403673759923109,  3.915289383019623
17.610096858400816, 16.627346929054209, 52.109184881893000,  4.101718379325848
 9.595048619009727, 15.911551077478569, 53.359715863540345,  3.923131179365142
15.285319456325261,  0.166068806274615, 76.362736757621931,  4.056002395868222
12.483243826665046,  7.430856431456158, 72.578079189796057,  3.932212196680680
 3.983870360945441,  4.595914461471360, 114.167334544523243,  4.120077409740074
 6.519205553625116, 17.741878855666190, 51.214745745801082,  3.901736450716165
 5.016987482417598,  0.548217455057335, 55.122197074892739,  4.024895899013477
 4.079008918641810, 14.003530728618461,  8.547294783774520,  4.210044915633013
12.859652226176109,  4.183367112413486,  8.750567249316465,  3.911306915102562
 2.182786243545315, 11.296410816918048, 31.483345336847972,  4.040133307008154
10.019497456845642,  9.997729494537886, 114.165502565283433,  3.899901578896245
 9.824594790602482, 14.294620216576110, 31.773251765087533,  3.851395865525815
11.465191052406690, 13.955599058367527, 44.038565871173226,  4.004634504545925
12.087073596327501, 12.076459183021214, 111.569892864816168,  3.688280676290377
15.677706503248050,  3.297887059151468,  2.007935204326856,  3.991977102692540
 3.003967921610207,  5.363108385123208, 71.433522136849930,  4.010049645809862
 7.289818668372656, 15.887718466791393, 56.604010592833049,  4.021055962482549
 7.359497825412205,  4.839197807280920, 42.535566086919687,  3.870972534049541
16.429782639196063,  7.441759735638096, 35.950478388793265,  4.135392178108553
 4.697374474211946,  8.293885236241888, 32.788681988254446,  4.102870902073349
 9.472414928475038, 18.128629336624844, 15.159277745398173,  3.872920775794683
14.474159983386018,  7.327397108392127, 15.697048487363265,  3.992463012348170
 7.980184405141651, 15.380277883130535,  9.376589932966038,  4.129342547259387
 2.869853243784597,  9.261086473481775, 58.584560659118786,  3.996876727575299
 6.681148669579212, 10.908296542213922, 69.823011712796244,  3.893132693542045
 2.147478628809536,  5.743795435890084, 110.597247004959911,  4.121159169994899
 7.865136605513116, 12.537160434364417, 100.100007397514972,  3.888338585825690
18.334806911982948, 14.398485807876925, 26.220697997415854,  4.086363150788729
 7.628774070656726,  6.977957788319740, 63.072224538149840,  4.138368314602936
 6.254078877048404,  5.845746533443194, 66.677813902965838,  3.629598300296737
 7.845413303954905,  4.178237168702302, 78.672174831197125,  3.651894925329532
10.777834326785690,  4.363533188065892, 53.341130583538281,  3.913735113769981
16.471219308958471, 11.121221478410973, 63.394080226174161,  3.816263635008697
 5.371080338239273,  9.465354254878497, 55.225585536792757,  4.297616917942377
11.658778856717674, 13.608055667356300, 67.855289360476405,  3.860545896994553
 4.994721641161969,  2.556219775769720, 15.887688231129077,  3.799580630484890
18.578641645385559,  0.023746195537911, 36.852737146313736,  4.077681368296584
 9.921364347738541, 13.719275424067090, 117.377859154148084,  4.212664472733096
10.723928830738664, 11.873547362284382, 47.741222892407976,  4.121611699279890
 4.673851153323385, 12.053129192512994, 44.145400220330252,  3.821169002583297
 4.294091989316483, 13.124147095405046, 56.941193946051911,  4.049026840987772
16.656450638099685, 16.337516319542253, 38.958311683863364,  3.912778065085183
 9.275414019222676,  7.346394587678570, 18.561407401408044,  3.620579681082817
13.879555324132687,  9.340663067466167, 79.027440412949190,  3.603426238769722
 2.872768011920825,  5.176637198541930, 34.328994875519399,  3.749864965617233
 3.208993920895306,  0.949277428830753, 12.627099228024415,  4.159104678657124
 8.454079173669554, 11.864978389863943, 76.165704025042928,  4.002642316557935
 4.205341061663045, 13.962320583892424,  2.214827687190839,  4.263447311735667
 8.554234305355488, 11.533079719354705, 36.297079945896087,  4.155825088503663
 9.207936333158965, 10.573419492507668, 12.059126134104723,  4.432968411781665
 3.647070296761700, 17.995014282196166, 85.712698628334323,  4.000516892580038
 5.786801728613845,  4.347293164465730, 60.093742860035178,  3.965288450034850
18.875250068511793, 18.399432328849226, 25.276678844867305,  4.164595003311049
11.839674355471921,  7.779913291596755, 57.170439178881331,  4.118102516748835
 1.674964603677365,  6.385541609896333, 21.654446579489587,  4.322282958653861
 5.968898582119653, 19.092076977897197, 102.688571891020814,  3.892357571610183
12.841771338844842, 11.008473397685986, 73.418949330020581,  3.416034124864060
14.510984206452312,  6.653642610453411, 42.543410847475869,  3.822779404871975
 7.399822619624223, 15.878351842105427, 108.551759613810376,  3.930026525142486
 0.150218943632313, 16.234825417467018, 86.799149805999917,  4.072996587466983
18.535140239261739,  6.836981292503538,  8.686372914532090,  4.177317990712794
 0.729792908869945, 14.142278403931270, 77.342414665270880,  4.105888177546190
 4.452866428236774, 16.463810703632486, 38.285809810878682,  3.815991554977957
 7.006752959816271, 12.833639391809795, 93.382535102832719,  4.061700768663241
12.425691639345210,  9.718197628140251, 87.701458308276358,  4.190242399153400
 9.623126976227155, 15.229804011405058, 102.641606420213279,  4.300983138355555
14.237965580136246,  7.688848467153198, 19.589716340657255,  3.764928172912649
 1.902525690119722, 10.156237159193715,  8.512335046215842,  3.737713320332761
11.696519034347528,  1.673382674634333, 64.826116146822798,  3.989867170369866
 2.796712506483569, 13.494835070509383, 102.912208447333413,  4.080007680844256
14.110615387996820, 18.854235581059349, 36.393638007978566,  4.371439184147974
 4.438866642255842, 18.180911094980551,  8.750384682621419,  4.180523711996675
 6.572859459158529, 14.571566146788980, 73.126546013235512,  3.797303578551251
12.901447992545602, 12.025352991837030, 30.045415645922610,  3.854970703174175
 2.936839324909470,  3.638313896228921, 30.746766488444862,  4.003895699825494
 6.871263551727501,  8.177045199962432, 59.016107842782525,  4.217834144062384
 7.359148832607048, 15.495768507755455, 24.846425670036155,  4.286861737138118
 3.496563483698309,  6.574502379887718,  9.135911589125408,  3.857075014485655
13.841987388513797, 13.548107265093520, 117.685228059346855,  3.654808222791526
15.665181793701077,  4.998237048492507, 66.584939222495748,  4.327221225325505
16.298907989919787, 18.536676993582613, 114.107985900892288,  3.989084076241643
14.693300943283122, 16.539802196710855, 111.081129890806253,  3.845268210337510
 6.118469421837764,  1.297829761372901, 94.558408500380452,  3.926286291676716
16.079156844455593,  9.870440502092508, 85.446994697342078,  4.393659229338903
 7.449706204902251,  7.774306078143389, 77.230773569923770,  4.102954060333555
14.482049999376885,  6.349143547564510, 86.900549991654430,  3.824595759710748
16.174997523092070, 15.680476238559464, 70.910354513274243,  3.894430825552445
14.698203824077641,  2.808438574606739, 93.438389213359315,  4.109285735949748
 1.499448289531836,  6.076490581404197, 37.894880861827374,  4.078038790622825
 2.975531032839927, 10.724052450161929, 40.659268508607866,  4.028122959352602
16.928841636702028, 16.078883927300197, 81.589221750980698,  3.670425275619409
 5.892497081184604,  5.621923055325398, 74.181158313471016,  3.972306605046663
 4.218141223885514,  7.531670711107853, 95.019127172885007,  3.687319147153974
 4.332778956920129,  6.778328412938701, 91.125348874659565,  3.845421259915114
16.884605410611428, 13.884721597409207, 14.216340568475990,  4.216793442313174
 9.585309598872840, 10.359053688035710, 55.095054595469101,  3.844501716681320
 8.122718599450828,  1.400571975969061,  1.966010198391014,  3.907365589777100
 5.482496473177616, 12.806356083596912, 38.484488802794104,  3.790216381105669
 5.103978747054734,  5.142083596802981, 27.610225334428961,  4.164810510119890
 8.134584260303710, 12.352987543511432,  2.106281061055680,  4.211901017959257
12.551015633286985,  3.165157293391532, 101.294478858171189,  3.862497667009005
 5.810732204298332, 15.572934554465187, 101.226311909735159,  3.733304640495525
18.630407359625686, 18.005182538992443, 78.512734475135773,  4.294011986515250
 6.912944938898261, 16.925051064228658, 92.354975040237250,  4.280885082582836
 0.840361775765197, 12.869916200661351, 90.533083755856538,  3.812626858775092
10.613233903035992, 14.468826686082664, 60.295902830649204,  4.063752660361719
14.981035485600280,  3.330619938624566, 19.280830785771172,  4.122768992386731
18.948624573007773, 16.721985630067500, 90.778594112230394,  3.856789184902682
 7.872769692979053,  8.635059415881262, 88.502252115978052,  3.926192543326687
11.548897790362014,  5.073568927375836, 20.589894247715144,  3.968436916711487
15.273183146648503,  0.511680428988049, 99.696479561558974,  3.860666671150302
11.109860899325739,  6.759156287846311, 102.757349581077023,  4.026399327850990
 6.479153643651795,  3.267809817910830, 82.132966442397745,  3.931678879682944
17.109138017466798,  3.215023299642390, 97.090068505704082,  4.362898588366824
 7.049594947710928, 16.373661411860510, 117.774922765423881,  3.615508377834308
12.424663188708820,  0.826333437702003, 17.200164046898230,  4.147172442101074
12.478078884262205, 11.809239350821285, 23.286311899157685,  3.759565446650063
17.941602723330369, 18.600821089259458, 102.394932691519202,  3.939944713405052
 9.918881680304692,  7.781714100331294, 47.342188573849192,  4.088930000245176
 2.209022412440809,  3.521287349559786, 117.624107526290786,  3.874532409397417
 0.557657686126880,  9.887966715206471, 99.356603411055730,  3.856205767830170
 3.390378579202763, 14.599773434616695, 41.513920807702391,  3.909869940078539
 5.438914256643516,  8.117149314240097, 43.853249169680055,  4.072723346542589
13.754168917239404,  5.833048872849136, 26.527831047840511,  4.083403276445297
 4.761437921947339, 17.615470473322169, 47.466054105503005,  3.791054144608122
13.100705523704951, 11.789551031317766,  1.968074845145027,  3.783056614561479
16.482210552924133, 19.122988346985437, 17.342910639443588,  4.133570576255203
18.485362786483677,  7.351072975155641, 106.084906468852822,  3.752164210265290
 3.170353470300889, 12.014162767910223, 52.411944073859473,  4.325879784372371
15.213098410830005,  5.356368768687031, 11.595416029540260,  3.797525067235620
11.052225130192845,  2.846405173669618, 117.564669480110737,  4.043744131617835
17.861183302106948,  6.463154677612184, 53.591950795844511,  4.175488169597649
14.716801916198769,  9.381508050600324, 39.118841292908762,  4.045181564368540
 7.958314486615957,  8.874115013152503, 106.530568357183824,  3.966684312298495
 9.865420001856400, 17.819740865673179, 73.120422777922371,  4.042468018469868
12.456178912012279, 13.572231017159361, 12.663261258954623,  4.113992805806651
 5.550658095407500, 10.644039855902589, 103.834234138346417,  4.031324435975345
15.183715902240809,  7.368264289894062, 108.234082045153741,  3.982391816444473
 1.944873031664558,  1.837435964710318, 111.898990315246095,  4.093205868249837
13.781799079298102, 15.285400484861350, 22.270150532782370,  3.886012085946422
12.529728198458450, 11.715795215760672, 36.731352417397673,  3.801303180063478
18.314082417418835,  4.654951733150817,  5.170043087072357,  3.823258475013286
 1.185519309546067,  2.603394093541624, 100.080223643490797,  4.034777421762172
16.745938754076167, 13.239598323056752, 29.869599981886370,  4.192684420937775
 4.291199064599185, 12.222567597988549, 75.336938011723021,  4.072453216635899
16.325660010787690, 11.654475285091323, 100.574001391538800,  4.082480103670946
14.252409559631591, 13.951404575237540, 26.424014791934862,  4.050266106635277
17.039539536408977,  8.754793982050565,  5.477831229672429,  3.800052959532834
 0.998774499838153, 16.480496889995621, 104.983675336196853,  3.956053596019147
16.914117769982884, 12.651293454380234, 43.480599302478936,  3.781615447660729
 0.398848516774443, 14.236769190687962, 55.268617420205288,  4.615568063925359
 8.452430486530154,  1.943193891635901, 17.870657310526646,  4.211699888197244
18.665685809601658, 14.949423234690675, 100.974610737564447,  4.006121416648145
 3.315596359670709, 10.428761444381776, 92.473757851129903,  4.149141363266897
12.903172676804521, 18.091932837263130, 79.333297686764979,  3.928427699137991
10.401672189918168,  3.169819300452793, 47.137346795694299,  4.087171167825070
12.399817391998011,  2.002675209364477, 73.777336444343632,  4.334608024886247
15.680560944265853, 15.816758415010064, 98.513203929157271,  3.878874676599812
17.185121461670263,  5.958069732404709, 93.714748710907173,  3.893864726420832
 0.671189922551037,  9.072055075317506, 50.969754685023950,  3.906930071383863
14.511114518603714,  3.487742422377420, 62.811177577799398,  3.758455437036041
17.147107657285865,  3.216781366830981, 26.147285122961314,  3.550804679961326
15.796981776005127, 14.350790098963842, 85.225308251006922,  4.143809564355875
18.879760327558966, 14.131937942568733, 64.485850791498706,  4.162672813372534
 4.104142796929866, 11.806442423931916, 18.006499758891668,  4.043498780482832
 6.860186627692610, 14.142670515244685, 29.165294548765505,  3.985580381894370
13.531539906282266,  8.178367996766944, 82.611317257135894,  3.927734652739544
 5.397786858118704, 18.901698785800267, 80.655073604666100,  3.967453719061304
16.586885093824890, 18.440774637550689, 84.635939076702229,  3.980077696319589
14.465828815712632,  8.226565685593481, 61.358474733493779,  4.264189259382488
 5.238832499028811, 13.669744169284822, 21.769341244668354,  3.968809849417498
18.822762005569970,  0.518015144376171, 117.031223963793877,  4.010450916855701
10.197356202674431,  5.879513175035895,  5.409169681813650,  3.967005291402544
 8.712910200076387, 18.573417903523698, 105.870053475744925,  4.028195266184416
 4.300957301483161,  1.785100263017723, 72.748412928385022,  4.024825027119819
17.264911570958827,  0.006860755610857, 41.499301198585506,  3.699613606737504
10.886691961010905, 13.953836312625551, 16.803142839677612,  4.256153483487334
 7.137317049032860,  7.221855329785006, 114.468097947952884,  4.059396344745950
 3.637800874850052,  5.681783497998688, 83.710375506282176,  4.103192050345484
 1.904599970512791,  3.314501339501385,  7.569690836949639,  3.849864115153203
13.766604550734337,  1.742281975701909, 48.842049358827445,  3.781241546357447
 0.280560605019892, 13.125418795181119, 83.066759688580305,  4.086068483158328
13.088939411158210, 13.156958007749560, 103.914739011112275,  4.121299059445179
 1.397667948557865,  1.736432676340377, 33.842530382067224,  3.772591621189678
 7.217137108629209, 19.089870652568067, 84.183865472986270,  3.967844243477170
 8.435628169255750,  7.588034272829672, 37.767783351715252,  3.915848859927845
14.760692637678712, 15.115458169189209, 58.319286369191182,  4.443591385735126
14.136550769068300, 11.243013745815182, 114.795267647366472,  3.750556851368729
 7.051081244223759,  7.816822216692387, 81.561027969068775,  4.483346969731833
14.955248480802462, 11.171413268700876, 33.573925750024131,  4.053563322735142
10.826048921431072,  6.380327943698016, 80.015911976807772,  4.104573301809748
 4.248008452517440, 15.848435235479597, 53.909131615471715,  4.083683216622489
 5.578339127810580,  9.715733360009750, 85.470145727179528,  3.939281313887798
11.780445779666021, 10.115317928626842, 117.640395975370339,  3.882113199678901
15.607077329804580, 16.596616762680771, 31.833041185791227,  3.831739713455737
 7.868400978346281, 12.997484394651071, 66.671880612498882,  4.020529338368144
16.933289385893367, 11.252288565912895, 77.680582895655121,  4.060507526958924
14.570098820958005,  1.005296882166288, 103.966894716830296,  4.082526014299089
18.966848930514288, 13.326287458387180, 40.242891316407494,  4.000904399223311
14.879887143013969,  0.897441410192422, 58.822843355452690,  4.093498298413391
14.058725221738205, 17.102561222138451, 14.373574445389655,  4.249080993434706
10.754045864340426, 10.432458965021686, 70.206030981254585,  4.245726025766012
 5.372486176384759,  2.282939428237591, 76.571463802355112,  3.849944019195273
 4.288158009938017,  5.210737010261376, 79.017986719146776,  3.754073557473052
16.882357851400013,  1.180452139682040, 64.783743547939508,  3.894127770362913
10.610744948976578,  8.682087496927466, 22.084282345059030,  3.837454641141850
 1.997468685682878, 10.956767927003007, 110.372130445664553,  4.315234566727011
 1.063649058746106,  8.835940295206122, 34.741422626105411,  4.187503093382071
18.535811185509047,  1.644108751778631, 92.275246858629785,  3.689963988374573
 2.818836055925269,  6.944358185709368, 53.388069711004626,  3.734938838088087
 1.723329674385908, 18.588061761476521, 21.404966635729494,  3.932991934324074
 8.636995431732057,  1.968288826664127, 91.442084779590459,  4.049285275658391
 2.377199402001362, 19.065348054717909, 17.438251651078726,  4.081009935269017
 5.544717860587655,  2.480142098432919, 110.211256531303789,  3.845794237656867
 1.006489620970215, 10.438920148988551, 44.370730282370729,  4.198950893194413
10.334173004670230,  0.407027308006022, 38.361430235329905,  4.196634191223128
 4.322072678578632, 16.251851328653323, 70.744387024273436,  3.567867998057888
13.693594249564116,  6.339092735268696, 95.813036232674008,  4.174739183125044
 2.045817843074650, 10.317127788136037,  2.120827038422025,  4.191947261376008
 3.791179007677351, 18.741275438743941, 117.372865535511067,  4.416017895052065
12.951323050222452, 16.679825006613047, 51.370481235570296,  4.026165933609477
 8.290804863870481,  8.791591446049743, 73.255880282751264,  4.189612137755418
18.037015436708412,  8.205075328147384, 111.162994150905632,  4.049766861549889
 2.477524545798927, 15.591163175068617, 23.970381782260425,  4.069787628840328
 3.088125449761377,  7.059751947493831, 65.250740830875046,  3.628594546715290
 0.707241022868517,  9.823935228020686, 55.148822593806685,  4.194288616488065
 9.748573980472655, 17.015616267321032, 41.800528225038342,  4.295799273984596
15.476369608514119,  4.959495140143727, 111.351288667044912,  3.804543840034416
12.796818083207695, 13.496526379161843, 99.815826557561294,  3.900307167493845
17.286650815062107, 10.813851295277864, 92.612077745986099,  4.029623188984026
13.544179918176344, 10.606777336116767, 43.064795787886631,  4.070337945706035
 4.663665166720325,  3.817127163166670, 101.840043144507462,  4.014515435081886
18.267705448101925,  9.376631558215678, 60.262388389364951,  3.953652290579783
18.626557630436359,  1.341701251538539, 68.388247589120226,  3.960283028626203
10.399764566874323,  8.114003223198690,  8.773371706060484,  4.113568681610832
 4.255934855387931, 18.109325505379569,  1.995377638403781,  3.882830808254126
 9.725329188691125, 15.076131405410298, 83.795052783071853,  4.127753359879994
 2.349502149106860,  6.247402780982206, 61.424208809987306,  4.274170675845747
 1.677123997219407,  7.256212331877188, 47.561919052409749,  4.063013497976200
 3.473840145456643, 19.088603575356171, 68.691612474812004,  3.530268912299741
10.225643481814149,  2.486171592554295, 81.157133526316457,  3.929966084955966
 8.011205110098047, 12.078789383111411, 58.285062341585544,  4.037403460950325
12.365618990402377, 16.286937359713210, 29.345798000597398,  4.168337047542691
 9.890157503231062, 14.486714577668463, 97.422095304556791,  3.864328684952437
 3.250293790565811,  3.678230520245565, 67.774443798085713,  4.058497686881285
10.511622078797158,  4.186016444636223, 36.545372828916356,  3.940486990405883
 4.364554827276571,  2.890019638772707, 86.646434649658261,  4.043303953660016
 4.050476734865344,  8.103087540136885, 68.782995717056835,  3.883499336297928
14.648388883148918,  7.122950685065478, 32.279761841339202,  3.972542325718273
 1.372641206503465, 15.511197435868091, 15.554020101274652,  4.059519935682053
15.357871880428709, 12.831700806741267,  5.966305546706779,  4.193075727507553
 1.619266353497439,  9.501361552124248, 103.204720322133824,  4.147222510639975
 9.263327078527977,  2.337318387901629, 87.017133876002873,  4.078579233864495
 7.825839961017524, 16.513994163117861,  1.987729019893865,  3.892316354442483
17.560350587918158, 14.505866626190336, 46.680936145313957,  3.713766060684122
16.766993519879794, 14.700523205538490, 93.364126038683523,  3.913327530034455
 6.443258016102349,  3.804131261091202, 70.121595589501098,  3.785264104079617
13.383652305854714, 16.781208964202406, 82.971212859253214,  3.768562481709574
 1.973585730320302,  7.665147561769770,  5.416715915012965,  4.200552966953444
10.386541501498135, 13.768776399313802, 73.144686450176607,  3.991446023202882
 7.175593154440975,  4.853777583476799, 89.153911246815341,  3.697172899759426
 8.018617103358256, 11.645777321273835, 62.706140766194913,  4.290728818657707
 5.485617413071297,  2.084662963463952, 106.140025807439159,  4.270678311930860
 7.900614410908818, 11.549268843533650, 83.005915930230302,  3.653005496862578
10.399492074769253,  1.804281659181719,  5.325786267851994,  4.178054987279136
11.513365874936357,  9.111242661676020, 25.858189034233451,  3.886142570683720
 2.652146982019723,  1.882929749154436, 47.590332356272221,  3.894515482135587
 7.974364191165695, 11.435820726160648,  8.016282562440528,  4.187289456859956
 2.905979870866157, 15.528464664208485, 19.224893403208103,  3.867844363873950
 4.171206496428273, 14.050959254974057, 64.407482893685298,  4.179371163449619
 6.151008858225457,  1.642131164412443, 29.524879146918988,  3.924993204110691
13.802534795676412,  5.805984234140225, 75.830115340832307,  3.767456946322796
 5.696455170272216,  5.816171945074242, 108.040779039095000,  4.001999217674689
14.292151675875179,  3.330941072026170, 107.533066682905172,  4.354605701859191
14.564748957037256, 16.622878046897036, 105.912572721816346,  3.899402177696744
10.314474174053714,  5.553121685303843, 24.423808738171072,  3.977744425245113
10.980132236743493, 17.259913733343264, 11.529347369578169,  4.129188712767761
12.503028320654360, 18.986118713528985, 32.466599797762235,  4.078603925110555
11.017981215122598, 12.996944673077280,  5.387112733789987,  4.440038456609116
 4.088722313347845,  5.225942751021650, 12.909422765232884,  4.154008236303068
 0.366414479689816,  4.103628336712615, 64.961875630400783,  3.927236667911280
15.078630294789992,  3.389636909750732, 15.109246419872775,  4.057951792689123
 7.604839819704947, 10.639307039652708, 20.071694227511788,  4.356331657136685
10.103416362536860, 10.954280910370066, 91.113191814397894,  4.360020216948628
12.611541710066712, 13.711112312615924, 88.096367858958047,  3.823724750533314
 8.228986833297194, 15.271253655209737, 38.596004416197090,  3.579136597473273
13.514107469093895, 10.748663513944772, 54.900452133990356,  4.043669329127463
17.956108102218259, 13.448263329968210, 60.555017658737583,  4.026160134415866
10.646100468290893, 12.297613502319150, 40.286519326668660,  4.311740761507134
 1.241073480475900, 11.699509157636275, 24.099372934583041,  3.884657545553903
 6.957276826007761, 19.005262187367236, 70.428824613805858,  3.971445178016827
10.819184131099156,  3.916758745011186, 94.144480196726462,  3.879156561381821
 3.021506621007545, 14.449871236809850, 93.550163382585268,  4.180249861031394
17.758680941305908,  9.383507284774609, 31.397435539573177,  3.875525352215058
 1.518820037995606,  8.829688081777977, 18.360361005783101,  3.873097484965866
 4.208515140213747,  9.074256276921027, 72.676751696239663,  4.064381519431656
17.033714755485576,  0.227440489157305, 88.514781060438509,  4.001850776191332
11.774754889873748,  0.023426157499736,  2.024815359300299,  3.647546754909524
12.826345815622448, 19.014372788204035, 21.205897460636958,  3.897731450378975
17.606922625339088,  9.030790813593804, 21.019811625962586,  3.875786432552237
 2.110247267609211,  4.483699133616702, 75.447194124725272,  4.266254992235272
 3.226933442581948,  4.680367463587586, 44.881527598706235,  3.977234365578829
16.432836015585103, 16.419298571879843, 117.592116591626876,  3.965926131388713
14.546462594412469,  7.944752559207639,  1.939071500530145,  3.766205758269184
 9.870881010203378,  8.543699514662382, 110.519668123106953,  3.877165761630249
17.562265957578344, 19.111351923568183, 106.518654724103499,  3.959709754415874
14.489083208455636,  4.610261913411079, 46.149463713372967,  4.080227439739072
 5.168959819888601, 11.396742915115786, 107.735478746181641,  3.872698075187158
 7.174314785019781,  5.187026006790022, 31.399589673793812,  4.299324558323780
 1.603180200246641,  5.464366854807968, 97.134401269458976,  4.088368732661136
12.102548376235498, 14.117992427174249, 80.423136284619758,  4.023883824101590
15.502873906854203, 15.218545799789062, 78.027157211443665,  4.081869892857807
 6.883744192299914, 18.786202219562949, 36.371926577001830,  3.898859775818533
 4.878798484087734,  0.884551143003563, 98.710960392479436,  4.557256050146173
 6.686224818835511,  1.589673999081723, 66.708966356644069,  4.231239968560661
10.294546102202965,  0.226995682581738, 49.895085299840488,  3.972590129901421
 3.388303552396230, 13.445448136004371, 86.106974351953454,  3.978659404120416
15.644486773685022, 12.388596306695190, 81.476317282088019,  4.134157860307933
 1.050486373513772, 11.130090180593971, 79.816683892372239,  3.676845105907645
 0.183474345282262, 14.255870322750493,  1.945968129102677,  3.805307796238131
 8.548599980418659,  8.287243338908263, 33.746578136229843,  3.813748413037659
 2.883368606299452, 17.201116577501178, 96.375918275239044,  3.680012072463323
14.424919441948170, 13.634827686183213, 40.706668979867139,  3.748466319649020
11.750317929035203,  4.019986885051341, 110.925413570178193,  3.875102236394012
 3.822663102134325,  9.941677727833214, 21.628208942289465,  3.919785104156921
 0.379852537419934,  7.081000432781650, 117.424468952451463,  4.030191278625559
 9.793276173026852,  6.625607936209803, 91.391429466065176,  4.018127505399366
 8.526139280717642,  2.704430388644562, 101.380434466298041,  4.045443869289298
17.047488159826127, 11.178600291527594, 96.615388003641044,  3.983306250064854
 2.420095023836638, 12.947807764163970, 114.111942554200567,  4.193935928856090
10.624847424475799,  4.086256819050964, 40.478926892371732,  3.902268999206200
 6.429564668847485, 15.009165756388956, 76.738058770031031,  3.473061744197055
 0.500568675933670,  3.104304020825537,  1.932948945762619,  3.773263461887977
 7.457121114322167,  6.151990203009719, 15.378214027368173,  4.018261743728458
14.564418488767251,  1.342798245788191,  5.434381079123542,  4.182874382664522
 2.589911957470064,  9.978254968076378, 88.310795188966125,  4.189511432965113
14.101678756408591,  9.548884213193411, 50.689544439219603,  3.993484447346439
18.588390819422983,  1.986022323536718, 29.430818659105991,  4.005490619294436
 6.827522093696272,  7.630072595520903, 22.934107714100104,  4.045379372324546
 5.572751811503527, 16.652908716381791, 43.908220559180954,  3.701458610432127
 5.974142514138623, 11.008643033746843, 114.230141263469605,  3.825344661413377
18.718365809114729, 16.968475160327266, 29.437890177581430,  3.999540175236716
 2.798957597471189, 12.698248967710439, 60.706554612516136,  4.066748801799281
 1.190948251081493, 10.372208965240468, 63.648196399353779,  4.035963912525239
13.494501568083656,  6.215150259966654, 117.384480849062783,  4.278593639302465
 6.254746123053762, 18.112563878189231, 74.743494547318548,  3.889560209883823
15.074125861560168,  9.512720281014031, 104.721429611310640,  4.240677361499143
 5.641837331476237,  1.381504511800117, 44.613075731017538,  4.132638219976893
 8.482354229234129, 18.000244577547875, 99.758233141260703,  3.961003410032222
16.988342900121392,  9.865414218850542, 13.513702790246739,  3.930506358218396
 5.257156631741736, 14.269748399914889, 49.473121392627277,  4.068140451576789
11.265879504853109,  3.050662971000215, 104.829195887174990,  3.598687097700169
12.622397687884645, 15.399593773512738,  8.514900284496104,  3.627701287332458
14.343395166507094,  2.398066480122487, 86.220049021996715,  4.191777321135153
14.027732271391304, 13.972570504922210, 62.379150682241978,  3.952673082464703
14.531250826198745,  8.328746790938768, 23.417833507703268,  4.018864953350080
 4.382089476847248,  4.917957701647293, 49.411274631742103,  3.840678162453545
 3.702542321002777, 12.716101294205522, 71.387583146702767,  3.716160519611994
 0.453081699084986, 12.367718085734589,  5.506444609611650,  4.204361699396019
 8.915538593695537, 17.530424247935372, 114.713811330976029,  3.890587389596341
 8.664685540852648, 17.784177442887653, 95.883245267324213,  3.769224627038641
 3.091392099498202, 11.798566442328934, 67.661189098358122,  3.987590278988996
 2.215555957961009,  0.193574287910302, 108.107915629858482,  4.180621737779081
 9.954699549693952,  5.006583907945200, 75.571408843418396,  4.026974857638081
13.451576376639261,  9.825047321077054, 93.661299578314740,  4.019265716648933
17.331392049272079,  6.343156133141214, 28.461906528320810,  4.091276893527374
18.869577292750034,  1.081419531008093, 50.445666996193218,  4.113021715019349
 9.375524574347457, 17.897952564774567, 62.837943534539896,  4.230168876740652
 9.847277484143394,  9.507503840386939, 98.759720917199274,  3.822078857250753
14.553938007873690,  7.843569634553414,  8.611439966076437,  4.006115016814503
 5.061289591120040, 16.076692947934607, 105.228465780822177,  4.177802678651649
 1.496535233845087,  8.473534283900323, 12.142379840227903,  4.289621375931924
17.390086287788357, 15.118217147746217, 18.152505512367739,  4.092353071507596
15.868950354471176, 11.729347557975935, 111.474831091024896,  3.710284729891550
 8.791144737463904,  2.170332803638801, 97.196461875619775,  3.746212865947061
13.506362923105186,  9.888159758255810, 97.567444349908357,  3.736938978274421
11.659945355085291,  4.084208548184471,  2.074965973039822,  4.110334644245718
16.736173927922351,  0.309014775120716, 21.337743294408632,  3.866198640604790
13.686946422650442,  8.467985430922941, 111.948393417052685,  4.155263298155230
 9.709108231042604, 14.114276028227673, 21.534190772321939,  4.221837997676566
17.752286991285864, 16.504536901077685, 74.642645133646013,  4.085181897031123
 1.244657764275114,  0.451411639784619, 75.096872277779838,  3.994686428483070
10.420903746476744,  8.664066004230422,  2.241796246095245,  4.460792074217150
10.134627015966554, 11.239555770136270, 95.293403985224671,  3.896544938669656
13.655955922604672, 13.494782640308939, 95.790815245106046,  4.302570238674098
 4.118056239989535,  2.995417370507679, 63.597640947996567,  4.220819049622902
18.614830492172651,  0.777278418750017,  5.725074567043691,  3.980830491010263
17.061553079791299, 11.517915286155167, 52.583826553162176,  4.062844958319094
 8.073014277615275, 11.828927097841790, 50.587678140402716,  3.656358842121047
 0.465085620535228, 17.794690061777121, 47.023279744157769,  3.966424378257563
16.026453400879632,  8.806092041927947, 89.445780813239253,  3.859441494100734
 1.418329180074541,  3.360717043196303, 54.241594610759314,  4.021783579638967
 0.206703912085677, 13.680173173854513, 50.025678730978008,  3.901275583936573
10.170400980134183,  5.253267018730230, 28.465209577580438,  4.030754019588953
16.320843943342890, 12.680417305280709, 37.176025217184652,  4.068811554446123
 0.049793906177106,  7.376638057877963, 73.154207590001661,  3.886962908129008
 6.155431801295198,  4.361284377319128, 117.653820282520101,  3.857448470136578
 4.287543051153634, 16.767454525349525, 27.461886904045667,  4.092878217949112
13.658101598779419, 17.452539943051505, 87.262816752762973,  4.031569339206513
 3.780579426897726, 14.872133423592373, 32.278828457513605,  3.941108757513443
 3.812956561460301,  1.434464184663134, 51.364689810563313,  3.893112711169305
15.312299467022203,  9.945112882902206, 27.362502044432425,  4.359933154594234
 9.218523759805953, 15.350501294459875, 49.369121304510813,  4.085416459405546
11.020589843413003,  6.217445467239848, 114.109982151972147,  3.901767031195817
 5.269874342946463, 10.380571604919394, 29.164093577080703,  3.857192087146815
16.072100289663659,  7.575112273746386, 57.318083961187185,  4.166294530557260
15.766620545160725, 13.865502751406709, 10.176530995561119,  4.070117136759081
 5.266697342953820, 13.582898308013821, 111.092270515340005,  4.105149605908008
 1.324183358321146,  5.360747362417636, 26.046924213986390,  4.019729501388539
18.636166805735616,  5.147401284406038, 69.470698502718236,  3.894635875364941
13.645223978021653, 16.383485153817993, 18.489035537245307,  3.827513041630216
13.830964113134943,  3.112866018703975, 23.311984041312314,  4.053112847870221
17.594321990780379, 10.632424891511846, 47.810108381200244,  4.326204788969536
 2.942503730861821, 15.923431366097679, 74.277744561931684,  4.043470904809933
14.744514296214412, 14.510204843722207, 54.174170478428231,  3.917231779935213
 8.008378762505240,  5.256959353746846, 111.127302937527475,  3.770250555375279
 0.256341107555716, 10.848206445565172, 27.796759403371460,  3.954868323586716
 7.029613064564277, 13.009196986526931, 53.969935031308907,  3.787299104445182
 6.149464698750577,  4.022065854886473, 53.319389325439808,  4.092476101562104
12.532967966823009, 19.070014093265996, 45.603798033046559,  4.030439192693597
10.215209979306575,  5.504824270803769, 98.881473359838594,  4.131811318717800
 8.344465073460000, 14.630677654360676, 13.485225669472451,  4.181801722338068
 0.593527962879933,  8.701516745416743, 94.978701408255162,  3.928778092650235
13.961893703843682, 11.330104134080687, 15.789250916393806,  4.078621878279233
 1.954799112372868, 14.069197503989590, 28.870761213539591,  3.572934072152203
10.644303453412590, 14.326870989502298, 64.227551578374900,  3.785347042572265
12.355858242553104,  0.409951142039200,  8.595581553646134,  3.704170597110912
 8.565060599529772, 18.980002715212791, 110.909916467630907,  4.201361508765271
14.926411108787157,  5.635941533411718, 79.762794547685047,  4.193424937467304
11.314163132915455,  4.707015848527977, 32.489909350203973,  4.201069217744942
 4.665013539091754,  9.476082882702018, 62.091521890267835,  3.765236284829150
18.878617262797128, 12.382839061922775, 86.927367028541966,  3.677332301161580
16.195082626983339,  9.266937982871283, 117.589956159462943,  3.849893348158321
13.056319392077590, 11.326822268172432, 59.003404537709486,  3.973276919966990
 1.162751506447219,  5.383611720959396, 102.888726687392477,  3.811619808616740
 1.612786283288545,  1.654415833286200, 95.871795188112685,  3.903934274454302
12.419366537323521, 11.896818797900691, 84.103091793257164,  4.210534983172090
 7.963141903614681,  5.140433150992916, 104.752149234357191,  4.069428227020499
14.323966426240800, 12.565789481866807, 46.361113456050440,  3.702878402061175
10.426279816437791,  8.880984253522358, 60.857224350954219,  3.910433627018427
15.108775983536859,  9.471248357836018, 66.753191144535464,  3.968085593172340
17.332533817006940, 10.606110423536819,  8.767541293403049,  3.691159609908808
17.121812025691977,  6.316257457716580, 39.692603260351071,  3.799789415247581
16.145359394907103, 14.494778138590064, 114.139759586445024,  3.947437093049042
 8.463593476441517,  0.610751306086927,  8.708313382113598,  3.859882697532225
 0.689185287911790,  5.937602051480156, 57.220866560583914,  3.909672866092484
11.277946337135115,  4.766242626203737, 16.345777592902010,  4.232309273118879
 7.748410178021943, 11.411217874741926, 15.959550788128848,  3.991468819013276
 6.923681516648032, 18.302093046456317, 12.083015517532148,  4.064424417905539
 1.536225565814547, 11.956821427617824, 106.409020936945879,  3.906844876486621
16.546986411813588,  3.872616864489654, 101.253739187637251,  3.900508059250728
 9.281376680115148, 14.771367687070576, 89.727320855748900,  3.874069224023333
17.366407277074863,  7.724416567642732, 101.705281370970070,  3.999136897335591
 3.753919236841857,  8.737037615839590, 25.595388104550043,  4.303340041911096
13.574028262257743, 13.279218627735990, 91.777753756240770,  3.726467581941578
 8.753663159797942, 13.657605640183867, 113.407433482813417,  3.991386405744414
 4.239248752770868, 11.028379105067842, 100.074380305056025,  3.948504627795093
 0.618428720414978, 12.561760726563106, 11.456193387451730,  4.141067904831381
12.756492265383686, 11.473124000160610,  8.929671421180579,  4.009772339991065
17.990695086771712,  6.052808839455786, 14.244548079016127,  3.990686371840106
10.679002892292884,  8.584189411494236, 15.334288776894889,  3.745055828583482
16.698525901089141, 11.582008458378780, 57.199377484072485,  3.917156790239797
 0.582120185251153,  2.425172833118285, 71.881014179156566,  3.653517429425615
 7.766276765019605, 13.248077243638368, 105.647327619997625,  3.686313154114601
 6.274739825301467,  0.331209142354886, 59.992302524330107,  4.023464301189343
11.691965787712853,  1.881096353827811, 13.216645994329221,  4.212800229178414
14.616916014529787,  3.582301492829980, 30.019973638661899,  4.207944441355975
18.288027239115038,  7.135705038882606, 77.378739827627498,  4.534693228200421
 3.022554946678328,  1.744336276303515, 83.089574413741744,  3.831936011182376
 3.335943724114486,  8.395791139874321, 76.718173593660964,  4.276622803430266
 2.511412922781186, 17.624278122013852, 101.346844322942417,  3.931389117113979
17.107890267621666,  4.064744027553676, 74.433308338798824,  4.183714469721495
 5.626423043115751, 15.428642497765422, 83.184387280602849,  4.131891413471211
 3.117681604740682, 18.522799112579712, 92.779467174706525,  3.997443760390900
11.531211033726851, 17.464108157809498, 117.584271127198818,  3.877328160256492
 6.045602397858405, 14.979268476107753, 96.671086000767730,  4.005723511509835
16.004198016457547, 12.868724208081595, 74.036727114930429,  3.985362560166883
 0.001069585723942, 14.540055427127539, 96.543441142820740,  3.882714176937903
 3.652249657512761, 15.782776717360218, 89.549528891173594,  4.347162059282497
12.678225947357980,  5.598227309118512, 49.839492916761408,  4.359492243831493
13.705125606530132,  4.774506584339789, 59.173561519629935,  3.958964026239970
13.045584594001003,  1.283230731852479, 52.846171056971166,  3.763049779265411
10.160257943193791, 10.510197826994355, 79.816926246330922,  4.255124190855526
11.277939989298270,  8.787441692572516, 76.177821757390802,  4.074501391404278
17.676768205153397,  3.685848643307283, 105.149226732834848,  3.889477082428159
 4.430434349003235,  6.880226857592100, 104.317087875160851,  3.852726263874945
17.519665761833039,  8.579087606462632, 81.520955385438583,  4.354448350985726
 1.558680763893628, 10.927212083470758, 117.523269305776267,  3.896700317369388
14.349174121051586,  5.545437063205722,  5.191386627335519,  4.239055186955691
14.873201830763977, 12.260378929926381, 19.742496965773178,  4.123691576881761
10.224737777960460, 17.301158341660745, 35.093422185868825,  3.626781576268177
10.970094133829894,  5.685631033763676, 44.043166349293124,  3.940011319020007
 0.041810481431272, 16.061380610263985, 43.337764877718122,  4.133621931332630
14.994231989497282, 16.188274113448646, 43.884980328541999,  4.273318779409689
17.778346589907976,  3.058761428663952, 113.938769599734073,  3.900350198115262
 6.381575778290638, 15.277447742212923, 60.812766816185089,  4.493222170245212
 9.106725443059036, 12.034778888188985, 86.684319645804209,  4.128373640169766
 8.665102594116028, 12.155426067295590, 109.382364683007140,  3.969578393834188
 4.006208596021176,  2.953982572430965, 19.816397225477189,  4.252727438344387
12.171158264003365,  7.855992162934817, 35.558818978900668,  4.289209809349500
 2.166433729926536,  8.414665687709686, 113.876418728267254,  4.335476200971006
 8.978496293150588,  0.640491383351228, 77.328906438901853,  4.202729622413547
 2.524757642017689, 15.187012639819192, 108.590556622419200,  3.980366878930643
15.365518322517746, 18.943163427818291, 28.633972325224075,  3.914135118139627
 8.858282329711464,  0.804774675844003, 53.688795825872369,  4.190589473569363
 9.518519020896875,  7.382211262151113, 95.352833262933856,  3.896347163443650
17.728966040484803, 15.419430618214252, 107.972979320014659,  3.970772220727616
10.669451464154349,  6.045634456973993, 87.547096712575438,  3.856890181354865
 2.702367250168604, 11.185434957679416, 48.115353533908205,  4.118972309031986
 4.333635110973382,  3.872929200152916, 23.842951302227579,  3.927748692504719
 0.263223015755104, 18.257815329875477,  2.050780940460465,  4.100497558105991
 9.086982976001636, 18.747584981315377, 22.730370995180369,  4.161485213072184
18.515328579311127,  1.351571302984979, 81.831785934988332,  3.863808763532036
 6.732090967288077, 15.103923741470709, 86.907776788249194,  3.620907930148786
11.061033179393856, 11.054747384591181, 33.299271585627196,  3.701787423124512
 3.301959223991004,  1.544044242221681, 37.360969259647540,  4.119700645281765
 6.066442971326574, 18.975509847574912, 40.852465780626019,  3.988836198185066
18.207321246133283, 18.428885643478065, 110.519270159625364,  3.931802035905007
 6.005330368427225, 12.115029630793067, 89.441973209535732,  4.160653369260600
 7.696432824989691,  0.871077937190180, 117.678689725681082,  3.723127804799123
17.622803528717839,  4.661073615203429, 60.576216069486961,  4.241585899623358
 5.839117932659052, 18.264775926519789, 19.801175146087587,  4.216231465738630
16.525919980988121,  0.827229872653368, 45.310519267793637,  4.171552304065768
13.946257505634353, 16.657356502145426, 101.960407039738186,  4.008170330552086
 0.824668475116574,  4.810412700888899, 50.680427454125962,  3.649643307782322
 3.259433092970707,  7.245793093185370, 100.273139204129677,  3.845417565928503
 5.565955332407237, 17.060487839129529, 15.625238906570745,  3.829652639134673
 9.256800026172444,  1.625980042234994, 33.935448577427621,  3.732391034070373
13.832252780871382,  8.712652397663451, 46.735783574713807,  3.961582181420228
12.472667257655456,  2.843979038993830, 89.982992571409241,  3.985059580782019
16.722289085212918,  3.105143220954864,  8.425214195985305,  3.967829691525733
12.860706853648152, 12.389907447944953, 76.931208558754477,  3.912531379179224
18.262977878317209,  3.102502321980233, 109.116725027512757,  4.177873984115823
 9.900380600990202, 17.370362121597427, 19.010113329243566,  3.930720358569047
 8.373752097790238,  6.542942286906712, 55.589183789775248,  3.875826357479107
 9.851845538391402,  8.920632694034513, 66.560704440554261,  3.816323303696098
 2.691982029427579, 14.676836663912935, 46.156361170983935,  3.847506940560494
12.800151914133629,  2.543688115464932, 97.285965876883793,  4.015518789441726
12.566213610492866,  2.732983989545466, 77.928321354427936,  4.037015723664270
17.241771608198725, 10.929879588922780, 107.949016583309600,  3.849702760335170
 4.963446704166666,  6.725607408827276, 39.961091942456598,  4.083843389099300
10.577174724629691,  5.863346665152472, 12.314496512385512,  4.194326130711603
 0.205304953791279,  1.116950714838226, 61.355871203959026,  3.760940347354901
11.546452737012753,  2.329067053871768, 56.766578834707481,  4.120731097976927
 4.014044431546843, 14.548567586676239, 79.566248559530621,  3.856388409838985
 3.658987244486398, 17.701701417235800, 77.592309853797133,  3.470753163272151
18.016220940840910, 10.890225675684704, 114.539627176139206,  3.952252333214910
14.233748239977439,  1.887142148540499, 81.916904495731984,  4.241907990014538
 8.939839954295620,  4.410076309103177,  8.931812696005647,  3.784019023915243
 6.505034497352616, 14.806386433738650, 35.372737166531920,  3.769324108029049
16.404569362839940, 11.929270074687201, 23.579808628106417,  4.094951909069217
 1.460953992928507,  0.992658963990446, 43.662843174759935,  4.440106266939398
17.421086760770198,  7.267135040583318, 45.428148696929100,  3.878084104515933
 7.277855176056487,  7.682133571512731, 101.370764912097911,  4.246399760982760
17.987172496990823,  3.787775146047884, 36.167811539909792,  3.663805244675042
17.620734065547694,  6.309380695825904, 18.195945915134995,  3.927402857039100
16.556530313237243,  1.249508353964313, 33.060715466953077,  4.333747856347402
 7.035304395753149,  7.138537506955931, 10.829936978559696,  3.864069559453917
 6.655213641509615, 10.278733237115949, 47.132212785347647,  4.138787971593936
19.092298811128693,  2.182601291681576, 15.043786905562374,  4.066057116057760
13.776713885484941,  2.691997199710082, 42.593223674522712,  4.090807462808408
 7.824997548573677, 10.126992060146062, 117.559621622657247,  3.979081560007883
15.870175589988506, 17.662052193128119,  8.343382301958007,  4.275181771815529
15.150598468713236, 13.772016451154318, 49.848753127859311,  3.814580472173263
 7.058594270353177, 17.582766685856591, 32.245770874931075,  4.548995588516267
15.209652039133157, 13.488495482725916, 66.211109816995389,  3.893026748169293
12.535314065071919, 15.636595438097141, 47.324193998883224,  3.634570385897920
 0.101495618361811, 17.204187117641982, 33.393042385666931,  3.894809370793829
12.251664057431325, 18.911380238729997, 113.174014848606745,  3.791838560131735
18.792708748398795,  9.682223753284209, 38.503475901432530,  4.014339087144547
15.125064913251817, 18.037358926989665, 91.868332068578894,  4.073911452706428
 1.772171322438314,  4.593941013228242, 93.157775748369190,  4.015347896911129
14.875331194268083,  1.203221379435209, 110.909988435301457,  3.688482897716964
11.725661914168830, 12.745844306936801, 51.743419289968628,  4.173187445602445
 4.916886927722345,  9.285281177153877, 36.738828266378661,  4.024940041484841
13.790941896357698,  6.382526685478410, 91.633269956325279,  3.996325984212918
12.853307551539670,  9.956422017482568, 101.328135517940368,  3.789209254118206
 7.126290758201250, 10.050766540042394, 40.671073130118174,  3.971562480224858
16.376596492013618, 15.889811822285965, 35.274205284117755,  3.358092556500304
 0.939720214485909, 15.420474688976897, 36.972103074756468,  3.900917448501830
 8.056686867145380, 14.104816793684009, 80.063195660193202,  4.088228603128761
 3.116087032422205,  1.998241406321559, 58.398661485463457,  3.786569758205216
16.360854546919743,  8.323289864176784, 70.505754862920369,  3.997301219658589
 7.784618950115012,  3.770683021354288, 21.637267351202414,  4.220043222688277
 5.337047913649442,  2.199178385665185, 33.667633428521668,  3.997519842793525
11.288248436170846, 18.091599553985180, 90.561243041277606,  3.988302721208908
 1.777507925604682, 16.957738318926783, 82.080578044447847,  4.375023634228991
12.227300232367808, 10.757419218978812, 63.834565033237034,  3.950053829375447
 1.912771075627211,  1.486089189953467, 103.961504471350636,  4.103096554237793
 9.550710553793904, 10.751813684381963, 103.273824751382406,  4.023893674487872
 9.611409243899171,  2.546770143802300, 113.845123078964448,  3.907747021568482
 4.612306249233558, 17.685364279479792, 110.954081383570028,  3.920697305423401
 4.458331587138686, 12.818558864068482, 26.159115171859131,  4.011814564884070
 7.734787266484071, 11.392137314787583, 24.220426472368661,  4.019673867969061
 6.881990694810975,  5.174376142156588, 46.387154083313199,  3.917023028106811
 6.978817783492685,  8.922851476642577, 92.893858181444060,  3.801943678236818
18.467831297584038, 13.219862683622308, 33.651213076230462,  4.079207390277430
 5.736883099644378, 10.977950796571495, 78.967302158301621,  3.922234157824593
 2.289551645956396, 17.005164172948223, 50.508548991286212,  4.000100285971805
17.011552377227765, 11.011334736845480,  2.205097475181550,  4.114593527501723
17.656609553920195,  4.083838915988791, 42.964639751519037,  4.153601774769428
 3.086771095167545, 12.524823817312253, 35.354173681798606,  3.906721928281836
 7.569289634435728,  2.866203548415749, 56.951375540899434,  3.777881351036152
 3.846432493263538,  3.218658367300700, 41.092360856126618,  3.611470039843004
11.327049829996470, 16.505637868772503, 25.387804074871500,  3.950543693606596
 7.698764264003900,  3.054781344526803, 12.860241738034080,  3.899770443046077
 7.753891814631523,  8.240353781737955, 26.902163749665096,  4.088996248140004
 0.043760559302570,  2.673613091005932, 85.791881334327016,  4.412081471678870
 6.722590512090346,  1.738698791424411, 48.594503324315674,  4.132493241556014
14.770283652152985, 18.501123859268507, 24.684428105015623,  4.110315286032901
 2.165422889877501,  5.263899415111024, 16.590285001819129,  4.120642864279271
 3.708164327978221,  5.597223478649240,  2.139551957958058,  4.268132040302627
16.968334525572956,  4.053101169147610, 117.646366617172390,  3.883434815742705
16.188673374742667,  0.481182828770346, 72.244096477606035,  4.364343110669245
 9.227641367767916, 17.838863498345159, 80.892394752995685,  3.897241976809405
15.744521127185914, 17.470706156538100, 48.535620413481567,  4.080591151812263
 9.130427410316464,  2.949130044041897, 108.071547183291813,  4.095252088603183
 9.876850505218908,  4.272465181155868, 67.484481440136477,  4.205839511243731
 2.772867677616054,  8.340789271455881, 107.389165196917830,  3.689835496133138
14.297134268806568,  0.973166383442501, 68.197336385800810,  4.591620774027350
 9.886272062090482,  4.598197687811725, 71.566839416510206,  3.849574939990272
14.253454557984071,  3.924560952309808, 35.270585579711145,  3.976992665746789
12.591497665882667,  7.086126032517249, 68.659527787267649,  3.914603646840012
 1.073545650037230, 11.388745715202763, 15.336937314113117,  4.017880502585016
 1.954277469728137, 15.690499609409747, 67.708187745576211,  4.112276251789331
13.207648211996377,  9.128282426905558, 12.226604841912124,  4.076437057802543
15.381870371537278, 18.766853044421936, 95.856209043754390,  3.960905760067734
11.422703554597954,  0.523216370134904, 84.352665495354913,  3.674123648482110
16.608021096362460,  6.779093671548534, 114.641434091307090,  3.846557792602157
 1.307145091194545, 15.143366340150033, 117.504900550388939,  4.166247653648380
12.997877429437954, 17.500574980020414, 61.135638153821532,  3.717507143323859
 9.769126421366302, 17.934045143320436, 67.019878358321975,  4.055028757851857
 4.493914575405822, 13.303083481651461, 14.166001955216636,  4.070877006655309
 0.732104767728390, 17.681974106235206, 71.142538555751486,  4.186036625768708
18.587387628051079, 17.333237613033841, 58.393068998046552,  4.311041117958180
 6.683754445108552,  7.550512956642013,  6.790384515679844,  4.272549087790660
 0.623321225650680, 12.332014017767483, 20.133375957464963,  4.168335219730767
14.793246966281869,  4.483835873851383, 70.915657830679933,  4.244226802120620
 8.265796992752730,  2.892461521106688, 63.034553650978651,  4.120344413301882
 9.918459246805433,  1.731808524794010, 30.257542173477173,  3.684235925077710
16.818720124795057, 17.076053310116457, 62.286412022291586,  4.250410180395083
15.541635011517254, 14.717598305556347,  2.025220740851824,  3.763376333475060
12.488329175309381, 17.596580423389522, 55.634885711393942,  4.140007430734476
16.892666987125430,  4.279427242187483, 89.669415003297289,  4.389915915919313
16.872810808933814,  5.391593686039784, 22.205497844789402,  3.855818818028002
17.665792766151778,  7.401458322780043, 63.852993524841146,  3.915113617989281
 5.030328097919516, 10.680079577383179, 10.996202431888806,  4.137028207916440
 6.556056006025649, 11.968976786188673, 32.629438998750210,  4.112833692585745
18.452700039209805,  3.934980693467447, 47.234158700809189,  3.952791593272454
17.204034062455438,  7.378290312095989, 97.727688587578001,  3.918208801884377
18.838565449601255, 14.157195948615104, 111.427952466344721,  3.711509245671236
 0.576677972610533, 10.861193825044854, 74.842613508098381,  3.890024120892909
15.312400139124636,  3.654671385460871, 55.590293006723776,  4.200144446602533
 0.696877370876932,  5.068092073232036, 80.913934851949790,  4.084840952661773
10.569841095835056,  1.140854820363214, 70.032867267414957,  3.700519600608873
 8.042440226444784,  7.248744590129685, 69.555028424973997,  3.702170104126381
 2.995527667207540, 18.643503456786490, 30.954093400708441,  4.173021537819432
 4.538421087538201,  5.680086269408373, 56.592715257316080,  3.902324773110582
17.164402057437162, 16.874043226574944, 67.160828304677139,  4.123548095122192
 1.187892771786287, 18.459634063877040, 54.605151398313637,  4.071663664302362
10.042179099620069, 17.010157155003341,  6.277464493902120,  3.909540274969660
 9.886007670177854, 18.133467533699758, 58.741818495419452,  4.011668544141705
 7.840746414843520,  2.396105030928713, 25.759436880755988,  4.420959604861017
10.897772297573736, 15.276560871533613, 106.639368831976554,  3.995206991249749
13.562088158588084,  5.710333937611046, 38.659283636556346,  3.697329168120153
 0.450678474997415,  0.063727032800000,  9.638633476132297,  4.149800611428379
14.662028715487416, 12.032956261469460, 70.056307916819975,  4.167670867477967
 9.118935519309209, 10.306790001694369, 30.042590370226275,  3.892322756841838
 7.053833870541958, 14.609073840449234, 18.279579743842756,  3.962800569435714
 2.122313378715182,  7.546897256131517, 29.522798843565493,  4.346363262497978
13.600375389756818, 16.258489795155185, 74.063145549845061,  4.266144804051664
 1.545375340776931,  9.251742528926394, 84.302782159547007,  4.144473474980923
 6.864086532964851,  5.035541748278083, 93.575796034655539,  3.921458050072034
12.288575614922856,  8.306886956811015, 29.518165301767606,  3.659153106534496
11.751100725670732,  6.206687082608033, 64.093453772396472,  4.400700560700780
 5.928710519990426,  0.961793672143227, 113.962591052630103,  4.069202302731729
 9.675016076524427,  5.126192704546169, 59.443548381409244,  4.042883109662192
18.263114366372157,  8.444765791408617, 24.926688453515798,  3.856876317736591
 8.582196865291255, 17.963381368691671, 46.193940585544205,  4.236560901077381
 6.549836012933677, 18.741864988007919,  5.211236658500085,  4.111092263784506
 0.183688710117173, 13.822000362326550, 72.203778173127333,  3.792901312524647
16.372766362612097, 14.128890718010139, 89.235871578852922,  3.953794039396476
17.660917943997354, 16.125444859444364,  4.968059935221725,  3.888261865876864
16.332564404394379, 18.858158447068295, 55.252364190074289,  3.947646189621530
 5.810362774048932,  8.841616648876430, 110.842355917421486,  4.203005057222254
 8.645629051089998, 15.266979125919635, 69.906658521071662,  3.947454175447983
15.904087127343118,  3.576671510239152, 51.547694307419050,  3.889083911530979
 1.941652518926877,  0.568242361001356, 89.020608731402248,  4.167815210921549
15.747543276217828,  8.911028084632880, 74.424537731304341,  3.981589872667406
17.203946267480465,  9.204208141244370, 42.017139500274119,  3.586968259486987
14.015232150742015,  6.571710354923095, 99.897330807003911,  3.911851836011447
18.490036332437398,  7.167188963901284,  2.107736520983224,  4.084442253046969
18.713744236662272,  6.765371787163106, 86.827537726647762,  3.956100849927504
10.193178488260100,  8.632599436156077, 51.497033281164342,  4.116710904989263
10.873059310799395, 15.601481223847804, 110.617331262471083,  3.982358647588077
 0.876831237897434, 10.363682797936738, 71.015894260402192,  3.594753001222273
11.282972147560896,  6.429246605104197, 107.006435456413612,  4.332033736752753
 7.493042295726006,  5.588589385821227, 85.213293254716291,  3.996019203703010
 3.606970830366740, 17.692318702828455, 34.817245146596498,  3.642278363306864
 5.242703405859279,  7.105390035123457, 18.946529719035304,  4.385666221958994
 5.864399279650820,  9.052510623832955,  2.313274137641752,  3.640748451610923
10.043848028709895,  8.593721317981407, 84.553570804587125,  3.965364805628393
13.846522591202108,  6.918638907838181, 53.683152420302996,  3.901914826358482
 7.753453211390334, 13.951042723245006, 45.775886075327243,  3.991326133226309
10.252074909724803, 12.916637845048648, 27.114001366754241,  4.230509490023255
12.126209730614054,  1.807318446003652, 26.903288239601171,  4.296474164946770
11.839273164588285,  4.790207262287200, 83.972919325017543,  4.023159113606827
 2.369538511941702,  1.817454490585561, 79.087534842016126,  3.987597819379582
 1.443674412769195, 18.003956376134170, 40.112644008469395,  3.819086338257838
 1.646913480888338,  0.005719184278744, 65.193343471879885,  4.136612546949750
14.633736109356262,  5.678606515751200, 104.061918525345320,  3.573258004409157
 1.871849538568112,  4.553496363548901, 89.190959588886315,  3.790282599940456
 3.644942750225098, 17.096137241591290, 57.961767314818211,  4.112208149934331
 2.586012561587688, 16.409313868558826,  5.188744636589256,  4.033531422711423
 6.381521431819695,  5.529657435362409, 35.379107241112017,  3.588486836043246
18.303517376132515, 12.869532606607441, 68.512064943821628,  3.900388129089014
16.364994200876652,  5.048045204443749, 83.631096135234273,  4.109429940362197
 3.442524564007629,  2.108583856329335,  4.156689385454242,  3.786829906638018
 6.036258249246582,  5.197582530021532, 97.880952812804736,  4.481142063313387
18.576418128939483,  2.255788187279409, 57.468065112290930,  3.808006866087230
 0.446020676589503,  7.791490458967514, 91.071013582303038,  4.055558503302443
 0.178219415483758,  8.791112984446434, 67.415939503062447,  4.373038688093169
 6.701733396643847,  3.599867737614404,  5.608099163564186,  3.890305658272559
 5.245678897506524, 18.201057918047386, 63.725223037807467,  3.849596550601939
 4.967821869705183, 13.101808575339051, 117.498922248975504,  4.155450867588759
 2.072809560934552, 16.595067071984474, 61.781561963125100,  4.128957697774498
 2.624348596707863, 16.100195474595690, 11.782544581729335,  3.967420734511412
 5.802962030092702,  8.480943750603497, 50.984787814681049,  4.447779621104822
 5.992658532183853,  9.560957066519711, 65.701728010973440,  3.911323531174594
 2.664360681251416, 11.667848493520589, 96.534198661734408,  3.816883004288151
17.376399081678287, 12.775277287413632, 117.798069649072772,  3.559959012379526
19.052766702168384,  2.699007963164190, 19.140823169472089,  4.043093377050067
 6.330705806757410, 19.010334462358461, 88.677057052012785,  4.194201638491437
 4.678651405628917,  2.707540176626144, 91.141228942469752,  3.945642571486637
11.473247421192234, 10.389835829415089, 18.726581483721031,  3.835103278683299
12.981420190889489, 14.688068038272302, 34.171413977360508,  4.085820286095630
 6.901537689990802, 14.621800655274503,  5.427507607271425,  4.143679656909770
11.109874539674049,  8.099061285478554, 40.776906333635701,  4.185566007333451
 7.830090897169182,  5.347173481984754,  1.985362625342709,  3.940244738682727
13.522950591207364, 17.047638857696125, 65.072292453954731,  4.276685167990592
11.204897651306585, 13.762014474971750, 56.337295332686743,  4.042943417949250
16.810264651622454,  6.843161555949448, 49.444538193163758,  4.045537721926141
 1.310012637010694,  7.052340160466251, 41.917032460673177,  4.182437571685989
13.732996637141873, 16.505606013889050,  4.974625559415326,  3.978558320665355
17.246419559787412, 13.197496832706848, 104.501175896487709,  4.270513059071888
14.099373117644756, 13.508933072064009, 108.451507070701354,  4.141400707831839
 0.546900673007187,  3.830945492821648, 11.303875961264705,  4.078506432643929
 2.942312592109640, 14.556724878873526, 99.019032426886938,  3.775254268144258
13.162440064985331,  9.440947031839242,  5.300305121195478,  3.820197325526993
18.397410437847185,  5.208271295045226, 32.421538888599578,  4.390926524491531
 4.375346207699558,  8.001195892632733, 117.487932163847901,  4.120045599045311
13.579791038946597, 18.281892079773424, 40.600806018165315,  3.999904274927319
 5.131555176103905, 18.814746789699988, 23.927093813369002,  3.879932634160569
 9.494926071142419, 10.295460770561650, 44.033527413788121,  4.254582298300988
11.528592288520118, 15.411680753224701,  1.940611517186589,  3.833184932346487
15.407378615074789,  1.159149069609268, 11.637757854066104,  3.983977769335824
10.959906859333188, 19.066861947466982, 102.712047061959225,  3.781878723589974
14.611820151056246,  0.868085913742673, 117.557574147656723,  4.037406004461582
15.731258390593357,  2.554910396798503, 39.036811398554946,  3.985877974675304
 2.854954876548324,  1.560540136526140, 27.012117302141803,  4.305079937158812
18.870897343735106, 18.236754053566603, 98.469274398555953,  4.126801297280887
15.481980706371655, 18.489194172656592,  1.990014737179522,  3.739405346431939
 9.443843251666344,  6.482136443569450, 117.640813743078326,  3.849960435400017
17.614050137721502,  2.914823546157121, 78.333939772480164,  3.959076707884827
 5.278814984397473,  2.978292506022772,  9.693101009468515,  4.012382597284076
12.110053917281482, 17.713572421611151, 97.955655538684795,  3.987584804169743
 2.127103199286508,  4.589620063361294, 106.613206825351156,  4.044006704464310
17.812132063040792, 15.608085265369070, 22.270506200085691,  4.189464580494373
 8.655495195745319, 17.715527276174342, 28.174343104599075,  4.108552304221931
12.027695816971622, 18.912806007928911, 108.418232635839232,  4.183700574625409
10.364065757327650, 15.697618447357446, 76.897955481979892,  4.365789149891516
 8.070018815839713,  2.049316114557103, 73.615338079842871,  3.586658552271134
 4.552552743847120,  9.041151603079555, 15.004115709837787,  4.141999996333603
 0.411395950733878,  2.705859206858339, 39.789997889628737,  3.731730975044501
11.574831815598642, 10.647834007863173, 106.877239937762170,  4.088689607119735
12.373071509954917, 16.743764460017758, 70.113308942119133,  3.978203981537574
 4.030569132455518, 11.799170879140476, 82.399200289974814,  3.897810050659111
11.980846169635024, 15.579798756061667, 38.053698156148620,  4.019900455579594
 9.700101222902520, 17.508122147980071, 86.980699536553288,  3.887498496757325
