BANDS
8 8
NANOPARTICLES
cell(1), 19.086
cell(2), 19.086
cell(3), 119.290
16.476508296848699, 15.116194233829756, 89.693724821610729,  3.978057544359721
18.127628105660271,  8.598065679393764, 39.589170424161892,  4.293188521767067
 6.434800489699538, 13.274158179602749, 113.875421803250205,  4.312572246214861
15.758036510163953, 11.806999048849578, 56.822251163308160,  4.175836764095408
13.821626909433585, 17.179186434119501, 24.965074367492328,  3.677733587097310
 3.798221157034468, 14.449563375914861, 94.877779180365408,  3.892407795121204
 7.077649001329668, 14.129617014647744, 84.708565961288969,  4.152872555423190
11.090797283445896, 18.734830391025948, 73.052542018316245,  4.030269225240077
 4.156736617654546,  3.081367878933957, 105.179767984589958,  3.950840093210688
 6.209640262004648, 16.192141713846155, 97.268222489963591,  3.616015246044109
13.370871030763730, 17.663622369891968, 117.228295238384405,  3.980451467506539
 5.805226246801651,  6.680726912910615,  9.348304639756781,  4.036006675430682
 4.683973223379454,  6.962306800881193, 34.012757332878863,  3.774129372800864
 7.419691458331873,  4.619522288552173, 35.522883229436225,  4.004181254779151
16.345793415030048, 12.652755364192563, 52.287463547947020,  4.178407821418721
13.992625488393010,  6.906135980436507, 60.461519131005986,  3.941497714512843
14.846706470944195,  5.265464702971226, 14.363870102284221,  4.022925751679642
 5.563715489442446, 14.314377881214698, 17.414126332650980,  4.035325593165286
14.504520515096479, 11.526121670297639, 45.190725364817524,  3.978558621228596
13.284215133892037, 14.502500282862368, 18.466849532256294,  3.892801233632323
 2.483846939741116, 13.982873752522893, 63.703623059400400,  3.736525054891374
15.412060178086454,  2.197851693387332,  6.455944958098923,  3.842485561033566
17.565199198785173,  8.546119468318301, 59.178239723117628,  4.103728073038570
 8.622655502037254, 14.787654442781633, 89.391238044717966,  4.006066921967327
 5.167229201127210, 11.702972447287676, 37.029636720228531,  4.002501199131862
18.822543232897672, 11.874838999297172, 45.865547264116699,  3.953838634155939
 3.962945851669231,  1.991555802022730, 88.854392709272062,  4.028277406817034
 3.705058022150608,  6.862208561289393, 106.369094542811553,  3.800454275225847
 6.827385722065695,  4.491546610930551, 54.226661506718372,  3.953763352954585
10.236953795075598,  4.393945799722307, 51.219693495775466,  4.236110043163212
17.227700527959978,  2.603467962960250, 16.155357993787874,  3.872223621270661
17.562691002819307, 18.437227091549481, 33.734773747547528,  3.785669767561080
 7.764723444003979, 18.016122869142116, 45.394676109949231,  3.971689850107148
 0.183961161316006, 11.524101734643352, 99.684600096355595,  4.526698250658243
11.555013359059425,  2.379231636656880, 96.801984737124130,  3.615019839961693
 8.425714306704323,  8.765827837776223, 33.644800504441648,  4.353305912472062
 5.985166209972640, 13.956369853210598, 13.244909325517865,  4.361651032858532
15.687594229889939, 15.655435238176432, 58.409149423086284,  3.807125074857001
 5.571307457162313, 15.575372699223005, 117.261175393487690,  3.987120806671980
 9.454240100021963,  1.305240015124121, 57.421592909395400,  3.921510120311796
12.324639556448618,  2.069597347988808, 27.555562833714525,  3.793893882679158
 4.391231448596041,  0.941354843683810, 114.023165928415651,  3.711238506393074
10.128288536942886,  9.004024854536109, 75.483768208374556,  4.119744201617856
 2.070382835665123, 18.503343790581891, 39.247298663476990,  3.808027719108162
11.420176405244735, 15.429291705683614,  8.660686617795282,  3.766873830772572
 2.806537648922542, 18.753308693549631, 98.737995564135687,  3.881045941348958
 0.988789469172698, 11.496288214306457, 25.458383155661725,  4.274262396191173
10.658399063013171,  6.628245069002785, 25.743673402815098,  3.691625630043508
17.345238061885009, 15.264405711452344, 18.511729996232653,  4.037155765333952
 3.315648333851847, 10.071557525352508, 74.199836860835347,  4.076115109747409
12.584284435032485, 16.977708725729663, 82.617360768953418,  4.059180563074361
 1.345280621436179, 12.905866924409493, 35.866287242789575,  3.848899048230259
15.033315160801831,  5.946938470068294, 117.242569193994257,  3.877625691593929
14.700139574392434,  6.556109677671563, 40.320844604908544,  3.798487539023264
16.076013814560014, 15.290891868533983, 68.724207709010741,  4.464168953602120
 9.485355921970692,  3.005789636967346, 69.967579535581962,  4.260973360618432
14.760557732392623, 17.464524972488167,  5.869533154845272,  3.905205292814650
18.434677061441587,  5.057158575094439, 30.726231942740988,  3.815229174280013
 8.829917516436501, 18.133103267106115, 83.774322095468520,  4.120757295278941
11.416011004001241,  3.340607586938365, 113.661848473959367,  3.883053080437614
11.902969040933490, 16.713374757655306, 38.175769524368675,  4.077464629447042
11.207368061969076,  0.954755494543672, 44.876729425811753,  4.082540604892881
12.732496317937294, 13.784792444091924, 75.261971004070702,  4.197078659985507
16.680420335145541,  4.269958834362459, 101.114658034136397,  3.918225919643750
16.326576536201113,  1.972856521810864, 40.536064122887090,  4.012482286804372
13.788573223163606,  9.514217234045701, 97.254844302252607,  3.895599918883171
 8.420487755149063, 14.925333354889313, 110.656348410215173,  3.866533826181824
15.969113602121636, 11.268340784528368, 79.234482198354456,  4.086543821926394
10.747396453964534,  7.029835265374037, 36.613456751311091,  3.886416257779245
 7.399918088297501, 17.740422820980488, 100.726718016648562,  4.168499523708654
17.903123509600587, 11.452464871022144, 91.294989918891929,  4.191114103985518
13.692129606667098,  1.612976471203253, 100.342152408114956,  4.159466715850021
17.987418168129320,  0.682323575195664, 99.375150400535603,  4.124922746416788
18.125741004443388,  6.223292893719804, 49.891851799507869,  3.846775717806973
 8.271135306621398, 10.843043728895879, 56.130357251230294,  3.695164420140256
17.418153483586618,  8.451655106658029, 34.567840557695952,  3.936915675201893
 5.389437142032372, 17.492674166424607, 110.198586847433120,  4.083601027335268
13.449804002262743, 15.440420505138574, 45.872509594479027,  3.864110920507550
 8.733480267127128,  6.419064946645700, 113.916264190948255,  4.111585621365840
 1.071610845588728,  5.085491752191606, 34.584702628286578,  4.284571134597924
 3.703623387723121, 14.095458985223294, 99.518426130477295,  4.156148085316689
 0.513049295470326,  1.019773983707647, 113.936294763274972,  4.033558678003747
18.326003171783864,  4.183814906528924, 12.514921937447925,  3.917153283376551
 3.002284838723506, 12.129217743619922, 91.867369986502993,  3.861580247852964
 1.307050623999292, 18.202535244858826, 75.243125491451238,  3.843799981531328
 4.550439577550405,  2.881735097405250, 92.726460166796258,  3.993036576860839
13.260824229557851,  2.000838005421765, 16.375031704480058,  4.150356779721150
 3.172952498519535,  7.760430475988729, 40.378056250250204,  3.794492186729110
15.372843895233677,  3.298010526319565, 87.118564174617646,  4.331916206653101
 5.538420371426072, 12.269908519481419, 62.250465240242285,  3.789220192595569
 9.596901156217411, 18.116577661142902, 106.351851443103214,  4.033211153131472
 2.820867388638778,  3.678513226132875, 83.310267817749590,  4.020121156456529
 7.986888021021462,  0.463109640828557, 26.609437349871364,  3.823987663595176
10.763549228212158,  6.072072089242308, 80.709371972586112,  3.686400334825644
18.204123215947476, 17.219587110213148, 71.942323647646759,  4.097009159113873
13.370316027189421,  4.123134000114612, 68.653586213553467,  4.197301905078437
 3.917747353503431,  7.677260827079907, 116.739464763249885,  4.402481711813520
 5.075141971871990, 15.135105552246136, 45.708929998042485,  3.779302964896532
 4.517576003010014, 14.953281603272831, 34.788963637263024,  3.986703762225256
 5.415479854466235, 17.745001862272275, 69.380324313256054,  4.039988618602516
 0.721463509071646,  4.117821253559778, 93.732812224501771,  4.264168898356264
19.083852790370550,  3.542480570313597,  5.710315040375842,  4.046782801583565
19.068824832687159, 13.705744176072658, 79.388404512917688,  3.723165747010870
 9.834813654325917, 12.679755464877459, 77.515154523668997,  3.449497625526727
 3.575118869140177,  3.175529931392223, 96.674380073898703,  4.105552128112608
 2.750014567930838,  9.178758263599988, 109.464258898458382,  3.996808707275181
15.378870527917510,  2.952477942342118, 29.786988162512795,  3.836343167754537
 5.380391581440127,  9.767546151607183, 12.168017996701401,  4.358031132209555
10.812803483661678,  8.122398532697266, 15.958119062967285,  3.596991083116427
 8.165213266971815,  8.147488216489451, 28.343571099988708,  4.125824161346290
 7.267920589124366,  5.414906554309866, 31.459876742615684,  3.963821885312868
13.991756410759093,  2.338361318777426, 116.547964354473393,  3.760821580080995
 7.304203971854955, 11.461984958362017, 45.003238798306143,  3.958116297198017
 7.308029776107269,  0.155428639178470, 22.451581985944603,  4.286806606718991
13.515638920968245,  4.012116608427625,  1.995470548968561,  3.774063120088631
 9.432594434082532,  1.497315927110465, 76.157096915559904,  3.868310014814405
15.720026216573091, 10.188513194070939, 107.040285168043511,  4.207922161374093
11.180217701846484, 17.299178185212131, 52.542775676938206,  3.891957544875297
14.209779287121499, 17.821106749946193, 91.048588100127304,  3.575014914689938
 2.290728282657472,  6.604834637031544, 54.308752510006023,  3.931652380939967
 9.555649108940077,  1.207216771576724, 48.650110314356063,  4.004195995432336
13.287594665740960, 18.246674522486462, 19.196173618597541,  3.679865886365733
 0.399071482139971,  8.025882581425090, 69.247500773802344,  4.126022190244754
 5.741474252133043,  5.792313991714720, 13.322108981955930,  3.928986399770900
 5.877499390420954,  5.857172833599249, 98.853077716883789,  4.114514012919594
 7.452314185915511, 10.637442041925134, 16.624188887528941,  4.160439864817939
 0.406323540144313, 15.031176964661464, 92.648662506235652,  4.012081288477304
16.550880932933531,  6.540928217507529, 110.115188488528844,  3.780078443940306
 9.825544242286082,  6.034768835697352, 97.533884190486788,  3.889669811131579
15.916478804588170,  7.812171117489560, 81.388341790953831,  4.007493514491330
 7.700281276939966, 14.092259307673238,  1.981722366381702,  3.942421738345921
11.867630413672813, 15.057576262351601, 100.063648483116651,  4.021065281109713
18.451588491447893, 18.069696992147200, 78.624369854017985,  3.926046220235745
13.035678831578846,  4.364310851626076, 10.448919760363429,  4.311819405759167
 9.450749219815869, 16.384219302649246, 76.253050386257115,  4.365247257584191
 1.287957580433955,  7.587455463475376, 28.446543353165193,  4.019837467401271
 7.128418413910038,  6.624035094973917, 81.535468163686346,  3.606580269338270
 4.508733343583451, 12.159511676328925, 50.702249763294795,  3.800653570164965
13.967736313503931, 13.535073479555798,  5.013870907919785,  3.909515080070417
 9.497986720177384, 16.169392217343585, 80.406455607786626,  3.687318217101183
14.629614688049456,  9.317451589956594, 37.322832093023202,  4.022749097908318
18.853823241329465,  6.971823882220844, 117.225858679284798,  3.984309186931218
 6.787737286769717,  6.763517139781828, 77.022380409779885,  4.254257144771618
16.610365883989239, 14.267366859595526, 106.556969595068907,  4.152561058093825
 2.448966324494965, 16.169539691779050, 11.876139298151793,  3.753936305276659
18.700386690184416,  3.910462846309664, 52.947892609082153,  3.866377006139734
13.025408560155453,  6.942872294066307, 52.762271096200351,  3.891623973110268
 9.040150956274347, 12.611185185011026, 73.706672762160125,  4.128694621493070
 2.599575360588324,  2.203162340039598, 36.835160791412754,  3.620419458229546
 9.459328819529366,  1.175857690392707, 37.928743384404861,  4.142377836618524
11.633780677812480, 10.355285097610055, 107.154803113399737,  3.868832887617135
17.500360645913560,  2.484324935832925, 44.287258940490581,  3.779824611016819
 9.320746345375193, 17.988295473723657, 18.964767189058762,  3.882736515844668
 2.555857130253490, 12.206941464852338, 112.985915398372001,  3.902040303824432
18.484342023896076, 14.288324934416950, 55.264368556312021,  3.816314173156386
16.008991407535387, 13.001850070500428, 72.559957979476124,  4.335239630582493
 0.026371252807526,  3.627068511847428, 19.676422851896358,  4.291754250487968
11.810634440045227, 17.244341049923001, 15.758301514096573,  4.047711534229338
 0.297149555917193, 15.283202248694481, 40.394729935276672,  3.843894925857124
 0.315792505691084,  5.617723962430425, 80.637156508522210,  4.215514973765270
 2.034394500950579,  8.904011918455785, 36.401341907719456,  4.342618651034840
14.094907552712545, 14.615299926687483, 27.942035306016081,  4.168065126356837
16.298821396451729,  4.001331420889817, 107.036256921177213,  4.062240688076645
 6.383038898004271, 11.137322873765550, 67.091604739849828,  3.857422629159838
13.494498145091328, 16.836632922341838, 11.932002255475442,  4.351445606553681
 4.262634594214203, 15.934345685549001,  1.922989828510367,  3.833090445289260
14.941742087881927,  3.729433743849697, 19.614799456380037,  3.787433234245412
17.399485413489888,  7.448336434554361, 88.041358334152505,  4.164169382023514
 0.341051998291740,  8.814675958844701,  2.262611315821115,  4.419205062456295
 3.342753416759806,  7.657576814831473, 83.076726622069458,  4.001156434084018
11.211380161851315,  1.149756116535938, 66.499179488912930,  4.308283867588910
 8.144858202394538, 11.274761972056483, 52.097989382511095,  4.140441044982179
10.359044467027754,  7.176727014370478, 71.964413678689425,  3.759975501355247
 4.056231596458296,  4.341339191460950, 46.985407661149821,  3.933354987141008
 4.422505969979528,  1.796588914204357, 25.495493310276721,  4.046175570623602
 5.939094417376678, 11.910400926509388, 102.412628528222271,  3.934872228409238
 8.361382739262023, 10.530236036539451, 60.072867539820933,  3.967291369688749
 2.288969342343069,  1.004842988312779, 57.468910143193014,  3.944991207364457
16.197519637231458, 15.249274521776709, 31.582254769124251,  4.315523931470103
18.921456033341354,  0.363085759178323, 95.520136303191919,  3.752867626158800
16.941679981714415, 18.984031005823006, 106.907113311338009,  3.924408837669602
 6.671321182670685, 10.108581307038214, 83.530226656903224,  4.257261798803098
 2.119281536632190,  7.258318598711432, 12.660273156685019,  3.926613191368213
 2.412633497448142,  9.222226823278961,  9.160220640499848,  4.113252295034581
12.348246114312293, 10.752418408486211, 54.526252198649722,  3.986297216733772
 9.342654133254147,  1.160457853630290, 94.127394967191677,  3.714878869237756
 8.657329557919173,  5.777087309986462, 101.763104602518325,  3.927062920401211
 8.067300030439299, 11.174714559812855, 39.993566612654760,  3.447524650577123
 9.679692083131009,  7.471708957913882, 84.910499073570492,  4.196924505382313
 6.942621965233437,  8.849650839638572, 72.998896527286888,  3.842401808153712
 1.537726051498187,  8.484030128805752, 32.324427267709162,  3.850780093965439
 7.649156785027498, 17.198735009589250, 15.413876640633514,  4.106462470065483
18.205838313233471,  0.806068472287380, 37.212717791532320,  3.857030818210916
 5.313257624889053,  2.317327016444967,  2.164699529349119,  4.268246595478728
13.485439606520600, 16.964542813388167, 106.918083449470700,  4.067418819514500
17.216210676425927, 12.475253822394428, 38.278902622606999,  4.058552481589897
 9.701632797616618, 13.140961130845932,  5.605045175477549,  4.461604955709441
 2.837441063540349, 14.673913576964544,  5.395575430016070,  3.750827774840641
15.129757152073696, 16.078513130350380, 21.634313792395300,  3.766187962614461
 7.796063916138750,  5.248248173899510,  5.870549541071885,  4.347248422122463
 7.640959928776119, 17.502611830348400, 50.790727985900553,  4.000123618509488
 3.235140243785875,  5.608910409093047, 90.254337417040745,  3.783345986252030
17.549990365068986, 11.419671930103068, 86.923744744502741,  4.060002023773957
10.489580993930302, 14.328420283601044, 113.908541457691157,  3.874926303571485
17.641155955490841, 15.397572252793422, 44.375386995017230,  4.027164854917843
 5.081593989841233, 13.754353137680530, 74.222312660842874,  4.070583071327087
17.335983667422948,  9.875630731055900, 22.521108290358303,  4.075341844921997
10.963351473760749,  7.136818869803116,  2.134742227492070,  3.994699054730020
13.893839618845760, 12.245985882405956, 92.603317114186027,  3.945416445495924
 4.147903069243971, 11.074499382285531, 106.009862836417369,  4.090295552325578
 4.170767066476522, 10.230848397665383, 98.748776509638120,  3.769422366856108
16.014681955738155,  5.574017740217551, 94.541399262557405,  3.900667978039789
 1.651967285720332, 15.195165244765528, 15.822084059094562,  4.439279659674980
 3.415816084550183, 18.523366284584529, 106.773543127299149,  3.913588964568159
 3.283973296186784,  2.785787016979414, 60.791567170106390,  3.634187425795684
13.290931758594743,  5.224459769555800, 83.885413232829137,  4.261806028773090
14.774694116810513, 18.069335727619926, 65.639661277089502,  4.161493056710782
13.315542643754394, 18.316859366492213, 69.564923870820721,  3.896998160639848
15.305382244576123, 14.455506876675669,  8.839284821090679,  4.247617074629725
16.802798157267908,  5.153720442400956,  8.924876763674012,  3.865539256949064
 0.983968658069295, 10.644566470433405, 116.279740965865585,  3.973019135842549
18.415002004317326, 13.914513907679055, 22.339712523111899,  4.212118018795191
12.578321108648760,  1.921134519268881, 89.832352929837469,  3.917373725313408
17.579583737649134, 12.105662980290008, 113.549276930983467,  3.971997151965299
 2.282317584934771, 17.897788400329883, 35.593352510075839,  3.579100871153196
13.566148045360523,  6.842072672357389, 107.165692916762566,  3.609430935001979
 0.759323802693837, 10.915260634793608, 53.777787822369376,  3.876834712603899
 9.195603710870319,  3.504594814704689, 91.139695151786896,  3.872585824895729
 4.153379432940509,  7.828358134622153,  5.434676721449417,  4.567575096954450
13.087329016210584,  8.296896659509455, 78.382597697993660,  4.226490921841357
15.030642468377756, 10.334503124084302, 75.512536442687576,  3.806721054877451
 2.699357635945124, 14.650990192349942, 107.237618857606051,  3.982380332787139
 4.734667870640418, 11.674529205333259, 117.322461970526746,  3.834323187977542
 4.987183353837429,  2.855690310670417, 16.416359923305965,  4.496998149100570
16.480820652412529, 10.457113085662126,  5.238621778447521,  3.832711633491007
13.768351201292452,  1.515497821514315, 104.760609350956727,  4.366444852275876
12.427481736153432, 10.629169899976683, 72.560598180108713,  3.994347057187861
 3.642164695125784,  6.537641236415752, 67.291554558418412,  3.945619422397609
 5.885687489398601,  7.803202762068886, 56.220812768322801,  3.984435617766335
 1.606937796620066, 12.929964255013800,  2.063767430819249,  4.120142653734153
14.829969176076581, 11.136117409674343, 60.774269970147195,  4.039126106155862
12.770483496912375,  1.139098264922285, 62.622771214707576,  3.978873442913209
14.030553627553942,  0.709257755760581, 32.810582672066161,  3.970752684625849
 2.758025456169806,  5.950456730672775, 62.961366571348236,  4.057704375763553
12.854664706756960, 14.180781138915654, 79.503683116248666,  4.309879348380961
 2.780853340631647, 16.015767535917266, 78.129086576536196,  3.900755181495643
16.691240639531461,  4.315411957673208, 74.705620171576243,  3.908663593763222
17.539746175673972, 12.507740557333497, 28.523473461958581,  3.842883002844915
 4.415751707438192, 10.732693218860140, 19.192661463710870,  3.730612625986058
 1.434613450789270,  0.352423826116698, 17.405703176166138,  4.014318460679152
11.811498009258360,  9.686993714465389, 117.222934223148144,  4.132852044959400
18.092939684942909, 18.654156041462979, 29.595117013201381,  3.669429397286325
 0.870715867017424,  2.472877665131509, 107.233420104931142,  3.814443036981513
 7.881743816550308,  3.795720903647114, 110.758663948740050,  4.271439204368503
 9.797087988140063,  6.399552881145966, 93.733401676735227,  3.667207559148161
 2.315339646763455, 11.677026865346621, 66.930320511153568,  4.151894714828687
 9.316691817181461,  6.601831068014648, 11.297277066784112,  3.983272938195493
 4.611454866726170, 18.247536728321663, 53.172977180990671,  3.842315811664676
 7.114664362239727,  2.057477405228120, 12.751109449610867,  4.088542100817294
 1.257819492611832,  5.003378694238496, 15.837137356638861,  4.001948671364137
13.853250826505178,  3.568765405546185, 43.275812619623345,  3.970967728646671
13.123382383182996,  7.920900550983120, 47.697349368207114,  3.797879877041081
12.343030745180938, 11.732733531207357,  8.486127494594008,  3.812411373715949
 1.907854287583310,  5.843535355161841, 44.038991024197223,  3.914281161290216
10.235702380015146,  3.802893361311803, 87.245490368299656,  3.987714744808529
15.954222109272571,  0.169951960836440, 84.232294806614860,  3.875866284273731
15.964631514221091,  4.215092110147773, 113.609965923715194,  4.195563473585776
 7.716694314591868,  3.324705257238742, 45.712020570188599,  4.050706342950802
12.732729219423383,  8.425535927982946, 92.038084556648883,  4.047022204093043
12.617381104391781,  3.786005151870832, 93.394709073007164,  4.032760383314642
 8.479474202640372, 18.040181065629813,  8.743316643056151,  3.953133222282695
15.038801376341016, 12.928695792601186, 110.197070811138317,  4.178058453882826
14.962794035825709,  8.706129037590941,  8.546338559784621,  4.139635242797508
 5.394528703972684, 17.789113115147707, 75.425825809093041,  4.371701568786209
 4.826893288569226, 15.685081629424456, 103.290384306694520,  4.103738868599234
 5.204555882297667, 12.558929832459098, 109.814184607594214,  4.283297513113379
11.170284537860347,  6.916902484822692,  7.706419260245099,  4.017813864488828
 7.921665823528828, 13.115300356159230, 32.848953053465564,  4.392186604614015
11.461242206774864,  3.807107899800816, 59.831862483479370,  4.080850847362085
 1.321283229857283, 18.655480909323515, 26.402278869623480,  3.736369496157117
 2.377480254155056, 11.502799566765139, 29.528243650779686,  4.256189403066401
 5.208242445863721,  4.038135809888638, 42.674633769188553,  3.860501107189781
 1.278518152164788, 17.852008347124269, 110.122003956982539,  4.141995088749598
 4.499827429868708,  2.798700306896586, 33.513399845228726,  3.900342580308680
11.266183074111149, 11.641221805885415, 62.514287391070475,  3.932248172892546
11.025273765565791,  8.181665305595381, 40.362921146438794,  3.967053659408586
 0.669362860726676, 11.776614298120464, 70.958707063977755,  4.101348952499205
17.997352043714674, 10.004318375843466, 110.269700477162999,  3.674422530420037
 6.077170549540934,  1.732391315002968, 81.967231608107852,  4.014050164310295
10.917752037774710, 15.173791532043341, 85.896099717379087,  4.077211260908569
18.683742375690326, 18.310220607533257, 22.795187774377400,  4.034043383185412
11.074508025203013, 13.686092267571352, 25.227321876480143,  4.082285368395101
 7.758473115591551, 17.198562996068215, 31.387990451251436,  4.112238913555291
13.275235718646814, 13.759021411631595, 96.374892375018135,  4.195678071104262
 6.386726134180599,  6.281959755695005, 92.208698662045578,  3.624312762378263
 0.714059210402435, 12.045417258697549, 18.863317761105659,  4.069945916089265
12.965992832075409,  4.834612347256549, 63.621301762742554,  3.494346744963978
14.096598863156901, 11.594408119011478, 30.850666929224108,  4.185899602939365
 3.698108871551138,  2.204726795422705, 110.326352624467063,  4.022892264079182
17.686947016818287,  8.502861620544449, 97.167432622823611,  3.904748797340527
 8.028182566171449, 11.637054238062124, 105.809563937910923,  3.711340594159063
18.943660085425815,  7.578291638011544,  6.397543510265345,  4.087830155501866
 6.615821198386641,  8.279517503162095, 95.535652241737182,  4.149632016408769
 1.870629798506121,  3.322574993418991, 40.574704019716812,  4.123678508912395
 8.146919369747755, 13.926705847095013, 99.993047617241302,  3.733726266194142
 6.657963632260261,  1.322869947001054, 107.754149244083763,  3.818061768337359
18.088724055639290,  9.951031402139993, 103.569378239128469,  4.176528402762342
14.560264499138416, 15.315216562794099, 114.006147211841892,  3.937087926306250
 5.555794410773987, 11.887292514895348,  6.295565431538539,  4.178581649412727
 5.085647899259822, 13.043671756829529, 88.330920185695405,  4.122406077451140
12.890890628391238,  8.187181126399148, 12.039914958364383,  3.971806437835058
10.581486504470636, 18.068733085185162, 34.411974350899555,  4.338677647611237
10.096716849224221, 10.912908024610687, 36.886477483615572,  3.934555099456171
13.478263302248449,  8.572951134061300, 64.078861419723111,  4.088420541516204
16.740478346357442,  2.980211363698237, 34.460078213574093,  3.728137565293433
12.360533931723166,  8.252562010348527, 68.938245756188337,  3.768938831358395
 0.186546087540560,  1.832280180381525, 85.896068910267076,  4.173422097501985
 7.910403752727670,  2.208836763192051, 114.327088773262801,  3.534272803914762
 7.947887788104476,  8.525085938422700, 117.330746972435023,  3.879026793428362
 6.650382558660866,  4.987851714457276, 88.556210862414801,  3.935209830110100
12.477254739881312,  9.678151723328748, 34.013539159392828,  3.886223198100830
15.591378207448553, 10.893241696122578, 18.801184419144214,  4.194231900986509
18.552964132605453, 16.058374539153252, 113.754118944338032,  4.082291055944065
11.428243305038785,  4.476200961886569, 47.106980503678713,  3.831250181511959
 5.279051277440953,  1.421261996398158,  9.040829379932379,  4.116065772127484
 8.238767555206927, 10.610281469945599, 87.357423805518806,  4.065222016276118
 9.125516947561104,  9.488901508596754, 79.562519121592757,  4.193276230303084
 3.560599820180859, 19.042440868971546, 84.568292441000082,  3.970319692027425
18.900285456056949, 10.750067277301506, 76.238559616464372,  3.830226238806165
16.415591106014055, 14.521196201223136, 98.938870093538299,  3.773235111105649
 4.354300771963667, 16.655085735245041,  8.286074015048159,  3.759883429290827
10.627310766465897, 17.420183315531112,  5.216683672959578,  4.317927448193592
 9.035133824891506, 18.835059331909839, 60.956111238303485,  3.843902287414596
17.198507837322250,  4.341915845783219, 83.704230065055640,  3.659169540061705
 5.608483468765145,  2.935986186442902, 75.803591970629839,  4.087161467756813
 2.458226023192626, 18.338326768644297, 117.133550774792710,  4.221401232463434
 0.420975492663862, 15.602471921453109,  8.476575972673668,  4.242512096833704
13.240507718115675,  4.715450811879160, 110.549901800219004,  3.804905652398165
13.362875481415051, 17.644607051918619, 77.191993609453718,  4.061682198893661
 2.920865731806192,  5.610002503824612,  1.925349854601483,  3.822651409257827
11.555810524534069,  8.205571022885639, 100.375870538758647,  3.974255354237504
 7.983348846484231,  5.796059556413899, 16.558992518311602,  3.792107237679381
13.196568096172211,  7.484918898352010, 43.818043211083534,  3.984219514480376
 4.374000406552377,  7.554872477494337, 16.795298816085658,  4.228525650247533
18.214064475397187, 11.547884518414190,  8.630130632731905,  3.949221623659801
 7.052007827537778,  4.608886640277831, 117.216863862737100,  4.123585213127454
17.625523583843542,  1.667948402585662, 56.146261131816217,  4.037487844943280
 0.103083098226693,  4.507540219989916, 67.090374373734122,  4.098913950341221
 0.839315858912015,  7.109959328623211, 24.184370172033987,  4.126044703922888
 6.848645260581817,  1.870832998648864, 85.981062125251171,  4.051252871730950
 5.877707530225686,  1.181179870677908, 63.140542242069898,  4.009579098400594
12.894319581242016, 19.007052883168452, 94.294275850936927,  3.811544875438971
 9.352886229860422,  7.633144010368438, 90.037807529131669,  3.912630395687160
10.722977898103851, 10.009020788416494, 19.560488543257080,  4.514301914805715
15.526132359776611, 11.437354881707337, 11.755921021592439,  4.066304861064535
12.656371641097497, 11.416370779873748, 16.209050006879465,  3.702961661871545
14.440304387685083,  7.832421391513758, 56.505462613696167,  4.206328452864701
 7.783494945224009,  9.269950251077685, 99.831271653655591,  3.808378652721862
13.170796923194507,  4.069144319322260, 24.216195767539446,  4.088072505730451
10.952171719204195,  4.779734619364566, 14.354533972636213,  3.801453399401740
12.460836608887600,  0.240826413912694,  2.004837580021213,  3.988842655665205
 1.004717668973567,  1.846240191345252, 32.087320520136807,  3.851046667272803
11.146217536400332,  1.223989411346912, 12.600055596277317,  4.137296337216958
 7.264152949255582, 16.789424665875451, 93.702493889962739,  3.736901380170495
17.815597711912929,  5.273714812071609, 41.858654201377995,  3.607623907499174
 0.813325369813715, 11.378434418122666, 12.424779940686518,  4.259063964332706
 4.391326049475581, 17.728396984554283, 42.636939660398482,  4.359629635702330
10.550134384318120, 14.204982278145946, 107.400973857865424,  4.008503970167131
12.803537054989722, 14.146431747218346, 50.771775191244664,  3.975269381245221
11.075878965742138, 18.326281235992692, 102.449106256654943,  4.033984353615698
 2.650262706441931,  0.109913601642009, 102.821511550489561,  4.196374240285945
 4.646648557626200, 10.828732353355699, 58.650641106724265,  3.995930190982904
11.986055260614091, 13.069223753258003, 12.138470197996510,  3.760741068745480
13.070567766951957, 13.869574091901969, 104.031534231368425,  4.273663145993093
13.564587196646993,  0.779361668276516, 110.164851701674877,  3.968459358514421
10.154322672863854,  5.036961749891549, 42.871639092720486,  3.953715646897564
15.944795764191889,  7.136775337148966, 67.184198419403970,  4.211593210814015
18.841067447135664, 18.326611183536762, 65.912924952356363,  3.970905598181187
 4.902784961703519,  5.470366918555659, 27.648018154110023,  4.230321438584753
 1.739844223074169,  0.710843641675013, 50.632032515240581,  4.405403393661411
17.454118502791236,  4.867840693366320, 26.808789613840574,  4.139282628278935
 1.117273072489046, 13.938960530402367, 74.535173808284654,  3.854285870949240
 9.924458846721546, 14.074548922904235, 54.642890050799735,  4.139230374933383
 2.301160230887883,  7.716317936906832, 58.151480408148629,  3.844628645874922
 9.158871161893781,  1.813671055999716, 16.282272267692711,  4.030903902520345
 7.711065379567136, 15.786413636565456, 24.665656983208301,  3.923551589837651
 5.404486882966630,  1.475596819028184, 39.291528802080798,  3.927828489528503
 4.706116088918496,  5.876699649303461, 109.808046926296583,  3.546863103984195
16.322566913536406, 15.741298226123137, 81.348623949575199,  4.140375267298863
 2.390260605298624,  7.102728923593910, 97.108833735459086,  4.007876303638005
 3.637062510591705, 11.635103344519987, 46.824151228166421,  4.081331194857842
15.857154692145983, 12.475412041765736, 25.078443487614837,  3.790648414005728
11.014475314008967,  1.189768196062777, 80.359630589752641,  4.489478915160396
 8.221999736393565, 14.440268154474822, 68.815696676203771,  3.921671088729580
 7.948803519824287,  9.971917476916556, 63.902047903668269,  3.608462095660063
 7.471543990843741,  1.066935529647471,  5.494670699863680,  4.035436099731424
17.812002247729207, 14.477366910022111, 64.896595469179999,  4.088130014985810
10.116429347991097, 11.516337311205689, 29.620105286834427,  4.016149113342323
 8.176404784579626,  1.843510190647060, 32.804696821851316,  3.746970529308493
13.295352357073645,  2.453047490262302, 76.296865132867907,  3.889115991295845
 8.192625510328124, 14.563435512209809, 37.214226107985702,  4.207759836488260
 0.436207590936608,  4.896786017430936, 104.015284542698154,  4.126296824180320
 9.995992915258091,  7.071044693117035, 62.056323926531178,  4.331223234669509
17.582209233005617,  2.845883185974206, 78.324109792397337,  3.864027828382623
11.314077059703639, 16.607565118165326, 57.950994373719674,  4.390147722571482
 1.772875644589952, 14.336704613720505, 117.329413601114709,  3.847047828084113
 7.460971709770325, 17.441141444609581, 113.812497082860276,  4.238208586291449
18.780032828303717,  3.819560045332344, 89.644754559098843,  4.183156833584994
 4.241794440640971,  5.219433258069857, 37.873766385846949,  3.476847954658072
12.873229098572647,  1.308216467472102, 50.869686611700196,  3.854304722979493
18.988502696363096,  7.606436457945817, 73.499454178230152,  4.419558717029264
 1.165343117170007,  2.117946008885439,  2.006902458915556,  3.994837374288142
 6.222311506382349, 18.699289214672298, 35.622115733443707,  4.377613451303268
 0.435855767438481, 15.669363363840018, 96.675513038623521,  4.086503757724819
18.455455551605297, 18.725196352318125,  5.943109189744571,  3.857528173914995
 7.481459365127558,  2.627120951013679, 66.327622447163577,  3.592888351601115
 5.447776776276215, 16.752754792371938, 81.849432031601722,  4.043478481779490
 2.637288986293270,  4.921005685579445, 50.697611740331787,  3.930690119630603
 8.793654267957251,  4.068050057566324, 27.936924610451243,  3.998604582073057
12.653998529882260,  0.500330730523465, 55.321034430264952,  3.861841306555407
10.713621884117984, 16.476872153179400, 48.426437125826517,  3.837874287143138
10.084881699089117, 17.199881807805962, 42.557456376913009,  3.532431833189301
11.649196996107301, 12.325367820237009, 58.341174238478438,  4.213165628656901
 4.251810383880629,  4.937045201763898, 79.719388165787294,  3.967746122464312
14.987278213164943, 18.499092544374328, 43.696211511700561,  4.222838613072243
 9.361928097684462, 14.034678805915036, 19.175917058388208,  4.007813874769260
 7.540058937759811, 17.408429644473763, 39.954429601177821,  3.744051672327415
 1.384259964437014,  0.444022954496896,  9.572084777321383,  3.979929738580444
14.258485199607081, 12.498087982337156, 64.959693206208925,  3.982126412109564
 0.840307429427550, 17.878013707210215, 54.380174992671641,  4.069076264089988
13.489029340409324, 11.973927786879910, 68.971427472029617,  3.949138051220381
14.851420565786452,  8.952384175397258, 85.130019079233321,  4.072412479776887
 2.061342005798446,  9.732819824750074, 43.480297600475701,  3.875245419050946
11.750361670799183,  4.278649200636067, 39.198909184157593,  3.919147159622948
 8.252281900682352,  1.487510715952576, 42.125352695665192,  4.034339128745971
 4.190165078711146, 18.701719277268051, 47.251374161692034,  4.185315104662259
 1.371523261704557, 15.476763477469678, 68.538973160542042,  4.288746851134809
11.342988265721978,  5.100105041208979, 18.277265573844531,  3.870149399870924
10.061255000581676,  8.312058520140530, 50.018049925827995,  3.924035790134993
17.651589292849579, 15.911142670414819, 25.959875581485484,  4.091342476209883
10.947932049853032, 10.803312116875629, 43.411924743943295,  4.070558288803776
 9.421735877595451, 15.954683560182124, 11.978303395236264,  3.935087962741004
15.278124252707995,  1.547225530538265, 12.704727422560781,  4.138178880550262
 5.895328356848204, 17.624080167207900, 11.591221579617621,  3.669803540847304
 5.868061020799820, 17.231198921509307, 87.494239710955114,  4.227492999196728
14.214211097137149, 17.541361629360210, 97.744680293198840,  4.051174409729362
17.229777243246026,  8.708841229382553, 43.809605571547962,  4.195439698589097
 1.761654274765033,  5.766364947964724, 86.594424418463902,  4.028516855537108
 3.016464326672815,  3.453000608400645, 117.153110575131038,  4.251011879738944
 0.250384400759392,  2.478287488183230, 63.402283840528895,  4.182322698476122
 9.340831262529594,  3.172808017534094, 63.142210349311455,  3.854720404059802
11.487236605553781, 14.978333234105280, 71.206625187080135,  4.204358214603983
 6.779728598342802,  9.861648530614916, 48.578271960287502,  3.881502160418182
 2.270892126615496,  1.898789340418083, 44.395312038447038,  4.005082797667463
11.451278008536670, 18.525954552602691, 113.800739766954891,  3.908758783325822
12.561383029492633,  4.917535372882474, 102.526745614625597,  4.078845519267646
18.939024045703793,  7.546115375519585, 107.118130804004124,  4.108656359294288
17.037756284770747,  0.007567220943824, 19.180828223973293,  3.733761594050203
16.158000169632157,  5.582533911882554, 46.433425039737500,  4.211959517120267
 8.545943380532597,  9.997960148266836,  8.914595504464957,  4.419978325741363
 0.505225520567435,  2.979202686821548, 23.911669242811065,  3.991723564278661
 1.783740491350385,  9.950711679899607, 61.563240731577686,  4.260101822511627
 0.750084222716097,  9.895644665189600, 80.442095115287856,  4.312708507829828
17.830251964838240,  1.203437236148881, 103.344169090970013,  3.868810457194551
 4.053888714307615,  6.075250250128446, 73.680242697188021,  4.099212271636212
 3.238770977905746,  2.746045385007178, 54.010973628728898,  3.970345972001815
13.805683570848446,  6.566376647863030, 28.175249114731052,  4.258213184862315
 5.609254874280151,  9.104998045467353, 112.611343224341155,  4.498630361962436
 5.946290364286838,  1.423933829717652, 56.170543839513705,  3.442483503696282
 7.025352757109303,  0.866694300204638, 97.265334223746279,  4.036446383636027
 4.496892500224556,  9.437997243450724, 26.633722462945805,  3.995360139278998
17.891606601844103, 12.227226578608356, 42.105046860213399,  3.719604015392609
14.881505622343191,  0.874606235856977, 22.321541358828824,  4.068951295881066
 7.961559596491936, 18.071795852181712,  2.068480033493171,  3.988619582588867
11.613453831239381, 14.633940599016180,  2.038122561064302,  3.928047192802478
 1.964873538554946,  4.384137903367682, 70.710506347856295,  3.910376293429100
 3.457280822438373,  1.261502019861255, 72.738561895876430,  3.981266856237265
 7.383353542850552,  5.189379757042074, 106.729577784433360,  4.210676080067312
 8.827786141172538, 14.990181261277282, 103.650732771819648,  4.004454614001908
 4.957646083595583, 14.761767266917772, 66.615981645624501,  3.967640773776246
15.509873400142903,  9.130161108239381, 15.029890322389825,  3.900221308507782
15.629452839855741,  8.321967211057952, 100.501035334094937,  3.819163288078506
 5.692310031247924,  7.249230558626134, 60.305983217272136,  4.118557227198691
 3.294590617418842,  1.267520987618729, 21.289336753531032,  4.359119422631686
15.169270446850929, 17.252167154065660, 102.318646764874984,  4.277176855146283
 3.762938346820403, 15.678071945031054, 56.062378907154020,  3.886827614532483
13.833126054283985,  5.541240469955300, 98.162926259452092,  4.251005285804347
 4.169600583031664,  9.632788417926296, 70.111384495634951,  4.179649044294196
 3.904734832141930, 18.226078451672208, 32.164886731608640,  3.988333701202061
 3.339198835697086, 14.476519757407658, 59.885672106227929,  4.022169916039136
17.084963561513742, 12.793310578820916, 95.133269423025595,  3.958565418494773
14.448168593403883,  5.405659723144230, 36.578821714525802,  3.928290334220446
 2.286743353015164, 14.280820495639629, 52.854161712196301,  3.692700924734478
10.806618038625738, 10.634211103754026, 66.276155782834437,  3.902568710760429
 3.631918968674448, 12.937207882819910, 81.782070120783771,  4.321345663759128
12.287343872064072, 16.021182715053545, 110.736679787730154,  4.149589908167473
 9.386425209555870, 10.429023740421240, 114.025793109181876,  3.882369066604616
10.230223466650946,  7.281974613341163, 109.480378909810895,  4.207688640531306
 6.679168273141535, 10.858625634276006, 76.513050955560544,  3.972639568857956
 5.033180214959781,  8.196544504308196, 87.159136860942994,  3.706619165476905
 7.676529015980794,  4.813264384904589, 73.015800176491439,  3.658258310230373
14.809495404885125,  3.454344646358643, 53.640395670234639,  4.079293427885524
13.522872066857596,  6.703515324983025, 74.498293005495668,  4.022140233231358
 7.196395172330813,  6.621662564453510, 69.460595898008378,  4.353499892249539
 7.682236127185014, 17.273600445447769, 55.697497280113630,  3.932080177673979
 0.030110783712977, 13.832988182327570, 110.204785493444149,  4.137908200788137
11.667718370993491, 11.288608216422537, 85.498267652799996,  3.852175469781804
 6.613257493016425,  5.816187369821002, 64.189021950568247,  4.017965759520750
14.567000256311184, 13.852558912323570, 86.419497617868515,  3.702853368377619
 5.925250594459359,  9.748567091649642, 90.606892440423451,  4.034287650370575
16.179040733301118, 13.720115617395122, 48.234570069993048,  4.044598011419748
16.229793767856947, 12.532301639339982,  1.970141227276022,  3.926708459973047
 7.156342536343661,  5.890425525838856, 48.872863217577709,  3.891198261240370
12.181612643217338,  1.351703555899202, 84.731523020214240,  3.961526397631038
 4.644552147720201, 11.431555956846550, 54.580207699918986,  4.088594256916027
16.098070615302088, 16.606392061398061, 94.283015281717269,  4.049166621272780
10.967021846584656, 17.290042922738138, 27.519928556061284,  3.821839377511380
 6.396286610989028,  0.412949914466097, 117.288157580488843,  3.983412349533528
 3.025218673952685,  2.731250191598555, 12.554825481275238,  4.130740030530371
12.422701842946335,  0.382500046392805,  8.667099417287323,  4.257855375441924
 8.599963749364816, 12.408110416074395, 117.305712660419218,  3.918626273011497
 7.891017868211441,  3.569827339205537, 79.101190066042705,  3.653067169272610
17.517507143884508, 10.784017736867698, 63.601186648839878,  3.759013222747424
 5.364405609171083,  2.705280102740782, 69.521009036369563,  4.012527074957644
18.051166806518875, 18.548885535853298, 46.996798623596952,  4.160728565775673
12.667936058495513, 13.718455955978278, 117.288348478353186,  3.995801248581193
10.599534125478975, 11.441883967425110, 98.358282809079313,  3.872317721948471
 6.688801561953647, 13.244590603830659, 92.446194503717763,  3.841797791643196
15.966954642686906, 17.759095809398676, 15.591291852506265,  4.122144727756027
 7.189560417391169,  7.901445176608529, 42.028927030334017,  4.412256508831886
18.377413414395182,  0.918036567368025, 59.895071963732931,  3.730903854953647
16.579355676574380,  0.307187940292425, 75.317532820681052,  4.119828612122077
 9.618161092300427,  2.141726002142662, 100.077667634512849,  4.006564215896079
10.916788580708658, 17.012244869373319, 63.674968216749534,  3.699246226175589
14.468741367652017, 16.765174693215499, 73.199655231366052,  3.794640761765437
17.015679432392336,  8.699809512365354, 30.609326654897028,  4.002886377707316
 4.663274748907904, 14.620221712324975, 30.810869696000605,  3.840451085800342
 6.748860166918877, 15.381477272717394, 107.056220806493187,  3.954410841012989
18.371116340714476,  4.652727838996450, 97.563702230128612,  3.954360515810896
11.109143658389710, 16.254703436515136, 22.069421412987602,  4.050255530176160
 1.508984107994053, 11.106193729987591,  5.583892496926824,  3.809559669886907
 7.078149888363564,  3.250904348641361, 59.903381851211655,  3.910454460054412
 3.974659589049150,  3.605175206369155,  5.825874133935837,  3.908168894068683
11.027217311799172, 11.592769711959399, 47.733185512313632,  4.286396402106551
 0.825325860308270,  8.369988375861084, 65.347858636864231,  3.715213323217364
16.925346955793970,  8.944359137544566, 26.524830126320502,  4.098718701592968
 7.834787594493095, 11.504515245658478, 26.090120210663354,  3.845809970417289
 3.493668233373051,  3.037825292271351, 65.611221627228375,  3.740179470253923
 1.778067580874114, 17.785609581637164, 87.975522483012099,  3.945956886150272
13.983877140775707, 15.053731903509021, 54.819998952878812,  4.200569048003419
 2.113216426504533,  7.422255276284565, 77.250612875789045,  4.096037089522355
11.991231070799149, 15.244053315270333, 67.029902922797774,  4.158499698508134
 2.215764895004082, 16.332098842067001, 20.097534098684921,  4.183074642973570
 4.899806911094201, 17.339658654591350, 27.842967979599489,  3.940670818566918
 3.912326317044651, 18.385665910241382, 14.621930444595847,  3.713532764859561
10.897102924890669,  2.881246364916164, 107.978365400446293,  4.047704813279992
 1.471657795415267,  3.501930550417319, 75.673188936512886,  4.189576296131839
11.642545063362656,  3.332839270440989,  5.780153679896110,  4.118321174648407
17.067931035077414,  6.780994591683298, 63.141855130491400,  4.040827661608709
17.882464678801096,  2.980636274102515, 117.179841108843220,  4.219564656347950
15.883416799609742,  6.672977962176002, 104.185315430876997,  3.789361224980770
18.799495840562351,  1.940051000417336, 72.542891275456327,  3.633548120442669
11.127781165226747,  3.897749211252712, 73.499581002889755,  3.548154939959410
 6.276045937102705, 14.722933908630520, 53.168941251443655,  3.778773258070709
15.107984010760587,  5.392743201009998, 90.703976775144440,  3.941976842083891
 0.617780541128622, 12.191406636040160, 49.856534344828759,  4.162564918333126
 1.851495210816377,  0.561402285409437, 69.121721079995069,  4.011608146321143
 3.175795306685421,  8.062664309595819, 93.291279454612507,  3.966592681405063
10.359540170191318, 14.138640799163094, 93.568623315718440,  3.930875286764502
 0.269883866550218, 16.657188171784661, 104.872741792975120,  3.860221489877281
11.567781105117813, 15.612402745691513, 31.103345765715542,  4.103947083158780
 2.488893967953129, 10.970721846217833, 85.587417927610730,  4.397172560882145
 2.860232248975697,  9.487283218855667, 102.441652268239693,  3.865956216584635
16.631251869601588,  5.408166058393768, 22.589561806331169,  3.832839381297195
13.354924814622416, 12.448416283407061, 21.986310270606833,  4.148268230234556
15.844766343201096, 18.413925203652621, 53.320259694945946,  4.004687245723090
 5.992142042918829,  5.486193790426825, 84.816660149868667,  3.675976599182800
 8.084233283724377, 14.636936088893437, 28.379801741878367,  3.801252544719306
 7.553132765814785, 13.921329490460767, 48.678533485171698,  4.277415943645392
11.081554323393965,  5.246178677718143, 117.226938295278686,  4.033969579284505
18.501356393746786, 13.626559724129711, 60.860031057903953,  4.220564547599255
 3.655996502340692, 18.341443118360587, 65.822725378105162,  3.808553472755596
 1.301758652884778, 16.582834605812973, 81.893995034424293,  4.228598821844136
15.848607109240312,  9.054386856234746, 70.957399599636986,  4.142140740386840
 0.860088193634868,  4.964855430593998, 114.017415174256612,  3.857489560710426
 7.020431218006530,  7.620177074630735, 20.185926245493985,  4.333032164812317
18.884868317916574, 18.580403223966407, 42.327094596667450,  3.832458286237983
16.720199875835903, 17.210620536349865, 62.077781408414488,  4.047484018704758
14.007065315995884,  7.440546581748770, 20.111532721227217,  3.837354672107515
16.675294637163791, 15.075004730509136, 76.342505936422057,  4.370813984576840
 1.697433342007664, 11.066567652694577, 95.605442597007922,  4.172362410066174
 3.927739775552118,  4.985696276240591, 19.801137208939799,  3.707374784775551
 4.408307005325285,  9.129465240780874, 64.539810825076231,  3.715339594121293
17.961149685089616,  5.838886708629863, 56.226198141284875,  3.871498539604604
 9.458898099172112, 18.080445198993512, 69.466474176694689,  3.818043660991244
 9.157324657109983,  3.009012077848059,  9.264197361956739,  4.199209226287979
15.167961899222661,  8.595921404692699,  1.987656236229878,  3.957794078932562
 0.274586688274348,  3.287645048257561, 47.601215232168180,  3.983992172691469
17.456589342637262, 12.540729576827532, 15.547409852418753,  3.951261391060505
14.267727094297170,  4.728407025270513, 49.875914603330187,  3.789770200507265
 3.885206731673337, 18.552358914672514, 94.868814821522534,  4.121360009371729
 5.561758818376324, 16.103529563327140, 62.780788989754640,  3.946860977212256
10.611417825072447,  9.983431850896975, 23.887022053164294,  3.819468658176021
14.370008687802580, 18.402230917365380, 29.166183129879443,  3.784906142883851
15.180741727138257,  0.416009776455218, 80.341770659807537,  3.936109877256831
11.317651917258333,  3.363389324515696, 34.877101884287768,  4.211683634487200
16.797863447097779,  1.213669181095157, 68.929990322012657,  4.161377046021495
16.318610004014669,  1.831332838611210, 92.451012331481849,  4.225906898500640
 1.590977060579313,  8.544556690188287, 113.054098901839353,  3.642903756921590
10.983376602653731,  0.465571425366299, 24.207470656064839,  3.804287850839368
 9.760268682938031, 14.510121831519132, 45.127559056104708,  3.829719091497622
15.376612566160997,  2.099408251415807, 96.456277494708957,  3.998346946094383
 5.734338838471170,  1.846126280356043, 29.648222713817596,  4.212834074068438
 4.244324547377129, 15.865715827465268, 50.086652953738700,  3.592853803098015
 1.824328862202280, 17.754181182608480, 62.083644353445422,  4.319650314634521
10.400708489053986,  7.344686472328257, 104.963659413683814,  3.942640916853172
10.682132513240635,  6.463593293291012, 21.922274038964410,  3.925926856780147
10.854880752892029,  0.374127001474045, 30.627614795365190,  3.673468575954181
17.453834081147967,  7.971770533926960, 11.711494589331007,  3.865183137902630
14.292657762467652, 14.407450635025349, 14.911914250993858,  3.467722072438940
14.165544396627842,  1.128963534997089, 37.053493831635684,  4.175688998735303
16.607951586877370,  9.679960614895476, 48.435487846689604,  4.064596738613011
 4.864210138723179,  4.886218090358084, 113.586156404137554,  4.197582071767361
 3.013820378235198,  5.280267699696518, 31.069471284358237,  3.541203036444685
 8.189190093935782,  4.000611185293583, 23.914615768462891,  4.123634082811822
12.479002163196391,  9.731157368244670,  4.965951882180666,  4.257859917080957
 0.248938459111408, 17.006668238360991,  2.247456224941899,  4.475469072613333
 9.147929767829631, 10.543026421572073, 70.028741573862476,  4.293141845914948
 1.060878769858806,  5.231413654962957, 110.156959996581008,  3.855131265601251
 8.877828716047294,  1.214502505025274, 53.479988754401973,  3.902409427632450
 9.265032970604071,  7.722007159515743, 53.935217801370875,  4.138002510438148
13.887972213296338, 17.648405459711103, 87.230453675745650,  4.073931698518676
 3.133527532745791, 12.129178023525460, 77.698736089961230,  3.908757713601879
 1.395681787090936, 15.642862321852391, 28.862991006318097,  4.023303020873310
15.148026429265878, 16.371322439795449,  2.050000826150800,  3.939791620015988
 1.003772140907140,  7.912443191911994, 19.874288128686739,  4.436160057562357
 9.320278595060083, 18.979315848600638, 110.327091007358831,  4.073429484630062
 4.437151499715275, 13.583745879792207, 26.491715750462809,  4.044996935380006
 4.882544569078380,  8.360179224220902, 30.519905767818532,  3.736368171532659
 1.442776189455378, 15.257964831729943, 47.220692325006816,  4.084606434248087
 7.332303966626755, 11.602847695548196, 21.980793493664915,  4.396889312565634
16.812703071695100,  8.283852562117561, 53.069572064301830,  4.127705393323020
17.409637778882992, 17.944567168179642, 117.203544971001691,  4.072115673993216
 6.331128184551168,  0.069643716547203, 104.234158755860307,  3.674071268010436
17.285174237867903, 11.258219311296822, 67.637849118697474,  4.213321529576051
 9.886821636336222, 18.771943542627266, 87.752744195577790,  4.209495844814825
18.877051425553368,  1.416917411225180, 81.786065707980669,  4.058822727906374
 7.394863310335789, 18.831173932776672, 78.866665485095652,  3.746883790508763
 3.522309442916545, 11.402396854890572, 15.502995569133082,  3.922240159715701
 4.592242956196089, 13.576415835347795, 70.282263764332910,  3.760005843886556
 4.063342900563399,  5.785421284369043, 102.438627749724674,  3.725157654006974
17.302170784637244, 19.081750602163130, 88.926439794264084,  3.841306147673809
17.079639382734481,  7.319630680156217, 77.392638604609402,  4.138517150126314
 9.544483006447148, 16.337994612871913, 117.248972189160185,  4.022953758321725
16.967450569609532,  8.221539820621597, 113.764927952788852,  3.737341884966885
14.415099130897497, 10.454900413987854, 41.233265958255487,  4.124524124820805
13.030833780875950, 10.490789728572382, 27.029884163433195,  4.015542033358661
 9.328118760232218,  7.852469177444481, 45.939478347944458,  4.321238753093817
11.504910265350537, 14.013769264552783, 34.831756355628407,  3.982402241206374
 3.990114373778453,  9.192117487165406, 22.686312770624227,  3.920121880409890
 7.342847348537143,  7.922725760160326, 24.322264478420191,  3.938580173352182
 7.025941101958555,  0.234832121824395, 90.812011296392328,  3.925157550044204
15.228165343864536, 12.483890724795435, 34.728113278372390,  4.054184932469726
16.491060495592997,  0.810675990708111, 26.127206478769235,  4.164779813613277
12.624262003032365,  6.959123595381248, 87.926064566941662,  3.990700878522436
17.385885646315440,  5.038803120696247,  2.068734457585149,  4.136081539532793
 2.998150544530473, 16.471298266083913, 72.258863602212685,  3.815964867191964
 6.603355618984658,  8.886276408087374, 108.397166365323855,  3.993177820186038
 3.385419137831606, 18.652053657666421,  4.889221084294983,  4.307811637500963
10.492353589557558, 17.574085405104988, 91.601144192130505,  3.924890900463399
16.856329415260898,  6.459683158848577, 17.603565114573055,  3.957103173997815
 0.380809196224963, 11.490317577133789, 106.956046660400091,  3.706822887005892
16.336602022816603, 16.894906499986359, 110.344521073115985,  4.129599838689358
 4.979729176063360,  9.304242957421087, 79.796330856611974,  4.027815466810522
 4.048869454650196, 11.317129044663091, 33.246822951235544,  3.883622618290224
 6.992765904422159,  8.092893260207422, 37.678834440546524,  4.186738704102877
 9.296305968724026, 11.170810624683636, 110.155409973065545,  3.848822211083182
 1.210372687289918,  0.269703283153524, 91.733497973797810,  4.273221639298073
 1.797281305695263,  3.372154326240914, 100.391636100082437,  4.020599278639410
 4.219979614036137,  4.417550026507182, 57.441880785387980,  3.889308798167482
18.017747551323946,  4.669590352963039, 38.113860687126405,  3.969694523365721
16.844078147105737, 13.643839893409233, 102.548741570982557,  3.681200667005001
 7.050703478198463, 12.410283829365715, 96.435275966553220,  4.294147862317529
 5.446960102515459, 17.998841651194766, 59.107108463620492,  4.303147862607504
 7.012756901079454, 14.548087754919123, 42.423648260390237,  3.879162403064982
 9.878106261916939, 11.280128624160579, 102.429564204933058,  3.983248434563946
15.845564051665514,  9.331370602100034, 94.032448671500546,  3.526413784899075
 4.401784170431614,  5.308487471558120, 23.573595005001309,  3.918624253792530
18.322854452842279,  7.473722689561574, 92.002365819186110,  3.838077988752941
 0.056406346149273,  0.119559935887903, 13.528409447771818,  3.938715742201124
 0.411331026704384, 16.682736436310535, 58.237508599796783,  3.984059902965047
 3.451144074641434, 13.189796261402716, 22.481680328053397,  4.043183335886011
 1.208322728608410,  8.296216694549880, 47.190077363161585,  4.177433151074064
18.640920601030309, 12.842725090796577, 83.175049454907636,  4.066965180058298
12.282224199085887,  0.692685547733495, 40.855067834314056,  4.023259389856986
 9.745197953502887, 13.728784461129530, 15.230256880538082,  3.944046713875624
11.595185292665798,  4.163771636163569, 30.786534854164376,  3.991866469154334
 0.848857820577298, 11.517507191365151, 57.670818297324089,  3.943439609160518
 6.491215346268591, 15.946308539562372,  5.215611927339530,  3.750881172734865
12.096023404637869,  9.261836314393449, 82.241222848033829,  3.804441118574911
11.355996874659438,  2.042092815679234, 20.689816989217888,  3.856958439298063
 9.345882977486992, 14.689647757326918, 61.008637283277466,  3.830686666052785
11.204765818612195,  4.422891417111185, 55.541853700605593,  4.153881410977193
16.967742643156349,  5.011102504200063, 70.662505742344095,  4.189393663610833
 1.699064310839126,  8.560900290349197, 51.002285397677504,  3.509732685343545
 7.559337917238550, 14.005146026323459,  9.069726713387320,  3.763362708600423
 1.028539525346310, 15.605365092679243, 32.892235545590438,  3.918557244447729
 5.697781229761707,  2.440709350611304, 101.161910476327307,  4.139979907886632
 3.139563509112891, 15.088958448851541, 85.283526565259152,  3.950390492966827
13.333415730398299, 12.985566480749528, 38.123044744719792,  3.774591847007832
13.895178620729940, 10.783850771647259, 88.813347175997905,  4.175591124781353
15.778502380521731,  3.078023036441130, 65.355582039395756,  3.967249041864683
10.142778120149771, 11.055764921809711,  1.890482220742265,  3.754514447979527
13.338078239250581, 11.462944745116898, 113.742933443607555,  4.144372517735942
10.629569831476287,  5.306611738955509, 76.952234828647363,  3.881166018792816
 9.928767644074330, 12.652433714032577, 82.129022889675127,  4.028671706001952
14.566534873907131,  0.354423138963147, 58.878201725275247,  4.079482805601461
 0.316266741349593,  7.138449654363221, 100.531842290510767,  3.947345235676523
 2.411415157327201, 13.618008832059273, 43.385131078129987,  3.812321010268709
14.575039290752080, 16.505923108434594, 35.216800021936699,  3.900798406489473
 9.400243255007409,  2.571457545004970, 104.173620696809749,  4.139893627243773
 7.841713444024254,  4.565692597762458, 39.523071874900971,  3.938172294254296
16.360501473567641,  1.068052518947035,  2.691902395574091,  4.093573482099065
18.585449634474120, 11.934557707079442, 32.501791715218062,  4.046060338825046
15.643349541276464,  0.094806034542092, 113.725941307867828,  4.069894477080233
11.210247135234956,  8.056108299290187, 30.824441631722770,  3.600517993215245
17.880890456753423, 15.989376463673480, 85.777662571252975,  4.220453110982310
18.684033744668486,  8.232307823059976, 84.273854224107666,  3.902260262805639
 9.292701000018049,  3.690824732286725, 83.363005494686348,  3.954919483544896
 3.687457563625371, 13.089415315640354,  9.804608475426079,  4.043556601338628
 1.846720990199468,  4.995766565179405,  9.178007241103066,  4.296565622700236
 6.933193827617536, 14.057753874173775, 57.942382455290286,  4.033901248745702
14.158911079177141,  4.335316915522297, 79.768371482713718,  4.139126148100244
13.441583995758611, 14.859724515530358, 61.574910105274121,  4.043781369118832
 0.348159024536004, 16.191474826054094, 100.867575534186699,  4.126634570767864
 7.679195797870762, 16.177281273011417, 72.354026931378215,  3.922908650161242
10.339148576793857, 11.406661618152581, 90.706917374166849,  3.969211014592249
 1.114572296177343, 13.897681848555324, 88.787408580693523,  4.043699279159836
14.328982595317026, 14.467511875124318, 42.113904325497508,  4.088546343939103
18.283651583836296, 16.035889085189773, 36.700856484484234,  3.916889428479688
13.403334991765970, 10.252446311039620, 50.761394249647047,  3.864934462215208
 5.956908975870521,  2.327484634349241, 50.691551063542157,  4.455955215453342
10.079307768675985, 10.276351383326102, 94.547501663796680,  4.018705608450671
16.851679198602518,  1.659355629276526, 50.368980144300139,  3.749075534116460
14.832424262054978,  3.999170129148653, 57.519324550784873,  3.698094657828361
 0.186903703857708,  4.948967791638911, 59.925822423555793,  3.966607609500681
 6.478177475097890, 14.360525885136564, 78.631865439243001,  4.184079633638068
12.580038326719199, 14.517488636778308, 89.652312515127107,  3.881139768534102
10.113187315492318, 16.964070474286437, 96.659373299784633,  4.428403524683728
12.903384539585245,  7.224297172030389, 113.920547181831523,  4.373367206872379
 6.332345820476124, 11.578311230132806, 29.475225045284827,  3.549445054272829
 4.294242157282633, 15.119353973553194, 39.165777903629831,  4.217932696026921
10.525575350195737, 13.878513383519289, 40.773928910951113,  3.992791879244787
15.749387630487959, 17.217098731341398, 39.505143819407841,  3.998377331800604
14.820713019313210,  6.051898394357728,  5.249027067091065,  4.256575652376580
 5.078749979625140, 11.356069977300169, 41.917177229900204,  3.651666865626665
14.662288396844847, 17.372815254971041, 49.195546408568028,  3.918569242844715
 5.248515428782723, 10.709505330762244,  2.199000642680725,  4.365924807119247
 4.993588309477227,  7.960277157957096, 45.634076836367562,  3.980911393832965
15.757355104731960,  3.429212928235683, 61.250789653961178,  4.010883306879205
 3.335631033108432,  0.961225152342739, 78.782584884967036,  4.336716653786925
14.124958379456986, 11.852938101316862, 100.389835802144006,  3.803849881504104
14.353250003240047,  2.082818474979879, 72.261205608286573,  4.170441950956047
 1.626190122275668, 13.161050345225739, 103.534758443293825,  4.036094144408700
 3.920337182918799, 17.017019009443370, 23.866670152076857,  4.144190835668152
 7.599431215140289,  3.448593278241865, 19.793430578051495,  4.115992227536002
 0.341254856481765,  8.988097250850869, 15.806303571659340,  4.075723172529956
 6.750217767831428,  6.692292591445342,  2.050202445158082,  4.050527784730561
 5.463449712421540,  7.994583501278209, 52.011440862389811,  4.324997149004711
16.568164351302329, 18.419953164279381,  9.451567600419095,  4.129546416929322
18.365144026604522, 16.131442109223588, 50.883152146352685,  4.332853447076084
 1.933250519762929, 11.688615629126291, 39.630608636535158,  4.129330948628874
17.526627813689881,  1.881646288814528, 110.443758014717204,  4.261426462763929
 9.495429910315506,  3.235731272655736,  2.158326648337543,  4.283387271680350
 8.678465612154159, 13.756993478978458, 64.846683795670785,  4.177446931982530
13.409380037229075,  9.692694052543230, 103.648487362599752,  4.054601960406043
17.791327411874274, 14.343063053413546,  5.044190293726889,  3.832275273585326
13.973933239021726,  8.081980138310481, 23.951247216121999,  3.898325412256248
 8.366681177240947,  9.217708562363715,  4.788070039375173,  3.959453444361016
 7.131183577116208,  4.305851025407780, 95.323465907874294,  3.800039247797897
10.309618351709037,  1.220305999429311, 117.152308605885764,  4.000284031972722
14.466571383879030, 12.331590366274678, 82.867670835084553,  4.010599877789794
 5.313702558101650, 18.237249762745467, 18.403739381625495,  3.741968677477625
 9.468518360274528, 10.225020570384057, 13.030627080342772,  4.004737125288797
 7.272232394698799,  0.872363659841782, 72.572435456695345,  3.689952035904422
14.528212062489454,  1.794694805425057, 47.166500754067698,  4.141747063470344
 4.126748902835232, 16.292638118014917, 91.243852097074253,  4.218897689003445
 7.685721181164941, 17.748727830396920, 65.857838187802002,  4.203055410094056
17.580805725522268, 15.363802354618423, 12.393663856985610,  4.348156508848825
15.968465996507359,  9.830041054023292, 117.204765376728147,  4.108144151380624
13.687930579181119,  9.160497312004720, 110.387339612464103,  3.834716555393813
 1.668797318213492,  2.969269718354971, 28.334429784680356,  4.014221724360198
14.798036051151945,  5.992005760634139, 32.605545328719117,  4.038472295713970
10.513432480883191,  7.849045146950252, 57.916238200052064,  4.134704378088079
 6.590701558433617,  8.278076864120040, 104.104994996481182,  4.046808351614787
 1.784250137272114,  9.240637173770452, 89.411248612504181,  4.091524340657089
16.792261591582928, 13.881739377623923, 117.185515020422329,  4.134251689485426
 3.512985931038642, 16.258726958273044, 113.709325844442247,  3.994914865393675
10.257192186929368,  5.878942374965012, 66.282844314374088,  4.377320443207283
 6.282751766176677, 15.490194579198169, 21.073317750515525,  3.733888913558156
