BANDS
8 8
NANOPARTICLES
cell(1), 19.120
cell(2), 19.120
cell(3), 119.498
 3.576845175201528,  7.687460352640178, 52.688988825308641,  3.776487782501069
10.462510310885811, 13.821658038101075, 98.488619502452138,  3.814925152309546
16.070934069351260, 11.907728178902291, 75.877309197853677,  3.885487023709561
 7.232444725284521,  9.601738141783894, 93.679942917475614,  4.150000879461563
 5.540922136005148,  7.368396940491904, 26.282443473503708,  4.101913441572787
17.142945094534650, 11.639869033486022, 35.106997145652684,  4.402500170783732
 1.832849447643677,  6.262837425112540, 93.406799874394082,  3.773213776788436
 5.174464160077588, 10.967911526827502, 54.134812811165041,  4.028656350207207
18.393044031377322, 15.968006002928837, 99.276279701134413,  4.032261531390534
10.593233106509524, 15.573041866070485, 71.738060037812673,  3.687122547605549
18.489882329038320,  6.179488074739579, 100.886902965754572,  3.901408927494788
12.661328574281885,  3.497767525575503, 110.047633501054122,  4.201217825632390
10.680266692548365,  0.894302423313936, 49.946503220048655,  3.922589707798319
 5.825128927593155,  0.764629533785778,  8.556111367809820,  3.906743222856715
 1.580290699628437,  3.855925630939522, 86.839347235372003,  4.173467287062932
 6.698454911080280,  9.320109907167087, 39.950999606411052,  3.604212017802938
17.999131036951994, 16.916829712309131, 29.399492132347952,  3.934216670071080
 8.099268040355730, 16.789914148119564, 97.310008273128133,  4.069139834728240
11.169859817739576,  3.135805475914446, 28.685323676644629,  4.212965053973386
13.938497548322431, 13.751676674625052, 56.658844330574460,  4.205930084848426
 7.854005325990514, 16.551257315238772,  8.695578459613181,  3.845676203520547
 2.767249789446288, 10.155603688388487,  7.515564028863714,  4.031586371075071
 8.834635002158375,  8.073312944895546, 47.555158284777171,  3.868754410180819
 3.608142671156152, 14.512487947613113, 24.105237482930455,  4.143368449092169
 2.181170279147380, 13.679824270598511, 53.794849892108132,  4.063009300385490
17.794036017950660,  6.850208414759216, 55.055261624865309,  3.753322194351027
 3.672690305106753, 16.195547622259969, 67.203830007441013,  3.925836409560787
 8.901404528683136, 14.453573490642164, 117.538650932332402,  3.856744358783834
17.214379379909516,  1.586024466685720, 46.166993320379319,  4.057630722000372
15.309557287298849, 13.579186488708819, 50.540559802089284,  3.988912612417612
 6.659960322617963,  7.644179582817650, 117.493139567399083,  3.973491029932741
11.009667391042694,  3.741327234019075, 18.315561478846728,  4.476282841725064
11.470060700010567,  3.908745920387064, 10.278785304119790,  4.112123603559945
 7.505818736736070,  3.821917225873691, 56.932913809395444,  4.091162257809045
 5.790958609821529,  0.340669387857006, 57.970613790488414,  3.863605751205723
15.974596316232585, 14.567362411137706, 23.527837071116391,  4.306694794619738
 8.954985529520258,  1.100017789256949, 104.088927060950951,  4.046138479929250
 4.862022804129102,  4.543518554022453, 80.204058573113159,  3.969595722935212
11.648148829272378,  4.990879478563323, 63.831237757726065,  3.969717081549288
 5.884434972462969, 13.423440748564245, 98.463468245773612,  3.990002102111609
15.505025097535933, 12.144131921405041, 60.084149984132125,  3.825116516736895
10.722482822539163,  8.747379783927549, 50.895137499583662,  3.804981530796165
 9.750208382933691, 17.025032644550389, 21.933044450019661,  3.906265742427102
10.343569114549087, 14.571866859076444, 64.354016782165360,  4.052790156282157
 4.124069029120584, 13.257583453929941, 13.218471683341331,  4.079473138858895
11.076240234567685,  4.048105841646962, 43.212191949499385,  3.758725033024099
12.180483077039888, 18.143024212142922, 64.819397518051858,  3.973096024264170
 0.768218726146809, 10.831994634882305, 30.903418487650889,  4.293202249301581
 8.422248036841092,  6.814087095110298, 96.286744512027056,  3.806223489077793
 6.332834249395954, 14.093498155134963, 34.629758787114859,  3.856797030637677
11.585250777726667, 18.557019550194461, 101.061567012310022,  4.200303481214045
15.962235064269736,  4.681886619747420,  8.038417006823288,  4.399231509475096
 2.778169451841371,  2.903670271766190, 77.178662288369551,  3.749452143050728
11.674979190374247, 15.445505446678624, 52.514628363358632,  3.982645469339785
 0.673731159787591,  6.837671232426957,  8.781431779336113,  4.112820177795781
17.783769028239529,  3.121120552877389, 14.807805085117515,  3.986879728309887
13.005689092174570, 10.818472234911539, 37.205181149323764,  3.932914809477248
16.407072192401984,  4.682477470007053, 67.882869825014510,  4.139208953395870
12.841782541912421, 18.577753703733077, 111.025907137171444,  4.116670424372405
13.876708047213132,  2.354393034017664, 99.046129888323222,  4.027757311099418
 3.610818833345676, 11.367062240038564, 64.710151232920907,  3.922744787916749
10.027762038006962, 15.418317070912046, 27.824402110115535,  4.315863475291496
 1.676141419219211,  5.333587926013565, 35.538007435310021,  4.257900899629098
 8.689953327055127,  2.047373970093254, 53.212870447938656,  4.026737226292657
11.763873579104294, 14.958820698540391, 102.821327816253046,  3.806169293368402
 6.420763260495713, 13.427092976909751, 86.542051596671840,  4.447592106100952
 8.426842810791161, 17.325812516758120, 61.981923485858580,  4.147956005681412
 9.320170921843063,  6.949910797886615, 28.441895874319588,  4.230356867727828
11.588491996360904, 13.327304328662260, 110.360454867377484,  3.954321940915156
 2.820676930452513,  2.055221536160798, 56.343431130845985,  3.644481313183497
 8.205057507424952,  5.118974124093051, 60.655322110256897,  3.821914732217247
16.113410665677584, 16.114189252450689,  5.459213031064418,  4.072068662736999
 3.679421617944638, 16.411799732822519, 51.406228063005514,  3.727028805331707
13.718779187146463, 14.466177089258505, 46.703615037362418,  4.460294029040737
 5.766725639512655, 13.431853674526300, 103.720281231435962,  3.922119028145351
10.038817578551189, 10.322630089035464, 96.999816538475983,  3.813871386928767
 5.985088079017952,  1.922289245920184, 92.890409233292516,  4.244955397770958
 4.623735112821614,  5.830330022336136, 96.048996346418051,  3.948202705914811
17.377820992518718, 12.561378174524201, 53.851276288512061,  4.067018081514447
 4.679836192654117, 17.002258200070372, 99.706546231952672,  3.938323619080770
 1.806667334091950, 12.726558081103436, 98.007659454566820,  4.122736221962390
 8.727650463137953,  5.335063860547098, 104.186214895253102,  3.931620093600035
14.219646029332010,  1.789842689458767, 32.273675309049665,  3.914251701858593
12.211562893611482, 12.165965430263377, 29.766741027641132,  4.088712234525861
 3.479068222693162,  4.166423675380037, 24.552751892930637,  4.197356327110260
10.403134410048395, 11.637496222817639, 91.663625687199996,  4.291018274925848
 8.965605596879096,  4.758826801586455, 78.179257855254690,  4.038466020533454
 2.422275236804433,  3.169224067799601, 90.854173581197600,  4.106062242941805
 8.882638399121623,  6.554641713736935,  5.449664085242735,  4.024373443333285
16.860435408496826, 18.134516522732994, 25.637831260333655,  4.152567676101610
10.243495575266232,  7.307045245341613, 57.797058303225334,  4.387570645979040
14.955907481066875,  2.287957791461417, 19.161794514897416,  4.037368359583225
17.941968275857391,  0.545203321474180, 33.407932860504779,  4.206809741120037
 1.510300359357757, 11.128399428178795, 80.771235486638460,  3.983033991529104
13.085558614256108, 18.609192077750059,  5.080632614572554,  3.805221516788005
 0.043290910190147,  6.923426561719931, 51.511070565597684,  3.812553844801879
15.780455119980726,  0.754219327662758, 117.489013165983067,  3.968030523221979
16.914820323590654,  3.697124299403541, 42.910427857628733,  3.683018748743632
18.211166621514913, 15.285635787775602, 41.340407806943148,  3.977112654711823
 8.386856845982246, 12.864328404075993, 61.225231150638329,  4.030840482920770
18.687773005176378, 14.459101809191981, 32.396453321753334,  3.880858913103981
16.074287598071564, 18.592573267451126, 97.229252240871304,  3.997731081258510
12.997973549105842, 14.654387684156939, 36.262959864466460,  3.668444485634929
16.361286435449308,  1.844525837314867, 110.993808857780962,  4.069911313799953
13.930274497181493, 15.289039446119494, 62.904311061849306,  3.712153105913147
 9.546139958570411, 12.263038204845486, 104.688376649537190,  4.110125741801411
16.831930057967600,  9.758472499191935, 113.829548470679654,  3.955897868830004
13.692774965432902, 12.653515670763072, 85.377524944629258,  3.969906859722851
12.357198018323512, 12.115623206503347, 77.525322489700883,  4.226411193115762
14.474992385086189,  0.282775922421671, 80.814393465904047,  4.164884721836646
12.445440787983166, 10.992948747710525,  9.641806478941223,  3.593277134942121
11.703559818712485, 18.915456924863136, 11.755396738180172,  4.024943656800387
 3.208389056186712,  1.268657563771235, 104.420680019722212,  3.661078996719693
 8.343507224802748, 13.349259839081032, 95.211185164299266,  3.972165837033682
 2.226866956682869,  0.843513925755842, 50.200303988920851,  4.210023339030316
 9.909090273450389,  0.644144793954365, 25.543630331122092,  4.037902066001529
 6.404079748565410,  4.841944524233825, 83.712068387340935,  3.707658033425878
14.351820472313717,  3.660318126234134, 87.226530258463313,  4.250180581106539
18.396067372318750,  3.688012614702618, 49.455802588013078,  4.002273882279497
 1.976819314965276, 17.642170721307394, 31.731527933277796,  3.927086968930446
 8.542165368991492, 14.741561993580060, 41.233997667924882,  3.987774575318078
16.099097212349733, 15.518804380448202, 66.361826516306536,  3.923083465897446
 2.407892940551239, 14.461245822238890, 91.383252474741894,  3.710601016080629
 4.958077259475278,  0.919917430495549, 31.119868247519662,  3.793293863478314
 2.244816188442759,  4.227595093851802, 16.389568569158122,  3.811242998881917
17.813692897720177,  2.236660675756287, 70.896424592242099,  4.102944508288619
11.766629695264456, 10.136622092858291, 107.364523726197135,  4.012699304361699
16.655379807032457,  9.133498147057368, 62.153566867446010,  3.751461704832971
 2.234320748987137, 14.525926372382006, 101.620986136758276,  3.978988394471396
 3.374342806784820,  8.033263332950973, 22.790471584652824,  4.191398031966958
11.707019483228610,  4.716045448600554, 96.634064060592465,  3.987506364765965
 8.122878189675943, 13.959718183137472, 67.969309245181663,  4.391282804946009
12.367081337134440,  5.866030974412785, 68.285245629842450,  4.196624422910868
 1.587453590627374,  4.039916158539730, 42.570995589168689,  3.938298024618471
 9.009758581052871, 14.641747049590817, 83.199039290372696,  3.710029296504911
16.201483846958347,  6.654954008602509, 24.296896281111682,  3.770717107917107
12.996586233720835, 14.420020151957431, 12.120367304333181,  4.124120026736741
 4.643386783299659, 14.277318867330928, 38.348097771907035,  3.966096987657151
11.103981490753167,  3.841590307974467, 14.181441060922097,  3.720347656052701
16.338627771701116, 18.380825211650446, 73.308982111923228,  4.084125274271392
 0.943384037714545,  1.053614670304631, 24.405630020128413,  3.812217918797031
 8.748436435332632, 11.360000526416801, 21.172949539701175,  3.881279982270146
 4.795291525460651, 10.612037660739901, 36.750671875405338,  4.020134957342503
 2.241952668094021, 17.072588282739080, 12.524317740620395,  3.899635334415351
 9.188264626573627,  0.763454246867799, 36.478558078483942,  3.999333702841049
14.828257087239898,  3.105109864894465, 73.652419272911345,  4.178742277541885
17.467175606998033,  5.615333918269048, 104.656370790768420,  3.978248527004754
 4.087070776662728,  4.559542717768289, 32.251164651375092,  3.992415142866544
18.381553404791834, 12.069927637337559, 57.602695244081296,  3.734694539025614
12.367704948524345, 12.544771462515307, 16.077787199237775,  3.789464036478859
12.659838084592195,  7.093886031367681, 47.154984634737524,  3.915092916484271
 7.160333319125201,  3.419969857903263, 98.044177062936299,  4.016414436852536
 8.150712747056383, 13.850455828968904, 14.439100969606878,  4.178658332103441
11.899038604278001, 16.336416130368939, 43.005544968755217,  4.164749357481927
18.747048426519285, 13.681017092866021,  6.650836134732173,  3.452364209037587
18.231407706007165,  0.755365988788744, 92.170168676445925,  3.933474159652563
 8.615124879944037, 18.942987136255006, 110.227989194209911,  4.450796876611227
14.921648367815223, 13.641207755945251, 42.791675090997870,  3.829148452038372
16.982034829986656,  6.249224968266223, 12.508850532295762,  3.851782923017624
15.943328173251448, 17.983733911618582, 21.106541270829098,  4.049968089647141
14.082198457967881, 13.798810787974766, 72.981181651742645,  4.076827245069868
 2.123241544194002, 14.595501629542461, 111.273384963821243,  4.133447189598025
16.031843028306479, 11.676047898290895, 20.501150740165574,  4.057416936769137
12.207084058402048, 11.899761436828102, 62.062144984033381,  3.865279808785205
14.103002157960576, 15.522388010330989, 78.939773412773093,  3.819057935282490
 8.428057078303107,  5.102525928548802, 68.982058237314988,  3.808427891336829
 3.384173327988229,  9.600463458656233, 92.195063620891773,  3.973558734720695
14.317686215098302, 13.506565187415420, 32.870009767041026,  3.705395820074467
12.381153565501597,  1.870693907550707,  1.986534529786454,  3.968033260302914
15.035236119623079,  3.029331216984208, 11.797096725954505,  3.796754849229692
 1.786418074661767, 12.044459502104100, 76.747406264320063,  3.752237331491800
 6.043225555339715,  7.775557761572828, 56.741293287267268,  4.320770744916142
12.701042480409376, 11.509816913269546, 101.016898744145408,  4.181046593460573
 4.747094478775220, 18.596348182126395,  1.952673608277157,  3.896656161708874
18.061222631218609,  7.388058459754775, 117.422599006948857,  3.984965324225072
 8.262887663566874,  6.763355420991831, 86.666151240717042,  4.045835018393261
 2.107951807905821,  0.581490837379857,  9.660555051620289,  3.856975736769473
18.454216969418393, 16.588791937647589, 89.701020614055295,  4.268864594015524
12.816288981486879,  7.355746453300510, 54.032501350761954,  4.163471228996030
 6.978111970170731, 11.575978251156515,  1.887084208330888,  3.760744353559171
13.964930062518029,  1.912238444110507, 114.080249466768905,  3.620686798301188
 2.407736857334238, 14.031800265557331, 117.553940071921673,  3.829491455568979
 5.708314807384135, 17.382628212745999,  5.543169679689920,  3.913493174134104
 1.431645976417241, 13.038437279091907, 10.030050998209088,  4.055244513300186
13.093867902331956, 19.047537950330483, 60.900628321134107,  4.231975614122581
 1.489845867568850, 16.972875510185293, 26.466521775077531,  3.826462555920534
16.390474056348680,  2.740216453353532, 23.724229111508830,  4.101735792498845
 3.595945922936126, 11.254914411131645, 20.458512694724838,  3.702717354673615
14.959551709268604,  6.483977375650609, 112.031484291125651,  4.309370399899806
 8.868666481537783,  8.300833299206166, 23.811578442569616,  4.095570422601402
15.430567028701780,  6.793642628519545, 78.997356034240553,  3.860126974865887
18.847604114805574, 13.340913158098100, 26.385784672392731,  3.933115664986638
18.418872505281286,  5.057426577202280, 109.750443614372585,  3.853856410300114
14.033597956204606,  9.950911285824953, 49.394555472245763,  3.821661281830607
18.831761664171196, 15.251344106047000, 108.057028930431102,  3.927960601411142
 6.434113774723745, 13.301473411003110, 91.184651443842270,  4.280051780098636
 6.326553364957741, 11.139783321136944, 107.048899271082334,  4.161809925421619
13.728539131647569,  0.963267642536043, 15.267622268029243,  4.316647634982892
17.874576721595997, 13.690298411618734, 79.126897034735748,  4.182429276731945
 6.877015668810549, 17.083443864450501, 24.732229536184782,  4.046531793545009
 8.907869156681851, 12.564973750567543, 51.196121601469308,  4.426926860979774
 2.782708676416489, 18.399756181585719, 78.718249782740600,  3.924548551377326
 0.726592548226094, 13.230439111424898, 38.151911075708263,  3.993373727362552
19.038600642388392,  1.915270420981072, 37.241207477162376,  4.134038948649556
 0.186181529788671,  5.211597109735250, 22.376453768601568,  3.963361291092407
 4.184427025212698, 12.464737703306008, 50.563012643053213,  3.898684972442588
14.594974389582800, 18.772233882099780, 76.851262739943266,  3.832516035759847
16.444232301789398,  4.388166596627361, 34.891032584999799,  4.370616492075547
17.255568911491174, 10.849770626036513, 43.945936531378294,  3.801548988025495
17.354716018550068, 18.947870015113665, 17.119373846247555,  3.940056778509077
 2.335399275301905,  5.986818902747800, 56.045433241535825,  3.958544977591889
 2.886267438310771,  5.612536609255793, 111.239498266775584,  3.989217977914254
13.106436052832340,  1.259266647056469, 95.100089990039820,  4.060820616820193
10.355303521915660,  3.696803583405190, 47.126188354353431,  4.033127676526808
10.185304844626007,  7.840443817324481, 71.165190595173044,  3.812476025657410
15.958920713475891,  4.025238926961280, 39.113388055347478,  4.157407506516243
 5.433492814051041,  6.602608304801861, 37.450441579529105,  4.026122653213831
18.248816436763224,  0.377358609296128,  5.870141376159656,  3.937483217171138
 2.967902272881503,  9.444545954538913, 40.087253650538635,  3.819443864757413
 7.671544905799154,  4.318320870355474,  8.715567684186654,  4.103631677102707
 7.442661131213036, 10.216616429593472, 72.707352964519828,  4.005670563716922
 7.823756908880116,  2.521911134516965, 74.798916919474365,  4.192203780549883
 1.539018264882534, 11.857898919792945,  4.157723616228312,  3.804122843013710
12.769031444872425,  0.178538181374210, 53.412676102573784,  4.123255891731997
 3.237565131844849,  4.808562733486693, 49.734623019050254,  4.007478944458724
 0.528170932568752,  8.080671966403919,  4.764672655037801,  4.071058740711265
10.381392454167417, 17.513932075433246, 68.388454262577525,  4.044597599511106
12.394903170377205,  2.271556448506060, 83.827872952075495,  4.010786089020733
 1.288351718250792, 18.877190234967603, 107.444830182164566,  4.055682646932968
 3.392847539782563,  4.332439523434528, 64.242070958445268,  3.954924077395707
 1.241468551993425,  4.709033347808973, 67.350293384929884,  3.624972500205988
 9.048968542740319,  3.191365109115546, 107.606039586399049,  4.123103723376243
 1.428309369291282,  7.512384608774269, 114.375667404744988,  3.862104977260954
17.647386081675275, 14.176056799490345, 62.969037943182769,  3.924349343317199
16.379677968505828,  1.231291976359020, 84.411604773709811,  4.141279295349158
17.689993103014288, 10.398928939434210,  2.024120392051628,  4.032242705677249
 4.965857579685068,  3.945099401015242, 53.473733093134697,  4.343824078485024
17.813176121911159,  8.363696174297999, 94.620175348369344,  3.886820274646799
15.629307270496630,  5.886934599302952, 98.064198975504979,  3.934551992485027
 9.553647062418726, 17.818864985449853, 55.424243197688497,  3.937496420937490
13.785918667430982,  9.689622153018011, 68.868902757870742,  3.903111745227145
11.970062047070366,  7.111973234061011,  7.922152270772419,  3.809948658017230
 2.434656841948887,  0.652068552144563, 68.767169235200669,  4.096503842067652
 8.837281293283851, 10.701476403183550, 109.961987206050182,  3.549975127277386
12.859159478693321, 11.523251103773731, 53.187604044857963,  4.300026574214503
 7.070035859780979, 16.876216259131308, 113.633041855899265,  4.024846162929789
 3.137149295458776,  1.331514686426461,  5.176461389225654,  4.124136011618827
 5.140510695913685,  6.919781502497368, 15.793528574940769,  4.050661572576360
 9.360626608142551, 13.328338780734374, 10.495044011950272,  4.123671729121651
14.923502200587739, 12.003336510739702, 64.916000963830498,  3.972882637215327
 9.285406764844131,  7.853255925257125, 90.395919869329290,  3.958060434917663
 8.941973751622605,  7.699078084168478, 114.200927772829942,  3.997814027900025
 7.844335423122820,  1.275181813354923, 89.255836308785717,  3.966020099110483
 2.372072427033982,  2.689705379117188, 94.896829908411306,  4.015012730261656
 5.511200582222756,  7.578825455715807, 65.167352223216156,  3.918995729373691
17.882253378925068, 10.248462376167975,  7.604512794130406,  3.852540598000282
 6.105572444230440, 18.112616195862945, 34.681422952464779,  3.888455995487554
 4.797693352567605, 11.538736334701875, 110.852393898080777,  4.005684061416539
16.364193811543270,  7.963432647286430, 37.249699320272263,  4.131969498373644
15.965449391530628, 18.405428397085768, 63.716190420526573,  3.895707546597630
17.154092492593353, 12.386367350178109, 100.500650716223475,  3.902388869776087
11.273721314104419, 15.608250212524680, 31.800379456823645,  3.884305382710620
17.346788443963025,  8.470841410103327, 16.156413656236371,  4.539343475624709
10.701043800169737,  4.453426535423955, 32.680142416859425,  3.765063490180712
 2.483838192354066,  7.145949986486112, 29.314740817952554,  4.380811703684575
12.696742138799998, 16.949369503233019, 24.641942912709109,  4.076669710561402
 2.357849745693007,  6.631345639330818, 103.895637243147320,  4.230345706142151
16.018994051512294, 10.222600493152921, 72.211146919636803,  4.109544506951956
 6.310024014335726,  8.510809383437760, 19.476302643852950,  4.157235057007811
15.227948535685623,  0.474302153420495, 37.349124206951444,  3.897020728695913
14.829683434543977,  9.617171856947287, 104.711430002897529,  3.932897418937547
 1.285591067779357,  9.794596338624865, 55.131450450490405,  4.105085426388563
 6.690523709427745, 14.044100568651164, 71.915869177555251,  3.950607691546577
10.693036853980677, 11.742666074572437, 47.368763823805359,  3.764829109592039
13.128959406127949, 17.647996534399550, 56.985295187186559,  3.689616523233903
15.576536223735209, 18.277322603529722,  2.033713057735668,  4.025353317389625
12.020901209347384, 13.606503537006848, 39.769936777624999,  3.853290785625679
 9.015336350811078,  2.900948277136334, 85.805427118909719,  3.893298205739132
 2.675530359039897,  8.907278795988672, 58.762314537853058,  3.809259716934584
 6.557892335052251, 14.974881077557518, 21.476457108082521,  3.728356167342012
15.022380683961122,  2.991798152174569, 64.451704928332575,  3.887846987376976
 9.576566114954019,  4.467726896262763, 92.961094486897821,  4.450895539029363
 6.519564224522579,  7.753679270380780, 110.904955524441249,  4.114985136505214
16.011826417662327, 14.225777950847904, 117.331528443628926,  4.298489603626302
 1.399527108436921, 18.803966590165285, 101.326915358455494,  4.150181797392409
13.504528838772309,  8.825367919527334, 59.915642174823290,  3.879571321495713
 8.848655779485375, 16.579110032154968, 90.388502891666960,  3.908106400900873
 0.957695677307617, 17.264111758280105, 38.398765415561414,  4.017434038748379
17.952001437576282,  6.344744975362119, 64.525098262434142,  3.951457016918812
15.091039409426143, 10.201333395201965, 117.459921651569090,  3.958092818157615
14.650200372461169,  1.886218938230876, 57.727146895088580,  3.813705549217369
 6.665566857021498, 11.491012281760039, 47.473624204320373,  4.219353730813942
 8.789477927355184, 11.402767887713516, 81.153119548721151,  3.915686413164931
 8.948084255652542, 10.842644660970535, 17.176010274136264,  4.061696751365564
 5.518507072822169,  3.710359354388363, 102.003418681864986,  4.451735712698103
 2.158836206378380,  8.536491312101194, 67.213528309351872,  4.144485438428611
 4.200206671204138, 17.102756665348686, 60.989349907970798,  4.424426257682256
 4.125186953602368, 17.867598885542549, 46.901222474964648,  4.177720848748909
 2.737026977216821,  0.461051608274061, 117.655275327253193,  3.682913696223492
 6.014880462184373, 14.199503709664560, 27.528995130748168,  4.017402019795662
11.525204844810782,  8.334712522684191, 79.570750258118295,  4.522588442673749
 7.423955292924850,  2.256372535383492,  5.201523974606140,  4.056427829645668
 8.382976347777245, 17.359241446743535, 51.777977245667500,  3.767198121077481
 5.610062221587823,  5.398334680066878, 114.244248223018715,  4.069100798446073
12.234416051493820,  5.621847049521675, 106.353446791467746,  4.209679050994854
 8.256176158573378,  0.038752469646600, 46.617252383266603,  4.198511668883040
 8.743847214409914,  6.261252525402226, 53.779200459443992,  4.235507846299827
 6.312471184190729, 17.006698771434042, 12.345593533200775,  4.093025277017583
 7.697166190206814, 10.986997785516992, 64.824848546078385,  4.192741193298200
 4.873316160135777, 13.472434990966436,  5.697376173052663,  4.068931622989423
 0.508428155519905, 13.808903910892788, 67.199857250340926,  3.949324796667129
 8.744356745406138, 11.953558206235527, 113.898242956712480,  4.540523667598872
18.200743003982993, 14.955299117458003, 19.352283527574208,  4.078144033757508
 2.236871295787827,  0.057710578300988, 88.225803386041079,  3.992518151262867
14.620186051495976,  9.523226631131111, 32.291881800567815,  4.239160922964094
15.360522466810727,  6.242209812025420, 49.900203750946218,  3.956227271995787
 3.509760103716512,  8.547388648343723, 33.340320480465316,  4.311371174850819
 3.221844900176276,  3.771085847468121, 38.957277232911089,  3.748381893049643
11.679712594292063,  7.835349423839876, 43.455279629183501,  3.797944701953629
 2.944153828992639, 15.901462252693491, 41.444833348262733,  3.746735161071462
 0.572072329861301, 12.085653839936699, 14.634633114005554,  3.872509335167183
 6.520883994003603, 16.842476512648325, 93.579251338146847,  3.979544208860019
18.368408117503453, 16.838660313708409, 69.853526136368330,  4.361028733931367
 5.303060691648265, 10.780942730609988, 79.342563338234783,  4.012779256272288
 5.611050695565925,  4.322264458453015, 88.521418772670017,  3.722561598679463
15.062428001856810, 13.594828340357445,  8.621766776361804,  4.034107413093065
 1.245629353585536,  1.052185292702730, 28.756164417454549,  4.003710083232519
 9.194838290782389, 10.263719338271372, 54.798462539648391,  4.018993672774782
12.724667539513936, 18.497134549231468, 29.464334354621286,  4.048783308345605
17.420819079277965,  0.187887433738044, 51.436575500750557,  4.068308243333557
16.707508365368447, 11.761430259346325, 47.516717163291723,  3.576960246280072
15.229634568951246, 10.662380148546253, 80.218192754636490,  4.090171507130886
 8.913034297037045, 13.197871227682235,  6.193435172336639,  3.925364970108543
 8.065146475584870,  9.583052774435213, 43.774056642310640,  4.169075819988689
 9.089220621253736,  4.244272571481982,  2.080920140425805,  4.053158254693405
13.572055731993173,  5.046613070515930, 21.854299509927738,  4.032813168090318
 6.873458214196214,  4.617095749633411, 18.544767279025130,  3.912018913523089
 5.320827745288642,  2.436841588586511, 43.241123270796407,  4.079616834005662
12.317906053441330,  9.860989361960547, 73.977924550258834,  4.105339784305444
18.297405704088810,  9.281739899338170, 98.322805540666266,  3.799086150054284
 7.175133254320937,  2.508460790294844, 39.626110047888865,  3.975652053722340
 4.233446735410601, 12.852511900680256, 61.123773440621477,  3.896901835064934
12.332693005536225, 13.762457890730429, 22.197769739734763,  3.585724993681599
 1.652719931324396, 12.274150535396258, 42.639314898773918,  4.203288447846909
16.403119317862426,  1.450416297650409, 29.023603525808443,  3.942449229598972
12.322108458013030, 13.255903332181070, 81.671296005491953,  3.979819430737434
 0.173447810720472, 17.548142487017145, 61.939407883647775,  3.834558039006026
 3.852614655028440, 16.178789757437805,  8.919036920067617,  4.122325957414951
 2.441363587445478, 15.820418712841624, 75.442889294667452,  4.271814719743059
17.901039848931603, 11.871893588024507, 83.648802854921698,  4.066306842003170
10.310176735177185,  3.485431132247709, 100.841384385675511,  4.260752459676476
18.050335446788814,  4.875632473260005, 18.484334937103061,  4.133954129789060
 8.464665387491790, 10.870530249323984, 100.716997198540113,  4.290545302756226
 7.272354011036556, 10.484560795421840, 33.651493273581885,  3.826857239568774
11.800145451526060, 19.082253905345979, 73.044272447281429,  3.942650446260719
 8.123895278335866,  1.528522767382402, 11.530143412666368,  3.762071729723130
14.914582838872981, 18.605914109085450, 90.407834406101301,  3.949229489839453
10.127170037490808, 14.396864534437757, 18.912409701443391,  4.082061914715815
10.588016823235792, 10.532197144354191, 13.211893277065057,  4.028992794871927
18.646267352815354,  9.731076722929512, 11.599116071236725,  4.077921096033340
 4.872617752280823,  3.367817913710378,  2.125194380210079,  3.883688683654283
 8.395380312207266, 13.095953518451520, 30.868935061621244,  3.960339619680772
14.507059499960663,  6.264388010185215, 94.286082724160735,  3.943828170230841
15.158223181819395,  8.410671326380990,  9.693558662985344,  3.891012013139054
 4.457756005869860,  0.206146269540968, 75.283650510627879,  3.631643418207017
15.196097649061011, 13.396827493735886, 103.708061283697788,  3.874681590467428
 5.602428011164228, 12.278000570513866, 41.873355261055089,  3.771342844706717
11.421991451452890,  2.436125850357766, 39.538338941616551,  4.233439400068411
 6.069967329613037,  0.396014865574405, 106.896267430406809,  4.012024783937101
 3.500889411043508,  8.831094059739980, 48.667225689064402,  4.248939936141743
17.561553453469696,  0.338295625574738, 40.884441643735649,  4.260068505593339
 3.422846253531537,  8.095385986320327, 107.811519438983240,  4.387168662843382
 6.100403931771500,  1.552541467377386, 113.343718267122185,  3.804463039800386
 2.056504954943601, 14.447187056665026, 29.374688666825328,  3.928804636320128
15.693336228239094,  7.385135652196361, 107.951927326367922,  4.122933484090295
 7.300066479208022, 15.652288405777687, 58.231975060358451,  4.344748624165431
11.472319722107002,  7.564617160879934, 99.597251121470919,  4.245836880574529
12.481111164361666, 14.438802040879237,  5.063534283054739,  3.950298036417412
 7.253601009414218,  3.654894882541070, 14.686547931094671,  4.020147220679515
 6.240421974890888,  9.041937561752745, 61.088651035669173,  4.666074380935386
 2.936183533850512, 18.349248639608579, 92.949470818721096,  3.887945389191754
12.846002171401119,  1.167631153108522, 22.452976087346343,  3.886883335916725
10.278035462188541,  7.734127723958317, 19.935476241635044,  3.964470529238651
 6.547542610863659, 15.314420238026695, 48.986646249002227,  4.002633809127428
 8.985279253542576,  6.320123162164773, 40.750063664637111,  4.081405334777203
 3.862353884384430,  0.461129482267840, 37.563374020526162,  3.499635633832315
17.835458633472527, 12.535988657671725, 111.094012565607684,  3.768727256698842
 6.101994856034077, 16.772249953121168, 77.381031334875090,  3.744959368414980
12.315089055312230,  7.315547881112916, 86.777228873626015,  4.061268096229850
15.351133184579448,  7.977026831681376,  5.326763236455413,  4.177629895356434
 9.167238862374452, 14.596066222332940, 78.632380838585888,  4.140601059700211
15.372489129399762,  3.777266535291277, 53.459382816580636,  4.680727726627943
11.921155832435453, 18.639326962228559, 18.847170000685416,  4.178990372803902
14.371105339011166, 17.015748981674051, 104.628161046528476,  3.740238408812824
13.693364477643607,  1.314278165236743, 26.199556738841494,  3.747018801551891
 8.549903984542564, 14.791540061066923, 45.395266007154717,  4.254279972883392
17.400098101392953,  5.216800529408562, 84.841035811404055,  3.984046597391761
 3.403304024256830, 14.709021346514229,  2.069093192109122,  4.095467009156817
 7.579673159542553, 17.129179294592301, 17.056715498253599,  4.222433784975155
13.779747639797076,  3.331912473349999, 91.463809657251701,  4.303308928106935
10.403669342151662, 16.373500554647727, 93.941548467635940,  3.759707639329161
12.813940192444514,  9.018603864367604, 22.865750484116798,  4.088899497540326
14.174387892437792,  7.949242079007329, 65.018410790485163,  4.144949843318235
12.051433462425239, 10.511130819395667,  5.845081314316428,  4.100378799990801
11.475008209652657, 10.650491593320762, 65.979020224267472,  3.696022090021343
11.787490259697169,  2.518915643136690, 76.370908247125200,  4.009777634885725
 0.987490800678895,  3.843773197415661, 11.585086736063248,  4.018182024140569
 0.106340398802576, 15.855345240215808, 15.585008977691720,  3.911103880638185
11.145175196386555,  8.302033500673744, 93.922462247102629,  3.865583224352064
11.426437011930854, 15.294532968393280, 59.813658497236361,  4.219382270955534
13.296281314103362,  1.891622542025542, 104.267172049110371,  4.546408593511932
14.824161666291396,  5.875491970249984, 57.476925098340985,  4.142939580789531
18.747926079349998,  9.176984173342653, 105.968901020235080,  3.928963284558613
 2.380858004986033,  6.303725557267538,  1.842672581744349,  3.679066835194431
 1.972627913271464,  5.385279174210740, 82.958650073735114,  4.128848429325520
14.956812820888183, 15.780435385286641, 87.593887463282812,  4.000076562832626
16.227232337211294, 13.617825740571641, 91.656127784948126,  4.112878492515874
 7.436369323844613,  7.609918126439190, 80.778420023714986,  4.102469910200371
 6.012035410140284, 11.177528132042314, 24.083134695434897,  4.010022880057242
 4.392617988534003, 12.538320156730370, 94.782247078180006,  4.097743616976865
14.559756660175982, 10.206256816759890, 93.154574438831489,  4.030258641158350
12.507421449904896,  2.836892967315654, 35.665613568969547,  3.839856137777643
 9.860005776555361,  0.737331721011783,  8.076156613879810,  3.931077376837926
 0.865845557398316,  3.262859129056666, 102.600011592359920,  3.474969281885578
10.290187170339115,  1.047745476506745, 113.881680554752819,  3.938457266928929
 4.054415405531022,  8.764045139178680, 82.513778612835807,  3.778595273603423
 4.460335020353797,  0.948201383532411, 81.787579102163832,  3.790115827969322
 3.304092931224409, 12.427968067226979, 57.398162199187368,  3.815325332799061
15.220100282353084,  4.632661720629224, 116.566738771374602,  4.064931462856030
 9.576713679864138,  0.530342482598922, 42.755492110877611,  3.911690269227173
16.409674407471428, 12.192552667785334, 107.282471583718660,  3.993567836117928
 7.598336118639271,  3.831152044775913, 30.503006216264051,  3.909739130650439
 2.293161219688483,  5.773930116811253, 74.598959225906739,  3.965591203719173
10.986205337294329, 11.394668596795027, 58.361028131009569,  3.925370739129475
16.166512729571032,  9.081450303421697, 52.424230399530749,  3.785269229618518
18.261921871178345, 10.092949035575243, 40.181209424105269,  3.921468134494576
 3.073753981311901, 15.877449206755847, 105.214121663769404,  3.875611510860765
 0.881775428676760, 18.921827871733768, 97.167002269858486,  3.876003587581010
 3.628868498499715, 14.444575084179654, 79.270985457261929,  4.012363589718653
 2.199069240406932,  7.996685794430944, 62.746678291814398,  4.304480240446519
18.723512238126716,  2.891493595419863, 74.744510963340844,  3.892863034901543
 3.639649160105339,  5.930068839650707, 45.565749332615660,  4.171530057892840
 1.381453105435372, 18.330903215138918, 53.832059525438950,  3.926500088573156
18.694242031114566, 18.493113807761386, 76.488445727883089,  3.807019565675368
17.810628733799415,  4.701771110395560, 91.622884352345096,  3.972953426785456
 2.753579403133439,  7.715514039364782, 79.042870748993650,  3.907194825859224
16.220586507761105, 11.652914947514903, 29.166723432993741,  3.972156989219440
 9.346932615769475,  0.277637183975962, 32.121342680866775,  4.623711757150644
 9.161563991034120,  4.782127866449517, 36.963453632252076,  4.022753233355348
11.529881021656770,  3.679923129115583, 55.779417070390821,  4.279446082970074
18.835631524992298,  5.214218490782362, 45.701697499234669,  3.711512564137004
 2.661909842929870,  1.500479069305987, 34.266502894075188,  3.810082447097425
14.074688153882747,  6.654907874811023, 71.917987820215274,  3.785186953657955
 4.914972282288672,  6.177191306727648, 41.588862585646908,  4.124501335561490
15.454093572995779,  9.184045326360406, 85.312249855088638,  3.802614649937897
15.589236054466756,  7.167998454940194, 44.301153177719954,  4.149599471186791
14.358563625378704, 15.102983634398981, 99.880407238616513,  3.980252200171988
18.012416884534694,  8.045654798617331, 58.703093971095811,  3.925319658288198
 7.403810100147796, 17.828495241096224, 65.902435006687654,  3.728818211755958
13.328977126765798,  7.383002831915356, 90.655987644510745,  3.849066179300521
 4.482184279740146, 12.355913552913822, 31.645466250858085,  3.857873669282368
 3.487944505797840,  3.973888111316928,  8.231587165364150,  3.982766069979277
17.468698375661859,  1.199513918600703,  9.558016590159014,  3.693767634166334
12.964147058929232,  8.690506403465356, 16.516547288992022,  3.999584708301196
16.638294418880431,  6.978013382067914, 88.450843383749117,  4.144400269140077
 7.526644572568144,  4.236940714716409, 64.449127675584947,  4.003018552653596
12.391649490924689, 12.481497623700465, 25.757303347943644,  3.933761891973128
17.087710393975080,  0.136314147270279, 55.450243284001928,  3.714449544851603
18.144706568642775,  8.282403917580634, 47.920894584897923,  3.964068369071137
 9.815559360242112,  8.876214307748866,  2.199470496807167,  4.077182505061567
 0.350945493978163, 10.937142166814606, 70.030179937396284,  4.089261928330854
17.162755545644981,  1.611917094298432, 60.742870444746579,  3.994566869765353
19.013995743454558, 12.904678460163092, 104.400554225895760,  3.901397573868332
 9.985214430993013, 13.961958063719328, 55.675626668420854,  3.743371962834031
18.729394186295099, 15.533726240095740, 51.355707903005822,  3.907029695171722
 1.386525929985690, 14.861072855977836, 82.628531253814032,  4.100542576099660
 7.411487138443935, 18.586649534985078, 28.387582569112077,  3.856215714517985
 2.105884473140119,  4.226850792269698, 70.963384327678384,  3.790239144766345
 7.440375400340452,  4.996205855893118, 49.896315744639146,  4.333019893239544
 5.537959845317103, 12.349812884751987,  9.550775770811981,  3.980795190273100
 9.102675480893566,  1.050635636152797, 95.422805772854645,  3.883538103581895
 3.884326281278635,  0.270920631288756, 64.642600423739580,  4.191031650271305
17.967135297538242,  6.684964291431915, 71.176499403307943,  4.132596572008752
11.461482830684707,  9.836587024938158, 83.591831605979493,  3.918012441370124
12.518690106682291,  4.027776897149581, 80.115884249827886,  4.173578974052189
13.867499264539056,  1.246942006147012, 42.674585389161429,  3.968027112652536
13.020676477711161,  6.883252491127349, 12.713858712662333,  4.045520068196108
 4.114269471258073, 12.351551871139158, 68.706671545345927,  4.347439062073309
12.572776214469291, 18.153695295442706, 34.710611402510231,  3.988754105377086
 6.862634754206931,  8.926267719599991, 51.072080023052088,  3.922317291069498
18.377210447958952, 14.377232573010433, 45.270907898679070,  4.046023903496966
12.701162294896625, 17.170451112040347, 117.655440448996529,  3.683482337992866
10.976312518507156,  4.338940756862693, 72.836153479503338,  4.064314389633654
 9.130344398614895,  7.290511732902915, 74.917659423121108,  4.002318215234887
 0.360537366669621, 11.994343842539607, 93.774564558434804,  4.279972222156458
 9.621038823264698, 18.520589718250015, 84.187767338504628,  3.858894389135345
13.787563758903865,  5.756623003003532, 102.525335101860875,  3.986182734628872
18.960626164568247,  4.426889169249104, 26.771065046255572,  4.293287234588394
15.669558455073499,  8.816793823166059, 101.022376327424865,  3.790630297441384
 7.123132424391603,  9.882865967791725, 84.455842093522534,  3.807818282998498
 4.176266128059976,  9.853420709658092, 44.727546842291922,  3.850424095469599
 7.407678993603370, 15.533745336970707,  2.336154310538779,  4.071736791214234
18.071510866609309,  8.056476058701678, 81.820985134546746,  4.247575756273384
 3.401441425261608,  3.600242520232990, 20.378509633627026,  4.164098404620944
 6.347851091600281,  1.347491848939812, 78.412754751603430,  3.928754704376087
10.421661172531158,  2.324147317488241, 66.766346143486430,  4.328127852380111
 1.633990170076223,  7.102035311117675, 13.849580519326546,  3.946257503846373
 7.052352234721527, 11.587555763302584, 57.785568897509499,  3.769748385549041
 3.396557309803624, 16.401869738811310, 56.750052848392158,  4.023348769298641
 2.997826303100788, 17.311185407855849, 114.369381530728560,  4.240343288495913
 9.272987410592771,  8.796879317771463, 36.585086671461092,  4.024363280234273
 1.936957379240190, 14.700786604374251, 48.240173577648264,  3.901362652980510
15.392393049188433,  7.804369655966176, 19.789004042722556,  3.750271446165459
 4.161313966362916,  7.023465753186862, 86.076196333460487,  4.112966395944375
 2.355901784419532,  9.144924518385547, 96.007264721372550,  3.941332959807164
18.611047427612952,  0.368886918125102, 114.606856749662029,  3.997608079642353
 1.103531323115214, 11.197800175337509, 46.542998724403979,  3.704691776378865
13.634779219301373, 10.311803598025532,  2.045437391778679,  4.076602215637229
10.461699667780588, 10.010211122787714, 40.192896916043360,  3.938250736543251
16.157293015237098, 16.325350892821074, 59.493805445767478,  4.388013737972236
 8.922024365809071,  6.954718182682842, 11.762733067437154,  4.331331576556027
18.257732476076853, 17.645629292030826, 80.363374340332641,  4.130181037718358
 0.898748575100356,  8.080389542440109, 43.293066683643325,  4.127247340489537
14.114402934207353, 15.184127561200091, 18.846840661401728,  3.943194529005144
14.470291259764240, 14.043793424155350,  1.814417205750823,  3.572568575203878
18.967979823540389,  3.159105944124347, 117.461564690873814,  3.956633087046892
 5.890939759055752,  9.730484067619649, 88.851515786950287,  4.289036365004759
 0.413537828662816,  9.344464326836263, 73.989322459919350,  3.922858457856424
 0.875421396349700, 18.051208550055296, 44.200258074694595,  4.261888693823278
 7.713700336157446,  0.289129467163589, 100.377744572603547,  3.837785757572251
19.092928414041477,  5.045721633027010, 61.009198430911233,  3.830177935822870
 4.993071806545433, 16.932028802053299, 89.947369843331415,  3.859861129515513
 4.272453807874201,  0.447656491970988, 26.289775794191165,  3.763000152313674
 3.521697028326713,  9.484250657927939, 11.380409723375431,  3.880162712336332
 4.410920208392824, 14.168648961652490, 45.106765649286999,  3.795044985628135
 0.325295836425617,  8.642588840397767, 85.816078432061175,  4.228895183655611
 8.597880856857271,  7.638281684404181, 107.361766596196233,  3.796444240732188
 2.074600793125078,  2.245182540596413, 46.303734823650174,  3.931893792071811
16.726651662189681,  6.753301136388670, 75.125996937562761,  3.907933406234498
 5.714943464609054, 16.132542444678862, 31.156834334482067,  4.147142928748413
18.208322503912729,  4.361193320031767, 113.677380085764753,  4.086723150272830
18.363180226078256,  9.268150195651481, 77.841055173805216,  4.075232897988725
 8.442206905929458, 12.648452223486855, 37.738340755470162,  4.151837663947734
 2.883280227987542,  2.756828125905189, 98.853519896457541,  3.963619075439235
10.094581201634911,  1.697129533094142, 62.734823192942379,  3.620311469572367
14.808485368800564, 10.675821724681239, 13.158440861858212,  4.358951277170904
 5.362801597493762,  2.944502108186821, 109.846704951584940,  3.794270304892767
 7.450726003178049,  6.905146715405738, 100.083507777344167,  3.916551559331137
15.190804081793315,  5.675633604317396, 61.690075192764191,  3.783714359707423
 0.370823430440645, 11.274480240070492, 18.462679947504423,  3.878458831922382
15.331206486363234,  9.822957588548270, 56.257630522652924,  4.145535299575766
 2.941123319561050, 14.901257660218658, 20.248350097083300,  3.644654483024531
 1.457216773450570, 18.969877831400538, 72.811366215591363,  4.135069825788913
14.355045108880979,  9.889113539447051, 41.342655888116752,  4.161275073583534
 9.391739834412927,  7.472978979142139, 65.918261341150554,  3.856760538615789
15.875244598413495, 13.014245081408188, 38.865274588123071,  3.972435990203620
14.670757381732248, 16.588397997033884, 40.065160279938297,  3.914721437425709
10.552295635114033, 12.936369821047805,  2.073016843127528,  3.715938118528525
 6.499942734208373, 17.515173504312905, 69.808222949179836,  4.175686934618317
11.502742931279881, 18.246331405538918, 107.107837796421734,  4.140256382757618
 7.402363145304873, 17.517949988541641, 81.010604131735334,  4.093946446206889
13.392651265351736, 17.504633621989459, 84.360332863375064,  3.946601213340280
 3.077197825005752,  5.570580215969014, 117.443735968782974,  4.097851608119954
18.097305753750035, 16.660242693650279, 85.292135325064365,  3.927814160214226
 4.106561191411433, 10.769728527200387, 100.998392627298131,  4.103001153813519
 4.842618391381190,  5.509782114424033, 11.811732588539275,  4.261947288173897
17.310754693056349,  6.390816868567960,  1.980618588418196,  3.912200066480129
 6.072876716670705, 14.665986896838508, 64.135110903479827,  3.962859985001995
18.325367355234892,  3.521428332093909, 57.252243845048824,  4.286043621732207
12.419115127455527, 13.151005324538101, 95.053901826430732,  4.083225432178536
18.998314111822044, 16.978397393070235, 117.590648116718015,  3.799210709881864
 7.331821579645569, 17.374044078915652, 86.954854781272047,  3.678042915824362
 9.009926085126416,  1.520182867774688, 70.648356117900292,  3.997151133771751
 2.185162406071447,  7.551797647674016, 18.705408300966045,  4.279428457251757
15.801799801054379, 15.046152390839852, 82.390795729607632,  3.927957374996658
12.647379648653576,  9.549226949458177, 114.157016081257595,  4.267640539892111
 5.770594976606204, 17.874546589313496, 103.354036730094407,  3.778734501474292
16.853051305858813,  3.064447718164788, 95.299348635511762,  4.243259386233414
 3.079481743242525, 10.827461277608302, 104.784087007194017,  3.740356431714423
 5.025459902118437,  9.498825633476812, 114.322912022676192,  4.027382938094673
 4.671706087779226,  5.690843188134836, 68.534312268756494,  3.847297605322475
 5.497628163523282, 16.281062646858562, 117.591381056469245,  3.800737511429402
12.530076726724692, 18.868730094636664, 46.385080413681550,  4.348660278302679
18.280244261636017,  7.874151539471757, 33.437335125382496,  4.014829947555331
15.204622366372844, 17.096157042731839, 32.105746178771867,  3.712698729345121
16.409927610630074, 15.628348588169118, 76.056625197269994,  3.562197747685985
 1.715272005424707, 11.864981887016015, 108.305494304959140,  3.937191241412366
18.338260369525074, 14.471055788677306,  2.079676605798263,  4.102288318548210
16.846146959370383, 16.045015922016159, 35.790298105852571,  4.443723488237769
13.885643529487798, 10.439801154773029, 45.636834610082524,  3.695941874264724
 2.643266891446138,  2.754303301310427, 114.586050065257623,  3.902158384663763
 5.226462766510297,  1.514671599263623, 85.720081014329253,  4.160962895316933
18.954986203724999,  5.250538610684795, 78.042006130272526,  3.948534934000726
 5.089767014420747,  1.787134667804923, 71.761834566052556,  4.067046639959018
13.790462546656704,  1.197481288033102,  8.432566877839227,  3.848720780036171
10.697109382865698,  4.495031781006945, 88.920684433571978,  3.702800025404732
 0.486796162319809, 11.290912646969931, 61.093553515472699,  3.794748617916933
 6.148808595819317,  9.118605905770346, 30.082414967631056,  4.058173603666979
15.099655910943142, 17.243767502075197, 114.360674608945686,  4.304111051081339
 2.052763299949293, 12.195974920095932, 34.511432819968086,  3.660709228132450
18.806641427770412, 11.312856782044696, 117.607145964054581,  3.780715029429890
 4.556596987677842,  9.150344916137522, 75.534679651027432,  4.348653878210961
 5.665622719012972,  2.975501451322480, 47.006540730540671,  3.500332114685890
 9.233008579039417,  4.873566291438554, 117.609504369992734,  3.522206303489503
16.222233631911049, 13.287763314422376, 69.605355622605217,  3.925802679826011
11.091062614774973,  8.575740594149361, 103.654323483248220,  4.104590897009936
 6.277195212617216,  7.047493830390257,  2.002952394444539,  3.883460252364686
 5.330753572303660,  7.425187999300594,  8.326468491444148,  3.625351054584550
14.480759310344084, 16.607121542983815, 93.999997992190288,  4.217144223418273
18.328037789318589, 17.473259707066404, 111.201141769914713,  3.794874537168166
 5.917719409477496, 13.133026702086740, 75.921167045920399,  4.088920630374405
 0.237802737352268,  6.251572065716982, 39.538534393789405,  3.982919463257172
15.727547813112999,  3.457514315568548, 107.419009113209356,  3.800982000200200
10.466764075919057, 16.160274810712863, 48.774680796795728,  3.911916562786262
12.771377340786689,  6.919438968957103, 35.186229754923254,  4.356925101869759
14.177185037200907,  5.570503453193187, 31.380061351520606,  3.855586006390568
 4.186970562916539,  6.070348452781471,  5.065609631169422,  3.695586201413893
13.206782140715424,  8.574434980656340, 27.782366250952151,  4.113904210421153
 7.685504090185230,  5.584070743615658, 44.680421114890954,  4.063520597275779
15.955151828512765, 18.717935653421982, 101.400284454281802,  4.212433584678398
 1.297252224184227,  1.860606573266398, 110.950252551449807,  4.005544065295791
15.832687759036251,  0.457062527789005, 67.603988420658141,  4.223944505577411
10.650820793225558, 11.773953373710274, 70.748960848604014,  4.081334418550498
11.984017328523338,  2.210556841539601, 117.415774472815841,  4.137838193420519
13.015499921750813,  6.051026532819568,  2.241236504633636,  4.432594958737541
 7.410278704929176,  6.477136802057804, 33.628032578897376,  4.156903867103456
14.457195701030200, 10.486037282151985, 110.401942681178951,  4.118227647755928
17.803056577706922, 10.021226854187047, 90.766036653358299,  3.647873059127313
 0.475891361806710,  5.697169652177335, 97.093646724496125,  4.052569588406699
15.749411263163095, 17.256519001291682, 44.253969876958401,  3.943773189017541
18.301906233853682, 13.972515385546545, 73.059345458792961,  4.207005678233437
15.142639535749659, 17.301971062043219, 10.410974437274632,  3.832987047275726
 9.323155076744152,  6.939611909940529, 15.980885875264960,  4.124982061758958
17.991702798858206,  2.528469903554891, 99.291515883956350,  4.057334660182543
 6.126263747381199,  8.537156719024138, 103.834292681306579,  4.048530227812436
15.815884063765781,  3.092674016374110,  3.935299901952236,  4.217559334720669
 5.967209906623338,  9.564796944212299, 97.549620532079302,  3.931936944434648
 0.279456158588493,  8.863461147312266, 110.676588115299623,  4.201374156278994
12.064156372706409, 16.048690328492082, 75.659881794982638,  3.952768985073505
 6.331843101307201,  1.036528698087130, 50.130126237855919,  3.902235434454406
 5.164862291208185,  0.308360157092707, 96.545985687298653,  3.908966966185974
 1.830594476939955, 16.450431327455796,  5.431401570667469,  3.927021996511237
18.890611838026476,  1.540236721518812, 20.684914573049429,  3.937870492504494
13.992168256080690,  3.772703556920153, 45.607316211570421,  3.773019566097467
16.031165639527217, 10.590038039479023, 25.167130155228627,  4.281304105484219
 5.302825774804155,  4.595713344511963, 106.237171407085071,  4.135753509850238
16.419253154479794,  3.719214396116209, 81.275683348698152,  3.773067450532990
 3.368272517637202,  6.798661649397033, 99.811119650830889,  4.116770770830225
 5.580512110291393,  6.062322638347163, 92.088295346648366,  4.174645917575194
11.237682994908811, 12.239279369585915, 43.435712131394133,  4.039054871150023
 0.426494736983428, 11.027298929231288, 50.686295380421015,  4.064910802775766
11.796535148566738, 16.213839526729675,  8.613704860766338,  4.068266021150113
11.753088985491184, 16.763054070325516,  1.895552004143253,  3.776840181620774
 1.835499989455619, 18.072996631928504, 18.473542022779565,  3.931268693680832
17.396637660731894,  1.635864117786304, 104.462337676233091,  3.667536241257263
17.288466337632325,  7.635454055098181, 29.362687462854154,  4.287205979689813
10.363105527814783,  8.410032896458299, 62.229823725847410,  3.952518273547074
 0.399621127234715, 16.695532439263978, 22.733785114393843,  3.941746658567467
16.377627862676103, 13.494321689544174, 96.515597485971583,  4.381990833104042
 2.855368006898547, 11.774007611963579, 84.803238725048146,  4.000341393288101
14.088829845624948, 17.332456942584326, 49.949122480350589,  3.942955248793049
 0.780143767974640, 18.257113084744411,  2.042602776849061,  4.012706258744172
 4.079850924464091, 18.450363827629857, 21.863275631457562,  4.146685086573270
16.270359683641388, 12.659922274248030, 16.575632275694186,  4.043502633143256
 6.031256419667931,  9.548749813685863,  5.139230054982881,  4.108846073716244
 0.267142056793000,  3.059492840188620,  1.965468098446561,  3.882264179329026
 4.825964895681841, 13.604880996665127, 114.274721360173373,  3.987976298058801
 6.855951680410291, 17.615122251084721, 38.927103068213860,  4.097612521780819
 4.423523428486521,  1.484253260700223, 12.775336191879040,  4.028240391889254
 1.359428960939269,  0.617151573593675, 84.258816139581540,  4.109596218597841
10.738678875024478,  0.559009667809909, 91.895265307439843,  3.949032976677133
 6.978581326177310,  9.063935993370412, 68.766406456228495,  4.253291124650871
 8.799056376821154, 11.014054952173497, 27.187176936654449,  4.276152967590840
14.576870633946523,  5.056459065155996, 16.211400964192258,  3.965859726913324
 4.294920326504007,  3.557795356319968, 28.460080468288563,  3.814361105748925
11.846002845918362,  3.603653782152187,  5.750432699193706,  4.325576187536626
11.084080990079602, 15.770205464186141, 113.920338078679706,  4.293023040120289
 7.854349231548686,  3.756856037794731, 26.619933519522863,  3.672795731845615
15.714870657925097,  3.228337335341357, 77.518826721417668,  3.758219064858460
 1.062965347296832,  9.215946108485173, 36.715967352595008,  3.892151668637550
 0.394326044368355,  9.744806591117701, 102.165960662307327,  3.896156162270441
 5.600158185388018, 13.332455062252684, 82.412186389518268,  3.703544895693101
 3.429079689991373, 10.948495731345178, 27.461993117875949,  4.234866428023243
14.651152956406943, 13.141855289695828, 113.501594921954492,  4.053637477107340
 8.154661107333114, 15.513764179597322, 101.241907686976049,  4.113679980243920
 1.133474985942446, 14.761447162656733, 59.508054332037155,  3.804838940683192
 8.724003423608167,  4.259551978909665, 111.686254823114695,  4.292362384236383
 5.817096139363700, 13.451633312316737, 17.934730765041248,  4.117375396124325
 9.893395524270792, 10.755143990995013, 87.389636364883629,  4.434586756710000
14.839493160490143,  4.807180679550821, 27.488164027992969,  4.036089475572083
 2.675147281924133,  0.560384407713681, 40.999766316956070,  3.751830144726835
 3.669444344574297, 10.528880496994367, 16.315703958878522,  3.805668262643524
17.513870269606752, 17.148934810717105, 48.012970450094542,  3.899792137282897
11.662776589550552,  0.244093544259584, 87.741867149807589,  4.502149917771987
17.076511902481819, 12.262005818198448, 87.670655442206154,  4.122356739671777
 4.728650461235120, 16.859223535390829, 84.052875414553412,  4.057123629356013
 8.072385722283798,  1.025290232078156, 19.957782170763981,  4.163228528662230
 6.178028636600654,  2.052869031532687, 67.709315042796973,  4.126098951778332
15.167679654715796, 15.296520059539725, 109.865281580992288,  4.242179443602108
 9.508620186266491,  0.590284910211838, 14.802693893511451,  3.580479793577347
15.480309657952747, 16.226821775602577, 53.567028765145920,  4.056557501116855
 1.504757059252532,  7.077734709334176, 89.510336794198537,  4.090870403090730
 4.808807647608559, 14.558502626738781, 108.316106603015882,  3.686330811338953
11.307125955685796, 16.977792073517911, 81.132404061997718,  3.766588077736129
 6.482704565663400,  5.608789090582790, 22.244750901142481,  3.749820583082646
11.356262864621804, 16.344273240501209, 15.401603111688674,  4.147167450771138
 8.058922913623485, 15.872097536355776, 106.359475574054187,  4.332477101185324
 6.403522287140740, 14.880292066352469, 54.153985767767324,  4.074315943462355
 8.782131403725030,  9.693216720488437,  8.390264737683752,  4.317878705372356
 9.726035062877262, 13.035530823450115, 74.500999492079544,  3.924486405373396
 4.901462039240641,  1.261393270081761, 17.107690117370186,  4.190204735514272
 2.915206413239323,  9.458022445514816, 117.581169016671851,  3.650705860082692
 0.727889558338619,  3.377773757450931, 53.286247662223680,  4.203435126698932
14.264237304214483,  6.550617448316752, 82.741377709215541,  3.884682405260636
 0.409521340035765, 12.545800526530982, 22.368784856765089,  4.023851996614020
11.672673486555842,  5.805545038721529, 25.289254415208092,  3.914815229589071
 8.757704418045765,  0.198839596736764,  2.002226310205047,  3.992423854869639
17.205316609639603, 14.236827984252740, 12.191357088406351,  4.262984396902953
18.738332029852671, 16.242806230199168, 94.117169992054102,  4.299136245371736
 6.013511735119472, 11.704493205433282, 117.562179907708341,  3.864354610080406
16.316702042190084, 18.636397886750000, 107.632969625936241,  4.105248581580804
14.600087787479227, 15.176197472960389, 27.862337908853341,  4.197201415101871
18.845756098727961, 10.737371476033722, 64.862839264715660,  3.911788280517803
15.343499415733495, 16.222990327923782, 15.194198702343247,  3.817584584180381
 8.711442988591562,  2.369262694165485, 81.594212264258331,  4.203067321247270
11.136396030531802,  7.615767119979484, 110.567673265088459,  4.160637028083202
19.065943005879458,  4.183317239398366, 31.379023624466083,  4.398442676186731
 4.198447016484799,  5.163538151020733, 59.744189742151207,  4.319701629038218
18.451551369439880, 14.913432688632291, 114.143714347783160,  3.837428380267161
12.513753289955856, 14.227856575371762, 106.608789310193046,  3.925608853900679
 1.323933885628922,  3.734188175230075, 106.627440632975819,  3.877738845346939
 2.192958047755329, 14.900219225312044, 63.877445546659466,  3.758311956498935
 1.380570629595284, 11.479018677487559, 113.946672685047815,  4.116432288095618
 0.850356060508218,  2.238437485318437, 80.552858527290496,  4.034936166306232
 6.162927780826218, 17.478276065045396, 43.164315907584964,  4.194795707338705
 6.633377157482724, 10.072881427162613, 13.754911967949514,  4.002158966970846
10.377707910421453,  5.817513862279868, 83.273141187687514,  4.081640738616891
13.732310282127314, 11.012754936168536, 89.406706641044536,  3.784476009283039
 8.821003058929701, 18.529827806285070, 117.365054255052513,  4.222651460120717
17.292883595255894,  8.601244255145550, 67.677673390442919,  3.789459400474068
 0.495137935396200,  8.457313292037894, 25.794590954931945,  4.077850296817102
 1.544964689407955,  0.716858845706485, 15.121047334811189,  3.498079401840936
10.793041920889989, 12.240595030327455, 34.146772054221969,  4.049913426374649
11.588978784187105,  4.811117150200633, 50.922561760011263,  4.188359125153185
10.657824053020944, 15.083687001601140, 86.915389147839178,  4.389967596100318
 9.845415006749835,  3.756067382488778, 22.390100064971698,  3.916060954189699
15.683267682513668, 12.171531292326435,  4.984725854900391,  3.830550500481339
 3.900095355794894, 16.172686439109970, 15.850639919810117,  3.704745673468270
12.882642644468991,  6.379234249720442, 76.026283286011264,  3.988767757624040
12.208666286344632, 11.039311396372671, 19.579213068265027,  3.703072515376453
17.664447391071043,  1.546725330347504, 88.307091434044850,  3.876266295694828
 7.866028205566158, 14.536169089271624, 110.591350816253978,  3.729493947500058
 3.261867673621243, 16.056587055789446, 96.245625548190759,  3.775559193616474
12.503401589283522, 15.095508315285590, 90.689924545640764,  4.001657236688773
 0.316990340160292,  4.182935024686758,  5.751045128392315,  3.970132525533737
 6.065244934581494,  2.631780587763404, 117.317608850782932,  4.245488408102786
 5.998594850466898,  2.877119412327727, 35.689765753370253,  3.780833442475836
11.854991509895475,  5.030562568051256, 114.265352696558665,  3.871767952440437
12.110395796718784, 17.178799633679230, 97.272086284143612,  3.887639033467034
 3.676577510979337,  9.810987753403355,  1.846417185201118,  3.683934694194507
 8.633803792429047, 10.471882374617961, 77.271349367788105,  3.849968017772287
 0.362945750341023, 18.788243019299237, 58.242509260048692,  3.683404786887612
13.916287801186444, 17.041413125027841, 70.288869871410682,  4.012704780428346
 6.305025831079027,  5.701648103295943, 72.415842188142960,  4.158751262679766
 5.386891092457509, 18.873591009195263, 54.021657127055242,  4.149791882020399
 6.123300234732513,  1.682948473461515, 61.628778763154735,  3.800450682963850
17.730627321232703, 18.605330747654961, 13.088443775513602,  4.040103915968083
12.913684746367919,  2.230963765115038, 70.061420943885963,  3.866240162623138
18.562720965123344, 15.734059188163963, 56.101246824019441,  3.984248756788409
12.786967067695313,  6.578420056723328, 39.398235832764023,  4.002646738750534
 3.365514837220744,  8.383271282058836, 71.189305472623104,  4.140100460086653
12.249549350001239, 12.814162452326407, 116.710699079147318,  3.779202957161673
 9.788667256251941, 18.538990752971195, 77.913178924686846,  3.954802912278229
 9.689107870293210, 10.180777611099890, 117.615444982191207,  3.752674388331837
12.044684400982291,  4.057482016956881, 59.916189659815998,  4.061749870613947
18.794974133185175, 16.654736287519079,  8.951668566126250,  4.057222234171356
 4.328790188279019, 18.197522945888181, 110.434562810456953,  4.240759733007682
 2.852214614379942, 15.893590987967421, 35.158361002401108,  3.955287276081842
18.992740094645942,  2.452677807135657, 64.482068526652043,  4.036575599106479
 9.096205782805717, 13.821460695390320, 24.167347252751643,  3.844845044414907
18.331263583093669, 16.901456700051494, 104.363588726734847,  4.198778531035953
 1.958913871241234, 11.435406711188831, 88.811985918971260,  4.213214280737797
 9.449038351161494, 16.010699285595408, 35.812358118980242,  3.798805131415429
 2.465589166904051, 15.250455055926817, 87.132236985718123,  4.157823209461746
 3.094273645242886, 15.853622852751368, 71.023801093074184,  3.665936054748723
 9.608383702359745,  0.769412200223902, 58.858570095478385,  4.019079990403387
 0.276001666764636, 17.771519920148847, 65.848375733344355,  3.976041787472700
 3.093450440045815, 12.287863982511317, 72.910311774081023,  4.287343125426434
 6.649460204359293,  1.873938234706158, 23.602484512175813,  3.823362258254718
 5.554002993214404,  5.332308145967469, 76.534246585167764,  3.618355234504809
 9.570763400597141, 17.099027576787115,  5.297888560991297,  3.833195379566765
18.655157481834074,  8.929295458807868, 21.347180772908242,  3.681745608695538
14.518544675629881,  2.234422330238166, 49.274114756272866,  4.246732136037375
14.238325086524675,  9.841949555209998, 97.325304134807183,  4.142755843330226
10.488049763262792,  8.758660524222693, 32.085506916292857,  4.022215603330928
 2.186005239374872,  1.748405912134505, 61.168255050703735,  4.066467574742101
10.912802423721038, 17.469293533367722, 39.162373228708823,  4.000104389668774
12.191110679640596,  7.240745167451275, 117.522859823227748,  3.937367988022969
12.619833129313525, 13.998206144885376, 67.866431984202094,  4.184997033701583
 7.844889766075696, 17.514982210591040, 73.857830870329948,  4.235628241276377
