BANDS
8 8
NANOPARTICLES
cell(1), 19.101
cell(2), 19.101
cell(3), 119.380
 0.217633951201864,  7.840759400805056,  2.044674275281233,  3.661496340847612
 5.784542130948239, 10.297497841365592, 43.541678535551789,  3.885159754447532
 8.851750267672523, 10.656282887592075, 17.862420579911316,  3.876247809235771
14.195986910678197, 17.291304826172389, 99.364939965741030,  3.931326764918319
13.425927949647065,  7.524594080846209, 64.267396074553744,  4.046788087983127
15.482954538990466,  6.421234387468409, 15.181612115840942,  4.357133529746177
11.257945196119326,  3.213372836846459, 91.135519483512255,  4.000570566751132
 6.223887817769552,  0.504295317987718, 81.974157537002256,  3.927844209727351
 7.920161035188758,  3.755643062388444,  5.681418412492932,  4.361914660660656
17.233498488221862, 15.525910646631736, 36.909684917783018,  4.410921384769044
17.529653200767537, 11.499884443822246, 92.120439342099360,  3.892442505292032
 8.236711505157938,  8.129262131871720, 75.144732775643845,  3.914631107616007
14.031348867613270, 12.070038201374118, 83.867325990142604,  4.175468318830912
12.143909817811627, 18.586090851827944, 58.447549029498106,  3.960562954353540
13.146557644901518,  1.809977718883043, 64.670170242029087,  4.000911955159699
12.096925768366159, 18.936432331467174, 42.211732431538628,  3.817143446848068
 7.357736283442553, 17.942706391652052, 38.593304283781166,  4.097502824262488
 3.214814521130573, 14.453363437262396, 90.802471146190427,  4.333005818831650
10.667738595782820, 16.196429082535449, 39.920336222353278,  3.818034440699824
 1.840411290662986, 17.775914551439122, 22.884740497511075,  4.137543456020552
13.699738557958733,  0.957275825041965, 16.064350643534741,  3.998688671042347
13.637309679872644,  2.611760905844873, 40.282762294167576,  3.578619615918341
 0.941956185833453,  8.839593929026682, 15.094384039495848,  4.015022980109372
12.193419076304041,  8.316440819125850, 74.966306910217483,  4.015450532070907
11.764518134652114,  0.105607949884515, 101.764652567137347,  3.835442386589411
10.906502530427918,  4.550064928606214, 62.997514986416945,  3.819847330546573
 6.498349650012932, 12.565352904405231, 64.873308473728784,  3.869982222142063
14.466370028671118, 14.544294682146933, 110.187930157410136,  4.084401650200655
 5.084976977043646, 10.817189833301807, 75.260473496570640,  4.234693008290395
 2.455984226996261,  3.241151916796088, 67.942873031508284,  3.887102065977651
14.974901641676754,  0.853305434439798, 85.281808456291117,  4.159906845228150
17.410100951941423,  9.909292448663969, 45.109074892120319,  3.989083659259571
 9.058868783852654, 11.952486768685880, 45.042536543730471,  3.985751175951816
 5.812234128056259,  8.715755800562512, 19.493760267539699,  3.974532269795801
 4.785949929619623,  8.638084336314696,  8.981282945598787,  4.030651971720652
10.107531674061290, 15.118894984764452, 52.595068713988702,  4.111095219495914
14.967097844806659,  1.223087655885800,  9.274790042246563,  3.967736525216772
 4.030315281536347,  7.604236241377871, 117.512419529412938,  3.715182096221299
15.169517675138232, 14.447910275313163, 64.537912982399462,  4.093903454949764
17.826750176415569,  1.060071576934481, 60.971603238229292,  4.096674344618910
 9.376216591668051, 10.692965528736137,  5.163996777947388,  3.924103897207384
18.551689501253453, 17.933839458387983, 110.288180876209381,  3.927776779096242
12.079109898460063, 16.103351528929402, 89.134075090332672,  3.923658686632016
15.683710957056556,  3.024351725491198, 78.493863851287159,  4.037986771897311
10.847714253595971, 14.288770395057316, 85.619162934619126,  4.069520402279636
 0.637304582983753,  7.910587127043806, 59.094521568570755,  3.706107042799060
 9.894580707364153, 18.404555687359935, 54.996920642897493,  3.908399918998751
16.427721435899315, 14.639188192054849, 15.395707901507267,  4.164314964856214
13.736232485666719,  1.199970013417937,  2.090014169205418,  3.908410544548099
 0.937420505946460,  9.626393361505217, 29.500392063767116,  4.034170430544190
12.582219656345901, 18.139958411422498, 106.883373669893047,  3.881836231464142
 4.053163185267034,  0.618483054013501, 36.938265296586572,  4.073959586648683
12.995788882523877,  0.091189988109934, 114.020487041359289,  4.204164869567621
 8.324957833401513, 10.957730376538578, 103.239931221770490,  4.255119469343897
 6.716133955857785, 18.387602904694415,  2.627527216056476,  4.044619993661038
18.786477554722733,  4.099728491597970, 21.583922162777267,  3.959770375099241
18.225771619085219,  2.907451422742254, 44.957755707614709,  3.719691900745925
 0.651342914464208,  5.267697385496250, 84.585671228088202,  4.206258448339167
16.833244350235979,  4.109607202006845, 99.244703498040849,  4.074789722866840
18.153293202544116,  3.022834680562064, 95.434062511090730,  3.874570072859655
 1.104866716670429, 16.759757943847504, 106.970982771586506,  3.790466513218512
 7.523464211243542, 18.464098353840779, 78.498134295891404,  3.820033993597890
 6.240182256258118,  4.158528648320519, 95.344524198279814,  4.005848152133846
 9.580426628922716, 14.575982974981031, 33.096869135350943,  3.924945479342351
 9.184736569035922, 14.027330061546879, 100.557895113593204,  4.022640002890310
 2.588605227430528,  6.399879622403651, 78.679192921736842,  4.272062530310542
 2.284015180697529,  2.792443017167369, 11.794278727174207,  4.025651389397953
11.214677710899275,  7.898784847072758, 67.674407323776734,  4.034294745542874
13.438687934168076, 14.681705992232756, 59.564379216117871,  4.215420139753655
16.700024793830750,  7.828744062227551, 56.637990677718449,  4.022456142871588
 7.743609681124979,  5.625578086787335, 56.013428109031558,  4.125444149879609
 8.442818748554759,  9.513027902439021, 37.580160886670569,  4.020034547075342
10.603866298954825, 17.780728830252119, 18.098999574015011,  3.917846429176859
 6.414131855640854,  6.226790947078656, 31.626685834826290,  3.604933279851756
 7.967451478774567,  8.669187117614513, 117.175200824926122,  4.334260391291383
15.760179822701254,  8.067996997447095, 40.796949729191788,  3.952268495652440
 9.568316657906793, 13.850434751182640, 29.160017696796949,  4.021958109915627
16.953325832110568,  3.879092436836665, 57.972181126431259,  4.272246834605355
 9.584664999568480,  8.856875012388517, 41.514534512510643,  3.920598137638166
12.804193068203073, 14.987416175452475, 21.959422844244465,  4.347115034228019
 8.542867932322403, 17.653110108960519, 90.717781320046214,  4.056316253433747
14.351925831273308, 18.291647341946646, 24.179745601723162,  4.098985334467754
 2.688118719732874,  0.299960540190394,  2.116579611995163,  3.901681305642934
17.660881261021228, 16.578846973480932, 26.179094903967268,  3.986881064776014
11.670404881935346,  1.597798675706039,  5.854891809338152,  4.268156712096415
 8.535378117631392,  7.425629669151061, 101.090708164328646,  3.987707524659625
 6.238129564909215,  0.181061526234379, 96.497803076082775,  4.109125921368129
 6.186364533089503,  2.635893710088696, 113.745127120238877,  4.233116604285987
 5.848813700698208, 12.568235036096970, 19.656536957651568,  3.723998330015603
 3.445265655959142,  6.550788227430984, 17.093421064816035,  3.733159707443708
 2.264788359013604, 16.891039055746329, 100.043902806850824,  3.700137755309322
10.359223944285725, 18.262632310335256, 82.212999617136603,  4.126649397678851
 6.749657006743107, 17.654368078955272, 103.761771273727689,  3.647590455205470
17.535806929640618, 15.602502807025246, 49.309373923784726,  4.328168906086085
 3.292784478495381, 10.832507822279796, 103.339026010610297,  3.761985805638304
 7.437067065981854, 16.885178787184241, 85.157562660666841,  4.510856995258198
 6.527821803894086,  7.975443605653819,  5.360401823858905,  3.897846240484264
 4.258468836271678,  2.285416953904415, 49.963023495388732,  3.895875096606491
 5.912154242480755, 13.502665993417082, 72.145280318272739,  4.052832541412254
 9.169793291281815,  0.657599543975167, 29.012358847883974,  3.900453791190600
 3.785207075790467, 10.728948395675015, 40.145650539097112,  3.869820099116369
 9.699704422188562,  8.698996238359017, 112.609969222380670,  3.612264320976893
 6.400813677089210,  8.363991177513595, 78.886587998072045,  4.252372678234948
 7.422826077087561, 12.144852135069632, 40.379611504181462,  3.914718146575505
 5.590460645600178, 15.478854567993125, 117.218167188326774,  4.147606723626416
 9.406597541164810,  1.070498988486086, 75.603037723133866,  3.822245023006544
 0.325673070119540, 18.654032786252436, 38.641858684530575,  3.973808967718597
11.576934510821880,  4.273485110831341, 21.824224621257088,  3.838565584162083
 8.441036240186204, 18.386525461535719, 32.680412747197238,  4.048682282658283
14.377053475137712,  5.661137529818023, 102.209869150979245,  4.211636205635288
 0.011869646538710,  6.585221563550860, 97.069244582907928,  3.865703506368576
14.240517081757112,  2.613192476326767, 44.182866873840062,  4.212816679242112
14.815383449102569, 13.117964395462259, 88.104417210728926,  4.414292590437633
14.000034891072554,  7.676847062555612, 112.892439623839095,  3.965409350993464
16.961264971361164, 14.696930155084516, 57.187281177335471,  4.146390374871092
 8.154243808881501, 11.973153592010142,  8.848382521539646,  4.241308374791416
10.568595488501337, 10.321804744705217, 85.010767083732745,  3.907110186539257
 6.674606334837590,  5.245745038473153, 72.816782197871248,  4.092985888528030
14.911587821511771, 16.166377873666441,  1.965809058072196,  3.923227979036552
 7.472015103343058,  4.069083156948749, 13.094631538023327,  4.155293367089126
12.762961204996502,  9.251598430780643, 43.973107774388289,  3.752733614340496
14.070930132133284, 15.548924104649751, 42.349346605700099,  4.003820110795073
16.072920762763722,  9.469956208560022, 68.334112357227298,  3.991321518206773
 1.210750933070503, 15.051934323856186, 82.418271208237115,  3.678311859455824
 4.087488566216637, 18.035776723604918, 53.074318722076782,  3.561597966335161
 0.336085213298651,  7.429201469103404, 110.846272510657911,  3.951029026020723
17.782462693811954, 11.040897396123100, 60.177811210484037,  3.750802875444415
 6.807480060614567,  4.363335514966013, 76.968278252152416,  4.395433984741433
 3.029353342291942, 13.006752046389810, 29.838583534230704,  3.917866922301543
 9.639199362210729, 15.418488344298094, 57.884235682025675,  4.191238348800382
14.417348491852582, 17.082221241918198, 103.478074652353655,  3.693462838244761
 5.566529483454181,  3.221460374673534,  2.102432832160214,  4.200711572574061
 7.038680626071595,  4.734247823363600, 51.556083158656691,  4.055397498273750
 5.472178567346865, 17.040419325381205, 93.222198958329628,  3.935246395355464
13.294748984731729,  8.735775511588669, 54.966078690083876,  3.775855687585731
18.066510413097763,  6.408444288946271, 38.182533788865520,  3.662289443674830
13.422554734529459, 13.861622944432630, 38.354917136264959,  3.977921379798373
11.312982975506806, 12.235922353821707, 55.578634489060967,  4.335987870121520
16.344893698213294,  8.665152152708664, 74.552231350697269,  4.351184891947368
15.223813020853081, 10.874103586471385, 107.241104314248801,  3.763794753524883
 7.975857613478764, 15.348593809986342, 81.296210816420242,  3.612366260545860
15.836454239630719, 13.329150193015185, 68.287502070061407,  3.614773117409888
15.624338733101268, 13.031542619600941, 24.517056227873884,  3.842897608260427
 6.471837686598293,  7.971364364118337, 93.636620823657495,  3.672008319304278
 0.708737448077263, 16.706906819942549, 113.960964002607199,  4.205373705296243
 0.293106361501277,  8.498753909570786, 21.837304534317486,  4.134496412457414
 9.694158125481410, 11.003166607541305, 51.755011249876702,  4.326425929210846
 9.547642064983256,  2.052057126614869, 40.243931473352113,  3.637075793556937
 2.991672032282273, 11.016717266687555, 79.237475858343970,  4.410342810239118
11.580811740954974,  9.878170983229728, 47.734238680753677,  4.044044477726374
18.742834215275668, 10.493709575179510, 97.572735764881870,  3.929543420886042
16.616386278916863,  7.574368840459624, 105.036901583229835,  3.913521266575759
 4.767205921000635,  6.437190611064696, 43.466728430700982,  4.048090926028127
 6.147205736705130,  4.629915522164134, 25.391047250543068,  3.863964314656505
14.217674182871070, 11.101705408599015, 15.592746072659624,  4.140726316109075
13.238718725344491,  1.326661502703426, 47.819834302814598,  3.700454619573833
16.719285731637871, 12.314471132814571, 72.534173661698446,  3.816291569851864
 2.102047431796837,  8.855007030792432, 107.693444687223504,  3.778278409231151
 5.402098248621606, 17.746374407376340, 29.647339665886015,  4.357430567339924
 0.417551498117127, 12.299480574440533, 47.518565763542227,  3.955241176732782
 7.450601561881376,  5.978493269057100, 21.941562835520656,  3.961814054094096
16.153751766063476, 18.930877133597864, 57.344871501675577,  3.885436395165033
11.823406869527595, 14.414552705442510, 81.197113776895620,  4.158500594517024
 9.911673999919913,  2.426478616753092, 18.644975021660873,  3.764340393787122
 7.633971185493040, 14.084100538230365, 61.325116133194285,  4.168384578586000
15.572190153949382, 10.254871120092970, 21.511489486044326,  4.253002709325828
 5.697205571149399,  3.079746318201251, 29.215787687775165,  4.387521610706200
12.363104908693495,  5.878782961816174, 42.052645735004951,  4.023031257737839
10.210715745242858,  2.916241945711783, 53.233773009230426,  3.963266362280384
16.892565762793058,  4.855955327116424, 34.805447397722858,  3.956431399893654
 5.297825764418763,  9.519703789885149, 82.721087843891397,  4.054957440392405
 2.944331175856479,  4.661945986203747, 32.106726512107954,  4.056595613482143
 9.672162058849215, 12.516807521458540, 112.227189584579605,  4.031050644469347
17.055784938607658,  0.672243490308050, 113.587760375361370,  3.995053472756631
14.333429355028823, 19.072300991479700, 81.187049606960059,  4.215147919463382
15.757212400823448, 12.763408470191131, 95.702528815409522,  4.423301754587732
 0.840090787243743, 18.378986695172181, 80.769616603998770,  3.777765148107755
17.519981238362504, 18.133529222073353, 64.463676131711139,  3.910373064286939
 7.710743734797071,  4.922436568440970, 91.598790219466309,  3.925744942838005
 6.203129419884106, 16.776152171311377, 99.941833433693873,  4.162440850206436
12.026770844200572,  5.840593889381300, 46.289735004130229,  4.339018281099142
 7.965393227660961,  7.215195294551226, 97.147995971388966,  3.816931456849712
14.539316079296603,  5.330624123423273, 11.364582243197299,  3.782730632484700
10.660379259997642, 11.673733659091223, 59.777033648315069,  3.919213978821199
15.808420188028856,  7.132639367045437, 108.900912387776103,  3.973268728164300
 6.334200543278140,  3.468634125603947, 66.920149698271231,  4.068938183062194
 7.431796397745829,  7.939167384142871, 86.020037271652910,  4.217896209049218
14.658928598020303, 14.138158694843098,  5.354782364169954,  3.935931206520080
15.686158421456355,  4.237931156581833, 47.596943722450277,  3.823683848438364
 0.576360468175473,  2.478297654646091, 64.396493617033201,  4.048712670367301
10.076119305881344, 12.666534259641363, 14.723434651260595,  3.968245053549639
11.940181088688798,  2.941214578792803, 77.573026120983968,  3.582144021031675
 6.375050101499699, 10.562267864863822, 113.674172200059814,  4.142569967296837
 9.414759260754884, 15.804141542755202, 71.284436082896988,  4.180585684715470
 8.512008138709680,  6.290028751118022,  2.174639733511764,  4.306304536419783
 0.096052380110790, 11.718464547674012, 101.310872853316738,  3.927440421263027
14.167339346720183, 17.855613635245426, 38.876222929996096,  4.200349434283091
 8.511561984887630,  7.965378834761065, 45.326634047232979,  4.075958879732550
12.321732955160069,  9.011678325702748, 95.604728302529139,  3.691312820564867
 1.364895807707206, 19.064163612304050, 96.910572275354113,  3.818162423006838
11.300486310751930,  3.282585933529151, 87.110690352038105,  3.917451634284078
18.723325801911880,  2.406755548645549, 117.200703742789955,  4.129673242203713
13.482685469704093, 17.104097631672882, 117.520633421061817,  3.677186897714039
15.277961364643971, 11.720370882594288, 42.269079961848213,  3.943848265014623
 0.819846811927604,  1.975811542820430, 34.638796997303345,  3.744856771638757
17.943486294608128, 12.623258769171819,  2.202187124686774,  4.313100827990640
 9.420512511280952,  1.194001060704170, 104.738892144681060,  3.891724463706205
10.467185674646730,  7.078435583463347, 24.549531955940640,  4.272967919293318
 2.475977932243816,  9.484495184474902, 114.148331790324917,  3.634610678343794
13.325244645791406, 10.367443104358749,  5.572073196212269,  3.923327257996479
18.132306788490233, 15.835192800941501, 70.080011500479003,  4.050312537997329
18.032529174544010,  1.238115415743487, 24.514282493069789,  4.268111664821257
13.461950750801366,  1.224171713600719, 54.848744457611893,  3.961069710731609
13.046700629927377, 12.864228008863497, 45.351975142579917,  3.991334911580795
12.379420478693220, 10.260557080103451, 110.077313368103916,  4.145763999435551
14.086576923119084, 16.136133770593279, 84.153666314977571,  3.939014974615794
 7.253501454112174, 16.025949338730239, 110.952842330096260,  4.120033216732523
14.333017504533986,  7.305446941910758, 71.179592155980743,  3.945711738190452
 0.257009988685486,  4.736901083284130, 61.149103347675180,  3.828663688050646
14.793946491854269,  0.155920503178425, 110.279414658784233,  3.964297313981251
 3.949192422502158,  6.543627837060737, 12.669839816223057,  4.329687701959197
 8.748964590219090, 17.426953703645875, 107.434998598274504,  3.983106443377502
12.989785075336085, 13.172127203413130, 117.298318782244237,  4.161358859735981
15.207028915338787,  5.841350536106058, 117.318245065685744,  4.105396109000256
 9.044477385780636, 16.647728019243861, 22.438843391493140,  3.924367755847981
18.338714402246513, 11.855448959799523, 81.332228057700348,  4.127828416553699
 8.860819358305269,  3.413834277457716, 98.275806612274891,  3.961308235328846
 2.132677576807567, 15.456964504582334,  2.009541580589204,  4.011872211305443
 6.257427743598353, 12.383093086703127, 27.614883059278203,  3.779931974306609
10.406412134639490,  6.634934179047878, 78.419505018494945,  4.446593636366736
 0.218331102642828,  6.232232719320451,  5.786787990591473,  4.024388045556134
 4.171712774501042, 11.459769547774492, 87.887093824373878,  4.231723649107258
 2.613759671634428,  3.665517163485926, 96.923590559487735,  3.783534488750811
 8.414149038417662,  5.093486562399472, 42.479573684159909,  3.895692908406232
 8.008128300539379,  6.451848111809973, 35.061197762791288,  3.899187152103123
 0.870432852170784,  1.304165292990967, 15.150203162832577,  3.807605530300612
18.918292199390919, 12.247743397431917, 20.736235229326947,  3.620744144079046
12.355106467292567,  2.784401331444502, 108.200292840904183,  4.045456159964201
 2.379152257681860, 16.012433178149962, 36.386064349267066,  4.089442956740302
 0.504992568985315,  0.305654109246686,  5.827436324831575,  3.969264161940193
10.443686665576420, 16.933206937874619, 61.581767473992642,  3.752455132722714
 6.157967163024050, 14.301121708580114, 43.480629743563881,  4.040415417834573
 1.050425603389105, 10.077233221357899, 75.472625067368014,  3.949645015038146
18.124939337827481, 17.520780733503553, 84.344819741094042,  3.907783239283185
10.353457959005645,  4.016908907838868, 67.161323613672394,  3.976520738238614
 1.404719711332666,  5.024979878269087, 100.316611934493835,  3.738618019407880
10.154950656976252,  7.059207783005505, 31.726327344369256,  4.036757115972372
16.135679809854881,  0.196705021931613, 35.661220853234433,  3.769911134431349
 9.179581216325134, 17.002110548741324, 94.527374875159083,  3.777360236104689
 0.337386364360899,  6.958923885465275, 43.542031667810775,  3.779899331465076
11.281352109695435, 12.578555009749410, 41.640575916244671,  4.206582764154527
 1.649537460935345, 14.848877184447021, 103.448461238955758,  4.227194041667828
 1.323579708043804,  4.114840160296052,  2.484844220459957,  4.054756509676707
 9.334705238078495, 14.268400249602038, 19.281942132725721,  3.877930716287934
10.209978306586052,  7.061200623400924, 53.113549311789143,  3.997990116292681
11.481409063080591, 10.723584431953965, 106.109801687023975,  4.020543921310292
11.415945463363188,  6.170648357387063, 110.248057151943883,  3.887497923765449
16.069499238572920, 18.171008516139835, 44.507806018520391,  3.728038577893929
13.543699736435720,  0.710371486661155, 28.004460592125177,  4.156731336717879
 8.334059053440809, 16.102949341941482, 64.862959506637949,  4.090155894944174
12.958525108538685,  1.343642784736795, 68.692900977495299,  4.069728872649853
13.572606861414515,  0.707967182358203, 89.068916170607579,  3.921807913189663
10.073681775062415,  3.051040259489458, 25.842422320399731,  4.220588793095918
 3.203484128766217,  0.458627178721965, 56.893278545672040,  4.162557362707886
 9.238311827162253, 11.944700690572979, 70.379108518056654,  3.755484740638076
 8.534719326904984,  6.184937843488702, 60.172819612115241,  4.185943094474863
 0.380561132282241, 17.418145212132178, 58.614678142453570,  3.708724693599698
 1.791489481088659,  4.051096492723801, 27.869737802733809,  4.076913047966904
 2.516835121945464,  7.037176370310258, 24.893355477817074,  3.920132441756924
 3.367073562252465, 13.131293620091444, 99.608048169643681,  3.884690961796892
 0.868299531057398, 16.560453337391124, 14.649216039047156,  3.935453448742160
 1.867733484756334, 12.270731903251489, 34.423482121586432,  4.412205610536396
17.288671277002088,  1.884598125271793, 88.459370126244281,  3.949170243381491
 7.944157597520349, 10.404211816302805, 89.357171028902641,  4.063255138735270
 1.513566721777529, 12.695289894823057,  5.758765048322075,  3.911981710892555
 4.357753301688845, 15.527259155839610, 75.342142910055330,  4.082427930534609
16.626055761743803, 11.388906849026355, 38.552863117509638,  3.941971275991592
18.817848593583793,  2.881305165803223, 110.597204354146612,  4.174820380092797
12.513545897120453,  8.225594841071754,  8.847395101473042,  4.045528137371533
 4.492391593672142, 11.341069988090876, 68.734432005076599,  3.908599264050692
19.067730612616149, 14.676026234761002, 66.129481739359591,  4.305109400324522
13.692295614191492, 15.550604506508456, 27.250892771740254,  4.227485138224695
16.172677760780058,  3.888442021698404, 63.286499382348545,  3.817548013960302
 3.926052403924553,  7.172101151918514, 96.340555812980654,  3.751552156523557
10.789120700999458, 17.206664963102927,  2.055922980809746,  4.055629922913783
 2.349391039639556,  4.880099985856415, 46.544312205973355,  4.207308284162779
12.676233538507413,  2.141948756209988, 12.391188517863435,  3.846352584883882
15.442385638374097, 10.894561803967038,  9.319852902047481,  3.869980946417211
 6.600987684327563,  9.298633839215807, 71.426883389563713,  3.973671257150472
16.763495272641283, 12.024239380863515, 34.681747391682528,  3.885521586581235
 2.207833369310046, 10.111379953868473, 18.697394927927633,  3.891822406583867
16.682599489770560,  1.869197953243557, 67.079146989582839,  3.972819931963850
11.985081913096977,  8.951790741135277, 81.578511404703107,  3.998768265276375
15.672355658873538,  6.421246800139015, 44.392813998145918,  3.897471677864253
10.686009672675986, 17.471458528246604, 36.014164721444658,  4.169304172205853
 7.734106810873561, 13.696837877742235, 106.195688953324833,  3.878335722349940
13.953359482106436, 14.650960706567943, 51.275023037482931,  3.958130437696974
 2.997245735742660, 10.772907471645899, 26.278127736588115,  3.924895830538516
14.499004873701880, 11.531283393755174, 79.751786776068471,  4.071177120871775
 2.725028841613549,  8.788423190323186, 99.816498488323447,  4.282541137637131
 3.258731857190584,  5.449882118550135, 64.809477840875815,  3.754353779842714
 3.513054015108589,  5.658944290968718, 92.660531461485576,  4.041844637156164
14.160100011067097, 11.936133899700298, 113.418321347586783,  4.112151820201772
 7.230271858575106, 13.455629354894985, 92.661185414313479,  4.025802256471355
 9.690057203435176,  2.949743271932610,  9.629705651391728,  4.300532640087328
10.549615488432829,  3.949500649061025, 101.948082134761904,  4.170443376833763
 1.923820322392674,  0.864292603509687, 47.073439814294801,  3.895337359216304
11.133949551454091, 10.888608711100574, 11.418715060857167,  3.755065132187113
 6.891561626386890, 14.468157171644224, 68.328250685327660,  4.005131027754548
 2.790820313355519,  3.335522998229046, 75.792610775980464,  3.881216755273452
 4.136228208163211,  3.334852178397068, 15.264772509939549,  3.790026098697410
 2.774701495419233, 18.175004808443738, 17.742886520446259,  3.846311935864307
11.132942557855205,  6.557978732389702,  5.429633737752433,  4.006883170986721
18.786262283870119, 10.934857136722183, 105.214215478849439,  4.033536116181855
 4.373673651154664,  8.179933068371545, 110.900272035949314,  4.144938836075945
 0.070019431772736, 17.958809452473311, 55.056751626016272,  3.463905544386263
 0.491296827207739,  5.020519903947072, 14.532684905803981,  3.708382463723746
13.758179812225659,  5.916492698970132, 88.612526662636739,  3.864148280442176
11.775384958668294,  9.567776430960578, 115.676516719370056,  3.961050566206945
 7.241574313904279,  7.156110244220193, 15.955008989980323,  4.259344382552766
 2.080782243361182,  4.508041525325563, 57.511093815278521,  4.322271760397328
14.366048602693589, 15.227219238105702, 77.830986594513035,  4.254134974535876
16.878783954714951, 16.806700845610440, 95.280274761075432,  3.963103872604515
 5.539175938833852,  7.303155578155835, 89.472948966772904,  3.722442692513509
 6.230729770886632,  4.090280295176748, 18.596926605688807,  4.083284344568676
 3.106980992495962, 10.295434859963981, 49.747676275037541,  3.973845303783471
11.705175709140121,  9.051540905288642,  2.080747755542937,  4.128277619069150
13.002039335940642, 16.666436315113565, 95.707329910086727,  3.768889077842847
16.759829605586880,  0.789443108597650, 41.209338845451576,  3.812422901439873
 2.703393644791135,  2.475205688045240, 82.305657202961712,  4.084660190591691
14.663761611461746,  4.111514875570180, 111.184718209003378,  3.935147546861949
 9.680117097681640, 10.522630185170074, 26.803136471574195,  4.103625537050040
 0.517575462110314, 10.571105622026717,  9.245358762198610,  4.175835804705190
 0.748160170825363, 18.644799667419470, 43.444435308493013,  4.157372740117315
 1.462898317032861,  0.999086193384664, 30.848377599459067,  4.166819212660481
14.443681494510102, 10.070295362126227, 98.833280159834501,  4.219617761607896
 1.318898085018519, 17.180618002486078, 93.503720972411003,  3.960626991397600
13.807980519916041, 16.482644610008506, 47.336682657944912,  4.246078423826985
10.357777016834651, 14.559667833263479, 77.497753109959717,  3.687399255873008
 5.514906604861449,  0.533913391370390, 75.282323809365707,  3.997598636996545
12.104916523876385,  1.357147659867183, 32.771165344391548,  4.023269515151402
12.287841011466691, 18.456936938919462, 51.413418854941192,  4.191775962526346
17.064205548440842,  2.757910600583104, 17.451227513632215,  3.945313921867914
 7.348136472839848, 15.797110152291152, 26.680104624335442,  3.623589804781797
14.547805794182919,  7.681258844283684, 78.241556385079832,  4.007640363286821
 1.426206614376589,  7.486189182638976, 104.014629970871582,  3.917669390307965
 3.894534580930735,  6.448176434730089, 60.838988465353935,  4.013683747293034
13.575071611328736, 11.451761043608526, 27.427392963483207,  3.924610866170759
 7.348670724060973, 14.156444299571101, 96.793084236405591,  4.310853779171476
 3.094622159842588, 18.736929776236760, 103.325357187062096,  3.929026648074871
18.275154482887093, 10.820672464329773, 51.364901947830852,  4.258655448652132
 3.821947533410837,  4.045320708100567, 110.409299003727298,  4.235917614208248
 4.940895696836625,  1.259940273474615, 32.996774780273071,  3.983154004102654
 3.418360663804601,  7.062683182931970, 74.557442467902675,  3.928865997973418
13.459962769031343,  4.327435670946546, 18.292436724401213,  4.090264430854329
15.810703487899202,  8.538452301291946, 35.987941079069195,  3.795071084946774
16.673841917569789,  6.993074584548669, 51.309888303685192,  3.955776941305444
13.122325143500500,  2.254620658239676, 98.583930520576899,  4.304021474997520
11.430377791000481,  6.096661072059006, 84.385814772024347,  3.919586062243900
14.709513041175592,  5.114333650574045, 95.854382908905848,  4.103778860719695
 5.138468208098399,  7.923575195307009, 67.069598325416763,  3.786207748986685
15.656182532251242, 10.622800560962581, 102.870465978928678,  3.762717343229270
 6.525659449726825, 13.275454912545616, 12.830337867475158,  3.999099495426541
14.543413936514170,  8.221809421430292, 25.033937915020871,  3.994595960004106
 6.777126605991632, 18.244252295895812, 61.807660417861122,  3.984703108793552
12.018881932418987, 16.911040572492809, 14.129100232441735,  4.074827209206972
 0.849218220046227,  9.605996152173491, 37.492398096488316,  3.877162528630682
 5.056222410745918,  1.175584836661797, 86.139163063272008,  3.913710107823646
 1.323250835347392, 13.672987911529777, 59.107479056833220,  4.003554547230519
 2.747567022409283,  3.123854250403918, 24.004154203384772,  4.024722117505550
10.942690688299873, 13.467149200223441, 94.600746705472062,  4.122595395298499
 2.631317431829670,  4.341205786885548, 88.386738735506114,  4.309826165628713
 2.857065020187199,  9.089333659860824,  5.559100715048395,  3.734977982153239
17.695353858062155,  5.873503208112683, 88.192041227544749,  4.018847283588546
15.942170098349413,  8.712814893746566, 82.228511721637389,  3.965298137582515
 1.786321842488376, 17.236530627486701, 62.652067177611272,  3.918151583554605
 6.578322663282664,  0.412831853916692, 117.229314510538003,  4.067475453075707
17.001365922928780, 14.300442188990422, 44.977759424290845,  4.226918567215820
14.132045386837177, 16.289121670694986, 33.979971076860146,  4.163383933465648
12.840938364594308,  4.068870003319515, 114.643422575988339,  3.842551429690406
17.140384680466596, 16.029770045777354, 22.078989949734659,  4.203767138491911
 4.073834566336207, 12.730625008812554,  8.811895702194795,  4.042464630077344
12.752457847921978,  5.080063666219313,  2.114978739601501,  3.880465647911971
18.073467442451829,  1.665287036317744, 74.726267648368264,  4.141800633588146
 1.860601997179742,  3.245556377613387,  7.912157061080396,  3.719993510699430
14.108515486201950,  0.520065857276843, 75.474775249329994,  4.126760920707199
18.212659291964037, 15.226235988843666, 90.920080133980917,  3.809283750691725
 1.689618883864845, 14.502754310314431, 117.416183981636607,  3.902512888418859
17.162609249167815,  6.890271745613712, 65.526806603701260,  3.814626177864336
15.424473577948694,  3.481028659757184, 71.104570559884948,  3.852760464653525
15.375047401425064,  1.916324186313938, 21.049980760915311,  4.154306233048578
18.173689833266732,  9.270877843247908, 85.738906819931387,  4.371549968125845
18.963529576442685, 15.580766086981704, 18.404199107115389,  3.904350457467761
17.453806958001124,  1.911048053560676, 28.446649713509579,  3.754440952625429
 8.718856290318559, 11.435041474488527, 81.239952644391323,  4.213418901913179
17.686691806145380,  0.062463037978790,  2.070830719783523,  4.107582265361366
 7.997173753253294, 14.786361294677949,  5.884127027379924,  3.842644190705673
11.999027835451100,  9.115167129151276, 102.386121682017560,  4.138545794774725
 7.809334658861661, 18.730730468335693, 51.291724847997074,  4.476971193267119
 0.510076018019426, 10.799556944520932, 117.446229394047464,  3.859374233311643
12.798881143049410,  6.378020089427872, 106.102523676619555,  4.308380309974428
 3.340091615171131,  5.832839661404216, 20.985755740976582,  4.138795329980507
 2.783407892174752, 15.399720407754124, 55.703078426651281,  4.077128194910374
 4.133579920372510,  7.219045132842800,  2.135100715571393,  4.255114867747565
14.425771500678051,  5.084950805951477, 54.278766111728487,  3.984190660616473
10.635882989690760, 18.124535809937257, 25.701531812323395,  3.898380740711477
 6.608698626094169,  0.578491826118343, 25.799104182292801,  4.249249528845488
15.295677617600072,  3.434685283167888, 91.500816064118396,  3.926197465917726
13.873032518012955, 12.400273903112431,  1.930980052005998,  3.850071492257116
 9.414415712471129,  5.448004033754079, 114.130701758177523,  3.570130244976277
 6.920463517083940, 11.368604869373375, 48.523855704382854,  4.212685867957126
 6.989260048010278, 12.840505670289131, 23.583234542141593,  4.279022728151235
13.642631718995291,  9.714987970709089, 51.201138147164549,  4.023361412409778
 6.147224784830967, 14.312740543623464,  2.126741353723256,  4.181718366034458
 0.041523453498630, 10.104881316478966, 41.313207911440394,  3.922525749615008
14.367972320076607,  4.767804126695810, 74.849885345405610,  4.304786695521599
 4.536949600716811,  5.701446817103032, 106.602472189876309,  4.120798075540030
12.185377646143728, 13.152388262777674,  8.379186417794813,  3.976874418023809
 4.345043777654373,  1.228318203291994, 20.791704164593273,  4.036828058767341
 9.010989255153408,  9.714148277336717, 21.679999724320218,  3.990347298976120
13.909494465901151, 13.745426715038530, 12.133514800555581,  4.266553888650193
 8.447998923660423,  2.331938610377550, 36.308428765789827,  4.516875743399561
 2.546150843794228, 11.319839866154290, 65.160939415888265,  4.227278350911593
 5.149860902840300,  7.423700025789532, 103.021187354384935,  3.714373196420176
 2.136882120164481,  5.566902083884778, 113.826007375871285,  3.940127497649652
 0.589748673173695,  2.594134206282311, 78.926321352313167,  3.801826360793649
13.368835251244413, 16.106949471293820, 55.289219787755840,  4.422206389037303
 9.661126179274406, 18.247666438394646, 68.036202171007062,  3.941172303295462
14.633360484681130,  1.117448435638621, 94.795793359159205,  4.109575868342523
13.469082871475511, 14.353690367394714, 106.135201083533630,  3.943027599330283
 7.245696311918112,  4.367392044099009, 87.719330146268291,  3.587997310869085
 6.385860006448318, 10.735953970568886, 99.674870701318113,  3.705876787092126
 4.353083758377962,  7.477954973993410, 28.521661207016834,  4.236288597271457
11.521782123126142, 16.554882730545543,  6.060146256114156,  4.014077073263668
10.803818723599175,  6.322991933483879, 12.064117076326268,  4.065636940304041
17.443585019450627, 10.400425065521704, 17.826117877109368,  3.827740200642502
 7.872301689121622, 18.763098828815519, 11.451681819740614,  3.879851511270985
12.008578595549906,  9.956568411454686, 88.758671550820466,  4.045375519422254
 4.472894249208999, 10.562942358793869, 91.787269764412528,  3.732626679276843
 1.958800613932160,  1.587085241276483, 113.832721993160064,  4.004186304682208
 7.506414484610030,  9.695993465220255, 30.215267444182157,  4.023104920360618
 7.514114119986728,  9.202631595832429, 12.135425330954531,  4.346316593778459
 5.662852846683668,  9.613828199746173, 106.202376370610352,  4.031530522923649
 0.242866622615441,  6.519058897129198, 117.288290597917566,  4.172581116231830
 4.619047885932873,  8.536031317982694, 57.056965426413683,  4.419886513705119
 0.756568592760443, 14.713092674508696, 78.424336464535529,  4.335738301293776
 1.014081230675706, 16.345558513330026, 29.375212306783634,  3.868750288229787
 0.176214210027457, 12.227080613803176, 88.646158576576852,  3.993623373635910
15.999627012893706, 13.469437289291589, 100.215647718591839,  3.645990846880656
17.855870946161410, 15.874982293967944, 41.144271737105839,  3.944468060763054
 2.222694888041656,  8.899592415775995, 53.399892094119089,  4.009664345799783
13.247042789290393,  6.199194978485199, 57.919303464099436,  3.934344129669964
 9.485076965446783, 10.156615037970056, 63.364910958566185,  4.114098339548800
 4.087035633722702, 19.019580711819753,  9.477262240386306,  4.177989792465800
17.368571220186073,  4.549675414820908, 41.492418699183744,  3.734198523734716
 8.987223934082603,  1.175268326958996, 64.564949461001120,  4.164831102905117
12.612726206796411,  9.771595497764903, 38.670882865384861,  4.365791395094742
 9.591823888016295,  1.642776209429475, 60.628218355689697,  3.752133376647693
 4.079598935126050,  5.048134443740642,  5.499970183685305,  3.728228978709768
13.816352510828521,  6.968012719814346, 92.389469326878213,  3.938282216171089
17.774643178314872,  7.852230345507255, 100.904265167310498,  4.202341126992934
 9.219340949415610,  2.925107698308205, 80.455217234472883,  4.260393397547903
11.450860153352000, 18.163032425481926, 78.291725255626119,  4.002335217100948
 4.414079729814740, 16.342638006339278,  5.253450658591881,  3.966194598023965
10.671971216048680,  5.330689522344178, 94.776234279911080,  4.208285740441754
 4.476525078038112, 11.105587877479559, 96.024803313308965,  4.199731905455536
11.283611962547530,  4.666767064810132, 34.498212162246475,  3.613972965039863
 5.744109589431819,  2.542629979152061, 44.002548140070289,  3.991174259475581
16.769274460013040,  3.141512905871745,  6.120618909633261,  3.982356757042148
16.428997545920833,  7.189142784785167,  8.486219461427075,  3.902525389449548
 5.411482380197018, 12.839586572359281, 57.760121617579209,  4.280830104308631
18.556971962811325,  6.524950821285453, 18.209520981034434,  4.265345179857865
18.406884185322092, 12.647366396028822, 113.902125929587299,  4.126996068195237
18.193684310107709,  5.106267577100681, 68.821095005153282,  3.954959759990498
15.900105892452030,  9.270734419824517, 89.312184687544303,  3.920616728664392
 9.375085141036768, 13.602203495687316, 37.106684220479146,  4.226560290717301
15.044366685971749,  2.419752393237992, 51.224608787596139,  4.053036275363331
 8.423196539828076,  7.181658664325212, 82.202406676080102,  3.797857990244176
 6.314928332749618,  3.895432208099927, 62.857822022521724,  4.047310245133118
 3.250702378623558, 15.802173900985077, 32.530550374706735,  3.813852746356312
 7.534647517772308,  5.633754030716637, 110.910415106123679,  3.780555695598602
12.148773880913390, 11.593510246828384, 19.703771803226442,  3.897330849303265
 4.358152183112929,  1.707659386918736, 78.818983168858679,  3.669658333092205
13.030456674376028, 11.020083570456254, 70.424207599199008,  4.012961314645292
 4.577496038692092, 17.813569174171004, 44.884015972250310,  4.114379398400895
 2.211020521392117,  9.925010928723383, 44.959122400544665,  3.745323305170599
13.546979099050033,  4.605340072708069,  7.773928644062686,  3.769122585781695
12.178309612206592,  7.679417473693944, 28.294104645069716,  3.988529061158240
17.752445556762076, 16.661298978433109, 101.079439009263126,  3.686964170848215
10.008027385727306,  3.136868101567683, 49.185644775604629,  4.134453639698176
 6.046100764647517, 12.067747953274194, 109.651432037808945,  4.444826921419949
17.304731402855754, 16.077106178985961, 74.632731192950757,  4.518255515731969
 3.819772005301895,  2.247485048952008, 71.764300587627076,  4.379763345829054
14.043080197724933,  3.215299328168969, 24.690588548087639,  4.011828632504407
 1.404302257306784,  6.110539185557937, 35.402730717270302,  3.736507392749131
13.365991314366818, 12.235146628366463, 74.755355919121556,  4.160209733533306
 4.329813221038328,  5.736324297069081, 54.119944094415800,  3.660814564227873
12.039670858665165, 18.355573333692259, 92.397843336947190,  3.811396493379746
17.584559250851076,  7.043297537587630, 91.859217357008419,  3.581772138492901
 1.806006455877448, 17.608355489449998, 72.685403799218889,  4.189638798003894
 1.662473070750221, 15.897321230784172,  8.135217173426463,  3.957840755450495
16.070378209813594,  7.289637836742946, 60.891865386918766,  4.496660164262799
 8.469191428544100,  4.007652803391303, 107.383117923049781,  4.052841596732557
 2.782154972632191,  1.640515717432773, 60.855600646413102,  3.970368287537601
 7.799645922045932,  1.486404632659848, 93.144684301419986,  3.511836100684650
 7.209165407056197,  9.952741854695439, 59.946671567541593,  3.779985404982482
 2.286844189574115,  2.461795550875168, 53.426548284341038,  4.001041381876322
 0.277483193492976, 11.871744305966494, 69.448312345530937,  4.208148335900323
 1.861103401687787, 18.531127310100800, 76.796992573881369,  4.202330219184286
15.182431805554792, 17.173161028196720, 67.621091320364457,  4.083000952391713
18.625312151421568, 14.543180265129287, 53.305783896264160,  4.165511543084178
 3.134058454842616,  3.577162623815938, 103.480476930343073,  3.935855750657936
16.948474423727749, 13.672912383820504, 117.462220817778828,  3.806251229418192
 1.306797822125379,  8.414587538705064, 82.092626077735872,  3.921964626204634
11.487930750945559, 18.169990889812730,  9.774340274016692,  4.080736357938783
 1.304800009370368, 16.158319537514426, 46.491561217944067,  3.786223104348407
 2.349712660945462,  6.934163532292922, 40.108759094156831,  4.176006174694022
 3.207951234189034, 17.903297228994653, 83.742855562564344,  3.769858275053296
 5.615763681627185, 11.789255057733468,  5.267823578370096,  3.898941386432587
11.874514690535523,  6.486020191285200, 98.738970720105712,  4.389294090850576
 9.978170398218641, 14.744846706013941, 11.314750208396044,  4.005371226761806
 9.588025669905875,  0.978730788596251, 14.729930622249608,  3.973602583454677
17.131011504609138,  0.505215021978184, 48.026671339304677,  4.085441398310377
 6.379474801809202,  0.432776682431335, 16.983748205899737,  3.896117388628597
10.008140075495227, 13.066561366728759,  2.042185879209641,  3.899596919543988
18.836562879535919,  0.220413224914658, 19.851098411696622,  3.862194053894481
 5.999619390933523, 16.525301891798353, 19.642545710425686,  4.165767618983749
 6.963694191032140,  4.167626230745419, 103.639584786168555,  3.767631492674266
 0.013679662173174,  3.736109728899614, 50.052730201401303,  4.509113052785632
 8.612108745886353,  6.990846415426749,  8.665607240042343,  4.111758992664884
 6.987739747157907, 10.299672076856215,  1.909293512970371,  3.791086891213762
 4.278689093086892, 14.839548694790100, 16.234278515458712,  4.028575002571381
11.615583863711214,  0.408292390679694, 21.514418716889256,  3.903890380873975
 8.078539335030159, 16.206497951031370, 15.313934753091436,  4.214294660146424
17.796752412835897,  1.971882798163464, 82.600773509578943,  3.936671563195213
16.775745736314200, 14.128133147594570, 103.916151007738932,  3.834102894398237
18.531760501616333, 15.011903984149205, 11.262358830175334,  3.854250339105475
 5.671706830251273, 18.647976659156917, 68.163056298640768,  3.919596291277329
 7.730444897777325, 14.344627866672502, 88.581186882587843,  3.978784389539768
 4.146186914453361, 16.486744669597986, 59.392828870195622,  3.921007117282949
10.369856579059320,  8.331655981010078, 71.502962295273434,  3.802947352329027
 1.703519164268095, 11.239323465659346, 110.781400529161729,  3.954377003425815
17.315068643703579,  4.643013450244889, 114.085173805037812,  3.955554847410563
17.479333963653659, 11.316687733313437, 12.875169478758799,  4.343667173570981
15.562048679653682,  4.953285009216465, 84.561923144640815,  4.197228861128275
17.841002153166137,  5.519747581711428, 25.359215542738365,  4.206106079169972
 0.017479939684661,  5.678850515269938, 54.102021051594193,  3.916116482195365
 3.606251856916749, 15.181917660648784, 26.613167083831510,  3.901290068832172
10.323106094612273, 15.861552215738255, 44.260763474158409,  4.335047876473307
17.470252554846610, 10.935910600125192, 64.767596522464160,  4.086456114286134
 4.415850635312522,  1.208443943202175,  5.583509392707697,  3.874819864592220
11.010841694379817, 10.729421458170625, 77.905029329850848,  3.857590466909298
 8.006216309870757,  2.000464403182904, 70.511151285440675,  4.247980137538857
 6.584902926994067,  4.720048622667090, 47.517870483374288,  4.034877488979207
18.937882686825798,  1.434786973928101, 70.437863535862135,  4.156306418342613
11.565686487723402,  4.387238950720947, 70.944868492593329,  3.963870444687295
16.088320674510349,  8.681116723160585, 28.935198931388282,  4.140413427763777
 3.521220039486471, 15.781013141964589, 96.568701393507297,  4.002892862373546
13.522230313887338, 11.010930418750096, 92.443160885286360,  4.143971501946652
 0.162476015731980,  3.621893401286693, 91.674966039452670,  3.990782324415257
 7.967616063670867, 18.737779516271665,  7.270899808892874,  4.439684222035745
16.293051389456163,  8.665614052003541, 94.957218239336996,  3.848759691686019
10.090027630593562,  8.668249536005209, 57.300703674217374,  3.926879580541099
 2.037897683833174,  3.351758283690926, 42.291704394029409,  4.172370217086711
 5.198458072273250, 17.304450661180645, 88.641319458628473,  3.800250337753329
 2.462116735977552, 14.204188502222104, 50.460642524488009,  4.029351587536262
 8.656952413817530,  3.295991288430636, 32.224671332937213,  3.774368613570890
18.101056380062882,  3.995070047711431, 103.486768109542155,  4.330741314218367
16.373981119435300,  2.349343910785171, 107.123236686285367,  4.309710413382990
 0.195981898264491,  5.401701647958876, 107.309628091971319,  4.125379002219088
12.838733323276674,  1.888408991862729, 36.649618300141803,  3.878054503392445
16.226064789864097, 17.869528020807149, 52.634631731587532,  4.114523815566694
 5.630592451925996,  3.711376585742754, 39.716544013197804,  4.284529788250992
 2.184497419851515, 11.771905555381824, 84.247913615687594,  4.073582784193321
14.939384467804787,  4.862947255427287, 28.169437245712690,  3.848243016999274
 6.393320694195527, 14.641580497600728, 51.068720920935441,  3.816516357309926
17.589886717433796, 12.955428713349987, 28.082128025942026,  4.194299443805773
17.642058755821999,  8.603762951876748, 114.209545342625177,  3.989588145787487
18.449020982962235, 15.820298566946809,  4.744713464148633,  3.824990848207068
 2.574086696326525, 18.509786917472155, 117.261752057952179,  4.179351282074975
 8.811546341514115, 18.503791123655244, 113.807082169928108,  4.030215845867215
 5.675303400768585,  1.824249309999858, 90.081384665411605,  3.930452849977246
11.363734783984331, 10.679120810658265, 30.669167039370986,  3.822788727454836
13.303299616201897,  5.115102977199624, 81.047024023688195,  3.936671394739487
 4.187572274221638, 18.703459578334279, 13.652553877169588,  4.196692012161180
11.066702634273973,  8.536806698234475, 15.474088567113483,  3.886782392791240
 1.394848639116431, 13.485689094351539, 73.310030001156733,  4.114575131529637
 5.623212658277725,  4.831758055847214, 80.919939338287278,  3.806731472125162
 8.690435807877682,  8.803278345466506, 108.812057453279692,  4.101360535042241
 9.977575464706119,  6.632857164786856, 88.974771163799019,  3.732813966209089
18.830048561125320, 17.540614376625392, 33.495723250150775,  3.917044962298558
 8.897328632439748,  7.309361716919999, 105.061908030735978,  3.972880517281740
15.780219545822781, 17.850666781188409, 12.533818125701103,  4.308700080185080
 4.074598474059419, 19.056149663062335, 40.988448991241413,  4.096597241196427
 9.126663732504603, 10.297332502748493, 33.779497181694154,  3.819855390257869
11.217604657876937, 17.360156111527292, 110.689923179781218,  4.164504392851064
13.510015202282473,  2.914839546839640, 60.370688588906603,  4.264501559357188
11.385292199935231, 13.681346713815179, 63.474219501539530,  3.871912604976686
 3.563591424913696,  3.432136158420867, 117.188182428410229,  3.998010149647746
10.549257252887784,  1.769760972867180, 117.182023830914446,  4.288038180877815
 7.056686739504385,  1.105363757899035, 109.920114090764031,  4.102865559766084
 0.991914665547618, 13.247942800094776, 38.968236202095987,  3.961586069836104
11.726736390365510, 16.991930274083757, 30.685129678064566,  4.080737111309300
13.093875762977467, 11.193595288184286, 66.134107144566229,  4.144945157869528
13.783642657998682,  8.296196513252363, 18.429766603341839,  3.868527154477812
10.448420666333950,  2.550843915461850, 111.785083415437825,  4.060582486917625
 6.804709635051397, 15.878020851231353, 54.902117511331639,  4.067320384679136
14.279438912661927, 11.105797781712161, 62.106005583792275,  4.224425551501708
 3.611597761097564, 10.813576262948091, 22.312348963461588,  3.985740033164527
11.943109644534056,  2.466535417923914, 83.450731843071580,  3.608639368044844
 7.118690114575481, 12.432793587846019, 84.989387829348800,  4.172593843500567
15.307021170875762, 18.348384229338741,  5.565083695641962,  4.404723935756110
16.645002259795096,  2.982938167471283, 38.136490457363742,  3.699320215789332
12.583879715709111, 12.276284298456250, 34.649872466469226,  4.214557151438828
 5.628910628729650, 14.038131152523880, 102.893816721942926,  3.950104605092713
10.792141799655946,  3.127294550203636, 57.176415397077761,  3.990967676990648
 1.221117763437795,  9.076359896386549, 94.065787825634757,  4.265707375497208
14.724219271031620, 17.395226412356287, 18.980083819160924,  4.071034261873877
10.805041290781350, 13.826096102041818, 48.658009889186879,  4.116426928809130
12.575203424391589, 14.433687139727320, 17.147700086499984,  3.788676707899127
14.249681625793796,  5.126159826627384, 67.606500510954547,  4.151689491736123
 7.945793809870286,  6.322566417872173, 69.198640910870424,  3.824631933099359
 5.333499411930304, 12.463359465970175, 36.868339248120989,  4.051917572084972
 1.105831880159329,  1.386586319578402, 85.836670242543363,  3.928914502109184
 3.714119256066050, 13.879428044187055, 62.249925682476139,  3.860061990477392
 9.703942271425587,  2.103427595808093,  2.124054025021772,  4.208060286858286
14.842542576420142, 16.089976256191694,  8.972014468808087,  3.816737996559354
 6.381921418549274,  8.727121057187256, 24.847772138946894,  4.312926966196669
 8.622306308587129,  7.689137877757759, 49.349874401690101,  3.962828135694278
 4.620194588923630, 11.465624745469940, 117.314778653313112,  4.055809738070181
15.576507469018546, 15.791135849628740, 114.145110457406076,  4.190619314903033
17.173815165399986, 18.959983392677486, 91.877137838383959,  3.986292106610837
 5.352458713772593,  5.220594435843253, 99.600543168632854,  4.290354040861228
 8.361049364166961, 10.642466351637713, 95.252459559912651,  3.613146833366273
17.755400892115002, 13.597505154295110, 85.059083373532346,  4.017069738354783
10.544234526713399,  4.660050561068181, 15.638275193094993,  3.822847643599780
12.581627906514962, 13.788690831555268, 98.360506874288205,  4.037975395515444
17.521463746142516, 15.473585567830135, 61.363247566723281,  4.069107902490058
15.574410028296910,  9.953880361072605, 117.371101910193019,  4.007489437170658
17.973499094907464,  7.356207323347525, 12.033645478337638,  3.797832937044612
14.046234294457159,  5.834648643937136, 32.088636044232167,  4.057010873809314
17.980508299276288,  5.509972969831439, 80.878069926296106,  3.922908367445188
12.759762780183237, 13.140119256693865, 102.369055807729907,  3.968985827399491
 5.795642484590608, 17.484286272822839, 71.962947699730506,  3.907090401217834
13.704148833073367,  5.656183018770744, 37.809596399808093,  4.173715678018254
15.158107022896676,  8.117774957064043, 47.857935319356173,  3.884361766251129
11.480496905994299,  3.871061307036048, 29.660306975344128,  3.924654529703374
 3.295030179932962, 15.247664012034711, 11.758530849031693,  3.861949661715359
 4.787834470291409,  4.344985791104629, 35.646054297942769,  3.863340084164160
14.201685652906120,  8.972463199186144, 12.321728183806950,  3.657598369016455
 6.187267721366623,  7.830138382425446, 40.158988068452835,  3.601441436979406
 1.509561380992342,  6.641175642130827,  9.459602820098709,  3.681841060456927
 4.946195637044241, 16.478313249858346, 106.887512842458790,  3.913587534037632
 3.605236194157754, 13.668895118027660, 113.917874426600406,  4.183061725422596
 7.952465270099911,  1.004825932332411, 101.237282054760001,  3.701806099660708
16.691114765091704, 15.573076589261172, 81.221317206958872,  3.983571533457491
 1.370378888930095,  3.431433739822646, 38.277171296034943,  3.956347891176716
 8.440911467414709,  0.937965711269937, 87.713032572387817,  3.562557727178838
 0.892514059959913, 12.753309090122322, 15.884051172057857,  3.940762014941332
 5.915935521366115, 12.677423361956004, 32.722118021154579,  4.237375560244087
14.445476225357277, 13.416001529908387, 30.906253381488359,  4.074811608039636
18.945789407944048, 14.461052472418848, 97.944549848944220,  4.033441117677694
 5.504181393874313,  4.015926737895105,  9.298616539047556,  4.206322135255982
17.449177357132140,  9.987737262816893,  5.608170461525822,  4.347517914988346
16.884621395857142,  0.454545173641725, 97.893586638920056,  3.618591017038655
16.083951752461925,  1.848536663638870, 32.108707502742867,  4.065435240349222
15.576871731652625,  1.072775673588509, 101.600670397355273,  3.813991387002865
10.652760978392061,  1.306430425865265, 95.470441771275830,  3.854475893339606
10.175179311741376, 18.143799924874312, 47.887242526333367,  3.809241013507397
 0.833215173774905,  8.167724583935041, 63.035397615958210,  4.057741805322225
10.592129200992300, 12.967858042315930, 90.727959565452167,  3.686812887090621
11.506858604875541,  0.516293981812371, 72.350139565311096,  3.897016785700767
11.818246287332490,  8.196905165286200, 60.840718554652682,  3.623004107374773
 7.200530335863875, 18.686520691934867, 57.848729401568079,  3.948416188011202
 3.173850134226367, 10.416899846976328, 60.511522627023623,  3.960195827887174
 5.442930584217165, 16.553036397425686, 23.596073721688679,  3.602981948431627
 0.632328019456457,  4.773853430058414, 72.697007437562490,  3.943243877855523
 0.737016329406940, 15.977450998096085, 87.500255142824201,  3.891877235339318
 2.920901825601359, 12.779661212931815, 106.814383749363301,  4.058740024939779
10.900469560389137, 14.389159399233989, 67.616429954257327,  4.136526516841036
18.282034354699871,  9.708784262335213, 25.620111285228987,  4.023372524384494
 1.516147178962035,  1.581750857729940, 107.048604166616784,  3.948795110060174
 8.246536168745887,  2.923159606102616, 84.424781233591830,  3.876152296101818
 9.599793625891236, 16.825219184405892, 117.386347122173177,  3.982711677307468
 4.383550439696699, 12.294696221683392, 53.559578648027561,  3.990169499133796
15.723241535052850,  9.039863502416274,  1.935051973520371,  3.785917233889855
 9.949240139020761,  2.096456661159159, 44.981793744283536,  4.472888640743212
 4.457043769326370, 15.116585471550090, 39.869546982848178,  4.102510139122993
10.093976779106109,  8.682899031150090, 92.384259433096162,  4.096604008568958
18.666009688319598,  8.828229251815770, 33.249572725429189,  4.055521427154700
12.955944790684345,  5.825998378384484, 50.404399845694435,  4.029833726428983
 8.142687240681113, 10.269657128102029, 67.307447100554995,  3.572716078031250
18.352562169055641,  8.766830284798910, 78.730518040964611,  3.900124181223994
18.071230496249811,  5.363292479742380, 30.822608640565921,  4.399680450028630
10.121852671647199, 17.600314241221508, 98.412383441539589,  4.272725160844332
 4.757001313974106, 13.692055679226996, 81.981445310470775,  3.696362904494251
13.784355906861549, 14.819617314589454, 70.973320481817055,  3.758346992056501
10.196280414712147, 10.479349349718957, 98.718917696041331,  4.127067504351484
 1.222837127041577, 13.263109014693345, 94.351549184622257,  4.010992632284813
11.383778799467517, 18.396081544905559, 86.060903492057889,  3.794222704415250
17.007487819585183, 12.237018081093840, 76.673886362063485,  3.976202485684065
17.035038780788756, 18.380771527831950, 78.208710128417948,  3.931402689758256
10.232314635285414,  4.755121881401460, 74.629648968048343,  3.895702770983366
 4.202041602988537, 16.748919566489036, 79.655360561272801,  3.985127722032221
18.248983090100040, 13.532825295039711, 108.397574031418699,  4.227347791671512
 2.790841702544520,  9.986283525007410, 71.963717359066763,  3.812546437656245
17.541508103455712,  2.129717125439659, 54.341533045045907,  3.863469881595249
18.578113142239030,  8.243430426555369, 71.139985831915311,  3.824395270361418
 3.321723020273442, 10.766244537768241, 12.353224781645093,  4.188643647749238
 2.979771332948910, 11.347081769269659,  2.160781456929922,  4.297331239155689
 2.706403798774584, 15.088352897492680, 110.141239513536860,  4.033852206593381
17.073623815656092, 18.339175457458243, 16.177393853254390,  3.455545678413196
16.106523537361440, 17.120390127333078, 87.847540343500157,  3.765607897579458
10.454615197968081, 16.109029219511125, 103.954480107159668,  4.189799389538626
15.681637226803565, 13.563978623577171, 19.181712510607198,  3.821652887891697
 3.221021995728906, 19.045499385717825, 110.211054239635146,  3.916020172400061
 0.820559666320552, 18.683387789112437, 50.948648760064088,  4.120319123415335
 4.584502491317259,  8.301912149417177, 36.607532401498695,  4.208819492424700
 6.339005152037577,  2.036560731086130, 54.562110193405488,  4.111127889945014
 6.035454594072435,  8.725234252110708, 52.178789334784156,  3.902793755535453
 8.850051068058477, 12.857845267781354, 116.336434702853893,  4.329264471730982
 3.002206084791521,  8.280277925038545, 85.778058129569359,  3.719148723614935
 3.024458837548623, 15.039283716038165, 69.503180103326073,  4.143020185741618
 8.369795167351022,  6.330043296777037, 28.186209971134076,  4.009743349437573
15.078400701360229,  6.622915479375554,  4.856389286562435,  3.866862873456106
 8.253131867797523,  6.679548453504508, 65.069914281773961,  3.982460616814925
11.131197803554723,  6.096294022639923, 117.420922180199909,  3.826539614451594
 7.434781041278747,  4.514031782856259, 117.253956199933057,  3.982939642938425
 6.367885411259953, 15.984343688528337, 35.180604889822717,  4.016587360041188
 5.197167404574691, 10.865808683400923, 16.089703695423314,  4.113900793053732
 4.370329476149069,  1.243001717504108, 99.914071599557303,  3.855694829994156
14.154107772431503,  8.510476864690487, 85.772307539908113,  3.809054951839937
16.493267007322370,  3.996832143672950,  1.945751112663856,  3.883696980425347
17.579731829968960, 17.627098010775658, 117.281819703790887,  3.946450080601130
 7.509140483988848, 10.637030276310261, 55.134256964062082,  3.694024012527379
 7.732288664712081, 18.584480633386558, 42.512349841482049,  3.858659023451601
12.209581036001168, 11.229299381190222, 23.704043991083161,  3.982699041987762
 1.635682006649187,  8.414928789883115, 89.730948220302281,  4.393667751367833
 1.784657296152334,  0.162367616031632, 89.872218002333199,  4.439160653239188
15.336046046890669, 18.515264200845174, 71.551760165083678,  4.211877565166257
 9.662604257551850,  5.781149209118208, 38.681126489986227,  4.095095951279052
 5.442158786509483,  1.431623926882356, 106.090532303237609,  4.138658765435200
17.935279798693987,  3.890515057919254, 10.160076046529465,  3.885642264643828
12.187114252371616,  8.257002510858545, 34.864364700793942,  3.801254881155006
16.853865967397450, 10.503009154356645, 110.761301954400992,  3.948637432682021
 4.023413128529615, 13.392381196718533, 46.637063407031256,  3.742083298821351
 8.284586391827636, 16.566101903149082, 75.019378399109755,  3.688722397993445
10.119171352965108,  6.736310297927801, 18.989841632143996,  4.050687916460017
 4.306326961288353, 17.504768862574014, 49.104133585514191,  3.985188279305815
10.609444828521912, 13.961222617318676, 108.716357036957604,  3.783177952219320
16.280712313241089, 16.888767370379433, 107.249136041093251,  3.876315363714044
 3.786314432882429,  8.929869629211133, 32.480546769202405,  4.123159232523707
 1.859550462359247, 13.672941660082330, 43.133056581467109,  4.499704682534604
 4.782219934360692, 17.734011242985510, 113.803556121610910,  4.162772460907203
 1.401259559966489, 18.501312298925637, 67.181090656793458,  4.118743749377816
14.512967252608515, 15.028139313987424, 92.276025883546168,  4.021822164840327
 1.837660970051822,  3.237804178702695, 18.339517890226620,  3.839927909195668
14.700565522225954,  1.794726914822550, 117.350960406325640,  4.000479817782463
 4.800768403407903,  4.947918971004110, 84.810551073765595,  4.082342188101042
15.355861967218779, 12.091886085736123, 54.122295768082104,  4.160906424936560
 7.331447475989584, 15.459270114097095, 47.203067503112258,  4.083500512038397
17.564938792143590, 13.714722292568091,  7.829029469518296,  3.713645551335412
 3.532450139474429,  6.400908304920017, 70.422185455226057,  4.113036578595874
 4.191471731233224, 15.921098073973114, 65.612686229260063,  4.032177202892567
14.501925243485772, 10.946884851597552, 57.956790646728528,  4.001086009366877
 0.527856875597676, 13.444226256326237, 24.374590101253226,  4.109362836497893
 3.546672073872981,  1.567913565266633, 93.630009399008742,  4.210724603003383
12.147878609466540, 16.165764901646000, 74.394124701052178,  4.083209422155440
13.346846310548068,  2.440137464213970, 104.383673120043227,  3.821525924626700
18.224773629639529,  5.414278517153089, 76.425639964502409,  4.025294605420092
18.842378464349782, 19.076552780838632,  9.799933443723981,  4.132910971809197
 9.119522783866069, 12.247303305744579, 74.477155738137412,  4.245913622372265
14.637734459909160,  9.755195116534731, 32.407083162483787,  3.681944911447632
 6.833855944034915,  0.822030105601800, 47.381914279073790,  3.773059633281215
18.182487592216230, 18.865087737786045, 104.291903389949397,  4.120854234581021
 5.864713950544489,  6.643194331141289, 114.288322731924353,  3.836648615984496
 3.497527214239988,  6.338092444879911, 50.234870331419337,  4.031650425245082
19.077417365942395, 11.186476015464388, 56.047969385059346,  4.287190831171347
 4.259907821145293,  0.746764615068972, 64.541046489226915,  4.091120686854695
 0.054124647761945,  8.183441798838912, 48.335114848557573,  3.955030559166201
 1.228668890529944,  8.240473636899171, 67.578358071933337,  4.023246719846601
 6.511762140417373, 13.445300797089169, 78.212202014513835,  4.157592402678010
16.223474257473672, 17.173669610348856, 30.281199255922946,  4.266178064273900
15.156991947126551,  6.053027766394171, 21.639964830127610,  4.026269609580258
 2.839007947812187, 14.426361936039452, 20.961938014152341,  3.816253684782204
16.390921610097404,  2.681647912772444, 13.528527743135617,  3.879474231446829
 2.459520973662479,  0.063064175930106, 26.818290904101488,  4.268619060665721
 8.055508878858520,  2.038262862572455, 22.149118016658129,  3.925705037948596
 5.564128182916621,  9.071286653563449, 63.364864825748448,  3.943390444713141
10.370182219091669, 14.285278080636711, 25.208156878070849,  3.722791642374558
 4.911596661386461,  8.235283729747486, 46.998038679667047,  3.782481899577336
18.271538076702669, 14.099255563171823, 31.828890879214264,  3.734016479968870
 5.883025196414491,  3.278925075778055, 58.838191927126282,  4.098130866554035
 0.430893099445014,  1.207046310698313, 100.644941737400970,  4.124315761402454
15.499070942726897, 12.039593237491493, 48.460157021827477,  4.050059517541573
12.056081288718687, 17.258072780952350, 65.041977326038733,  3.625187834007799
11.497317024219356, 15.440819641468638, 114.214449798751900,  3.856214100473506
 6.580171825549987, 15.648146530110049,  9.642500376953626,  3.770011606555034
 3.961406767150472, 14.850895500489525, 85.850236552896021,  3.658212532900736
14.320787595266914, 18.086597381883863, 61.898617373656720,  4.224725246162312
