BANDS
8 8
NANOPARTICLES
cell(1), 19.134
cell(2), 19.134
cell(3), 119.587
 6.312527871234703,  1.959895149581107, 82.266714948732783,  3.915732688769806
 2.641407900110611,  5.065873685590708, 111.601337935606878,  3.795712870161381
12.170692333602659, 10.933720109637445, 24.156416804791515,  3.723678492522954
 1.500503302583663, 11.123692134624415, 71.770325016217896,  4.429243893740290
 1.432066773512416, 12.932939556293066, 50.352189636974309,  4.490656184044018
11.516444367344427,  6.944558382196993, 49.671839378406524,  4.254706429763072
10.391297038222216, 13.310482160269325, 26.610094769271807,  3.932903544718517
16.031612118185958,  4.372432313837738, 54.654241016366299,  4.020212600205662
 8.872460928139839, 17.794071323967358, 21.882322243781662,  3.883811843541162
 9.903381936177926,  3.325913853993719, 48.687037480635574,  3.902810529902647
 3.286785816614598,  2.383030616620632, 56.516073580901057,  3.661973210008158
17.444001604836988, 14.549805159417014, 98.314993244780638,  3.811205376346857
12.045766032722572, 16.251677783921078, 36.421153890840010,  4.009210108696506
 7.714592727416265,  0.588304322747214, 62.216935163237096,  4.186346045622617
11.755682699100070, 15.614938613602504, 111.601467653148035,  4.418215805390715
12.998022975268775, 18.687259124064969, 114.602832317486616,  4.493058371963758
10.798488012980973,  9.694113982023199, 79.566235496368265,  3.833208557053384
16.573972339659971, 11.172551720273837, 72.844845385635537,  3.800092744515501
12.476156373202270, 14.154261238497009,  1.865783873413697,  3.467529702601698
 7.949125285529884, 14.416302046688825,  8.633232445576686,  4.176026800270224
 5.821343312488908, 12.365573930722899, 100.741031415511486,  3.886261944890612
16.052340580427316,  0.570068478871627, 56.079305407998064,  3.864410870312652
 3.525990495095534, 11.868287463134326, 20.282887666243290,  4.044076285673020
 8.755995224330025, 17.880131715414951, 34.382880413337034,  3.993665164330236
11.450015499896226, 18.810439714057821, 103.769556921653333,  3.985671212701396
18.178548367101502,  7.713961327932602, 55.024486562832330,  3.928231462476429
 1.122702164630353,  7.629875368982706, 15.022983899601707,  4.393073002548084
 6.073193723802855,  6.512514455035742,  2.351998459703748,  4.140886352449945
10.001032702506143,  0.983949202728152, 71.949136445714714,  4.011525760189894
 6.438041142442128,  3.263342725666198, 50.558067801981842,  3.909231822736538
 2.797443267341592,  3.312020380485102, 16.420297552646108,  4.093339104488271
 6.006948889045624,  0.062450712052423,  8.128791914273101,  3.917772508455244
 8.284014677892069,  6.292090129959318, 32.276171583903341,  3.693748922775206
14.412642525693929, 13.195052286826744, 75.560333359631045,  3.759402507773756
 4.190378372874629,  4.492372864004427, 108.070462444290328,  3.928102878017060
 9.451282294383853,  3.050959211991664, 37.187632688501942,  4.168292136027420
15.554355995973568, 18.528531396974284, 87.692520531206767,  4.205224391744173
17.239201255307467, 11.806617806140048, 91.666111349922332,  3.785643204527508
 9.759767575190034,  6.199510190939161, 15.078504443708919,  3.670863274024396
13.769659556071502,  2.444293726634725, 51.824778987679622,  4.077548728572624
10.844906350791115, 11.445017247172480, 105.156127555980561,  3.597777246131577
16.911689728306293,  9.699616643678599, 117.690290161272031,  3.742990666261810
11.481822926191771, 10.874934138875343, 29.484496088665626,  3.856675238878623
16.414571881766481, 12.797788619034849, 51.263759590156788,  3.975533563965614
15.556598234361839, 16.598906309853859, 42.980529921234229,  4.162273106074301
 7.087458307087231,  0.067343125258853, 27.481573730859644,  4.129954860627012
 6.076673672329267,  7.828067812857916, 28.361624221641325,  3.725214192622265
12.911320624728384,  4.001309949093509, 108.039168929637668,  4.082411817459201
17.890838354474724, 18.104738192207360, 104.096670192101300,  3.973919848533035
 2.118906574837799, 15.279049854323933, 18.328337318596695,  3.990995204650716
12.737824720873979, 11.329606092452007, 117.703209147769655,  3.664492721899705
 6.569386296590968, 18.284521470516474, 85.339044086945520,  4.286213439570592
 5.086785356594774,  6.226173549274745, 103.996150996875883,  4.022257726068549
 2.927159361695237, 17.911432433314094, 70.048872146197255,  3.918397075840537
 2.417665507405369,  2.694640239214104, 104.968983874878418,  3.820849625313561
 9.999922281060719,  1.126601091826273, 83.846862488994219,  4.117905057218107
 4.274088156446105, 17.499161808713232, 57.778463251138433,  3.808170338555253
 7.334605851746923,  2.797663072985837, 92.679634712829511,  4.241279843463020
 4.594645810206109,  9.763572908089888, 13.697941970391902,  3.860018945157683
13.228281350763554, 10.415349659773435,  2.070262682869024,  4.027095057670282
 8.265107363898899, 13.829803655158473, 46.443002048231975,  3.702231738635897
11.713106276028912,  5.578858778361478, 24.861420973699520,  4.065545323030131
 5.641322042185534,  6.019438569314754, 45.762740791894771,  4.060856675740489
10.338212509231884,  8.765478659328116, 70.174510794825835,  4.390760530357203
12.528636031127496,  6.140056177493064, 53.735105558957926,  3.923967095133187
12.618490039822918, 10.359679994084228, 86.401878941391942,  4.044302846779587
 1.523534553755276,  6.731953852028392, 105.907525707927121,  4.021174211502291
 6.720772981778874, 12.631926811410199, 40.726597222636109,  3.863261675348362
13.969082498381045, 14.543134465945821, 25.022135325405888,  4.028806729131461
 4.998944630250329, 12.866115270253003, 48.157414805940327,  3.838562250476464
 0.045840654576882,  7.599603045589432, 25.129410971537222,  4.000802524978536
13.301076027502054,  5.911862795244207, 89.263579236586338,  3.848955872966331
 6.828735588029446,  1.524657715762413, 58.133900646733913,  4.292689986444095
 0.646823136858282,  4.173092554835915, 12.740938497553081,  3.795286345147373
 7.544092115278981, 11.021840092720574, 92.386386183490288,  4.286112382557756
10.326918951861977, 16.571777442347368,  3.860614766916082,  4.042656652560061
14.786798253296890,  7.045947935329590, 85.540820069351255,  3.983926175164530
 1.520129309762623,  5.326656194058956, 102.077621746477746,  4.096958841930627
 5.296952600449472,  5.684831646372606, 67.548127299572002,  3.714062986519017
 7.434717084524022,  6.675093342669073, 74.864467207603269,  4.171259935465963
 3.304607507682138, 13.532968023484555, 68.738489606128255,  4.110108649395798
18.025117528052043, 17.729708061164629, 32.106212102103008,  4.189271392649527
14.275838281159668,  1.843563475913518, 101.956881526183551,  3.980735396705891
15.571933017791714,  3.873758092133531, 11.993822051491069,  3.926335566062427
17.735902998360061, 18.152329059049780, 46.071346936473056,  3.842602724357726
 0.414265665650132, 17.214540363991304, 62.532871784839834,  4.095643637752095
 9.794068142872600, 11.929431817697905, 49.373369660289221,  3.855273149479518
 9.054963766496828, 13.627353506048669, 72.813498630094955,  3.976675050032790
 2.744315215227140, 18.772709006605051, 83.764545378078196,  4.041235975380472
 8.672441386954890,  4.793736557095697, 62.190819429760147,  4.099031061821745
 4.514683556847621, 16.971332033581234, 61.884992994948341,  4.220053339717409
15.674546174486592, 18.517547099419701, 25.304945707906899,  3.881213171571650
 3.169484139920452, 11.985495465544625, 107.484447873322566,  4.181905560223965
 2.793045296492063, 13.190617397782766, 13.092256369250126,  3.815556943674229
14.208757578473659, 13.588547172081080, 66.888754271805084,  4.058754093088943
 5.301970320811025, 15.222730283609973, 72.128682013363445,  4.293093466470066
12.450625782209277,  2.558877260810711, 55.721307425879736,  4.091509805968902
 0.981726435037747, 10.721945929281224, 58.464182284590237,  4.313080102494084
 0.210131718778328,  2.239829050458871, 89.072422977658661,  4.183502763213279
 6.889095357367070, 11.580531584817143, 69.739753842945532,  4.288483698510430
 1.961523918251350,  4.948475867125773, 78.361517519534999,  3.929338313261695
 9.742338230614250,  2.249519834604878, 52.622404190193670,  4.136886295932231
13.752025779924187,  8.531058271412171, 27.073368277262954,  4.211358225940720
 6.665139915495909, 10.036579262829104, 51.216246091919743,  4.322103119085321
11.457808613206518,  8.199245089951063, 42.811081236991214,  3.814502131770265
12.417398878505782, 13.733231640793562, 52.075083098025964,  4.270548262426700
 7.773767037503428,  2.538180638308533, 75.010765084598873,  4.124605834697154
 5.467089247877774,  3.658078043727388, 23.285927031071285,  3.785721699589520
 2.283526098960404,  6.919778036051329, 87.512378384036126,  4.102598936890620
18.890337364856531,  8.415219105062697, 68.849170809203059,  4.208028890854903
19.017985951115026,  9.866941517408710, 88.870691659930557,  3.859968710016545
 7.484685950742224,  3.422961883719664, 117.500943865614218,  3.914038581288230
17.625024077317292,  6.579363585569086, 72.094385801109283,  3.651030124998032
 5.137232185554426, 10.208998342019083, 73.856894874909941,  4.140870922074095
 7.677884210712376,  6.917092775114967, 18.971678842339593,  3.735034794918980
14.998055133583941, 14.924951918017420, 114.193247952652641,  3.955837293360378
11.170221266882212,  1.662969425816674, 21.278661371208127,  3.754128098579466
 8.343198251472396,  8.426417376687578, 12.088560823804679,  4.303801472189345
 7.513311229855064, 14.692792071416751, 63.274533121851171,  3.769342375376319
 1.653968954666367,  5.346009174274088, 61.172109845277618,  4.111204931815407
12.035921600287573,  2.980622437115479, 10.776391752058984,  3.758233023590510
 0.009493962771458,  1.548722014475131, 117.542081715448347,  3.885086193886924
17.165283236941480,  9.941838755260614, 111.286469002936883,  3.782704328944936
 6.650664452308632,  6.853295762098177, 91.719936609087142,  4.184001226613720
 7.206949664815628, 17.739590982971496,  1.844674962892492,  3.629876910136535
 6.563307143989475, 17.889179281139533, 92.609784744499933,  3.964547872769794
 5.385645926367960,  3.570232982530594,  9.706171736009866,  3.784153549459385
14.431786429425349, 10.535980478626898, 106.897179860527402,  4.216163206814961
 0.836097369572970,  3.796068554990139, 40.261596391471599,  4.126892276366129
 5.467907666209616,  3.772028610448638, 71.396739552184883,  3.837667702996239
15.368636464962222, 17.223700384912274, 38.849301402191209,  4.157663913121248
 8.256670138538697, 11.648193898106140, 57.540348727987464,  4.075101296874600
 6.108891354032719,  6.324876286804318, 110.835353931410168,  3.734097412978917
16.783450017363595, 11.281950548176418, 100.487800314727721,  4.063379318346125
 0.772613342664694,  1.690022811265154, 111.332723706653084,  3.801604752349504
17.412201506470183, 14.795507560921941, 102.092960101395107,  3.754114357778783
19.014427975079254, 17.933491819949303, 40.828271579206046,  4.164660094207608
15.802257680785068,  3.172165536986638, 82.080472075684042,  3.893664407907337
 8.662391181934396,  6.723247179611215, 52.844548227954071,  4.031216635351509
11.655818734586173, 12.079760375489503, 82.738095608557245,  4.145855848511921
15.771932404916036,  3.092363024495093, 36.322318351556667,  4.045128400546782
 4.083479843290132,  1.585138391315530, 117.724244041103617,  3.639796843790860
 7.614002863119640, 17.171325527150319, 14.964506892119159,  3.842093575391656
 4.141428905136395,  2.572931870362782, 33.076907077259214,  3.686425810732567
 6.739149557638222, 12.405626446035020, 28.198581454026105,  3.825413251773340
10.893608463175585,  1.804809464731673, 68.100064648651028,  3.945496450206515
 5.836456181536393, 18.580751353992476, 31.393002487238775,  4.171884672990619
17.848937746088044,  0.294593297053957, 84.021498366098314,  4.125035662213840
19.005660502357902, 16.744790849970201,  2.272474469150150,  4.511357307850485
17.861543181554381, 12.118076190185860, 13.297965310130277,  4.218318287244668
11.957960918514885,  6.031512732301390,  2.011893242653712,  4.009546079835470
 9.940672183553790,  6.503983280551570, 117.719135474552886,  3.723595552619448
 4.770944561222521, 12.810005099505265, 37.266640776579258,  4.071306372529767
 9.990912835705858, 11.845560835250051, 19.159727657023772,  4.385499297955822
 7.961540903017847,  8.423427691794943, 113.383288585437242,  3.674013023890971
 6.928118278113210,  1.985028319718823, 20.020453439107087,  4.074702374877773
14.143253859043925,  4.377709644689687, 98.053135915942136,  3.892855790174397
 1.827513302104126, 16.352777479384276, 101.581227620958600,  3.927583326489919
 8.812467604851291, 16.310091031606056, 114.437310550660925,  3.849102621806751
12.343717793367791, 17.276600491575174, 32.621335493568601,  3.851815255584683
 8.394617582242875, 15.790196468658369, 18.535968423896904,  3.954987183731160
12.590113078889042,  4.305410152675308,  6.263635882131274,  4.096223300364039
 5.383100678478853,  5.299376251897733, 59.433363704422604,  4.097502022509667
 7.988624537096872, 15.838248937971651, 88.446974376009479,  4.071841488931519
 6.470429479074672,  7.564198433257361, 71.046031217348855,  3.880356642049392
 3.480000269546080,  8.873069283679600, 48.098027428329651,  4.480631554023263
10.382475930463475, 13.625757721658761, 86.207968819819868,  3.809839214581146
14.267215754145893,  5.801569504270909, 93.275460370436491,  4.215249613532039
16.034271328197562, 12.473989512556757, 82.072161617287236,  4.361979741182490
 0.081910232765654,  9.203546344031047, 32.305764452105691,  4.313851692004621
 2.108375341065021,  8.174685308730941,  2.110514498035982,  4.138963690352099
 6.653743663847045, 14.024075209384522, 76.186749306990691,  4.333830022155808
 4.642111933196076,  7.294781127437378, 31.846796760389584,  3.880621853582416
10.287612413116358,  8.447339181874117, 63.193206049035808,  4.077067973274265
 9.298492433196575,  4.741032925605706, 57.255089937725913,  3.991568498697006
 8.588137832092883,  9.832732369746084, 108.040665626600827,  4.152161957470084
 9.538982679509246, 10.253369361933194, 39.531156843439895,  3.886042744437335
 8.590815866977060,  6.915217735420748, 97.846512245734360,  4.219471441703423
 2.631561541228116, 15.851924981756721, 31.730689250950348,  4.071162441327364
11.768978165467999, 10.019670058334947, 46.443725446743194,  4.140114701589670
 5.880744417415032,  1.592918524950168, 13.556062460136131,  3.890036191041494
 6.183508784309288, 16.251811691824958,  5.322248287358271,  4.174581609583103
 4.863953550842672, 13.408551419357785, 117.639221534889387,  3.866132177879848
 7.414346633185962,  8.317507748444157, 42.290173259495937,  3.965971674134020
 9.645308964381126,  0.133134886989256, 111.916984031189926,  4.007162580912368
 9.355295044437623, 11.806285144176378, 65.003309432477309,  3.690483151042576
15.046727750120654, 13.173374451901330, 110.252589743913219,  4.203812893711412
19.095649812337498,  8.434268693165599, 44.937810593088187,  4.109375014324845
 6.253783572905429, 17.118895260089246, 111.493763566014408,  4.019259640897599
11.072659497310447,  9.881679532563169, 52.485716112628829,  3.878441439481851
13.455304621377072,  5.850151551222369, 14.539950777656815,  3.628255662261321
 2.406448123414581,  8.726439413191683, 81.731342647314221,  4.253800153836046
 3.147991345120715,  4.892768122196149, 49.298847905497823,  3.835331400507533
12.013724480171451,  2.677472911117125, 91.982427807925248,  3.853157177283348
13.758698019210900, 17.752522808356272,  2.000898251255091,  4.001576673242803
 3.337825100203924,  2.377594416137108, 68.282548665181849,  4.104662718103063
18.613616687875414,  8.108412301878765, 84.749319903623203,  4.090188155429344
 7.832347699065425, 11.840006313306873, 88.400754024470004,  3.802407048114437
 0.159971441774919, 11.403482281173268, 97.462369159708899,  3.624669706417370
12.458673649208674,  0.585394733234527, 38.034981894963494,  3.678161724479642
 1.820093774223607, 13.256425200868607, 34.626074999559073,  3.863165221352529
 8.808860203618552,  9.779970468057559, 85.277046939681640,  3.877731914031178
 4.962415127288262,  9.593717958820600, 59.127429514632155,  3.994530911296724
15.096965278639143, 10.395846207836753, 31.470060860717787,  4.318683093654558
13.672317346856719,  9.441698621971554, 20.961319829415082,  3.926502055195818
16.944351420079840,  5.770202235398243, 33.572957820640909,  3.961359712237888
 9.294545538782589,  0.072683120941714, 11.750188598841074,  4.386700990088751
 9.710936182627046,  6.569145078257219, 45.983932144397620,  3.848029933793232
13.451054178127821, 18.643234669405768, 29.187969045324675,  3.838595810905659
 2.104363770508962,  0.681773072948506, 13.519404110444976,  3.856476425699801
 5.407218330632878,  2.523290582067939, 78.372234211859563,  4.055633083572737
17.481870814440029,  3.552661145602432, 46.687061304080054,  3.658633988544687
15.151649156816955,  3.679968194768401, 58.465881154005558,  3.916517234836816
 0.408520594380678, 15.176359901345078, 71.073107532321288,  3.776672410517202
 0.842423751094917, 15.764685235548153, 81.836746054498249,  3.963049915534467
 9.493369608607816,  4.651250165100741, 89.690541495283512,  4.003993510310544
 6.941729842478136, 14.440445291219637, 94.773947565326466,  3.979946294200807
 4.951851936568271, 13.630807271386940, 52.789547898163534,  4.089535450543061
18.746891105665494,  8.019387325884717, 36.317744320422740,  3.996924200713941
16.082145740835461, 10.942344486750178, 57.504706892414688,  3.849761853422200
 3.420627573856400,  1.724170602046519, 86.965972282971137,  3.562144644579666
14.708891297349970,  0.657641158593914, 106.194114876791474,  4.348228708843108
 0.131159767316966, 13.589846713523700, 110.120725735754618,  4.261170388040886
 1.845706317070736, 10.327073045020137,  7.252595086819592,  4.136463742497640
16.342035496666384, 18.796113298729615,  4.721471941873140,  3.781400131845935
 4.391964399029444, 12.310670009389618, 81.499894384380312,  3.889244837875283
 3.766113773501798,  6.342276719911317, 42.133246112692021,  4.071224107121718
 1.516300303411066, 12.079635818461064, 46.111754911712602,  4.024051027459954
17.882801695107368, 15.616407420378735, 35.669902660268605,  3.971276445768087
13.879519215060526,  7.571379513566410, 72.181681108668727,  4.090765790240504
17.763191372006133,  2.045816584606655, 19.027750711826293,  4.045293192471770
10.042684259237015,  0.064835444917470, 94.303193254390038,  4.091318846152796
18.733294543793104,  7.255835875301865,  5.447315095649318,  4.265877082941976
17.154844597620656,  6.733289911629115, 21.804723037495148,  3.963657560740160
15.348145390034611, 11.693269226387624, 45.001260155356640,  4.055993136349257
12.359716117000689, 12.430404034239325, 90.402070427648042,  4.405385245899655
14.662749695891589,  1.184219521074522, 44.680783148357882,  4.168326958810827
11.634229798264949,  6.922038605777062, 114.066993395128449,  4.264801804655423
17.273170870644112, 16.893289205764521,  7.932155954501412,  3.832652834756346
17.114293783035645,  1.136274032238977, 75.545518683060848,  4.139498636473177
16.190294257986121,  1.087666112034339, 68.662367800872062,  4.189252699338859
13.924032662050584,  0.623221452598818, 72.939239846276962,  4.064360494415570
10.103767454089196, 18.964191593350019, 90.101910718899049,  3.967298807469278
15.275513027454624, 12.957466089689444,  9.144417294630390,  3.671780017353706
 8.697434618776740, 16.737070609521631, 70.429880895168822,  3.746841817403257
 8.655259534878480,  5.418053802380996, 83.015236670082373,  4.333819118122547
16.007357298076485, 13.396125448634047, 117.630253237965462,  3.815742988783387
16.737871582609852, 13.322146346093334, 17.146232188990048,  4.126083876072119
 2.783294571094445, 13.559110051818749, 74.860439117508719,  3.811321765786410
12.070657433431464, 12.047311827581813, 55.869717508658958,  3.978080143346997
 2.674388084326818,  2.871691012736401, 81.644522301172827,  3.683565845027700
10.397656075712433, 14.838822660432044, 103.158080492062666,  4.308767626619361
 8.124932504041510,  0.957648953471000, 101.785280944970395,  4.102878215717785
 1.080335093063088, 11.343685312438232, 23.327405760546220,  3.793385258150366
12.509637258341803,  4.261761360564017, 83.792543847302255,  3.838443073854612
 1.478789254433072, 10.956413588793634, 65.933829887140021,  4.179871488250757
17.010240693447351,  0.192662813172952, 64.739070033244630,  3.836546975835653
 3.216110869089598, 14.394087302030252, 24.834963411756561,  4.155346402064657
 0.857473643023402, 13.542082792051229, 117.500301643423256,  4.132801531121068
 2.036655879509277, 17.329412003241700, 73.923872556821024,  4.072767080792658
10.962836336927559, 12.078646779595461, 94.826943597993775,  4.367191926608927
 4.840264984493639,  8.285807671330055, 107.408500438053736,  3.871454805307220
16.679378737829094,  5.137388014988086, 61.913674733260983,  4.149458633246078
18.940603717800176,  2.329129851197869, 33.462017508175578,  3.770210537035563
 5.933991788978555,  4.007436276855040, 39.434844592897377,  4.270347223971141
 5.582342369620709, 10.176662787382840, 110.826583607243293,  4.020982883004405
14.171147436933527, 14.293986411493686, 58.481758398981626,  3.933093711888795
 8.177447539204181,  9.600243575522994, 16.097257711587257,  4.021309720877713
 8.487697601354814, 14.278358047550396, 36.296568354170972,  4.117858657073356
12.783586578068865,  0.791037072000612, 97.179367898855674,  3.972060067102005
 2.676487188850698, 11.788487600560675, 113.894511139928412,  3.879368483334362
17.957156454719399,  0.585350603525676, 10.943203653521874,  4.454322551341728
 2.503361673026490,  6.887275986276757, 56.945975461974086,  4.127621585808333
19.066414759969931,  8.073123058341203, 99.664971301208951,  3.858829647707707
 5.123714461623896,  5.757254463301191, 80.802257010286354,  3.998068161619148
11.316080342093267,  7.969560676011924, 18.124766215237479,  3.988423929858158
 9.919162526209766,  0.238502647626965, 17.934562246165239,  3.904527205442973
10.318697834768102,  8.469116902861467, 56.125558083632477,  4.002242751306141
13.147639649263194, 17.784021050810310, 53.751820145553395,  4.444929778106252
 5.242492071283526, 18.194206929725379, 17.975586495726031,  3.763595914653809
17.485838534000333, 15.221279591982718, 84.940434319691605,  4.006116329113249
16.705180107680281, 15.387402527115597, 107.194279080907705,  3.984032093994623
17.608796289919027, 15.222414913846499, 74.477937807186663,  3.979022027141130
 5.208698643308207, 15.536562775658375, 21.082194075943256,  4.172975564987050
10.379637441747294,  0.957758463961400, 107.366035765894480,  3.886945926420098
 8.511861757386587,  4.261390566372770, 11.960112473837400,  4.021417568853144
 6.133799295840484, 13.419974130349877, 32.472953658424217,  4.339144405635529
 8.856955326120762,  9.750575309085891,  2.131989958823082,  4.235496693311626
 8.570222622252126,  4.782991306262152, 69.317322402702871,  3.886680588023486
14.289684019917219, 13.348444734808554, 38.130152752225861,  4.000109277634635
14.719163841722624,  7.362982387373791, 56.968456273846328,  3.870171506845033
 6.235788553831492,  2.345130619081788,  2.077098146234162,  4.089895372573664
12.118964124997328, 18.087063460786158, 80.370531122304655,  4.158809911426037
17.022270908998863,  0.997990974508422, 113.919404283102381,  4.060070512548309
 0.321272103921154,  3.602819793415932, 108.053891533176014,  3.838382070852058
 4.810725050952751,  1.069946506289850, 95.348301661280232,  3.861212829189287
 8.162791972319861, 18.792310347070217, 49.680152505656920,  4.191038466609281
16.254782687669024, 13.545181587119247,  1.996248296082251,  3.804762928507476
 8.957685006206725,  4.859480708112429, 21.972050538883341,  3.966857952044911
12.966016010386577, 19.045999374377569, 109.882049280650023,  3.610317979057571
14.211055358982939,  7.359358333133529, 64.125094613878233,  3.798984356865417
 7.815874158001343, 13.649182173811173, 106.409539337412085,  4.266897892188196
 5.463132964981414,  8.394668572785843, 63.380161990247167,  3.948027147421184
 4.181026330168343, 18.324054070933990, 104.113147233915257,  3.960037443956504
 4.726505250000032,  5.770549222311369, 99.220387489361073,  3.892893958826317
 5.229839717200545, 16.179612587006396, 81.904480766336548,  3.999179665408036
10.774066716965656, 12.157178532079175, 76.354311619143630,  3.885307109932887
 2.634981599279878,  1.007260304877776,  9.640551905122704,  3.636945459255492
 1.279009436476130, 15.814026669406074, 106.101612085141213,  3.650213964612397
 4.355838764863543, 10.269357377079874, 25.597766135887465,  4.382893247330503
18.932684091923640, 13.933155389628675, 94.561585118524192,  3.965779373063170
 1.311199726981041, 18.794049834249261, 17.040484375966045,  3.642903107055260
10.477051648590789, 15.683918440217324, 48.795034690147567,  3.705396925559887
 4.582192337075287,  6.715569689125394, 52.473603534163416,  3.849782593346980
11.628903997262123,  7.506807757141188, 106.416003463840212,  4.002136607795734
 3.721042279661538,  6.086377482232345, 25.818290725206207,  4.023878050522255
 9.923314294345811,  8.737171484322339, 21.956025345769110,  3.948065922493847
17.227989365835327,  9.712551148146286,  8.621141384116843,  3.805167966884377
 2.616215180407496,  9.264563354472005, 102.682912054399537,  4.147127791036564
10.422407023769123, 13.115264978249501, 32.767529667742245,  4.240154614755410
17.320518892979496,  8.230940643750333, 28.842571629850603,  3.757382430130533
18.429659879425035,  4.406998183284651, 92.530552620731825,  4.169143763367988
12.453653623324110,  1.717896927053662, 24.827390562256088,  3.744616541113189
11.636712042779957, 17.797684118531368, 61.783580735854706,  3.806432902180030
 7.127851668230500, 15.131706829862649, 50.098815274235726,  3.437701192223088
17.871765015031965, 14.176025223310161, 39.624700920666903,  3.868511451261389
 9.123650677827694,  4.207212930023269,  4.181402656446974,  3.964584549049748
18.916108038256606,  6.507910381105900, 48.431292755268657,  3.765465332057696
14.028629385006855, 14.180305318012577, 87.043935410807492,  3.684347878064962
 7.982785206233648,  2.551421380214655, 33.399681515534134,  3.996573873819410
 0.261417662386084,  4.887989542681750, 52.541827830134082,  3.938587681527099
 8.012179507789600,  4.992093204397782, 101.454396229136776,  3.993487147861889
14.708735570292809, 10.055678210051953, 11.627584933851999,  3.938271567532967
 8.623190400787870, 13.106919704061232, 79.922821986602912,  4.269916564524932
16.852133266551121,  5.166273303177635, 78.298646827206070,  3.973892346792066
 5.566727955684837, 11.735942441985230, 65.755172603435213,  4.031148322100615
 4.681592020091606,  4.752007800674085, 84.800540059460573,  4.275701474551904
19.028901409596109, 15.935340573236239, 14.826797718084073,  3.847779274671609
10.119683895028997,  2.983066138467009, 27.595781693097649,  3.885047721279430
 0.568668916833319, 18.912241706750486, 57.262905372980050,  3.964153695626450
 6.660007548663281, 12.120710816842816, 114.308053132346203,  4.109302068550702
 1.795095893275811,  8.793472896881738, 110.688914033751516,  4.029903085182851
17.922460381296812,  3.954918611016434, 96.888406675766674,  4.006935197290648
12.826737677500230, 18.053053513454426, 58.066776180162961,  3.976094544078218
17.516704651258252, 11.572790443929998, 35.261650723031323,  3.784957872907500
14.796496646004583, 13.955850012801596, 93.447196710974538,  3.593979092726174
14.315316478789224, 17.016367719331729, 101.766195708448151,  3.836024863964058
14.050723636095107,  3.198367713436011, 17.371180486166217,  3.919058894521734
11.157875790026401, 12.951502642985984, 69.489406067328829,  3.998548681742364
17.972135114901814, 12.319096276952324, 114.222813835440704,  3.876551512062500
14.252990858864655, 18.635263976112107, 19.116712672094902,  4.249911027386363
12.750210697860387, 14.807349135713945, 17.916520919688356,  3.976580231791124
 0.537019919738907,  2.090667360341935, 49.354612191820152,  3.801412891430953
19.060061739605722,  8.341232476658268, 114.527661111120665,  4.359052676664751
 5.648417649367747,  5.334672462796652, 95.416159380612399,  3.879770969632697
 4.759967340788259, 16.157789670901245, 107.799108283215261,  4.083942541360845
 0.522464450646709, 12.434894728293257, 104.307485472932854,  4.067556182517597
17.335011545066131,  5.690486259280633, 117.616908422646929,  3.812681173786490
13.389266684267120, 13.359007650807053, 48.044977793412315,  3.895814587555582
10.495863711100133,  7.788153456607890,  5.446074618560653,  4.085737073062559
 2.680852048373739,  1.376690810900141, 20.375198057763551,  4.226263395325205
17.055215804187245,  4.342911251150644, 100.809877242881569,  3.777674351127308
 2.308712511724384,  0.645610588124493, 114.618599008031367,  3.742482632322957
 7.976576634115645,  6.007601241251783, 106.768246582689059,  3.887112944018240
 9.233689802374537, 13.897852240877237, 99.084776331171867,  3.960313276840471
 4.272750765792649,  5.167689671884202, 19.767226992014091,  4.068321627847330
 5.347537263504193,  0.165654243555161, 72.795983749749510,  3.893138055795142
 3.817788618925709,  4.728593383751373, 74.844078275308760,  4.010663235326118
18.252785472410338, 13.399913269753132, 31.507125786578616,  4.365104829056592
12.457683556838859, 17.428770378491869, 70.044580871752132,  3.614139327693162
 2.538379007879696,  4.499331442202223, 30.229246600279666,  3.824826214702614
11.284357120671650,  2.032983738410454, 63.998976113725341,  4.276801391925756
 7.886036825337349,  3.053008749339524, 109.650140447054397,  4.029299315030259
13.888620644194743,  0.483241564501389, 83.995763923207548,  3.688161264145839
 8.159567472317057, 13.395484381211499, 110.636318343991775,  4.222279532901854
 6.626390029683717, 17.388304746025081, 46.116266589975325,  4.060502769240443
 3.442429632325505, 13.288675602875539,  5.068368948870725,  3.878446502930944
 8.004938080765220, 18.251922384443017, 79.673208297710076,  4.126748062223454
 1.696761074628707,  2.175499185976521, 72.175534718543190,  4.337675552747950
10.913144819753333,  2.053506850087884, 59.823757673140328,  4.103939048084402
18.796507439534270, 14.131149850157939,  5.617528437466842,  3.940377970581120
16.895013389737230,  3.003493085852730, 72.029328619060323,  3.638425078512860
 5.797317764628048, 16.768422471747030, 11.350016914097720,  4.153141468247509
 2.604355071461116,  4.142077900543576,  2.072226809304181,  3.965752292700231
14.942924948777650,  9.877775580100442, 53.760386582015045,  4.251203126152961
14.654020095702077, 10.504528138393743, 78.441558562130055,  4.082055945018252
14.875776348921800,  2.622607416083302, 21.954323201749592,  3.757282382910647
12.034093695856690,  2.337225569883822, 87.413276397367525,  4.120225009707199
 0.938611271714430, 15.611831465096971, 91.155869909636195,  3.843653725213493
13.064508643450706,  8.224090511422505, 38.994379762750434,  4.224233784350989
 7.039195105012849,  0.902335258589659, 69.175902740659041,  4.026996363849026
12.888130653899603,  9.908607049503383,  8.041567868587993,  4.079257187517251
13.656059001821568, 15.723526501643489, 83.448687748459847,  4.144131587667189
 7.271513329779973, 10.822480583221193, 96.785378935651082,  4.293932233642806
10.211622988110596,  6.426944708838062, 110.109914577705794,  4.195123130008947
 1.395457493140439, 11.635260365276979, 16.552037119339222,  4.160209123403528
12.782223792139771,  6.186247770614101, 79.546568089809568,  4.198568653874963
13.781586648672857,  7.441926617265980, 117.540803467361854,  3.955642467514865
 9.776467005416631, 13.760093329587834, 15.295778704883606,  4.175814908611696
 1.728568894897199,  5.646182563562784, 33.811493247653857,  3.844724580520485
 7.960244446872452,  9.953393027032858, 30.979092917968774,  3.979492748989669
 2.822031526679519,  6.440920477859775,  9.177729939138922,  3.960706218557005
 9.793978631083949, 18.644425042922471, 117.519793937016800,  4.092734100753987
11.151972031537250, 15.189025396888882, 64.631692886675694,  3.910936507167661
14.993207235028938,  3.629613174545975, 65.470450034216910,  4.263302644725915
11.570470740855239, 17.343058334484098, 15.101823409192784,  3.760086682744567
 8.205228682190489,  4.340782026242561, 113.547513697257230,  4.045713008139055
 5.153283650159103, 17.979724308206183, 76.569013787975095,  4.104059879878808
17.912321856927466, 12.466533278650246, 68.716080391748761,  4.080872861242572
 8.833968009456520, 10.424010379249230,  8.112478720774673,  4.060912635416147
 3.501467307990833,  0.810980827291269, 47.072971229098428,  4.048739287070521
14.307770405706796, 13.815230593602362, 104.332540370216023,  4.065345845903860
 2.663229048098887, 15.883272679970624, 47.066103003622267,  3.928927430771442
 5.595803505060310, 13.772821287207620, 59.615987734713073,  3.891936454461428
 8.671781020563914,  6.406076706163780, 78.897475423405965,  4.062334127673721
18.739218359452551, 18.796773135360965, 108.049997563606851,  4.031402506695699
10.153944483002224,  6.993055073332207, 28.789050903931553,  4.258824589586498
12.133417874498605,  6.053493666662115, 60.097625794126301,  4.256270947327858
17.665339704641930,  8.605178958023723, 103.592818175426302,  4.292720963836996
10.630064097553323,  5.121648320477330, 72.758264717055894,  4.078309299152172
 2.898753635532504,  6.613042574120752, 38.145704262575904,  3.994925593187435
11.788666934631253, 13.784112185995644,  8.357994829573348,  3.567471858747617
18.115194738215283, 14.592085263871541, 24.843661150836255,  4.247185920978068
16.235153288425821, 10.554142522428641, 24.131358137208444,  4.440085283305514
10.699605924824908, 12.774389532528112, 114.688994264027201,  4.070365164643564
 7.521888979919932, 17.672909036255522, 97.259754837591530,  4.241868456037060
 3.935638991717460, 13.681483574837438,  9.231101747136535,  4.054873981815080
 9.469387826184111, 11.619956092354908, 43.424271751251482,  4.094549777653153
 4.900511726142065, 13.936312284608302, 44.267143780418998,  4.197648434546106
 6.692098946942806,  8.614528675612975, 100.915771310064457,  3.755518396697068
 6.688115127688373,  7.936978751011824, 38.344733882943679,  3.819636986471266
10.852263378607269, 10.380785785042002, 98.648616098510118,  3.815108207348461
10.955309548488680,  1.886477161257256, 41.369891931858255,  4.067638427003720
 3.111601179752976, 15.193674261657266, 85.159779237525868,  3.615142183980503
 7.043510157784892, 11.886413374306812, 22.568796163409601,  4.192221731704721
 5.258718809408532, 16.325594060001041, 35.212888218018286,  3.792495824006315
 0.525646953955064, 10.187797934827680, 94.040032109413502,  3.672635395651578
16.159168434829880,  8.867040652916558, 15.130006480570541,  3.942964483555247
 5.982782724742918,  7.758323203504829, 22.551874352803576,  4.123269391728933
 6.383457915716926,  3.703167595795684, 54.553648993488764,  4.122981275782373
13.014056758382125,  5.336748496859284, 34.494011031121907,  3.863383016623544
14.822368954876449, 11.770691372616719, 96.802770876824141,  4.140180107042631
11.058538849092633,  2.995942405296345, 99.969613074314211,  3.740160094240100
10.973988062479391,  4.338031063717925, 76.554534384926498,  3.647503507547440
 7.093096525738161,  6.691431046261367,  7.657518028706708,  4.177123527225192
 3.455281793262875,  2.142654718734967, 27.139111842682222,  4.157030146498660
14.295055829362429,  6.431364780248981, 30.694632996783071,  3.899216859522202
10.961359394892577, 15.905980584299973, 96.296555390592687,  3.707842659004254
15.061138362744730,  9.422420051744806, 89.389719689900375,  3.881334850721089
16.657326586796714,  6.377744202760518, 107.048009155226538,  4.074306405005284
 7.157264536849020,  0.155602255087444, 42.457784801550993,  4.217139380222106
17.352294088146671,  8.147826356180598, 92.041930500713349,  3.518461837203029
 9.823798749261956,  0.320733995963193, 30.510046878754491,  4.019987264663368
 2.033587119937393,  8.095025521310896, 28.815866485216596,  3.929990887474216
 6.911327427196559, 12.842125266497764, 12.374987741367638,  4.188656645936947
16.564627418838977, 11.375295297033935, 86.108799449898513,  4.062617565872033
 0.069880510098846, 17.287296445324973, 50.133359534106042,  4.274155360159721
 4.682397213221295,  2.933246925366534, 101.866119870979247,  3.822795134255983
17.059539624326948, 16.333240514376168, 67.706655112396447,  3.981667186623120
15.230594305548777, 18.485986538479150, 34.986138853508592,  3.920438644495063
 4.768902544830983, 18.782656663610673, 23.884426266568109,  4.431425132524156
 3.199128835200416, 14.932702641567760, 78.568845800460934,  4.120462816265758
 0.163283825951657,  4.215715478763078, 114.453583650272535,  3.830818245030394
 8.611174499953020,  9.618186156557305, 25.821609073277735,  4.236512310309405
11.640921970465293, 11.013274288869624, 36.151689527125697,  4.087141977923036
17.857632921051554, 10.284333198941571, 48.406255796410129,  4.020418376683918
17.621428799538585,  3.195892807812801, 104.541464536489954,  4.014111024381156
13.524104299716084, 11.847919995636222, 63.050348230212606,  4.470205696887770
 3.760783446620048,  9.140903699495935, 68.650941838181396,  3.784823915309532
 1.461937964809768,  4.613133388210774, 22.658251174365404,  4.031162782117394
13.552297076653470,  3.710389355430184, 70.369718180841048,  3.940690937384519
14.170638893569642,  7.707736368944585, 110.273746578615501,  3.923135092006927
17.693637322786618, 18.441901877681108, 72.012231921031955,  3.888640475218637
 3.309450681791406,  3.643996960633894, 92.780199058947971,  3.846495538575836
10.782768264583652, 10.311147883594046, 111.462439315445621,  4.033584458890767
 3.735063768447971, 16.525977792502680, 14.828166871321473,  3.918319310492929
 4.909442384171334, 11.152271227449059,  2.068331156836876,  4.026126287806312
 4.627674448298276,  5.590178924685440, 13.232929764871596,  4.446286901901905
 1.155552812877786, 11.961014280397613, 84.243374220560185,  4.133119395985857
18.479332015392174,  1.566311542564770, 79.519140817330424,  4.139287356843012
16.234842539688845, 17.275441892903807, 110.941595944568661,  4.107285488545942
 0.346537232916286,  5.684045804969322, 18.672982366045797,  4.017931816683608
 3.539550538053048,  9.664685651822005, 98.564261073671815,  4.284367060561062
16.495459471532811, 16.103432454367319, 28.455976576129252,  4.178873563413079
16.291365491216968, 10.182842831802249, 65.808196454944195,  3.964661142170842
17.810184071741102,  9.866642362261736, 19.255002077858201,  4.196060636894924
16.595041485405620, 17.455932509571817, 59.591141172807085,  4.223163579853329
 0.909471482846759,  8.806200223614681, 51.586530798439462,  4.161818969728674
12.058470474988594, 16.087602697266195, 73.606814542176565,  3.943918708086755
 0.020505067044875, 17.245186724351928, 77.514677387629149,  3.937675809055067
 1.068845760255369, 12.500014503832263,  1.999950765918458,  3.981468174895057
15.828621124547247,  5.707462435245948, 25.247825363931124,  3.690843397591982
16.871197433877342, 14.073033611736504, 78.378652798790810,  3.781814941939938
14.201557117384425,  9.956855964176503, 49.715996861522392,  3.770697416792771
12.463892102810753, 15.380610598091710, 117.420565437459530,  4.252556493761959
11.696293043487790, 10.287801460800805, 59.477110447855452,  3.956201595341122
11.403472301085806,  7.164669405780616, 100.841532902691839,  3.958007544018578
15.056339698718499, 14.562986826877651, 71.116026352566109,  4.363363219433077
16.728760205788522,  3.727916754131321,  5.342723280002726,  3.847464907097222
15.976003161017072,  1.849660321734365, 40.705036668060245,  4.296629818828888
 2.683383050585312,  1.633443290724084, 52.696381018333327,  4.145430516513063
 8.008614701511659, 17.532610188677534, 105.025352273065081,  3.766461106162426
15.190754417356358,  2.159202884337868, 32.009263160526572,  4.094306808297999
 4.133565098225644,  9.850371661898700, 44.048445388963835,  3.838306905531062
 0.403691349813631,  8.273674863151953, 40.822210493790074,  4.008803307377465
 2.469045753525436, 16.934748992633509,  7.149152580062085,  4.191982360866225
13.575674855298743, 11.005352221655262, 17.445309047266250,  3.675010084419429
 4.707052642821284,  4.534160430076679, 63.638980295352283,  3.888563889870365
 5.117091376585379,  9.715192897167309,  9.704378741304657,  4.091551798214595
 3.414998043652795, 11.050096108143611, 77.709751087261282,  3.821299663282372
18.480678240371379, 11.631436552052946, 42.561538793299221,  3.823399614743167
17.451333699026332, 18.544771469672195, 91.410974509674034,  3.981426905604692
10.460885335942441,  1.023245364909267,  1.991484130153137,  3.971497074884742
14.958366002489344,  6.478391217409754,  8.787272880987501,  3.977071321482223
 4.888685186053785, 15.842215749438916, 28.266249880361322,  3.955262352315578
 0.640819976993275, 17.724788838438919, 87.333398780118287,  3.803687224900337
15.467406627729064,  1.799563039194393, 94.197782134477180,  4.300755259207826
 6.662971525546401,  2.267114107465757, 105.559771548451465,  4.397277210213290
 3.467968179811427,  0.596259080538628, 39.730082296323332,  4.137276679289608
10.700455596739465,  3.993230198139980, 95.628123738795182,  4.241535911708286
 0.594233000936931, 12.134825608825238, 80.177484599736758,  3.954662679974200
12.971975995975258,  4.204875260891574, 38.854700311319107,  3.794705960918027
13.618817553843073,  4.914166816895337, 42.577600440314704,  3.894037136557962
 7.539865694492565,  6.682533272204198, 49.116047912586069,  3.752210877766722
10.799926055341746, 17.511078747922799, 26.353524399993557,  4.192394850494340
17.532144186695035,  4.962931558204926, 43.185589515648907,  3.831434123014658
15.721041676092549,  8.479187241054387, 42.407442344572317,  4.174608369344113
 3.978159997044434, 14.989557053586500, 98.351253483131586,  4.074064907085864
 5.641781455574105,  3.365674689268913,  5.870542333440030,  3.842747016987810
15.807684632652963,  3.129895290012537, 86.116871340003271,  3.893775943307162
18.293420656290703, 13.612758421812964, 20.837543661866704,  3.894123359522326
13.128038703983293, 11.583633136177738, 41.588222378878832,  4.064784400813324
 6.199818806157143, 10.515176172392993, 104.278385659118698,  3.957619828274555
10.047432619775940,  7.868582726165903, 93.835916531636144,  4.057351880126752
 8.359202744493496, 17.304783721735312, 74.211802395135905,  3.862514464329297
14.771273520459708,  1.438812378125642, 61.741720149475839,  4.033527642258163
11.103398259908019,  2.567445419879149, 14.671719406191919,  4.082987386505078
 1.766343413030130,  4.910807939060787, 45.532564364862466,  3.873027238409180
 5.224378921018126, 16.839890644207518, 67.127595313689469,  3.780896861477530
 8.712419826747782, 15.559658222595441, 29.742508126008776,  4.195744295629615
10.906894070464507,  6.499669664135519,  9.342328625499151,  4.122652647606058
15.663403140318600,  6.236880163155877, 50.891396313753020,  4.387746717183101
 3.785675342060754,  7.234381352743974,  5.543648024729464,  3.670927593995106
 2.083246921496919,  8.252811277322360, 21.209562098727130,  3.881598460440101
 7.508192816372679,  9.899533162621713, 46.687467523228264,  4.247230873346635
18.756135645381640,  8.589774587132665, 78.748981477413821,  3.898514281484611
 8.723416507459582,  1.695521714487668, 24.274647101100744,  3.764208492324929
16.878510607656615, 17.261936270442625, 95.436157554898884,  3.936367338421778
 3.414638482099871, 17.824645547126600, 43.587986471775523,  4.025653106110028
13.581619416957896, 17.499904743826651,  9.229378602689756,  3.970260915825309
 4.294219160848528, 14.193980361154699, 104.040811921917467,  4.249718452349648
 6.093941147899795,  7.254455716090964, 117.446535840913185,  4.090295538297654
 6.794347179225390,  4.086575887165565, 16.511481626426445,  3.959673662793018
13.626719942426069,  9.997099773340285, 102.797077815915046,  4.139854866577085
 4.664139770465036,  1.662009263616762, 111.603214458913754,  3.986598732344491
12.088249480231351, 17.288507458408606, 41.216988591275481,  3.723864289562974
 3.960524278365276, 15.672361593366730,  1.985682315014017,  3.892129964328219
 0.926695854541964,  3.004694023389581, 64.677906867418926,  4.396267737326105
 5.374260994923465, 14.456896038101176, 91.106434430687770,  3.872410113212148
 7.600286455956438, 10.336410417970187, 35.116534974618219,  4.270705617413380
16.907819181994668,  5.519812927656726,  1.905139819344404,  3.684068413964649
 2.446932884476724,  2.944735469012126, 97.851868944894051,  3.802327710933252
 3.731933582680312, 10.090286574321098, 54.489364542323202,  4.118734378084225
 5.927525679072460,  0.954502473487106, 36.460403151721046,  3.993510715382293
17.672703216942185,  1.384553168409070, 52.620165133212872,  3.828980811459124
 2.771336556070049,  9.790012870481272, 117.442675182263940,  4.256077224020972
 2.417634792488969, 13.504363828740017, 41.030945439972925,  3.994420114325392
10.778585508373521,  6.485154032947342, 86.414502130718773,  3.846637799303385
 7.542676499143121, 10.009111854528568, 77.338225520073266,  4.080100385114329
 2.164361961455779,  7.429174991349322, 91.681612158880782,  4.291281435748884
 0.830991694845369, 17.455296170566637, 97.882894670685090,  3.928734015362653
17.793449583102134,  4.570903852981318, 29.911182310629510,  3.905086202110624
 4.710963118964854,  4.323555678907917, 89.270393596556175,  3.818487658153387
17.219947029014559, 12.907313687236636, 60.806197065294562,  4.154543572834736
11.521351465315908, 12.699997666119506, 108.523652524197175,  3.633764849902442
14.195953738127340, 16.449908060005384, 98.019055104681073,  3.685862627806574
 1.690714079374012, 14.460842002308208, 60.002757147099324,  3.769277591612753
15.030692766152196,  1.867760166440879,  8.268812735097736,  3.803067419396386
12.236875298063106, 14.518926605811782, 44.341472892799139,  4.023583996849172
 0.093589173046108, 11.195339025117857, 27.127770281650825,  4.056172410831408
13.142342355679874, 14.104389163245196, 79.510019234306228,  3.909192763393775
15.637399357436223, 11.576403201010798,  5.435866249467055,  4.177405913008676
 0.416181765249419, 13.592051320030423, 87.877296303623197,  3.867832149687977
 7.665300005281102,  3.035394854219887, 65.783127124394852,  3.994194374993946
10.581570678619711, 14.036908136512746, 60.644235827639612,  4.187016262588849
12.740676584508604,  7.682588695533806, 96.690903955669938,  3.774580076133782
13.546445414697537, 17.425657646602708, 93.485866735385258,  3.768093640609055
 4.485932208256477,  3.971555173796642, 114.800521168413880,  3.832200665799654
18.744206272712038,  4.304488165025384, 68.824770713022772,  4.000919377098458
12.594900742111237,  0.319392993660743,  5.542672783532706,  3.993657150973559
 8.925579983844310, 10.318282175551493, 117.477952562277522,  4.140562616824785
15.455414470545211, 12.203163498803958, 27.839800407926429,  3.822963066162760
12.481062903772180, 11.222453008335911, 72.889726450379470,  3.709594435824696
12.710863548532762,  5.597141831080654, 21.026342396318608,  3.829504828305153
10.316901447705346,  4.127301083810569, 18.290235725349692,  3.924315905317906
 2.036428952697348,  0.611325481575311, 30.606506283024128,  3.824425824405617
 6.412153139574558,  7.501833929490069, 56.063842535106190,  3.969132468747111
10.519396855741439, 14.172573382193415, 22.632285146257633,  4.033270928718924
 9.280098325568012, 16.319886474500674, 52.874406084229101,  3.973084432124967
 1.942541920665232,  4.082177833708194,  6.010074573089760,  3.686445510094324
 8.621460186794636, 12.556649340280636, 53.768395674287319,  3.685265039690781
 3.687181229726924,  1.755162959536275, 60.929612060866901,  3.999578231836155
17.016272609905538,  4.973288545843165, 15.502546202830278,  3.933023087821939
16.844948937814241,  8.023973239018924, 96.047345031444522,  4.466224486485016
14.506489064488241, 17.110484984956354, 76.857496095168074,  4.437229329203928
18.769484308772633,  1.729108180040922, 60.781995869532665,  4.100096805354129
 2.001866299746134,  1.457592946088859, 76.374528933342717,  4.068714900700538
16.585228924742115,  5.968099573314304, 39.185946519177008,  4.147267286759501
 2.363110394885108,  2.917545227941539, 36.560191261012108,  3.879259730201400
 1.583771098520430, 12.715195936415295, 100.574761320392810,  3.603693316032764
 9.713677979471262,  6.057392541155568, 39.961042924549645,  3.970496864164492
17.452290591841287,  0.888946810161527, 28.674490000516339,  3.890604608735123
 5.988266444423370, 18.586717673032254, 54.102718175017777,  4.207741425430252
 8.292338691898969, 14.563778618216835, 67.343885458238447,  3.843398942512352
 7.286140190237635, 15.380676537181218, 24.921746473609971,  4.219311525020411
 9.880030501243231, 17.864483568868838,  7.885899140145272,  3.828181760938236
 8.444034284755803, 15.425951118728337, 42.810324081247366,  3.873671726758014
14.350256739230961, 13.251933056876956, 21.312205607606476,  3.818194088004223
 6.363114447059644,  0.782873083736982, 89.153353637242972,  3.977832449890128
18.021916040078906, 13.821174678647820, 64.708683591074276,  3.880605947800325
14.265055539745051,  5.807855676302213, 103.581731471998523,  4.413184297688587
 4.193452035566130, 18.870138658505883, 99.542878629559965,  4.047962335598553
10.888174817891777, 12.304174534285170,  4.857158047451723,  4.144022903063444
 4.259250209421657,  2.710021494176619, 43.605232825682009,  3.787761592972862
 2.346821909735874, 11.939694890848363, 91.147403783896095,  3.982060015171306
 8.827323257531434, 18.219421713714755, 65.913052821080640,  4.078087311896164
14.977632799540107, 16.383672167415515, 50.159133203178904,  4.035959893721834
10.543629408885003, 14.084575558238841, 39.770177609635184,  3.940586978740497
 3.365942755905890, 11.696334705684825, 62.295966688704233,  4.137765263032466
15.141539024195778,  8.764413345046165, 60.655619242507640,  3.907628871048495
 3.141848739172206, 16.477101166752796, 94.507865675396431,  4.297329697880643
18.137160651623276,  7.253392742215210, 58.836238966478760,  3.698778566354558
 2.949973594479924, 18.708086664052026, 79.811122601442193,  3.832423953895180
15.441282019498328, 13.670952471821407, 54.920183529728163,  3.727610342368753
11.250432251647851,  3.183659142044329, 45.100429614513430,  3.756240365903747
10.146790860807261,  2.754908189341397, 80.044853728687841,  4.139789353579791
11.892982430361982,  8.070279220049521, 83.022245193131155,  3.884862136485660
16.541524916504692, 15.127055622922994, 89.727091008274101,  3.827136872013993
18.954160842656940,  5.585852857094698, 81.595952587434226,  3.877040335651181
 4.259018812347388, 16.745564961872301, 88.235283402574396,  3.608600696727883
 5.346304164513029, 16.254558829201489, 40.418863285284573,  3.882487451070709
 4.138584621547465, 15.561120552494332, 114.484458049088062,  3.903137105856831
 2.166710291556906, 17.211729281869310, 110.717668336600198,  3.981096719665979
 4.573691744812124,  0.740072583267350, 64.793058834279137,  3.933622728235637
14.076188332443815,  0.198288846744480, 12.807265597264950,  4.081820631313977
 3.364853469877718,  0.708143399446949, 108.061478027616985,  3.747258020775569
17.881269191459101,  5.972654116793658, 111.066516863282430,  4.262627645054179
16.144514023115420,  2.231915754232050, 109.998268935150676,  4.235659477753699
15.316929590715906,  4.949908803578927, 114.252956518520008,  3.672046007975909
10.577220433266406, 18.309595871196898, 45.029388772875791,  4.337727623250162
18.985651988644786, 11.830508693128106, 54.386441332784557,  4.309097018049483
14.494094188836829,  4.395505175420130, 74.807880908866153,  4.195337699404540
11.463412696522466,  8.658029261208080, 32.832921044620271,  4.050400869180080
 2.128936523183880, 16.723972747703563, 53.859463393634940,  4.266157907882783
 2.714753267880004, 14.782329054453140, 64.875176363381087,  3.976223933140870
14.907624703425549, 15.993316622210722, 63.160279270466191,  4.134013539525824
 5.699632062268601, 10.373864164884415,  5.846162759329384,  3.636419526241976
11.890349837103155,  1.576112546636746, 34.364917848607362,  3.843930199359971
11.908398109211664,  9.350546907532115, 14.383506008897438,  4.030340337114811
 2.860634564532411,  0.380905813140568,  3.817537839082894,  4.138859264170184
13.805808661349861,  3.794257980154007, 48.003895941388429,  4.022105347302364
 8.003049803028237, 16.886690649703560, 59.298684639667570,  3.868673396800407
14.977021903422315,  7.000602928595058, 68.143100229321021,  4.138685495655361
10.811258097693241, 17.580180269187519, 99.887187226226004,  4.166253832889349
15.361782307312053, 16.803166143492778, 15.655607908456732,  3.850546235731370
 6.737465052757917, 15.125349055985824, 56.035765603043728,  3.832975835257226
 9.230971740317857, 11.205587002964261, 101.967072343469226,  3.542191988284320
16.367517463088280, 17.347993489910085, 80.764023099691329,  4.144094529304220
 8.828370694622194, 17.881939666426611, 38.666431960425669,  4.463531697416799
12.538796782007598,  3.145680037053532, 112.082083666413837,  4.133838786228127
18.984072091821034, 16.363241460712281, 114.230311201512976,  4.442978650274107
 3.124847360915727, 13.635309113624309, 56.414725225413129,  3.978177322351844
16.359182158426911,  8.126434676055085, 75.485014517590955,  4.206421516577330
 8.122973692893183,  0.575561546620926,  5.003902173699736,  3.692836721886217
10.056633066219574,  8.751422310821042, 89.713915330843349,  4.226490290607852
15.123000424146642,  2.264251262709338, 117.426855541603217,  4.282412987971708
17.454964612303396, 14.310933689680455, 47.514908369209408,  4.247997474723030
11.249055080105730, 17.449684221604020, 86.558440914264878,  4.051652981809685
 4.841957597423921,  9.444949318367080, 89.289985651769257,  3.774702503251973
15.253287433441539,  7.501503658865426, 46.574759788474424,  4.427244012563355
18.432112387261437,  4.373016078502810,  8.957343390832925,  4.115408381140997
 9.629949641609436, 18.854484005480167, 55.830046341148673,  3.807849227543964
12.683917883544540, 16.192804268115008, 107.265986040455473,  4.123462227258380
14.192225319383402, 16.959064989801291, 46.528313239929297,  3.468891698884442
16.098589714772743,  0.839132361299055, 49.101348948071646,  3.759782458158391
 0.500362945174824,  1.612909937241473, 43.767411891661972,  4.021705541389500
13.217127902383078, 13.377652289516401, 100.311043373722157,  4.216370477772064
18.574643327436437, 10.025784785106097, 107.523234424822945,  4.220215313625931
 2.918605792982422, 11.830133167584465, 30.155807677444898,  4.108607382702012
16.473969276573222, 16.814240801785530, 21.917016502114961,  3.771657167579292
19.020699144191290,  4.626330046300862, 75.045987450957000,  3.863350738273456
 4.674291736602477,  8.817189023733581, 94.445882503169415,  3.567732104257658
11.200633523854016, 15.445267962490327, 11.721288600942417,  4.019688084859104
 1.653161574025714, 16.534691917515474, 11.256698848687883,  4.087888999627423
14.868395902424382,  8.724387892172158, 35.324968838641190,  3.977088049018574
16.292190221284397, 15.780649091580370, 11.829596133225042,  4.266277018200991
18.595864943624054, 15.094339929490456, 56.900548705875018,  3.965339437473657
18.358463920521736,  1.899420078385096,  2.123841684644811,  4.112202410949918
 4.155056505055325, 12.820997580299087, 87.782056316595572,  3.716779341513974
18.988980775605693,  3.819786906951854, 57.317274200851344,  3.917393264248485
14.195594210166590, 10.452521660244235, 114.047268374111908,  4.388523300670084
 3.395915442606512,  9.471189184151459, 35.077476187601555,  4.294728859781404
 2.163823285716230, 17.359807517635346, 117.593805481670202,  3.925704848244660
 0.838432005937261, 18.232659713935178, 26.058380469029732,  4.139209947466924
 4.259966274889993, 17.583800583694508, 50.350002624962649,  4.072761590574076
 4.742120095347929,  9.485410623570035, 85.258005272880695,  4.214280932514550
13.002987663149998, 16.442926426657891, 89.892589733445675,  3.719240408005037
14.261256519060627,  3.338245967002973, 28.028467407592160,  4.252756860737836
13.803886473370122, 13.170736229262399, 14.123732066053986,  4.232071521430631
 4.122096616879620,  7.908508355783771, 113.894059488654250,  4.075637557152876
19.132822192251989,  0.972384610011390,  6.979754258385368,  3.806527728286900
 3.941167687333798,  9.949960401806406, 40.179042919488516,  3.896758903126293
 2.576551782082991,  6.305015552164426, 71.011040431179595,  3.825636773563255
11.909173236776512,  8.201991524741405, 75.886559993440812,  4.303876683313424
 9.427049452252934, 16.029846704477791, 83.002146286814707,  4.357137905069469
 7.791001698552088, 11.117642772746562, 61.578958177567351,  3.904714809994608
 7.958595035609394, 13.819992648425378,  2.040168436714323,  4.019301615364413
 4.120064150304223, 13.832743930443566, 110.966768280958249,  3.816410362946876
12.797620522819852, 14.627697808292057, 29.677918454353627,  4.098878668681644
 0.666483434541660,  1.249222467103249, 101.243814287140239,  4.120506460992398
 9.852496211217554,  7.080477597077085, 36.152541871440619,  3.879156787683492
 7.318745289990433,  2.777326431771123, 98.105021748061972,  4.117969294929357
 1.121180011911774, 11.341237789912196, 37.902813707763649,  3.834366901204055
15.440396463956715,  2.699357480254639, 90.130882197670175,  3.920815734770954
15.765808805813162,  8.180388916245132, 81.729331912972313,  4.193556216767365
 8.518485929534554,  7.847243015479421, 59.589726287147791,  3.864294571961642
14.137249339979038,  2.031466084670754, 78.368634033958585,  4.205720383534052
 2.520056868070261,  7.119587932217939, 65.525121377695157,  3.724330590773701
 7.788929566692701,  5.580015037328383, 25.760374619911147,  3.903174171475045
14.484257066683012, 13.967289387322147, 33.903618941721575,  4.348054138423028
 2.255025865608844, 18.690535358903404, 34.517124926836658,  3.908062722574709
17.382158221047046,  0.980214505922867, 15.105680649979968,  3.982096755283197
 1.626140779726098,  8.223510275733332, 75.000161657918497,  4.086411863376041
 8.593618893670593, 14.249922758761489, 117.641772962837578,  3.754197650907035
13.338016261969850, 18.161218815420209, 66.330471929208898,  4.141325687564794
 6.763883011354113, 16.223007928136763, 101.328143697373434,  4.126536717927302
14.572064902957161,  7.584549634976868,  4.739145967925724,  4.130853260697692
17.894839212395500,  6.450025397332205, 65.478807385024965,  3.822992801674438
 1.133932725507657, 14.825665443978549, 28.236516118917827,  3.797401832458954
19.064414400360032, 13.247928145123717,  9.514374072225285,  3.931053006331681
 9.015977970851505,  2.927762086895192,  8.067719286512634,  4.213434046937252
 9.996125890930898, 15.476566159868073, 92.350788140980910,  4.070159227802553
18.498437543241593,  0.271395947517136, 37.067785261621502,  3.927293241815676
 6.626595726163962,  3.766569339164077, 29.615503080585093,  4.227187006649122
11.228976264431925,  5.675840177397628, 66.320263572668807,  4.314257993137911
12.206640965719842,  0.057720815561184, 48.847925102996271,  4.077771207090106
 6.641131610809245, 13.278556941628400, 84.783986311695131,  4.114166411806004
 2.949432346912902, 19.058588097615530, 91.178267639813711,  4.123768989858118
11.280159513041831,  3.941608958308850, 31.291990410676274,  3.917661268265836
16.325019274180452, 17.372187871625716, 117.463172987203563,  4.026722877793842
14.290248602208928,  2.626993432737881,  2.388968052801300,  4.087175377007870
16.586941426019919,  0.503642971515173, 98.713428107170955,  4.147309831997869
16.634278501828604, 10.221016556628722, 38.847097174434374,  3.925773631338829
 5.616733469295839, 13.102581956436778, 16.664137455273046,  4.630172187461961
 7.178171325937932,  9.312275584044885, 81.564254016382293,  4.268024135332174
18.977786237244981,  9.087940425861992, 62.378972584580964,  4.440311055735830
 1.491390386425580,  9.833954192675405, 11.379288641450504,  3.876398965514401
 0.744087661588821,  0.973224075916445, 94.686767904422013,  4.362851174181400
14.253332317251012,  9.894528585094156, 93.216539608505542,  3.953413055966571
 4.585183964771011,  7.513761341104903, 77.382570448252935,  3.609551483282797
 1.291742364299697, 18.215003119029006, 66.417290422107357,  4.060424281762830
 2.211092554346931,  5.628232268932958, 117.516201835504518,  3.965564316392744
 2.210024172276422, 16.135012112886375, 37.820368587281109,  4.239183384754883
18.888172667706851,  3.531556016542673, 26.146175346121524,  3.964804221783577
 7.931797156890528,  8.434484770673485, 66.583190211705443,  4.120337067860142
 1.339791489432929, 16.881172427370760, 22.045964800524345,  4.202018357775778
18.753744360140317, 11.613344320687233, 76.054473005086251,  3.960717881016138
17.610753321493018,  7.287347335365431, 11.717975576823751,  4.043869930817686
 9.000364761377760,  8.104016560253141, 103.712565454979895,  3.500817183949291
 0.521445670290692,  3.897502930962792, 85.228293012338696,  4.125669481488434
10.391904938369519, 15.352593619197231, 56.837329559395229,  3.623944439174334
12.227507724913059,  9.734730123666777, 66.515972674843951,  3.995832140564142
17.747737706816960, 16.919340935093036, 18.547853766881776,  3.362015926201929
14.439985135694329, 10.714877388790001, 69.652858095399793,  3.884415448482870
17.200669533694768, 16.839824157355594, 53.666909800376835,  3.869251694694928
10.962781743354705, 11.549035705845391, 11.278489504093880,  3.805156258187735
 0.203173347649293, 15.233841630348719, 43.926584791507409,  4.056879510879475
 7.923936384290840,  3.116917341439908, 86.516464501679579,  3.685734202680443
12.721474318161277, 17.597400119320042, 22.779288140258522,  3.921528469710314
 9.028944848331864, 16.764717976290857, 108.677949430121473,  3.750367851035076
 5.749328494515776,  5.411038011365582, 35.350531594654655,  4.230425704276361
17.266273149962124,  9.492798806199263,  2.129701494433573,  4.236569716026229
 7.069602763907663,  6.912491975280757, 87.460292805826370,  3.867934640061688
18.341228469147921,  1.175014366096197, 22.961971858306548,  3.982054511666140
10.576580238733232,  3.794063735550014, 104.468295100730074,  4.147759141826080
15.222596276956942,  6.876939581701359, 18.389525066849369,  3.856768196967879
 1.841215653850924,  6.621061647810808, 95.976219433336368,  4.186401051429455
 6.792228046267927,  0.554228437805129, 114.816305935077310,  4.030894611075143
 3.521962143195877, 12.370131907555908, 95.262524135052260,  4.057234259404206
11.250256308401910,  3.173450512497375, 116.118708537129748,  4.087852290863624
 8.015910820934881,  4.145553249111068, 43.047474229681420,  4.026276724530143
14.041756189054107, 15.547193610817672,  5.538920908462659,  4.326533196735262
 6.035873396771655, 17.053968316317089, 117.610023946461681,  3.772640186101880
 9.098803705243995,  9.986869707160478, 73.752731386190902,  3.542447940293201
 4.382299152359632,  8.748135585980467, 17.658900844525682,  4.236486865289794
10.397739482156338, 16.040221546027137, 77.375971939033818,  3.807777231978350
15.189632945992949,  7.656495204579180, 99.894279247062812,  3.902003723054683
17.388907113056025,  6.004809137215224, 88.639076360978706,  4.303716420695924
11.203474609730899,  0.476668115584662, 75.926687880916290,  4.010500412044999
 7.120079753758047,  2.151763184616873, 46.300741624849344,  3.792039823749927
