BANDS
8 8
NANOPARTICLES
cell(1), 19.112
cell(2), 19.112
cell(3), 119.452
 4.473926001418672, 16.763873777558327, 43.959829510673913,  4.050524794941061
 4.016081495708852,  9.360141907584566, 72.218739224338179,  4.103336602029213
 9.538098586017062, 15.201835800595305, 58.937414352993592,  3.973759016790015
18.286207719104826,  6.541412556963698,  5.249668567605634,  4.462215420416991
 4.241738068573016,  5.265428700351107, 73.611806505620450,  3.856602955463111
15.101912665385795, 11.011615137632113, 114.167937688590953,  3.915463347194529
18.111155686278533,  4.239686018703932, 33.381991957971564,  4.041917136306874
14.964863482455725,  3.020237435048756, 46.845175894893849,  3.994536426987288
16.665030472385943, 17.483238665098682, 113.910033219494949,  4.044937720421200
 3.118098148398905,  9.668068743085312, 82.111030431219618,  3.930294188078156
 9.043540894878829,  6.581271032495323, 109.802395191398418,  4.052619691369882
11.805955466209593,  8.949640963638650, 33.568072668508151,  4.128434797084285
13.283229010795267,  6.341243043061082, 110.591166249680796,  4.513592161758377
 0.354488920295834, 11.252373563477539, 56.854284151200574,  3.998974193696158
 7.755542153119514,  3.445420043317565, 105.541921478493578,  4.186686635446174
17.911949734733792,  0.185480637437649, 91.007984871931953,  3.887884795594371
18.942442974539293, 18.794459505732974, 39.862822506967525,  3.963439875741504
12.446665338826385, 15.538851398467607, 81.160814954622850,  4.182803906643837
 6.335784148475923,  0.184322319481651, 78.672954630395310,  3.795613835571272
14.076975910951255,  0.776730240240861, 65.780420601659102,  3.879782860935230
 4.544564318698592, 11.960710962595320, 85.124188942909271,  4.066433207446438
 2.060790283018437,  1.825801080875642,  5.301215559475687,  3.980434610900670
 2.169181466900995,  9.158668186735103, 53.508282597615398,  4.200606103923386
16.904870016859444,  9.135401851821250, 75.331982987542361,  3.962425881825973
15.503241969244305,  3.510560167008668, 79.871540470225057,  4.203978187187944
14.803356572200505, 11.007372195057078, 109.239400225321560,  3.945695770678622
 4.174439074028681,  1.618517611376805, 61.549596365031434,  4.023415906376789
 1.567672900643989,  2.819343909487567, 17.973899392413212,  3.751901561465997
10.482561079744020, 11.208290308844258, 44.272984635582553,  3.840623231029591
 0.428444055151275, 10.652183202510876, 95.278102670337361,  3.900134998939468
17.181268302470361, 10.639302701120410,  5.498094512044970,  3.956565803597840
12.862183574034225, 12.527431610017011, 106.024781564207430,  4.133790393245477
10.180312473220454,  1.136555759786940, 98.153915894410332,  4.114086418383471
 9.287107792574764, 18.948406774024448, 75.995466739644925,  3.745061287175525
 8.960937604765405,  2.540039823836985, 20.119469354640028,  3.609846293981350
15.947226090155254,  8.532173788871949, 21.562113574353305,  3.925291133079146
 9.584355565050483,  4.091347216461085, 78.535800507618831,  4.160572159090893
14.928385583645102, 16.942663067453935, 96.113998968229112,  3.980084957529155
17.461706883552100,  1.610096342997970, 76.624424272489350,  4.205371604467707
 6.592540699789578, 18.268289233999045, 59.103568398902766,  3.870928183992754
 2.533797308846056,  5.539612671737396, 76.991880128316311,  3.620402063006617
18.740781118568815, 11.810049292957032, 109.586981904822252,  3.919217553873903
 6.773649883983419,  8.846994863417530, 61.237282698564101,  4.098906522889657
 6.988992578236959,  9.051266646157920, 51.576251821508556,  3.898513907051190
 7.440178145529790, 16.193828648844928, 41.026115457996326,  4.018578046822714
 1.165195267902712, 16.775545207177647, 100.481578496538233,  4.157263442450932
 9.015763383597994, 11.450418000098265,  5.634740181542611,  4.100695329226708
17.769733245762644,  4.315137510438563, 49.973070940582438,  4.212235863235939
 3.454900180582407, 10.312475367840443, 76.043238119583620,  3.806099215749080
 2.089572173851730, 19.009037157059936, 73.347206691267942,  3.867920583687617
15.239904264624045, 16.842286486360496, 52.474010465364650,  4.054019473121769
17.023779221850361, 11.599660245065673, 106.104077562720761,  3.827958186923602
10.031491208477542,  4.800995684611161, 13.520215267703046,  4.183547612616715
18.585587956874292, 18.620042370928793, 22.661071448523181,  4.130349632205905
11.419950094014462,  9.883810144436428,  2.264279675305589,  4.511429339802683
16.449078946582954, 15.083122775717708, 99.390745442797154,  4.018766359409127
 2.350306444830423,  8.823307181901837, 98.415396562659353,  4.304248136148919
16.453084944762178, 17.886244615035210, 45.661645690177480,  4.147125020631933
17.904229837222321, 14.134840680109340, 62.839560988109895,  3.700245157378513
 4.589621369501450, 13.686501100151650, 40.657293172439900,  3.603502638971282
 9.991994598416177, 18.904761483186601, 42.823387514094129,  4.155310279980380
 0.043922181031879,  6.177683013976233, 84.032704603527051,  4.156091394655561
 3.460789200753165, 17.016583827298746, 79.664267353125425,  3.798687000304902
 9.565125802435359,  8.706944513882650, 25.902622651662792,  4.103558228372147
16.236909299187460, 12.944180282036902, 74.426554478276586,  3.937442589523915
12.856058895581869,  1.545995897692154,  2.045828750448225,  3.994770327887932
10.385975156548179, 13.559961551601804, 47.802777889783073,  4.209369325451952
16.133816847100352, 14.022251287537452, 111.712232925949266,  4.089123642383376
 7.179367514494232, 14.891270815095414, 85.184810063306259,  3.684232019680762
 4.980118375188733, 12.761799738226145,  5.379485908396274,  4.057530971932471
 7.013544921819040,  7.538753344264860, 105.128642750416802,  4.155594437372757
 0.656215447560033, 13.827216624989280, 35.457532929326270,  4.029774093006288
 7.814724344257709,  3.050368768271069, 117.285184993168272,  4.070107971078314
 7.185152967260517,  7.029812729445810, 117.458216925097773,  3.975925212907956
 2.080476280003648, 14.925570461026034, 54.941437697579666,  4.094175871876472
10.973765924261933,  1.837368870257256, 46.146470647794793,  3.888770119715025
13.324103658943496,  2.335546366452455, 43.007886279236857,  4.000528178633109
 2.180534365233921,  1.261054703780123, 42.855175574030660,  4.062904001453655
17.415229382197264,  1.437452805536224, 84.836837524876060,  3.900687747210104
18.131924860375662, 11.026953753019392, 60.587722456492187,  3.921207063305619
 0.607102085644478,  4.497724742051115, 11.290974177766676,  4.322999641788380
 2.841879980483364,  6.447199136883132, 39.017854691330243,  3.971358994572780
13.673855481648157, 17.275147493770874, 21.537530020885892,  3.789012292892636
 9.962707869344694, 17.932330052142841, 20.373593606113655,  4.029992254625167
 0.250736999324511,  6.491516753215774, 95.339227500420577,  4.344132679544343
15.605836638084989,  8.778892354932804,  2.245956491383045,  4.131922286079769
 2.411315351530223, 14.550082403710864,  2.080099209619563,  4.029074482364861
 3.667726148649335, 11.379520493691940, 114.437865191201396,  3.808999424341434
16.147421514844133,  9.169078455787943, 17.464204736155175,  4.166398889745128
 5.520029185922953,  2.384672464387429, 51.985506250343093,  4.082469941961187
 5.236530616088869, 12.459202791610130, 65.950121072993426,  3.947886627178061
17.282124018808862, 13.011001705395330, 26.787919893185894,  3.726078996568166
 5.608156716870819, 18.251505085314950, 74.977104426115105,  4.014911034752490
12.653616666222449,  7.772699412328605, 19.459747245297610,  4.015073959073151
 6.315957928944153, 13.154351181639237, 20.005647476518337,  3.677593942603658
 3.371954926196171,  3.863394562707838, 31.855545856047449,  4.348654971749308
11.071366246455126, 11.518749090295156, 70.326421841185763,  3.976418445323153
15.424743412740924,  8.613999386445236, 39.551749149460584,  4.200032127265731
 2.973455601704481,  7.198302492543577, 105.148602861912110,  3.866531240453339
11.668022242448128,  4.419373586286231, 89.003120275865555,  3.911065887659305
 9.733393515289821,  8.419632519646774, 54.732723736474881,  4.470285688853128
 2.098021418321149, 12.642407078520932, 88.514879202876017,  4.273978400669082
13.736483758206379, 10.614045318751323, 95.081588052675713,  3.845875923191576
15.098895416393493,  9.302595727273667,  9.261503132028595,  4.333297354319814
17.987637640696992, 11.261536874360839, 99.009574112809034,  4.254354741935899
 6.034792069197665, 13.587656206214895, 33.713093347153112,  4.270086951829093
 1.101345538713252, 17.913394705489669, 69.158556483238470,  4.007494134236190
 8.509486563580271, 18.474550733117464, 107.436667008180081,  3.797051924819974
 2.028907544375353, 14.743348310848623, 15.844414890168180,  3.722152436718329
 5.456791965663771,  2.247620839555497, 18.276835791896545,  4.114578783606457
12.300020422757067,  7.298396703072746, 86.032970591402730,  4.101217703350650
 8.710757526355824,  5.053826819189478, 52.054321647546047,  4.073866411059885
16.122514566026570, 17.580178045665274, 68.477712674740218,  4.079547174697183
11.996474758750763,  1.833960048615163, 15.119830040256243,  3.536746859212558
 7.086991651921456,  0.522028225060888, 55.311294378468524,  4.139393366079547
 7.434242660088191, 15.328210322938162, 23.185897370196081,  3.989803192251914
 5.868636299792357,  8.375589428832656, 111.231621900605390,  3.694567173429665
15.145961154721034,  3.317210647847378, 30.077586105994964,  4.063201078240159
13.097012849237553, 12.043141161113981, 117.436313069678576,  3.930737895718119
16.206520276096303, 10.709422017032958, 78.896358520490097,  3.943918187902056
16.532061418921977, 18.880807143250159, 107.232000473341373,  4.031637832122652
11.276159055472736, 11.862773119507571, 60.106905231933190,  3.801652790175953
 2.437211427857616, 16.833616791433226,  9.070180363010634,  4.047758312898503
18.414510500105045, 10.589561996803120, 23.919321301758860,  4.011089162831700
13.689152344803508,  1.232270951077681, 113.599756356321905,  4.125260999847089
11.911096787430131, 10.116064926719805, 22.573644961881314,  3.903067947092066
 2.288735036352651, 11.012912469044531, 39.083714984093746,  3.991513358012455
 0.088028522642884,  7.337345962370327, 19.548231682319305,  3.990347585560821
 7.578513921658746,  6.030152878816806, 81.365640897213609,  3.781220994558747
10.596752083366304, 11.014916905687542, 51.037421501722882,  4.003717655059748
 1.902460306820720, 11.884535684583609, 105.882113720763485,  4.129316676919854
 5.882287192994844,  2.934936805494176, 58.304584739218647,  3.754607942058334
 6.061721286592512,  8.559635589020424,  5.643403928910701,  3.895809646091806
16.492624847094998,  8.539465623046407, 93.041456092068444,  4.072097767691784
 3.305566419347939,  5.847400568394096, 86.998116792624117,  4.206642858583575
 0.227687509672005,  1.084085589699239,  8.891472608380747,  3.997547296238487
10.513935402327114, 13.807444721804252, 39.103106975862474,  3.669901297433060
 8.856583688473233,  2.499203604149467,  3.032302264682539,  4.104380550720112
 3.306177273734690, 14.977522767359343, 103.596921648569335,  4.053370196442536
14.402238664870584, 13.466888400490186,  9.285413388724468,  4.059842760050686
 8.351316884436338,  7.821087846173860, 43.853514778311833,  4.097554461956284
13.229297139235634, 15.396577732366053, 18.114715600637766,  4.040240645829553
16.667984512933259,  7.112943552291920, 12.571199487963534,  4.078431485055841
 2.606248716773324,  8.763451956527238, 42.402534313598046,  4.043772145078320
13.538901481303107,  9.645042672219896, 99.427390086782552,  3.883049392279299
 2.666443883061805, 15.256636513521190, 32.538060804273918,  3.592351942638327
13.236971472015275, 16.636599374930253,  2.027309770302256,  4.041533548793061
14.128911598515264,  6.224206964792299, 15.645605937356310,  3.791564199303124
16.471262743756377,  7.380853013816636, 81.167671457490528,  4.006454610627305
 8.716365754362497, 11.404125353974674, 104.743887757537266,  3.636473167267923
 7.738205830935699,  1.001777761650685, 39.210385720903183,  3.903764133931755
 6.178365675199403,  1.267330968914936, 42.850696313388937,  3.919715913568440
16.338004494295468, 13.261369176102171, 95.934952399186059,  3.732970462469435
15.623221254034592,  7.056415513314816, 31.704757033778098,  3.772213365452980
13.460534326173191,  9.459470617575491, 73.276422665269820,  4.040590466673241
18.174404378149841,  7.106774679138942, 46.949967843849670,  4.032593757597862
13.042870586408498, 17.308267004026753, 99.843696739216540,  4.036741549735668
 1.058373734110427,  6.769729190394180, 69.793749046384633,  3.888959909273608
16.005993602051067, 13.621083211209235, 81.618236751385680,  3.938601421319620
 7.441137467760749, 18.503291258911435, 103.572134496367568,  3.999563695127169
17.134843741670291,  7.919991580398106, 62.937434514545409,  3.951445584809867
12.801676795688113,  6.842555843325321, 24.494556171853780,  3.870051135910255
 3.072808123868683,  7.436764423350131, 16.834999680694892,  3.837302097158314
15.678904258539086, 14.948247242692888, 107.741712788863950,  3.720108697008391
15.362454168279356,  3.697862253322253, 88.088298805633869,  3.775678480374181
10.518784660665213, 13.812777625172560,  8.729853282786410,  3.780073327275716
 9.351876970074715,  3.955619246670981, 42.550512923209176,  4.281754919379549
 8.231525960652585,  2.691532148365116, 68.541825219177412,  4.019963214342162
15.116675542035635, 15.876025596581590, 72.029338805032651,  3.957054704525187
18.516353342804003, 13.482412908866316, 102.701587116461582,  4.406636278405453
10.316248724460086,  5.855567253417182, 103.490000825882021,  3.857149386389439
 9.084708686113215, 17.595949016837665,  2.087824451639155,  4.153547529164215
 5.838331385302219,  2.463624192079155, 25.521990112655622,  3.954153274676951
 7.105433462856265, 18.270728424590160, 96.456654444709912,  3.892874572508694
 7.457782658431461, 17.214573480726269, 88.668799997961372,  4.134218917108256
10.468978021408898,  3.258249715588695, 29.562825876816085,  4.252081817337917
 8.496388267778885, 15.700007359198388, 114.032559367456486,  4.227539278342213
 4.970659966042810,  5.443601610323456, 62.888566752676574,  4.177682639775795
18.844908115594194, 16.873013628541280, 117.361476044725322,  4.166145385891850
12.004524915250951,  2.249864299518632, 81.666930600953336,  3.818570287047481
12.819946711245475, 11.719596451543040, 16.340849653596106,  4.031979804023964
13.672489235932293,  7.865607278044541, 65.311270629238194,  4.145184179578363
 6.128429365785650, 18.192984753370649, 11.224477640087970,  4.079064412339529
 8.826622445878526, 16.606216851580601, 100.026515655759596,  4.443515010143297
18.309115537443809, 14.655207135815182, 70.229743269364405,  3.765537338489758
14.689485659881683, 17.391456039542465, 110.389930266689120,  3.677787716918413
 1.935182824727219, 18.211033113910869, 93.192581994225066,  3.979244173424632
15.054057053281689,  2.292428487883161, 69.374581282676317,  3.902549468601380
15.241346356264348, 11.986402931142560, 70.378975445151795,  4.357309260841771
 0.444508279182328, 12.680411792410764, 12.861180619340738,  4.109618292240198
15.356121355202919,  8.269072092124272, 35.455956792062970,  3.968681384975475
16.347403303491774,  0.713458429158800, 32.994132787233141,  3.797173252959278
 5.537459716916104,  5.755196553385882, 49.500653553628744,  4.086718192078294
 4.555947809482731, 11.791420740706505, 91.960175177304748,  4.111323686314723
12.074156220073270,  3.966694297774721, 58.737221612356059,  3.907467730595873
 2.199064111217160,  3.524157990858299, 35.902544272174069,  4.093204241053647
14.051841370821249,  7.151095875659646, 56.699994746755173,  4.332989375782863
11.889870186374027,  6.890546522671393, 37.318330550437402,  4.229924595487915
 4.252375704593272,  9.177493392117164, 64.201992765023775,  3.640389506875252
12.924770015157677,  6.526384143156021, 92.391896744024876,  4.192263865388689
15.028100979251356, 18.365232634657708, 79.766141734539261,  3.943684760488928
 3.471028340916511, 10.477289411555667, 19.424835724065428,  4.160136952522469
 2.591056728556780,  1.153375992580333, 77.273641384659498,  4.392099431277579
 4.994678771591622,  9.394959702612157, 88.374451716572452,  4.043996230504733
19.018304002044410,  7.392673176884630, 88.474928358887567,  3.765353197689229
 0.403067874427813, 14.457092561980584, 23.444664624888851,  4.059859868839251
17.371694576842877, 15.907495557735883,  2.352814053919540,  4.342079713800196
12.478275152021551, 12.707602959541511, 32.105293327279234,  3.940356325323344
 6.995632018632257,  9.101243986446059, 29.003694925173587,  3.601124123397892
 8.244536586258580, 15.682343722375121, 81.709308589899351,  3.731239915903057
15.850040648436977, 12.711018506171303, 34.594979331830402,  4.287711770442293
 6.833006050883337, 11.171303815350184, 81.838819771707975,  4.073109781192787
11.518667115989853, 11.846749204701249, 56.281357864289106,  3.828912421895430
 7.574125249707834, 14.339697423432691, 44.818133592028211,  3.980948038117926
 3.314228349101715, 10.635884720100622,  1.972967714929046,  3.855255632936729
 6.957420014673526, 11.262452037837344, 77.366277783959433,  3.831143906563675
 4.615855641432805, 17.580312971853736, 106.594816920745416,  4.147309705600660
 1.690326624634710,  7.466903843068930, 61.767856709097664,  3.774896015621109
12.621038025095025,  7.974425386087460, 12.433443243509457,  4.110441701097227
18.941855176660908,  1.939467207471599, 46.195572388830101,  3.859195524590259
 0.117111563208587,  8.408690112905434, 107.644537292486262,  3.895159983074481
16.637681283498669,  0.818478826945557,  1.766387267945494,  3.527461967857838
 5.491325163200205,  7.935575998422575, 25.509467274999569,  4.225187227877077
 7.965397039343851, 12.399688805656783, 62.979572854674238,  4.027569082672724
14.203958310332792,  7.325435237274678,  5.733914527640712,  3.856190017893916
 6.168678359364130,  1.774866789380577, 14.262709691239799,  3.999142808089167
 0.756664088543598,  8.680717207401896, 78.789524590206028,  4.376589438717056
 3.020593961839763, 18.392242881279866, 110.431883804554460,  4.301177323955543
 5.970385276091743,  8.130607727905035, 84.575905023308962,  4.169677996366732
12.380706458992925,  7.146902603559535, 96.443714016323455,  4.056073340795456
10.053903844500008,  9.666551960050075, 117.565456176399209,  3.771817896090640
12.024741979100922,  5.597316724976865,  9.029623335631570,  4.097301339591951
 5.201255552945911, 11.424625756327636, 43.691930888975847,  3.805475147286044
10.727784667832232,  8.599664608236024, 106.617445265132275,  3.967136402672452
 2.577028312880560, 15.435808663309093, 71.954612523587528,  3.787289032715363
 3.274341615851116,  0.826987679028939, 96.653569856151933,  4.125553785501276
15.825223115749056, 15.982937836602579, 39.254293727388934,  4.001247036020067
17.352758691627589, 12.366321781527306, 92.326791364159860,  3.899409073523969
19.086755853618119, 15.887812639741847, 106.124964757513382,  4.030677491832394
 8.232728419448211, 10.363782906226641, 32.453029971525346,  3.807032480273596
 8.795721748422720,  8.754560751507919, 101.190686493243447,  4.028949508356896
10.886623399971224,  1.182937573798477, 23.366836813597242,  3.730956890157513
18.601047785173037, 11.632433105966347, 19.980669408978144,  4.010524818501108
 0.946617328921090, 10.926767002347965, 16.377391001676347,  3.803484545024159
 2.208532522260534,  2.630515574799925, 84.521590955795517,  4.109825443590668
 2.948271310081301,  1.827690435287053, 90.381875254648662,  4.100657213188848
 6.220659369079186,  4.301145841096313, 111.930364232310794,  3.959229557695146
18.494066555833435,  5.583188828263480, 15.935434786515451,  4.162432265781947
 5.560795106534848, 13.431614329413229, 16.324365587211759,  3.834220987037360
 8.437762634904740, 15.288993910241571, 73.972205636277920,  4.386128224715121
 3.923767313227494, 12.230424438511358, 96.773678920373939,  3.816300850905519
15.192417431006950, 15.280214776078408, 117.471750427600341,  3.776252026283248
13.144915174086307,  0.127150895565255, 49.382557546179882,  4.182797526559177
14.117334207931606,  9.134129941336866, 60.534834026530440,  4.063522092147934
 3.555089801468468,  3.240174343206547, 105.631687643155274,  4.062006853125821
 6.094956466590776, 10.876311417332445, 117.467912229646643,  3.917238384019567
 5.726268530427933,  0.332904201724627, 99.932054855745093,  3.899055422586589
18.910312257224767,  2.212006281000427, 53.452402615843020,  3.970986203935213
18.271093653941723,  1.762566751353023, 66.951414252540673,  4.202254805872106
 2.111767078879484,  1.295145382160390, 50.147809997598195,  3.960334301912689
 4.799959365676508,  0.201414235498066, 36.233137036589405,  4.323190122882179
 0.877470718958827, 14.923701993780581, 39.448259780948007,  4.049437148540296
 8.895316131637029,  9.671070417010482, 36.488964600381188,  4.070382275381148
 3.787108643350047, 15.903563544346557, 86.645277209850420,  3.965806510657599
15.291743979336113, 17.700279258206425, 25.117377200172150,  4.069747865615835
11.299570751593578,  4.501397318883661, 17.629214086879241,  3.918096485552484
17.251519596150022, 11.146353021904641, 88.482059847210095,  4.163092226236649
 1.010065009603990,  3.416099103682065, 74.282287102526809,  3.696379218478935
 4.746097130030528,  4.910132985032621, 11.235999564801521,  3.889094485854342
15.476510054848879,  0.112830517013141, 117.399901475505388,  4.043639800479141
17.893233350463046,  7.273626283922669, 58.819109509706955,  4.336656871008104
13.827925645025553,  1.533089369606449, 73.115294509180828,  4.043153297899567
 0.615190455099087,  3.560444584545700,  2.024293201869515,  3.966035544621955
16.044398297766733,  5.577423628323259, 43.752708671768879,  4.174813119436390
13.959111158683639,  8.341230640984977, 117.600921444388575,  3.667247737830074
 1.643009287228254,  8.500498997069956, 13.011094796806557,  4.522545668032252
12.116793022589759,  9.796890882930329, 103.140865236261860,  3.830013592543036
 6.332485796385696,  2.036340865984146, 64.947245039995423,  4.069801502322827
 6.046699778774455, 17.150699589506690, 70.859951255721597,  4.195998187667048
15.463785904682545,  2.635749846402501, 16.063613797702917,  3.815908828676162
 0.384508222225744,  2.726966147412309, 93.565853012939968,  3.865291722944896
 7.948495951227541, 11.172819969800953, 58.003760755765079,  4.139989811015023
17.452221114740073,  8.740538331635783, 50.618134023767169,  4.064294803789472
14.785025845286704,  3.106998813322422, 105.390339982188394,  4.328867048100564
 6.471670130839598,  8.198843300291474, 97.789610414447395,  4.124434182582396
14.421438505124778, 13.336355323708780, 54.078908973934197,  3.821896259678057
13.105789246618111, 11.269836130505970, 86.883359989977521,  4.158948426470979
 8.974472112046747, 12.042584353139263, 91.142220690188580,  4.025652825956642
12.817916206781524,  1.830416278649864, 62.178287789766998,  4.025380106071821
 1.062626962993270, 17.658634417981983, 36.267291297398003,  3.839841228609995
 2.609296207275691,  3.916314534438631, 113.809473089009018,  4.109071332128118
 7.058417096447423,  8.500168597481473, 91.750628557648994,  3.956091620316371
 5.397763065784916,  7.555146442113683, 36.144043802680343,  3.977816119702258
13.941285246203837, 13.248704602175666, 102.120815967314314,  3.902403411085398
 9.037111887588997,  4.859362026766241, 91.817191650689168,  3.786543925991869
17.937348638120923,  5.594067845406538, 76.590245579352114,  3.746079052752942
 0.000858962872684, 17.499706105900046, 52.780927731617957,  3.739286490497812
 8.751582609600948,  6.205661320407758, 95.297802445743329,  3.694808431334050
 3.555885193584486,  0.175663149679924, 103.142125504505998,  3.802562498567985
13.014149973411934, 11.548012332028103, 66.858636973544364,  3.893884033574653
14.859304722528959, 14.009343231235180, 23.641143894837626,  3.921192636388402
18.837600641275571, 16.717957886664419, 65.563034796491678,  4.031149984272063
 3.736492633669362, 16.941768651062976, 22.777889825858715,  3.991415200671394
 5.382384070250824,  5.654454420154242, 108.261880715003386,  3.805580493846375
 6.178441050598937, 13.305989677410064, 88.564236496834923,  3.972518921493618
 8.412463918239348,  8.715163597475840, 12.179611626699728,  4.344539881814202
16.360600521806454, 10.685137540841968, 46.774143079793568,  3.973236205006413
18.505781160289207, 16.255088618769143, 74.126125547246900,  3.974453290504358
 9.803368813318727, 12.767403750853086, 79.604365960813865,  3.999834884600489
10.524921539676992, 15.792605772694216, 91.531913313674750,  4.119033645335580
10.902198403461252, 17.145501157238328, 95.439622838023467,  4.129747017790562
 0.008818218027864,  1.683433633214840, 30.185633648179987,  4.330015563168158
15.659179624938584, 11.102387666231985, 13.218095853750029,  4.246653442625564
 0.421973524685305,  3.489879672365555, 39.904754202676102,  3.733362606783413
 0.940374648126073,  3.729297550201363, 63.185132071724823,  4.243349929642998
 3.625820954541877, 18.119209507849440, 117.468920958895310,  3.936172891334109
 1.254701318383050,  0.436239616386223, 107.064775790206951,  3.643191460251626
 6.754127144553244,  4.551579694662665, 22.374384284835742,  3.793594377900102
 3.710050042851964, 16.670398380757916,  5.186606391590588,  3.796394259597257
14.853541940058964,  5.055595788512004, 98.894595625054976,  4.032939091782947
13.772129125785128, 13.414873752539217, 45.160919838661954,  4.182015399019304
 1.665862649589812, 17.425638218122145, 47.236939459076190,  4.357030585427927
 8.887970494368712,  0.531426362433224, 16.900326948166992,  3.962539621245647
 9.075206468054514,  0.735625208067102, 72.162255060233122,  4.063018544749866
 0.273565605984196,  7.041304564634889, 25.900835450449481,  4.094884037791399
18.222816269830229, 14.220284207417638, 46.220810042861274,  4.026672388488887
10.625037637032236,  8.076979322813383, 58.830581853715678,  3.938919282387364
14.855934848058036, 17.674173056787247, 75.633213432744938,  3.990262493939538
11.484533230585239,  3.004502838415739, 38.976251607404386,  4.256387716058805
11.779973434860416,  4.384638776534614, 71.003175650582733,  4.082732571656615
10.932222292242960,  5.271175573387017, 99.684894147663783,  3.938672632871041
15.731957979239814,  7.161576759143330, 114.438757027726794,  3.865177300967935
13.914646152963105, 14.623503079151504, 89.175322804564544,  4.038107767414906
14.320084401815333,  0.845910496881166, 58.629395286299697,  3.778598816853484
16.709408355705087, 13.231549224591060, 16.719115010183014,  4.120996368575457
 2.819256086873351,  1.090974738979342, 12.074518600287451,  3.833570583223906
 0.723438918788597, 10.826944912460091, 64.182117005249921,  4.014816341032192
19.016560685500902, 11.397501163447542, 32.375486731811051,  3.778334237967706
 6.153296598484906,  6.329392023850164, 66.447828918478550,  3.284679023500577
16.372792448509458,  3.560742364985664, 56.400660299749639,  4.233788804168070
 4.288021470077207, 16.247893361294338, 66.868001787415110,  4.070862360770535
17.128208909445583, 12.233164954885133, 38.947201358374279,  3.860157767172879
18.983700799567305,  1.626633142845901, 14.623232843847028,  4.024876268547502
 7.348993657308120,  9.720733319132048, 69.875592822076456,  4.037566580889150
 3.177474048729120, 11.063494282634327, 60.910014127394859,  4.174879629407135
 5.813150148814793, 17.144518367795005, 19.019143113972703,  4.240948357815191
 3.250052633849156,  7.631959440079817, 29.039716793962185,  3.998189203726605
17.159517553060244, 18.596957163036382, 55.938253481821221,  3.999506608116100
 5.675369802046045, 17.505435480591373, 32.663583697029850,  3.836296111224221
17.572893264686613, 10.136073076287783, 42.697695512553487,  3.861411829479003
 3.779066287387912, 17.860508610643979, 40.026228088253184,  4.045307160336386
 4.174489115833000, 12.320966229982904, 57.151450812903974,  3.916993724461014
16.788173339911058,  4.412991393865305, 72.380779933455429,  4.206716430111273
13.975324554885811, 14.711609459950251, 27.373660065930938,  3.762207567571398
 5.475856309150419, 14.561570080362237, 60.363489797085258,  4.251665759407819
14.083491363302848, 14.937875056500690, 85.029245879182724,  4.276539949186732
11.457081412077935, 18.167499656931827, 88.433579330019541,  3.836841807813973
15.834908962591001, 18.205405692836294, 29.212670900764277,  4.200808693108688
 2.595955962081293,  3.881969707754010, 27.710095802231059,  4.040696645817649
 4.481627664506737, 11.511036690779472, 49.476420463395044,  3.812405904919928
 8.934900735106135, 15.685576180830052,  5.719447465519925,  3.502368623859893
14.801475301064704, 14.281373053523735, 77.907406700199402,  3.962679109504816
15.052227566526302,  5.907497201773895, 52.707452524019793,  4.097051051836970
15.008401669752105,  0.840937478780460, 39.533215528454555,  4.081922502632143
 9.203249119816174, 13.457533504919517, 117.440871158740350,  3.977365073087160
18.310857319357574,  5.007256379148818, 112.375774945795200,  3.563978175034408
 3.974631755804618,  8.466742176708955, 94.476960034354192,  4.170552984099617
 6.784502339087495,  2.978308063116581, 75.646952908432183,  4.082221158447445
10.033251119873393, 10.365568497973305, 97.544883090646252,  3.996578692492471
 5.347536442856950,  5.952810332807189, 54.244093880320641,  4.065188342940385
 6.379152917040900,  6.095610033677267, 14.592517670231278,  3.852370284303804
 6.575169921702875, 14.399526262604139,  2.086550804338097,  3.957898038763342
 1.206362648114336, 14.425063002519213, 59.356656875657400,  4.159766511812684
13.659134034948503, 18.514867829736477, 83.356756603385890,  3.574707674614818
 9.432244746989218,  6.583850727149312, 68.330407758738232,  4.076386397889798
 6.063342957750327,  8.181270993695401, 21.505580847925110,  3.755976834326749
10.832653481523254,  9.467373420607956,  8.845584744805739,  4.009537536228271
 4.305822119723540,  1.650542851832742, 46.400053575534841,  4.079265501307400
 1.200550604692887, 13.810628546884635,  6.140249945412798,  3.875317875165809
15.342176522957446, 11.408127432317045, 63.666939887311266,  3.910139298330863
16.449233792031556, 17.039455961706288, 35.560310052846752,  3.773046301174976
13.273376379979791,  2.391866519583098, 26.409019884295560,  4.360331542072514
17.550953380229352,  1.311675004048463, 110.987043249515921,  4.311474813127982
 5.970020725966299,  3.892486633975728, 35.470972720346367,  3.492674816256753
12.744692876768823,  0.874673129209034, 31.936360103194783,  3.656111634838184
12.862356985206871, 15.379832602019569,  5.901131649116886,  4.102889286239588
 9.571706850087960, 10.765174847815480, 19.190937167761348,  4.101599540487592
10.329288115682200,  0.951701694005775, 52.505630135546134,  4.358560758929786
 8.134197599430882, 12.384920647906942, 41.534641262153073,  3.693871164124572
11.673604693553022, 15.324809819202379, 14.312377537800693,  4.162956292227038
17.760233015890947,  1.636324076151595, 36.537157667500374,  3.995747789010773
11.492479238307812, 16.967260303374552, 65.877601284477151,  3.761403271356494
11.874735899440326,  8.452051361481614, 114.161245998408177,  4.237120395788511
18.834049085921254,  9.929125123091584, 36.275588916224400,  3.837701771064656
18.478232630082843, 13.770635060592882, 85.309124709249957,  4.415358161406789
 8.460624874288429,  5.125171670120368, 60.423163584458031,  3.943504692184607
12.206456386614944,  4.306929244422113, 21.476253091210893,  3.957211036590222
 5.801226422116145,  7.278284774813955, 32.133552453840203,  3.992964161049606
11.810755665574824, 17.041741591644261, 46.055347643450503,  4.022296633119934
18.027424549259752,  9.735302993049784, 28.877728631337988,  4.177584978103484
10.100281138548040, 14.143495425655306, 87.737927759135417,  4.078986158273338
 4.592479591675027, 14.756653046243873, 82.462127536917109,  3.642486380747815
10.951274703854574, 15.737124403838324, 103.542777599782355,  3.937466261729605
10.989368933622627,  5.773672386040291, 117.437372983624755,  3.953117985668451
 8.558395029134195, 10.589116394133116, 86.672694994850232,  3.871515503620993
18.801387666576087, 18.993914522920910, 103.582832602043652,  3.987450360412188
16.460172730146546, 13.777386201072858, 66.781442358706059,  3.913270575955387
 6.007633171921763,  3.800694217374153, 84.709666826940136,  3.812824109173597
 1.350113943818055,  0.001271167235959, 114.255714571274652,  4.146015581826387
 6.144044018409105,  9.105372282717122, 40.008409393218678,  4.470553825770302
 5.276083100601197, 17.380120178301844, 63.202288115468122,  3.748654339582224
 4.112312198555109,  4.584439697441558, 117.494264416457781,  3.877379931743748
 1.921258045104585, 17.710414569246794, 83.384887976368290,  4.223382978063371
 3.828249919191398,  1.338930398854694, 81.231495275966722,  3.647294644448369
 4.025144656712605, 15.962513147951206, 95.651613500109136,  3.804496750427779
16.118806005667135,  9.834598425563163, 102.587800396865248,  4.232699483362054
14.215959556488416,  4.601533891280479, 75.553556867355454,  3.745839942868522
 3.824360458969512, 12.505054159030591, 79.409759062201829,  3.984319449115626
17.949138334317865, 15.235839882341573, 50.049285894100713,  3.663245526553947
 6.486504993880402,  9.589855979958031, 16.755860531257373,  4.081658609830871
17.352501771515193, 14.609674934881793, 56.332736339056765,  3.995429854246778
 2.006485394153565,  7.562601103640592, 111.402647911304541,  4.179891700982460
 5.842422279635329,  9.621929256302796, 55.106786998350941,  3.535464558206410
 6.829519507163480, 14.931821966659397, 93.134110506052039,  3.919662412549889
 8.241912676562924,  2.112877695613009, 49.004162061197967,  3.975821555913440
 1.264150508356156,  9.640273038828786, 102.508341121217995,  4.045393214874873
 0.791448240352123,  7.040793089085847, 65.787728424454471,  4.152891106198225
18.067107831079131, 17.166603684477590, 16.522119515446004,  4.143914225479842
 7.551731384658433, 18.422664371197204, 46.021556707436879,  3.915558493716720
10.803320156485618,  7.489447454004349, 29.692116928022973,  4.092357177114698
 9.944875070908029, 16.142959976055003, 70.275788846783996,  3.766077930226241
 3.307747452211393,  4.037220033823400, 66.622736085750404,  3.850536549042874
14.527135524546617, 12.746186983158200,  1.968721915690980,  3.929969611396311
 1.075714391885117,  9.679678274783386, 91.453421075324101,  4.091321936812538
 1.697833906654847,  5.906859736112684, 91.629270946564901,  3.522692543101283
 1.634750757025702, 13.986403690002778, 93.402385238654958,  3.731925879673843
10.485442284505261, 13.930805767544786,  2.877570465278452,  3.848589805297546
11.268866788621677, 12.786890415308525, 25.298261278159210,  3.733243316723514
16.648991626324797, 14.448686694352983,  5.960629637703137,  3.556322130841777
17.589626636070733, 16.141754992360553, 93.266506425245097,  3.879996846596219
12.531113370630175, 10.946641162960093, 77.076872550295107,  4.266689017249751
14.077085419059749, 16.366287137057938, 32.482051664515986,  4.016527835682968
 3.093074918629790,  4.685869467212606, 23.984506279654315,  3.641247359353482
 3.293888931151626,  6.555774421478326,  3.372633650999108,  4.065703793375619
14.312164384995562, 18.108225653820469, 15.511979092620480,  3.666268601549391
 7.624682153290113, 18.067325213529820, 117.379103177692443,  4.059738468084298
 7.047924997202320,  7.361687395496599, 57.640077434525899,  3.663544666067857
14.555633954968243, 15.573737612753902, 48.481254801179901,  3.839341585717210
 5.954150390116178, 15.760607308587774, 109.823964822480676,  3.668713118086996
 7.144259557574836,  4.027577263566810, 98.494212497172740,  4.201676155377521
 6.142616538599192, 15.387390575051844,  8.247885909554530,  4.037186218414599
17.773956536614708, 13.660501099705204, 115.334897025060471,  3.625534969558527
18.667273904311681, 16.854803790626704, 78.308005064036777,  4.398987040236380
 7.616204895978462, 10.850815999490901, 113.731355155727613,  4.076958153194656
18.778477088426264,  3.320935301781338, 105.485617992115010,  3.642067691617168
 0.979032825454986, 14.081141921093982, 112.437394314000471,  3.820286136864721
15.863064011714362,  4.662304724925623, 39.812854386174635,  3.723950486122273
 5.881422126268002, 17.673844100152749, 25.890976231080618,  3.571567895839003
 0.451361307073220, 16.655418005574766, 43.247807460368129,  4.101300442630233
18.151197783288985,  2.940924507955783, 97.361563294813564,  4.112713647432345
 7.838078481490780,  2.118714913743407, 81.703126742462885,  3.951405308222178
 7.540688921481085,  5.904401968498964, 18.537618063929770,  4.275235141660430
14.570688532599053, 10.334963138094471, 25.606085223090332,  4.161750461555932
14.045422745192916,  3.799749154953252, 12.334545995144008,  4.325909685713548
 7.004803661520398, 12.868215397544274, 37.908309580406822,  3.879637416123983
 9.466041575004251, 17.346803338810730, 49.351118736016993,  4.048187048339408
15.143990182380509,  1.757810959212434, 52.534222626498810,  3.804340082261525
10.349211067578384,  1.443643895205355, 65.325018818180752,  3.682379506584089
15.326657246101499,  1.027238257586352,  8.410240662652262,  3.946543137818704
 7.262026627384692, 11.633707484928069,  9.325472971928610,  4.065174791237483
12.447071785387303,  9.850977951926845, 47.621532107696559,  4.081917965932157
11.336974228230940, 12.613800712401549, 113.781202730865488,  4.147924036973566
 9.530584898145040, 14.666304358376388, 107.139096352990975,  3.878288015176886
10.225283361130270,  7.841687056980387, 71.964077507308204,  3.621145744306086
 9.805480115442419,  8.713779901668802, 83.147591322350920,  3.955261704197613
 4.254281425818911, 16.016860367455653, 113.916711339605612,  4.279312753173163
 2.457783434926700,  5.229319851067736,  7.611998645230712,  4.033822670267106
12.829478008399615, 13.481758208070525, 97.976322977180629,  4.379957659664232
 0.731144447341220,  5.665949636584196, 55.443533506109929,  4.078839694541343
17.193462215301420,  1.013412184188181, 19.162130403520923,  3.966960315876559
 0.462191564383436, 10.773976404121850, 70.266449146696218,  4.193300008351079
 5.056955849660049, 11.218251541119916, 103.375627594140170,  3.925468527827654
 2.292556564432306,  4.440433633719780, 59.243757143156962,  4.173783850138381
13.867615065802147, 17.461916817755359, 42.530137888136800,  4.018390926927226
10.347044296914046,  9.328933316860303, 93.707389364539878,  3.864384057497440
 8.858058491824345,  4.211263697639438, 56.091014495516937,  4.080957615053695
 9.461335115547985,  0.697277839051434, 114.174719280970024,  3.995431791818278
17.225650366214921,  4.942983462111008, 91.213156373256467,  3.897554059385413
 8.067264292077493, 11.296764810101088, 23.040437839664857,  4.147313267477545
18.108450274013844,  7.095434432537568, 100.153345377602349,  4.003059205371176
 3.671151922278388,  1.588272812574555, 21.766459206654904,  3.705502022305526
 2.340067900560673,  0.244394202200403, 25.788453804148276,  4.183223030323478
 9.335421240806099,  3.314682814452890,  7.017894979474407,  3.988173680438932
 7.897323172172102,  4.781476912067259, 72.149279722574533,  4.039078655095007
 0.995451833974853, 13.778888601392323, 29.441359115744351,  4.003543162868399
 3.731412915510010,  5.710020538371483, 82.212648015091375,  3.943335067192595
14.900430287849696,  7.892137565908832, 106.450337898687195,  4.409030443408324
 5.879727812848012, 15.792693660681522, 56.107640361934173,  4.026621483269172
12.531316438749414,  1.971814901640092, 85.966187917195001,  4.076486478502503
 7.096268683825307, 10.970023448936296, 94.973364085826134,  3.841933475567077
 7.193409718063449, 14.262430848916718, 96.955869759685640,  3.836275596594716
10.614921891559515,  3.436849706877721, 74.672524257205865,  3.845230560837450
 5.669692722982896, 13.389297392020493, 106.729292819362868,  4.128556102219381
 6.129516694941228, 12.069332249510323, 26.634089770678028,  4.160168251205618
11.718094721708963,  3.898138266821414, 49.599519401741695,  3.875453009537464
 6.795956994851590, 18.824607011828746, 111.608111486620217,  3.617139610256220
 7.355683738147354, 11.031752149723333, 46.993227567976390,  3.828716083442881
 9.029278855926503, 16.368225860761136, 62.897556874628485,  4.042949573486792
 2.113908303398405,  9.746595512304275,  5.780906719319517,  4.269031567175175
 9.232813617485400, 15.078099634259091, 31.394820751977317,  4.104101619456478
 7.234037728328585, 10.510021121583529,  2.089532974936828,  3.912211461780430
16.125247197433534,  1.083616878759576, 94.388196286436425,  3.728226223406939
 2.502021712153462, 14.580462438667938, 108.863771517112752,  3.866326855032465
13.188670178698265, 14.990754813401907, 68.608029871131620,  3.724124469046714
13.225291579789500, 15.198808633569991, 36.509534945569506,  3.628958705716214
 5.536771980162402, 14.745242375349854, 117.550202148676689,  3.782240223433515
17.523971911973515,  0.340380573712331, 71.855418040628052,  4.095857531849943
 3.378512950678624, 10.874862423325977, 35.274417627262402,  3.927997393928820
 8.754524567486738, 15.324667073204822, 27.227581660211655,  4.279846693697328
18.544050554754470, 16.599376209517157, 109.951993523646323,  3.754587636898373
 2.983336282771886,  4.185712550853551, 14.669029034927798,  3.933765073681405
17.331711079766386,  2.503206942867922,  5.326175305901343,  3.814146398193196
 5.121903168758365,  8.038583887201936, 78.880545475784885,  4.166061137978751
19.074230365515422, 10.409513221804879, 113.625003237066252,  4.018121920819365
 6.600550291832726,  5.180008268269288, 28.576704563069896,  4.306282079380463
18.986420209717085,  6.083475954678462, 116.644590445503425,  4.237681430107691
 7.973244873353799,  9.488300331632999, 65.837509029885368,  4.065947452981554
 3.742152592258327,  9.201710092630600, 68.049053004903314,  4.026484675984467
 1.960308630578986,  3.536660395533187, 109.541595976073694,  4.402066821679491
 1.343416709092268, 13.417291169951646, 67.220782707531171,  4.001548162483866
11.753827872127285, 17.525163196149286, 29.089207793069150,  4.033797356843116
14.974017377083875, 17.060856921368412, 103.643697654920004,  4.411193709866472
 2.716330467720650, 12.723864168309284, 100.375271209616955,  3.825657610148639
12.522059759877253, 14.149636677619272, 109.907578259283014,  3.932157116477496
16.239056600500664,  5.007008341454396,  8.839117867244569,  4.237449153544795
18.189436975969652, 12.340359767201914, 53.074615273809663,  4.092948400791256
19.005491283825357, 17.558901739111747,  5.855062825564579,  4.009414244229786
 2.067966832696285,  4.555473660891171, 47.881646439761674,  3.759926787812238
 9.101191320644993, 14.802020907491302, 17.704703210958183,  4.222313806005746
10.004553575451304,  7.386151649749761,  5.491578799380143,  4.039528039480721
 1.332809884041954, 17.833879078702950, 61.675506842632018,  3.994218114771499
16.711106116791811, 16.822078075456407, 59.890639138387243,  4.472233101844936
12.544135960668958,  4.286679879715064, 66.977000262320175,  4.023403688206663
 0.224542410424488,  3.454318236680996, 21.657100173257511,  4.111450185068243
 5.092790344442769, 12.916143822912547, 73.631203004496669,  3.834942390746255
 5.470309118849282,  3.605766811072810, 102.162764526423018,  3.891963089425380
10.988181721719144,  4.382154669130568, 113.607239075425127,  4.017885332053818
 3.569570276220774,  5.375241445357269, 20.228108925598420,  4.013490471129074
11.920949593064627,  5.811096383078269, 45.511265951864452,  4.332692659498270
 3.252257272038976, 13.676456031715974, 46.331929345143315,  3.977794450119575
 3.222882544187654, 14.971930933967776, 26.241637873596058,  3.941745958626917
11.131154704327708, 15.650246227589369, 77.239228357468846,  3.907234848982285
 6.811179304144120, 15.861809125858867, 52.213444561777486,  3.891452146266689
17.467331728454216, 10.267885476268869, 117.361890417991845,  4.107883233769853
17.305613246972396,  8.661211130935717, 54.632564943983581,  3.928695120649224
 2.387876453957088, 17.493515084323366, 29.477844262112633,  3.879308736282756
 9.395707398771638,  5.204377825931648, 64.415635406090189,  4.209549566474336
 3.955892807944770, 12.599708704056052, 69.933378573663276,  3.655542273922707
 1.510579231374290,  7.695011183219174, 33.255931975878411,  4.473462275658524
 3.051686894740367,  4.735258704200263, 98.315361040727907,  3.973339901274054
15.427696302163717, 11.162396802744984, 57.076254623361642,  3.796592965480086
 6.008734882701305, 18.230024061248308, 83.444959702614852,  3.851483445649191
16.702566877751135,  8.296805178535104, 71.459204040668311,  3.728488451765634
 9.963504019689292,  4.544823573887195, 84.123610637853929,  4.037296839653663
11.297706761200466,  7.187418798526476, 75.820468998618963,  4.011037613391434
 8.195834443639773,  6.993338895672328, 113.787096618232567,  3.620064789460141
11.460199627881014, 17.772735190751735, 38.971864239870150,  4.321397736303680
17.227632770085293, 16.511581829890535,  9.413762473475286,  4.216227767485275
 9.842481903409944, 18.784932864788061, 12.819232884207141,  4.073070006056371
 8.736107639954938, 13.403218356472069, 110.706712898856907,  3.828592340623120
 3.983294882756752,  4.260930555202502, 94.363394948811248,  4.083341687650169
11.014844616777857, 19.051331788774601,  5.470034982923773,  4.120900170155344
 2.677853697385471, 18.247757228773512, 57.641443505294887,  4.308070599927126
 0.750060442805463, 14.429878663062318, 97.201112672405941,  3.941156600405497
10.353830344350236,  0.298184426912614, 57.880480593257779,  4.179191964102578
18.780005335412891, 16.535459169242998, 26.868058275034180,  3.879465500357483
 2.989935351852443, 15.170331971089276, 50.752014860142538,  4.353908623548457
 0.618576925711500, 18.457071200234505, 87.447738886487457,  4.223882608712493
17.182078695625346,  3.615729784564579, 101.970027433860224,  4.057232461073043
12.507621231320201,  4.920010966927928, 32.815787562752007,  4.086611246367708
 8.171585174463891, 12.559706483545828, 54.084239630123918,  4.150889782056099
 6.729119717857574, 15.302659910727300, 77.973004894780232,  4.297955425445632
10.420773438855189, 16.980474231724507, 84.710543595219576,  4.079452569051476
16.738478101636598, 13.934814524669857, 42.495347478959957,  3.839623463911570
16.049339091155403,  0.188228219963023, 12.324559158139303,  3.933010860760574
13.831036705663760, 10.926054236390689, 90.976120558423347,  4.140259258992203
 4.707799458177558,  2.763599957782657,  2.199283597473696,  4.354519496462888
10.998421081193635, 14.037676213866233, 21.480526872492813,  4.314334960893571
 6.472344724722756, 14.645559330368368, 48.551257628099705,  3.815137331506227
 7.939096507678493, 17.990524239018484, 67.231568176211780,  4.035927512116822
11.450967054718246, 16.771852811640134, 24.575247746744378,  3.790817729555305
 2.398574754297445, 14.503981229166268, 19.785036355692231,  4.096244770441385
 5.952775938515636, 18.835567409165375, 92.382956830673919,  4.196038763642330
13.170326243357049, 11.265771456038628,  5.998127498713203,  4.146963034620638
10.424256750982618,  9.424464109631627, 40.453509800248035,  4.016953412542946
 9.028201967005053,  0.471551736369589, 26.859862792510377,  3.989344057470003
 9.504107225817721,  2.454118101711154, 110.161051317811015,  4.282152010579968
12.534492752014977, 17.132427319975193, 107.142728832050594,  3.885827086964428
 1.426393666933025,  1.621872345475539, 100.325157343865754,  3.780414357141298
10.030076569340880, 12.676589522093396, 101.121409878954012,  4.048657724484055
 4.460727707899530,  7.377676875534729, 114.640538718220839,  3.871150333716223
11.983037752716509, 13.646536241446203, 63.559434802829060,  4.043816225804277
16.088635724819660,  8.260608397708790, 96.953045067393248,  3.741305256782983
 8.050582905677960,  5.912602755205789, 87.618933755459935,  4.354903204643185
14.052682081370389,  1.389141936841028, 97.499619266379710,  3.749190633890281
 5.032256808250158, 11.172335909133347, 13.025420704120535,  4.029055603441648
 7.261851048060355, 14.514282882884030, 103.249637425963854,  3.806407397636677
 1.300656019914900, 10.246091716298379, 45.949651492911585,  3.921204098856946
 7.926417699843949, 16.637295797152888, 37.039634712659861,  3.994681760802123
 2.658153058074240, 14.420043259417838, 63.482480601762575,  4.154965903075412
15.118252002339716,  7.527016931043217, 89.010419995150528,  4.093609312531656
13.280764857386998,  3.414816956814158,  5.724095487181675,  4.173664583097096
 0.818593708286678, 14.287555445249003, 81.372974663027165,  3.934346651938653
18.694161543806587,  6.937283266773865, 40.881581759544574,  3.569933698393621
14.547024180196230,  6.573463863734936, 48.711588337266988,  3.979936909401310
14.178971101835330, 17.811572765627211, 91.808083383658328,  4.239204843125203
 5.327245498526298, 14.739307778285955, 29.733054791049984,  4.118936147010067
 4.072076122139968, 15.289219306408558, 36.979284432699984,  3.943318669868776
 1.070788967241807, 12.452444417660097, 73.919853612147861,  3.862168327473639
13.371562758967395, 10.398914259531949, 81.914472814071644,  4.308348052459841
10.668365684156832,  9.062914983455753, 62.784966932907636,  4.027317004960694
 1.265706240979571,  5.160704137968628, 43.997767221765692,  4.242771423060058
 4.860706154066842,  0.671004500855785, 86.866347481370710,  3.966702074432729
15.896359919772943, 15.343606129038980, 13.217887066432517,  4.152310001347276
 5.231397203349496,  1.822128987641118, 72.091102773413766,  3.900929308397542
 7.575803668640114,  2.106568424941401, 89.468796850359439,  3.994491548354006
 6.907569203960840, 18.918091875846166,  5.606765615741468,  4.039044253935784
 0.401149418355856,  4.662704040791768, 80.210243689501567,  4.088830822051301
 3.838720883490661,  9.298889838875944, 108.218482796497639,  3.733108021904858
13.999639670059180,  9.959053768190966, 29.661514243555750,  3.966156251750742
15.759758456725137,  4.570781346681819,  2.243332258837262,  4.230344567439523
 3.977659670318400, 12.456999247769557, 23.093498347000398,  4.144556327181482
13.255275865358211,  8.060579702465674, 69.431304369299923,  4.143029103586128
 8.809474445104469,  1.216960396251784, 61.724395806045585,  4.124877011725815
14.496116582589151, 12.009014753880336, 20.086654034067760,  4.160044846103682
10.312284929154490,  0.737262247959997, 92.111162370746854,  4.052428840049980
 7.064930115128392,  0.061415321148696, 22.652604796616327,  3.733235856340781
14.988062445748129, 16.383084944469772, 64.094452032809798,  4.075586716550041
 7.699488346158966,  5.210203854432971, 38.704877423164028,  4.218977079228675
 3.160216935528030,  8.295320453136991, 57.673529912012370,  4.306882961050353
13.596498465554982,  9.629701063909875, 53.399107708279736,  3.891564604069119
 5.873759622407449,  4.610536939643051,  5.664370972211875,  3.792201102928864
 0.142384292000673,  3.385501587010933, 87.969914234743584,  3.920163346369014
18.200098790900096, 12.112650996174468,  9.034841687919103,  3.968151250166654
 9.237655541734899, 13.497552698279838, 66.936115131882303,  4.491942211279484
 7.419881004746876,  6.388545692970604,  2.225188752674685,  4.331150381201972
11.824496513480732, 17.346445370310494, 73.284826991249574,  3.637099687223553
18.840514310182837,  5.842365318357340, 29.709406420645919,  3.947054208476906
 7.411715043564571, 13.484409880011606, 70.545473727652436,  3.564590250201101
16.130605467862157,  8.968481086965078, 85.025521223218519,  4.301837562758213
18.233239606905943,  6.808585456327997, 104.255877455480231,  3.817197062445238
 3.836057759860711, 15.781689369631478, 90.609357720821293,  3.957577995599828
11.699724848303074,  7.330477033790553, 51.101649632814734,  3.571758365334020
17.247007601443997,  1.827841434663487, 42.702438931193221,  3.893255134314811
 4.254740022037115,  8.602771654137676,  9.380387315825290,  4.385694112702835
18.468718147866031, 10.650746828885630, 82.109123102446006,  3.824411212764074
 2.391813295876737,  8.287833706220423, 22.688938364655176,  3.961581696989787
10.019593702206333, 18.471084027777287, 79.745856340304655,  3.936629529868071
10.808990417061088, 17.087693104257191, 34.448760490650457,  3.708838235851137
 1.142155372131467,  9.807816516084623, 85.613404280887053,  4.039851979640707
13.756860711370608, 14.111468227325028, 93.349543050643646,  3.753690414577181
 4.848971105336640, 15.754653633692222, 99.513781243708110,  3.710229571513174
18.398318983832080, 11.969954424587980,  2.006634977848645,  3.815559069734280
 9.929112990658602, 13.379858663709394, 35.174429276453644,  4.049653969649426
 2.935468836988162, 15.291412063198219, 76.038332504664766,  4.135462224161362
 9.230362544600867,  2.452821567171441, 101.816078120493657,  3.822444299012676
12.851951953534362, 16.267178238140087, 113.707776875975838,  3.739857449423679
 0.241787387941449, 12.774765066445910, 77.722730186212857,  3.941496043944809
11.589866027459951,  3.394922269061750, 94.992778810683561,  4.142079700984181
 2.607846990523798,  0.409339549891639, 65.094010736292915,  4.032067830912408
 9.543554942331578,  4.491666639114894, 25.408374995979827,  4.359769160359720
15.777684864276104,  3.994913017571140, 60.479481190307254,  4.047063269874533
15.400212840179794,  6.643252698406131, 27.616385971129393,  4.220164751713088
17.080173577864759,  0.688835737734435, 63.030012163488493,  4.203387524409680
 0.058632236457097,  8.205245820904469,  9.065407642552936,  3.984599975347973
13.239781858733094, 18.910977600572370, 55.180976660783109,  3.742121599661383
10.034729978488322, 11.644165489728900, 28.973779588723453,  4.234295258799809
 7.553203601973504, 10.200423669240948, 108.314727789596404,  3.887773078503866
11.127510944643380,  1.062583196546604, 105.030424906134883,  4.033351849555742
 0.652328480403476, 16.859068087176940, 12.768134337458806,  4.076372293548534
11.902516438591308, 14.800343485528359, 51.470477489728218,  3.950054573488293
15.523415998841605,  4.817773540874848, 94.997573218794173,  3.838129646832773
 1.826143275870301,  5.040802218539953, 102.081889187776312,  3.904874582229456
 7.073480149417824,  4.559384131698979, 45.971631508853854,  3.959485502070235
11.524790297648448, 16.784417530426136, 117.394813370570589,  4.094291678071771
12.574504076635877, 17.104536531449231, 60.897077938669710,  4.050613564389037
 2.165531216007673, 11.059672179655603, 26.698492364155261,  3.992759476192883
 5.273713721210683,  3.993455782022318, 79.103066597046336,  3.719049161762081
 7.609953704733024,  2.619391987764790, 94.632227360477827,  3.834713307272364
 9.474091826728632,  8.661943318766891, 79.144923421792768,  4.073552607178848
11.339231990117362,  4.608936600924388, 107.159520469107477,  3.959673615997158
10.412659473848299,  8.281426240881855, 15.958299717670331,  4.215521102151687
 4.737754666177745,  0.903388331086742, 68.373194910047843,  3.813369890967539
16.083378994134932, 13.483037670514646, 30.519679350177231,  3.976472086861434
 8.860205754959225, 11.014107820106030, 73.816485301893422,  4.192502426922949
13.278127586460855,  2.092038816114963, 101.414783103484950,  4.342094543825741
11.024338386373561, 10.143748497863085, 110.358263480118836,  4.112159129052135
12.563502288722614,  3.576905725559371, 54.790968020063936,  3.856678783619210
 1.670419936248310,  2.731255958507180, 70.314952989058099,  4.252541335176582
 8.638070122346006,  1.234556955161632, 85.755420305675017,  3.778991218168319
 8.907975133816223,  6.084700862211462, 34.551892032796474,  4.063008363893189
 2.311604478892300,  4.926353336357010, 51.798891359806838,  3.996367112756587
 4.975938576755778, 12.118051758889855, 110.773210167393046,  4.042826934935785
16.964426374053257,  9.752120295229149, 67.105355403884047,  4.214473595877617
16.365148906376781,  5.293220393097296, 23.852804859736150,  3.989327866682696
13.909201948420931,  9.131782017274070, 43.838222760148298,  4.045125041343590
 1.873353267695030, 13.357556597813863, 117.427371750908293,  4.042094434346144
 6.417200875708889, 11.674792874903146, 99.763474430858821,  3.839359919013232
15.172191508324266,  4.806722165193944, 84.228796641009424,  4.245940212899252
13.020129632492322, 17.094146339243036, 10.775441447492652,  4.163909786754830
12.674884261748753,  5.794602006965475, 62.081335879702451,  3.770697510041469
10.247069922578698, 13.235693001423810, 94.719440424069788,  3.907593962671485
 5.558518769995626,  0.982514448102302, 29.421542162907429,  4.314304460027329
15.896982793334590,  4.390677806439372, 64.614373884830144,  4.176452459450919
 9.368740678627352,  1.893165347318378, 35.325236794756805,  4.392560669015136
14.951370766821944,  4.477791502387039, 117.358994664557144,  4.181141734336366
14.172209288185673,  6.249135770016334, 102.642406121977132,  3.918242216606629
18.354956903236378,  6.077625669251685, 37.136034449063615,  4.092848889862194
17.355545031777766,  0.029764037585697, 49.558087825321060,  4.227884195211000
10.878258462367308, 14.863205966349431, 42.750680008516461,  3.869824587714471
 0.597015667318479, 11.976308693997252, 49.420456118710270,  3.850846537418618
11.737186336027952,  1.765543722857092, 117.398474466404338,  4.065439887958434
12.380381842048736,  6.250895459850859, 81.051255350946619,  4.293428447407336
 9.587453764047343,  7.077165383728627, 22.239715486793596,  3.772590444915505
18.096969087464238, 15.213706863049827, 89.441378398951059,  3.958985560077797
 5.134997181760062, 17.901442168018317,  1.829878674681022,  3.622660508531829
 0.847025032224839,  7.212446636573951, 73.689145379887080,  3.954558111049429
 3.808485141871898, 18.206035326088688, 53.443131270629323,  3.877898738644772
 4.678629538852966,  1.808722185291545,  8.454303872180118,  4.214799005376676
 3.747930892372494, 11.163164425339627, 31.068038106060527,  4.124740041978490
 8.252338480642678, 14.662252036852497, 11.987187622807824,  4.211305857475378
14.523833161274135,  7.462763389485588, 77.880636748001123,  3.632700648668910
 9.060498044746453,  7.506045215434021, 48.219706988470243,  4.168862887674626
17.640776489796444,  2.082217654998161, 26.148280041079786,  4.296632687592318
17.073257409054996,  8.253336971081700, 110.931475122773250,  3.949770411746314
11.646918774256260,  1.616947714875190,  9.751957943174432,  3.863696954039888
13.457575838436863,  0.574143405588996, 35.767261930483450,  4.080247194845778
 4.184936287626721, 15.066976399797085, 12.716882641840888,  3.842982343009440
10.495368597589765, 17.526312673347160, 110.816383236867068,  4.131490388321743
15.761645992312676,  5.012513480711795, 19.423303790997434,  4.292564836578463
11.544830232297697,  0.370565139562694, 68.921998423425492,  4.104808430823787
13.491344373272190, 15.494526363499062, 57.254441120718290,  4.074824822923522
 2.449747752629184,  9.287666972298341, 117.463410597293802,  3.920754039346300
 4.385079171412825, 12.368220581188242, 53.212678716109160,  3.599318465377637
14.878261066165299,  4.346403911106077, 36.090663409634359,  3.949559410400806
13.146117143731932,  1.173945534016777, 19.033839360978288,  4.090214787965782
11.619345381957700,  5.504903995130583,  2.141209958867815,  4.251085912910003
18.707636421069594, 18.142207291877266, 96.508745615270456,  3.955990316403868
 7.227151509361185,  7.417003141115601, 75.241310500862156,  4.163125854114966
 9.075001629556153, 11.932479805348594, 14.866717958628223,  3.839678076228692
 1.378543692923463, 18.694815547154679,  2.035467141433696,  4.045242003469829
15.284464234080099, 18.375066909234011,  4.896883412070668,  3.819496629006295
11.725768112726721, 11.934376193475529, 11.986593077572225,  3.985377629801153
14.758995277700643, 11.996943787217019, 50.300256167621185,  4.186324200009665
 9.063577081073795, 19.095123883282582, 31.622390221840082,  3.930795538823237
 4.878511431214584,  7.606984976591093, 101.563591973748657,  4.119594247745323
12.638527782030852,  1.527011207466231, 77.462808042478898,  4.029572443241341
13.418824769538491, 12.222679424323683, 41.240908444672932,  4.038884374804582
17.072993268271855, 15.482185137564022, 20.238288304603984,  4.243335367682482
 3.327455802692507,  2.560181372140677, 55.391106671544463,  3.945900534338960
 3.146059590055172, 18.636881420680652, 15.749148157024560,  4.067243945018836
 5.730638610568733,  1.831355367848470, 108.674891651536711,  3.909206466261460
18.617704811487137,  1.447383148469902, 59.183399420826952,  4.001786409865141
 5.432309696537789, 18.313111663862141, 49.419125427204669,  4.002953323637976
 7.613141748842042,  6.246076750495321,  9.003752387267227,  3.814583391403301
16.963842584281910,  4.833092115835267, 108.664306286864118,  4.146563417358467
17.362485657755531,  2.458954102444229, 114.876323544519252,  3.797319049363420
 4.718916149563490,  7.953598098428331, 45.979120004956712,  4.298861140170001
12.268145724394035, 13.476380932923046, 73.666849906278514,  4.097106975769636
18.461391487709058,  0.896188188567639, 81.076725771834035,  3.910388140696469
 4.826892159926800,  5.739751294340421, 69.797063203285859,  3.910611646752813
 2.242922229501285,  8.215445525117202, 49.407057604952634,  4.111594019564608
 0.997800774073182,  2.254801778666570, 117.533041135635685,  3.819357304896242
18.232280805626992, 16.512434028093185, 32.155952664668050,  3.909146676676294
 1.797850529690247, 18.394780338648296, 19.442000473754042,  3.783123042535549
 1.512451633737169, 12.715623808221787, 42.805472335182607,  4.056345230657874
16.557794208375704,  5.855021400452252, 68.426621359669838,  4.034433028601707
 2.315732653638514,  0.058917052224183, 33.056849827826724,  3.683062549644756
15.012998457332412,  1.730377650565007, 22.551349641510715,  3.940578621033271
 0.322446213062665,  8.411651286940321,  1.819657188892094,  3.598451454805356
13.617448714873023,  1.925369147386249, 109.318158541149742,  4.170602788432419
10.314268861718597, 12.860720837449552, 83.739811539897971,  4.299698512625410
12.646318559788273,  6.202109579607217, 41.363659050549927,  3.987957488970642
 5.220328141941779,  5.431125709118886, 42.308564355722147,  4.313499622562150
10.018984529074201, 16.350142948686507, 54.888255224151443,  4.381519514785178
 7.376825445978214,  3.409040475929507, 32.112046484906479,  3.714682257392303
17.050618679855297, 17.013587762821047, 83.201729159927652,  3.827278297102374
 6.710264589272027, 16.941483985411718, 14.993402816436797,  3.913632767152504
10.664999062621503,  8.651340396694330, 89.570926581124155,  4.145274027599815
 9.415480869960978, 17.594268368185848,  8.900332991803651,  3.953426552418089
 7.975224589318732,  2.622070889079192, 10.741543211742231,  3.965952081576776
 4.361366915837068,  2.847037996181285, 39.274193852362274,  3.774258361549811
14.850515476799279, 13.150136395073192, 60.256529175044953,  3.790656948026672
 3.203584564650372, 12.751854986177433,  9.524619100403486,  4.174265577774502
 5.248304909182882,  5.142919896864266, 90.608086096222763,  3.981444161424857
 5.389255883088429,  1.198383152550613, 114.746675228820521,  3.860411859558567
12.806211184808172, 11.094985977894483, 37.214102235442425,  4.350678159724725
15.438645632173786, 18.198744282947938, 87.667504813107811,  4.203181499182000
14.002101782659636,  2.735913929343301, 91.633742744195260,  3.827221836544749
16.751019050554259,  0.000256438464102, 100.033030267843870,  4.157050546999755
