BANDS
8 8
NANOPARTICLES
cell(1), 19.112
cell(2), 19.112
cell(3), 119.447
18.988776266260441, 14.229258544246361,  8.764488020700425,  4.087167668663866
 1.441814751714807,  2.724501603985210, 15.200632099085659,  4.087120353549303
 3.667996585347975, 13.860297935489363, 43.500642001937408,  4.360251335242447
 0.587385781733784, 10.363244766148402, 62.949583250614836,  4.304870664617590
 2.200078399543174,  5.981915947729612,  2.119967293497512,  3.882705361188881
 2.042054729645607, 16.896115882059483, 24.888606877648581,  4.125542548516726
 7.833115099354576, 17.273276633185372, 21.768579940436123,  3.925152043227342
 0.542923392516236, 13.623209911996943, 60.559740139984079,  3.735845291219952
 7.912964604343328, 15.439878361074193, 114.272957134785628,  3.789469904710651
 2.939677054939679,  8.608137860469212, 107.882632666273480,  3.874488877265736
 5.556320323927610,  8.787673970319426, 15.190448128926132,  3.769744884908940
14.655493551006133,  5.801246374545305, 93.944043236267049,  3.624239251638119
 5.707099289275141, 12.255943782665744, 46.982092786572686,  4.281852528537622
 1.689836974625194, 14.644009543495910, 110.680394228476629,  3.812801850162241
14.050941795605491, 16.282853434870827, 117.459943410265879,  3.877389380521451
 2.143440163575296, 10.313461326166983, 45.630826009133244,  4.219845587618302
13.231490533615672,  8.461684020742165, 85.286740949098558,  3.812475479723190
 9.304432334321813, 13.645712447555532, 60.090060302451967,  3.779881406608449
11.920189700850509, 14.563669013840153, 42.155741029933573,  4.095851144677198
15.143035721430666,  0.984259431766576, 117.373075599442402,  4.043679347622954
 2.109756794705124,  6.788691728089855, 16.322291857403691,  4.404770854113322
11.658890509159596,  3.063309913586180, 68.564382256091150,  4.108096259365680
 8.994903602425945, 13.292261552492146, 25.639935226576842,  3.608019440189160
 7.301345746098919,  3.787204755211580, 52.844867785969782,  4.180669361746793
18.333036225692325,  4.457053400666244, 41.140745239595162,  3.905803368097728
 1.494800032530879,  2.850670490716873, 113.499243017468672,  4.306717286391184
 9.829888072624438, 16.721251687792911, 97.730080689846304,  3.919029814994448
 0.276819756268216,  0.608110865911861, 58.158590648821743,  4.021579131060609
 7.305099935476887,  9.612051206401423, 31.740333735189445,  3.943990701955922
13.121912799544301,  1.235672571665169, 94.341403586188378,  4.076641671722568
 0.744828106395859,  7.160083166912065, 81.077078890178882,  3.714750514598902
15.653603152162420, 17.021646666608046, 14.196985040914795,  4.155258473656627
10.126459384934247, 16.734202396442612, 35.998985638515734,  3.872282573134532
 1.122907917121086,  2.509512521384396, 47.839449222000766,  4.018689266553026
12.332080553774338, 16.885595627205987, 84.612099997310295,  3.879392802907750
11.881054277118171, 14.198987351397006, 100.273216807567820,  3.928148806355246
 1.912401647177987, 15.979777334966208, 57.749337399713703,  4.056284124944126
15.112417481308650,  3.876640943753227, 56.875643436587396,  4.108772975080345
13.213034565100209,  0.111769760874873, 36.088042616040070,  4.033839037043122
 4.691352179864680, 12.176129986888506, 110.869318411325111,  3.842614177177927
 5.578296699558991,  6.942708830106649, 29.055118268416340,  4.039367913803762
 6.164624667743936, 13.840305113133612, 75.375778252801595,  4.191580834685527
14.240112063050660,  7.471813610674234, 27.280048973599364,  4.028317058305499
 5.662805570155824,  8.028885858920479, 45.192565646604834,  4.185800603043117
 2.769776109441166,  5.232684796899871, 39.538009135629892,  4.009247994280836
 3.777416522064133, 17.227277494919370, 21.050555891304583,  4.181824569562188
 9.711556300812500, 17.875476017759794, 48.659555683652343,  3.934073892670943
12.309858782657283,  7.041619629237964, 57.951744830663827,  3.641108093393855
 7.278356776655961,  3.137918294520781, 11.667965179495418,  4.066319521086814
14.615421888609454,  4.261278255428971, 24.267745467720939,  4.002013608574374
 5.738718491037638, 11.414307911662258, 51.440147424140008,  4.165357841097463
15.915294992226038, 13.073990950180008, 38.103023425395193,  3.697728933244006
13.487690578993062, 13.283390137210754, 65.241716229129068,  4.066675215381506
14.302335655517732, 17.799972818702738, 41.897172916995672,  3.795095682874889
 2.639290267226321, 18.235976972029089, 117.470138136905547,  3.930799170927914
 6.811503234940383,  3.092863597536299, 30.438307391295350,  4.080100966797569
 7.830527150700998, 11.917278263630998, 92.057372558119596,  4.214492315999161
 0.849716074436222, 16.611881836311809, 106.673228505465445,  4.098073633165295
16.193972272519936,  9.149872134926735, 117.306584667250220,  4.211336047728399
 8.351448717667669, 15.864053039008278, 91.133288240815546,  3.883651515530433
 2.120449865923719, 16.917935256224474, 96.481482011215533,  4.273241784596030
 6.825999648577297, 13.419735783186724, 104.973918928233232,  3.945673816096928
 2.381577115252886,  5.403118595982873,  9.313364537716017,  4.166714306091554
 3.458996530317080,  4.058233470639569, 26.557333766301209,  4.153005447106653
 4.971362335742991,  3.994691033346373, 22.782485428900795,  3.978378641785559
17.247984865027060,  0.520403477582378, 107.127370298172977,  3.972438790377337
18.502106185907916, 10.091127744552534, 76.086163828618865,  4.173710015855911
16.496828994660799,  0.773836509935168, 72.451739160922529,  4.037117123299141
15.024211392574772,  8.037138108837198, 73.165267958764318,  4.002050453127265
 3.828931695385240,  2.263364243788004,  2.037845403987408,  3.998302742982495
14.995090003517026,  6.470810488057906,  5.441320546664577,  3.872894515150080
 9.529124344492333,  6.875393432457023, 85.751710036964070,  4.250838569810262
 1.088310834784777, 16.253816722834539, 83.950724689360214,  4.103264389961357
13.663325251796508,  8.817293309733598, 96.281293637400381,  3.881725999953063
16.274129753344958, 13.858243454691182, 62.524614239327690,  3.741775149659520
 5.027099421007946, 11.979708458920497, 78.707091861156826,  3.675605393592808
13.090895325929065,  2.507838246906795, 90.606030585870343,  3.806973331279745
 0.000257014231434, 17.137970649168579, 70.509101087004765,  4.208511867920069
14.563645264638849, 17.089370152000456, 29.407307166832226,  4.222394952707365
15.052207816152077, 11.429636287695107, 114.046477218281879,  3.914107190579229
15.462865151062266,  4.070534161672753, 28.944047354398649,  3.864141307331608
17.018764577959828, 16.790522239356424, 56.402634016891717,  4.018799101032893
11.296514976850039,  1.096360138302367, 19.541597080603903,  3.671395371171173
10.478157232222429, 17.187582331614134,  8.064399474726169,  4.054769358194572
 7.359016211242630,  5.310675862431459, 56.613895263209358,  3.913139209789402
 5.932052582397041, 15.272843736536979, 36.016974501743512,  3.388794317344619
16.081827179591002, 17.949281569739409, 33.246724302704848,  4.067563229695551
11.081805085867556,  4.676121098010511, 14.512129874156406,  3.929511428980044
 9.905212514323555, 11.677326069282334, 102.934817284944558,  3.998327744740114
13.682537960216292, 18.989996724661594, 56.205413827815939,  3.971689857851203
 0.108471308632625,  9.107258122949098, 72.153839593553272,  3.996595628823026
 1.889235528680373, 15.371164006756157, 35.588284164978617,  4.034580774529598
10.396732018500096,  9.744822260713422, 90.274409785242938,  3.396300123243878
18.217345490050494, 13.839518318451226, 103.845535802433147,  3.922110664830498
 0.320566850741883,  2.210495088891166, 69.952408017210075,  4.162441759281429
17.063528351646930, 13.119628785882831, 110.477538548983574,  4.191766239901604
 4.207693245561681,  5.450299906908358, 32.587719060446211,  4.099869463005853
16.101869138635156, 16.582878711980577, 48.372137716720751,  3.926598041923500
 4.025369525445432, 12.188260914479182, 94.413879049682947,  3.895177088707313
 3.424574038420705, 15.406415146666836, 72.468583855221254,  4.356047590994099
 9.121846074712979, 18.740132685189714, 94.068565492554129,  4.472534767577712
 1.431464644020353, 12.110898563323296, 84.535022939434683,  3.966775346237311
 7.304559496860892, 14.346460814917018, 64.093209731233657,  4.259617540535728
10.332387756851546,  0.895577437332902, 80.951367684389723,  3.853554806532782
 0.556289641305051, 16.468404436503310, 44.166454253530098,  3.861420740557366
 9.585935817935150,  3.834859796068409, 78.331822564289965,  3.970741842118766
11.379638624817858, 17.179751868100038, 32.145364309465023,  4.115723557729687
18.638101577019139, 13.791143261592051, 46.814485262440378,  3.838431713960691
12.667965760562726,  6.253253026260396, 90.789070264893596,  3.730554306592083
15.542399242344526, 12.329793006684758, 80.171688779934485,  3.841574772704707
11.605247218269261, 14.450486631552851, 114.867598207499185,  3.938753599419738
17.596279068396928, 16.306833112246601, 90.422000159161570,  3.948371044591830
15.024370886473319, 17.026406237430983, 24.504946699093278,  4.069325487145775
10.524959572624464, 11.344495958390905, 33.453356802916453,  4.065805240662114
12.593697302408518,  5.208571705776040, 75.049872487651527,  3.862826201477876
 9.628548717921991, 12.703220075068961, 12.222811254957948,  4.121328165963331
 2.375817482046499, 18.964722844498123, 110.562350096562284,  4.237516895865978
18.516952914909758,  8.324854484249990, 99.978814144927625,  3.793117317078000
 4.250113718124211,  3.775042979680647, 68.378538070498863,  4.064072040653606
 3.206029274098084, 13.037733376948813, 25.589663720297718,  4.008675539534227
11.011506683665658, 14.960642239430019, 94.418199206287312,  3.853156090804876
 3.087895662547750, 18.384399364014808, 81.239846256651219,  3.791477419846164
 4.593450426493881,  2.371504830368410, 97.819793745123860,  4.203887729554312
15.840159118966442, 10.222560605032129, 20.834090276091786,  4.187252043624821
 5.601848009746341,  0.643508675199245, 62.813406454164912,  4.009145298233187
 1.751388910521465, 15.180261360989975, 18.196723505937598,  3.903573514696545
 8.693314389347080, 15.179863820315322, 84.341294496494740,  4.069698216218526
12.845163225262377, 12.638339094116066, 61.333662570700668,  3.862231267518363
11.653059795352499,  4.396700461439110,  2.108856511173871,  3.843030117458690
13.638999656649391,  2.351475846097516, 64.916203146827328,  4.125483261049589
 8.379556571106686, 14.192816508512553, 49.462342941469281,  3.951577221301640
 6.651404771487615, 17.225986769727314, 104.102563470067977,  3.689264198293905
15.789001839289087,  7.909984030912502, 56.226855122494612,  4.016362482554938
 5.639636724827302,  0.518844152900859, 27.605075005615841,  3.887976124352355
 8.649916797433860, 16.050250398731770, 14.468146155747526,  4.028564945907330
16.807342117850620,  7.062720435959216, 86.361027262886239,  4.126999937076298
 0.017521351114900,  3.849605281398117, 55.810574729639427,  3.964474388280447
11.145349471189700,  1.943585590858887, 43.536738769280973,  4.170249059175979
 2.791709585754845,  5.793419641599390, 105.103914767124394,  3.994502944415399
 4.749353193368953,  7.709761273691601, 19.357239128324121,  3.827934797347829
15.520907960316686,  4.639913859831398,  1.980948036825003,  3.909839503488084
14.058550322315403, 10.634562726854918, 58.367740220585290,  3.671875537667554
 1.749182861424995, 18.470813275910544,  8.689683922083059,  3.943774771165681
 3.614195634504937, 11.692684844690744, 18.912707262714921,  4.048889495470021
 9.248370534652713,  3.551949173823307, 63.031455199941341,  3.979796124577775
12.664133662575717, 10.001501173489816, 100.182249756590650,  4.482785082273534
 8.794874946296028,  1.708058870760404, 98.010370893726801,  4.304219349991205
18.172966454419878,  3.816202437359992, 22.199206249521161,  4.101891144372341
 1.723796209302519,  0.710672146391657, 28.483897908885901,  4.138938451251777
 8.234042194569332,  4.275019585535944, 66.763200626436074,  3.881007277719883
 1.924765319729089,  6.390041662051451, 43.314502323001442,  3.949609621694158
12.629545562498523, 11.086258018503528, 44.426823998117811,  3.877449382376314
 3.306637934508507,  9.894073611323593, 41.460994055996714,  4.445079303883879
16.824798928894559,  2.787919330734817, 75.997771645858748,  3.835043461999065
 8.366903452404227,  5.065864746278979, 45.129165373935606,  3.819829997688413
14.237959362351727, 11.906051214913179, 52.140036041497389,  3.988684376034903
11.899831023735318,  9.220127796484023, 30.133608160539907,  4.099535669152613
 6.398817781065559, 12.050927903668486, 57.691223902182593,  3.958661874188321
18.048961965198618,  4.260173033167857, 17.980913589029971,  3.970762219686035
11.610173324563348, 11.663633001004410,  8.717090322747078,  4.121838333667665
 4.678654883369830, 14.595208732865210, 39.484023880857734,  4.024223216321795
 0.910843873606191, 10.686296396822275, 117.480895108679391,  3.896402423057963
16.898988614685095,  8.742585944400794, 79.402262224215264,  3.666174217533922
17.687756522088687,  0.463052941301509, 45.554093316174061,  3.743145393979605
11.108166862174453,  6.682969713505869, 47.893885702658388,  4.007013385524542
10.890596555709799, 15.361155878384322, 70.203320217678780,  4.039020458088946
 2.247208092819628, 17.981769519487440, 61.199309272760615,  3.875263174417464
 4.053231199970802,  7.965800420730090, 62.816635938869616,  4.091172601830104
15.851834017320730, 16.008024859196851, 52.528827922405512,  4.148928472251771
 8.434042113701075, 13.935212916544261,  2.051808444318383,  3.886853567002715
 3.820945105572424,  4.470263057509886, 110.333989672376475,  3.889491061811748
 6.839618533879241, 11.449960066937040, 84.720726956145938,  4.177756468736123
 8.894156536232973,  3.154850417672326, 107.780164425067156,  3.771624503265019
 5.193322950760876,  0.270760897922894, 84.298596181296247,  3.880169536488278
 1.194392803335153, 10.419145029277589, 110.913874151600737,  3.979850830076413
 9.191498661536865,  8.133737862310584, 101.630496071393338,  3.538440045429247
13.608892053247121,  2.460599975892313, 78.817336733612720,  4.358246287410287
 9.885787662975876,  7.775162240377412, 97.848149939269391,  3.949300358168260
18.087519487165274,  8.478703019143380, 27.276260993945368,  3.869741353100474
 0.923010816289693,  1.722059433718698, 73.973361825521721,  3.855106867826637
15.635417972304063,  6.735497391143020, 34.653092445078634,  4.073686001189838
18.343315879915910,  3.351866701233682, 66.173457457944778,  3.824386127752944
 8.728701001841230,  7.564564958969865, 17.596922254630716,  4.059336531971428
17.309111880913768, 15.151714362835639, 41.179874639033805,  4.176456334489798
17.149102102112415, 13.709680625850208, 83.445934767194771,  3.801769066512670
 8.584536297769930,  1.754679043528311,  7.975621436046628,  4.184175255728308
 3.680360616081943,  2.849808266396511, 57.837159599511949,  3.852331593426444
 3.476750287776767,  0.109502030767661, 49.902638376558748,  3.858465723069170
10.879279354587647,  7.337882194351427, 94.025393191097351,  3.863496703118410
 4.016994846469444,  9.921297733292933, 22.477157183304893,  3.863719215845548
15.239361514002713, 12.754904799872733, 48.368651868553201,  3.909493753568282
10.376391669025242, 15.626825158838354, 104.250776584113481,  4.073156183847275
 5.914446700933271,  7.451778194003751, 51.844959791928304,  3.784824364926047
 0.687731978331632, 18.777706654173986, 54.144753586993801,  4.138608420925074
 4.241442034169614, 13.720364300483233, 98.630771737657909,  4.097846686715290
 8.066799696347267,  5.184597496764314, 110.848920374654099,  3.759721265174750
17.631906995768468,  6.666336207128363,  8.535711621780338,  4.067179805832438
12.920821712782363,  1.224417197703719, 98.730255297511931,  4.059507297242898
 9.543798666762465, 13.428395409079162, 45.619738774358893,  4.114965857806801
10.957939063270851, 16.020258664614296, 80.957253487955185,  3.984941642349021
 6.347248166942716,  0.716274370895161, 66.728921833265701,  3.959787688247920
 4.702121733637449,  6.561228640753923, 88.080917834138262,  4.138004511680108
13.478208267527624,  1.357467209231431, 74.830823003999953,  3.723139966507263
12.483876428822763,  6.688670214375839, 102.786999978170840,  3.831693973554972
 2.108359973238165,  3.917471693283691, 35.642505317439756,  3.680657274272917
 1.638870367526994, 14.440042924804375, 117.404373449627116,  3.716658070458813
18.940031204273218, 14.943469619471587, 93.837232026560713,  3.636905104786329
 1.381168000648798,  7.270063903959550, 90.564337470036776,  4.151913590399423
 0.900282401359286,  8.762492510244490, 20.178494391166360,  4.179288537815324
 5.481507200742363,  4.362055303028974, 64.044560334534708,  3.826314552654137
15.440096309650638, 12.142470510156953, 73.077110149235111,  4.173898699030326
 6.345688950025374, 10.764854900545126, 27.200964843311876,  4.237099387305047
 2.537078283152408,  3.229571359992159, 61.556928353708855,  3.918554492233273
11.001830487876845,  7.034961662833530, 38.846864330631995,  4.090975144779204
16.726467132849152, 13.268144159658959, 117.392511516694029,  4.067282666846693
 1.775855625025523, 16.892288503407023, 88.127094791635642,  3.829396207106058
 7.596083437662605, 12.219577571657243, 15.910483062855572,  4.232652780838951
17.511243581811716, 18.120850195498178,  6.246240652293257,  4.093418211965671
13.933214695476542, 14.426406341765853, 55.763641114424559,  3.812008964742158
11.787219138608078,  0.780250734780009, 87.248393544718226,  3.958045663967368
 9.224894001078820,  6.326135896653002, 30.917581993567531,  3.815566548979582
 8.978235654025857,  0.155988724026444, 113.663169281385990,  4.104391590908581
 9.132118672373538, 10.775206800535159,  4.937782528541792,  3.662015890702037
11.575566318595770, 10.973410893661269, 48.339921379790781,  4.182007079625781
 2.322013166615830,  3.232971469879463, 90.966469277612703,  3.926912419462588
 0.148129992702691, 12.828861356807334, 114.066024047338630,  4.103123426462402
13.694009883392567,  9.319227540546978, 88.972281124314094,  3.657493769312474
 5.753141430799759,  1.957311421617636, 80.861888685204434,  3.720323292225824
12.066048281154204, 17.662863896368282, 11.938515565872001,  4.022471649804503
 7.656659481858451, 13.480821093703364, 71.633349033550743,  3.820801220361988
12.050097555981093,  2.621603762843761, 103.061943242617517,  3.903843444211107
10.440090198621307, 19.021613685141560, 108.531092480602155,  3.443356435889186
18.195270682818236,  4.510239205717777, 99.848568233208368,  3.836297807807487
 8.642768247857594,  4.460459504084834, 103.998795773148061,  4.061650969074480
14.855477714262966, 12.025511626192941, 41.511376009619291,  3.684922767096674
 1.579543842294344,  1.028391996399718, 18.924380520747370,  4.077346325336584
 7.719048935398404,  1.979769202646640, 59.613638538842388,  3.981345213639643
16.658659661373598, 13.864029420952942, 11.947792626918394,  3.823892086024384
12.771331355795397,  4.292186135025565, 61.072192188223781,  4.125574606408665
 1.695359478097529,  2.563721331085639, 107.388435283245499,  4.169885312251515
 1.912745484287746,  6.594491764678095, 23.616457043285074,  4.192962572442535
16.635024297190075, 11.455481291861851, 94.340749941532124,  4.128730562516187
 9.556081196153018,  8.912491673433085, 45.108022554951255,  3.768634352139802
15.444847281861314, 11.544329103554025, 86.261637989547310,  4.015586978993404
 7.738288303182237, 18.995457037447164, 33.481462407342065,  4.294569660918769
 4.381182247153641, 17.524776141656542, 100.472740636085604,  4.143713979808569
12.474974530109947, 15.609615592100448, 107.887810525615095,  4.075011966653688
 7.873733000119517,  9.064538513275144, 48.747349274944057,  4.132283577591715
 1.837970477939057,  7.923857034937783, 85.176265221284297,  4.152153000161046
11.925261219245114,  5.168260380523356, 106.286212644279374,  3.879171835716725
13.994001083292606, 18.408838334679590, 110.524872998847442,  3.981431201540148
 7.439741020899650,  8.429945125423062, 80.725641449985872,  4.027964318238313
 9.719580296446285, 13.075269212494099, 21.366840812361971,  3.731281539965910
 7.175128467430345,  5.547077078359212, 117.352531227782961,  3.761457156110088
11.536292219657859,  5.669507116219950, 65.316530085774914,  3.744050673320645
10.148736044200582,  4.776163729551315, 100.329465921084719,  3.830393322616760
17.894444524297516, 18.185100821115096, 103.176294136806916,  4.189435422348835
17.222162939648150, 17.627624838929357, 10.332770018769953,  4.155371112172298
18.667321836880660,  4.676573974393773,  4.971777142161732,  4.241543418796868
13.736401873356790,  8.068666591926837,  8.871390213224089,  4.044741158533115
16.209664926827628,  2.434049508519187, 86.032498175491156,  4.174194005524875
15.505433836274172, 10.886443535044606, 29.127811407250132,  4.092442954167937
 4.722138379412967, 19.072359280811892, 89.902097164154711,  4.095625969811270
10.836861145481556,  5.475578803780530, 24.208957446972878,  3.909658356718611
 5.612253188051370, 16.189935747253575, 111.001116884225681,  4.309307272788734
 3.967278332618578,  4.938710316736503, 13.013264203583834,  3.920318813776646
16.251797240018835, 12.080739594422903, 90.348034387987326,  3.847682638753748
 1.594427238059362, 10.700214544937921, 52.972187414049664,  3.900949953905565
15.997002491798778,  0.631978887609681, 17.299306890010904,  4.102510616476638
10.306127155515444, 16.449176555618621, 111.207364546807256,  3.787346711434369
 5.868188858620784,  7.652315516725614, 84.551863950176553,  3.571456729527805
 3.616381041106500,  1.276054680805275, 77.556004690746562,  4.209850693663521
10.470492303388800,  2.537906124921968, 47.598796653780362,  4.015472305133174
 5.538010913275316, 12.116559079099206,  5.613386256616842,  4.026117448810363
11.407843726279790,  0.399091758491326, 61.720991311364209,  4.085127117676910
 3.886853883078115,  0.748712211839457, 71.466851497047699,  4.070343084508653
 2.371686990374002,  9.619620279361145, 66.779046213603351,  4.214652544474879
 0.338690477206981,  3.348682815320993, 32.181890389320451,  4.060820433444826
10.370863872703499,  8.377194881940680, 77.983199560924547,  3.983809843679063
 6.326386988218391, 16.151259604784496, 25.657874191280943,  4.186184340145320
18.943378345891173, 14.103259443894929, 14.996697490616388,  3.794129455929084
 3.366025647614544, 17.586890523433926, 68.354791988814839,  3.674700580552968
 5.612280256496682,  7.167007487027655, 66.832567446334807,  3.866301883220357
16.439074897763000, 17.006574341786017,  2.187442713718952,  4.296387468766984
10.943719792343055, 14.179754072815673,  5.249782388956869,  4.019496971233158
15.176062517908345, 15.142618091555553, 44.715869286919045,  4.037628955163597
 2.463713011871863,  2.456583358650156, 42.580823738072276,  4.088067795871671
18.962923197582938,  3.105995514284635, 103.713439884412210,  4.115648997013127
16.809304005580707, 14.666862948629051, 96.943608442864672,  3.552772067114490
10.084238525638041, 17.248391032422504, 117.359361124500538,  4.147156662020997
17.975147733337174,  0.373417181285811, 82.061575789260388,  4.148482370441132
 6.380419027049622, 10.425997594118186,  2.051188419131474,  4.037446684046577
13.556348853347316,  0.852773960268273,  1.983680336152042,  3.959432571227595
19.052027183183302, 18.500558579181433, 66.518037594435313,  4.222208812781878
 2.963861885295200, 15.895344730633104,  5.632935538605623,  4.179125512582796
 3.234004477538403,  3.942605499798615, 101.468291907720939,  4.133549690520827
 9.996567427851110,  3.647643115713398, 92.820989937903107,  4.097593310366563
 7.694648700505674,  7.379285777595264, 91.571271767991888,  4.089713947097793
10.336947869422978, 18.573546041347157, 58.079428466488970,  3.730441965814114
14.608995809722590,  8.469835740181196, 46.704408443287072,  4.073770990933214
 9.544908044980442,  1.908601090738856, 74.653411229256079,  4.191154693987236
17.006152054027190,  8.415407815268145, 16.931498447398862,  4.666545530438825
 3.917373769913134,  8.877704532139571, 48.977582719376237,  3.728895056878688
10.430662188760033, 18.147194399604047, 40.854084028005865,  3.829903698187491
 3.200132347947115, 14.857240339859315, 103.561162559322710,  4.256424536225248
 7.818970114465681,  9.347999287582578, 117.434672845991685,  3.925346659997246
13.103903962765765,  4.042893716381338, 50.457597878518314,  4.310442655413476
12.013137387602582,  8.194793079623366, 35.246781830379682,  3.671292084128235
 0.860590412255290, 11.602984078115245, 91.818020360184761,  4.207329947830499
 8.017747425444419, 13.811979679517860,  8.475521111406653,  4.214406575441037
13.566009494970922,  8.244597988958512, 50.619987524786247,  3.962738176349875
10.345616620980968, 13.077320493145683, 56.016354396510465,  3.837977779580557
 4.535033806111065,  3.942642795195694, 46.048404177879398,  3.907524999185259
10.287782827784261, 14.720565712291911, 17.910029330270806,  3.934800825417007
13.336376929251118,  5.091524542797806, 87.178224260112401,  3.894459829358385
17.770870086657254,  7.738025272112123, 65.552098553362512,  3.971028464362800
 6.694160995949755,  1.625195511680234, 101.732525716790093,  4.148653668329034
 4.683848248115849,  0.053691469700552, 12.301158432115402,  3.922919084112522
13.484397770908346, 17.467764516504793,  5.179634331512160,  4.150438515644581
 2.030343750790004, 17.740235233512383,  2.123534720095042,  3.838093607386049
 7.401538472420262,  5.604267998964121, 14.587613054384837,  3.576541909664821
18.183219288627704,  5.830061637680517, 106.762726722116540,  4.149434759241416
 5.928678767965241, 17.800454075488744,  1.926408554630733,  3.732083310100397
12.055659040022663, 10.739434106463930, 117.234449159622343,  4.349017865768634
11.476046166244544, 13.021342582305452, 74.011466493844296,  4.083805463705048
 9.500496694751396,  8.323869489529198, 105.485942664278483,  4.139947523370235
17.289957222090038, 11.785492810197519, 66.146207888025444,  4.177193797387559
18.981201214458292,  1.027238816409345, 78.411743388769779,  3.489030776695294
17.241100808196485,  0.850339529404772, 30.108510667733487,  3.740843862974371
13.574924134695319, 10.899517121632110,  5.342122655012621,  3.832671408025289
 4.042185756766693,  1.624061669987407, 53.334276624717837,  3.651127631093305
 5.646783586818399, 17.337033962609350,  8.481037824779486,  3.936901956042834
14.102234642484134, 13.844897643243158, 26.785436496453119,  3.941759500659912
17.910498014690727, 17.150985310280390, 117.429482021948843,  4.018308478659350
 1.705946761421483, 16.396671545270728, 12.248349795928103,  4.151121874514712
18.224991977328745,  0.082097817054514, 41.617545456938224,  4.115837293001578
14.298485206990025,  4.058897609858345, 71.537330873410994,  4.054538493270624
13.276679719033927,  0.090801318009177, 106.076559198360371,  4.047259078235680
 2.767602152441871,  1.925516709114341, 65.217703254886459,  3.787619093902988
 8.734456012780644,  0.473130231102327, 89.871843665548795,  3.984842532378384
10.961941585057010,  3.293787384114678, 84.355754404032282,  3.835735677066603
16.392514168480272, 13.704317885211342, 58.779104696504028,  3.616490833607919
 6.791328757890500, 17.167093607548338, 70.570220946914077,  4.034354829305005
 1.113735251006950, 17.513063467106747, 76.079222032080267,  3.957561729341045
 5.664817562749591, 11.085590328672691, 101.667848620549918,  4.293872102796774
 7.488587939817436,  9.442404604419204, 88.118460488419345,  3.819697379032287
17.122256625056423,  9.162443757643134, 52.279877641666573,  3.902338179942785
13.714845415624998, 13.302343273802764, 19.234875745359332,  3.903566834896995
 7.756725965780639, 14.505521857714802, 53.358154769282777,  3.876164963844130
 9.756090821133975,  0.830952969959512, 14.437871659883116,  4.019286677867453
 6.524180905064244, 10.532358117758012, 69.394179493019223,  3.828889681879279
 1.344620159162700,  1.621244167417471, 38.645222906931579,  3.906109802996509
 1.927494383049446,  3.044471201342319, 80.911245439285395,  4.049660862300716
10.171898937371276,  6.634664209140566, 10.312598227263862,  4.156996429540619
 3.855374989074821,  4.322203512256122, 84.864325750466620,  3.791983007864300
 4.916102844862544,  3.796211154093482, 16.597314861185261,  3.664235522847414
 1.303733617241063, 18.601512104653242, 92.447068070387928,  4.371557185846768
15.684613021821226,  2.141874493279017, 101.595977452121019,  3.881475849774916
17.345905982509766,  4.387739777753922, 79.780750047398243,  4.094565873981005
13.769746427307131, 12.580165794170370, 69.285809657636861,  4.060237394455389
17.089478194241249,  0.495597112465955, 113.870353843201300,  3.977302955457218
 8.767838832833242,  3.373853490441221, 17.601238013095664,  4.156074710439611
18.542070376919725, 12.101152842480767, 18.403397423294699,  3.684145688818004
 6.911988380411425,  2.801806093065620, 86.727845924083098,  3.896125909814807
13.645221110915605, 15.196906674408401, 34.981994673010973,  4.057690595397463
 3.703741758006998,  5.422966061819296, 54.620886875432276,  4.385004143319179
 0.661891363475268,  7.242949535354259, 33.906020610705333,  4.272163046324038
16.066726435506190, 15.583255741167038, 113.891984715717442,  4.314111768657603
16.586367841782078,  1.326082406538038, 92.095511896131825,  3.893121925208613
12.991584187111703, 14.955751302217253,  1.927963826485972,  3.725591452157145
 9.908838401995899,  4.050461537556390, 114.264898898378149,  3.935916151010382
 5.162990499428596,  8.392023211145602, 34.868788808557213,  3.518625073904161
 3.962417912225068, 13.713544565877561, 90.074279497035036,  3.989947491716729
 3.274943340334294, 15.944809306500391, 28.744136656130792,  4.184616923356690
 6.042035654022984,  7.490509641625084, 103.609910490518061,  3.884666187792962
 2.050261851247852,  8.017794214943038,  5.949897846016857,  4.322079634849975
 1.021684505270763,  2.096415705231698, 95.694788080377634,  3.912562244190320
 8.205385638313565,  7.753918889583096, 41.855692431453789,  3.611434490632885
10.492951438260036, 17.261048885137264, 44.812906474758449,  3.937900754346360
 8.333558839847010, 18.301936289328399, 17.904109072432306,  4.097888764703563
 0.185613221135472, 15.831745222413007, 63.534767800052933,  3.693671781956171
13.197004394806491, 14.476091768580879, 77.714509287687420,  4.102618559273476
 8.588430120669488, 15.592975477988585, 77.958597701240507,  3.689121391772036
 9.374987719855447,  8.904195087878927, 109.680603847905488,  4.196478244185404
12.624852779711729,  7.595176892484608, 70.002047720305882,  3.944780364656372
 0.172136987496390,  6.090183649170377, 117.241173463158290,  4.393665921742687
16.606438807773255,  6.562696497931507, 76.398728050572942,  3.761467306921632
 1.553567480006232,  6.404204849865668, 47.298600433111602,  3.890687277275464
 0.244512224765505,  6.480194387547613, 110.687406118724411,  4.106967224299471
13.182304389596803,  3.275776706769487, 17.346849371798459,  3.563147811979623
 8.265385373125344, 18.267147714052218, 11.126786834910945,  3.729965021767313
 3.845032037490424, 16.636403817086837, 64.646748409481106,  4.032178796303860
16.024253827989316, 11.597387721028928,  2.136989042904246,  4.212201134582274
14.521270333277620, 10.780027460411059, 33.776074830935791,  3.793574511307580
10.179243238641741,  3.204806030572621, 33.010250368611331,  3.937450307724965
 2.172401722146299,  5.878091285610973, 97.684787712529300,  4.123235477828297
12.795568567959755,  7.233897550340688, 17.146417954607308,  4.087452134165966
 3.884577472254645, 10.054655489162526, 82.004753739477110,  4.180909083898006
 8.924900275567156,  9.861994892206150, 36.792549426519052,  3.893116210910519
 3.676297499393015, 12.605319247531634, 64.293374430806665,  3.769952175334665
 5.586167395562060, 18.190133067376031, 74.724043974865396,  3.944583046539377
18.931480852167400, 10.215363315342323, 88.011751978338978,  4.147191424572264
 5.413769099685545,  8.193178782068230, 111.129347116554371,  4.257377435768791
13.314532153062192, 16.233147048918767, 59.443562264099924,  4.313136520892685
13.047147712319086, 13.146900841065913, 83.239045054777137,  4.136936696808601
11.597637999723926,  6.037284722629914, 42.948798126518284,  4.134980110774383
13.300537289423112, 18.661779989005929, 50.512475409711179,  4.224634524626866
 9.008546229706962,  3.848041999681642, 40.543892464749653,  4.108957912287655
 0.128428865431112, 12.085656450614309, 42.756140178564003,  3.572815867706612
 1.619395638936242, 12.148729270006037,  5.925529725628497,  3.759605803639093
 8.652400122942367, 13.670705764831499, 38.441507475677952,  4.388181685880762
 1.791810835794037, 13.673380488727867, 31.849719871677237,  3.807498110119359
 9.936680858440743,  4.100177831709724, 88.802429388329628,  3.868338519840413
16.237183500120082,  4.908004285029935, 63.210811052966740,  3.867931753567503
 0.384946380648942,  7.656870437367877, 55.127594028527945,  3.670827707889993
 1.379645302758455, 16.854850246071202, 39.249007558750158,  3.903809922396184
14.667532662866725,  5.267279574295187, 83.009244021370918,  4.424661533240480
 4.394135922329908,  6.850264650022308, 74.596380206774384,  3.953586333209524
13.827357537863943,  0.340520919379245,  8.783298985551443,  4.025767898326687
15.762045474162337, 11.677132672529426,  8.841166615816467,  3.905344750407424
18.316496485871440, 14.141685589503469, 87.181090200635850,  3.927751034808835
 8.412165298903444,  6.012135915504278, 75.001128602128887,  4.145575175225716
 7.924602628796556,  9.107767435256713, 54.998679114492518,  4.347872731745333
 0.320969947494122, 14.158844232891573,  2.770840291804431,  4.048320533599188
18.360554030057450,  5.667527430985220, 37.425898704365267,  3.907327968023821
11.272899608317394,  2.078302620312749, 117.421725411531625,  3.974993635145388
 9.659599777234773,  7.837521081604217,  2.156184738602592,  4.014400169193951
 2.224056212645998,  6.719551448875259, 58.561214075436276,  4.323643952039307
 4.188912330952161, 14.535676628219743, 114.565491243478519,  3.842699289560105
 0.872244899084519,  0.810573601882090, 99.692321759113995,  4.350347523774683
16.158596177798142,  3.067779079026650, 96.536790633830975,  4.252502766098394
 8.039987818125974,  2.268763964670726,  1.904676370199003,  3.808829869020747
 2.802833270302639,  0.132877651685394, 104.005282279270773,  4.277007458733133
 6.653854325222500,  9.082737510180902, 76.902124592557712,  3.873806886700591
 6.106412276375583, 17.840060469364875, 96.840532589528635,  3.902014155732583
13.744302557090956,  1.169013133816447, 26.874847925801660,  4.046257399591023
 6.466308578288424,  6.807858263013041, 38.352244533740738,  4.362739639169861
 8.089291285786624,  7.449128380759896, 63.587535897977908,  4.171875074501438
10.495957240816269,  4.977943497050886, 71.826523525093336,  3.701712366102189
 4.292407410460367, 14.398645179214846, 81.926142993645612,  4.319966942404863
 8.207674547684551, 14.700504554864649, 33.058468230653965,  4.103055535939045
18.061181949888010,  8.265647798895866, 44.695026159708682,  3.593148752556752
 2.366522125398359,  8.686065113951894, 37.461318083156790,  4.084067496790776
 5.786564139432913, 15.543980286713470, 11.966038758349061,  3.618929036706401
18.442777813548997, 16.603559575289228, 28.014712834804858,  3.907690076161872
 0.551130019315700, 12.586331440117071, 107.313803887538725,  3.918358207438972
16.781898334440321, 17.070813583824446, 37.337626029968106,  4.374681707115196
10.993926150329699,  1.679501107096465, 53.466227702832839,  4.370952833378986
16.359934338163303, 11.477540944979932, 44.896745307118415,  3.670695525675391
12.198754623833336,  4.398808830291649,  7.438075107394276,  4.033361569999040
 9.587930055103886,  8.906643890652779, 13.841689731871508,  4.026467274459296
18.096993870765157,  0.583759125871649, 25.320269907757819,  4.202996405055686
 4.634751359627614, 14.630194715638348, 60.664008641400919,  4.339575369214614
17.323235454104847, 18.171413300807590, 95.435577029731775,  4.146339956542329
 3.958390880043133,  4.549734798576627, 49.972892571529357,  4.108883593977557
 3.188528990650275, 10.448389332243842, 59.822745676905463,  3.755833934206468
11.476083999052610, 18.196253335632584, 77.457332520960307,  4.010133177795544
13.889995943796315,  9.136709650211468, 81.583674300491481,  3.804596918437352
16.272245689146864,  9.304629761071149, 69.346571196553739,  4.104904508305145
 7.728684226948896,  5.008128910766370, 48.925449807085393,  3.715620818585958
 7.303778628065737, 10.612697383316283, 19.812729116760053,  3.824850253984899
12.486289820939419,  5.591862792217560, 54.461652952483874,  3.799100172931873
10.727036984881217, 16.796518977723476, 54.670149842440750,  3.938647062035463
11.066950886517303,  1.437433394104598,  4.882334044080349,  3.692913798102241
14.909414534422559, 16.505268161066418, 70.526058410343637,  4.231611714254768
 7.718978977240325, 15.796788283852985, 57.204700806581762,  4.037130512434611
 6.974202895727723,  1.505928161634855, 43.785964146675475,  4.157461218240076
 3.555509343943149,  0.127403429249310, 45.744038933771321,  3.935628367572440
 7.889476177363993,  6.462304535389738, 21.456542530141075,  4.077534996470166
 0.509601677959322,  6.488402572356041, 62.279066183898848,  3.561043593318560
11.101394973317133, 15.705290065512752, 63.061304088203606,  3.987075620654816
 1.540313981995712, 13.865717429389090, 21.943505975054283,  4.042384298429321
 3.599132342859002,  8.061087682976954, 70.415159508612760,  4.061237204798465
 3.879534117368755, 14.079019014390713, 14.992227514286595,  4.074188129402263
 9.962056601321230, 17.797186211330079,  2.188906555988095,  4.228673897271883
13.764234030474553, 17.151272619586834, 20.549350185484190,  4.211095935458877
16.112881451645261,  2.714919794531962, 34.421214974045661,  4.012066309814048
17.113187075663749, 13.855860939694916, 76.966796153931298,  3.919949682075837
 7.686635320520200,  3.885946623634875, 26.385666458814054,  4.174630716872506
10.344381449473754,  9.996182595075538, 83.069937035573744,  4.030616056896746
 4.386699377532083, 14.068825760877626,  2.087158116554412,  4.158310113025578
 7.342114771368667, 14.114415499162869, 95.901437242001208,  4.117897589260170
 9.396438809864126, 12.585255840345834, 29.602435255764334,  4.326621693621857
17.211870771159912,  7.118464336818390, 96.492004717743214,  3.997008990253436
13.688546663749349,  6.563476285554808, 78.793673129065525,  3.729922981260931
 9.277505178355820,  6.084178257670519, 59.917959167173265,  3.785672268732527
 7.085308154076076, 17.414627855663994, 81.416603288340895,  3.937348091166194
10.920242021140364,  3.375975243604904, 57.435006461164804,  4.227540927315736
12.113969452172929, 17.465179494314480, 91.105925795547549,  4.233581730846813
 1.566207463652994, 12.370701680487286, 12.032048182862450,  3.895400376128430
10.829403101133071, 10.725962402432065, 40.772413942556675,  4.235700497922471
17.871745649194825, 10.072981184337172, 59.101062055375770,  4.166314663524357
 5.452232772836105, 13.044162460626607, 30.644816920894371,  3.814379080638730
 9.057534974363966,  0.090024895573134, 25.568594476734273,  3.989991840728261
14.157711511481402, 10.136636813611339, 76.659839785228300,  4.270508179618157
11.661901747076303,  4.361880018893806, 96.482345081081746,  3.999730601016704
 1.479722950260711,  6.286683646396843, 29.538497376623940,  4.123199371796922
12.471069423487155, 15.332587914844783, 47.542608061522500,  3.783088272695662
11.726604656743175, 10.679484498813268, 26.330496625934298,  4.016383179488329
 4.978815980945055, 18.250528658772165, 107.417499056490726,  3.967108322284558
16.248556298254961, 14.150378860199865,  5.551305083309076,  4.313037834689057
18.753594084756308,  5.488233185176764, 12.449007427197740,  4.117605910685632
17.025169261832612, 11.852914389030422, 55.312286988427189,  4.149248409391169
18.489116281490709, 14.051485597721722, 25.275462741784203,  3.528180288440911
12.401214140863789, 14.599168123000370, 14.497068857273790,  3.973432450768889
16.970625559342174,  5.785881388632211, 48.935292026137866,  4.249446996832714
11.515442790915271,  4.972342720821596, 20.321610937855812,  4.038072598166515
 0.321818247701234, 10.209840253776971,  8.992987398413801,  3.926680909290077
 7.121326702774180, 11.337839345495489, 42.954968631237705,  4.185634229235749
16.186415175469477, 17.957101026083173, 99.403394081233799,  4.054820650362951
11.818380262444270, 14.946523851875705, 51.374556744514258,  3.888215518921845
 0.332240814939283, 12.091762896774748, 28.459049677179319,  4.163896997678165
14.875716934034068,  8.408961275894052, 42.674577184817998,  3.896958242898581
16.550503481444370,  6.440783356479618, 102.949163085757348,  4.168588618966593
16.267722959322334, 15.630580432408431, 66.816917762474361,  3.782480039405347
 9.194229757863482, 11.995697637679879, 77.182754035836723,  3.741049521140128
15.508295562320953, 12.318932367532533, 15.678774940290999,  4.043793071872727
 2.804420463230686,  8.720296029832104, 78.078589800489297,  4.187152716399591
 5.592507984477553,  5.166659499034060, 60.232697829717125,  3.772265264085285
10.237345083948128, 11.052317445753967, 63.991049962332347,  4.187946670546280
17.106471607852889, 14.332412588376508, 30.823418748094060,  3.791171192604944
 5.463738283560962,  2.819028069777195, 105.832139444935137,  3.955755044662604
 4.355126586020662,  6.110018735009138, 81.456471963643210,  3.821392244767451
 6.303335319610556, 10.549933843295987, 107.608828800219953,  3.850073951775392
 8.867368761100707, 11.193173446459411, 99.191654995333437,  3.671222006552434
 5.382089947870057,  2.042267613125682, 39.582314502011194,  4.215759591845660
 0.437884943498512, 16.713172861265917, 50.437098932262096,  4.087148974361988
 4.783777067663093, 19.081780934584494, 114.053202787015010,  4.246820408093549
13.433403212094337, 13.120404045126072, 96.894784849698482,  3.798335710835892
 4.239564168695042, 17.825168905848134, 41.990923499645376,  4.181423061389204
 5.010877789047437, 18.442959463211771, 58.586914648675432,  3.768783839731844
17.368976711692497,  1.677607758553975, 12.926586714685204,  3.979918160504567
12.199049513162706, 17.875081566898373, 16.785415772886452,  3.753765167398541
15.282225164847045,  3.444061104178278, 105.317364168896503,  3.879287684959511
 1.259439586605023, 14.456545302367523, 67.069713595002497,  4.178889624354599
 6.829783962903726,  5.379448636364406,  8.401158134718717,  3.902840205449873
15.169647092532214,  2.353237560722716,  5.452802929085942,  4.201101521693453
 4.648814798740137,  2.112339572099921,  8.870380243641906,  3.840627517017574
 3.564040006137922,  9.679555991714519, 98.185702750097875,  4.016578555931101
16.487876988045450,  4.540519890714257, 89.625260358042226,  4.139362503784119
 2.146905835976262, 10.349647202578204,  2.235854952792268,  4.436550956203857
 7.340996242800673,  6.514874426024853, 70.323302777586079,  3.924634212824503
 2.254711043681255,  4.837668364863470, 19.998094799192749,  3.869715469173992
13.477343303974807,  7.788118188171815, 114.736048928323086,  3.740176830051757
 6.758579472406472, 10.911961506652121, 61.612678836255476,  4.228869645704983
13.601260161074167, 16.968168522513139, 96.515707475054484,  3.923220781815338
13.242323971062513, 13.927837697237560, 111.378617302754606,  3.822893861031693
 1.434957505329202,  8.728876709916166, 94.725774891507101,  3.977971366931254
18.101895953458865,  9.851881877235149, 48.380807111316194,  4.149466501281629
13.260916492687448,  7.578715629722311, 12.878992773357558,  4.007335861480610
 9.302809479306546, 12.866049551238545, 67.514510316052835,  3.929376645303312
11.144311073777397,  8.967593098453206, 74.158890079054459,  3.902209566997585
12.244218616337820,  0.674701906581674, 23.227724131146942,  3.892175102039713
 0.595635352140727, 15.679629812476341, 100.307464843233262,  4.221011130436433
15.782376021850318, 10.731490303286270, 25.192406955212295,  3.715512967594258
17.421059710865446, 13.840953431591323, 34.659211942203093,  3.945276276049305
 8.448928602165964, 13.139064758166235, 110.665979448499158,  3.824124804934671
 0.210967462257565, 17.968365751312831, 15.747983094621882,  4.030651048184136
10.241587332465375, 18.540003786907722, 101.317082261302900,  4.162367584185255
18.469740358666481,  4.613293794439856, 26.315998697744696,  4.131370249946183
 7.131617484891009, 16.679568401195983, 29.735883359860374,  3.837519004014135
 5.622425521857678, 11.989806940157502, 34.396736022681615,  3.793598489589170
 7.197347840621676, 18.751559864356867, 51.828359725211385,  4.191358941803933
13.123469876623632, 12.489455155578650, 23.082044427357928,  3.868712966066171
15.153768684880220, 18.854393362507444, 88.852626028563165,  3.761352789622289
 9.468683362394669,  1.668213579922861, 36.978332174663741,  4.220225141695407
10.383181560562678, 15.840020126908080, 87.833166896876364,  3.795508367848041
13.908887613165408,  1.033414835529541, 82.834864274916583,  4.182001273526266
15.599072991258762, 10.069537092687382, 62.447671128539348,  3.864570427010106
 7.404666545716474,  9.560674026050332, 73.137661677886754,  3.832906214902797
 6.701686560961575, 16.648354908080279, 46.158003232212529,  4.176166722985715
13.862035612781476, 17.027321409546673, 102.651123696564980,  4.072483857602660
 9.929202998921212, 10.025526242153564, 58.606146201074765,  4.033943652132406
 3.585241801642618,  3.529918763427475, 117.389261384472192,  4.108102993945915
 1.349510244177208,  7.252510167239043, 51.181011579905508,  3.762251391542209
 2.797726519375167,  7.856331705388904, 101.642358280388066,  3.738686201592349
17.563371251487055,  9.598964789589692, 83.165002363801563,  4.139050847972153
13.259023763047086,  8.420527233177950, 23.436529393033840,  3.768631400449305
 3.893694308477293,  9.441887011286376, 55.888200507777043,  3.914168442280329
18.028674316567017,  2.385269693548091,  8.649810930380779,  4.216817367222998
18.918258490059262,  1.093100242857917, 88.798779585420036,  3.973054357393892
 5.633735610173595,  0.592453547891047,  5.297874700702791,  3.905420355124161
17.836876019931211,  7.798950800445682,  2.021321386691375,  3.922811303933009
15.086748303677622,  5.320411355553377, 67.608540453106073,  4.288134056436448
 3.923678021210502, 13.762664389310425,  9.046288670508520,  4.036037689090382
 8.623611042405363, 13.266626350925037, 117.434545931093496,  4.001190406339181
 5.617199218471571,  0.421811190164176, 23.877378348051611,  3.558252953614307
11.304449165877379,  2.633585166584107, 11.048921580883849,  4.118659458165804
18.279933165008742,  1.699550626457311,  2.058706543730566,  4.093910639295572
13.185426313531625, 13.577542581623547, 31.230996444971691,  4.147107757762329
 9.845573248833402, 11.454478490050008, 52.060978603649922,  3.947042845706995
10.419071271378792, 10.841231226621204, 70.752381681175891,  3.999307589286276
17.694868164928778, 13.209896631038696, 69.907871310384465,  3.840335242908507
12.229648375853479,  9.630112756267541, 54.950587564938914,  4.259472015344870
 3.984605892372742,  8.036996529217017, 117.413927035619551,  4.066049902068579
16.268002160107446, 10.936635058227605, 98.289092306533760,  3.858305199523469
10.222941232714955, 11.105166911209270, 95.466934791710344,  4.243915883426076
 7.760924052846348, 14.900951248909960, 100.890719903060983,  4.452528992754858
11.953359436377530,  6.092829402437255, 111.390030099788518,  4.127327470630163
 3.650994884320989,  1.176398743493455, 32.098801656363648,  3.862832318057241
 8.178462922533649, 12.907143327326555, 80.925030587069216,  4.199883119169169
 1.427823929912073, 11.608676042564474, 101.254584012036560,  4.275871685304800
 0.208902126589585,  6.258985863504788, 69.046990996234385,  4.089299732865050
 3.822749135394616, 10.625826144194596, 87.545249451923098,  3.945020887856417
 4.732605812124842, 11.994799621146353, 117.468738705762959,  3.932273064138152
14.478740771061894,  9.359599207993920, 38.916595913735769,  3.792939011713933
 5.457913944248248, 14.163492532529041, 67.928384524930550,  4.227534247565218
15.797366587657612, 18.196940045599096, 77.253585688458372,  4.208143911098438
 5.580959467324830,  3.062265694098339, 74.388835579659300,  3.983138202874040
 7.689617000611848,  0.301889085761101, 77.961225800518747,  3.990207846823068
12.056125872610489,  8.271599045944575, 61.603626899317760,  3.915085754819177
14.903546727311319,  5.046128585322919, 117.220989146834711,  4.093579784122190
17.554527596104126, 10.014699823669867, 36.207105077154687,  4.111230217925083
 6.391877713276689,  8.392621487238996, 58.633464398114988,  3.585535615114629
 4.172248658460844, 18.836661833868035, 36.124393931589069,  4.327826655711914
 7.793566546495232,  2.254042343058514, 70.414428877609765,  4.471192085718989
15.825184687373435,  8.424989435708566, 111.759501555080078,  3.768738347038759
 0.420261041527615, 10.512528149816848, 24.090681172276089,  4.059149236786403
 5.775301403266099,  4.041173582386841, 113.883292029817639,  4.102284377864618
10.014782596795452,  0.825714445570149, 29.409756108999449,  4.011128155351948
 5.591251434076745, 11.689750697978939, 12.114198123321591,  4.023629892387889
 2.740911323478439,  9.025053121303426, 26.995675903822107,  3.732898660137803
13.479290310636129, 13.169983421942538, 103.663488887551836,  3.804983016987744
10.654283849092867,  2.438381071891647, 110.932597267250927,  3.533762664281235
10.167317911160307, 12.219528543487273, 107.108021702823777,  4.269577717824529
 4.195513550213999,  4.370649678009551,  5.535694014119973,  4.129380008854979
11.284915839513967,  7.781525517540652,  5.743241339090368,  3.695248961665567
18.088024394090116,  4.121035498050142, 59.703391686792379,  4.073525959990764
 2.859548165441805,  4.489354070488360, 71.968223722886776,  3.740124534680089
 1.442321161139035,  1.127785021050433, 85.234336562279168,  3.867911958733929
 3.446409598803954, 10.816103838507789, 74.061648470286357,  4.256222130684663
15.669443835003936, 12.384840789584864, 106.757912588317893,  3.874052064103027
17.562051547665142, 16.928265280683000, 60.333218763568233,  3.894305141497552
 8.610958578353610,  6.372851663403678, 34.795575072306448,  3.976429765631826
11.800006995671856,  0.064379688196201, 71.479361452599264,  4.160525552278286
 8.325714114051792, 15.977633996253896, 107.792001181749654,  4.093406790837266
11.702748575583875, 11.625132050794450, 79.846513220034169,  3.599845540458749
11.471519435702563, 13.333089332519807, 90.813086515441483,  3.976898762293361
14.719859911175918,  2.442230914675852, 20.695469922603365,  3.908915110571572
16.575267668172220,  8.286146494444015, 91.576535491825624,  4.151807873606625
13.737989033667890,  0.068940653462791, 46.191359123812177,  4.069058755590293
 4.524800787131738, 16.422096134371813, 32.687121565421620,  4.024415751111611
 1.037620655749933,  4.624916120181115, 87.500627431956715,  3.917464374072681
 4.066660451754641, 14.389037059653671, 107.638533769438283,  3.880780054334130
17.087403410699583,  5.173982087039692, 113.791277206702233,  3.984539998793164
 9.274877422373439, 16.589677906467212, 73.861842398301249,  4.278015745961187
 0.739356863331866, 17.487000054285033, 31.709576430066619,  4.036779456759169
16.812321236748033, 15.615938045328049, 18.041107743731413,  4.180238364961522
 5.785806442430401, 13.610428703557597, 22.193044096379207,  4.329398115507350
 7.500781543427427, 16.215156183085341,  5.150078595417348,  3.976937404066310
14.855677234460641, 17.555770045920767, 63.375614593980949,  4.339689795631704
18.784093032288254,  8.870451526132642, 114.163793657851812,  3.812621916904611
16.272633478598753,  5.241829003302847, 53.094264576930215,  4.252364914044247
 2.389663316399044, 11.991430374223222, 70.195879980913602,  4.092562928653235
 8.141167132214278,  9.607831924412185,  8.545725149425628,  3.738139080631990
15.855648440544531, 14.099591657966032, 100.635565846229866,  4.027056956145960
11.045914844763683,  6.377372557847849, 117.438496408565669,  4.009421030636513
 6.670096320027220,  1.227188803629048, 47.935971164073408,  3.963604293244114
 2.305074425961611, 12.378444501611252, 49.415258979895555,  3.992521513577208
 5.660472409218684,  4.912511064782222, 77.943908091774460,  4.010050469051383
 0.104537458482938, 15.999431483661613, 79.784520080699366,  4.229390776298609
13.316884486619740, 10.377251619400351, 109.324505525534988,  4.163434656732606
15.538284431271066,  4.888407616143817, 14.886922273153418,  3.966135701771504
11.605725372697774, 11.206524346537078, 16.462462357791747,  4.026777176531102
 9.857948203341561,  6.960284765321264, 51.789802347639352,  4.162116153073813
11.513776450844418,  4.398525537847561, 28.112610086423622,  4.142177122227820
15.917950914568742, 16.148991422295982, 106.013603748948256,  3.804238900338498
 7.805535081172770, 15.442053280327448, 42.287210364903409,  4.214710933448159
 4.670790769764037, 15.422472367073071, 50.808438438790120,  4.197623285456660
 8.089743966455039, 17.248647150555971, 60.948738945307213,  3.960487903239065
 0.182643758495174, 13.097293833434845, 73.413325481719866,  3.757861222771304
13.380379937434160, 16.641123545971467, 74.314738780711409,  3.943567892783233
 0.433024082691424, 11.661924281722081, 80.117824167899443,  4.209848926090690
13.754091364161379,  8.157539987104075,  2.040025690224068,  3.960728239838418
16.549805901721054,  1.694265388463371, 49.196319616323187,  3.966180113258891
 0.717878135002701, 14.598940173882827, 54.100101541289369,  4.038462020753711
18.992467091308363,  1.936919219719389, 117.374900532447271,  3.848121446734272
 2.414252031129494,  8.481696957806166, 12.063664370562488,  4.034791023036259
12.276904925679835, 12.011765238473002, 37.067455522232038,  4.024539386791979
 8.850803918512460,  4.707830193312081,  4.979500257967739,  4.157294225403881
 4.599416273392404, 17.071802577290228, 54.735481473279840,  4.266473812098374
 7.638277337959551,  5.014257713160387, 95.734805576494608,  3.852444650999819
 6.942197605681438, 17.258852861456013, 87.167596271605319,  3.762634175663132
17.941483293992526,  4.385976048550435, 45.098495411660082,  4.023876771006150
 3.551707487945606, 11.137039315877143, 105.127359070930794,  3.610630886714946
 9.178626294138581,  7.648994664544628, 27.191920996546312,  4.061213370245581
13.540366244621834, 11.505702028390532, 12.256882603218413,  3.898543766488903
 1.656591119264354,  1.165688550375816,  5.166956526139570,  3.924806147900134
 0.767367291501423, 12.293852883778156, 96.770508416190992,  4.134293582081910
17.790863099875111, 18.215665448514159, 21.357816785939328,  4.224935861386390
15.250675530477135,  6.277768706393146, 20.218311698285380,  3.857762352632434
 6.542018029434285,  1.359352683198285, 110.461289519670672,  4.143649729987597
 5.778437442037883,  7.276855420726482, 24.984571204059005,  4.074256569547562
15.590151029553953,  1.169933401920459, 68.461440258322526,  4.133310661335200
13.103298791055543,  5.648176451640135, 31.683655498958849,  4.001516907909844
 2.105398796300493,  1.302065866331743, 22.861975901138369,  3.862887295876806
16.062346183209819,  1.109273809412330, 53.150898228244515,  3.939576637871947
 5.489401956202910, 11.023930326469531, 38.099373862108045,  3.789830002471468
14.349193916989465,  5.903495261877951, 99.192183930264306,  4.191936718232685
 1.616308988365804, 10.793756064161995, 15.514101168788637,  3.713888677622918
 1.838658141389900, 11.529879068078342, 34.903469604070594,  3.635609985772255
15.451837845433056,  7.048060588438529, 60.086713968693310,  3.801711900752108
 9.051908609402888, 19.091317632075231, 84.608115518751120,  3.706158070656378
18.107472501486459,  5.154825388927502, 72.907824655432876,  4.299806746064649
14.597840029801000,  5.557277126432831, 39.953236777650325,  3.970055428396653
11.074337225971634, 11.710367265780269, 86.913657864599045,  4.445847462967266
18.786582390070620,  4.644449961541001, 83.811060553719258,  3.916372330543257
12.746588067235997, 17.499831300162697, 67.043306082569842,  4.109457435153985
14.825459826892583, 14.941420669923392, 93.082598368835832,  4.109039959648641
 6.365638098652535,  3.615971817394497, 90.645947338831817,  4.014178485411802
 5.534065201542735,  1.559372330879475, 19.658063151238103,  3.995512931005021
 8.706512925100311, 16.717209731337238, 67.055154953167019,  3.780009409238963
 6.160506705862742,  5.780391309731392,  2.030191480568719,  4.023218188822421
 1.291908718230339,  4.839469011381287, 76.695686796791350,  4.439204798831482
 1.753785917824558,  2.148421914549775, 11.298693661198033,  3.525929673192899
 4.258222711603237, 13.093929942195581, 54.687682924501118,  3.703282809246111
10.764294486970964, 16.221083181571291, 27.864572443626056,  4.159777944175929
16.574841953125446, 14.184927301853504, 21.953969218273343,  4.114560262621030
11.159952879839420, 10.848748918591888, 113.007064171662336,  4.185835682500556
13.992404028625973,  2.812236426880018, 112.886403133777392,  3.999392349023875
10.750050124859012,  6.123844758399866, 81.515179334299191,  4.123232720658175
18.501549614460266,  4.925518663996248, 93.339470956668407,  4.076430390660597
 2.095528368995567, 13.670262753340994, 76.822418239994633,  4.066968525910970
 9.543409624287339,  8.527306353879149, 67.411819591882690,  4.284403441163231
 6.209444887281732,  6.389164951517778, 99.561493342054746,  4.394948536979242
18.299915086799221,  8.677775691059344, 40.342417622743191,  4.329359364394987
16.788216882302152,  7.249094629347320, 30.804924833903414,  3.937224457481217
 2.199022115439798,  5.756491153314650, 65.562356320259454,  3.872253125211290
 7.458596867016389, 13.376882866509522, 88.276970360043279,  3.897739342013971
 2.924840111779488, 15.614864660227390, 47.161324972648465,  3.892078872839511
13.652937135431905,  1.403212210486926, 14.157256572328592,  3.842066727153111
 1.430538856885484, 12.169832790401069, 57.022489690477272,  3.680200235702455
 4.462598029113757,  9.731816006463715, 91.410219327942116,  3.850224314885869
 8.752224770322689,  2.478748600025631, 22.236720385842748,  4.205986876615325
 4.869101377163379, 16.251548327528731, 93.245943095638168,  4.277481968874216
 7.437710542684572,  4.457221742821019, 83.205137509182748,  3.908518713181003
 5.934007267226048,  3.545178147373455, 35.775349761589432,  4.009915220611403
 8.551616612259441,  7.802714678335259, 113.820323426561615,  3.970267738138731
 6.407242317559218,  6.393419809569070, 107.482159887114889,  4.105727829419272
15.013121138962909,  4.471126467823437, 10.859834423225188,  4.154860847708918
12.946773697939236, 16.268963116631372, 38.721270970757836,  3.742356082097191
 4.416852115550813, 18.430815516869966, 16.343078365460425,  4.301139987865158
13.144074915143053, 10.232536975422702, 92.671053023261479,  3.936100404667354
17.477798439959226,  2.783734937351898, 110.500511362577086,  4.126916206172988
14.719360144700406,  6.668606675301419, 108.568629391193085,  3.829474128111807
13.752459515914964,  2.892630443126261, 108.871357855524778,  3.901326789942941
13.983708233984684, 15.335294102291455,  9.201136088995948,  4.034885590471956
16.480598149194218,  2.043895941324234, 38.442252697242644,  4.087263040089561
13.985339357191931,  4.271999229348760, 46.287216989736848,  4.145020108018300
 4.187320617779500,  5.830505511675030, 93.584578738356896,  4.301554786595100
 5.981298310890031, 16.413882107670545, 117.527713109671495,  3.650217034581481
 6.474338443490153,  7.821169367950946, 11.545788267934773,  3.974608823225470
16.371579650660880, 17.315326945455702, 85.345002763332090,  4.263687943885060
15.157943659875507,  2.582408442765290, 42.714951576194593,  4.092471761126726
17.800883925148778, 17.162003088357849, 110.243667100871846,  3.952734556644729
13.543838664912300,  1.532459272116631, 31.415878586601600,  4.170333476404728
17.226759757469619, 16.225614445640627, 73.933975616032427,  3.767291325638379
17.160804552739680,  9.572058526311745, 12.453552782194885,  4.319763358286630
 7.472724312561215,  0.784818395376453, 55.798153940149604,  3.967865642275729
16.192826939020705, 10.546910544540998, 102.503897652257095,  4.026735215109962
 8.779449301767531,  9.926776800134766, 23.600801427677101,  4.142268325908364
14.291282861901605, 14.981999277740030, 88.256782221163931,  4.230942507241659
 0.329483057291661,  9.088370850168516, 104.498723845999862,  4.112758662238113
11.473670291970674, 11.401178127670731,  1.999350812335433,  3.954300896282268
 4.257304927984741, 14.550641027137315, 86.110852768937008,  4.028827657175401
 7.070085968779675, 11.565624650370189, 114.077619429425766,  4.062852419939062
11.154236407217608,  9.585760279515862, 20.173022460887893,  4.078603964309809
 0.194050250425838,  0.446764304469008, 35.056647286123926,  3.893531196029334
 4.227854313598925,  9.833591276505855,  8.862978993829451,  3.798095581306939
 3.169906213827393,  9.741540077220426, 31.411712094042876,  4.305437043033129
 6.367015285019297,  8.097795827092899,  5.378185385410424,  4.059129640446701
17.006904747201204,  7.417447101146573, 23.640365035124823,  3.970882810983426
 2.821178364430540,  6.678111958326035, 113.858860822496354,  3.817179310245929
12.588038186095641,  2.058377155973895, 39.635597424485361,  3.975122449773331
 7.212502352327192,  1.323780027059542, 117.299572797810427,  4.262393642825705
17.435688567714596,  9.384120803545930, 108.443929875287040,  3.837077828198452
 7.205550396039176, 17.597988095760329, 38.633250353085614,  3.891137457087032
12.891998880913079, 18.332455844622800, 114.334577028160382,  3.916209489369416
13.664924410267014,  9.096295490040164, 65.992914843193731,  4.400940551384739
 4.804461535382954, 16.469836477652461, 78.272243751463051,  4.018358164331654
18.197568282740804, 10.742536224301434, 32.208278360788725,  4.088691111019354
18.279418230085959,  1.132352952978221, 62.671549015525969,  4.294229020076873
17.371754889142110,  9.776189393463019,  5.599886645918486,  4.006262073989499
 0.539520981375818,  3.091910409727025, 51.829496217241619,  4.129533497395902
11.114218145476844, 15.943207324691350, 23.724125858276892,  4.160318406527646
15.122667873180138, 16.373473935642217, 81.110465441739294,  4.356419915150384
10.071600912206998,  0.868755096985298, 65.649229252483153,  3.666585873323999
 5.575128089831440,  5.041381481610717, 42.420431744397618,  3.917337717804160
15.053024773187401,  0.990305717870383, 59.875580432232326,  4.167125351824986
 0.994038790920311, 16.876200960646944, 113.964820979185760,  4.158785217132829
 5.925573060702496, 15.084129561891356, 18.308154316765687,  3.949585726191505
 6.534440419900395,  8.922475601576076, 95.381101013811545,  4.211695519823329
17.955944741629310, 12.924956858310416, 51.093403812674445,  3.774587814618109
12.581008285323250,  4.349923080465852, 36.063821814100635,  4.154920997197107
 9.369366847895806,  0.565985750368795, 105.043092283869399,  3.808483639616590
 0.907328836702138, 12.616401954664543, 38.762270941064905,  4.586047008710100
13.938276898384743,  9.080398604140324, 105.512502411000952,  3.974644515421028
 5.013744627461715,  1.362009537433527, 93.750562430196084,  4.109012299391371
 3.288306150639813, 10.428064359517183, 114.175973025996726,  3.765707445445096
 6.623744182929491, 10.605572202997054, 65.580819665346141,  3.724081481821034
