BANDS
8 8
NANOPARTICLES
cell(1), 19.098
cell(2), 19.098
cell(3), 119.360
 0.206061625116624, 16.398617577063860, 103.591192068952253,  3.945148885278126
 3.981166085941950, 14.330829870200633, 109.569616210473129,  4.237195085896040
10.167023475461470, 10.444732427593372, 16.989279467358454,  4.049919303159775
17.285643429635609,  6.481622929743877, 83.001775315197833,  4.268727838038441
11.718271924238616,  6.572779309220530, 70.490404415117780,  3.708069725704878
16.750234914622492, 13.504839449273941, 79.077657982111674,  4.181602388972685
 6.859010510097925,  0.013410035178731, 113.937072616112715,  3.959864707504318
 4.460565218114803, 16.587374619083967, 35.807089027732403,  4.030279808901496
 9.298164720003708,  6.379645514935974, 93.926793195125697,  4.028472430217447
 0.783463146260518,  1.059700471543382, 23.398358058909132,  4.149689283629048
 7.560968375759707,  4.683249793234894, 78.121469068565091,  3.902965023191858
 0.318364777957654, 17.127706907919169, 29.401414345033501,  3.881458951334127
16.084486320166842,  8.049372369409244, 38.149432264728006,  3.766257075899457
17.519292639994102,  3.577416889443788, 21.009698159487638,  4.221611104818508
15.702447404586938, 15.585390725169482,  4.028038594597825,  4.190682267565554
18.615814818431726,  0.275377117224304, 18.985604298899052,  3.825341093953499
13.991473579952793, 14.326378153902340, 99.731646206181594,  4.236705278911593
15.183813338487221,  8.605900502405357, 63.358941522202478,  3.939223398228629
 7.217888643573570, 10.939675865534833, 34.525652681418109,  3.761098048428960
 5.550531378829421, 17.280871141772103, 117.284593947805817,  4.047575697626349
 3.862142530405861,  7.217758771310550, 106.717428729882656,  3.988186583722565
17.006680083902332, 10.625088324911554, 53.274594202983536,  4.019426675377504
16.148124548951625, 14.931193318394042, 53.317810136468609,  3.902677108790411
14.095005019228827, 12.266350200290391, 55.924856040453768,  4.461722710147782
 5.270241751259412, 11.050403497371361, 113.875239981627416,  4.063975872728290
17.453648342256390, 13.644726899001864, 74.293776392989429,  3.805383372212904
 5.566655883384461,  5.407751639632451, 92.884043337021510,  3.959186810951961
10.159534366103662, 17.871779439893817, 86.844274634083376,  4.168714922489196
12.293082363790411,  9.066710087522665, 22.669607664111275,  3.538663191219140
11.099364450940524, 11.270632153603319, 35.063073615089522,  4.089123445531390
17.219186464783274, 11.292162391712159, 39.804816989809005,  3.848760764571963
14.741723052698720,  8.266200241440027, 19.838474707022247,  4.067511077748387
16.548901698984835,  4.906223640921441, 48.585323429726749,  4.047133587205348
11.265389189821210,  6.748478851210491, 66.677302505735668,  3.977156142221220
 0.007087896282867, 14.586216663921855, 89.844086055211790,  3.880817998117632
14.598683463809635,  3.903899387394572, 70.144596438693583,  4.166384285064298
11.879959150380309,  3.619859135160522, 92.587644187976053,  3.989785215536050
11.249810599101448, 11.025771842357294, 110.948602264291594,  3.927870168826826
16.350712274641591,  7.169788629648292, 113.753353023622338,  4.013894252766820
16.488880721443643,  0.837754578597224, 84.378089523820250,  3.367234426818109
10.755598910340007, 10.897898017274045, 27.977207985299820,  4.390719391180990
 9.346909458064617, 12.506211740839845, 31.588827788267636,  3.999376321510410
16.820902585730103,  1.588749333237606, 56.801240267031240,  4.208861661508614
11.030115765110709, 14.889035265358677, 109.954515423255458,  3.992629263378564
 7.137531618017145, 12.053015419222657, 55.752641571279575,  3.671947413173510
14.241327750779442,  8.225591033581956, 106.838048868879127,  4.109993226521261
 1.550288923834451, 13.989049256313884,  5.297512107457565,  4.048934242533674
15.022141702425111,  6.414920412542474, 45.098099361761960,  3.827793510912934
 8.814745225633091,  4.614390009237904, 27.236588454712056,  3.838468340123534
15.931857031981636, 16.026943585515614, 46.173966926405363,  3.794480493635064
12.748833143635407, 18.735255488095614, 29.731362719416303,  3.759151559249339
 3.900087340999187,  3.507258431399601, 104.898709331491958,  4.240844849218345
 9.785844568731987,  7.151641526457813, 80.416903893863037,  4.052384247848520
 6.577374040198503,  8.127547714004006, 109.653910883176422,  4.016227322277067
 7.007195487535213,  1.671014125581986, 71.644095946147758,  4.451725930578231
11.597421742062977,  8.908325962127803, 57.369912586127526,  3.752743677520781
 8.128354129593140, 18.673073802076942, 35.852545819231736,  3.918871332779051
14.316712414298435,  1.838742761540324, 51.849732405891594,  4.230058478756519
 6.514622171613684,  0.687604071950865, 62.484303133185421,  3.964250795335162
14.031353761695838,  2.071450316637323, 117.170800391202945,  4.331317933042782
 7.518800064469957,  5.755662245429172, 31.456498262499665,  3.860461373900344
 8.053548737483521, 17.296398610460663, 83.400112599645013,  3.965911405015175
12.737666070267135, 17.867930970938080, 38.971630137887587,  3.878880513575602
18.949745493694792, 15.809074800722705,  9.029569028650362,  4.038770855545224
 8.600055394539130,  3.052010618856792, 16.404327957394724,  3.837678346307941
 3.285484451519570,  8.778535881321284, 93.418512944520003,  4.245312967615428
11.338856285774678,  5.708961102586679, 44.315279086703057,  3.684888646179000
18.274980464463294,  0.336657930475867, 32.413476418179627,  3.952518020959899
12.310070368883792,  5.201515821567630, 13.187377963810528,  3.860796293439037
 9.207861773532304,  1.059431170320617, 78.956756291308679,  4.218558210371754
 5.978163317560191, 16.653040843116266, 98.666326536253237,  3.921977997919833
 9.798981910666523, 15.262818681426717, 20.580977091078910,  4.306161973305187
 7.423081417273982,  3.443165979171379,  8.460051916084232,  3.937691844442265
17.745110383005379,  0.214012605941180, 11.013278152504110,  4.065128595164160
19.075895101957272,  4.220220809994578, 11.036951739019147,  4.147514127105873
 1.094994771155786,  7.067761576675603, 75.184045626670724,  3.733963186163746
11.727829847096585, 16.500024802705806, 35.003396417288045,  4.153129465797194
 3.094004866818434,  3.933006255567505, 51.534935081144404,  4.051189098991252
16.642460956336176, 16.567374422584912, 56.813981625813028,  3.866700302955641
 9.800430437608632,  0.433502604147665, 68.861015328027676,  3.726174532306670
17.808132272009168, 12.817569015065573, 11.811042540447497,  4.072593528614679
18.892964040849897, 13.101375132222350, 55.886234279853397,  4.095580300299863
15.938403521731779,  1.432198700946383, 97.781867261315938,  4.096048496384076
18.706066273482595,  4.214206878187918,  2.041220986832902,  4.072050894244630
10.735539442366829,  3.231660308731398, 82.114808949477919,  3.994165341241335
17.185583824688070,  9.861837670109804,  8.897094595652501,  4.176340896453238
17.802146752722262,  2.047927458261240, 92.197590507858649,  4.217783144357844
11.846164578023004, 10.516239040898368, 83.776956495036771,  3.882717137596848
16.826916368911355,  9.793415113675110, 100.470849514526918,  4.460008432440514
19.013286159165272,  3.995902794529274, 97.635647272319687,  3.783509964698439
 7.043346363189420, 11.639510296855160,  9.212824336718660,  4.408882829036965
 5.791220934855754,  8.363358326128743, 60.512294966391686,  4.077439732024223
 3.318373807087240,  2.515713817192396, 82.091361974175982,  3.762781020920464
18.591597049515165,  3.585432524191607, 88.638338132172748,  3.653301839523527
10.890539919842338,  1.687714862562177, 113.577828214078906,  3.933214875639285
 9.891360862150592, 16.765445484168282, 24.528905789436575,  3.783231554902815
15.533767244749402, 16.534658021497968, 76.470827372399327,  4.096160391611321
11.875844950527943, 15.279981995625791, 27.731327091615835,  4.252863153618022
17.428987710204016, 16.936577096069254, 21.871142926848535,  4.052121519968820
 9.150390095730025,  1.570650806937398, 45.946718273228541,  4.255874017350767
14.999534453217272,  2.528450453404925, 13.831779063238384,  3.675899872339998
10.977511448275152,  4.800450695120459, 50.938299948700056,  3.680975385286268
 2.051599666277182,  3.082536947457364, 17.749934228887646,  4.061193511402953
 0.188885104034394,  5.222007302033611, 106.622414329898291,  4.209596239276570
13.615342666083855, 14.006284162743261,  8.102789026873243,  3.803687755760491
18.794605394047629,  3.255999243625292, 80.716976794371064,  4.090096171814898
11.367133152110009, 14.248765307126604, 96.297413646310758,  4.260677792459122
17.584458538147334, 17.716733893729511, 25.880147181883775,  4.075513803211207
11.828895178891178,  2.768179047502474, 96.870520195742074,  4.122230861561722
 1.086454595089847,  6.430013671161126,  5.167851593718269,  4.020554504201913
14.253272317029765,  9.567705700700280, 25.883708750891646,  4.003590028432622
12.208097220813800, 10.604274663323652, 70.891177729580662,  4.260610987548281
18.573132601310380,  4.249599097426547, 68.709811070480754,  4.241535076029233
 2.568872806436560,  2.830861499306973, 93.373125882197400,  3.836839334918175
 1.624225146400901, 18.167063924398594, 91.114323601231263,  4.329451147183201
 6.977529095838415,  6.663511391273657, 117.356488280090701,  3.886352268368708
 1.995514954725616, 10.025985064580842, 52.793592968939286,  4.110289252007449
17.024438444862586, 11.913656080001052, 113.887477270084602,  3.874513131210388
16.009001486442081, 14.912140526286066, 110.202811998933555,  3.881583661789281
13.181382151723080,  7.837363807756360, 41.592092144714684,  4.113888498933162
 5.371119543084533, 12.739729982893119, 99.697140427807668,  4.087962115650047
 3.105623463749660, 11.353152280461899, 96.657569927104234,  3.918810711051742
16.276252023579868, 12.442223819066273, 70.614403489191943,  4.178442204096550
15.969921397651900, 18.564437882946745, 16.091301467411252,  4.175837090014169
 8.172451410340951,  4.708334319412176, 12.460888406333570,  4.449775041015156
17.197458333065018, 15.167257901365911, 49.551239819811620,  3.614697859027872
 8.535041995568823,  1.182162659275101, 25.366348306335848,  3.890240827325958
 1.372918525773291,  2.321924881719075,  5.102797439816643,  3.939215090924507
 5.587297515684834, 11.552957023041699, 66.794080076674206,  3.922691670217019
10.677720020644641,  8.444747897484156, 31.665903636844888,  4.414465878639283
 4.327508873013019,  5.605911434294046, 24.597393354693796,  3.714708313622231
 5.354530504120227,  3.710474719778646, 65.099354382704803,  4.322347731096456
 1.345245000961486,  3.167979137110417, 34.174191988101406,  3.961473652270267
18.157305520812354, 11.479673154880400, 87.560169044823368,  3.909550177265247
19.032483314339824, 17.710649943593104,  5.130194163038737,  3.974235733238243
12.025386937891014,  1.221503004592614, 104.823358400404004,  4.037704781050501
15.342774934566064,  7.782500174220189, 71.395457001429094,  3.976556834176138
18.078608902813198, 10.434700348918057, 76.601245182304766,  4.128613630746901
13.047354171268438,  7.735452124925749, 48.317387712187063,  4.153175020533137
 3.682443392549421,  2.325671275775526, 113.887243200869491,  3.853133641538023
 5.755646734440361, 18.909484451082253,  9.011588077463133,  4.043699033253298
 9.416510065137077, 13.708678783734866, 92.600848392416893,  4.016913078733324
13.519853427183143, 18.912307180665589, 70.284567723016082,  4.197940334899250
12.551335496339451,  7.684456792890913, 86.852876927064784,  4.192478942314388
 7.682907285296089,  5.617753533169165, 53.097336179504438,  3.842672403151992
 8.517670836338951,  4.145673439104175, 68.361398695089733,  4.090879987066506
 8.963746366365591, 14.633109237114835, 76.516157002960796,  4.093641293166164
 6.675692269393514, 14.800035475529084, 43.066067025877039,  3.797800026917243
 7.162952264494850,  8.844577732413530, 13.263113289585688,  4.191964123563328
 6.304525889064647,  8.539559743466622, 79.491422997737871,  3.639789209696354
 0.794016756771826, 16.262881875792498, 62.772467860480546,  4.091212407110658
17.436512536475000, 14.667056988358496, 32.511011478493643,  4.168671119408841
14.575890251428561,  6.069188309088459, 52.022780363307554,  4.204285412575323
 3.225141805801398,  4.994792311883737, 117.227817433817094,  4.231892904577756
 0.632191291760168, 11.378878031409037, 32.161179525344352,  3.711706846991984
14.302092976535203, 17.364301613994101, 87.390553232985781,  4.073082149286211
15.227729433006195,  8.629803228749225, 93.516103090473862,  4.271063454341167
 1.123810977897495, 13.572767115436239, 106.753772940252816,  3.833954219289776
 4.156158110188515,  3.241214846595254, 109.191189107071580,  4.182208261101827
17.094496930275117,  0.340004626600197, 63.713592278656854,  4.378556402956157
 5.611921667380021, 12.123996266659095, 70.936510183788556,  4.082286824204415
 7.526207842389818, 13.487869083506185, 17.613521807648503,  3.945361277509322
18.714559344787165, 16.087642209969765, 94.096420698467668,  3.773863425310744
14.608256986678622,  1.251176150647477, 107.778283745041335,  3.806370708234589
12.965736116974105, 10.398517652808472, 38.486449873719089,  3.874891557799033
16.355679917116287, 17.729560977401920, 117.355533230452977,  3.968887278012827
15.933786753367103, 14.544783828261679, 15.039832185329777,  3.826656318501663
 6.341358026294726,  9.574901645525392, 23.399861827861351,  3.573681572316952
17.405995413955079,  7.978153502016026, 104.385594262046723,  3.790176725842533
 2.079493667793717,  5.857830920092007, 90.598440858177113,  4.142908994102429
 1.526271662176427, 12.084389669776307,  8.800600255184358,  3.838940107470845
15.509447504072336,  8.471943106873740,  5.331093420593968,  4.175945617287889
 1.545798953393017,  0.827920606863653, 46.006929140851767,  3.949958926638950
11.992619536694400,  7.978366665115816, 74.051226375294050,  3.957270997278571
 5.173658984520895,  6.935354106157172, 41.483794718603662,  4.035563704186345
 5.799851182590986,  7.798030748339841, 85.615642078362129,  4.273808488977196
 9.892224583118859,  0.486764893717109,  9.742092125097479,  4.131507884637519
16.301607528349994,  5.184499840331942, 41.481135705187867,  4.021675809058488
 3.977414365346850, 17.300546759589576, 65.095361690002491,  4.049898027590641
 2.265009238253487,  6.193289736070020, 66.357226198441609,  3.804125507980998
18.430693110301725,  6.782534189649494, 53.636989649422929,  4.200570253606263
 1.253342300305384,  7.139280030480604, 50.088773310317578,  3.842713511773238
 6.730342370747211,  7.466960722539335, 20.276667122790698,  3.981665284894991
 3.305795267915176,  3.892995460732310, 100.057151639791940,  3.819182050897775
 8.110247567364421, 16.893848757278587, 90.481448876864690,  4.025213602590135
 3.238331292903594,  8.107585798961598, 21.967641117751882,  3.808208552465337
 6.852496107409062, 16.669903004831198, 79.507796812573687,  4.241151292974851
 7.048689620674392,  9.552336274133312, 95.183555457636032,  4.119984649440459
15.984358462272040,  0.783199818483791, 47.580707101048631,  4.345372056001541
 2.309034418124407, 12.896160201406927, 74.590050516820369,  3.992227553993379
15.838134640263966, 13.698072157257561, 117.257674859941190,  4.111341665096317
 4.612190861848166, 15.571806112463696, 92.293972660466409,  3.925399065419159
18.156992799577864,  8.297004278394992,  2.103162600157530,  4.164187724547628
13.423263813041382, 19.032891405160623,  3.773857905029750,  4.089229165509996
15.181995040873474, 18.851207184555197, 60.146806052428708,  3.799560122940825
14.001411887619058, 12.411149826063976, 63.837373004312880,  3.957333440273181
 2.473857231356784,  4.360331213914685, 47.565215267223778,  3.962582711473922
 7.476426932897217, 16.917737393738868,  5.891885196049928,  4.037331963822329
 9.625451740508920, 12.635865677435657, 114.143974165053947,  3.902795754889265
 4.823668786908344,  8.741658598935908, 37.894101336319885,  3.958255527690114
10.051673152881023, 13.490336760274955, 85.753940521269456,  3.912905432683822
 4.686520947656670,  5.410052724520179, 34.723316591927585,  4.154021115201593
 5.056338957542079,  2.066631028513500, 15.457295577635803,  3.749989086571349
16.173269482958638,  1.163561211381121, 67.604505265157556,  3.774253405637241
14.797077326672103, 17.660986286214587, 32.698891106906309,  3.737329853217347
 6.210417368170269,  1.303265961404823, 38.831769630904063,  3.843930138268834
18.675472851839661, 11.478091453828414, 45.835189853436674,  4.138646063263536
10.320182239817530,  8.317797247260943, 108.196242343686023,  3.962813171270160
18.627581763730515, 13.046241931441099, 97.063686125442032,  3.821558615678641
 5.364967753295453,  1.746314955698947,  5.376412493815768,  4.143785875287235
12.131266731929315,  4.122153911762956, 88.718925949686565,  3.826660555722746
10.988932432619421, 12.313622225850187, 101.845898145433338,  4.091407076944190
11.638228637452569, 17.677682890655070, 76.724191936338116,  4.021394298992502
 6.963109817062905, 15.252966880244488, 106.880932906065524,  3.946434470985590
 3.494746167036876, 18.558485211570268, 70.561531053147206,  3.977060551831552
 3.143965525450068,  1.258575437768439, 12.010033042225523,  4.248065053447324
 6.234297417314893,  1.043259170566581, 100.911008430411073,  4.295490681284224
 2.194158136465667,  5.295637596303969, 43.691310077088879,  3.985409245116490
 2.616719819032257, 13.043263499754412, 35.058813479044396,  3.970626021660502
13.011123310774909,  5.567759658929019, 58.942186468151654,  3.911272162520247
13.643506504376951,  7.680267986530134,  9.750762491955349,  4.273534422371667
 9.464248114472841,  6.429966205631421, 84.376090456934165,  3.909004544887603
10.092497482102672,  2.867257466297104, 20.026994731808255,  3.904094034428635
 2.385610957459687,  9.261052531302173, 43.775064660058916,  3.951015751046004
10.715171477967369,  1.496541950327082, 100.851661950310714,  4.138327228371449
 5.479600786094471,  0.786180947277906, 91.606466657981997,  4.060752996781003
12.694020186585439,  3.596639587556842, 47.428422967794781,  4.308316877831781
 3.855490284120647, 15.410813409565874,  8.591922192910451,  3.861138913481105
 2.522018037025725, 14.019383683685666, 12.118217325463139,  3.921513264850643
18.497673065822269,  8.526654878678515, 68.561603440935670,  4.279816532743618
 2.408875974048773, 16.588393539864953, 23.627410008435021,  3.686479244641095
13.178185185028241, 15.335321994028360, 92.588845552756908,  4.075002136511328
12.814158635100538, 17.004402210919412, 102.616767940540257,  3.964542778272620
16.129654643747411, 16.815326290333601, 72.534894679045635,  3.793218221084359
14.888757769764394, 10.713729196709949, 74.055458822836158,  3.987003695098255
 9.037549570403659, 18.201099370776824, 56.214344903644822,  3.868484463971356
13.507461964989972,  7.816447256331311, 35.059027959039682,  3.945715013029661
14.008090342624834,  7.101180531977056, 102.726370191696745,  3.841637252620317
 7.135910090956166,  0.640118058252940, 12.606899389234034,  3.772503665090507
12.600983951717984,  3.459722789567470, 16.859350935633131,  4.254932002555907
16.453012908691267, 17.472745457434478, 101.072207038899265,  3.755952505817914
18.700308351642988,  9.516685098777160, 72.611373206945430,  3.962371832643754
14.207065455197869,  9.749292044990984,  1.847896707652902,  3.676827969872717
12.746133750554316, 11.867374241934249, 42.194777690054856,  3.966691042448392
18.171121880913223,  3.105035831565083, 117.237000249853423,  4.116706536696153
 2.531687313257630, 13.627296685933640, 79.873796612401591,  4.177450521877211
 6.467484311236848,  9.447734903987572, 44.471357755799360,  4.081608856256480
13.858515566254033, 12.076337332580302,  4.838793707870810,  3.793149666718628
18.828617226913089, 13.972938843449919, 24.477259831346178,  3.977196909782637
10.785240848283047,  7.176425421437544, 19.623198934401994,  4.129544607652741
 7.702964043279219, 18.859886239411949, 21.593774956498343,  4.245605680003790
14.051584134204392,  0.022747233484442, 94.249454598023590,  4.367300650625815
18.757403014896280,  7.270144392837230, 117.246522569225363,  4.200133071482252
 0.575993375564621, 16.358840879807445, 110.882893669906025,  4.066320837928567
16.210961623025661,  6.227874664174065, 13.236178451370929,  4.103181622679608
 8.624921831355691,  7.746442368577504, 63.522167879681312,  4.204729503183809
 4.861956325652031, 16.110929268921090, 51.356618916379361,  3.943780446247345
10.606142925315284,  9.390837336968513, 45.195702837534427,  3.880794343050183
 0.718477552300361, 12.651970881771632, 15.465419634262478,  4.108507330278458
 1.652319653342077, 10.973628478432810, 38.369073561201915,  3.791101233753209
16.373566875055616, 15.469469863578832, 64.537939477188146,  3.843295540837045
14.513257767503445,  2.463216504183107, 32.115016290539309,  4.135275504286064
12.729932454212420, 12.190131635208809, 107.255522478966782,  4.303382597771416
 9.572503525236479, 16.584534796838366, 31.044402048097311,  4.225134873009883
 8.878795386159663, 18.159867441502030, 103.564682266265891,  3.882495239384042
 7.404396032476456, 18.019034792879751, 48.752628046175552,  4.096740064249683
 0.591473958412677, 15.211928432784624, 66.919377709740289,  4.225738533754735
16.007396426111210, 18.585323513019720, 104.683914454286494,  3.835407221712841
 5.422998404540261,  6.998012014502880, 49.597797261570562,  4.528002303490952
10.415157181879007, 10.683344212811793, 54.147799374336948,  3.958544692885265
 6.541772005557613, 15.734037813887491, 86.847159322470773,  4.041808940309150
 0.367866723404662,  0.511124222196409, 95.685537164627874,  4.052173644311293
18.274034853387988,  9.783121840225926, 26.110492438000399,  4.037069166285110
 0.850202808274022, 16.239960767551654, 72.647570281522505,  3.845102221658472
17.617944835345394, 11.776589792135839, 59.381253270614003,  3.740317535961498
 2.787800796221387,  0.095771497221059, 53.039480419525134,  4.158205324650090
 0.331626053860123, 18.403907899639236, 49.705378581018252,  4.252594188249383
18.472423541838818,  9.262504226434507, 56.745381137053855,  3.726321431015140
 7.769022544105655, 14.634442228496232, 27.778103118388895,  4.050742408619715
 1.640163799361123,  7.745006287202482,  8.989006430359879,  4.086488192542398
15.556210174185880,  9.838303993312131, 85.075779316511543,  3.991247238166530
 5.800602170256954,  8.278571712451740, 90.161966172427014,  3.914948985496288
13.397458351115773, 17.913750439247732, 54.597391942063339,  4.063924763047804
17.844516133755914, 13.398313256695943, 36.469275463789423,  4.138849002790842
 0.627876376060062,  7.344594916897576, 32.289553984978383,  3.793544613765656
18.916497336658892,  1.877341402339293, 14.527247466805447,  4.050061398301982
 2.604032625549295,  5.756837651278241, 86.771464363696424,  3.553234146446978
17.191355806444168,  3.410016166337247, 109.605223193875716,  3.749190955790480
 8.394142819755997,  7.199354248652682, 35.050542135911527,  4.069196070038352
14.087757648536083, 18.227278100100527, 114.146960843621272,  3.916882272180778
 7.762214292766837, 15.603353583612666, 58.649263413979213,  3.489879321260251
13.104675726033873,  6.709219062418219, 82.799119133079600,  4.031262628858314
14.395106318034269,  6.519514090699024, 31.420434477891327,  3.949272634565082
 7.016478214145324,  4.040626835382679, 97.927918780702186,  4.246034650106907
17.940015698897998, 16.631840060725803, 107.343583715976877,  3.787477690380626
10.571723781733072,  1.721188605706099, 53.550653522511581,  3.953013865428900
12.430296791046510, 13.746599340218626, 52.188959550491568,  4.069603037333696
14.947937668178865, 11.355007000782244, 96.824359743733098,  4.277600601144372
14.794861102774032,  2.029485368696060, 101.774854880416441,  4.173445948820761
 5.321309340987236,  2.920593710328733, 54.824828382833992,  3.884198006669068
 5.217754658680574, 15.547732880424224, 21.233691820818713,  3.961040405975607
 6.387751584676360,  2.099698113831789, 31.756808506081452,  3.784034275767679
 4.189225280492168,  9.468275594332022, 63.934276152945742,  3.674534679872870
 1.021199973025175, 15.078664891733570, 52.393195461044535,  4.238071708582616
14.130358821423567, 16.912727537688532, 42.462059452186153,  3.843725439460228
14.713828312513353, 10.916724813930504, 103.889920171212339,  3.843156478142745
18.874719175384644,  9.448092477764215, 91.167977643687749,  4.009207209682035
 9.264569261377247,  9.033071500882793, 76.870794806391757,  3.965988597143884
 8.394165459493120,  9.300910620728793, 101.536194621686477,  3.876768816125443
 7.593822190670432, 15.977319959846483, 66.414730705240785,  4.053219660687049
18.335860111879015,  4.766244301087335, 38.392514291459754,  3.405789476419022
 6.173579389075140, 11.898555354810936, 85.473299166111033,  3.829364074541536
11.691898842580477, 16.122788050013146, 83.592681976772113,  3.605320191204445
 5.415511038714310, 12.416325650580673, 14.315376857733716,  3.950535069888084
12.118702618159482, 11.427621548544394, 88.099310298528749,  3.547211709061501
 6.072218016411562,  0.476153726781413, 67.657403410674689,  3.976150724025529
17.314012951387340, 15.731936405100692, 113.946276635075378,  3.757258332637437
13.615250345331008,  5.185921868150857, 99.383049371342636,  3.667467137218114
15.035312090686867,  1.791515147689913, 89.335644355304339,  3.710704038600821
 2.058682901049449, 19.017192663077921,  2.014567474627917,  3.991726563455477
10.406737653148928, 14.822841811492637, 104.972227208176093,  3.956300320352060
 4.543558998416537, 17.099020379420924, 45.773740568579889,  4.224322130731614
14.840438065819038,  3.090800320464569, 81.859819078922939,  4.135935337115805
 3.732568203010959,  9.756947071787060,  5.645885932166479,  3.969685337058353
13.934633434260464, 11.293879213405448, 15.860045773029668,  3.968958051319820
19.083651699002917,  8.710980799937078, 64.454665464689072,  3.906896096823217
 2.770446066791860, 18.905747761258255, 26.782874466642173,  4.034610762943685
12.538855553672530,  5.353629154341919, 114.209812755523657,  3.882529042441992
13.510396770669910,  1.012597500920292, 35.839522231747686,  3.969461094671086
 9.892973635709927, 16.911509925158235, 52.580209582530678,  4.022818938667887
 9.051073050704238,  9.826393168512567, 91.710176636194689,  3.875556921360524
 4.899049422254485,  1.791913879186355, 23.895472511952150,  3.928214650223384
13.651180242897942,  3.913364072018943, 110.606376809170555,  3.534639972802139
11.199912854705904, 11.471687967668990,  9.483812983464832,  3.698965890559259
14.587501612649850, 12.323633448490980, 28.722051391474526,  3.915982319126551
 6.817487356098710, 15.744496920846126, 62.378237837340670,  4.085044477370169
 3.068070684895330, 10.235330372226132, 29.447247270103986,  3.902797326352920
 3.886813999832770, 13.310273718625091, 89.080076164884332,  4.033274123366019
 2.295050511579097, 18.012668390954598, 42.296968868356629,  4.086667147859249
17.762449052424632, 15.161016545391261, 86.110109150613411,  4.041946482686617
17.042693481211810, 12.257578943869188, 19.192920703899912,  3.750213012318139
16.756012466737310,  5.778893172273844, 57.370060586423492,  4.094836350953943
 5.794712133117981,  7.405694926908115, 75.925639944186543,  3.819827028560812
 2.443917640350020,  4.273987476765219, 21.543997559914697,  3.916119836598008
 8.934969204401716, 16.725907268036615, 45.427191510222158,  3.662869951421265
 7.005398151581596,  1.721840404984453, 82.214002255915617,  3.741814301444663
 2.479277230443267,  0.812791496861995, 117.342657421855748,  4.032494298290274
 5.399980858048731,  2.731645592037747, 27.788204997892112,  4.000001924010452
12.827685751787907, 13.874977495965910, 45.587407884826099,  3.848559374582278
16.107064423721695, 19.069137024288128, 79.569326236584217,  3.936232093928514
 5.194559697615663, 12.457584752981345, 60.148314302360085,  4.122288294683214
 0.455979975582331, 15.680089619849197, 76.947356402116071,  4.077597152763651
 8.230781046201420, 13.173089318830332, 51.583609667259829,  4.345224122959499
11.071265263030163, 15.866929337119874, 10.586655503309734,  3.806899753249914
 0.671961215428822,  4.959979870679990, 113.910909442118964,  4.099888059676299
13.024859133532575, 13.630135998336167, 77.571840474462022,  3.847945963603731
18.682576807945015, 12.371522416599674, 63.016009640916323,  3.912985806167464
 7.371612616122269, 16.902868077627417, 70.234028520758457,  3.800249782475081
 5.250334349664358,  3.565941224566115, 75.018771003033379,  3.970628616190043
 1.069310242586827,  7.611427780175862, 98.784488617766741,  3.971817098471845
16.319327610262238,  1.017282930225349, 28.797373139529476,  3.859385271753548
12.368206312046349, 18.654824873348613, 110.567784594298359,  4.004328449975152
13.382921348211198, 16.382190820477437, 22.635098751277162,  4.194456051977522
 4.002753320763448, 15.000980890103605,  2.126846161256513,  4.102178129406516
10.301184771370442, 14.383910167094594, 55.877222618674494,  4.188561367472349
18.810160322407327, 11.509277893732328, 103.799280236168627,  3.896048698718352
 8.647650886987590, 11.693496584375781, 107.021024136951226,  3.905088601640748
 2.032461377231789, 13.552212574106932, 113.688890035139508,  3.869809125017503
11.198668961782820,  4.320787652487443,  9.525045172229632,  3.979218560232670
 7.498507643385617,  8.176555774826532, 105.225821675335524,  4.041978626863459
16.740995638226739,  3.643158296210665, 77.286522953639576,  3.875227949943075
17.672397226261083,  1.373026254765215, 36.675625501122624,  4.270165718835638
13.756338238869617, 16.462930171215728, 107.240782563853386,  4.166541513146392
 0.947449604153570,  1.329203519117859, 111.261151871901603,  3.907373360339736
 0.288855562090903,  3.000939656170157, 26.990245031446580,  4.010815657396982
 2.811454796315686,  0.099533927398684, 102.920721934668904,  3.763149085259904
12.130086855628493,  7.365132553036360, 91.028799839367281,  3.980627033905884
 8.690099822185264, 14.734837473176837, 117.373540449438480,  3.952768423637722
 5.214944611609740,  1.887152157347545, 45.665221219810384,  3.651028351149739
 7.910430808445132, 12.544733073047670, 88.998942266500990,  4.089372439158066
 2.777212034415177,  1.636288978385218, 87.918515061610350,  4.111159187280176
18.845251186339866,  9.656408396681568, 95.181622099703858,  3.841879543690095
11.435712332888063, 17.056645318449814,  6.834672702881169,  4.073300515560725
18.757772916608108,  7.504896191845458, 20.397913494743328,  4.089309319035626
12.804023885148613, 14.564977805992530, 72.330372050006901,  4.195383283946293
15.698714952975832,  6.556405069901817, 23.495374737729978,  4.137883671853995
17.245697097418017,  5.347763838812481, 101.007254199431188,  4.206952016741093
 0.410009710114926, 11.471027320775447, 117.152681106603836,  4.335359322244435
10.280944371974181, 17.892719308263633, 72.796391519636785,  4.136619678993328
 9.475276364213769,  8.194816723786808, 25.019193881270386,  3.996214530618112
15.173445420208338,  9.564286588336870, 89.445535249203871,  4.078318789897054
 0.336568911554351,  2.495158457918417, 41.221208905847007,  4.162553112222661
18.943465938640983,  7.347775039244438, 46.301454124636074,  4.088908463872770
 6.049533711329175,  9.767484075612169, 52.882372358306263,  3.978271458293345
10.463075384190427, 13.939995641792310, 60.857313004419709,  4.119413224520854
 8.681525007910823,  9.914822117077902, 38.147214655129865,  4.110946486745098
 7.238219826707049, 15.528511447191461, 10.648494691560481,  3.884437713541220
13.613146310930910, 14.175228530695289, 113.503479094751057,  4.280303895209842
 2.404930191459798,  2.634507310482605, 72.596862120198935,  3.728046902806912
16.963101977718541,  5.368325798730853, 34.442085018423683,  4.212382147188265
15.268556338631956,  4.000660316877747, 94.755013562001480,  3.950266085244421
 3.190683952609070, 17.926900436251177, 80.934400427778201,  3.905788595871565
 3.866929533856427, 17.327039716895030, 59.912967042902068,  4.109303206370170
16.432306270005732, 17.345462821122911, 91.107920480733981,  4.120656647648595
15.588434879931270, 16.160279726836247, 29.248084971702827,  3.835407330702738
 9.403146845402691,  2.824488593884632, 86.067194353420589,  4.034253517597023
 0.068566931156769, 15.456668775714617,  1.924172879111210,  3.801208080559253
13.357083566743245, 16.317478918792627, 62.371499787688968,  3.759563228718783
 1.077064841603033, 15.872635148638873, 117.067118262609640,  4.525388689842147
 1.978549583798914, 11.347586849918102,  2.131898416180327,  4.228544370071365
16.647596347402395,  8.638727630583540, 49.795910165851865,  3.556572832516956
 5.966978851467470, 17.154600446948589, 24.988972971318006,  4.008565333279644
 8.263655752770642,  2.422736411487556, 94.172724587200804,  4.141397770779019
16.010634790876615,  5.567657972318222, 27.675963939580402,  4.412759255199306
10.296258966614023,  2.088140217285402, 75.171874923232096,  3.876550292378206
18.989860749735243,  2.524513940659947, 103.559782460269844,  3.823573858500789
 8.143179459084333,  9.530857989430578, 72.834726292432904,  4.075009062744874
11.821054016293534, 18.924516226497737, 90.522342398863842,  4.107147860334265
16.383767543747489, 18.803186694110199, 110.959414635753490,  4.008373477462298
 3.091053344935343,  9.097926278387810, 25.704657299628966,  3.906113319103729
 9.278785217580380,  7.738066083019445, 41.438611083836996,  3.643164902026546
 7.150658448338820, 12.871893456506946, 103.445490605893383,  4.142263005427426
15.064965852044864, 13.807780279531833, 89.346570907235716,  4.007061266960302
14.832101953151774,  5.909357555304070,  1.998504138304585,  3.985265146414239
 3.554998537027487,  2.179569293859249, 58.653783250830003,  4.170643686241344
13.234787209828919, 13.390713278438890, 67.835920948102057,  4.251332703966839
 9.603715959925609,  4.077203503263992, 56.773527803394160,  4.232542284099246
14.551520698541720,  0.540332230395200, 20.020258056432166,  4.412080717860097
17.228838590538743,  8.931382771755569, 42.967096330635790,  4.004516668367362
 8.386790263673040, 13.587932894916669, 82.278675291991078,  3.775622157941706
 1.436891912944884, 12.769168595131580, 70.394237701787944,  4.354882445261943
 3.990293521940592,  0.985787784340860, 97.392395168667278,  4.003276438148035
 3.602468166228687, 12.868219754801183, 23.915501775095688,  4.147329889139474
 4.327894692430993, 15.181881648118473, 68.577316039444980,  3.930226228218047
17.434571302568685, 12.641309999554089, 82.990319457841423,  3.904821290703703
12.286357530780130,  3.758734251833952, 41.055728711447152,  4.092376448920612
 2.366999179579120,  0.164372046831286, 38.296547918044823,  4.228616720096728
 1.660861243965822, 15.032165623649217, 38.715893721596274,  3.891519004469792
18.101686624156628,  7.335010694422857, 87.295943336132936,  4.359520911828819
 1.736192993261585, 11.434836116253273, 66.563594832457341,  3.693315409680630
 3.845803380282426,  6.709293192347716, 54.504650598443178,  4.212460228136782
11.063437725914461,  0.438826393942265, 49.676307477415790,  4.024054321543777
12.532333915848678, 18.042537982293002, 45.966786274777924,  4.019236030213063
 6.913357773702741, 15.526237834160128, 54.449474076490034,  3.507653080279018
14.050707900281237, 13.623955512834589, 85.415466604672659,  4.101972470354831
17.936584385190159,  7.236378378118312, 60.927201053090812,  3.816771926611199
14.386173591077165, 10.234696477623785, 45.341465812184325,  3.828235070522988
 1.978059439403949,  6.668624234329587, 110.307657314574087,  4.190300111770848
 9.145375810990549, 10.535806717887064, 21.184170962702311,  3.825522882022915
 3.302510010473988,  3.920263153964920,  8.404444433300743,  4.332865004538552
18.377768967515166,  3.966255217770397, 30.780498705976232,  4.010035010170912
12.593960896639778, 11.491292257870667, 91.844925953820081,  3.833247207512025
 3.685739573107242, 17.204440713111271,  5.255384993932085,  3.572536370490068
18.536259538269068,  0.549187070971704, 70.945404361203018,  4.212054334965285
16.382347170071007, 13.603188466556427, 42.994036482425116,  4.198690086176150
11.441849238439756,  9.359113834766429, 13.139070685620627,  4.261928344176010
 0.572517888096235,  6.337387861476799, 24.311674617771722,  3.935819205787825
 2.711617812765869,  0.655297586886392, 30.700989115597086,  3.637997775979855
15.439487384357893, 15.983432726752390, 10.977642315988099,  3.987637669831066
 7.992827339394249,  9.778083899732762, 82.796133041272867,  3.848537036255323
 2.370590784550275, 15.601142027697229, 100.187093148712975,  4.129517919107697
15.115761388695603, 12.086280543386183, 48.783773086248765,  3.795542888150232
 6.278780576158779,  2.235840347478371, 117.412085202723134,  3.860867790871905
13.214988815779217,  1.548986176519558,  7.466935504861977,  3.955138317310523
 8.399546544557561,  2.984260212879023, 103.872511352347630,  3.972953180606661
 4.561928457340588, 18.885610081914088, 84.507296665022949,  3.912993002942258
17.072777273282668, 13.208738256519549,  6.850622235356377,  3.655038623212461
 3.346405690138013,  4.473285203010175, 30.893402819785209,  4.102104349189715
 5.994877044144475,  6.531879605399976, 70.828154449183401,  4.188994874856490
13.628140728750131,  3.810038952753418, 55.416461222143113,  4.031090684605961
13.107657061044145,  2.131137470777166, 77.963560185679398,  4.027944564576358
 3.181824845465348, 10.061490511644131, 77.575005515267819,  4.286277938899626
15.769267977845605,  5.477682527226465, 90.665255294156694,  4.248559360201779
 3.765414991261270, 10.233807468407273, 11.425404486683505,  3.981157194500875
10.025378341887505,  5.203999829130639, 111.090962600899019,  4.056143973603706
 9.973207657747441, 18.519481267053163,  1.920745987604633,  3.794541134079481
 7.468004947756698,  3.026212992876708, 49.824621002633435,  4.368390441234190
10.918788558410681,  1.322908657251732, 13.684913113104523,  4.052670519706290
14.146445592603397, 17.051138415734080, 50.554008608427608,  3.816272059270492
13.528287282698145,  4.299450241608307, 74.059569663646798,  3.977242244844803
14.749489197073370, 15.573051293283662, 18.697831526150683,  4.076340437736952
 9.236856329938016,  6.222323283497034, 47.560319405188999,  4.106994546804134
11.203356788681656,  6.815501126853003, 54.183218482957500,  3.903557695750479
11.236572834163432,  5.520644313307010, 77.041424381378917,  3.926875188545846
 3.815779865165675, 18.370214770362686, 109.662502494830051,  3.839002857550305
 5.595916184305803,  7.590885188128416,  8.529765618580807,  3.840685758041338
 9.359723077748896,  6.892716674033422, 59.663971801641594,  3.806697879728125
 8.932270175519594,  8.712688555775800, 69.068281071345211,  3.772933399794454
15.778324163325705,  9.855105792156186, 117.555326706901369,  3.591135464262818
 9.223616482296103,  1.180443354430567, 29.249265905207896,  3.992220412844795
 0.289670697978838, 10.323607981162576, 80.472625475888179,  3.895029826645200
 5.696147278692249,  5.658565688374632, 45.594096521878043,  3.930999995584805
 1.195290358228909, 12.843862914127925, 41.979944893660850,  4.015559353749797
 9.664588175591518, 15.843981449608753, 100.088640939261623,  4.117009115452389
12.013545205092873, 12.275961491754680, 117.326165041824225,  4.032751482655420
19.033122098096950, 18.504697413354144, 59.501881769850307,  3.959575118863683
 7.330567477418612, 10.530518211324651, 48.252130224550527,  3.935950658471831
 9.706368067622114,  0.013669252307525, 64.921551138769061,  4.054462333447138
 8.659288202408254,  5.526458337283883, 73.877383160699608,  4.151543223458505
18.763099689737796, 16.492060342686255, 80.673840286169721,  3.694785397132157
 9.191256179275761,  9.817418465673766, 86.467464572916143,  3.740621595841922
11.009592235339372,  0.133172500589765, 42.317467958832530,  3.926623271945284
19.082454717381403, 10.443053650505751,  5.527383240672637,  3.628964182230227
 3.396267010126917,  9.250713243770496, 69.216494707955633,  3.903679272282041
 6.062976124409125, 18.506125428718693,  2.075709984710582,  4.026428637686383
 8.705528589382920, 10.822721245032756, 58.994210417330677,  3.892847586680164
 1.763051561757402, 12.860706235766152, 93.097122742290438,  4.094420665074065
10.481164490172427, 11.159763939667933, 80.049176680653417,  4.025048788449491
16.630121207655204, 12.703551541709924, 93.079414258414403,  4.336804432273780
 7.315455544588986,  4.055756781228319, 113.991694415319387,  4.150580451788314
 6.192531432955652, 17.929106059627983, 95.003586594065411,  3.721169866153254
10.086246685648945,  3.889208229022132, 117.187513855942328,  4.285920440169648
 1.560556006661180, 14.045865500937259, 59.547201072546329,  3.833997375538530
10.557013925113495,  3.064212760553224, 60.883747783118572,  3.951250101663238
 5.873386441047614,  5.770489741382654, 15.769582693063970,  3.827230738577464
 5.017948628834000,  5.760896171955403,  5.104011641410390,  3.865724983860422
 9.411700901908418,  7.978309898844492,  9.727773562814177,  4.138936556305489
15.297535135784718,  5.559909431522408, 66.242078978865720,  4.264979818599074
18.924809773230240,  3.440732817482000, 59.929213474536574,  4.010577580853160
15.562339323364194,  4.123561772829470, 105.288181900000211,  3.946565469546607
12.236333886208792,  6.032515273900187, 62.936652895838542,  3.841265293528552
14.044030908501799, 10.845379025991672, 32.335525234120304,  3.924403609974664
12.069466588846570,  5.297109974003345, 24.249843162841447,  3.667334336352797
 5.962465749773898,  3.478542272986533, 19.463533639282044,  4.285125126572971
12.154457404039515,  0.930349571545285, 57.877139856482643,  4.066250375003995
10.859565832039625, 14.533750227453655, 64.751912778707933,  3.797537655350211
 3.998790723171481,  0.909203853524225, 49.161944895430572,  3.781253412749952
 9.033517260319135, 11.613474894708904, 98.385010035943154,  3.893763976204047
 2.343789818016988, 14.584860586947560, 48.482362043819123,  4.028167855463853
13.446534355931119,  9.944141272631457, 51.707761243385754,  3.810007565603732
 9.981290642136535, 17.736727286827321, 94.059766885067134,  4.052583942330952
15.711060514856554, 14.756153544261233, 104.089057935288366,  3.922449925881093
 5.011869196636621,  1.578472877996861, 78.590140066669633,  4.165457089837831
 2.926233463522602,  9.339368327081077, 15.169677038137275,  3.872471621807148
 6.945278699789490,  4.455340914515740, 61.380847657704948,  3.841656980222777
10.919503287513921, 10.593798234641850, 65.576179331167083,  3.993312838679584
 6.289410350422321,  9.706824014291783, 17.096087570078350,  3.820255782727340
 7.895832703997093, 10.811573783808539, 117.271161111061204,  3.931623499487643
14.103078355221504,  0.465949830567851, 74.287932471474207,  3.767462687625939
 1.894500744063614,  6.287755731834203, 71.258813586722283,  3.878169019229504
 1.753419706793878,  6.559751316177534, 102.853241641458922,  4.237703085656589
 1.257751516875542,  3.398177060957093, 55.315436940811445,  4.264681465376420
12.676383237514353, 16.249922610484774, 117.316264562443152,  3.934081307806558
 7.910545455162180, 14.914736728857493, 34.518026350074628,  4.050156433188975
 2.986184239512626, 15.861837137155950, 95.965322249036035,  3.911177442898038
11.130696992961015,  4.338908395209389, 30.846060696586040,  3.980087706653502
12.479747386583870,  2.460786715546433, 66.756910620977493,  4.150256598270627
17.123885157553069,  0.431184667352675,  2.068330330999326,  4.103816940586400
13.485941182630770, 10.025796372671069, 114.244864548628641,  4.133147041111385
17.536019484766481,  9.068343521337246, 16.514379638451565,  4.590078826933939
13.143553623357709,  9.580763690223137, 77.492020786810457,  3.935763137588544
 0.055074412573160, 12.402800523420918, 110.339956586276458,  3.980526871650113
 6.430401403154372,  5.543630058113220, 81.770351002266707,  3.849278132865143
17.908669084881854,  2.333446914994326,  7.858351062547580,  3.539376751968335
13.052489517140204, 16.019367324036516, 58.485593277105764,  4.022847458428757
15.777178198029887,  7.223147253378772, 75.719590698676086,  3.937839654343118
14.757846266948304,  6.197573101240264, 117.390917123517227,  3.878411093882981
17.815637262819994,  3.578902438842225, 44.918244771734166,  4.121609294935873
 9.077135558571204, 12.784663438121139, 12.789489135678092,  3.986074754807665
 5.286338272203237, 11.648815084772375, 20.411903946068914,  3.991780176611809
14.626799093303582,  4.401060781850144, 37.752768899787888,  4.053698858453769
 8.151591979713654, 14.944841558324226,  2.200229718039048,  4.106150220800907
 5.167177720484076,  8.473539571533857, 98.850016769246864,  4.385417279092591
 7.781586014384560, 13.303454787641057, 23.828201283626221,  4.257379271049975
13.487359916295945, 13.312499736365213, 81.436861004975285,  3.863197625152952
 3.731310628509870,  9.505204063519665, 33.614391178322435,  3.988329637089350
17.515866748162928, 16.776507997122447, 40.059635469890303,  3.940534802444327
 3.715592430311775,  3.505994710647600, 68.989812078428145,  4.127643609024188
 9.788407103423307, 13.168905414476598,  5.983605824846451,  4.517101521585714
 8.998179598329500,  5.489702141641196,  5.383393670286642,  4.074090753337195
 3.627640723210417,  9.294631753157308, 73.208233672360905,  4.079703923776441
 8.115189850288962,  3.969558996706392, 42.415011375439676,  4.443862391393716
 0.730692112634412,  0.807272825323069, 99.700201193583823,  3.979147977869296
 7.717832078264392,  3.182921449970717,  2.208729280621413,  4.086673519419109
 4.019301820566803, 10.423757593734218, 82.209410106358447,  4.170780514219432
11.072539900931774,  2.530221895653795, 108.406642537008139,  3.784845344981321
 8.908368187457013, 17.634906100140586, 39.494886044703314,  3.755059784558772
11.796006954320596,  3.265432626990188,  2.038587233321611,  4.056203823287416
 9.486621603797333,  1.415101063211622,  5.452676844920604,  4.038874405706314
11.054891716809589, 10.215515870036457, 95.235861842878748,  3.976432018847903
 7.156526810335668,  5.158172554265559, 38.395130546501825,  4.078892635888335
 4.427074772705331,  7.013682677204417, 113.696821595600866,  4.130247852567526
15.108498357401373,  3.797208962331590, 10.179009525002021,  3.966057922368925
10.213156221776437, 16.739568999243637, 113.687335690925821,  4.189776542996507
 1.467339516580541,  3.348056150176247, 76.295362892929532,  3.976358343468939
18.458545067436077,  6.834078643563142, 78.851606128811170,  3.990992960738292
16.708276242703406,  4.427712737617813, 16.981802372091071,  4.167086361580071
 3.041102823522623,  7.489347239734150,  1.887743261490053,  3.735330508583161
16.168726219028457, 16.061811987969048, 68.782401101041316,  3.846656982658991
 9.749006619130537,  6.738191701183808, 15.704202178380902,  3.811381047659704
 2.428830977654594, 16.613853523994344, 87.124663740997576,  4.162994813502186
 6.400485588597435, 15.049052733622775, 113.933258007355732,  4.155808047447239
10.923945629890747,  3.002641766137343, 71.442726221586184,  3.799499919915313
15.894346320928243, 17.792725954880559,  7.457198898565301,  3.825173303433906
17.037254494275768,  7.305726542309016, 109.740469402829973,  4.049299254508338
 3.381038870521366, 16.763535931485819, 105.977354943384256,  4.019991870811018
14.392548703692531,  6.152718380231017, 79.164762819091806,  3.742867319072532
17.528749405298289, 18.710941429325878, 43.666927877476382,  4.160362005590414
10.306551187818165,  5.697228682524227, 101.480836856470177,  4.204263410409265
 4.719228487156402,  1.412015408441764, 35.209526425970886,  3.879723428749953
 6.883943322152327,  7.096135381501784,  1.964768134561233,  3.901545035656144
 8.669386463718681,  0.237380141883547, 97.606627897307618,  3.933970625961813
12.872357118040650, 16.870007158714436, 13.942561538266366,  4.027610337323473
11.024674507433438, 11.730321194438439, 74.616647387695110,  3.867580377989471
 2.096494530496237, 12.912621658190943, 85.561355845350249,  3.886102635997961
 8.730081031452194, 14.110886623298439, 72.547887037274322,  3.920376356490180
10.916550643631624, 16.123281342471678, 69.332552928276698,  3.501977509786014
10.492344211338978, 15.226857247065315, 42.212007982504304,  4.067773472337894
 1.210966877944688, 14.227261477493007, 20.683737350462643,  4.179728194994456
 1.253868045823710,  7.350313877250141, 36.307596027029049,  4.310974181875779
 3.531578199558941, 10.498925980692572, 56.747455522493517,  4.391257131800764
14.359403496794460, 14.143199927619102, 39.233043065534893,  4.155667076724561
 4.553898074263397,  9.728796638939603, 102.876629011502075,  4.063954059221714
14.252673354991741,  1.965687351763560, 44.026917489198041,  3.844720679957010
14.267115409891824, 13.565554900938102, 34.974344956611894,  3.608282651804029
16.689470233315760, 12.292152100361632, 106.842177633567516,  3.649699677013281
 7.464073516955752, 12.435660566098353, 110.756704187825207,  4.027325050104477
 3.181143847586110,  4.252098262607349, 38.386076751348789,  4.065613125021654
 8.790273248172568, 11.542817883895477, 41.869728162017047,  3.993097638076537
 0.987824039930279,  6.858487067767388, 28.270163973145110,  4.077355161467637
 5.667722942098672, 11.801367414904833, 92.216716385833820,  3.762937418938523
 3.079079253199662,  6.897362848458012, 18.201472980109937,  3.890135909970597
10.107224318063411, 18.124187219063366, 60.919997734778931,  4.125506742858664
10.416396526223156, 11.534115323699643,  2.055848034552657,  3.969772270318459
 6.250694977216309, 14.269509160729534, 48.164087909276709,  3.826947665110890
 7.922041611296060,  8.247868197605912, 56.021477648026661,  3.865577955017435
 7.750227872485119,  4.723845832870048, 107.555684987533425,  4.251973041086774
 5.165368879309846, 18.375655596062774, 56.258296851535277,  3.875371459334558
 7.194336586303093, 18.583061494787689, 75.552830956413246,  4.243676061578513
15.936489115947953,  2.325276838038954, 24.769594222768983,  4.281308916259542
14.656540514454694,  8.273207115164311, 55.282691815203108,  3.630141247119554
13.038544154864260,  0.993222703479548, 63.047059897250243,  3.826390681818774
 1.911939063029372,  9.839498773773304, 60.692660932881559,  4.212973550070952
12.006993716893685,  6.871504854163708, 27.867278576435034,  4.014266904299156
 2.747035353283054,  9.814978839843015, 47.710570338300698,  3.882112119463180
 5.894001162494760, 13.083997194167878, 37.621467024916804,  4.181712438760353
13.107501959356702, 13.119169134347725, 12.400562928100868,  3.919317190078605
 0.949999160788283,  5.787964502070555, 14.862607457122287,  4.110463411802018
 1.452770736420826, 16.835708765520110, 56.165796872146601,  4.064392022014894
15.549997694118188,  1.362788729864887, 40.313073152291658,  4.049158896005744
15.365466264056673, 10.983561668724375, 110.347877167668514,  4.083105744118887
 3.386850351284071,  5.384211606572322, 96.332106202895829,  4.094958588930712
 2.650137812508064,  9.552005661871505, 87.924143260382849,  4.200091590820519
17.889289192109604, 18.451833853759741, 53.525285531691054,  3.955467642859130
18.565050489093704, 15.862568686339559, 17.479833698642299,  3.782279823176041
12.965331019501955, 14.499090443302846, 31.534750962867466,  3.761967195934301
11.206670524338270, 14.846931703701806, 89.210080047212401,  3.782515502248622
 1.752446842241153, 10.583605633451098, 18.797780922374553,  3.995913180461120
19.086775407739793,  9.035857762383507, 12.491455900684119,  4.015101111161060
 3.817221111510596,  9.085721545280277, 117.303223940931190,  3.984073051769545
12.197061470755711, 15.156493317527875,  1.983407797779327,  3.932690591304892
15.341364707216995, 15.446182272965096, 95.995438975905728,  3.990951143764848
11.382240600254434, 14.324579022499650, 16.725048420450459,  3.985541160259718
18.843245725120315, 11.746391586179239, 49.875491011717109,  3.961667247431474
 3.143640799339088, 13.408865659740483, 103.454889836374576,  3.858612579653052
10.742506007021566, 15.517502579651399, 48.743690818716246,  4.201300367054744
 7.658154873113113, 11.876020698324037, 63.392635729080041,  4.064553217052262
 5.246096338422722, 13.412612124830757, 31.680079227892815,  4.281991542672769
 2.316099213184136,  1.394081790125791, 62.755228497918864,  4.519788824513222
 0.441012239575032, 16.984644581646556, 35.445466537411683,  3.967003402851642
 6.448558046648984, 12.417413463702708, 78.961431864496177,  4.176575258728890
 4.560815889531111, 14.688863105323795, 57.027841350764376,  3.650354630249455
11.252562924230867,  9.246023823020360, 104.391885484298157,  3.861586889827219
 1.813922220711422,  0.086445117281716,  8.319911409610226,  3.894212284103368
10.573878607450474,  1.021743271238326, 33.029373343956927,  4.031616075157824
 9.001113963290800, 12.904914965108743, 45.609338627654907,  3.883182562965609
 3.704604210043878, 14.770782402584736, 17.441843542294897,  4.028474965826685
 3.637906871328528,  5.735879234202872, 78.872310565334956,  4.111223960750657
 3.449969770536379, 10.435484676098833, 110.377122691608250,  3.774652760255582
17.001057547029824, 12.277589585543641,  2.121577707884497,  3.829468650175507
11.999906239143932, 12.645677607200327, 24.213577957273181,  4.271698531599911
 8.833064128513213, 16.552053169907502, 14.262089470216852,  3.949163292031070
 0.659591686734471,  0.219095693875855, 78.429783450314119,  3.713338495094311
 9.423846396149596,  8.488936137282083, 50.952987623121373,  4.020060646539621
16.661758749946380, 15.296643616142505, 60.589888450110251,  3.907249874454792
14.107603782111505,  9.290490980859479, 67.567154127790147,  3.811969258804068
 0.401582079663359,  3.206798656587692, 84.820595285216569,  4.206214962345440
18.140682229682604, 18.934575597916826, 87.675904118535271,  4.113993741356559
 4.731392153131201, 14.921172372886460, 83.237010728789144,  4.193274373164948
13.600036530552231,  4.512959362112799, 20.692755262708832,  3.856635173782358
 5.411270349824288,  6.841195762629257, 28.208620941154653,  4.146989218309741
 5.468153835057180, 16.447110453798864, 102.604062302874922,  3.906104869774157
 6.962953638312052, 18.866775575680915, 42.762566380917278,  4.221735208530442
 1.088780411268221,  0.624607684769934, 66.983408744384377,  4.364971988680521
17.077518600900675,  9.361685576990087, 30.041999210175295,  4.148431883371184
 8.842496700618229,  6.299825570707265, 88.385452334935849,  4.088656121797254
13.253102519309165, 17.416997342188640, 66.306454344644209,  4.267497669822844
11.467612828106414,  5.362239136759316, 105.564766227925475,  4.247945187091016
 2.932595421353614,  5.974517596024523, 62.354735755489159,  4.223567019190936
 8.017165819485715,  3.311011957477094, 35.035507151101768,  3.648694911970468
 0.526403160291890,  9.635615190416852, 84.263843249790469,  3.759635795163178
 4.103379610048900,  6.182420321814313, 12.072225687931951,  4.225746095742804
 6.080950270186733, 18.025913741282185, 28.820928288327337,  3.780501905494682
18.647151244604089, 13.157845988328118, 28.642384793671241,  4.346854377531840
15.204105900642906, 14.550629669458850, 25.655281479970284,  3.710283005949881
 3.588485884721730, 13.439558090636844, 63.792545416079321,  4.067073617463824
18.393634458203966, 16.676422486929010, 97.975132845030046,  3.658208252927143
17.973008963980782,  0.484335716023877, 75.028722756358761,  3.945366160931965
 3.176369172932481, 17.533932966787940, 113.722248975604487,  3.962761977861143
 7.740158618609640,  9.366478652509834,  5.684800556753298,  4.073051529967503
 5.178692429268194, 16.500256715264225, 39.833851381807655,  4.051499456095894
 6.150539125762800, 12.251390721271649, 74.890834806486282,  3.807257054128517
 3.633323541016422,  3.602084970520047,  2.080321509360634,  3.933205512861054
11.053232893284768,  8.143223095429423, 117.184219201487252,  4.331739757775152
 4.608693552556319, 13.265667229092081, 117.287230676513104,  4.135273638968738
 5.474222480536578,  4.282393792196874, 89.164035920974698,  3.787946558563802
 6.482377902727779, 17.946047363052948, 17.532474129951499,  4.406265956252253
10.857936578029921, 18.479759888963677, 17.458966735461615,  4.404441261937745
 7.986921366806284,  4.657344725851537, 23.140724859773300,  4.371227195858177
 9.278952261064507,  7.494689368374892, 97.920926514202648,  3.987467428413938
14.979555533955459,  8.979894722437425, 59.206411172411492,  3.851933456051455
17.187391963848977,  9.679397402847986, 34.684196978533180,  4.188178009294449
 8.781519606983100,  8.535358229507306, 113.471620746458640,  4.405786145993772
 2.457276136992636,  6.395916340053613, 82.881261294172091,  4.268872968735212
 7.855865708769143,  1.789175677023820, 110.496500955054842,  3.986463299009106
11.213064128340008, 11.399914097581627, 48.714044963195185,  4.066325028497597
 6.683296011177366, 13.762116037248878, 95.780461447947090,  4.323251919818235
18.254652476337071,  3.069605658044478, 51.756791268289618,  3.988594540915470
15.331589214611760,  4.215049660000312, 86.146938251062991,  4.265184518530586
 0.513653396240671,  9.579385861501725, 107.347893404244601,  4.259809348800519
 4.236048621180710, 13.123234173970587, 53.702799123173513,  3.717460934414335
18.881231246176146,  5.734307132979282, 94.064563425687282,  4.143853890411254
10.247036857275040,  2.306382203466835, 37.950209185282226,  3.814914752842858
15.378317688316411,  9.759982856362278, 80.942081209595614,  4.233118038494887
 0.544817820590566, 15.453602916892502, 44.963774899162715,  4.015036036662664
 3.524244302410524, 14.848062222166545, 27.783135474872537,  4.446011174936586
 0.635967167795331, 18.316464225125472, 83.902781630359755,  3.935250383578728
17.372372276171181,  5.990936482288795,  7.878848243232859,  3.809325374011359
 6.799403387619130,  0.162747164098403, 52.652333729817911,  3.732820736436401
 7.395434622002726, 16.916032513033500, 110.472740306877341,  3.950968807474235
 9.076599339742053, 12.746869968708570, 68.654474900246740,  4.303842079858216
15.840447734368331, 11.757782355600067, 22.925373513183246,  4.002769734818579
 5.483863212155749,  3.643204048228876, 85.276837606624483,  4.080895217865409
12.696276634521167, 17.987018034332927, 98.106702914774743,  4.086004343334774
11.755361686057611,  9.780323755731706, 61.463855816706143,  4.101384646731754
 1.857657890523627,  6.564248908271059, 58.167028814323238,  4.024856985971319
 6.703544749165164,  9.573021075198364, 30.935379256695263,  3.974629005392084
11.953358102576448,  1.543411529876136, 23.274178446862241,  3.983639699076149
11.673775918214856,  9.228572680246739,  6.425624108556915,  3.929992799372195
11.131209889669353,  6.553768515877715, 38.179807319756414,  4.176522889826487
 5.551598221155052, 13.390234109272026,  5.582310173877946,  3.987457792910196
16.932156098538762, 11.875599746667961, 66.572727301905260,  4.066730511678436
12.477375146185839,  2.780430535705140, 27.257802155284622,  4.215077369391829
 3.998603167710471, 12.736029880142704, 45.215678357557742,  4.166042862502494
12.488284794095724, 18.882775114274505, 81.103362851296382,  3.903287993278509
 9.523747890539179, 18.812614942733923, 117.250492348896827,  4.104657182512775
 0.986768582379319,  9.366720466200816, 113.445880652676436,  4.096758406166172
 6.539903430335332, 10.787371379289970, 27.074824367808013,  4.103413195221362
10.056140306558497, 13.956621003759039, 38.175529464355087,  4.384871438459339
 4.395848352060716, 15.266288254903886, 76.749608819483541,  3.648327754536877
11.673445109016834,  4.393879445214663, 34.809637351466769,  3.834813152914895
16.455643877151552,  7.023925651171906, 97.209502836395956,  4.127023489157081
15.809042755257350,  3.195860347658017,  4.785689050493985,  4.031447659414251
 4.577053769252220, 11.333290191328718, 106.651432919031635,  4.092055479699856
 6.074036650886447, 17.601698725188328, 32.481361096447372,  3.572501746771827
 1.723672893053749, 11.242170173317957, 100.334058642645076,  3.875704824830773
12.812308800692779,  1.120123026739598, 84.799690807897434,  3.978807143550859
15.325346432347084,  9.949608024579550, 12.553824602619263,  3.638895197463778
 4.810082521468548, 11.141476097316765, 41.128413234062165,  4.094150868288161
 4.320427648039959, 11.916535498596811, 50.300713589909734,  3.488621881769467
15.341393957942746,  3.924751158819115, 61.576208669965546,  3.832183021981166
12.794771467236266, 12.037431946974671, 20.009132882337369,  4.347027624014905
 2.933895480386654, 18.666359394024585, 75.186635170189660,  4.299906321577699
15.687211684732898, 16.850141593576353, 36.370186000780301,  3.933947389843494
12.891387222761129,  5.527247214092015,  6.143551903739274,  3.835342391905674
 2.349512627105273, 18.406429236388956, 16.313620118451425,  3.997629037136815
12.632542223277650,  9.136212532927001, 99.606585982703663,  4.090882035807946
15.483541285285483, 16.628278097342712, 82.833293702436492,  4.161396978321985
 7.554902255034610,  1.371388603180272, 58.856772683633778,  3.690019760313133
 3.566562194845071,  0.116961420425613, 20.421184904356878,  4.161932546739048
 8.820940950104136,  2.711330767570899, 90.186339599534122,  3.870291605804761
 6.205366097881266,  0.532459210750760, 106.730473667400915,  4.092795054104449
17.735309651309283,  4.364616621482200, 73.180886374121471,  4.596121709131617
 0.910157939674457,  7.368381414645818, 40.484276899692048,  4.059829236358944
 0.508316421607475, 10.717685050252831, 22.527897321069688,  3.766786839359440
13.649905864683173,  0.313935066325270, 11.087936857070009,  3.739408023011465
 4.887060911921905, 15.619957593547953, 72.888332793784755,  3.837882129021146
 9.885468040436571, 17.971862795680959, 107.435575458062985,  4.072248772680166
13.226389516216045,  7.620444963459351, 110.988303000013715,  3.931660190334917
13.757298512976526, 18.331563549430960, 26.026332190071379,  3.576542439595138
 6.110619067684554,  5.860065659791663, 102.126897928472061,  4.141223517869883
 9.385385940291632,  3.922396753351823, 64.495030495142913,  3.824406572758020
14.043674322283177, 12.586999467550687, 60.009024127346116,  3.692288827966791
 1.111301816148144,  1.002244317504404, 107.160447342887579,  4.301290966534947
17.894282327560479, 13.856397447011068, 100.762756719763914,  3.874011420339716
12.640042836920436,  6.681640932459010, 96.028086269277168,  3.873843512756266
13.667532727748902,  7.329124858470506, 16.135583544940062,  3.863507768872495
10.979292168669023,  7.412266707271742,  2.230802937520453,  4.247095014719699
 5.997090364826835,  7.520984586412988, 66.740408655298140,  4.051170111195134
10.719362532240858, 15.581132346819077, 80.004808429165323,  3.791962332670233
16.105651913212888,  2.988900778688254, 113.482544868402556,  4.226750917007677
 4.907463944686131, 16.720048714290979, 13.732852304965217,  3.969281363757008
19.075867371227940, 16.600043288186058, 13.686695911298116,  3.912760797650798
 6.298088766073508, 11.152781429280724,  2.189928848291494,  4.258844621053758
 4.260374295072059,  2.568044346294817, 41.867035747050593,  3.755178489378516
 6.632049308847138,  0.517677902073807, 87.772969483986500,  3.914808987513087
 2.616532421774553, 16.362002435001010, 32.335386452502050,  3.711119624955144
 5.882725651162238,  5.402584806582205, 57.772421145536242,  3.898786205591757
18.756880753672206,  0.072093273069166, 114.654008482004002,  3.772941116782310
18.547888144464096,  4.369205651518831, 63.930398037650498,  4.042993210771944
