BANDS
8 8
NANOPARTICLES
cell(1), 19.131
cell(2), 19.131
cell(3), 119.568
 1.521891632872840,  4.452147480867945, 74.860390157018188,  3.868899934733309
13.697942678226539,  6.339653001089210, 10.444721847759713,  4.059363697919250
 6.114098305417883,  5.239388496821439, 91.147203372759108,  4.426371422873068
14.680628996271100,  1.393374206060010, 50.874316208594784,  3.697083085952086
 9.452262763153033,  5.669374344139746, 46.772076277673676,  4.209393926789115
14.807851012295728,  8.990784683226739, 102.508645064650437,  3.997461308321704
 4.998578663384423,  1.848110536782160, 75.400852058678183,  4.110555901085694
16.661216521297682, 17.571133630096234, 58.638206345749957,  3.922804112250584
 0.638008230831040,  7.610008520202011, 109.759458683989322,  4.106208882781978
15.453080202090073, 12.664766204753061, 54.552478935931610,  3.776231129562028
15.399362854462378,  3.890147611902060, 38.051798002412809,  4.287833024595272
14.836584607369206,  0.519810242827126, 114.492670873928617,  4.085783192778380
 2.239170848577101,  9.332102120330992, 40.291274282288796,  4.079343225041097
 5.428743187199859, 10.706890533501525, 95.844108694081555,  3.708150649012761
15.111560962258494,  2.655384981346235, 42.067671758776612,  4.113994033851490
18.499823318113776,  0.316019457375608, 51.638202044023544,  3.943257048552681
 2.958168826213765,  3.402905418125157, 20.617356307989567,  3.909127922122480
 7.205201124136700, 18.370050162833301,  9.018058079419065,  4.093317950258436
18.533886206290820, 17.166019797320178, 92.883661154521818,  4.330459788563386
10.608132600570958,  6.134769176042285, 117.458559741273447,  4.164627151389487
17.249118395484537,  0.486253375159781, 79.199050622395887,  3.804475957182228
 9.367955014284119, 17.631037357284093, 59.780610173581735,  3.742927870416035
 3.529835129392387,  8.169056836580918,  9.079746304773760,  3.725764961363360
 2.578614203911278, 10.395226695422625, 26.207207899680689,  3.887594051865213
 1.472495065738032, 16.190520917216041, 71.625554065075619,  3.833574466548118
 9.339550034276270, 14.870133627858838,  9.604864563591031,  3.962896145541487
 0.537022418795357, 16.559471494831172, 28.949813598439501,  4.102144143043047
14.256451699004534,  6.676487833865645, 52.328922501628298,  3.874742976907178
 9.788421697562585,  8.181685560398023, 28.531177576050197,  4.127669456658578
 4.882902999173598,  4.302406960937187, 31.368302752636190,  4.152296523778586
12.731389623536177, 13.740263459432098, 117.521484844309896,  4.080387867713092
 8.654351640773580, 14.201286794698202, 21.225445456191007,  3.910513376640359
 4.713450687527859,  0.840250896375266, 17.550122233121453,  3.989616541118911
 5.732941332806622, 12.677557205697029, 23.692948477644794,  4.144918680823038
 8.806172286530453,  8.633319689415609, 90.036480208048602,  4.236827433948044
 6.669298215895980,  4.923055629252440, 18.115265976793999,  3.995544912998654
 9.844950554732767,  2.455067110035209, 40.864300000269104,  4.129281339051100
 4.901020801262408, 17.820668243886402, 72.853510458312314,  3.854772428528324
11.876649937445480,  2.972525753843431, 100.544085775544431,  4.331545482507732
 5.002869641427189, 14.513486956004225, 70.506644746941348,  4.141225458155280
 4.500812784757158,  0.574045518172912, 65.615873938169187,  3.653683620763588
13.709605058062920, 13.263021483237809, 28.340203727175659,  3.635862299636111
18.447070479059526,  3.114649069987393,  5.022233133759537,  4.067288226547442
14.189230404754429,  9.366655761877874, 33.736058896948258,  3.703583417255563
18.313549196827815,  5.140941095254619, 95.060018905335454,  3.926876966919926
11.731664498759864, 11.969597837449353, 35.491071799110664,  4.179978312886402
11.549135340772891,  0.846062054044053, 26.080097349472105,  4.148372477249486
 0.872410442885603,  4.422913267735341, 60.325526748366485,  3.646303988384013
18.889821611670207,  6.738275817679108,  2.138305718387079,  4.215480920179319
13.204582632775312, 15.563634243346408, 41.442916411627657,  3.912805913066321
 2.671673944555349,  0.106228604350822, 24.170046662950163,  4.071083229422345
17.403225241663023,  0.614876876872806, 44.739812250088413,  3.768026308289703
 6.738984598507328,  5.602297753950686, 109.962304310553748,  4.096334800140635
 0.790229648763131, 11.869475230029222, 60.795897238296689,  4.016412531530981
12.757680820710714, 17.535099292860370, 110.248183854383811,  3.764163807634964
 8.782290489237139, 15.574005457014925, 117.325117916094527,  4.439609715584132
 2.651825812532829, 17.163411876168990, 57.930899138422845,  3.927412549420425
15.702088130368979,  8.576533845317694, 113.370526980145456,  4.446403534702412
 5.924960695379760, 16.462910500861277, 12.560888781625801,  4.052636093340119
15.972052695435083, 11.831001330809430, 83.911361057298080,  4.200018090843016
 9.340047981148349,  1.516617135328493, 97.496912365965116,  3.926856387882055
16.136113653024729, 11.198176308377697, 26.467782377178111,  3.605358991097009
16.827408660052175, 11.589131382769029, 35.641285512942801,  4.075965903128468
 9.198348857818207, 13.991024613627966, 48.261223763153872,  4.080226506399063
16.564422879166138, 17.361946425587746, 62.449835291870279,  3.711149902763142
 1.073834644467823, 14.705392018288149,  2.024825621719235,  4.042831331627710
13.787203877783647,  1.140706078945024, 46.927830602111456,  4.383361038125869
 4.415566411957668,  9.081384775536042, 92.372677573954817,  4.137473028961308
15.332021863860266, 16.111372666012642, 112.715829684827682,  3.894429725328575
 0.640652631096743,  2.805234805916232, 114.191571579301666,  3.759405468067928
 2.535533649294861,  1.876030457625635, 58.240389757252863,  3.727904848456553
 2.704230119957382,  4.394844662145340, 40.687270583296240,  3.987731711236004
10.498289832038010, 10.145794535430284, 100.683765816793553,  3.810879696174174
15.628031984016321, 16.061704886819271, 52.573945492462954,  3.950691685044743
 1.169939574542973, 17.237640679976110, 47.153464256539415,  4.077831899261305
 8.034223814879230, 14.130815078376122, 60.581868404245441,  3.881419607920261
16.377679181770091,  0.450062822083057, 14.628730954797300,  4.077100148585489
 2.398113451926079,  3.308591458210392,  2.162876720030085,  4.300484166981114
 0.925687137755931,  1.687177159305572, 94.127259894654870,  3.943453062287057
16.135716454423651, 13.399041895115682, 61.788166510354856,  4.354515137698986
15.292286367856320,  3.558149035889741, 102.754870858175764,  3.886839869796065
 4.896434369559925,  2.812781838104009,  8.856997897813978,  4.010407647782606
18.065660285990798,  0.031143716389005, 26.065843087878367,  4.289493020628059
 0.335321183434455,  6.696241833905879, 113.794792372483712,  3.988485869336988
 8.477381525528140,  3.237641787876796, 14.766483465594265,  4.306866402276436
14.991499445913284,  8.615706372446764, 68.767845870393487,  3.957821687637899
 6.000931858625536,  7.084559972163173, 106.261695413937844,  3.926233422126455
 7.744401331516498, 16.812288658761112, 102.025677275506098,  3.917610455019204
 7.570976697031044,  8.388193232465865, 53.034502551614644,  3.944582796843491
10.084935518079435, 13.554814542189058, 39.347210848494456,  4.289204281478010
16.934881953766347, 12.839820085905338, 50.621644676413119,  4.017468068732957
 0.202840242703685, 10.639163237593271, 113.558736336591096,  3.898585595080136
13.593536046771909,  7.548338799440438, 20.193326948835935,  4.040387456982248
 5.688829020955523,  7.173000467851228, 40.935461656969004,  4.097481680677123
 2.031159935965960, 16.779196346450913, 18.007234641665150,  3.919334968919935
12.414373537589247,  5.925997507625349, 113.719878127727938,  3.896242864707389
 4.456857770994120,  9.050544827752757,  5.626464392516413,  3.574915564932266
10.152420431051535,  7.011276361632341, 106.704554589376258,  4.081336034905472
 8.709159567838192,  4.339942018210976, 29.735250864155017,  4.067028661437842
10.748914679273136,  2.910544087873358, 65.046084565020124,  4.274873472195914
15.736295073016290, 12.900511717845038, 17.974533086985808,  4.346882839746287
16.046945317390154,  7.696122078500761, 42.754017240947867,  4.462260211589852
 4.810405822212379, 12.347772963034835, 39.096206650648213,  4.165039094282341
 5.274948489174443,  6.123344582595930, 114.497313893960822,  3.835992296293502
 8.232391608112472, 10.246414179609351, 104.767585110880177,  4.302552068506700
11.288720364955118,  0.484923064513448, 76.842080216506702,  3.806576538503590
 7.181795337700223,  7.299555052266967, 95.631456016565338,  3.945105064509117
 8.944485055759690,  3.271226425670728,  9.584120586001827,  4.248935620799132
10.581176620070842,  6.855573146268460, 93.419291958083932,  4.156414846932232
 1.911123215740763,  7.922894964631452, 105.636488330626264,  4.509579742930263
16.674610015627540,  5.888986824533704, 61.420491782938839,  3.806114388443967
17.966936573740469, 10.991706688970993, 65.838496423847175,  4.041005365022843
14.186653448840753, 16.771386082284113, 16.815073298464078,  4.087076708284030
11.566183547292200,  7.793742351396878, 57.800519467385477,  4.148672166316655
18.997969354869344, 16.363895740451163, 23.173669971992783,  3.902997999657705
 0.294455178131750, 15.901556517657465, 50.910225979818932,  3.483786047493302
 5.591141641681262, 16.570856832025829, 91.143851713998359,  4.147795410626573
14.122980820577876,  3.186845716780084, 76.845200423982661,  3.970804884043914
 6.724850015694369,  4.167870025032845, 117.570070618629217,  3.991161098210578
15.920517020804706, 15.898866019035365, 85.057421965291169,  4.139008243847642
15.646301302576346,  3.951982899071208, 97.842638463770342,  4.113966134632732
 1.609386403760429,  0.899006362804456, 73.191085809797471,  3.690901124747715
10.299264240655260,  9.145632844749061, 72.124624134613086,  4.246944189340256
 6.861080138087601, 16.923353772926440, 46.403259192854307,  4.052640991026603
14.223835116188551, 16.053598943375338, 98.764505858268379,  3.914531531925520
12.944300387266454,  2.673641844976842, 73.133301927171146,  3.873574755530105
 3.488526773500892, 14.803848283666628, 53.159358906378536,  3.886977493002643
12.705044987407693, 13.358188555942975, 110.688170369152033,  3.605272774971862
 8.085655104617789, 10.330144282876430, 37.498366073050903,  4.030905879826827
17.298924458601441,  2.125870288263037, 74.665343097666209,  3.907568337649956
 0.042462355538570, 16.318930694708090, 54.798590673775792,  4.271273368847717
14.098852244159772, 18.570256145605715, 67.986796776817130,  4.128200393500861
12.943135741227453, 15.828766432067324, 89.108144914244647,  4.037183965690015
 5.583517158237543, 15.039559082749404, 86.999560228609454,  4.424441904663513
 1.865442905798177, 14.970672333375934, 89.911911788304849,  4.310728953769829
 4.044133082984096, 14.329707652025181, 60.501635066150527,  4.070438158971045
 5.875153920976704,  1.259422913495705, 12.316313117668646,  3.801411511694115
19.006241072213566, 10.018603182049784, 56.309475366612752,  4.188950323253898
16.309668952123552,  0.261826534648000, 110.478549322045524,  4.218005603760945
 1.685266429325124,  2.608899478246808, 67.180262787719968,  3.785980558027764
 3.296757505447033, 13.273146998317294, 113.887315889180329,  4.172883027003159
 4.177770209471473,  1.132637408069628, 92.028433390768910,  3.875408320191298
 2.404187642440583,  8.142961465254615, 59.420155144682845,  4.549831063422825
17.350836043745069,  2.227717361082159, 106.887952472521249,  4.141918937819404
15.125384540090181,  8.140627274716527, 37.508363233765039,  4.202064863839779
 7.434994053122002,  4.082981484618299, 21.871094507979109,  3.831748254552755
16.044851399428730, 16.014732381920101, 117.565834705503221,  3.932742193193886
 0.635291894962562,  2.598020093892462, 54.888121694763420,  3.830609328700131
18.819845414011638,  3.551136089280618, 63.909225591588545,  4.064046392201003
17.370150511870364, 13.378197528746730, 71.903770215703219,  3.941331386197012
 1.312231869254075,  0.602193860823779, 104.315337104423264,  3.918862835122848
11.743155043394177, 16.587131419614533,  5.414392265733646,  3.864466251980153
 5.391584413627043,  1.206056299665698, 97.735999726034493,  3.902509098803063
 2.384424069959666, 10.244590254470872, 75.511594595398577,  3.701097270607739
10.309399464523249, 11.940677997051283, 64.087581008586326,  4.069403986828044
 4.812243643781662, 10.851546574792634, 33.892853720334678,  4.147290293644840
18.903609617605426, 13.215612012970517,  5.395695683588704,  3.752675030752903
14.194629609207126,  4.436000212027110, 58.497936995534843,  4.308348929519039
11.850366635862009,  8.571412014024935, 43.893552814497980,  4.062171876475633
16.414310099411775, 11.965453365528484, 117.557480302224860,  4.011709688103419
 0.640873926100000, 15.359507371794146,  8.625996793188083,  3.997679766752496
16.473481309329870,  0.300567904445091, 55.003844759267459,  3.895761410035743
14.084691942245254, 17.430466229365592, 92.945215435808493,  4.485511248932638
 6.316983100850322,  1.975259682036652,  1.983211023303010,  3.953273403450894
13.506556335132505, 11.204906634345694, 76.330918823056777,  4.071589551952472
19.082771517596893, 12.528718804254545, 28.593570153583219,  4.069811009554135
11.517606371041024,  1.724652326562911, 60.874516159198286,  4.273560178964972
15.068292459415682, 16.596559735073054, 44.972286215288698,  4.069665645619418
 9.590986614678318, 14.213041372566297, 104.245627947983422,  3.851600563892248
 5.004672981047246,  6.283799148415592, 48.394725296924115,  3.992913552429815
 5.660947672432505,  8.333105521154931, 65.381321828970314,  4.251371928932344
15.887191802170456,  1.329395103499678, 90.351859064567222,  3.682017800228793
 9.069206351972856,  5.958736134406172, 42.659327084416226,  3.869846801583568
18.867199175847553,  9.649308262072033, 69.653369445377947,  4.225109425732151
13.315603302892175, 17.327819698861401, 13.047204514327605,  3.684442958995872
 3.998305009792852,  1.959498947066867, 62.012205324627487,  4.116828973944935
13.052400604852405,  0.255253889109903, 39.042559403138689,  4.394031770571088
 7.835113363213946,  1.364265855757556, 78.259535156468644,  3.705266966060064
 6.773842813255620, 18.011651345439198, 80.849703734836652,  3.775424001284895
16.886110188677797, 16.867111747710894, 89.004893878802562,  4.065087759637509
 6.420007774438938,  3.716424871889456, 38.871831071357022,  3.914790245913938
17.173901151815155, 16.297372749796669, 69.280046762750345,  3.865209846522864
 8.033615767793481, 14.257605678314379, 66.838725511413969,  4.238124322021223
11.312340974709207,  4.040167893570687, 37.224807750026905,  4.049578198124203
 4.405777816622445,  2.376653574614306, 114.424525938970945,  3.826854089327439
 9.309507636198076, 10.633405927009665, 56.298529352754059,  3.680163327458443
 1.852141990954905, 13.882027701588317, 101.020507706579920,  3.918157407690441
 6.734891675122885, 17.059073393075352, 53.327373076926413,  3.995362336502878
 9.126254107899047,  7.320570394261980, 16.043342046060182,  4.002114525703673
12.374526357065864,  8.501619729780749,  5.241942803248477,  4.038513563494072
15.825639995439783, 10.577412001065943, 46.395937236057797,  4.624687891065187
 7.280133431191202,  6.465033974242615, 102.412749258688081,  4.267197912526936
12.952914173753895,  5.352266921523184, 67.471367547530463,  3.891293423673477
13.690108353827684, 10.429856838584392, 80.633425412917546,  4.224813881734332
 6.193100587119334, 11.950431763652279, 63.382187116859527,  4.032490219739880
18.311084938652591, 17.000141207205711, 74.693381129255556,  3.899921707084661
 5.719052555556532, 10.413583266625748, 73.595415615326360,  3.985202824240647
 2.135241715913325, 14.620837971703621, 12.455660844288033,  4.174579582929648
 7.160750383812497, 12.224923171174002, 30.755652776481533,  4.091831423041734
18.710429244841372, 10.634946006044835, 23.681295265002685,  3.862948226450839
 1.584760903558144,  4.208920251670323, 97.975520265317982,  3.825906721118980
 8.846699370480945,  0.437701968332388, 36.981448183128336,  4.583483805406311
17.517867564691855,  2.382511706615859, 48.400759194961758,  3.980819394959119
10.138919638756644, 14.112554148451986, 100.392471398549603,  3.924270402080205
 2.500498260947777,  7.152314456663701, 33.393556890652533,  4.298912660663625
14.221837572406647, 11.678787370092474, 64.931203372633703,  3.767938648977109
 8.763330946165405,  7.219860831734326, 75.392945105534437,  3.923462672477760
14.898280896370466,  9.852427514414281, 23.173563994970348,  3.911501396105520
11.287846719751499, 13.131993190106527, 72.772332287383421,  3.508251844974929
13.484427940155408,  0.911410787524995, 80.067850350183363,  3.961036993201045
 9.753811248772420, 14.245462500193122, 87.168996957259225,  4.035446405508240
10.240810731447983,  1.817051324412752, 52.458643979725728,  4.188106604395567
12.910346111518717,  5.337944933662047, 62.430654414661610,  4.041014529717907
 3.219272511606456,  7.650345647811646, 96.401280242606205,  3.889205802512017
17.523734717186930, 17.868917404984057, 32.540543384964188,  4.005153516384892
 2.259219359933266,  7.009072447314106, 101.007842123827203,  4.522444821172492
 5.466758684807277,  5.116574229440779, 98.767575202804437,  4.153303131613068
12.964639889893654,  9.817090557186264, 117.684333071833166,  3.758801982494860
10.296946645329610, 18.145089133005733, 22.524842495182124,  4.186385458076577
19.074773161087791, 17.786850364334416, 107.818403695973956,  3.986036395778075
 1.422440753427557,  0.619147758343726, 77.050906391577399,  4.042764708207832
 4.534544383323318,  6.893624760492488,  1.985714422081602,  3.844588206278770
 7.173068040897640,  3.640184136896270, 54.589594456353389,  4.053378697918456
10.825899502662947, 16.851377692849677, 79.799312366044305,  4.321820029213572
12.920294109512145,  7.501481665469691, 47.387702333455586,  3.546773660039543
16.943172757126572,  5.371677977164514, 31.252922351754044,  3.960283920469282
 7.301765284988916,  8.819160489511175, 23.543550254967894,  3.850899790287829
 3.032228709328368,  9.812728895275548, 46.687352466578680,  4.236926135199429
 6.640852546201259,  9.063553973566574, 99.200416317948893,  4.018317994938140
 5.036597996607051, 12.563172958966716, 83.330126295663575,  4.225395235161493
10.860084216705131,  6.961591070735538, 86.398057658649080,  4.511495610842027
 8.971376598786993,  3.158562424547356, 74.975757810103133,  4.075959572419339
 4.010790584346165, 14.488642363814327, 35.747834553910614,  3.927536610415015
 2.779569048422347, 14.845662156720447, 107.625478715899035,  4.189604504606606
13.070118789869044, 10.063557386641962, 93.257747807034434,  3.965156163761850
 8.879758195720896,  6.171423117073987, 67.149477960432293,  4.231149341565975
 9.499300022269075, 15.342094039582767, 110.418788112948178,  3.927108925812207
13.775018076428454,  8.618850238115682, 106.455938325297240,  3.644372687993022
 8.560006598490684,  4.964115950945367, 83.313174815763389,  4.014055992243891
13.236755543942767,  6.158633615684662, 71.337901395015649,  3.962661527779581
10.003170907987634,  6.307014711673395, 12.323757788570299,  3.871680872421025
18.109993913609529,  3.981645482164288, 110.648697874059877,  4.044205017477875
 1.108945845771961,  6.647031534855374, 25.451179974624687,  4.214288936827124
11.144107083206482, 12.397845032505915,  6.514856724283098,  4.518494908854897
 4.044018543404506,  4.722740231032677, 104.036139262701155,  3.644606478458194
18.707677641193200,  8.462259477508967, 117.439855194657369,  4.233394788867750
 5.006578433670625, 17.856765228609042, 117.454959534237076,  4.206553359626702
17.403314211896472, 14.897316896740152, 39.253194794648351,  3.984929911074580
13.396194361827815,  6.716368704290670, 99.621543654896229,  3.841921000576454
 2.504151637797664, 11.170421252179331, 64.223059241748359,  3.666279087732911
18.932084227960218,  2.848112623808594, 82.544150918762682,  4.111987882222828
16.299219795191721, 13.500562260105054, 22.162635983210208,  4.099537831799248
 0.000922046132753,  4.465955959105324, 103.811492071425860,  4.183793482956770
16.389104635713295, 13.335108820302660, 103.427889228211825,  4.114832030724574
 6.457250363209758,  8.147231036711485, 31.001923688242492,  4.106716871581528
 1.013877705277850,  5.477214093527137, 49.314642349716017,  4.179738633833954
18.986451585041802, 13.236661355091352, 92.838401444504555,  3.574589154043911
 1.074395134339403, 13.113580020440711, 20.635046768197132,  4.237628881093476
 9.336091750193031,  0.092921316594071, 110.302681251279509,  3.814894416822331
 6.651421635059200, 16.777520552441217, 24.129349210228145,  4.182437109634597
16.798844534073528, 12.357790581310706,  8.494067860283625,  3.726026541930552
 9.017040035616585, 11.214481745681939, 18.682052467743016,  3.965037293642315
 0.192768971732632, 14.585924848974228, 64.378683435048913,  4.176953241946254
 6.545540911872283, 16.008263726253766, 63.549880910126113,  3.650276570193502
13.796092697738858,  9.876789294242753,  8.665159950682842,  3.848185247569814
15.190900298133700, 13.357721537793205, 91.680545902063017,  4.278064791834412
 7.903945456392950,  0.482111786783801, 63.220376661407649,  4.045171514737619
17.206867846541744,  6.324409960401146, 100.731914226013501,  3.961476813610556
15.923932438143858, 18.140050126042315, 36.227257505491089,  3.915915247649527
 8.023213399093089, 18.202474801142476, 15.716050620660393,  4.233494373385110
 8.310201439333184, 10.273279978400218, 67.938009450662022,  4.030061127846029
13.365242927455357,  0.544739210546864, 57.392106206494987,  3.934146059545730
16.630997675439474,  6.800261975603527, 87.834952773716154,  3.707188189568268
14.611076022641754, 14.471342038375973, 33.641722402748911,  4.215774176653924
 7.667056146339416, 14.581715503792099, 94.459745021621544,  3.957876953918427
17.050691109760692, 18.057636374549013, 96.812976974852461,  4.027134291336372
18.515968292916828,  2.327124322291383, 39.996696044352113,  3.646347973009840
 0.993685876514800, 12.180418538362872, 33.280346247425143,  4.023107795326720
 2.271303535149789, 17.400685834973569, 67.973189157987662,  3.991616473205995
 8.093403795086326, 14.325548393611628, 16.707348877943424,  3.592809422271357
 6.952693598493499,  8.285651155784617, 117.451898865960487,  4.173917027355381
10.245187818544249,  2.017751709918636,  2.836475119453508,  4.018384608926264
18.122233936901946,  1.077563011668596, 86.268162151678155,  3.726565959215821
14.742556951035727,  0.185446108901459,  6.241303430302656,  3.949685591926826
 6.652599377987333,  6.267382597547258,  8.295211715630662,  3.721784068073439
13.507257236819633, 13.659606942176294, 10.164355904664493,  4.095731756357271
13.046316564319856,  0.272387117320731, 19.737259589525994,  4.021140301457324
12.165250074106631,  0.525307269615130, 103.912880424885017,  3.900745711304431
 9.089198628031653,  1.522784917313167, 19.088101140437004,  4.354656996402414
 4.709190444910887,  6.780134460320110, 75.848360395662951,  4.268486063698541
10.881761034544647, 12.779391424188367, 78.987191008301465,  3.789932334107916
14.244936289136923, 14.177730098017314, 48.036806149246374,  3.773491476049554
 3.106840525640430,  0.665334238848628, 80.784375863908679,  4.049961295795332
18.585800519905085,  3.748948882245350, 89.064561228607531,  3.918425325030884
 6.449137446528554, 10.233786706299036, 27.166723618087367,  4.083841850362309
12.676010096455647,  5.793344764723128, 40.740814223409764,  4.257719601781956
 0.650088811109632,  5.672292012972725, 85.567180267520797,  4.285575429106800
 2.275629273693315, 19.120802751596312, 35.178778122639550,  3.775375253759420
 5.109239546773632, 12.749408079261983, 19.567533572358958,  4.134850672213103
 9.914053575709383, 17.108105126625112, 33.367391299228416,  4.290303032462259
 4.619932742608254,  5.244841416395913, 68.090900878980776,  4.218584474504297
18.885705769579626,  4.107826452854577, 78.543654077597708,  4.204568705416793
 3.898302107470812, 17.225856728017821, 100.275333733973142,  4.037721153919184
 0.536663636783761,  8.444307118359308,  5.880590879018385,  4.150784539926268
10.384610639592388, 11.060715541692426, 10.542154493938755,  4.052862633028881
 3.551639516401381, 14.679421040134196, 80.174708979904096,  3.743929150652198
 5.823273533907918,  8.878384239090087, 18.543874927547961,  3.950963603694037
 4.174740333579008, 10.799030301451715, 68.603588513169058,  4.368100484739176
 2.124360854469145,  6.084641466801661, 81.502372632693323,  4.056100513529091
11.166126786652292, 18.310392241220804, 113.629586502440588,  3.863109796871285
 3.393025624516206,  0.246725140482347, 30.904077061781130,  4.126445891158225
18.237685965639045, 13.371443464018098, 107.172683449238079,  3.671982039079789
18.013135680098202, 15.852977309933323, 15.397646722603143,  4.190198166056657
11.532626501614693,  2.596367694695712, 115.748599468505248,  3.882788010688151
 6.949771881579207, 14.678048352477862, 107.219824792622418,  4.140079844654472
 0.224224830165663, 10.164313854867361, 43.555043593684573,  3.611239230322036
17.294975739286226, 13.171689167231053, 76.043157339146731,  4.300243384230261
 4.066665166793014, 13.189631779060358, 93.071708554399251,  4.125780015599264
13.154636132872259, 15.358925344437312, 70.314133673781555,  3.938664767540860
 2.557941666884217,  1.530130871555985, 49.340315583089485,  4.275773543715117
 2.808967880839616,  5.618940301940679, 117.538583080141521,  4.041024675471384
13.562478033434369, 12.390451077886912, 100.838466156033505,  3.755319177227737
16.175139356189106, 19.070791160742299, 22.303545861696477,  4.056930860578045
12.589045203728420,  9.961625386201538, 26.352391992022778,  3.765071637981259
 0.597593609982350, 16.769715321344428, 43.058012698557228,  4.187877635608897
 6.637343293337383,  3.020448133904318, 106.428314281429962,  4.149677920495504
 0.442521306644978, 15.824792152918560, 104.332849896585884,  4.069527684112038
 9.882982607695151,  0.030474709097508, 12.085349717491816,  4.135604160121645
 9.830784669185121, 15.271862014818641, 13.496256968388215,  3.862099224595497
13.147428881944673, 15.639340225217243, 20.958373256861925,  3.888737384073017
 4.581303117651565, 11.203099580137291, 43.104730937820854,  3.881677337977194
 4.264879471814675, 14.191461650309279, 96.958976331447886,  3.849854359288243
11.383955651828868, 13.686907397874672, 93.337986919248067,  4.006091298514089
 8.573542168494113, 17.567446975501394, 49.937359993246616,  3.724594841368219
 8.264489979929031,  3.723688565793660, 94.424928127751542,  3.877839674960939
17.123414708892184,  6.386512921019966, 107.029190633350325,  3.839947132836997
17.318574063569645,  9.956718914710022, 105.450867213354087,  3.975701888379536
 9.671182975045891, 18.457734066028760, 55.862349423729015,  4.249802747569336
 6.223520771424740, 18.624809224560103,  5.035498462578542,  3.891027441742942
 5.663591800287490, 17.884223300429259, 60.319711115663090,  3.738517798307759
11.701931667035772,  9.680603295961504, 39.404218864970304,  4.106053010673936
 9.291713227172611,  5.163152825321010, 71.316060558155030,  4.115722449077799
 6.329822622717872, 16.642628522929854, 19.032601709592626,  3.836624204149603
11.015689674286662, 14.497171137518762, 114.013658234744085,  3.779034864967950
 3.084794362674530, 19.001468871015032, 53.153988233260947,  4.108324770739393
11.802956296927162,  8.969600456366116, 66.411425281538385,  3.970494984851852
 8.544833390996557, 16.267889622292625, 83.864049763380947,  3.987241558392280
 7.084927571986734,  8.772283159369259, 11.249291318771862,  3.973300037619284
 6.463183841425841, 12.331170362473280, 54.305547126282200,  4.005999308527540
14.406440355262081,  7.749259557776513, 83.688191256011322,  3.926558802318682
15.644456204320692,  0.831085158481833, 83.281257482774961,  3.731910173315745
 7.631520001485112,  9.357427650776748, 48.709897109071385,  4.081553057487905
 2.047007297769687,  4.870711334054339, 91.715912410595493,  3.736188651192530
14.366652230257948, 15.245949882266414, 74.035213747656385,  3.769933340817428
 4.859269911376203, 12.199821039794344, 77.460290100128447,  3.679535422191355
18.738695133294165,  0.083434301720790,  2.121492151915980,  4.106635079872658
 3.038679178431631, 10.673427148825887, 99.063247431053171,  3.773209655859944
 7.261139030751818,  0.751306350446273, 31.485270295296075,  3.725997051550683
14.044788905227406,  6.590929653972223, 78.938474262324377,  3.985288593295519
16.307612068526890,  9.458039652802638, 109.191922671162942,  3.809643313088464
19.039724779954209,  9.491890062069032, 49.517930622311489,  4.158044480370748
 8.935989804579263, 12.700844730357941, 82.288894433347707,  3.833796702766061
18.815482829301224,  1.183988116159651, 29.822683203526875,  3.691507442849383
 0.452687348897538, 14.905347797545350, 96.287474945869448,  4.007912007858527
 4.046724039209309, 14.361756076278379, 65.912282331492762,  3.944910951056277
12.568286736299823, 11.573002733542699, 20.473702501069837,  3.973388339754744
16.281288270877084, 18.031133059966560, 41.348422178606064,  3.881384028174423
 8.176916976233473,  5.413837808171643, 25.653564317358970,  4.285099688951902
16.739197456651208,  1.022977052893278, 18.546316982469072,  3.728936717061972
 9.677882494939247, 11.370215906502416, 14.563008032740473,  4.119420318013696
 5.732227241599428,  1.695381994731983, 110.700081957077458,  4.100666325170058
18.463690453119149,  2.056308954253026, 36.347120942132840,  3.616623808904889
 7.088104760915488,  6.356927447708517, 79.544176284454281,  4.313937840694518
15.488868226615947, 12.769285082284465, 68.450203379619552,  3.966173277015669
 9.050095852772037, 11.069875759475726, 45.494808687317636,  3.720436851242216
10.920388562561049,  0.901080566504778, 30.151301651293242,  4.037004631005837
12.010617342050802,  4.849589987281581, 27.330548668170930,  4.148494713464421
17.465888118005910,  9.575691079811316, 20.008490964363659,  4.176015592807279
 6.815804631217958, 15.951490207261580, 38.203952289647127,  4.064951452139196
 9.184166982781909,  7.333545406692636, 20.255049925227297,  4.180787811864547
15.915775397004731,  2.033898749234925, 94.217290471605708,  4.090283396070260
12.573793671006131, 17.213241007390952, 50.128991970394083,  4.174428568533807
 6.243470836229560, 17.678973924615644, 68.334604329196580,  3.905136284698253
 3.597170437897169,  4.976450111087152, 56.087973953253240,  4.107255025246603
 4.596258362300964, 12.770222935053670,  5.079980673796185,  3.879421713121455
 6.504437506079729,  7.918568380007754, 70.555579673780315,  3.843598646679200
15.828175833657459, 11.585522170277160, 31.030561687243711,  3.933456426782481
17.368228790761840,  4.159670050080101, 52.113818878964366,  4.126498087223542
 9.801097802372393,  1.394559462014625, 81.693174656379810,  4.093986942755417
 3.213118029811851,  9.219906445207455, 115.704864939542304,  3.926114125979145
10.317224507097807,  9.356010669234673,  1.933323296737688,  3.864752319367820
 9.071889947710959, 16.093763762398467, 70.926920273049404,  4.360289804103165
 8.774127101696498, 10.608727103044462, 93.751608015819500,  4.079074352733209
12.026223947194680,  1.110827802914878, 15.682611047652458,  4.081710080195577
 8.523312461142083, 12.175977627950830, 97.431766086524703,  3.839623042631560
11.823354766239143, 18.139640355179033, 73.292801767653472,  3.791635503566284
12.589034034288906,  2.081830208467723,  8.732592725937538,  3.580901625080076
 5.290171351166663,  4.414162860344924, 72.171810036050900,  4.152083903207851
12.336666684120956, 19.013684842181085, 43.205624118693187,  3.912080297008530
13.882072878660070, 11.348612797244121, 57.778125505973229,  3.638483290432590
 7.458813553058981,  2.257879712648995, 67.522640573753293,  4.056841112859452
19.043852880515910, 17.962129083392398, 82.337289770013683,  3.907542946992125
10.235941474591380, 15.152334307725329, 25.494257498245901,  4.076430205059672
 2.676898733459947,  7.070549550199517, 43.634647457155651,  3.970423666013478
16.109794547602561,  3.861249221471938, 12.533492035600819,  3.940602798358022
 2.102013928952020, 11.612138617766647,  8.019528299534819,  3.955682537414848
16.718344033002516,  6.080170108752482, 75.517039937039442,  4.217435504915153
 8.303240714651874, 10.590547363703998, 86.482124451939711,  3.923437451725645
13.268443809457342, 18.773011640968377, 64.019045268366369,  3.944472073813612
17.609965439262009,  4.058655317185215, 27.421696219823701,  4.147749666226293
18.522594677769174,  6.400922974591976, 39.396242219861676,  4.136192869310015
 3.245339988145764,  2.186908856498539, 101.064459828621821,  4.253222946218114
15.333600228282613,  8.015405310785949, 56.274540832719694,  3.893574211205926
11.602621948799815,  4.595633794078174,  6.046081783086463,  4.015461794811967
 9.321787327783939,  5.452332600758698, 60.254325592795624,  3.960473017312314
 4.712878107632388,  6.747493689939536, 21.647710379441179,  3.752758241828163
 5.656486640755276,  7.414355959128098, 87.349222224684681,  4.374260341662258
15.255216622167978,  4.752858891389074, 45.587737177335612,  3.771632652977175
 7.896580465940644,  1.112568407482474, 71.522734476428212,  4.173219686738849
 0.861900900561513, 16.643302206880758, 86.077157433108468,  4.221043839396274
 3.114161228304817, 10.066008479276755, 22.495636559966396,  3.625153371744986
 4.546418865811578,  8.120916067881932, 37.049867820329517,  4.146788687187726
13.006260071764583, 15.838579107593430, 102.825550262560810,  4.200957989847484
 1.029492169190640,  7.167926148009247, 21.523184699722044,  3.652686262117558
 0.909479281821373, 13.545737509846330, 68.394343587542309,  4.158700905115029
 6.506839751500033, 10.263193621416578,  2.077223789832059,  3.964424366800425
10.363994298602606, 12.460311097360769, 107.722482377238791,  4.053591040412837
18.825859228206898,  0.635100070473155, 69.850546907819961,  3.901198319722699
12.572235639806710,  0.556314196060491, 35.008805018115780,  3.727208021204421
10.998629129154150,  7.991656262548447, 50.581083311298826,  3.883698456725686
 6.765988059740160, 14.208964622642382, 27.265519271133950,  3.866346752267005
12.424356450124266, 15.648077083888570,  1.834748168949990,  3.618864947702682
 2.452527879176086,  4.480383985276664, 36.643975304034157,  4.054144260521038
 0.693494486807890,  9.079747713820753, 36.538238001786475,  3.855087006496887
12.941983803385961,  9.788061811411401, 16.751211134079128,  4.243671127879013
 4.471531474561277, 15.893866006078735, 43.438525303101983,  3.755748500785560
11.794824665047395,  3.658009284958965, 44.155138906853196,  3.844944887409179
13.917537921506678,  8.003462422511815, 29.910304730176598,  4.432912206569178
 1.378209111711084,  8.926099965180486, 15.204753148209447,  3.832597254273183
 9.409021348925794, 11.665330094569335, 51.616140746742104,  4.074518822479483
11.575063379212715, 10.583640410844598, 84.256308579306392,  3.989143690167637
 1.710390818068984, 12.826353800077984, 16.313757186934058,  4.264462331972038
 5.627139101620609,  0.334581285754268, 56.431010714222936,  4.068994494734643
15.444779116734878, 16.775637378121132, 81.119732687385593,  3.933569338379302
14.423665494085165,  0.085077996110176, 86.864766519269764,  3.898194777944462
 3.508635339517650, 16.193541492186313, 21.637238681893521,  3.865210255657014
10.180325531775113,  4.669981225526826, 89.962700297916200,  4.042312081464658
13.868279448251808,  4.144856300632760, 88.430503070887028,  3.996472018544141
 5.647374622189100, 16.713832591762145, 110.519242588422046,  4.006357990225845
15.728370267880869, 15.652099714604002, 65.733153938137832,  3.791308151347680
12.345171979833076, 12.958153333120155, 97.215895701455665,  3.955930648315840
14.489740998692442, 12.382393705206395, 107.192496583678476,  3.997987379892679
 1.327369465990694,  4.075539240392359, 70.921801581766729,  4.008386430335595
 9.287301928141160, 13.258232921071885,  2.184264690450580,  4.209400142842073
 2.314557014263853,  6.424560696439245, 12.284934940242659,  3.927411513824634
 3.965511569049069,  3.634006428281127, 14.755288467430166,  3.921440686589200
 8.683313725007789, 18.448459038653962, 106.064450584370547,  4.274762457632199
 8.007260943096480, 13.727668801606418, 34.979246548523122,  4.112091440919310
15.992314189808303, 17.884226305865667, 104.994958127841869,  4.183854224980920
 5.320638861201557,  7.625296472593964, 14.728096859335880,  4.061816102467361
13.981859178145774,  5.588299595853111, 34.561407524297081,  3.767156466722207
 8.543359827157616,  7.838535880211063, 112.899309601194432,  4.107784860893774
 9.895163722763778,  1.718339169112256, 48.395043290926651,  3.855429435825461
 4.471673138058578, 16.874203899977559, 49.803534075481132,  4.236742957171399
 4.118079413093554,  4.664549514925593, 52.029936939186285,  4.047780288303086
 2.989568898184966,  4.677966894292902, 111.465482106051411,  4.132023583381343
14.775507423922731,  3.768111741483883, 20.366484584919061,  3.878335639378577
 9.519055887281784,  6.134487817038030, 98.839957533161709,  4.143125933770697
16.473584496137725,  9.537213385464611, 90.548342328139171,  3.995874230454206
 5.097233481009296, 11.286842326824374, 88.932383820552971,  4.055987802366888
12.334910646578644,  5.644317376849737,  2.031458485400370,  4.044941102341800
 3.239255013610053, 18.478721168319645, 10.067130214735229,  4.025649407543153
 4.740228545734757, 15.274241084226539, 15.959265581497466,  3.507910483415602
 3.835099406353489,  0.305967116415298, 44.983790922858830,  4.062660241310731
 2.983577178478614,  5.935059775603579, 63.234509182275296,  4.085414344179136
13.125525221410609, 17.058164304778543, 60.392582731777580,  3.935551384760005
 2.965539018573374, 17.307399622015229, 63.065771404003620,  3.985943671991723
 7.423628531157648,  6.302001384810154, 34.687903030238246,  4.098559330354401
15.475067220843471,  7.759757469672655, 64.765622922359725,  4.180774690928978
15.792507879746404, 14.502579096100183, 95.554664681570372,  3.752804552477569
 1.116987240738932,  3.117647696505903, 32.952799750700180,  4.189364512128964
14.072371308687460, 12.945759295905216, 38.625426856106955,  3.832190277546347
13.531066647836356,  4.679479628765418, 106.209886056800940,  4.166304170203888
11.350418461860324,  7.177212384324789, 102.901052257590322,  3.678521363576341
 2.184212566664001,  3.668967590258186, 107.362676142660746,  4.196034639194050
 3.193846372783347, 16.177825802967515, 39.829583545361515,  3.873125631056897
13.163712902739558,  4.074474315920096, 31.115884249297736,  3.910713425693990
 8.284040072122526,  5.511752542777569,  2.057185852632433,  4.057854313773468
 4.784848181066256, 17.317131352965379, 77.419886818576387,  4.260020521238801
 6.317333527009287,  1.375858938068461, 51.238830785014059,  3.979523864842765
 1.539174630820583,  0.318638343509033, 97.760564566213063,  3.905868827980327
11.724681944398416,  4.691327460908617, 17.878219682589201,  4.196635249940116
 4.875892226607873, 14.749348669838616,  8.774009770423715,  4.519685098039762
 4.088989526458322, 16.789050488042090, 83.449970069820225,  4.025728008166049
 8.102588405308227, 12.250325094358962, 71.189861898274884,  3.581385503045854
 4.662619386949847,  6.535335853109815, 27.688563056289397,  4.067469991041701
 7.689501290418415,  3.589260535449146,  5.493248354825884,  3.878061789719632
17.031819180111121,  7.626808643421140, 12.753903103142513,  3.762699911269217
 1.016158724056787,  2.502812411310832, 12.041770720590350,  4.267739266979827
 0.915801764745507, 15.337187633655104, 111.453325618508515,  3.554612604875807
 9.049876677301656,  6.790796460181984, 38.882249659346385,  3.801175231634478
15.834679923606764,  6.274036951349506,  5.309713951507165,  4.032880087627126
18.551265663154346,  8.335540670426521, 97.460678752218243,  4.049363937367081
15.685344055685629, 15.899596267993692, 108.464670492699881,  3.828869570621574
11.236385804371128,  2.588495805997492, 85.552322999116072,  4.383306653307342
 9.945083033663122,  3.837434265034922, 104.168193202997386,  3.987687385254112
 1.980113510824674,  2.289820326216945, 27.230399586053551,  3.567118528754649
 3.512123180398903, 10.530166663538955, 12.189593645741246,  4.038835589399173
18.953990041316843,  9.719780490774481, 81.958475970004443,  3.774984424626740
14.667727315902722,  2.949658510001707, 117.767282237800188,  3.588315532425364
15.660616190018960,  2.020836370422084, 61.720256830992554,  4.179439282172935
 8.267607236077565, 17.924549930387546, 27.763178727851326,  4.074236128136961
 6.967132710815255,  4.599448815741779, 63.650292194748467,  4.323553333454713
 8.170767001324400, 14.274539176966446, 43.174355234670990,  4.308708473824057
 2.675483067150382,  7.847109539859765, 72.193642169429808,  4.339337963425018
12.133700853721830, 13.269920053773049, 60.733475198154849,  3.913565189710023
 2.405151349601888, 14.311101085319160, 25.535478003649310,  3.958585492040219
11.749469587988580, 11.646823003064892, 31.317639118663262,  4.188970553591035
 2.590192107329054, 13.211616398386463, 56.740491426204322,  4.154300684500799
 0.986496977452604, 11.856333547286173, 52.777804187842470,  3.849871460033950
 5.745667867905185,  2.034844804696804, 28.009864320430374,  4.127508833017751
 1.183480731906485,  0.048290750855022, 89.491567590599118,  4.242861598244451
10.878648025196672,  0.851278214838402, 93.924299418696464,  3.921713208732743
11.787544304157674, 11.758063045731978, 89.748362299384468,  4.177373252672000
13.408204008329337, 13.133849732910646, 24.637228932914912,  3.546561243012924
14.885052689292500,  3.187757658657988, 24.398532332243281,  4.088996825320678
 3.020607139705084,  8.948311016313585, 84.364637858617485,  4.145793719417724
13.972568963660590, 11.379568905865295, 42.169674071499685,  3.754226210562106
 8.219251404655953, 10.295382630922029, 41.746465771911055,  4.079189755482906
11.984006474401550, 13.674454195261792, 44.761669297284797,  3.986788982206855
16.709987376099701,  9.592635581963989, 59.744236591449123,  4.063937826802956
 5.528984666839492, 12.658152833587588, 110.511416681265473,  4.000868897178253
11.216239609108104,  2.148243712965798, 69.261711516669266,  4.120053882392289
 6.162658105889790, 18.992662593112176, 41.801247812754056,  3.866333243706143
 6.180878736984177,  8.551755596339030, 61.320652946716969,  3.897186198645762
17.921807795891084,  5.784881965988114, 35.195660483388565,  4.188969860764536
 6.685370008661588, 14.430633528296605, 74.406374594415908,  4.218908133988216
18.055280820660599,  8.492778646524371, 28.625148768810604,  4.255885342527632
11.753328733158526, 11.769331949819867, 69.292483150419059,  3.928445795322940
 9.259080677893962, 11.291390033919438, 75.597300281175805,  4.161785062841482
15.290925442552830,  2.956032888928318, 69.843731675040090,  4.170991646953516
 3.822397210858824,  3.942793244373089, 78.612460251853818,  3.806296185264914
 4.625735423909285,  4.554530315925046, 84.320503172597981,  4.067043902241925
12.560560343661976, 16.824085889853198, 28.395142886294764,  3.847833647498486
17.452237031562440, 10.760967486288667, 39.926900215536968,  4.286809129695900
 5.536911652910366, 15.188593469849891,  2.019523861879701,  3.983801891053118
14.531871952501204,  9.624553296955090, 50.123333063437293,  3.432603468234312
12.291503291137586, 15.940308439467298, 36.730832998112945,  4.013407663927029
 3.957827282596633,  9.149952752898781, 55.389146866221104,  4.311926998468411
 6.460786139351325,  8.005138406906797, 44.975460405961229,  4.181625036282039
12.005375511679663, 16.007094481988901, 106.775487681145350,  3.935585862160615
 7.662685934614748,  1.903974205557882, 59.536016897394177,  3.867927798416591
 5.818864758038929, 12.928960182437873, 46.415357546949203,  3.902026503911507
 3.976484754953461,  1.235646010962615, 70.055875288583238,  3.910546343877009
 0.385318376784962,  8.290959808294383, 92.918661554451376,  4.041921391203330
17.256375814922347, 11.938347043908484,  2.039310348869551,  4.037396544075642
 1.640728227168295, 11.587359012909671, 109.924396165289536,  4.095432273492210
18.405019567636970, 15.303665035884086, 35.421959007602553,  3.652821189337815
 3.480020004064301, 18.540108858376836,  1.849380452892867,  3.590279271823543
 4.041312968832662,  5.208333763683559,  5.563068316361094,  4.097305397873311
15.206557384308271,  7.039503050883470, 25.968395599440719,  4.003895508643473
15.391176902288205,  0.407052541541470, 10.754326474098042,  3.888919714123205
14.008900694156889, 14.956509403631825, 77.904569180411016,  3.980699522147008
 2.848893017054736,  6.132941422459036, 17.676995870714940,  4.042165321663879
 6.013293331426704, 11.388483703960176, 58.363732625140976,  4.152775943614839
17.289155002918900,  6.329072971596745, 81.483822361571370,  3.799100358183886
 7.185472724935118, 11.158301113517284,  7.950997208714043,  4.147274730057127
14.534746684676106,  5.975572531219961, 110.108821031398946,  4.210945415188023
 2.047695842342809, 12.553819074292386, 86.340108209225434,  4.253263399032121
 9.190917830192740, 18.369112645545961, 87.364371034475298,  4.256199967660705
17.502188731777380,  0.531877514409564, 117.459577204665138,  3.886475075201347
 7.032162366294837, 18.808856963887973, 94.404742934753585,  4.100387291305783
 6.473436079737427, 10.891030517971107, 114.486099228049468,  3.688412402929787
16.874507790175777,  9.519132873906148, 52.942803443907536,  3.829541263285242
 5.607582775422551, 11.610285302182263, 15.483892759307063,  4.058794627295431
18.148954335679658, 14.206409103647800, 114.729207920650254,  3.969934267289790
12.363152817059008, 17.452504862356861,  9.227341097839068,  3.944894033278131
 2.633573748584211,  1.079274866824983, 84.877757560557939,  3.925151420664499
15.880273207441961,  4.302990010066154, 84.998566286502381,  3.958733759587341
14.918961411244917, 19.068603870172605, 101.202369617715490,  3.907337090908300
12.435030981972151, 17.928002533491057, 117.458088982302556,  4.212163480390343
17.646885389545712, 13.719749486469587, 57.780396978338125,  4.177198727363714
16.278969793800972, 15.895517369515151,  2.056665241166226,  4.097801859712835
 7.768588807830553,  9.505755985585910, 108.996346012810903,  4.148061065435433
16.159360384553157,  3.628956693271496,  8.444788396105407,  4.162076125104489
16.142652145274397,  4.392616081454394, 114.202185502107142,  4.079288087440507
 6.080165676582562, 13.285945596814946, 100.569470176556180,  4.344814629510700
19.061084780960421,  5.058250372419794, 15.109121645023597,  3.909819745480667
10.827019269902221,  7.661338095980548, 81.664928134099526,  3.755161215610176
 7.419298458877312, 14.544316018711472, 79.128179407864920,  3.969372374847791
 1.371848641123625, 12.355940785597815, 117.478637842749023,  4.143510373809415
 0.959863815752239,  1.701820861260746, 16.843415743639259,  3.837530053704922
 1.465214289165250, 11.987131870820187, 104.539235066911729,  3.852280508714094
13.796203592521719,  3.245717980954613, 54.410585496719690,  4.127159795967407
10.651529409948438,  4.247500562851388, 78.646189287346431,  4.113833380233070
14.304434523417653,  9.821484463448330, 87.114368962054840,  4.053355831776855
19.020548731922119, 10.418181686107074, 10.885498980682792,  3.634175491121631
18.931196248053048,  3.245941996460185, 23.273009144452214,  4.209419096144801
 7.958672164570308,  1.365821405711672, 90.765163029635048,  4.059867926032390
17.216675333087863, 13.429055032920658, 43.261300846576823,  4.177319979201154
17.139953261326124, 12.863935957979505, 87.851093291714818,  4.191069064809058
11.956884041781461,  4.258278486139802, 96.193082409751000,  3.878914577591536
 1.888745965095615,  7.359423395198319, 88.949728322037416,  3.636663171019682
 9.520290619788728,  7.961300902312709, 63.341979431408575,  3.934575017210759
19.084955381485024,  8.561252509897340, 62.874842689820618,  3.935396427294176
10.665227626269505,  5.955331147660695, 54.049617703771055,  4.170403862115990
 8.029108372037268, 18.320065496753717, 75.103665999588841,  3.901172597425582
13.317099711953977,  0.586928300269675, 97.170258266858013,  4.167728644287608
11.916222135881300, 11.082339455035436, 48.030678278184141,  3.863776513815677
 1.054781768177655, 12.768821590650942, 37.573869229957573,  3.772712831401604
 8.622695557572213,  0.635014389988739, 117.585206336499041,  3.959304411107440
 3.994296982923251,  9.457642140360491, 51.008726817090697,  4.461241153789431
 1.951107543217866, 16.045298493297757, 32.728472309742557,  3.998555908233239
 9.844005284590711,  3.052889179131103, 33.498792012540683,  4.198278424133617
17.066384496719355,  7.799505189347874,  8.881376532849066,  3.869441391695922
 9.865722599655367, 12.030167904698159, 27.829394214589886,  3.682522797570562
14.258270694141981, 10.641057226472428, 72.274364278057433,  4.104101198259630
 0.286149882758786, 15.823589522862287, 60.631847205296992,  3.704034388628069
 8.342455812325039,  3.645215180881140, 113.376106292952898,  4.326303660856302
11.270047606628843,  3.088879246712492, 22.429124630842235,  4.094846309834694
16.482490062193037, 17.480226222741507, 48.725239998257521,  4.140204546788183
11.816827034260383,  9.682369333868692, 114.121032589543532,  3.729453098373784
 7.199419810876829, 18.721633511585633, 113.919378514724471,  4.125204041747380
 1.569516229579368, 13.060230108554631, 41.336967268844489,  3.774285266627489
 4.320042459605644,  3.918196316534436, 24.459169216683907,  4.253536093991831
10.127098820713536, 11.531299439625288, 23.735616815677847,  3.969170935892975
18.729243990232579,  5.924015284320083, 56.938498765948438,  4.081731143129208
12.121458320324777, 14.552811457130064, 66.571339561628719,  3.882585686912875
 9.748350182651844, 15.022466391774087, 30.014798792119997,  3.544213407691027
11.126321202721693,  8.009348392747121, 35.844138379424898,  3.768446041279663
 8.770935457983896, 10.003218553555733, 33.643870312116945,  3.786997722992172
 4.392062941245416,  8.824390546298371, 111.589769026914340,  4.218435821695091
 9.545581172674916, 11.392178148882740, 116.735888560084874,  3.969735103108806
 3.994256392061824,  9.548153309239600, 80.249855813907772,  3.967834318921544
 0.718591378021985,  0.199045527081258, 20.711808744151117,  3.871464371894786
 7.667849409487583,  2.310958555477781, 101.119612721231732,  4.174025008299795
18.062773349427040,  8.925304363860111, 32.722222369292624,  3.758672921136804
12.556495381865155,  2.373997093075821, 111.419556315785741,  4.354306573402511
13.724126052789638, 17.911923468583215, 31.870909361311778,  3.653870443810213
17.860188604030544,  5.522252811676378, 67.472844556298440,  4.281673799004843
10.938708469276643, 17.984005444066771, 100.000637956531918,  3.981996503588944
13.110265659745664, 13.103255066297789, 51.505920867047564,  3.805932845962386
13.022094999049328, 18.537357808313303, 53.788439779234189,  3.621333907292444
10.524994352412250, 15.269704077648766, 75.836212080610608,  4.105287138097316
15.596987953725929, 18.559468971413160, 72.138022447328538,  4.053355178006806
 7.460221072056821,  7.155789954595908, 56.956500613119374,  4.251914892175197
13.307887698434186, 13.351887422357128, 86.313961914670386,  3.440203976350161
 3.576672558358320, 13.873161452745084, 29.463393331961321,  3.837911876812986
 6.257720203155527, 15.419955445901211, 57.133863729844720,  4.222253327259658
 3.912466165669955, 18.924641156396934, 107.406883896224485,  4.279647164488188
 1.025290554955629,  5.079302700293329,  8.563764570441911,  4.291781990831669
13.218793832408972, 11.970769919758334,  2.645979972019288,  4.050619098645597
 7.746225253343762, 10.415720651739457, 79.331618323344188,  3.919003597224760
 3.360991531551615,  3.781021205786324, 88.145473047272134,  4.089385881675400
15.326290424082814,  2.678214066338403, 65.752948457404344,  4.018179281565381
 2.797218613134108, 10.023049548091681, 30.279705111820494,  4.183055093462524
 2.819007235676235,  1.311901770736942,  5.735477595736817,  3.915343578483490
 8.922351322158386, 17.382436864014331,  2.119452790146940,  4.028527657050892
 1.694460186855941,  0.754638902559156, 110.924299456614861,  4.162128771913078
18.180756142855252,  4.339375543574222, 117.624206801963936,  3.835317884764156
15.795441735963379,  2.250529516056103, 33.501616970167120,  4.020048299094187
14.956221481052637, 14.223538945850501,  5.552306265041847,  4.082984455501346
 0.990443400500166, 16.542136556245957, 117.450051791821636,  4.203809648727185
12.716534454614429,  7.412494097889708, 75.100781553853665,  4.012583136899267
16.717076630575750, 13.161126744043935, 80.166033452675450,  3.862152699171380
18.774585934861364,  4.239359285196881, 43.504676588697301,  4.314484040131171
16.446857758250932,  7.614246466972840, 16.616005496779685,  3.913378481048076
 9.350442764672504, 11.682483220387091, 111.980892604524826,  3.884552909809331
 5.590402256417415,  2.515334465688629, 35.042759687692225,  4.008769483550696
 9.946964741296792,  0.661448143461758,  6.535980681324370,  3.781406562183843
12.230085749702317,  3.203635567501589, 12.260940676859258,  3.754010871285497
 1.437106221128364,  5.470954683052646, 29.715245465172426,  3.816463212802088
18.339837060919297, 18.939765730351922, 65.676260304318149,  4.254824849808556
 6.374130545188798, 16.276396290777363, 30.794705936593601,  3.776226309175046
14.458901940688035, 12.528630066654726, 114.078240007339147,  3.954620681099334
 7.841904347780370, 15.032908973956815,  5.655735043658969,  4.066107303715200
17.200594092256271,  6.369825668476213, 71.460501174230870,  3.969076208148368
15.873626577371192,  3.773763031513571,  2.003387155793790,  3.952767906406832
10.895096130827238, 17.138210095426487, 46.426627091083859,  3.935685735490045
 6.741930026134180,  0.700294896194985, 84.301161941317844,  3.990793173279228
18.678940378344361,  7.442941817302301, 46.061302087080605,  3.860993253460178
17.345038802769128, 11.192397997849447, 14.351937195365693,  4.076361949526174
 6.120244763515100,  5.033984577008686, 11.844792042282398,  3.793583013485584
18.400655280613513,  4.575141657910295, 19.001279051653057,  4.024520658545909
 6.980872503296301,  8.764275150518541, 83.062626400838511,  4.198988041487827
 6.205405408335593,  2.562671664348584, 47.351536342655876,  3.977157630731315
17.768491954706363,  2.186638023977121, 58.207690674897520,  3.935994998471991
16.180369486594909, 15.295374344606582, 30.062816039926954,  3.626005434365020
 8.208887865378468,  8.201661381380630,  5.169795728468618,  4.151323227854111
14.922719194461452,  9.999452978770412, 98.083911345998743,  3.967191910642764
 5.890747998998319, 17.703300157436772, 34.410383008290360,  3.986249245226516
 3.226038075862319, 17.350009496581276, 94.683647201513381,  4.006140341639437
14.711889213463186,  7.051842693961225, 95.335070593577726,  4.053726555882966
12.272720851703953, 17.988610500506880, 83.739348766218001,  4.076924087724946
10.690151022819334,  6.858885667510385, 32.239432315372881,  3.843871298570364
 0.286476316015041,  0.519090119894957, 61.344855046396219,  3.859871589928637
 9.662189029579659, 17.476230526235746, 40.686429193173630,  4.028932246735054
18.503561591313808,  9.497804981388937, 85.960125743545490,  3.810983335828339
12.861535935108114,  7.633317498756168, 90.118716131679150,  3.899918792339592
10.445664111444129, 15.961113917930001, 63.131760231415676,  4.016959559254564
15.952759578523331, 10.250544705510649,  5.429468260033687,  3.895904219573097
 8.113556328301591, 13.202119797324636, 90.751577625616591,  3.955393974840222
 9.516003626200254, 10.401713463201515, 60.098255819406717,  3.905146530046585
17.435511769033628, 16.424734302823740, 19.508920710036694,  3.988955900292328
 2.130611220855654,  9.808158607894990, 18.783538932529822,  3.567881644869347
 2.185709159510973,  1.670352185289494, 117.600212477213660,  3.935129022911998
 2.008850510033010, 13.496860217825695, 45.111767170103640,  3.875213616626989
 5.515246849709961,  0.291607770352164, 103.756995872245525,  3.739719356153947
 2.418457026827989,  0.586455520638887, 41.185416597801407,  3.685077512585725
 7.147079544383796, 14.652160599215367, 113.581681066671408,  3.917287993994021
 2.094203429050975, 13.111873106022674, 49.080114892852052,  4.087083877659849
 4.568799181173218, 11.061741030702597, 106.887815208270027,  4.034148352113267
11.247225275299893,  9.164116775200471, 96.716396878773978,  3.984922960905950
10.154170403169704, 16.743964014930956, 18.774555791694631,  3.741222159898392
18.540717104392368, 10.112470801207412, 101.626982740965587,  3.948455736920744
 2.364207072371785, 14.501942354088163, 75.401343039106621,  4.190393537710341
10.352140777613293,  2.986519114174030, 108.012127798559419,  3.813700655929309
 6.974659877431183, 12.674533449518588, 11.886519425614553,  3.916418528147273
12.020701893668425,  9.334827934440195, 109.918869240428450,  4.164542310105000
10.315221989276830,  7.440177299391315,  8.570740511814080,  3.931817003599361
 4.530206461885276, 10.111553083504454, 102.854027025941733,  4.006089697936038
 2.122463707717590, 12.043980876820548, 72.080975704684235,  4.054891924802321
15.191324274375242,  8.440090238334621,  2.024984608057522,  3.893635561670365
18.928002851773961,  0.607786259018994,  8.334380182917092,  3.987912074247609
15.547083504113878,  3.841600142459626, 16.387069169084381,  3.732845932956235
18.011277153787677,  9.660166415399381, 73.775689684828109,  4.146773712259156
16.602062176536151,  6.467723296696035, 22.405325314776917,  3.728112521913536
 2.902614612430995, 16.378239172352473,  5.253972849371829,  4.075853576986382
 4.723019323645660,  0.229023842460599, 38.200006555988850,  3.890189818846598
18.239278399338371,  2.129845122328125, 100.454934783858860,  4.063366937681879
11.010048594432112,  8.883846964022737, 78.183042080865690,  3.621236349775346
10.926811281853061, 16.583684690773062, 96.068302681432897,  3.983239749386140
 0.051219832978206, 16.066113777322030, 78.650040462160192,  4.323140922481609
 0.669299880235680, 13.759520664661270, 82.581023032540500,  3.971760996084478
13.613621368252153,  0.919190241457826, 107.493856120014513,  3.777236170218955
17.247559112768723, 13.291659681203374, 99.294637387895534,  4.262487615534200
12.506184141115527,  9.950563931323838, 54.000031475359215,  4.267617940647265
 5.283817672155544, 13.195085461707810, 117.535811210141375,  3.840550666447569
 2.757545084616001,  3.922859127374737, 46.078567101604591,  3.788020836334791
 4.215518835839385, 17.372837267563437, 27.412147943600008,  4.011632981010372
17.022284532184344, 12.960808877412608, 110.898888657619352,  4.102371801738950
12.159599127252294, 11.332345674094974, 104.219692193208644,  3.831797309895521
18.005835211795468, 14.107060294214026, 47.106103168339672,  3.653403494394593
 5.332044626685902,  5.039208892098491, 59.785608723089112,  3.935865377975099
 1.050154539809068, 10.908287363097797, 89.979313166524193,  3.934403220945355
16.206222545978719,  6.466978780663712, 48.937050890252699,  3.953778003590728
18.568435110855379, 18.113266420191721, 113.883548237270574,  4.049608156849962
16.730324358970861, 10.726642629860482, 94.599431784063583,  3.938923793766170
 4.492624924612710, 15.432687772186457, 103.895825578345381,  4.068918860828585
12.717817014062680, 14.087504543396369, 82.440475168628339,  4.161899385555034
 7.295027139342922, 16.668311080627319, 97.980864076775191,  4.224785609105300
 5.093246785545992,  0.053620111678187, 87.978533410915290,  4.113379906764275
16.033339211221019,  5.595626884514452, 91.680858717439932,  4.217044769156733
14.185965957769200, 15.852077250773819, 56.186240802628049,  3.821609999812518
 5.663861933148747,  0.609931842978128, 21.470474811243420,  4.002716220447592
 6.245383114835008,  2.858813132567144, 81.180387050450832,  3.547307592609857
16.772444461639228, 15.003409908770205, 26.253041747068295,  4.081958048539916
17.393121250100414, 14.128109387436128, 11.762719102515335,  3.745338249799657
18.742043639221219, 17.720645532434386, 11.726440937603360,  3.861359312438422
 2.195266540843458, 10.470411973722637,  2.319075802066259,  4.628781946978249
 1.422208023181941,  7.667504196206535, 78.013242694954627,  3.713169039363591
 7.358935760865573,  3.526116030067144, 87.280976962859299,  4.049617722530725
 1.544188511370631, 11.138846782300330, 95.525427818162996,  3.953721305207990
12.804794333622949,  3.761304039629166, 92.656245310757129,  3.452227547219360
 5.785829968848216,  3.614140787514636, 43.388403540485172,  4.231352398437453
12.539454186423015,  4.441085792110330, 49.554816545469869,  3.983836819932941
10.391998491420191, 15.422020638059939, 53.114642457925065,  4.009314878207210
13.835812585941285,  9.974836212663082, 12.684774073730662,  4.047814551223215
11.748498708454768, 13.646310713128402, 17.206093498844456,  3.867392667506133
10.448168397253829, 14.387002822984906, 57.132798477213029,  4.267758683549739
12.929435103539495,  4.344453206853923, 82.087647901639443,  4.051928322177856
 1.700047771072206,  8.142770259973974, 66.416532310749844,  3.913893870425446
10.437784532300658,  3.243771741114949, 57.090696235375859,  3.966348549065844
13.724740983825459, 16.904616973283805, 24.611260183711469,  3.795176012265926
11.976820968302947,  0.904066498435283, 90.036328479647139,  4.150117702272080
 7.814547505640411,  1.468607213929080, 24.651705387125496,  3.826089339615321
 1.097430130277371, 11.923840589651132, 78.783033242077963,  4.050798624635476
 9.705551683613470, 16.934859697748763, 91.593941357277373,  4.045134745231783
16.964420795394332,  9.414827224576849, 78.133512782615867,  4.255522950765474
 0.195012803772836, 18.203382326758017, 38.377258543177781,  3.796375099274010
14.296076693385148, 13.790348195940085, 14.107245837842756,  3.945054375884286
16.027730923439407, 16.386929594755117,  8.652648214253745,  3.742540585485704
10.039398984031557, 18.113519152438112, 66.692198824284873,  4.341427101919678
13.312227535057673,  6.366269031371210, 14.472205373577639,  4.010998603115338
10.620492464436378,  5.744916892827725, 110.410819760739102,  3.500522583242391
 5.875789373049570, 13.117680682200589, 50.326348317584610,  3.838974045542103
14.967257298290878, 18.489287646347677, 76.260427357785858,  3.949896679070142
18.059483815780254, 17.134719185002993,  5.497553847878195,  3.880419283250761
15.062670870763906,  6.647026451375366, 117.287032431442185,  3.857268018207849
11.665240287088039,  7.007398977844089, 23.787359637488539,  4.164483579374450
14.925159441769244,  1.107590328618013, 28.827161854127787,  4.309388452875725
13.894752379842791,  0.181578800737399,  2.191208969259846,  4.225566485827484
18.615782138329809, 17.103082986106369, 100.460932955954476,  4.089092283086319
 4.221717089595744,  3.970896269201023, 94.930812449454550,  4.230755868074044
 8.156670645663276,  4.992535271756873, 50.700046090911606,  4.117720180606039
 0.962230239246044,  7.157037967772855, 53.146995734472682,  4.147004826923558
 2.766029383591126, 18.447471771594987, 14.222742615390400,  4.110088872168896
 3.374993663198677, 17.436948979231094, 113.704859013745022,  3.943069089559273
13.099001979270685,  9.436938714647104, 61.747896423144027,  4.200781686578982
 8.735192467403092,  0.956477356672917, 44.614045733489348,  4.061717655856484
