BANDS
8 8
NANOPARTICLES
cell(1), 19.128
cell(2), 19.128
cell(3), 119.550
17.311780467055961,  3.002211877425059, 12.479991645844262,  4.043513487718530
 4.372566203341301, 17.528226395957514, 18.170771552703979,  3.662325734670615
10.321292929876428, 18.030090465086761, 75.156094493936621,  4.135235961153336
10.337242567722697,  4.840444509133216, 109.407616278818793,  4.033201909527161
10.734229321738821,  2.692277524240072, 117.501107104352045,  4.096198090544967
 5.487149500239989,  8.747472763524920, 102.510590381408605,  4.072494181379679
 1.578313280597159,  6.913691283841545, 43.104979607684264,  4.154632863008795
11.561861385736595,  3.024240122200601, 75.546445292763650,  4.226442446887077
 3.602483506818336, 14.727561357597805, 71.371114358987015,  4.046109927175470
 0.852984621185030, 12.694347028022708, 107.932628869333271,  3.598066390984301
16.011052225221398,  9.713026931586143, 90.897372276623315,  3.562768200657930
 6.980436009403947, 12.997223598692228, 12.056812993752278,  4.054157419291029
10.549533046051735, 17.914266819417019, 59.749285383711438,  4.124456792430255
 0.026436881902970,  8.601086718942083, 101.233675807868480,  4.222192315822134
 7.324252506998237,  9.535866143656495, 117.420624717170313,  4.189079366586118
11.453135342642838, 16.219119729553327, 50.128463012507304,  3.622764176414063
15.537818077422227, 13.478841470695194, 87.681321858051703,  3.685208417226649
11.274320794959758,  1.243128519382150,  2.082072213601119,  4.154490124503918
15.071989244578088, 18.785462825276106, 63.598196454752888,  4.202302187070798
17.327783678026261, 13.924890675458538, 14.844633911742294,  3.983076088112364
 1.855672127757508, 15.370521582592991, 20.184554692001107,  4.041918146176429
10.185504815628837, 13.036892820975146, 117.679868092806501,  3.723995198138886
 3.204414771270621, 11.703428989492917, 13.160851375042887,  4.219525328880328
 7.712131230248455,  8.692126555057783, 77.618481765732184,  3.779315949399738
 1.649538533879971,  5.783724404813342, 98.308877608046899,  3.918510971362523
15.190347440622121,  2.913792702060207, 86.790602914942113,  3.773016641628517
 0.630142082377451,  2.561286745681729, 53.201807021197780,  3.897336765913844
11.524678790655740,  1.336676687390502, 36.829600084271327,  4.310841583192676
12.767520237258690, 11.425028626965657, 24.987178363294181,  4.264018265730647
18.862404635317183,  7.049031982115281, 63.191205861368701,  4.160268028456474
11.135062583879304,  7.020187045930276, 61.138715917646735,  4.004106686889819
14.531749887271641, 14.968860218788425, 83.844671976834491,  4.168623640667933
 5.611018390333786,  6.680374463679446, 41.051972353732040,  4.045463780554698
 9.755423820053258, 17.187253879200487, 85.436179966297502,  4.207442981092480
12.586604332039544, 14.662186243758644, 76.489016954607138,  4.352023319725121
 7.483198282797818,  4.851585749306867, 62.542609109797070,  4.085265413767314
16.748865900508612,  9.871814184067006, 15.375573134008128,  3.746125104085237
16.975362797267284, 14.176952229601481, 44.691869879175520,  3.969960478242202
17.014280426790489,  0.934530169971903, 31.858727445235651,  4.069026350214437
 3.567501712811194,  6.436631091063910, 68.569879184484236,  3.951457804887538
 9.726615099514770,  7.187761688973676, 64.850050057784287,  3.824306632453760
11.738990403860187, 17.258844527404491, 81.851918202935536,  3.960408947546664
 8.098114394334557,  7.015527402468371, 69.984104829160486,  4.367906624531824
17.360187856279374, 10.085790368749873, 60.709876222719672,  4.181098835746067
18.412083484129294, 18.085683717931730,  2.208211029497441,  4.310474096111955
 2.213797433037505, 18.696912837528370, 117.538048252369393,  4.007289352801716
 1.018871400513311,  2.546090749628223, 112.237424303714064,  4.102617121364581
 4.410634074209030, 14.317298785537352, 107.381070997207161,  4.215430794308846
 8.050579417656206,  3.715174695531873,  1.859659100866951,  3.634775291442128
 6.874943768832739,  4.935667681089805, 66.513832081283425,  3.911329452935306
10.987446445081567,  9.106308913497875, 79.945304927018242,  4.272483594572166
 5.635120756791199, 16.962884818139024, 84.638769242179251,  4.012323868009164
14.350750099264527,  2.189388282009950, 60.413358740044735,  3.987303580975882
 6.659622946059907,  0.569676061831677, 41.846977470980057,  4.280244714141907
16.615953770652148,  8.272810945539682, 49.637018284672493,  3.743119423862601
 0.983186569355022, 12.910399244516496, 27.087842602435519,  3.933745377828336
 6.909817001442852, 12.599798675589112, 72.439022797942215,  4.084863089835631
17.527429556190619, 12.911498382625116, 67.700161710458985,  3.910373328922372
16.049179577929859,  9.853524538761402, 53.039052096428186,  3.837550525331708
 4.553631687520332, 16.885701935116842, 102.338132543418425,  3.730976810811553
11.102991479135154,  1.727564550000776, 83.771295175482905,  4.281635479943434
 9.524185099393383,  5.022659790021732, 85.616862044640229,  3.845509904653094
 2.113599839676379,  4.793685457280812, 46.706083487241791,  4.218739977694318
14.967230400578719, 18.156598872369038, 28.566559315754127,  4.036200538740538
16.928073773481952,  5.259012980792300, 93.544975722746798,  3.689220797831720
 4.607120137446485,  3.452855395131557, 99.391996875505384,  3.833483109264948
18.440231182513447, 13.951023883328832, 34.833361635009013,  3.938415336344415
 3.282011075406347, 12.268257283721109, 110.979590886188532,  4.101008805856447
 9.191817326038247,  6.623317304369867, 93.177356935365609,  3.681594076801374
 5.719447064230526,  5.410210374723809, 85.621940360131390,  3.771492546188369
 2.011825598819351,  6.228585217436460, 113.958701402793409,  4.135254171094911
17.119983694618274,  5.657638064119065, 46.690432305219311,  4.024080988411191
14.159735269782519, 10.285267323306021, 28.610935121681415,  3.826087704884232
 5.128900452853988,  1.275845901855341, 54.547446645070998,  4.330029996622009
17.054464423166607,  1.740660866538077, 66.682284606532946,  3.876011673905950
 5.840757644675068, 15.190188524553641,  2.082362916531893,  4.108936398970227
 4.592757227702386,  1.958551230937388, 89.358992683668973,  4.009015227482879
 8.847027805347052, 10.639662456869450,  9.176627058708251,  4.256500724316246
18.798427289575759,  0.137293929832701, 61.607222075310858,  4.269401635352286
17.109561634608934, 13.165512091477645, 54.996392009327124,  3.940310881754562
18.645222964774572,  3.108400096943577, 49.459193633229980,  3.959563152214765
16.470267394228653, 13.165011859275625, 77.247722872114963,  4.030045546947023
18.253238521247479,  8.646610521044595, 83.394480891820450,  3.872439251281791
 3.827157098379513,  6.611840483032251, 64.294782492218403,  4.337375579417661
18.026129795362749, 17.119980622688761, 66.036188494347144,  3.944590554456392
15.551428391805851,  8.392603464790865, 25.042031524730398,  3.676142929196671
 9.005722529617278, 14.891771611418214, 91.080805737801853,  4.121332662853204
 1.433986331468683, 14.029051880172055, 31.526995583508306,  3.875268704308820
11.494520563311042,  5.792142042399978, 99.474725499409857,  4.131030566105075
10.242476804719878,  8.961621470639406, 22.828645792572996,  3.890144929443625
10.904386070144410,  3.019911734979052, 92.373957875046671,  4.452773846059745
 4.090042212025539,  7.173658110917611, 57.390368396301966,  4.032248236097722
17.785455551758286,  0.112668654286496, 87.437583992635084,  3.896066944001137
12.553069224486762, 16.786902968657721, 108.095742104789309,  3.915921743403960
14.418276619850786, 18.407914280649358, 111.156300513149759,  3.827719595652287
 8.330543856050758, 12.791325591370603,  5.516098660739497,  4.172189772315982
 5.349472202384156, 15.750315744901320, 22.127591762990228,  3.916295495034629
12.947549666933764, 13.177257305272319, 39.577490513511499,  4.070708666168488
15.885854614388560,  4.906702124621617, 107.391570136325797,  4.006545216283561
13.007606273284459, 14.307174893969142,  4.979973500837034,  4.027508182433312
13.726600837828153, 11.995004212933200, 43.646981274043249,  3.879830855248653
 0.829627932150976,  0.144932726007320, 26.177247831413784,  3.999354177812480
17.616631104048416, 13.093709173787431, 41.003581070792627,  3.770944312097826
 1.578611782477748,  0.663068149575891, 30.120966238871741,  4.061748732150765
 9.388311967404347,  6.647129890931139,  8.374710036958493,  3.893971851213653
12.582083464476131,  5.501662828752383, 33.332863654550650,  4.258650950162840
10.675707781210203,  8.577271944739893, 57.120365394173824,  3.927861141220641
 0.266082380059224,  3.013280165255914,  2.033725914859230,  3.549287819814412
 4.946173247925147, 16.708321833750304, 62.858036512232097,  3.862098836565959
 5.532035680715360, 17.508182308260359, 77.683635651904908,  4.223894946379319
14.774496320472963, 15.126814145077999, 35.739037069365921,  3.886247656391579
11.371123270994762,  7.214411330044653, 29.914865174770181,  3.726892695375932
12.073487276693738,  1.088860512369831, 71.983051672164507,  3.917738316709995
12.221962070701940,  4.144462706557083, 63.812737076529402,  4.134802848895789
15.911015213301180,  0.173507605756120,  5.678843802044280,  3.829307517631423
16.072873641891750,  9.693201274148445, 94.670450456705950,  3.964500548785412
 0.772247471697238,  4.065866598180527, 18.902841662196110,  4.089119694837422
12.693692879902951,  8.338709541585114, 92.902939283856199,  4.070899343937922
14.615019009657866,  6.940436640361918,  5.507831562205467,  3.986698904048308
 2.075984796949945,  6.018076240430716, 39.054177176046807,  4.060492975634174
 7.105392806579576,  9.461941431917738, 24.949970345810097,  3.747661878436788
 4.330642779087045,  9.229514901399932, 37.548038065802224,  4.115581900532439
 2.269651732301805, 16.021063182478482,  5.921543478558010,  4.198801319891492
18.471527243068063,  5.996018949209017, 25.892797177822413,  4.020935283480504
16.924981843406023, 18.497133141419830, 36.055986755221149,  4.094189567263506
 7.423831724125884,  6.172106937080350, 99.882698816573878,  4.047743998665798
18.590237560661201, 14.488519284853105, 80.963799428316449,  4.146255546255219
 2.997652598454052, 10.520564811857758,  1.868063191294696,  3.722569433979163
16.839051622085250,  5.314013590245695, 52.387893235734644,  4.190860666030504
17.469613654713633,  8.641822930440711, 34.739933842936829,  3.969793419571884
13.200566265739898, 11.415843468003898, 55.569954531996103,  4.201547210554666
 3.653653237406428, 15.898283175762534, 28.716952465285477,  3.996128405391697
 9.303536586845297,  6.693943979416036, 49.288275268835442,  3.872117526703506
 1.972696118118031,  0.827518905283012, 77.166247947844042,  3.824578839376098
10.457548731000442, 19.080321940042445, 89.186405328670759,  4.304257181532424
14.887075560957555,  3.819061049630036, 82.887398433678101,  4.087787313766081
16.006084841751797,  6.819002529687643, 38.030613405970584,  4.035104761093184
 0.069798239326957, 14.998726467226822, 52.064779833842245,  4.085956849687369
14.898338163038998,  4.466083934042300, 24.726056611390895,  3.970259174380829
14.391361158171865,  1.097655601762197, 117.619368327984489,  3.859540462368081
 0.744181037642974, 17.466790096510344, 101.364595029968143,  3.870067259476639
14.545226833019514, 19.074396086284388, 98.001070299221922,  4.387065022861727
16.077658199504118, 10.262136293158679, 46.338079924110872,  4.035809982403190
 6.750386719195441,  9.601903404951017, 20.795009671428353,  4.104309368134801
13.285029106215692, 16.592585180103626, 91.403355624507995,  4.329633382751969
 9.463887639677209, 10.655450831822192, 93.496151177596104,  3.917173261462982
 4.117805026243902,  2.143943754476385, 17.626101220313394,  3.903234878945089
16.019656100947735, 18.670027299662202, 107.189119440390499,  4.177501630730584
10.674868545659079,  0.818472979466739, 18.997698087161599,  4.315549669209089
 1.033086517068118,  3.285977456725685, 63.985167063242265,  3.748377981963169
 9.956407265863357, 11.647824462430592, 59.826637565253812,  3.820138234732048
10.811640574637311, 10.181454154795709, 17.392171323547377,  3.513237666478987
13.043262916217758,  1.200888394635602, 66.855567507313637,  4.044228330235269
14.982490600780260, 15.468540399302286, 51.471151280861555,  4.024495055515819
 0.730770200709730,  2.200831957683823, 99.851432740624332,  3.754168175083655
 1.787695250675310,  8.000215580674249, 79.813055612673196,  3.791310394178608
 7.565538133144517, 16.554782428017514, 70.245219121225063,  4.341486084507426
 0.065678519410363,  1.122673483703968, 93.408014241616300,  3.974078698767292
 1.910310046873831, 14.866918583012028, 64.641413932083992,  4.065161217083580
 0.052593686472660, 10.953873684065689, 43.918150306628988,  3.948012089120569
12.834137835770212,  0.717931338616865, 57.029506515799916,  3.958136197168939
13.651117142344090, 12.165086202316925, 73.073098083187020,  4.335826391653441
 5.373419029688819, 12.511067333929624, 83.981117051275135,  3.705169959552568
13.534252895701044, 15.809614178864763, 117.443164400536361,  4.204026445248005
18.582882273024076, 12.296789472139002, 18.404636319281238,  4.231691013897322
 5.019745210956231,  7.353298868710261, 14.603287556902778,  4.097339189325053
 9.708167521403388, 17.625469153753702, 55.592657958507480,  3.968880547661888
 7.183395298587704,  8.659718178848090,  5.497362380771522,  4.348719349698315
 1.702018489121087,  0.320527478838088, 20.295308189584016,  4.092082298957513
 1.807165329406116, 11.274341240410369, 82.174778875126336,  3.994340048762670
10.166040649203261, 14.425052579966012, 26.546021038960440,  4.114912659988263
 2.175817059929662,  4.308109553069996,  4.968436918710476,  3.673808460551897
 6.522953336279316, 17.527139140582182, 88.869278744631060,  4.117309274364851
18.446338991106753,  7.718633705220278,  5.241388038860120,  3.633601943129535
 8.726527251878744, 13.707345535386912, 108.096182889251864,  4.104990340783623
11.350971089412818,  5.703673348481109, 82.250501773209947,  3.900690380757638
 5.273898454953806,  9.798131249238983, 80.506036251528741,  4.089365503603522
10.122273390241396,  9.914125669765168, 114.542336586877269,  3.826478107926275
16.521714631648969,  6.148986522904443, 70.374729338874815,  3.943452914210830
 3.322926823209503,  2.828803270559892,  8.353015671986480,  4.061279882929322
13.559530624889799, 11.217324035108019, 67.234427570586732,  3.568940184062842
 7.970100462687850,  4.416732897554786, 89.409912756393950,  4.338980012701529
 9.959051513888959, 17.831855825933062, 117.474727066885066,  3.998632283022414
 5.730694965040446,  6.805503497732372,  1.993100370836545,  3.966999617181658
 4.804428589512259,  0.253386309470380,  5.380657971342666,  4.063378200610215
 5.337822566749275,  0.462369624105404, 13.389148334183332,  3.868951307131733
 3.675823740355089,  5.178433711616591, 53.849692293450673,  4.110976976978403
14.460416811744993,  7.232392472850314, 13.368299908134990,  3.845179662168922
 2.848908008921782, 18.219884936823632, 42.548587395994630,  3.907763179673149
16.164493915354537, 10.128480038140282, 70.587746490695935,  3.579228128696289
15.179017064579861,  3.015583980094503, 38.781687246464060,  3.852358194947670
14.475435672287379,  9.522994199130478, 40.699997794681231,  3.946654973143399
 7.719975582735112,  9.016000616941728, 61.991890084602083,  3.980477737460814
15.986190674541389,  6.284885109952087, 76.762984509591064,  4.156467436407961
 7.749576503979303,  6.800002901025705, 31.144186170416695,  3.840506071912533
12.797179528255711,  8.998813926351225, 97.010344800124770,  4.202066829023366
16.595806749208773, 19.049637144083505, 50.633703533096210,  3.971051976901300
17.909713855587984,  9.135935673640718, 28.120262198647072,  3.673714444829642
 6.867550500305088, 14.960421296917831, 99.582684618383993,  4.412049890034217
11.719727908911473,  4.349818483030501, 46.422771202555040,  4.205102217616212
11.878036776418913, 18.337763889671646, 25.683359901453450,  4.391244095415837
 4.163993832620593, 14.619283016077494, 87.476618233621110,  3.833122105338910
 0.789420678237514,  8.617151566712709, 70.843462189677069,  4.302661716937605
10.435235196414961, 13.220514043516484, 70.174410158426070,  4.320779611741405
 5.759108957663186,  3.434504104200901, 70.206349235444193,  4.163307216972465
 7.176779989998333, 18.802985404771885, 81.284200042209861,  4.095004939644663
 3.160936879623496, 18.085909756808409, 81.571786850954339,  4.076549899192281
10.202964096771284,  8.921274930305067, 110.036094507978930,  4.007578832566063
17.867609687375111, 16.942698832701311, 17.798269447775571,  4.355507301218219
 9.079323275087699, 14.159819209316424, 38.423240884045107,  4.204352934465050
14.944516226221097,  0.119367651843684, 41.611428003829914,  4.221827178385455
18.593215934674664,  2.374932104448910,  8.902212686752385,  3.640630257860573
 7.488012204968506, 12.769172168582102, 114.941630803173197,  3.954300360103512
 1.232462638127258, 18.581546255050807, 51.057554460562592,  3.648466294731118
11.703160385594211, 14.799257814890851, 53.694699155617627,  3.917809532917205
 0.503525534611373,  9.594095574471162, 24.644537899401953,  3.931519037899597
16.666038371163680,  5.120382533093687, 20.747408524146191,  3.517085538537541
16.084774147106806, 16.028118776781184, 32.025340973998851,  4.166015870949960
 8.316098958901453, 18.135444022977545, 38.241134115377037,  3.882520715417825
17.463266538890327, 16.852936751835845, 76.195520717125703,  3.883757587516111
 3.942429379104197, 14.934865069284673, 114.510835406532806,  4.334509619352381
 4.486525950665826, 10.583920989299813,  8.369050178174207,  3.957967831611664
 7.429570369540674, 15.668918838545046, 34.792471919181473,  4.210353387483907
13.759286704356759,  5.571722460165325, 41.633884486689240,  4.093257110085568
15.733555115867659,  3.182525891879648, 44.036215296177438,  3.710963595375284
16.276734661143887,  8.930779837629105, 107.977361190676973,  4.071277573434863
 8.022702241876829,  3.784319849005983, 44.259975911029947,  4.162425867858566
 0.428387498733755, 15.966024983879349, 38.233110466374086,  3.997123208533047
14.286239245590638,  1.365160945226830, 90.170800404717980,  3.846953180987730
17.090765740298650,  6.758023196995978, 97.063814747861329,  3.839843003742756
13.352240891122856, 12.366576441355074,  8.625033849359069,  4.051040551041530
 9.745513403783491,  3.572674491001198, 30.211494069400288,  3.936182062064123
15.113095976678874,  7.908096205062428, 100.339289660061795,  4.142351262828707
 9.111818600729062, 12.484051711893066, 19.617048341952071,  3.633524651180164
13.796734685420542, 10.137989593467097, 76.876325845335032,  4.071197317913320
 4.697146267917609,  0.584314421126532, 27.626266006073656,  3.902374141442928
 6.609160449628307,  1.366001722970865, 30.922194291069850,  3.784598661506048
 2.568697783228732,  4.124244365949810, 92.397235502621456,  4.029276031094825
13.282796691027642,  3.306692270767084, 114.031134374812410,  4.111293465457575
10.735992752485400,  8.932782400915974, 52.499186166787446,  4.378107493040734
 4.339468122172117, 17.430397484814875, 38.732090269890989,  4.179213377560413
12.944088132551453,  1.748312552047751, 101.235254797709686,  3.570537011424571
13.283399166274428, 10.308546577761994, 88.475725841089726,  3.756452729801469
10.895588789377584, 13.321041468961029, 84.578935635862678,  3.930754085436012
 6.606911226242245, 16.501471307423333, 25.922212747934701,  4.178975219285735
 1.428462357791017,  6.513695524706030, 50.581145135913459,  4.123343180605794
10.531623129303066, 11.296694777526923, 45.936384454656974,  3.887989665618615
 9.243600959957083,  1.801691961499688, 12.283509654385453,  4.378652164127010
18.579975424147570, 11.471074436687282, 88.722721838827965,  3.888161731230384
14.744432648047162, 10.481689968855154, 111.521036965810296,  4.237250995081772
 1.250923048385213,  8.902874483537360, 66.561614012270184,  3.868409162702390
 6.893852911250113,  0.244612005859746, 100.455416584704111,  4.036758821049588
 1.266182923410113, 10.533263596716694, 97.319148605124496,  4.055223178116091
18.994326711763488,  2.242883279364495, 108.128077735287377,  4.005596572393100
15.215808588562865,  1.614218903559907, 94.051728179208808,  4.055281361954392
 3.712468256937193, 11.214083807537436, 64.385657311453159,  4.057602831918965
 4.782954345421542,  2.421351933540427, 64.081865166263256,  3.739359793482232
18.577370275105050,  3.978746809049936, 36.803945011929997,  3.956362459912838
13.537940934379625, 14.397762248522177, 111.026662543100699,  3.887889504054390
 3.699613255036848, 18.883769032209049, 70.590147310507902,  4.228708495292470
 0.611524012323955, 11.489340746571981,  4.821381749048996,  4.107068649241571
 4.422712200959256, 12.596686271580950,  4.722474663073434,  3.801133713802660
 3.340875787905699,  2.233248291090413, 39.853292849834496,  4.077335348943695
 3.977569280681943, 14.478599477661218, 75.400422937667756,  3.940364542353489
15.690873374902274,  9.191700977666537,  9.085236593124526,  3.844862145474823
 9.320006900004635,  7.612253729145139, 45.396947535653034,  3.883303053189634
 4.214919408514297,  8.641710589837801, 84.169992314468445,  3.866266182566835
14.235029259759425, 17.409031603512599, 47.934366982203066,  3.679110665371625
 4.721987420263843, 12.163853521970294, 97.648172848172763,  3.476070741344662
17.770569991845292,  4.576792868530641, 102.275364478123763,  4.212641024298583
11.191511056572743,  9.502585387769059, 38.500464834633128,  3.736996470943340
10.018859144028673, 17.655508986359298, 42.862444992205418,  3.699366156922578
13.362219838821094,  6.422136003955753, 85.781764494940830,  4.254930634429315
15.784196330283653,  0.496555990248961, 24.859304865106626,  3.846462389136198
 8.705938850928023, 17.099130679668363, 96.513691132212429,  3.820966808309972
 3.891722849258576, 13.570604020045677, 52.436058787115194,  4.085127021674140
 2.399350977758683, 11.471095732599462, 86.066431669160551,  3.837632692734122
 6.591765717375935, 14.420855706545270, 111.433316197721197,  3.806052537086909
 9.009499362694982,  4.474725225398405, 96.466351371984985,  4.055745644412974
16.948725335300434, 15.370715125752326,  5.415468850698188,  4.060147000805535
18.468023091035086,  2.021465254518052, 83.652423352434411,  4.062489459312661
 5.013499198498352, 13.231444553895722, 38.727567590831192,  4.142284402005066
11.821678198335226,  3.669953589895514, 88.351955570950054,  3.774685968035053
 2.790493271356941,  5.550364683276507, 102.356361748979694,  4.254479398722927
 2.821568635603966,  7.557788008446856, 11.205561444074162,  3.953094624822467
 8.558951341805400, 11.172947273576970, 82.349024919221080,  3.711227673331024
19.046364636029836, 13.424586327149397,  8.400463218983115,  4.097970630419536
12.561692320922941,  7.270244659812612, 106.892902151252073,  4.206628053738330
17.172374539240870,  2.415354153320399, 28.057612862936583,  4.087476664743509
10.746880117959545,  4.496614163127311, 67.759788345558349,  4.177505035428647
 8.544640984664662,  0.158275445427451, 45.927946590408425,  3.829132238952035
16.941485459713601, 12.240187351252722, 49.943885859494927,  4.104926012832866
 1.079133527633078,  8.856468532325698, 107.744793506522683,  3.680162060549260
11.719624604634909, 16.717190114156129, 68.306760056541734,  3.942033776012324
14.652137380666774, 17.293008414244976, 59.653165736632587,  4.149238730719725
 3.685802371266944, 10.071472310835375, 114.433158365536855,  4.070550462067937
 0.437987606953784,  2.302474217755713, 43.600249327833389,  4.113275681599913
 3.103896850840227, 10.263857834297863, 49.878837279753974,  4.206883966892830
 2.872233007471935,  4.823137349067359, 109.094096525029741,  3.895576069424793
 9.779935589543099,  8.527279299684592, 34.090339190835110,  4.094687535399192
 4.341188121189161, 14.226082848130474, 80.576447866043125,  4.164931216609935
 6.163476960277365,  0.410575143406445, 67.257319167856821,  4.090025170673743
 4.653880077456346, 16.127251429228536, 11.964990247432606,  3.638222264791873
 9.966414805404401, 12.547466668315126, 111.705234500336928,  3.819454493359183
17.162647183493931,  0.852948524419244, 57.750065882960207,  4.110835797356727
 6.921682072727281,  4.649571799538388, 117.573594897560270,  3.890311654038782
10.841516204982220, 18.572641843115274, 15.173873683863553,  3.718282087475301
14.342111393269025,  0.034068822276639, 17.085997770494409,  3.996010646235976
17.111891476842981, 17.969447682360624, 91.081411479764057,  3.699006799954952
 6.547199536554278, 12.916504794634063, 68.212046496672244,  4.109314124895403
 1.634351429363191,  0.839374062808842, 11.859632299816424,  4.168190382984102
 4.443571369803103, 12.292739830510016, 117.631031649708603,  3.736570258602712
 8.006055555392900,  6.059697776790745, 58.688612669952271,  3.980812936650227
16.819389633363734,  1.369249129794531, 20.117896327112266,  4.086751615953867
 4.889046431594051,  4.345842852076361, 36.783851459552359,  3.879566677673455
12.912332584779634, 12.345101748445241, 91.825370213561968,  4.110417999716923
13.831834740827805,  9.234074917380587,  2.103506973865705,  4.182080473399628
 7.270646406903015, 16.838134925846266, 29.923092182348114,  3.842835307180277
15.252890528544196, 12.042125558623100, 33.345784137605115,  3.976291905343718
16.772204096431565,  7.762197320805003, 43.392095782991547,  3.814028892480997
 1.188163152119011, 14.877958455373861, 117.595659201077964,  3.884651855253711
 7.920062821381945, 14.665763248559196, 57.897877048033735,  4.337500849732725
18.753340303307620, 10.561507034092315, 110.798412183919567,  3.889190498586337
10.180486392916713, 17.117527305837530, 101.588792024560647,  4.224472666057400
 7.851177251299331, 14.891339423146968, 75.501708001028760,  3.784313545390406
17.707231513614488, 14.537825532851038, 110.785320916355744,  4.330474365981011
 5.699651500974514,  7.082154745612434, 50.854405937929315,  4.022964901849100
13.842615966147822, 18.204923117171756, 21.678726739618227,  4.043213504813983
 6.621427203398988,  5.132033804556474, 103.582177348535325,  3.771083035289246
 0.028066696578936, 13.289719494927478, 23.159070091569166,  4.018342918432180
 0.365891638664692,  7.396826784274353, 54.812768954553405,  4.051447636776647
15.232260584076755,  3.849964552864653, 73.613176430992695,  3.947120811649583
 6.613087679632752,  0.731225709731265, 20.532793559761412,  4.224627772501799
14.782218226766670,  5.935319970575033, 90.171992859682078,  4.246145006582445
14.385276849620785, 17.179553081757067, 87.433175552831855,  3.989491812975800
 6.646328395399039,  3.372364240262369, 93.136169106418052,  3.739629254825644
17.913258472890572, 12.551879352904006, 84.658726930695522,  4.174780786992837
 3.217780485614915,  8.299617079751810, 110.804768763075941,  3.776216259842927
 1.577504486653017, 14.465142660517694, 55.551625909532987,  3.530200459819433
 9.017596777389036, 11.745078639877343, 55.148430782854241,  3.954386728891398
10.801542652695547,  9.533603393808157, 100.351373047143497,  3.631818324621851
 8.796583045459016,  5.093516616003941, 79.107641862283913,  4.284229108970428
 6.686781788862239,  4.460171294999791, 19.349929536443501,  3.586728586786593
17.181047866588127, 12.588391421155148, 29.843287750831362,  4.087275638748332
10.972183694815133,  7.350780013980946, 89.280037972176615,  3.830129581743678
 4.782065915778769, 12.449348322266880, 56.219634504880396,  3.913212438862683
18.740193640049821,  9.280732192134383, 40.142678746859147,  4.354514334911651
 6.644744551385752, 10.440310427667558, 31.873217085816961,  3.682593460316635
11.604862768929520,  3.568465179393316, 52.673930390487889,  4.574580461821959
17.897691344645960,  8.722578468159549, 114.254308156400668,  4.053883772463575
 5.083701387200720, 16.956156976184730, 45.795048234943245,  3.975822683222956
 1.103967112610802,  8.397501131695829, 14.693652973127307,  3.878341735561735
17.878242162797086, 15.975354380884193, 48.252635643698767,  4.162477384300103
10.417595117711016, 15.277700872855128,  7.973322522294058,  3.954281844557503
 4.173027585890137,  7.805922520542146, 23.193449612532238,  3.792037198980736
 9.420419131359445,  3.141555753798594, 101.671391776864979,  3.857965811230089
10.037574290179256, 10.562417945418352, 28.178230759610763,  4.210095174457630
 7.180434044009114,  1.182389394217247, 104.588521403324975,  4.455321983185003
 8.112078061671419,  0.955722754284191, 72.395246569717983,  3.936022678870271
 7.205747513136036,  9.761336730006322, 47.784737503956279,  3.792078757466689
 1.688664127082135, 16.209096022968058, 78.086246346299518,  3.897921827749715
 3.122460546603318,  7.582095714491900, 27.061057634300521,  4.169915190730205
15.761445385171063, 14.443669638414820, 20.894325849806201,  4.420520088736406
 1.646919064685012, 12.055970979175326, 78.013212873906781,  4.374471886728854
 8.506129468299132,  6.562057642429723, 12.389723324767536,  4.227870363539352
 4.024071969158936,  0.067142498818288, 23.708586941025111,  4.075538765987674
 0.628410459190933,  6.624130438595925, 22.114022354219173,  3.868442316996887
 7.779039176034972, 16.679990976270982, 48.864970745073627,  4.150477604849184
18.786557759325152,  2.807187502175054, 23.349544540454271,  4.000354180718405
 2.610063545052505, 16.393925798361188, 110.667697760130835,  4.251627600956528
14.485200571504144,  4.231742229713976, 17.551022878114306,  4.404007526373699
10.678073829884875,  1.290712413692138, 111.496012717224687,  4.196959077114317
 3.080006805101806,  9.966479410938629, 90.003194855159563,  4.340820868215016
 6.194275085238005, 10.279496084901380, 107.996076366603944,  4.269813887469758
15.764655983255510, 16.034319183356732, 39.356150640324927,  3.794380259042679
 8.682172869337695,  6.154202336798624, 27.050865268709039,  4.402389485280933
12.045631103536218, 14.798844285718475, 57.622633303627033,  3.912319551049370
11.217751614707566,  5.418914318441984, 23.927907732484019,  3.773692643748469
16.060226167586460, 16.742617589371037, 94.693987005870000,  4.192546452132913
 7.541014564411643,  3.278224526394441,  8.677918033909842,  3.806999256607310
11.112984688709176, 10.603126563056936, 63.476970103182843,  4.005514278654257
11.168010937141547, 16.584227503760800, 35.786951499377061,  3.730736109949277
 4.398273974484996, 17.693342556717877, 32.313708328446175,  3.777821978391294
12.776847655244817, 11.233987608386128, 20.613602805466460,  4.226176834407820
 6.772942527742506,  2.867343943149307, 108.670555404436755,  4.205416357873458
11.527414472007038, 14.631253575823427, 104.918182346675707,  4.030520640211294
14.370662634001819, 13.917603045986530, 69.516288631143212,  3.641010751527630
18.532801559217209,  6.266301855880140, 73.768690396108710,  3.693624017584170
18.429448925381447, 18.547440589819022, 80.226002256329508,  4.023207783024886
 6.031717200364795,  6.071767418086961, 46.991403495230763,  3.983385194204927
18.292923918072759, 11.107399206153330, 11.849084621243906,  4.335172079497505
18.731933296756338, 16.118549494864531, 58.523674652927092,  4.285029206745715
10.342823638163255,  2.822671672652191, 60.476633898597136,  3.961510513047450
18.872504993647595, 11.559644775061839, 64.155959779184542,  3.886252583089759
16.189067936802708,  2.708691220105088, 110.864076766242704,  3.858669830514293
16.524721560383792,  8.430394811446350, 87.430417543250272,  3.889474538464932
17.272919203190018, 17.996471961992651, 13.305116434283875,  4.345161204089849
11.106984947468906, 13.858796292032151, 11.716902406695818,  4.134582848944533
 5.942027698692272,  7.756658594036581, 34.337030702470322,  3.588546609066712
 4.235166313244680,  7.061265774631729, 106.067489475626388,  4.110993700576510
12.530036290008287, 19.037669936327294, 104.647788446030731,  4.194294200026476
14.089168773849027, 12.836564983217006, 96.097613003443783,  3.984616082834910
15.718649690784732, 14.565325010987996, 107.226084324830182,  3.821111560782061
 3.667358426091783, 18.262227502014817, 105.988833459938533,  4.140224183253753
13.737527866573172, 12.770335693158085, 100.113512579814540,  3.997851401112846
11.847771456328266, 14.267663277864091, 88.306262139279312,  3.903480949898644
 3.371655224792451, 18.790148786133997, 98.980726326629281,  3.666059262367049
15.124632382066451,  6.186711437972535, 28.592472640433687,  4.469017649119561
 7.704910114548690,  7.455655203871344, 82.785131406185471,  3.939026528489727
 9.057292341326324,  2.625600806371046, 56.298755111595561,  4.464408404939792
 6.761236171787304, 18.644987193965015, 58.075062803902100,  3.948236778944764
13.560146626955564,  8.831489895595988, 35.537332047914568,  3.955072993048458
 0.238080282070750, 16.060608727269940, 69.624569524519160,  3.973964674519324
 8.135057005781245,  2.943059709486888, 38.700380265621767,  4.042889470518357
18.226047938587509, 17.537987165272195,  8.996378877938458,  4.279684421797854
16.988986836984285,  2.260033346283334, 77.563562292682263,  4.182601637057187
 5.727473264653441, 14.639139039529669,  8.341481656705279,  4.287310261260600
 2.439202527758393, 12.414194556850225, 68.112723710094670,  4.159441585854908
11.815171737789772, 18.752192889943885, 94.765341727500441,  3.945144470973708
 6.665542045454418, 11.015547447514683, 15.750146044542296,  4.197922922318074
 8.657462535228612,  3.939256805406643, 34.365692099374478,  4.427824079664910
14.796068608727067,  7.734617616367149, 81.371031620739288,  4.287391535527760
16.734956760384041,  6.217946481661488,  2.070667035671037,  4.127418988081746
 1.749415684161995, 18.178437275319251, 89.877325092282007,  4.045338618139298
17.984444463130338, 13.146497312266400, 95.377339452702344,  3.953067555861479
17.850572761688209,  5.046125469560989, 80.373622674580929,  3.859971564468987
15.250348512925205, 15.553194438208829, 25.165310470553557,  4.336252233993737
11.539311913225323, 13.348979635862857, 80.522158966254821,  4.274782956949283
11.997576789871699, 17.215723228124535, 39.534637123278948,  4.042330865843406
14.124646398963209,  7.794690288306152, 63.688444693892464,  3.995656226638724
 4.104361442848049,  0.276340862820920, 93.124319331769200,  4.243535202829017
 5.689417972475777, 17.456241706373962, 73.725221470187492,  3.688698825521180
15.348106318562987,  2.847573016378129, 34.910009611989921,  3.842673693798021
 7.632795911107633,  6.052280968759809, 22.606055546570747,  3.884219278088354
13.308834686278491,  5.067321340779865, 95.468542720716499,  4.301069416541665
 6.388030889142773,  9.071501833952388, 28.531902763748693,  3.544499389397590
13.185783408672096,  7.852068219815809, 44.891946093080314,  3.921012236957684
15.471981775010363,  2.136125648242062,  2.124277804567865,  4.243104188206794
10.281188150048438,  6.154560764231481, 113.287675458609357,  4.091728692414440
 9.699684997984001,  6.005096528235097, 41.190827786843663,  3.990368475446793
 5.879603538413014,  0.655875633001919, 35.408543897867325,  4.238395855743549
 1.221025913089619,  4.776995397831615, 77.235257082979729,  4.173741349614933
14.690408687120327,  5.280433448903112, 66.898730329122728,  4.035262471234378
10.666516662931009,  9.489951295412574, 71.990983800048355,  3.659846021505987
12.545433899076482, 14.220448457983254, 61.640473316587247,  4.128579458188568
16.756982783452351, 13.930342851349115, 91.488976855805760,  4.218548237752673
15.844407485005943, 19.006691013294596, 73.134823270704317,  4.145790974691725
 1.767595667713174,  0.627788023337386, 36.360428046460967,  4.065492843369925
 7.287010321134656, 11.447154878482850, 35.661185440530588,  4.182560368734845
 2.206686981003375, 18.847688142431291, 64.729750531427484,  3.812712133167908
16.753557594227022, 10.180752706798511, 21.672427248180298,  4.259337959183837
10.296339019057479,  6.716995853512935, 117.316700120381682,  3.973749970530092
 1.396484398272259,  0.180614897068600, 47.229153219596888,  4.147984843553301
11.182853745766131,  6.946997365694201, 15.498657566776636,  3.970384771548269
 5.266184667195450,  4.385699551603359, 28.766015179134467,  3.999808114428639
13.812644311230084,  5.064294044801121, 102.867871596220368,  3.839361526452707
11.102226309871353, 14.847747266049920, 94.492942746348120,  3.873233932535366
10.096174557105567,  9.815359102759833, 67.604790848582212,  3.793677238709901
 7.687079312105230, 18.427083102187293,  9.040721368569020,  4.175310586252611
11.712873530493155, 14.801617902263965, 22.638430748619616,  4.207449767366648
15.561502443519823, 15.982227015299753, 113.988234904641104,  3.793459358234651
 2.209032893021581, 14.386343047937915, 41.536150348920394,  4.000465911765301
14.732371040756773,  0.195337578314146, 84.277881895892932,  3.606512505824652
12.025010226356205, 17.831071171382188, 11.168646965541912,  4.003412168637824
 8.429456092821956,  7.022384905489161, 106.588692503846829,  3.990059153595007
15.167137828515648,  3.983775055116471, 99.110726062990906,  4.000492558622190
10.850715324986419, 13.543901971483479, 66.077741322274122,  3.853295937667812
 3.874210063207435,  0.068364495524615, 113.829992605534471,  4.048880507040820
14.864164259269335, 15.790339568397295, 79.843022958213950,  4.016894715266522
12.261627525315424, 15.839928106084848, 18.528160073033607,  4.293942908283713
12.565037902589832,  4.870194763679222, 57.707001658402618,  4.183132140128162
18.480289981705567,  6.304855617212286, 110.525351848458428,  4.250640646957219
 0.270871320623656, 12.671294974285857, 114.273465297967007,  4.271468848083752
 6.207112038726210, 11.981303470111829, 91.772744113032090,  3.892554446840677
 4.929719353066179,  3.691879046614243, 112.325535195496585,  4.040618470372117
11.205504139015869, 17.364206403746795, 64.337760737823686,  4.161586162693243
18.805698803294014,  0.899357105695640, 70.092976627501812,  3.968988634696756
15.495172381970388,  5.027046330497983,  9.054713768420509,  3.854408072200084
13.449594282640222,  3.059049927584883, 21.397911533853986,  3.732438020606221
 0.187985919617475, 13.840454507372877, 74.665037453825320,  3.686085480507318
 4.781200628497711,  9.826811975651825, 70.318036561482600,  3.943568665326475
 3.959424710026988, 11.943147512899602, 24.461106603476377,  4.192932616840054
 1.796170860414506, 14.360733011822436,  2.063153339660810,  4.116359652471383
 4.854903034935522,  9.047758277190894, 94.119310659712994,  4.013007159720356
 1.094132141592431,  7.357917028308389, 94.526843078495830,  4.252681971319989
16.208924633613389, 11.579967670542127, 37.422035448155192,  4.375029360823769
 1.964651926488993, 18.837586934150504, 15.630602571951075,  3.700330051392417
18.860166647977806, 15.440309219244844, 87.502858543824289,  3.980080629183024
 0.454838615036843,  9.750773693481078, 31.512883790103533,  3.982737051861081
15.100347537282646,  2.468054559001259, 69.943129609615440,  3.794782776461542
 4.712913507100651,  4.203522257202755, 32.871058689943631,  3.942682284234041
 3.580588939253218, 11.335153796414827, 29.615679220846403,  3.954819653955673
17.896172574594555,  1.737017482291753, 16.248077351916386,  3.967672471112791
 2.399136897967332, 18.682038595313188, 57.166776757066543,  3.762302592887101
14.850529882050754,  8.526645568836644, 31.907680695664560,  3.637735989693361
 1.766635719394734,  5.538866396815868, 83.155358374532653,  4.263819076246017
17.519712586348817,  5.761615632849185, 15.278687241777194,  3.736611809084614
 4.046696532486582, 15.800470641470115, 59.178569116667290,  3.894013796570700
 6.847308096708871, 10.987746619219163,  2.018601954683847,  3.993297301757574
12.620372812173244, 16.172371854294362, 72.220554106687118,  4.076570160336785
 4.469159512343188,  8.529692137163035, 98.610097275466941,  3.894312513336908
11.548118638141370,  5.184411121696852, 71.832947599756054,  4.224943894349638
10.148212375545583,  9.330970225841840, 85.657346990472547,  4.411677437337007
18.667037649730023, 18.134148369958549, 54.517573580412581,  3.832938869601454
 1.501868819083461, 13.204068186472409, 60.918772123593840,  4.105262172097863
 8.042155781331596,  8.621838538291293, 96.617138744190839,  4.034909764764650
12.385293393496683, 14.634874029506053, 32.728332210913671,  3.853056248855050
10.811883782423935, 12.228215743174077,  2.139277840012230,  4.258903834453298
 6.313233910256861,  9.056123042193867, 66.669277544319002,  4.097643309236854
 7.137148800251712, 10.600836437504285, 43.894330384645109,  3.990368333955845
 9.594750721221013,  5.329221223256535,  4.828214029441559,  3.618080628773226
15.350389602663466,  6.477218854088945, 60.161862057330822,  3.900607019560420
 8.019294462770780, 14.955908320619546, 82.178013626248429,  3.927730107811426
17.924705514497358, 17.193944952904840, 84.033349963058143,  3.943676387736048
 7.618744111715126, 12.095135987468829, 64.476355726840396,  3.813863809075102
 2.184179290821821, 14.929441673667355, 84.028422224088786,  4.077766290340546
 5.179715838960351, 15.677001481450949, 92.148499077779235,  3.716426014179428
 0.862420988039741, 15.031529230699805, 12.024296202048335,  4.041010963604068
 3.714840804104623,  2.760195441070007, 50.186630294180851,  4.420085589764317
 2.714355669300283, 11.853449575181164, 101.002459815885260,  4.226537185242671
14.068871440311288,  8.009296469783397, 114.795751088083662,  3.684084128110884
 4.062421166070247, 13.048135724145821, 44.915983364440237,  4.112436457589956
 4.084672625552775,  5.948600557844784, 89.151724174001103,  3.988636773225316
10.949940287908673,  7.276607526230318, 75.734186755073083,  4.156825300886217
 2.847107927147591, 11.345058963934823, 73.255634453086742,  3.716328511552943
13.987948735208684, 18.569489478384860, 76.704640185230190,  3.889622515590654
 3.797031718631025,  7.378897429008791, 117.506878484496269,  4.075151214246112
16.331943619903267,  7.794496159963037, 104.211230009055171,  3.794985549350557
 3.040549397836706, 12.820994199480557, 94.390920589586216,  3.893248168483192
13.638188375469985, 13.292613447726731, 47.736666074396602,  4.099014261266041
18.207043723961135,  2.280580109037182, 117.481342379074277,  4.125758884379017
 5.992201801695744,  4.512730196125466,  5.224981024868463,  3.685432752210178
17.879553082463257,  4.906805221145752, 40.985985805506580,  3.881327642290698
10.568151700457316, 15.204942737934095, 114.505774694247791,  3.931839424341764
 4.882712364384359, 16.306894878101716, 55.314707659635701,  4.004082962417227
14.262358526814028, 10.432832683145786, 84.625511865524118,  4.152614315588986
 1.305318654208685, 15.869072712615916, 45.189928192391342,  3.793182326157523
 2.033853731935582,  3.912851012796639, 14.575113738750639,  4.055510597018908
 5.249044489285121, 14.016325929656091, 31.853585912311633,  3.777499595057648
 7.031371345355900, 10.928708135520091, 51.666216485543913,  4.178588391285802
 5.139039851439171,  4.120192081705531, 11.804342786766153,  4.100189881597202
12.464052339763798,  9.972574747837740, 117.615027027002213,  3.853329992434829
 1.548361191942338,  3.435655753795706, 57.035944085692563,  4.179220573329753
16.836931981867796, 18.720680439179070, 45.335131621779915,  4.036966426623586
 3.360928003634563, 11.081813767123187, 33.982916491099715,  4.062533342110298
 7.932239890210434,  4.711392404842040, 73.849759329829084,  4.085163028240724
 3.902735575078081,  7.677147207591860, 31.129512225432482,  3.977518924483195
14.831893570532271, 12.700468417119605, 103.901835466782998,  3.881211603467839
 2.129786040734342,  6.788504359190515, 34.805347371906741,  4.326659581970860
 6.270333051622818, 10.273332649993426, 87.205598482274823,  4.140201650103229
 7.368604708524720, 13.518973462127631, 95.208186240829548,  3.957627890143041
 2.755761201841283, 15.914119540764123, 48.750729246613119,  3.753294157082159
 2.085397552595602,  8.493134478456694, 75.775543301149824,  3.994329938991204
 0.568172086782794, 11.075053173477921, 52.902468181463917,  3.843844143685891
 0.932973615202344, 12.644130160192285, 47.393818729226012,  3.911252100438091
 2.599457833943364,  2.529307879225512, 67.587708479173060,  4.206390676293098
 7.779171989156101, 14.968258311644041, 52.682298050420243,  4.188575089449228
11.204192809982644, 17.479675441445202, 30.003427891282278,  4.119288445814136
15.588361391761563, 13.294550422183653, 58.745166122828365,  4.084484729350026
14.221016119019273, 16.528456825353370, 101.312449532997221,  3.887387401193656
 7.507383435070993,  7.408450243334134, 54.863054578902094,  4.162250372522094
 9.405101914244387, 10.811573648848830, 105.061844062711572,  4.391826776304278
 0.034466736832113,  2.302038916931384, 73.952731136383434,  4.226314757304227
 3.309083343608687,  0.999055203634002, 109.447660218032510,  3.726531999379275
 7.541046448848612,  0.361984645681505, 61.903327468055267,  3.898819745417831
 5.395286501456922,  3.247125696297100, 58.084371366945156,  3.771710833007426
 2.907246112707213, 10.748662645400763, 17.124944647725208,  3.751962543398198
 1.858291859082652, 14.061668416026931, 90.717965991817564,  4.194001645196949
 4.170316254135602, 16.096126707315552, 67.676941439848420,  3.876830904852053
 0.461791634938566,  5.520498814345104, 105.884131262171564,  4.010678970208952
 9.393251886590166, 16.399596255744225, 78.761015217486957,  3.974171426576581
12.126888452396164,  8.553903492615142, 10.430947202691526,  3.874385867496450
17.411992854005433,  3.957562387660985,  5.523474918380411,  4.129781071311373
18.314597547012081, 16.842551725374058, 42.137804440236600,  3.877630163687745
13.127496637937483,  2.175261479770803, 108.310023290903274,  3.957291524151404
 1.602896711298141,  3.492923912247039, 86.921018515566303,  4.292094942615956
10.595669777607361,  5.468383727132921, 19.751928909996984,  4.406552041065037
 1.632277831063468, 17.494311476941906, 73.978539112947459,  4.138718724360134
18.215323304565135,  3.877047889430256, 60.150416288352602,  3.732819479940842
14.115766913353269, 12.438720914582753, 16.845067419088359,  4.123927968044090
 3.305004271702855, 18.228501380137757,  1.927909159250838,  3.648082832143690
11.100328363419683,  3.110410930685847, 15.672565601225497,  3.622598470771209
15.643782369771765, 17.621572962667404, 69.249949966307341,  4.108077215329246
 9.799822333766212,  0.407631678303340, 107.612540066987165,  3.631552963321209
12.628185578867681,  0.480132767762313, 45.083998705852757,  4.099525551119187
10.045522970482356, 13.042248887243682, 101.571052039781108,  3.918364036842977
 3.689877829454725,  3.779855522806568, 21.878843583657773,  4.160466823933886
13.678587281593479,  1.510301596267820, 13.427437322870203,  3.924440124924914
 4.765151666391516, 16.486964984632760, 96.146619715349203,  4.148087458726779
11.463498849276668,  9.778990700138330,  5.705110244138253,  4.490208242149249
 7.354042268832009,  3.523515882643975, 82.621973811644168,  3.928648607780045
18.531514356707515,  7.993831845703255, 18.419579636438556,  4.218384636543611
12.577122372386786, 18.515471140443545, 114.543182319722618,  3.779867704694833
 6.937173633495158,  9.791249448170353, 58.066101039348915,  3.811994007378035
14.965159959907076, 11.712635677352687, 63.715279805332052,  3.977995962495819
 1.734427809363470, 14.642006257178057, 103.944290442051212,  3.987238459724895
 1.142956654603967,  4.847670207064475, 29.650827098309176,  4.310450639499313
13.684068687306336, 15.853583516416725, 14.419380992835759,  4.286358673182717
15.483485624134527,  1.743659161300803, 54.087401300686913,  4.121546939696249
17.124311529733447, 16.338952117533790, 103.978636899372390,  3.957616002837157
16.519580692515998, 15.104824036523640, 72.393377693760101,  3.862770979790659
16.636538130265663, 10.927536653505694, 98.299329028070659,  3.744644240691765
 7.833166498086810, 18.119041830809202, 113.820345091004114,  4.106330505217723
15.395935226580495, 11.960947540118221, 81.014425897322951,  3.974444829363910
 0.345599158001503,  0.838024188089730, 104.370222684856969,  3.961238416261862
 7.006005827552382,  8.705292671867074, 73.714132541685402,  4.093627787182462
 7.429929430533938,  4.068340234949043, 52.676533316247756,  3.806504490552999
 2.535126743216341,  2.278841512536813, 96.366652792529194,  3.824830025579969
 2.112759199708504, 10.453594743133298, 21.045986494612453,  4.089626633761039
 8.704898344796622,  1.683740795901483,  5.277927092868362,  3.928043540198899
16.688392452796283,  4.869485077951468, 56.609283441835586,  4.230446360053519
12.224876905093156,  4.628895968592524, 11.297955963447365,  4.002998832784895
10.382055341288924,  1.114292318556988, 98.340709443996332,  4.106840974281359
16.182515687834648,  9.069749520634971, 117.687649294464549,  3.649211443015341
17.260145982828256, 17.398866628413561, 117.571393840980022,  3.715242422890030
10.144091162429918, 10.216117279928515, 13.471053531528890,  3.905727600035656
 9.858887396126955, 16.395933687561225, 110.863459156143620,  3.841293488090618
 4.995863723956056,  5.442122469493089, 95.994426496722795,  4.037807334371289
 6.618387399427275, 15.661109640171556, 117.598996778295444,  3.883450101552958
12.863948852241817, 11.614017842395587, 107.676380122948359,  4.303085787050853
18.956383676468313,  6.327257058567780, 117.501006364780025,  3.999032330406881
 1.050935444129434,  2.997912627070014, 33.302306561716804,  3.795830716046716
15.093867544582416,  2.318157127150839, 47.787291592263763,  4.043323206001507
 9.215010672936900,  1.806731129682857, 65.122582976356682,  3.858385660844364
16.648359728625852,  0.750321539291518, 101.504873294450817,  3.879513031711070
10.024633399473883, 13.648922492291016, 42.570400208303298,  4.330861379527529
 2.613785698534905,  3.691679087518246, 25.887452163319377,  3.921213239393142
11.906818085246400, 10.880067270229835, 31.723342190255693,  3.815209963306567
13.483173771345939, 10.042494398529591, 59.651390399328442,  3.857044669456375
 6.015602525299684,  9.393292723659071, 11.596209979503531,  3.437220450395968
 6.244305892349995, 12.672775948017895, 103.065639049310292,  3.960116298271642
13.584958455591376, 14.270783009053945, 28.851770793183501,  4.040299587261593
 7.966356262652789, 13.950866117417972, 87.112026859479670,  3.901319017596334
13.802309343463509,  6.982230813732199, 54.465899492245363,  3.873363821838280
 2.028775201713382, 14.853045335617169, 16.022857485111714,  4.158405427867121
16.258732186139255,  8.970780071999499, 56.884622858471992,  4.022656329805291
 3.904759324165519,  9.112227773418999, 45.632379419036404,  3.885053467612186
 9.793184897614942, 11.375983306798750, 75.345706520397613,  4.222813202888206
18.679968863834588, 16.376963547672794, 28.764981708343619,  4.162202025763273
12.208094957763628,  7.858624975679023, 26.437682197000857,  3.496763543070323
 8.110149327200727, 16.194763316408242, 19.093905144538279,  4.102054695967661
 6.268017750088831,  0.556015891767197, 117.411199597905750,  4.179811350412098
 4.934549633728397,  5.767309040477398, 80.440922655926187,  3.956534290304251
 3.706181871907678,  7.144948288692930, 18.906193555451917,  4.400482165892489
 7.773991772835054,  7.537475428929784, 17.496857616584361,  3.879197393691893
12.047665597679670,  5.578511478358865, 37.606211022957737,  4.286122097584847
 9.588580143337447, 11.105141533855864, 89.504991334843538,  4.061746111765512
 5.201024770589637, 13.217698854610456, 19.065933586271477,  4.013241767570595
18.727281778123839,  5.330288058561925, 67.013006146707042,  4.031188975955085
 8.468444358888817,  0.230900497465207, 52.094067681617403,  4.192080538123233
17.992486336680926,  6.874266009978376, 11.494183239849239,  4.040900576448064
 3.249222495512656,  3.373725812895890, 116.702989288502252,  4.042641443131070
 9.800048005644157,  1.863777207425255, 22.985395701934031,  4.092362274080747
 5.354079149215430,  6.419009332740155,  8.428983184081021,  3.859281692297493
 3.765674761680753,  0.693326415747430, 60.674373962212584,  4.059487378833624
17.727211085686058, 10.192652324523914, 74.356558590406308,  4.263580051459894
15.951485210443092, 14.583110724045016, 11.032612935010293,  4.195911860938118
 2.223884415105562, 18.519586171663633, 85.952917134112141,  3.847881011505561
13.184684027185032,  8.082590812996131, 69.379033220275531,  4.014242220050810
13.628134292826100,  2.515482352434195, 30.205410313779701,  4.084055454439684
 0.053511536871362,  7.184962507810587, 58.648205693470622,  3.633343494312696
 6.789925070847760, 10.306539525088752, 112.005680510030260,  3.820161339085176
 7.796362563271443,  1.699784533163237, 76.439500290793049,  3.797846973747264
11.642860124685246, 18.243709240057360,  5.471176272031159,  3.799339971469475
 7.742075286054894, 16.078462052112741, 66.003651112175916,  3.893636430252009
 0.292062949448286, 16.424260875414411, 107.240164003963713,  3.920951158947835
17.859625320953931,  3.068915248205907, 90.141685829675524,  4.055872394960371
12.946530111788919,  9.331308600333248, 103.415867861363452,  3.801426844002525
 1.093914555390320, 16.363592286781270, 94.150306023715146,  4.198529278294703
 0.908143504510699, 10.259890689774831, 117.552900454620172,  3.943585454981222
10.847182910057718,  9.611415776913189, 42.302869344711844,  3.888187101860164
 9.021994247051792, 13.443339778947122, 30.973432185332726,  4.022136847690669
 6.354377295546223,  6.919935689745729, 114.339087748910728,  4.066100773476021
16.492497972379986,  8.830860198830006, 66.691094050012751,  3.862254643492612
 8.234432477077860,  2.912309270754196, 114.334474028891620,  3.841462933063916
 7.896245573710040,  2.874891353789806, 48.869093236760875,  4.211916816974013
 0.064412644194166, 10.769129674475749, 92.589957888014581,  3.756609035913917
 0.564567276015277, 17.421315754840805, 33.309406253088795,  3.971935897139750
18.435962249797726, 17.310803794060785, 22.937775661059227,  4.156862038066715
10.317991306155401, 12.213281728873515, 97.637869780578129,  4.002642579564313
11.540934298458563,  0.868507162233362, 49.226345019742638,  4.098078819398698
 3.951004858855282,  9.273256777640839, 53.873486892917569,  4.054982403854960
 7.252188574181965,  3.937528165704491, 15.473457686145483,  4.245399888104297
 7.362360031970615, 10.832160254234431, 99.762148624534021,  3.768927897744329
 0.660592466396879,  9.443193832953927,  8.363712023052699,  3.927370899772813
11.135713761098421,  1.617941509810338,  8.475465003529932,  4.065831632343444
 1.305149681735303, 11.898089956286155, 37.492793882020543,  3.822586175148814
 7.363851990185012,  1.518671936017581, 86.199715570711447,  4.260722626398886
 7.091413306935258, 19.114239946656262,  2.048754085340642,  4.034557662620951
13.845830428751926,  5.561420926246079, 49.671666081552040,  3.857748312650175
 4.129102700520482,  3.847546727258534, 43.368608712155336,  3.726135746707720
18.564105367490171,  1.026278236623464, 39.690063463583591,  4.092413366952237
16.459709694648989,  0.759839456887881, 114.191432188030859,  3.841089549023201
 3.628762614938711, 10.375346849509251, 41.578270397846062,  4.374883997300542
17.503835517445602,  9.516216662592194, 78.689751529255560,  3.956628786040806
17.958951246640510,  2.984410882122501, 96.569855621818590,  3.714197671399340
 7.749249362888907, 13.997426792186999, 45.925177548756253,  3.757064096897065
11.413080940086564, 12.185856110863888, 35.670073955733393,  3.993340027896735
17.045820114334020,  5.383083409434599, 32.304861450126346,  4.002100885500532
 7.732348007565294, 12.632922548442572, 78.770179948978154,  4.137502498376498
 5.097363171378902, 10.949271506600748, 76.270129603046598,  3.635595471196282
 6.889542013093295,  8.289066352718015, 90.677855313528255,  3.866046598121400
 1.678323332752313,  6.849478165065122,  2.066107781252272,  4.069317175860263
 7.892057234372239, 16.879812187645808,  5.281695119880556,  3.877087720131636
 4.263531255495379,  2.840114315200012,  2.028631939310036,  3.996800603240652
10.643130752521797,  3.632301407301450, 105.444123340633453,  4.128050304857902
14.600779672828706,  5.195446810453463, 117.400251499272443,  4.043644509284615
 4.409009106832506,  2.280776084427996, 74.132536832377482,  4.442713816124082
 0.925988387548300,  4.566429818646533, 70.749433403818557,  3.804392300703252
 0.858023538982977, 10.909683943794160, 57.297280182225634,  4.416597911546785
 6.533261132850904, 17.802587646729041, 109.046265617292391,  4.193094665429191
 6.148203048794774, 15.171784272085127, 15.614027140163390,  4.132891617969769
13.571701428684941, 12.598487920916366, 114.873755619052176,  4.020579697470136
14.404527744267337, 15.224206771914837, 65.763149893941261,  4.004529167294764
 3.129779472242067, 10.960460036750279, 105.111242338109577,  4.210334395573131
11.139175322307286,  2.123614795272521, 41.508297542662525,  4.300077305515294
 8.228261072297844, 18.688349861374618, 92.800864118633726,  4.112171566747336
12.544433942021964,  5.233493338272957,  2.183869226541944,  4.211843090708571
 8.537798505727700, 15.144658859544087, 62.086301912001503,  4.109130112842439
15.028066540371228,  1.102390821716748,  9.639506557882779,  4.040565814117191
14.065709588220177, 11.184356315474050, 12.794528786750432,  4.092973752237272
14.023643496214023,  6.235528528256368, 111.009646050126321,  4.422281626415018
 3.845711322906565,  2.133419256661392, 83.805825389735091,  3.806537735900699
 3.709878206382201, 18.101501515639580,  8.975172130653194,  3.689895008531406
 3.108726793926018,  7.975977621462846,  5.667373927022690,  3.900719212544637
 6.149663708505391, 15.481584989706750, 42.129095358643269,  4.202259767766409
10.050764089707526, 13.552116257290297, 15.735262137973812,  4.139889489662529
 6.781470255031683,  6.722267902861790, 110.271500124888391,  4.086599925695921
10.545496611691833,  1.210119179050398, 79.325313811102703,  4.230692166527082
10.960481347088217, 16.168875218411500, 46.347046275309907,  3.933587820090922
17.921554223259292, 13.156617913590473, 101.461763141724248,  3.933734381655948
12.436690611984819, 18.568289397451355, 52.856956523052716,  3.841826548555444
14.220365024139403, 17.152481581097661,  2.225784711876134,  4.193859559273720
 5.091550676241374,  5.830444850563483, 76.483688083941928,  3.939349243845695
 2.848519715231779,  4.675509053092246, 60.725239638798811,  4.004522586045847
15.559128604862847,  2.368052281327272, 104.634448089357250,  3.488109566688466
 3.267701129713615, 15.033319030162918, 35.337484650673140,  4.247649869956310
 6.676537699262460, 12.743575694653369, 27.517590783186392,  3.861773984670887
 0.652859095937082,  5.671889942705825,  8.071335908632417,  3.552758105515443
 3.612714423306798,  3.134002001445942, 105.564466651731721,  3.888863044394196
 3.928114587649619,  6.302418811422046, 72.712666592689885,  3.964525738953085
14.517991575651241,  0.643506973003708, 80.437032469623844,  3.965314258430224
 9.660726020277007,  8.187779724427131,  2.109791476799987,  3.865680011484713
 4.867809509638691, 17.535166789469283, 51.529097684103419,  3.886249319046521
 8.738873875425854, 17.312114676800952, 22.760052475292927,  3.577470044573011
 5.063989042863700,  2.145857100029539, 79.039638651339288,  3.782583958028040
16.276006016278139,  3.897361609514490, 63.484245987252706,  3.978598945925218
16.674642949395622, 11.836398451249478, 25.784152116062526,  3.716965048725969
 0.287328053682311, 17.150257891433196, 114.230629329846465,  4.214044771850780
 4.955203138697130,  1.707271504976338, 46.382320531784565,  3.774501106695851
 0.802909761781371,  0.778720298484714,  5.704717763816697,  3.989990322466248
17.946770074002131,  9.876287772656241,  1.806742921497102,  3.568818921450356
14.308807277513203,  7.951730320043729, 73.325758372678095,  4.140409160604819
 2.542480055361743, 15.736990184065171, 24.930632241050063,  3.829317157370159
17.087779336941431, 15.148254917379928, 62.458828781283238,  4.417003834418693
19.100735763139980, 12.544807434200766, 71.198732377746438,  3.721309555799583
 3.744834091235954,  1.332628789726064, 102.335780404024376,  3.502645531496054
18.195662961795094, 18.558292915056409, 110.725728902568918,  3.654065591132544
14.163547756511075,  8.427094354037093, 17.900116064219763,  4.030536519266876
12.740304793345780,  9.332282515758171, 48.698379261079637,  4.197186071644943
 8.481648355933784, 16.848363804288788, 12.731743835737841,  3.894433789250765
17.205472368487424,  4.689738104093553, 114.185692424157892,  4.087783428089730
13.287528536575465,  4.267886781113837, 79.100854819934938,  3.985993416545617
13.275091283482421, 11.980590295933775, 51.605624510739304,  3.716348607634005
 1.528089253425835, 14.782755595426954, 98.138959003664070,  4.145079185541518
 2.777693870580465,  9.134716552536217, 60.816988849291810,  4.288370713756789
17.588163830543678,  5.401779539057078, 85.383527469525887,  3.667938935835565
16.544848755450086, 15.194735528187183, 98.391058918978459,  3.868263953168015
14.167200895195773, 16.659538200850719,  8.000429638775486,  3.954437242090663
 8.025600405447896, 12.924605549328399, 23.362502093197779,  4.066336987395314
10.087811742975937, 12.755121139047480, 49.568727734781532,  3.880322464183893
10.024183564327723,  6.865244041499889, 103.014644721741249,  3.821794061793006
18.849968868399117,  7.061554165743239, 90.545773934375774,  4.145291480984524
 6.477794948218931,  3.085596429457376, 25.031969044516103,  4.084392961892878
14.990087553620514, 16.661293903654549, 55.422109520362973,  4.227903732603503
16.661831233568975, 12.963480918870820, 117.482531349903823,  4.040930852775082
 9.759144641954993,  0.828639206221133, 68.913985162592496,  3.710417465706834
 8.583116594737815,  0.838604532037927, 27.553648544819453,  3.835773947634976
12.058438627333958, 15.768285401647328, 98.162557997886410,  3.889301719104465
18.770839568138168, 18.376410688131543, 97.477698516281890,  4.049207278895612
 5.523610052955248, 13.402222176608577, 48.882385192283927,  3.702536836559723
13.794111227141698,  7.327490928836707, 21.777760361871778,  3.929169327108139
13.340942747764744, 18.843268179637956, 33.331953289098855,  4.102079490267305
13.577592148388906, 15.844159578350686, 43.301424085391808,  3.842586924209580
 7.649612544435902, 16.033308316442497, 104.868889522571962,  4.135363010769356
 1.300316877483502,  7.703008452523422, 86.769356220359612,  4.123302482157500
 8.015497955683434,  6.907309803223857, 37.508727548585931,  4.175342822762622
 7.405233209805894,  0.056397478521077, 16.602268710469687,  3.806512417076008
18.214808455446889, 11.076085603962346, 104.941434642373196,  3.803784681375633
 6.424999718092324,  1.265545183935372, 96.497267534816928,  4.179225296197792
15.981002533389324, 13.286813513493739,  2.040328468439297,  4.075298145668701
13.424785245917969,  3.169540327129387,  5.579894733452153,  3.920566554589654
11.596639257559088,  3.138577849584856, 26.857318325222067,  3.652546967548052
15.616348576747678, 10.959968983982909,  5.506547409854388,  4.139799152021514
 0.437295695490854,  8.719721625411404, 47.305787873731525,  3.775797353879209
 1.642566959636290,  2.531079274172458, 80.536402466555330,  3.697136964604013
 9.320623435796399, 18.953833035536981, 33.326799306758971,  3.877539868806793
10.153407997168271, 16.321105854578242,  2.040698755750496,  4.032496211009275
 5.604065619969756, 12.399635670298451, 60.873525355410941,  4.242533326181771
 7.612476282425257, 10.234665835945282, 39.906834603875204,  4.061772428123210
