BANDS
8 8
NANOPARTICLES
cell(1), 19.116
cell(2), 19.116
cell(3), 119.474
 4.852495382484593, 18.363207804935673, 26.301678988751860,  4.003241407104271
 8.099592228482432,  3.081190386585692, 43.184402411396384,  3.740995136891375
10.838649714671813,  4.086969723353683, 106.754589117205057,  4.033393373868585
16.557017716784998,  5.327937803881186, 37.228989749104542,  3.835026254067056
 3.690557900504830,  5.149243169503468, 37.351108009731782,  4.151675526056128
11.945742337129676,  6.169213396549569, 19.670188045540719,  3.777123594416255
12.551466986002843,  5.356893222307618, 69.655819718738144,  3.925439691547689
 9.333708595082120, 12.131054391979848,  8.676247155484594,  4.120552055208246
16.014598498007828, 17.810257437651355, 48.913229219277895,  4.152539096484730
13.811402222068530,  8.280208939295541,  5.086227897008105,  3.930569346673168
14.212150357936659, 15.019828804973724, 110.946025588308643,  4.280844445387443
 8.871743684999528,  3.994069277919291,  2.039445537980511,  3.987141165272385
17.428763810566252,  7.023960624252972, 79.764585642246388,  3.802600541731535
14.698370217973180,  0.951208175136802, 56.224700679657133,  4.107546595175518
 2.161315604801871, 17.600388816692163, 95.919130333300942,  3.608840514945034
15.035834636626534,  3.650917280567584,  5.513233255850846,  3.757715709965762
15.938337077702672, 18.557805907633995, 109.319827717886682,  4.171202658263890
18.143829555787025, 14.624398998931895, 40.292347314930907,  3.827327761975902
 3.576133446300584,  4.610312200886767, 14.745594233649795,  4.025638753732563
 0.632813869975208,  9.917314838584669, 81.541278273216733,  4.281934996161584
10.807398782633161,  1.351004529735404, 103.862970748942288,  3.894567379824101
17.472650601291711, 15.629207968753715, 103.647107627731529,  3.931743935023183
 5.890797558065345,  2.839906313455529, 86.025999937615495,  3.863526442277838
10.245245170949126, 14.799232699324712, 78.813515509745429,  3.652495257103643
11.664545946354082,  5.258249842005965, 51.451310078479246,  3.975114493183994
 3.988208848471428, 16.767132590457926,  7.507921021846299,  3.907223190123930
10.592393763497155, 10.709486131743422, 26.175793588902799,  3.883910129875837
12.087085613229720, 15.369699017056295, 55.097253288963984,  4.053574487682333
14.755699476716135, 12.215311649428262, 55.803957936603474,  4.264406318476844
12.003875018244756, 11.862414467163125, 16.475113089142223,  3.729927119033451
14.758063273616287,  9.854148487442911, 19.937640957516575,  4.017053237126653
13.250393729663353,  7.893212545142233, 79.713045600799120,  4.534325622875925
 0.354412509555825, 12.911620057629960, 117.410655868558422,  4.101387041058851
18.742581743111309,  1.815907638558946, 31.314309188747377,  3.929128009967347
 5.705675602317237,  6.383911090598395, 43.417949992396736,  4.338166058268172
 5.790198150196589,  6.931112668156374, 34.208165612972898,  4.022081914430730
14.793440775303448, 10.115233235460584, 70.438347540457656,  3.908006873513026
17.794684468806814,  9.634999974044957, 94.964925679524654,  4.010484115214701
 7.802325517576002, 16.978515030347012,  8.738858993489783,  4.109030641404867
 8.050794934422511,  0.462955609086404, 74.370662801377648,  3.946097281985627
 5.516849850329835,  9.746249744922777, 93.162302783889643,  4.285894590034745
 2.156165780344537, 12.483350126253182, 110.764270487034381,  3.791034753800917
 8.984058069225332,  9.972038576963868, 103.382720054063242,  3.592612977437774
12.771296403928812,  3.301318464103557, 93.832688200725244,  3.942981355000035
 5.997231409762811, 15.739935109701168, 114.474852894802012,  3.762887751162936
12.876980439054677, 12.304030802636303, 79.895901471965658,  3.762748240216236
16.766786838875600,  9.794039565219279, 30.436836078913078,  4.039800821453698
 4.438775953789833, 14.869068411852606, 97.598638743090262,  4.250334557038587
16.653953229948879,  1.831951301511725,  2.155044651745228,  4.288238059153242
18.054301139111747,  6.768194340260022, 53.438330837578043,  3.961200567764671
10.193806704191093, 13.939993315456482, 71.931338186580518,  4.159603280447352
11.552876876006334,  8.212050037392629, 33.682511424879159,  4.244416351338018
17.022394010660371, 17.097091276933345, 77.985050840657067,  3.995053621280445
 4.168387909910069, 16.505340445461261, 45.794247261301742,  4.315146938781804
 3.712679809134142, 12.611872074545818, 114.350905784601778,  3.966491419220996
 1.712296859220454, 11.824984194532412, 64.208880631799900,  3.847206704202810
16.510775542040690, 13.922325317117556, 24.038613227854366,  3.844612668325937
 1.393849365679969,  1.197197245224650,  8.561981417740723,  3.743646556511301
15.947027370409494, 16.324942160617276, 55.641384732999278,  3.831391557394275
10.640657151445549, 11.819962702440122, 56.691215613432142,  4.006767080067902
 1.350908498536797, 15.333775701615309, 62.750723601595801,  3.682928489393900
 4.030449133916330,  7.975621494195528, 82.310795586768876,  3.664061841588412
 7.283464626484156,  1.396852429929054, 20.761532314304258,  3.844313889492304
11.681036705986385,  2.895639602803596, 66.243023780929335,  3.830074959642593
17.033124792232819,  2.659661866908960, 26.110286840735149,  3.853704249162575
11.053017285392730, 12.690561657643102, 75.700892379061060,  3.948117764994853
 8.914673947646124, 18.497668144463344, 61.104058378335424,  4.116609936026286
12.877517210019880,  9.517525223511669, 103.562259182803018,  4.252598271483736
12.547830686407526, 15.511151188365597, 49.546506072412143,  4.192401220266658
 1.012585428106863,  5.803037286031454, 43.721019429870125,  4.146708859212157
 9.603962668441541, 10.373854980615540, 93.794511753112161,  4.038518946116123
 1.848503037555369,  7.622056360381971, 50.806416965617743,  4.040321682481368
 3.213937247143108, 17.995210388781604, 54.915495848502829,  3.896323109583820
 3.264150007195868,  4.302272642942814, 99.153217808482879,  4.188964840451892
 7.942849464033242,  2.254322870109683, 51.010816901652291,  4.129151671998666
 0.176105171710997,  3.114563189716276, 64.078410058335535,  4.222038222578806
 4.410756860029453, 10.743597552356558,  5.878930500905355,  3.862044212520353
 6.980376384009332,  1.630221968432602, 54.965432525489597,  4.060272220300659
15.601066686093585, 14.086479283334922, 93.323729107033031,  3.939541024297812
18.324298380347145, 16.921280610609035, 44.075777023512728,  4.080654296378689
 1.452538069587454, 13.747131984723223, 100.281167725548386,  3.999649359065007
 0.306165605453550,  3.775843503534912, 12.163615993320468,  4.204572278423838
 7.010489683300984,  4.650777047927424, 39.780166213489920,  4.060771097218359
13.828819248634503,  2.389097628029265, 18.637715517330822,  3.960520208691387
10.762943484873997,  8.505349627997383, 53.696964031263718,  4.086509253512872
10.901697786745011, 18.771238998317845, 117.331072495978830,  4.207347190332079
15.075311520711848,  0.335739456736161, 21.873175803200304,  4.079325865469514
13.888430469620399,  3.001835089103817, 109.501029501331345,  3.996934953788406
18.412712878507936,  6.662225400258560, 114.088367888925490,  3.826022290664510
 1.854322958063084,  4.030544132713570, 108.530861080471169,  4.110709202007077
11.494396799799061,  7.933265131151290,  8.265567453338502,  3.919429630086812
 4.579862491677049,  1.571645800978871, 17.849373542134465,  4.070802356477659
13.431760224504984,  0.247124503255953, 31.826859669401099,  3.991277911542717
16.358907377639184, 10.761168815245652, 79.403641763062922,  3.907120438032591
16.241590663691131, 13.015206950310995, 100.541171861328849,  4.492894419181558
11.264483618818018, 14.843575777120824, 42.255926585996669,  4.039206481713608
 8.048334997022788, 16.785994750693941, 64.628160976399755,  3.875281197734672
 6.171743903503018, 18.559303119906119, 117.388610120363722,  4.144193190412289
 6.357855611025188, 17.090229255977125, 91.415463060293249,  3.926791022031963
 0.275759695442348,  9.351517480589425, 109.146135808189911,  3.633392435040880
15.351628129692088,  7.033618502455535, 72.793864087627256,  3.901835896465563
 8.513848142254021,  1.086222716827722, 97.688386835924092,  3.736525130445440
16.544065024975133,  2.555270563516963, 70.142449001894619,  4.029917393584975
 5.967446175014739,  9.167165853860094, 79.061034612708596,  4.134161083131561
 4.405502057889993,  9.125239040514456, 37.185955592577272,  3.865071688287105
13.279019929616739, 10.615190840048259,  1.899292307249535,  3.763871427900747
14.763457289632267, 16.560402048902525, 41.154788770762124,  4.047364123711835
 1.376261191936075, 18.500958892153477, 19.234146129017912,  4.155064724586156
17.967304001725871, 10.006054634007773, 34.237356414902976,  3.708809457255488
 8.985213499196773,  2.310963672148411, 94.045270372244943,  3.865322119964050
 3.562396238696938, 15.393739465177383, 117.475187326908767,  3.994623540382850
13.430490736254733,  2.398918447388374, 83.545203352730994,  4.151722807078878
 9.579257216530692, 13.093787928628402, 105.292809454110014,  3.727180625034392
15.825943492856501,  9.168074625308572, 37.469907591615332,  3.851153425715398
 0.948440938781916,  2.279763044217411, 96.381002774300171,  4.061713730578962
17.450710903657097,  0.481227803882810, 103.269019118822627,  3.815838520006160
 6.145915916029887,  3.004699739923253, 24.307303383632988,  4.081232722035848
16.899568496953425, 18.889550986229999, 14.067499439475720,  3.947223705025869
 1.564589248467506,  8.948856658785450, 92.183754896453507,  3.887910195148303
11.151427224623763,  9.657824117312748, 68.673860221032058,  4.107556016788447
 2.178220998269610,  7.437585538442711, 78.383724488773751,  4.271714335919333
16.897415488081393, 14.102988773603764, 61.927797009629110,  3.831415885842107
 6.370267262026073, 15.019432590956635, 15.987189166964558,  3.748990071355040
13.559613448808983,  5.832220773709830, 113.843157685163931,  3.961580392588719
17.154586633576596, 13.424802070176479,  9.321573592682496,  3.977070012241115
16.628824175396023, 13.776113842555411, 113.985845411322742,  3.827420101135508
10.670934803597605,  6.812974140239429, 60.415293076264490,  4.133109597424935
 7.270835462937133,  2.824153737891529, 77.672006937116308,  4.062721595553851
 9.062006310696653,  7.330288428656733, 17.202843135345503,  3.990838877127929
 4.289852039534321,  7.234091541999586, 108.684291146788212,  3.918226403392363
 4.421478521206606,  6.641238637526063, 27.138302023697559,  3.924853620044458
 6.036835551161507, 12.164559399788406, 117.507483794205456,  3.852304342238336
10.215481210421027,  7.890838034664818, 86.721391023962738,  4.080130548285136
16.057323115239388, 13.226144579585640, 37.024361653665956,  4.221627677793763
 5.370280392204947, 15.815581421619081, 101.698922823846758,  4.075314374989033
18.072549013059945, 10.800621399304379, 26.603735251733013,  4.212826580284286
 1.141167041747595,  8.071632550241478, 28.889687280289301,  3.883096344816130
18.730585855804463,  5.681973861382753, 93.471646920258962,  4.110886017932655
18.521057412589784,  9.321958740428146, 18.375960961426376,  4.089505580591317
 2.282780908103804, 15.137011449126216, 21.038707875431239,  3.654137503308043
 8.868583805194543, 12.393240946830160, 22.890493880944760,  4.147873600152857
 1.226044293054673, 10.404377119789869, 45.952592885040438,  3.657236510825137
15.039850934108220,  8.859766244153333, 47.021160038725455,  3.890639495512118
15.064754112864200,  8.144213729619036, 23.430201095624231,  3.653510634624228
10.796049332668828,  6.961261654956290, 100.028422687630183,  3.787558258911046
17.370903234243407,  3.585121640795423, 74.066826213062441,  4.125592177483806
 8.105221491777664,  5.321917135445508, 53.775906329683217,  3.963257810389881
10.775904216625804, 12.200821226197929, 47.719449656068008,  4.140256711482385
 6.002878662082698,  4.139329780832103, 46.899381808949322,  3.939991683056178
18.657035175399034,  2.519822411219053, 115.213358782488655,  3.890525187771503
 8.301394054109041, 18.839210643268448, 16.609889394335749,  4.091651249572740
12.635958973846158,  2.587767639737587,  1.937550778443690,  3.857144401801321
16.837147141006621,  2.728984162859116, 47.313455451940690,  4.319753169547169
11.840622957991918, 10.596722815391882, 99.788418284154361,  3.785573472129735
 1.872211209154540,  8.993306803367185,  8.299159676366198,  3.737404469607738
 8.775153582141179,  3.039011267899524, 63.429057716044682,  4.128098868125363
 8.781956236384421, 14.028558301772554, 67.852925859718098,  4.126121181065344
 2.060356461696684, 12.954681028173940,  8.385432818196085,  4.193775789715817
 5.476101548225363, 16.943444907014118, 19.390951109918124,  4.174371865392319
 5.627637411380143,  7.572316674717492,  7.576301031454842,  3.600636616460579
 6.099888042451305, 18.006740797585067, 52.181473523451089,  3.889684196576053
15.665121850173136,  1.719626438542421, 62.087080695882037,  4.495341674785423
 8.697408206808417, 17.089635098020437, 40.216061004062929,  3.853480178040522
 1.173169073455965,  5.026176840952968, 67.692639914285621,  4.144076291865935
 2.520682764364881,  9.177944727925889, 74.619505447134813,  4.037379287103864
 5.921118507979112, 12.843347317167247, 20.090077210096471,  3.992727073239154
 8.838441014932434,  5.062779246742133,  8.221487077728645,  3.756306672988722
 1.788919007790112,  8.846222003566051, 55.080302831450766,  3.808239519898428
 7.413417320383230, 10.618768911250129, 75.274826210559795,  4.339237435754250
12.082090747781017,  6.636952702789300, 110.017418432141582,  4.142469281075457
18.018101264177737,  7.375546727831053, 75.775971186829224,  4.103420035276637
14.193646743395888,  9.167912145458200, 27.193340881502941,  4.122349651857898
18.809922100045988,  2.105665184555938, 81.819488514642430,  3.740636579074082
 4.981558460087915, 12.049874429105902, 100.465605732328399,  3.813819765177603
 4.951270241192253,  1.818432422502635, 35.527408488254501,  3.846888230435610
 9.197141848945876,  5.140430903733883, 36.139659103316859,  4.345967957022214
10.750745602303493,  5.567045278710147, 11.801236172685284,  4.386936435203121
 8.384777198173856,  7.804773088565924, 56.986588775792619,  4.145296351889891
16.286468058322757, 18.982135525584919,  6.080514004170602,  4.255062552855761
 9.285739748317742, 12.592355217922437, 97.220170032320112,  4.127338724075828
10.709513869222102, 12.743974157444983, 33.300442143536465,  4.035108894949145
 8.191787985747670,  1.408204466172982, 37.538823736174635,  3.796726206946474
12.308077192216455, 14.498752831428694, 99.301033621817425,  4.128499918102301
 1.305640650636410, 18.814800305926656, 79.129443553996666,  3.925618441975894
 7.034950265739854, 17.368364233354040,  4.759999758495819,  4.023002682923695
15.559928821761698, 10.755444945647122, 16.252514801952334,  3.721161903387002
15.225456224886120, 12.219613229063260, 89.850567051924884,  3.855036093155142
 1.182974188566946,  1.476778529644179, 71.762565179870577,  4.355851600714103
11.799131181687356, 10.583771991163884, 40.373844332288286,  3.816415502384400
 5.099420228846991,  0.680193466907559,  9.838846416507081,  3.937813264059281
10.471727931198595, 13.623167267881678, 109.818913227537834,  3.911157961365543
14.267770658611251,  0.333337150986022, 35.744253942591961,  3.660550080587413
13.045718787155790,  8.596256815524747, 57.546531307495556,  4.097005449630839
14.730405464588635,  8.529840727288869, 53.983987568118131,  3.637373379004410
14.465633940939552,  9.817508589759699, 75.780782828178417,  4.440117541974794
 0.086956192964820,  3.557523715015220, 51.050805535985297,  4.281600973677436
12.442567363955481, 10.423074030765504, 30.455982865272183,  3.674182463984916
 9.299055037868031, 16.832022322853788, 103.756425366981176,  3.960909920786743
11.808188499433903,  3.992913209986766, 32.850791113033367,  4.354112860139177
 5.242581335503661, 12.155167723218215, 68.152064992371962,  3.859848339007387
15.950902151819596,  5.440189571078208, 44.239007532531360,  3.989826419216837
11.610178719858812, 18.942143952046990, 42.253168159360357,  4.132246622527030
12.515056688515626,  4.727860570083052, 47.604698396815330,  3.974322761911746
 7.564905060213949,  4.671583956707813, 28.521533443703849,  3.851085345449515
 3.925347745631691,  7.106560526614354, 89.857762686018503,  3.616518887076488
 9.132156027783267,  9.239618654323051, 111.163670403383364,  4.005879656450100
 6.267939697834332, 14.582728442775361, 42.368069457108113,  4.345111056432168
 8.057996831345752, 16.498520104809771, 98.701565438312002,  3.986845952190294
 7.552963681817769, 13.072782062724592, 91.559031560610094,  4.055164101906160
12.708123698349530,  9.058190314969309, 63.045913867856115,  3.890770115230243
 2.268060152369396,  9.034326758643518,  1.993458029653645,  3.960935003137727
 1.866048784544396,  8.458664658667841, 15.020415463197006,  4.313056023124555
 2.029195158336370,  4.828822026747303, 75.124067259172051,  4.037205091592822
11.193212304887105, 11.789499729511240, 90.166865030529067,  4.099237972802378
 5.484869152724283,  6.158878777669442, 76.524335651977310,  3.696226634269966
 3.186322388502814, 10.778925394423599, 85.594208229576154,  4.138845905647170
 5.087282839015981,  0.197860124002178, 79.637778593639169,  3.752249951645129
 7.760006261661919, 14.854912618758869,  1.842156940808720,  3.634364474988470
18.282508569785293, 13.897350132728256, 33.437057060632476,  4.248137684274511
 4.327138317845099,  8.273925408175437, 99.465046097914225,  3.995898049841723
 3.789786610457554,  0.291481473798024, 22.400379061093599,  3.985482324606417
17.486652249644067,  9.012443310455033, 44.167668671539104,  3.626136151822601
 4.540431752799254,  9.774553534387200, 17.821689395030322,  3.747338988064815
 3.413343342965220, 15.564846868069443, 85.666394111087939,  3.791094459947692
 5.734907022536904,  0.021416326470487, 95.002440785615732,  4.268228051064645
 3.524816523455578,  8.994979184228491, 66.382360173748978,  4.115171645397889
18.216484813402584, 13.291577643222283, 19.296336128323055,  4.011474037902531
11.875923185491317, 17.100044448497027, 66.673799458537232,  4.319654129510154
 7.527668672829799,  4.136754842063094, 15.345781247310146,  3.831931144326486
14.454629721218188,  1.233603740802994, 39.535055195925864,  4.131426944189353
19.068978174151550, 17.188288148262203, 99.045501693795089,  3.865302594644782
17.876562551011961, 18.703373307032667, 52.838710802032288,  3.970934336325878
 5.159390082799332, 14.507430843722540, 10.557010704120993,  3.986421928428713
 8.526010137387864,  5.122634554061673, 66.972551450022920,  4.001119939082423
13.906062489339446,  5.094129498976182, 98.440503285069042,  4.084299175784960
17.671877094719179, 16.845654772306940,  2.054786370380763,  4.066173163487350
18.216386046039268, 18.313400275006323, 64.340936705197365,  3.838826249548871
 2.586252166745845, 16.066035767468158, 58.696114314157576,  3.987700920787091
14.217990379314868,  5.332718305324683, 76.324615356795277,  4.139778191485680
10.741985063696696, 15.832776324787982,  6.122025233129036,  4.066806531809707
 9.020213100609752,  6.873333811617652, 70.613363338774789,  3.880165105363889
 2.558865341450831, 15.970458733581754, 90.025317960345760,  4.141066750386683
18.365438991824934, 16.690633259721317, 36.809399105313844,  4.104399677145301
14.491537953720975,  1.937902779633267, 113.836907250542552,  3.984938275423795
17.848739143318166, 17.537951869167987, 70.384192267067817,  3.919379595256213
18.662728025577152,  7.130116804241608, 47.380811121601582,  4.157394555810235
12.448429403290756,  3.684361550380522, 117.323777722699532,  4.291145643265578
11.099200633701264,  1.468445900432910, 21.925716952839103,  4.127433305121794
 6.581111987702449,  7.783055190833989,  2.285511898297978,  4.495738172845757
11.720253668014424, 18.752430877504132, 73.075810216434945,  3.890672898379955
 6.550975485652758,  5.788839227815114, 61.298625751797466,  4.123546067615162
16.753974751054852,  8.579048514546054, 91.077813098935550,  4.301442627195157
17.499179741614519,  3.537073380177180, 111.408820044373257,  4.218671835333938
17.212674899231036,  5.527756909761488, 107.578752896537367,  4.185163412272209
15.328634980300309,  3.171784810155340, 29.734719357555004,  3.811033964322919
10.055104241494789,  9.235933456916955, 13.832672035540329,  4.000988383124890
 3.310289901881293,  6.887794531767956, 11.345629800561266,  4.157208491471283
 3.794407657387415, 15.253447356976148, 50.136916318771462,  4.371405067483895
 8.958542377447902,  0.437105163626069, 88.720393677992035,  4.290211578589466
 5.836493571998753,  7.568193020628850, 72.870914148265427,  3.963991984549815
11.233258971007137, 14.280040574494317, 82.794170902670345,  3.983255232593482
 2.237289592644835,  4.172662380372541, 24.662140430530137,  4.102837538046296
12.411651627552267, 13.063992630264792, 114.266148510055189,  4.104313801091254
17.668327281905608, 15.274602773410097, 89.796939090141677,  3.940072893752534
14.360589532613377, 16.072773218395294, 45.224929440479968,  4.146944780429343
11.420386425473822,  8.786590662094616, 45.566412601344794,  3.890077482318358
17.166351074607093, 11.450203712044637, 86.098639062088893,  3.899505375833585
 9.449017677790042, 16.442342315152910, 85.927304337311938,  4.080369284812201
 4.367064119609732,  5.585393465598137, 102.924833228669272,  4.060097962308291
 0.172608429204011,  5.865656236076304, 88.976203376215039,  4.153732503038219
 7.414977371495914,  3.339997176279294, 32.493021505871802,  4.523995850168975
15.995347671858122, 17.850123081731468, 18.033771143760116,  4.389618841445351
13.584681903058618,  5.706184618598367, 102.275049697718956,  3.700897925681135
15.219858767808626,  5.079668791631991, 12.063251543403736,  4.151430117693736
15.411779410418642,  1.138310937415548, 43.552484154061823,  4.089235726480222
14.127777239548708,  5.061524683478654, 40.730757458430766,  3.882541744608110
 5.134355116729567, 11.955142564370925,  2.085021414188474,  4.156034347323928
 4.199262036133388,  2.205548837681938, 67.963365666577815,  4.015981179519815
10.226638963155683, 17.851432325939243, 52.000304488723359,  3.899666942605623
 0.840388915460249, 18.620946280639519, 117.436872941112654,  4.013790944890398
 0.430571479186186, 11.362255924484636, 60.573523127785755,  3.751289209269559
15.424070119377415,  1.330427097516008, 66.396531582558879,  4.114368477476734
12.998602885860311,  3.734028524278487, 36.753599957177364,  3.786902642867470
 2.322465040741158, 13.674170006304772, 104.128442177777558,  3.885399834736947
 7.659466367512174, 15.493194456988256, 94.793739654582424,  3.979643281348096
 2.831132316331848, 11.495356630273777, 52.110046027495194,  4.329113007990699
11.869580052043704, 10.278709117848420, 83.136743059045472,  4.065865603380194
 0.785172621939883,  4.150922012522378, 34.637672766862416,  4.045597099094863
 2.626425874653181, 17.085307600818595, 73.256274569774916,  3.789744879545598
17.443208146032589, 15.310679111039308, 12.705553524735109,  3.770723947724998
 4.687136254093125,  0.686964189681907, 48.226102124226855,  3.862049610114654
11.444934274770493, 18.755032524990654,  9.398473441945198,  4.064242901616819
 0.026004757646005,  2.987269649034599,  5.365546101643140,  4.044875402664807
17.748756213830575,  1.548873855861316, 36.978877197131816,  3.913110017041364
11.458388069166080, 18.408655149849444, 37.900618707157903,  3.601330586096473
 2.821899239969452, 11.410347417860216, 78.068386208367471,  3.650535563854596
 8.325012708410982,  2.920842476734051, 117.423699912840291,  3.931830339280430
17.399090730463548,  6.857734329492020,  5.279550480056642,  3.787799135337896
15.914923650440373,  7.207287693476825, 111.005867993121214,  3.799651006225639
11.216569877668334, 18.236713792711686, 100.537564828253295,  4.028609591266951
11.591856714823912, 12.061289330629476,  5.289958842543844,  3.766399611778386
 1.218394364648700, 12.007047709345153, 30.098683828921224,  4.342731963464207
 9.156733238050171, 17.418858447040623, 109.354893338170299,  4.065474807842189
 1.696793690398859,  8.344546500220213, 24.381207791270246,  4.301145452929227
 9.039831337992219, 11.339449257799519, 43.321531392868970,  4.396901196610506
 9.586807066867102,  5.721101303296710, 113.150630797976362,  4.049801352113768
13.602418493087113,  6.753498500634223, 106.358283498044401,  3.644413348919622
11.191043102359657, 15.575406275450675, 62.423760978108483,  3.684039387292315
17.413039010962677,  6.700269412268014, 26.254188713167355,  4.104267469655720
 2.643418162656732, 15.370821902631059, 39.030514035599019,  3.947982702931536
 2.472686435885993, 17.403904969914066, 69.451602482837387,  3.792622082359012
12.448473371042242,  3.753200025223552, 15.192195125537221,  3.907024967627500
 1.052885701981582, 17.739592476417254,  5.123340994574642,  3.878874167679886
 6.079810281043974,  6.998802266909135, 112.012132847107210,  3.635155551830938
 1.857019877453291,  0.143878567465494, 61.480526048017381,  4.322146211263191
12.516640017716043,  1.354367368061508, 97.387858008776121,  4.081944903998394
15.872889811497757,  8.606877911030972, 99.860349002407048,  4.205140145304431
12.850872955297653,  7.428803841298723, 90.002196100811034,  4.004234230165084
 0.498637510263404, 16.935150840426381, 30.717887522866224,  3.846683001343710
 2.350418459915371,  0.889253541647409, 38.444833768937819,  4.145001214131922
16.465951910311770,  1.638303695802984, 98.323280641404295,  4.005863394866783
 0.536902327054490,  5.261806072264919, 17.291991525718931,  3.939914569666364
17.290255818162635, 15.587575011531143, 85.751382807285651,  4.202329173254975
 4.361039894891039, 11.865522858097382, 81.745338441296340,  4.102538119630161
15.382338564655909, 11.882976390374949, 40.909698666253163,  3.869114979785069
13.405509880262397, 12.118244966043648, 44.443112030462324,  4.121860573568823
 9.953314563143776, 15.386631409980417, 89.596957008501519,  3.577561631785886
 6.352920465771745, 10.628291173970586, 88.376402841408321,  4.295565522884525
 3.806201164935750, 11.874169986701208, 40.202848272914977,  3.719070085725165
16.820519622502307, 17.926917590057712, 33.318152230534039,  3.909315987780687
 9.746847722784308,  1.377458712691177, 12.930824494255715,  4.456493553763648
18.045459420335302,  5.940280380111192, 31.454056490976601,  4.002171546650563
 8.476413380860922, 18.159175531894384, 78.178858666713182,  3.907210837105156
10.157831918204387,  6.923595046785405, 41.870114143910385,  4.661749847812079
 3.117496948879150,  0.192544246799321, 114.061364520778142,  4.144955169461245
11.984885101005233,  6.751899105957105, 66.095629606435494,  3.805207399415925
12.445864616770949,  3.959851489324524, 87.298789691230709,  4.059992179057855
17.314927053504405, 13.039663597900985, 44.093516442967605,  3.930235385693362
10.316073897774102,  8.780643413213390, 106.909817201652402,  4.154751824432297
 0.208970355425021, 13.169359769580010,  2.002606148299336,  3.978308784197198
 4.019408229681439, 16.950664944247681,  1.953167388365645,  3.863237011278504
 8.182768171100363, 12.570755617551903, 113.984264349396867,  3.928751755561489
 7.126565185874284, 15.816752342888529, 28.812117163371127,  4.003238602319804
12.715409407959076,  0.168389345102776, 59.585474663981167,  3.776494125552621
 0.045797994383314,  0.314926578394824, 75.528170693043833,  3.785009940198540
13.980755693484674,  6.795097721966475, 30.566454187868835,  4.079795674347181
 0.246269924062124,  5.390212432411061,  2.069515813665643,  4.108484250551580
 9.473155275189852,  3.064400443264369, 58.989467353592580,  4.224762564294100
 4.617948492651198,  8.488982648056458, 30.637946839042538,  3.893181276544552
10.897257200605239,  6.642734420324560, 93.315411403541859,  3.784780226943547
 2.027268696620940, 14.063183708450806, 43.027979842961443,  4.191447199618079
11.372664055295248,  8.797605687219876, 49.770173602206874,  3.859642726380671
15.615028493821891, 18.963973531227140, 73.234645917300853,  3.838828366541821
 9.060990522734601,  0.111344582209141, 25.474762478233128,  4.455748884940242
11.928227677243557,  0.444890523471421, 63.369697959813500,  3.638882580047669
16.163389003238507, 11.687294646429416, 104.541981546991934,  3.830470095228072
16.668746272499700,  2.798410843686924,  9.030792410779704,  3.922907698371101
11.146454087699048,  7.836399488028343, 23.296300652424470,  4.162211151839361
14.333038154612268, 11.774986065258972, 96.611899491651315,  4.433727323001214
14.067489122032100, 16.980017647324072, 83.644732483919753,  3.978942560703017
13.290164718258524,  1.148965006332757, 25.553932390786233,  4.249511966971661
 6.787932350088164, 15.284232731632086, 106.868631091848130,  4.006392305049824
 1.503544637178718,  0.105970480647203, 34.435473327438849,  4.112972290135293
13.909946184457247, 18.061436020478421,  1.915597603032428,  3.685096728958382
17.391814271061353, 18.474748308919551, 113.175852503245437,  3.865230171321773
 2.708341003175597, 18.037275978030582, 42.044082741206957,  4.075752535866400
12.120354703642867,  3.583804632091802, 43.784673752260964,  3.957622557141264
10.217770677048193, 11.412012149188062, 65.091960493566262,  3.916955122672125
 4.629967153018240,  3.757205127189332, 72.310276940191002,  3.913627105076724
16.652352101894994,  6.229863087261480, 57.133549311895607,  4.010147076751591
 0.954218655129566,  3.458019020336820, 85.483762607238432,  4.402120563322272
13.432807407657265, 10.344354870223906, 86.887274181197000,  4.017518946488742
 3.110170629571900,  9.593823178438878, 70.519901429737430,  4.266352818609302
 0.976181467851089, 13.415627631954077, 87.492933138569086,  3.659062861454095
13.183655251558163, 13.260552325353848, 67.948245313906725,  4.181752544874960
 8.471627999625785,  1.467048275672703,  6.871427515365130,  3.946876553508650
12.402463128984719,  4.089303218634084, 62.582561351236862,  3.590332429369933
16.728868274572424,  7.665429554502707, 103.932877140195203,  4.322423645860258
 0.166404169846202,  7.354592157768351, 60.181177541839368,  4.314615191938567
13.071356931483784, 10.597039217692990, 110.901288930726039,  4.194643116784857
 4.293011513054036,  4.264422309384774, 50.631318154908456,  4.213901477605680
 4.970888674341042, 10.743021973496543, 23.540095937335430,  3.982852593976868
13.149391552488808, 15.965078995248225, 23.303560026570764,  4.126638045718830
13.643668477790905, 16.579173640211870, 12.438584232981544,  3.695130625472590
18.163678568275643, 18.593063018874258, 40.381546651719397,  3.989665808558518
 9.848526844329157,  3.023900256187391, 18.286878716135547,  3.923559374569806
 8.692231658991414, 15.182685971261893, 117.367120653218237,  4.184918104181666
 0.890372149316297,  7.047711298878653, 101.299813549920302,  4.135845181495324
14.252354813701785, 13.329821432429288, 73.144288324198854,  4.315498145517376
 2.279289436242921, 11.248395896933358, 20.614695243692175,  3.984386579408314
16.966472045209056,  9.812182276259879, 63.148499988638591,  3.861524004534768
 5.298534277470414, 18.510032075356467, 108.979180288945585,  3.966955758519381
 7.105051910852699, 14.279002028878070, 33.213613004335897,  3.723270086788967
 4.598799148626416, 11.641565164078251, 14.343825701804093,  3.871622107327250
16.453464903447031,  6.570330788567453, 68.803098955219241,  4.402785752811287
13.540773137532566, 11.517583144598769,  8.847024140830371,  4.189106604029413
18.360908335204389, 13.377003407589450, 96.702641216141288,  4.232859429176791
15.014305065323210, 10.324040860851683, 50.660933288374395,  3.897791855951437
 5.280747912266105,  6.365710442292206, 117.510733631296944,  3.908128218794582
 0.486226368103108, 10.804712785216092,  5.197713655593640,  3.847143332510463
10.371193755736734, 18.321249877284991, 82.486956527944244,  3.966213719241368
 3.021359299790895,  1.644644251756776, 57.758450141428092,  3.981292804784896
16.489419379717148, 18.599020003636230, 29.094053369270078,  3.901325464903959
 9.560703572270615, 15.297970580575177, 58.616685933709242,  4.081208424344945
18.982503035980098, 15.851459788906819, 50.558317004514123,  3.559658348900229
18.394093315796091, 10.176138304166322, 72.038422883907913,  3.933797623818626
15.460479823409942, 11.780297477963375,  5.157061426238061,  3.798291357584624
 2.347234726630965,  4.100925702822931, 112.754905185125423,  4.193924614025135
 3.729112472503147,  7.553614790538582, 47.091249493033395,  4.252236007767928
18.147090537291067, 14.954062205536431, 27.607964701164903,  4.062151273265986
 3.228812335893379,  3.714214723636410, 93.279141804008617,  4.122682253977436
 8.693079114932004,  9.456620175220449, 36.755353117819524,  4.372848874947675
 1.334311550859932,  6.179033641532586, 117.442330519945884,  3.921529952789929
15.711138094080743, 14.229746731225585, 52.134179074472804,  4.323415068191447
15.824274931288993, 13.245910133787421, 47.964276220989397,  4.210748200902419
16.435370561818974,  3.361991361752733, 15.707897428762713,  3.991213279058934
 9.960268276856807, 11.226908095801948, 117.382544917464259,  4.108656493110983
 1.941446109310207,  7.872708822311980, 33.451176022258721,  3.905457497910128
 1.807160051333917,  5.345525660850228, 56.844368580822461,  3.892972902583182
16.454074018997410,  5.190588190324557, 117.350643180292408,  4.218749973488536
 8.307243314474450, 12.111171389588831, 81.340406493315854,  3.759770399031217
 6.989671623745036,  5.767174723056267, 92.603496687901298,  4.199771652794036
 5.384335210472114, 15.088274147832220, 23.572464793082869,  4.328580168729943
 5.827765991854417, 16.399911046744446, 75.472110614047622,  4.066191177426705
 1.028169699339677,  0.434780068793125, 27.542240932510708,  3.815599926855658
 2.040473119926638,  7.241098738266369, 20.419651565713160,  3.678609156088781
 8.092476355842374, 12.210677428923018, 53.928862672149044,  3.537919345345229
10.294671320001649,  0.405497248390111, 34.285419566903478,  3.942877254723902
11.753556211017260,  2.023402279008313, 53.718648697760365,  3.884591186917640
15.260018582510950, 15.044192419239824, 30.691372314361875,  4.216117631905353
14.686480104942806,  9.711968049293755, 66.458047513174051,  4.068100801726703
18.769992085415520, 17.118675814880305, 106.901886900898262,  3.643646657576710
 5.249760064742531,  3.666882790867053, 106.346635437084899,  3.975360604722517
 6.517403910263104,  7.864169710090828, 105.470727783027144,  3.981845830455773
 5.928604723774914, 14.688477153306701, 71.426684499132890,  4.524159605308575
14.116776819001680, 18.483289807167470, 93.946092545414700,  4.131350113287732
 9.361519673939071, 17.540549550573985, 70.059286130748930,  3.993003553693174
14.033225035001568,  8.500924958316718, 42.699389781450499,  3.858247357212041
 5.498696379519397, 10.634927944428517, 111.526089517685605,  3.763393742859934
 5.837798394430223, 17.225078326645367, 37.186189811136337,  4.308707598897562
18.037324740606206, 10.098768604355930, 57.265089091049518,  3.781055214509211
 1.179878523075546,  5.572045846261234, 81.810625527688259,  3.782896168073908
18.952013384782635, 15.875191821883261, 16.189939662596345,  3.618710751167142
15.443669602337025,  9.583037711985265, 114.189200627233816,  4.153118426308318
 1.775191651382321, 17.574853478236818, 102.627192207783509,  4.093737333817034
 7.485116535412420,  8.896036810175763, 67.472671565554720,  3.737212738986619
16.752402194149433, 16.040188109362681, 117.340436483808332,  4.100636436017044
14.026016445532440, 17.885900917235858, 52.654013717368983,  3.630128458918238
 2.799968305831913,  7.855454479104695, 40.608841142420133,  4.097209945094320
 2.348128503661969, 11.207889314244339, 95.226630308297274,  3.783575426278676
10.371172149294269, 15.827206996570819, 45.986932189810581,  3.860635085413975
11.764357506166494, 12.322168182634940, 52.251587892386063,  4.290353147019027
 2.977992724409973, 14.273277661489280,  4.640043233898301,  3.953100902407157
17.151254434254884,  9.589598416446512,  8.069152467421340,  3.983885121111232
13.875665669157877, 15.263544747528202, 59.199065584306332,  4.534585065731044
 4.116833911542117,  1.123860582863359, 75.441366906367364,  4.296749729212059
13.479003265126046, 17.096023633211086, 76.159718628465370,  3.933983919908422
 7.760716602142362,  2.010573603085889, 81.571063721457691,  3.766676433188807
 2.809718552629152,  4.227535552115842, 61.152797317206620,  3.905884447394842
 0.501702012406965, 14.906643388892615, 54.348877608463297,  4.342549301578539
 4.885816792653322, 18.734928328428968, 88.106405147376279,  4.020248716629156
 0.272537517110186,  7.729752153841419, 85.200724693307350,  4.224213087246901
17.163013337507053,  4.117954488809307, 101.622176870459853,  3.909247509901704
 0.711537312021254,  1.569543610032227, 100.505687693285736,  3.724330975024465
 4.097047262829169,  4.298765865829544,  1.969577671852604,  3.856846813955042
 7.152642261363630, 13.562018953836093, 46.362116347731025,  4.021799003136060
 7.836839181081323, 13.717808166223840, 62.108310878737804,  3.979046292646276
16.661275425339852,  4.994740629725116, 83.535028478916473,  3.937861918329425
12.914053069035075,  6.388429706392334, 83.957530422676328,  3.852151151176701
 6.961129234305289,  8.953253665821959, 20.676687983332386,  3.846851818077894
11.489572110976866, 10.121928094362111, 72.695361704077712,  4.002318531886691
 1.416828169351228, 18.501995214950675, 12.187790998747801,  4.144260077867521
18.978105184135249, 18.557658803924770, 56.700961340432805,  3.767134994553250
 2.583498167342680,  0.358725908787952, 106.176922123292641,  4.005937316886865
 5.657111075891576,  0.034415872602760, 71.107478254720832,  4.155034166714747
 7.917745408596776,  5.639276709809608, 84.388053376478368,  3.775348207802196
 7.520031220812483, 16.848956758117389, 12.773666433395690,  3.924395282123760
 9.574645194836043,  2.380119414497363, 110.188404847672743,  3.977073554685079
 0.334073711130793,  1.716962041681637, 43.895442348922856,  4.054034095088354
11.245872634677477,  4.720777830893608,  5.185683834306984,  4.006223214346353
13.375782828091369, 14.499298893311483, 86.914934285319788,  4.191911584792837
15.222687676416747, 12.234234423078398, 117.379729770522559,  4.092409443483388
18.149458926964705,  1.721780152568808, 106.950200659456954,  3.732672361910976
 0.335999250621349, 16.636781441180737,  8.794109666594403,  3.778091104428192
15.580655868689272,  6.189311555279015, 50.141117866551610,  4.317484250226473
 6.058073382376083,  0.840976587738364, 40.743035618035854,  3.968671084093090
 4.239021703508493,  6.637107623762529, 85.994523513173789,  4.154222753570836
 4.067505315946880, 12.789165424027416, 74.893112171632254,  3.647781433810180
 8.138068877836378,  8.562062758999993, 10.350163074257052,  4.062803642207531
11.036896688838770,  2.179220999035242, 29.023821016064581,  4.207327916520900
 6.937906481612027, 12.512747250452151, 26.557151851703779,  3.982909735908114
17.694519025101705,  2.402554993118074, 19.342693323933219,  3.863902590575865
 1.461742651618257, 16.837532082738758, 24.465493779100633,  4.049446049585211
15.930943973301094,  3.315999560552717, 33.818685662337977,  4.159354105634953
17.873755130282426, 15.608909111756878, 74.129284843411540,  4.433732767685314
 8.211565450484288,  1.013584615906659, 67.041895115396443,  4.213812567385859
17.828762863578604, 16.535315573478616, 21.513023706283704,  3.875792397346756
 7.174686175707301,  5.505530568474968, 99.968343879482291,  3.987649280732864
11.684140060797580,  1.595163917206634, 49.913193424926860,  3.705863233880739
12.570846648427132, 17.242424790247561, 28.396854886259092,  4.073806687504402
16.085654391583393, 16.555480198328162, 67.034950388148729,  3.869193699063859
17.936639355419487, 10.894914637292850, 53.411909195146833,  4.053932665491772
12.505624730697516, 11.189119359673251, 36.551964495442853,  4.011404827566389
15.721295405813200,  6.948699615662553, 87.075629282345744,  4.117081526103608
 2.182908739662912,  3.443627931071391, 20.426487610204333,  3.894801185388335
 8.973105524056823, 16.729154335314259, 21.858406464369629,  4.250609050118637
 1.724554632547725, 13.439454413821068, 71.721610398339621,  4.245181192776180
 9.359755061176239,  7.631771901945093, 81.394686900604412,  3.955612704999181
 6.023626259843536, 12.424195086012872, 104.332158944005599,  3.751134694749060
19.001137624377410, 12.195319608959419, 15.463191165514740,  3.877608435629581
15.214039104777758,  5.820204562218748,  2.123999584564362,  4.141411606440188
 4.087801793116674,  1.681553890474103, 102.730377734396527,  3.662904470853629
 7.127258544655830,  0.119120688996223, 112.661232049340327,  4.296445022358101
 4.695549620317436, 10.589036968136870, 10.551146367944671,  3.890575329961774
 0.206616868891681,  2.622579625712425, 91.120791644315915,  3.603402980317240
 9.632974523290251,  2.186108722103465, 84.995114840197871,  3.940853478704241
 0.841434986842919, 15.793908517901274, 114.590389384289935,  3.974840891379209
 7.355569436611468, 13.273837150237872,  5.313832040716275,  3.958827719778657
 6.723946600433362, 10.049428349186657, 51.004432784036915,  4.222632671199107
15.618661307511074,  0.289284194363335, 81.001923724148284,  3.756617536666190
15.149986907058707, 13.704447071445673, 77.135086342611203,  3.870771334773322
10.043332529762184, 18.661154822951815,  2.108199984014754,  4.126777219241241
 9.998379884683366,  4.334855128193410, 25.275282627907622,  4.166328091566765
16.287709668974941, 18.171889238883107, 10.216459300396703,  3.779379252863568
14.665689617803130, 16.969723034618113, 63.408435762474511,  3.873453239512327
 2.704550890657099, 19.044523253138383, 92.419295624078757,  3.614107011952781
11.708486560139340, 14.685711362642440,  2.195902224759994,  4.293990923494255
17.877596807718415,  9.209643759979571, 117.441202221134304,  3.946723436024306
11.550301403345777, 14.019679041621776, 93.495699966878604,  3.807896045680909
18.451576913445617, 15.435404605993067, 110.651956569372913,  4.255744357588217
15.794606345810934,  0.959959727298007, 117.469729047767345,  3.963142946679154
13.433022223223759, 10.020846170734679, 92.940430631494891,  3.825994294423387
10.548663007691633, 15.269087263030549, 10.923597428576560,  3.671151788040975
10.689281332879144, 10.166647129303319, 19.820660880720510,  4.143446340962996
 4.787636578072107, 14.350588403385958, 64.805862525628143,  4.180348156330419
 3.897577263932312,  4.177162406822710,  8.338101526398455,  4.017387856124817
17.257292169913242, 12.909912743509352, 65.729961402036139,  4.115615926737294
12.514984786306483, 14.661514902501533, 38.471584165762422,  3.909990066955962
10.559698826552903, 15.350631171776705, 15.063046685109711,  4.239598231507673
15.231184292513721,  7.237457632707913, 60.649802401511565,  3.805449052642036
 0.835036148621928, 18.712804535112426, 47.465600147305068,  4.243375499916259
10.749854434007601,  3.089996776677480, 39.960541228314803,  3.975995693762453
 0.016372199249267, 13.480579915963967, 79.577643547262923,  3.793296686588366
 5.447551511400367,  9.828993846970219, 54.791821203059463,  3.778196571114398
 3.517285310325500,  0.442654418712391, 30.810802584208940,  3.964760940442058
13.820733817666145, 16.455227205843741, 70.491302187087285,  3.921352607611218
 7.244774565043775,  0.677461705771538, 29.220192125742177,  3.916542844315225
16.979622906169389,  7.290905953017957, 15.067670957979782,  3.991521291474896
18.569346292135034,  3.507192797804149, 78.086387043612078,  4.225374174176456
 5.053398146591369,  6.121883341039386, 68.996575333115345,  4.211019104484589
 7.483726347879383,  0.410024376047912, 101.441577435613283,  3.942157852720881
 9.276764657258687,  2.482642551130280, 70.895916521120157,  4.242357103034817
 2.343292322066604,  0.103334580957227, 51.276998444985431,  3.913217779310586
14.861132390541218,  6.693013714217228, 94.715643674050824,  4.208165934534896
 0.935896172116274,  0.270538440906021, 110.206820173843852,  4.265439521725485
 7.439285661828678, 10.398026598204559, 32.798928729384350,  4.067807641329455
17.466630030392640, 18.612234349918715, 91.742071287502839,  3.770996181488976
 0.161703831893095, 10.815655654528140, 113.864157167340906,  3.915386293953340
13.576506062292115,  4.003419440388054, 58.898174908942707,  4.100851328564222
 4.006508471657231, 12.997949289682294, 60.953887604621286,  4.114941398221589
 0.484668966025881,  7.738217624370402, 37.091889111983392,  3.924633588738467
17.933757102854614, 13.988750975350184, 58.119919549840191,  4.035541434200133
 6.488894657406798,  9.193828215688773, 115.057127205821288,  3.898907401121438
 3.535580295358993, 11.534912663975746, 33.596628479843282,  4.038634641810423
15.867660851126004, 18.296570470902580, 88.264642694933528,  3.691594935883312
 6.419780831556403, 14.868722320551285, 88.093397522153339,  3.997048664974388
 1.712488672279730, 14.008873371234998, 67.568102593560440,  4.109290829304395
 2.831052013635094,  2.787669759136664, 54.048666668326717,  3.784249978410847
11.005966041270549,  2.660029476856790, 75.893219490277104,  4.018273387065230
13.094576859921135, 13.975841224849148, 103.317967428390119,  4.117484228613177
 6.161129164986323,  7.799814505404941, 14.319597769923938,  4.199774011037771
18.239771456257905,  5.494239009724359, 22.322206973114177,  4.110169217724172
 8.041085362283308, 11.396120094449506, 16.752438332501594,  4.254084729691994
 1.006273414700653,  1.551394673022544, 15.698411611066780,  4.098453491375060
15.539675607976630,  4.620797683674485, 91.306610853218174,  3.876477291491129
12.201062689134675,  7.424629981913944, 38.030923582253031,  4.082436426835351
13.855014290555735,  1.308931984214497, 12.137984656029962,  3.867462688949942
 7.665677229271282,  9.812853081611006, 60.598413038871946,  4.230438260475913
 5.713047946174324,  4.677875373439296, 57.377752594708859,  4.082549900386019
14.558301643587745,  4.736975349742246, 54.111108591316494,  3.915523788465969
 6.679083985769600, 14.466300326348840, 110.805840122352166,  4.034348970159051
 5.555320504946528,  3.174311820542323, 110.307509670463446,  4.017402618799570
 4.230564009885714,  5.218672903413178, 64.877108464375866,  4.106430695508837
 0.678605434796346,  4.222852229611346, 28.353709813494639,  3.892668425087966
 5.874384720796969,  1.913838179958289, 60.477683760046112,  3.886613095492308
 9.119000157130682,  8.430900306470233, 90.448777657204246,  3.752154872846747
16.991310002041256, 13.588439714674017, 69.837135020440570,  4.202715205538745
 3.395969375643290,  3.727029478996921, 41.236551629879294,  3.893469264370435
 5.313410480774433,  5.762809982150168, 18.470090028082545,  4.481439738893530
10.234912267788946,  3.875165163043047, 90.676684087011694,  3.934517215937145
 3.376819787575620, 14.651549988684668, 27.447050126784813,  4.276602766254654
 4.223354843298362,  2.799228691057484, 27.803680145134678,  3.800530425779302
 9.276340917964259, 11.196532333020782,  2.119298572273688,  4.208866503237351
16.528335208226224,  2.589574528982517, 94.450084201383760,  3.727524835161965
 2.437627192233571,  8.151294328727316, 112.046686329898193,  3.971627758722756
 6.293036928881468,  0.992164086520846,  1.984141759054360,  3.910839584667627
 4.160746710396942,  8.298558443891324, 58.130438906640848,  3.886669469803913
 1.128822584362353, 11.945961579917926, 37.102826627640063,  4.472051219036845
 8.263199486577259, 18.143538575915937, 48.434111888618276,  4.022155552739560
 4.107773181025173, 15.687891285143365, 31.298015615851448,  3.801364996451922
15.922272785898256,  9.374108933262239, 107.699731749742170,  3.834994199226694
 5.874101182387747, 18.258729871778669, 104.665577087382857,  3.596122476222011
 0.923233422629751, 13.461842393967380, 83.590415573393358,  3.922980428065657
15.266976819168063,  1.456494645441399, 76.741081210125657,  3.896876810759753
 0.107508715734127, 10.975073735284315, 41.102252876525348,  3.940111370291250
13.866756239554753, 15.585443656024774,  8.669573704439538,  3.924498523612107
13.617834610680154,  8.866160099436133, 11.995628107468772,  4.032514583672214
 0.221129210664473,  5.580632878240001,  8.299283469772535,  3.737022577139210
 0.243307988997753,  0.989644802598730, 67.685048238075751,  4.027622643486767
13.053622986892382,  7.666891030072697, 16.142902074970902,  4.178891045000105
 1.680253457223484,  1.108679843908856,  2.048976027357706,  4.071614271591415
 9.798416556917612, 16.285852070727049, 75.157918327436676,  3.599584908027701
 8.072410867590053,  6.255567134821471, 49.727080793029671,  4.222202299820434
 3.436158233396171, 15.985579409331214, 81.306292543255623,  4.364121976362714
 2.787892159958685,  6.512845821705251,  5.156088386696850,  4.153447122073421
 3.348294489664724, 10.991065203115866, 107.157966483490227,  4.364138665697152
13.328179880464461,  1.275493316893890, 90.372359835504156,  4.105715528672031
14.643295936620843,  3.057656363126775, 105.175665964616996,  4.372954370876077
18.799152550651037, 10.792526294385224, 49.454656564868920,  4.016682699631426
10.679452671681014,  7.230162261444850, 28.155038765029822,  4.095544114516413
12.668428523686151, 15.207953700146405, 117.571226690857770,  3.733386795304549
 9.236735784521077,  5.743692907679848, 45.744303930223062,  3.597482718280271
 6.492014546126139, 10.806052993112841, 64.367207602409451,  3.725990150322307
 2.048375802773809, 15.557671240642447, 76.920156389680145,  4.059055275339171
 8.855739096501734,  7.777610389437296, 63.988159012902770,  3.991147757455374
 6.225315341288577,  5.445903396012901, 80.486725034562397,  3.817167004142795
 6.500785331344053, 12.663698686887113, 57.474163836145294,  4.265180048728454
18.563861522885919, 12.111686082780658, 91.892741454958468,  3.667924212605423
 9.803595772914498, 12.350959048512044, 86.269006327078628,  4.155446950870214
 8.044390653561491,  6.062049739423041, 108.901305361255311,  3.941287524691416
 0.189934812253200, 15.588850459847777, 93.393915455432591,  3.936752135014395
 6.569666773013102, 18.315297452789363, 33.047422728011334,  3.994106254324657
 7.111203847444441,  9.597288362435561, 84.237059518576473,  4.274335269929051
 3.360602426533068,  3.269401597122453, 89.046563671216845,  4.055420115791138
 7.814679924925394,  9.691900364963905, 28.981307643404389,  3.626938886232359
 0.669400324888906, 19.065731209510759, 87.988248986645374,  4.145118147918812
15.874421907993716,  6.004096992373160, 18.834870134793814,  4.251420554952134
11.045375773929823,  7.396115362310379,  2.092505194001039,  4.047408002081653
12.831376670365579,  0.975078840401709, 69.491414868297710,  3.875232856327817
 9.970867259037236, 16.352566149044222, 113.548653211307922,  3.923944013060777
 8.686276014196606,  9.371956187113295,  5.746948686485119,  3.993605771515259
15.390019120945578, 17.334292617458377, 100.475889660203094,  3.988270098164413
 2.739923684747924, 17.802220456151030, 65.607625480022151,  3.932888113344004
11.023075024332515,  4.061616332450869, 80.661274850440577,  4.033023661113382
18.059289716931364,  3.037967604194456, 55.075346315580404,  4.089697528976741
10.218564496805193, 18.790896169965350, 56.570361028960690,  4.114251910056103
 7.305525512181428,  5.567828839585044, 88.505415579242964,  4.025797640701460
10.056708333295644, 16.450674717500821, 31.639847212290746,  4.158100114108553
12.590510866880548,  3.427134061219977,  8.718821466927054,  3.880835037264125
18.241540733349172,  7.599044312653379, 11.355511374437610,  3.804570929489591
 7.608229919887032,  7.767279794950507, 96.265135684855409,  4.120172297356405
15.889160833896225,  8.981778339577335, 83.110224270208477,  4.198574785446717
 1.016509482820855,  3.373498841297083, 104.104126497407236,  3.854608745676748
 7.766762919503150, 18.244045136053398, 44.066818926126473,  4.215961931714199
11.626444328106015, 15.829609273344794, 106.807431635361255,  3.662033425384641
10.336517021652909, 17.987950593672185, 92.398231599580328,  4.090623876112296
 8.149295226775768, 15.859923128243894, 54.720396229067809,  3.891709519500820
18.286852693515545, 14.381371552357878,  5.668577751583774,  3.810471442049340
 5.277985759681527, 16.908984086403400, 61.701650882219255,  3.906390157722329
12.020338994805806, 17.708303477998417, 19.288558516706630,  3.858301264985966
10.539642441098705,  1.951944891687904, 113.998052106268588,  3.887952968793101
18.531428545611160, 11.677313368986015, 75.967408145865960,  4.340679586895548
17.717767805874100, 18.345259937890454, 95.513060812076873,  3.704882264004765
 6.624860966254413,  4.387034084801214, 11.433385932721523,  4.111528663371296
 4.434668590304605,  1.607508245652745, 44.370187049226828,  3.805949719908059
 2.947594693584152,  9.767930150020698, 117.256266720582190,  3.928587285206190
 6.696482202569711,  9.234049132409531, 40.480869012993161,  4.062825293696812
 7.968453082055559,  4.524862525818837, 74.156754341813681,  3.845617696036009
10.047732023355922, 14.101733011401940, 18.989498800562139,  3.813647112882259
 7.724354813421124, 10.708952210537182, 71.012916219888339,  4.171670080606741
 4.736076337290797, 10.832846236182650, 44.040961949875012,  4.366691169065113
 9.540936139459371,  6.937248752295480, 117.258014143046339,  4.425384338827917
11.465140338458616,  9.153306269552155, 114.334676815743251,  3.851629345498428
 3.743302374330259,  8.809739548245940, 62.181882098607232,  4.280622971878931
 6.273521586656126, 17.795043059480317, 57.827209797976458,  4.279905477207918
18.927465677890513,  9.934899125694159, 67.996844286230228,  4.059160890173908
 1.965363790514880,  3.681355184649286, 47.184817974752306,  4.170906317440869
 3.212938435210874, 16.232511338263947, 111.519863011488169,  3.823558692111693
 5.271092731261900,  1.339548353129414, 64.273735225763161,  3.840313748188887
15.078325136215092,  6.324673592257106,  8.252446154797724,  3.755972229441081
13.550379271070241,  8.149681596543493, 117.471164289943204,  3.910184885718029
13.727629598893442, 13.374143910704417, 27.014239374828168,  4.347758413720495
 6.092322859316671, 18.299700890841208, 84.053326974950267,  4.446174017710337
17.877105061343180, 10.579224008557087, 22.412387916839343,  4.028883728459968
 9.510259576015232, 15.579365002116628, 36.052735703651415,  4.005145522446385
13.750835392981072,  5.067353731276252, 26.697069039961395,  3.961969766389788
 8.116332454513993, 12.636013575140614, 12.675103188617950,  4.150752241923688
 3.458244490070716,  3.588874796500761, 78.594340892268164,  3.808895518668294
 1.718617071288342, 18.713889802857842, 84.111878905839902,  3.915019103166770
 4.586751617195074, 14.393416910522371, 54.370646145781542,  3.790962698212994
12.226110940894678,  0.746902905245425,  5.478796153673477,  4.134305611244873
 0.994309769673642, 10.988789626220669, 11.857631728968871,  3.963901396895034
12.181899087425503,  0.460134366989905, 79.078806341168004,  4.070619709866580
 3.305731382102699, 17.364427673001000, 15.835743123603210,  3.884791576977554
 8.214449881127829,  1.170620917284829, 106.741118648670636,  3.788133012699223
11.277477366942373, 12.013929682996908, 60.730825392149818,  4.131473774945986
11.654574296244773,  8.468381998478208, 96.616601290431248,  3.846834281281361
15.395202580614711,  7.255033239930047, 34.186997626645038,  3.713529303799945
 4.147813691138744, 19.010505099714369, 99.050160490944847,  4.322180466967638
11.236909737523467,  5.285968484607648, 56.040822756286694,  3.679125758654777
 2.955441609022460,  7.153175805153014, 95.700621925983313,  4.294999790237202
 0.538645404579229,  9.869206334711286, 88.561390271366307,  3.751054846951247
12.338766755423594, 18.896496561895898, 111.291708459507333,  3.896315028575048
18.705938961724854,  3.407954782505287, 40.327629762705975,  3.921391335636076
11.150807231719442, 16.822012950467450, 96.186245878761653,  3.977110943837560
 3.652356387998457,  9.538272631675870, 103.233598889643758,  3.971268526791064
 1.583309198463559, 12.843547366852633, 24.185434741467308,  3.959405461155633
12.697141014724417, 18.886524410683492, 15.575497596727434,  4.011259978007656
 6.445994074813005,  4.646919663838628,  5.154510909041240,  3.995503646623680
 6.147534853408586,  3.963908683050489, 96.254295863926288,  4.010197541975131
 7.810210802067839,  3.702486147994731, 103.444333552186151,  3.761367220349113
13.486333918114413, 16.237987529553660, 90.586471726109636,  3.902593611658120
 6.211748579820531,  1.862223323861740, 91.392743692362288,  3.842668993028970
14.138093196155342, 13.971643384176254, 19.684478664951925,  4.236309834235183
 2.171980665722162, 14.587122256351222, 13.240096536863041,  4.044409300378277
 8.473747255880701,  5.229172080672460, 21.401792554443592,  4.189558174096460
13.962144542135002,  1.776333058076260, 101.329853784549968,  3.748611430132827
 0.572807663067228,  7.195481559520529, 64.343329383019963,  3.908816082542035
 2.800238421194354, 15.313136087668065, 35.002917918323192,  4.090834077802254
 7.975181262452387,  9.620560599598369, 99.794288242373227,  3.809239759105831
 8.909907755864952, 13.110506236220655, 39.446231800340463,  4.046471976560555
13.926849620012527, 17.971201694553375, 104.448642206765442,  4.154495954874772
 0.614586680351991,  6.383816696790310, 71.600973219985775,  4.132598569953084
 7.629468800980536,  9.369096918736998, 46.898486627403997,  4.223805905925120
16.932901843396689,  0.420755037183056, 84.759322596745093,  3.972406009318041
17.180197707937584,  9.624142297070639,  2.131493013183817,  4.260438300465515
 2.327165816009610, 12.194019501594436, 57.098461665143930,  4.079205011686565
 6.045220960114364, 16.863843690841833, 67.878951440093019,  3.659535217174965
15.248026437657732, 11.185778876005916, 59.828165019471669,  4.077362009768457
 7.602352388037565,  8.247005310971756, 25.315750122960612,  4.015010650660564
13.464618989439931, 15.713898917648539, 34.550761044939954,  4.343693429879790
 4.033750297277071, 14.304835391700449, 93.485522758403519,  4.074954881172125
 7.435403861265441, 11.459056189112010, 108.166120865507139,  4.092105005855634
 4.175510945764319,  1.219787617435946,  5.462205998040197,  4.245756210409111
16.632700667005501, 17.809438299339540, 25.220605682516265,  3.962337627728585
14.644625417022104, 15.507547705129880,  4.886304981118367,  3.786604096714520
17.378556427066627, 17.507370228692906, 60.084257852030156,  3.954171858762618
 9.648158021043592,  6.291665475125256, 77.410095705290701,  4.276181065134653
 5.684500968515407, 11.105616095959306, 96.959297109705446,  3.560688157762610
13.530897863301158,  3.173027643955454, 72.817823136579861,  3.972304028879692
 9.807134117470845, 12.943985276402870, 29.328944476963255,  3.912562350322260
16.321395847197959, 11.617378050103348, 12.666797307818834,  3.796002019682865
18.649773086239922, 12.795820095067295, 107.417886518571791,  4.077171567327057
 5.705915355805737, 12.986629447548431, 36.835103362196904,  4.198148540526478
18.281239602076106, 16.617567985004918, 81.810656051958375,  4.072479889946798
14.667328231346545, 14.580046092799767, 15.598231035544970,  4.046078070644353
13.682193246471648, 13.062605520713314, 63.872701664287014,  3.907855015749715
 7.593167143103078, 15.899400552542069, 81.113551167026699,  3.645826953001642
 3.965950006573240,  2.797374266533543, 82.492659570482090,  4.166987012308872
 6.214140137789461, 13.414347401880784, 78.255887357810408,  4.123458703361554
15.136092124096544, 15.857176675241282, 96.808316793830897,  3.878972145952797
15.690299354820944, 13.294986117406310, 82.599777896803019,  4.083893073758506
18.987765524146671,  1.216917125419349, 22.934840179595184,  4.129083699080865
13.688000970217493, 16.012359133478117, 79.877808583603368,  3.795983327972085
 9.920104461473718, 10.177849820900359, 78.506851699000237,  3.813548573441742
11.872640071334553,  0.402172792940628, 107.496734955137597,  3.700401203398055
15.552583166542407, 13.604949486872163,  1.843175064888935,  3.611083564998772
 3.584179895037753, 10.602109343557126, 27.139394776734342,  3.702812977132570
15.466456840815869, 15.245264922318739, 107.013844001307902,  3.935511129525401
 4.926635658894398,  6.472138330470197, 22.814435753216898,  3.788686632402917
10.237986248106353,  6.526145811392488, 103.714889254849552,  3.662010243226482
 2.979741638813462, 13.750407460646782, 17.470199059000809,  4.072443455535643
13.969207934996122, 17.130897402386275, 114.481200458828553,  3.903459866398730
11.370074519095523,  6.321539465765038, 73.674095123448069,  3.847708393660930
15.677092499405735,  5.562144037507226, 64.510664053073000,  4.525116974857347
 0.066821314334484, 10.763763514221932, 102.412984886294836,  3.773832545350019
 0.860014510800630, 10.158884322194240, 98.650270012178126,  3.951305137779788
14.673455513909442, 11.849862362552292, 33.238263649050090,  3.978120699882915
12.487896519511569, 19.068028182381973, 86.633744808723705,  3.937988275484564
10.340503879691960,  4.733969138737155, 96.739610078575112,  3.821374972203509
12.684529598140513, 12.577456277024130, 12.809409565614708,  3.699442762491623
 6.163486852760730,  3.889146135486985, 114.242134370648060,  3.989310061081504
 0.775194365261731, 14.181153735137281, 47.107064926251631,  4.290550016523756
16.536585692986169,  2.978046062880338, 87.830422072092546,  4.052235201561807
13.014366447110024, 11.836962307892533, 23.099648813072115,  4.114949582144581
 5.292276100236962, 12.261080713667987, 30.081444490608657,  3.779680748753244
10.024116060723088, 15.068621066494313, 25.811821050244784,  4.086111785686991
14.983928337386056,  3.989119255746295, 80.090965154332110,  3.944558811278631
 4.369848707372055,  6.271237936242177, 54.074920748557425,  3.721125920379824
 6.643146911784185, 14.031017496302956, 84.231027633319428,  3.827863050218471
15.290920539028107,  2.140671600070885, 51.180531003108371,  4.016024858060216
17.518268766910843,  7.293855132151771, 40.622463870271609,  4.220805828089071
 5.430475250681734,  1.046532854216199, 13.856352941171663,  4.146356022258683
 3.521559801467407,  2.709183621075853, 117.382279786426693,  4.178966375828733
 8.600465052009548,  7.052457977725257, 31.374335177715750,  3.555887635240246
 2.854888148944659, 15.160788454525068, 107.752226767256332,  4.009075848104664
 8.260936872540809, 14.390554788882694, 50.507134886317310,  4.537260082081291
 4.159097152666264, 11.526158755532927, 48.104340554897036,  3.943623550620285
18.092977247299572,  5.672313158143222, 97.830350537970901,  4.195022136450469
12.992433594298859, 12.012873156774900, 106.965436464703586,  4.160494447514778
12.316789536766390,  0.355724061635046, 46.261599336072983,  4.047691388264433
 1.429717080752817,  7.138880657158365, 105.642604678970329,  4.077253205874227
 9.350248751414135,  2.501074018135304, 47.210239907829695,  3.515899925236138
18.577914280730973,  3.085499365135617, 59.132517162477541,  4.055847311482437
 3.105814707230603, 12.012512800946773, 90.384596676461172,  3.824299687463836
 3.354842058855423,  4.569255126416308, 31.407760706950395,  4.232695795943767
 8.770698224492472, 13.366264756118245, 101.355940435131515,  4.315484536310651
10.405037660596717,  3.120610299638360, 100.349689587391495,  3.933475753182647
16.973893734689131, 11.617784023986818, 110.846813903593386,  3.815649810481124
14.103962708032860,  4.353375100969949, 22.580127624702165,  4.302961794165687
