BANDS
8 8
NANOPARTICLES
cell(1), 19.121
cell(2), 19.121
cell(3), 119.504
13.752281638889093, 11.055102506034777, 43.198204883811847,  3.456920250131850
 0.479887113667283,  0.153816043994020, 75.653593500096818,  4.022147241744709
 0.432256315126985, 14.953828114376140, 100.050936386504503,  3.568137346838501
 5.312179234798453, 14.980382569494671, 70.559184341908448,  4.101928254156618
12.803225358982683, 17.717245578189026, 114.918043316580849,  3.883848640256651
17.763251485692692,  1.646009775001903, 38.440886306492501,  4.105729808007514
 5.166806476651540,  7.824982494557347, 62.431327102942014,  4.072953462341646
 1.489919387530825,  5.534140373372644, 84.938417883128750,  3.884654604745185
18.101556388199455, 12.669756024486890, 117.383774761648112,  4.045392727242361
 3.070719743193473, 14.044236157744926, 74.063603584365751,  3.895211729198505
 7.339017694344113,  8.348656115755848, 79.358088233297877,  3.851537916988160
17.181405412602185, 12.500068106399031, 42.211044393415413,  4.219245749260727
 5.610042103152435,  8.331694979563879, 16.374502013131384,  3.718702495758193
15.323663060319713,  8.258259168802079, 70.072007301559282,  4.178730332731538
14.675962420822257,  6.613568780648372, 88.171404347996685,  3.866693275685111
 4.653800367637201, 18.298321236776861, 66.262591488616906,  3.751339830991499
 4.138603375364864,  3.166789593234180, 117.387054166836251,  4.179673726369690
 1.727742207935168, 16.053950405701254, 110.437297335441855,  3.804477434824852
 9.504614942075927,  9.668492625205053, 15.951194423899272,  3.814399212628978
 1.507175822588364,  2.683024560005737, 72.505849246580439,  4.295932174474212
 2.265294638233471,  2.538371481980277, 51.728258262277386,  3.650628859636965
15.519998472603845,  6.544534854945830, 107.348405623750324,  3.938565850885961
 1.258191933210294,  7.118102502239539, 60.997539301771191,  4.173024879430229
10.979619731610326, 12.888134215734993, 87.252963741983862,  4.471165849560602
12.242385069696603, 11.119738226310567, 62.923541313963447,  3.900212186121754
14.617405005208912,  7.150498891671046, 17.777916201871577,  3.649187876290310
13.778967177064413,  2.773029659502997, 107.432448101387479,  4.121288503472630
 1.188482106866728,  9.428970642310503, 84.229238560074151,  3.918024770583946
 9.907553333247780, 17.074432747893443, 72.305036762203883,  4.078259368537150
 6.992839885028710, 13.752154681601235,  5.491777023511740,  3.706609179068110
18.702412828426002, 11.183191790911417, 35.327730475238170,  3.702508612067384
 7.261041586344284,  4.472930382669945, 93.528889733470265,  4.026517571181027
 3.214825527498604,  9.988225943322947, 52.036658152696859,  3.952328088443595
 2.006608061224196, 12.389728926566361, 29.758700753079758,  4.212274365608472
11.100355941141471,  0.860089534897053, 88.229417601286684,  3.874591517877053
 1.478635975847201,  3.568230719023487, 12.005761644442130,  3.534534008942909
14.672558984953767,  5.164141400230571, 82.013846913930905,  4.051999005710901
 4.239115356489156,  8.131486467914044, 113.738532344593693,  4.014638161064832
17.916027271892300, 16.090118304506227, 62.899295138263398,  3.952242336241193
12.582352188242304, 15.270762598252221, 33.229053443096205,  3.806332733124354
 3.030901755598135, 11.727082055370852, 33.707588089931335,  3.955361913432350
10.060982486089525,  4.260452649287605,  8.453115016417319,  3.865327482685986
17.920662161989448, 17.752202032235466, 66.658323924678982,  4.237785356876906
17.666007783277980, 15.195643959400584, 49.397673092618682,  3.749923800045294
12.893929044194897,  6.270672830253955, 28.529340836829181,  3.748567540629165
 9.455566534611009,  6.565735241236300, 99.977610691512453,  3.910868981244437
14.003717527040937,  5.677718197815158, 91.996442360078575,  4.036840288668480
10.984146669371784,  5.471126912099470, 113.985886697750402,  4.433561455936790
14.153106471377164, 15.354101642307763, 51.020018167147853,  3.871075194470893
17.743314526604102,  4.418146071048938, 59.419572741569155,  3.769758814699381
14.947137579029652,  4.826362511008407, 32.510753741834975,  4.129917713335892
13.869965151204610,  7.670161192482448, 79.059113515325251,  3.821983067551648
 7.059322209338545,  0.711655567487817, 106.758228874372449,  3.520605840033312
 0.986395987717461,  6.038135716880443, 15.489318798185479,  4.068776124875640
15.586511223471463, 12.511200402301432, 13.696659760404030,  4.072275387701496
 2.401532369471496,  0.035923647391479,  2.104378437426143,  3.799491843234036
 2.322001854023434,  3.838755574587053, 38.632480515505542,  4.251916245903360
17.760397190026278,  3.554896565847543, 99.156991720849973,  3.925670204795603
16.378730240030713, 17.160719741860991, 40.166885204426499,  4.314310604249096
 1.292063790702808,  6.074477234317007, 57.222127580282780,  3.649564881142534
 8.285935067674293, 17.864296220938932, 109.826696167957422,  3.773638818960317
13.581875847711762, 12.226685039740593, 69.818044647115357,  4.161733384483544
 7.670818202826829,  5.338094420341656, 15.037577884061932,  3.958500630801534
 0.334543524911677,  4.595104855823696, 31.562756355785616,  3.877270677937711
 1.454244721833452,  3.972481669760412, 102.209941689847881,  4.268924330600140
18.146472842242751,  7.564046995813992, 18.818297065209233,  3.701691494835004
 1.289363159404466,  9.972444404199575, 43.554747445456570,  4.154158682793064
14.561824075593679, 13.825330781047752, 45.860261744644966,  4.325933968767596
17.735523184506793, 15.920464126762845, 70.290811136082027,  3.883632651622791
 0.691975764449894,  8.071431435597432, 101.295183866100643,  4.129203517878843
13.134121149141750,  7.119486801922604, 98.966294889847660,  3.798208372445722
10.409448266924118,  2.806476205094609, 47.640281092002198,  3.823301973323696
 7.164286836637019,  8.242887339733858, 70.946854526001204,  3.635773216253452
 1.802461110107126,  1.535280016599790, 97.417265267452663,  4.322356416834024
10.610038647989057, 18.994457150949479, 55.361754838701223,  4.258278126922423
 7.072202308360143, 11.682682890337560, 24.435614183118997,  4.299742522445062
11.055861944376831,  8.761387624630830, 102.883057479603380,  3.954589932581829
12.972469229941519, 12.986971570561268, 83.562027728735686,  3.870837581858657
 5.207266958490879, 17.469202922621864, 28.233368238227531,  3.901225159466460
11.526866976444296, 18.630852598179697, 78.535678548833090,  4.376630046556962
14.138201922594234,  5.058796950098520, 36.446018884585648,  3.897313258442018
12.202380912038409,  1.297038445707364, 26.575079088915956,  4.114420201059182
15.624908200019993, 10.586014362926459, 66.601468837063237,  3.972140521075242
 6.308523726220288, 12.002242795821044,  8.950451829155464,  4.071461084928391
16.021255829909641, 16.805318030920009, 35.040451717803258,  3.808239052060783
 4.928916531721653,  7.114462018576831, 117.601582586315573,  3.798323356566688
16.762370436916292, 17.787958969190402, 73.420419465176082,  3.637278237699873
16.539992143130174,  9.312102014471773, 90.392587435648196,  4.004078201342078
12.969275700093311,  1.267231912504954, 96.757581441296580,  3.994661900208404
17.131969560619581,  7.372556216933614, 37.527412206765170,  3.823456129200143
16.717925932052385,  9.340307188332130, 45.207393105894496,  4.018483707004927
18.754284683526084,  7.400166904073073,  2.129913962601690,  4.211529919753704
 3.279894387674608,  7.097519219883633, 104.438090361924168,  4.220400304583174
 2.305319386393466, 15.897232112397244, 60.788143158818436,  3.956431150933756
 1.850458531059129, 15.988718113130444, 103.726392275053513,  4.564533161929619
 8.886688281276308,  4.679429638545566, 37.115420651457214,  4.079720542751395
14.419196365455871, 11.176174993676726, 59.582555513419535,  3.760154853410611
11.937339315200035, 11.096357192577310, 11.892513307730464,  3.768228598620637
10.233835499253219,  6.293456666312723, 50.876864169439997,  3.995272464281740
 4.705917396821087,  9.069809923009933,  1.928699566056013,  3.779922479391192
14.042868142361876,  8.993129037620688, 82.638565982068513,  3.803272435328845
 4.262646195989920,  7.927495581347670, 23.189941602364350,  3.877741689384328
16.228017792747426,  0.115060339242958, 100.434047939597733,  3.977608126805184
13.637144885022796, 17.382470142855400, 22.366524875006238,  3.934046393707123
 3.427602227838479, 18.353859728455728, 82.129484948327217,  4.094990608532926
 8.002571241797389, 16.289098808255300, 78.184983951578999,  4.032334713439479
 2.763681326306033, 13.297788865438452, 49.857941947561045,  3.977147244608930
15.893536842740959, 10.359009014708159,  1.961675131997513,  3.919931177514372
16.809425045592576,  7.684276038526435, 94.076903502841404,  4.017622263877811
 9.524803005783205, 13.066113148397271, 46.469960108210252,  4.005487494450727
10.962990050905333,  4.588951324656090, 95.928760781506597,  3.930622496146518
 4.237030418480249,  6.438542512687390, 50.416482935765458,  4.089522631334549
10.149475798143664, 16.562396920283231,  5.791752814192647,  4.145964039040727
12.457379264708809, 12.579073206977863, 49.140889582792006,  3.588166446922530
10.640734359203710, 16.317846766771172, 89.917102616039102,  4.233622087508191
11.030468280803413, 14.084943496022960,  8.832294370225954,  3.831811774510555
14.026083459274529,  8.692418685240648, 31.425805456974498,  4.104327501967774
 1.047785310921540,  6.092985422147579, 53.206814131235937,  4.256111020367283
 9.077507677769244,  5.189583166947993, 103.696011286275720,  4.020769343378889
19.048080274086431,  1.614875321700411, 79.471816982406565,  4.192186449267487
10.106536806122604, 15.181538140856114, 39.884947241068659,  3.662248979964189
10.674476497540240, 12.295468841140835, 26.581782354746093,  4.129211053370665
16.876841857253325,  4.747591778175973, 55.507808370819049,  4.189109954479193
 9.372509892553190,  2.930642276952754, 17.807107231472191,  4.118683371323993
14.422511356017793,  2.790632388846991, 89.200113394787664,  4.010078604228936
 8.550511112522878,  7.893275280498430, 56.452612924060212,  4.263463839353081
18.691768389178883, 11.598164357776005, 88.156834360337641,  3.627823749034083
13.344560423368645,  5.932985749571371, 57.368314796881343,  4.099324259272858
11.734630284995506,  2.854149313698914, 34.153480597017854,  4.024739934265253
 7.524371695853111,  2.675089420794274, 111.019046509179617,  3.848496181058085
 7.104021525855196, 10.868931329374716, 110.702736405847261,  3.912561884875815
 3.831627030530633, 16.625280722607354, 34.225511816876001,  4.203141319591343
 6.200680065827337,  3.070359515962673,  8.504037837795993,  4.127640686510826
17.519272957248184,  9.531403508075757, 79.079335522241749,  4.203708454898680
11.273323414335559,  4.559634245935239, 88.080832456706176,  3.504127470346560
17.389216491209648,  8.903050734255624, 104.560996603868944,  4.163544487964746
 0.491158505685617, 17.149339179221339, 85.894061458786680,  3.865772759450199
 6.751478966826191, 14.927067371451905, 65.756692445593814,  4.223954489383265
 9.535859830644100,  1.217587515587232, 102.963378153032906,  4.093025746765559
14.580284268559598, 15.694489789997759, 80.957358833934677,  3.995344429772659
17.801184232610893, 13.446724877816276, 92.006106199841028,  4.092050933642043
 8.887868639022031, 12.109163031359406, 106.885274938854209,  4.372943325762224
12.757598518296779, 13.454848196837698, 113.605800035594370,  4.162029713328525
 0.221232670384940, 18.999522070700834, 60.250321908047141,  3.591890942427600
 6.946984591669870, 10.869082289785757, 64.769365595365485,  4.118636933338043
10.642343705806983,  4.587901138629561, 54.743106969689833,  3.894667956720050
13.283426945111630,  4.171689810375391, 77.680093904982215,  3.739857377055781
19.074563299575765,  0.441164807964291, 110.843338979341084,  3.944582975124158
12.171152027667315, 18.751772837224085, 100.317240472107230,  3.974972393593239
13.569147980711227, 14.632645104371022, 92.409803637625586,  4.115860943021613
 3.398169234071705,  8.407724055022396, 46.872488973712869,  4.152608125644457
 2.902355696097974,  4.879002453128031, 25.117892171138095,  3.808806527262615
 1.403734580079899, 15.249868224769639,  2.181276414006961,  4.243206495211017
 4.370664470706641, 14.393523914002838, 77.749988276593101,  3.919568571352144
 3.680217902775937, 11.018866912622459, 102.258768396478644,  4.302276310400133
14.920378308569061, 17.455855748924179, 27.841255799455926,  4.284178966058453
 5.623022710295983, 12.405207614454412, 15.441362055116556,  4.208100327552891
 5.838451587948835,  2.985862384776480, 28.656955619715319,  4.073069769063645
 2.128145011311035,  1.409218524267925, 34.170415627824646,  4.112630154143988
13.450224862956691,  2.465317637513085, 22.948158931841682,  3.796957797316013
 1.732066572122398, 16.451045430094545, 47.412407606400258,  4.167812999961058
 4.297130420381098, 15.848648894692969, 85.393543748062314,  4.233905541768453
 9.328744676094486,  3.691978071176442, 107.520858511457547,  4.080613008048884
 1.597346433498530,  6.445132828095431, 65.114833054870857,  4.161024205705134
 6.679624781344470,  4.881371540871857, 114.413749961577565,  4.225323895263682
17.221041833143950, 18.376893837900798, 47.051547736392870,  4.032574676386118
 7.803951017738351, 16.001260929385118, 53.654667481079692,  3.875262591793647
10.105134732029896,  0.096243187176852, 32.050852763530649,  3.531926116481750
 8.257248723490777, 12.430605621302663, 102.668260618100419,  3.942407576507752
12.545946283651638, 17.669047742142688,  8.718988929019856,  3.732063668484159
 3.466847462821945, 11.613153775836274, 22.408578091321992,  3.822757378391001
12.196675743142682, 12.704882170498996, 104.009909629777312,  4.350527006096500
11.101225766957636, 10.137066714932857, 110.181727388525459,  4.190832270676383
 8.427859555240760, 16.912085251611174, 18.840622293858996,  3.924141314834229
 1.425338440825711,  3.116185165874042, 61.788293617671251,  3.956162341580430
13.636791790525741,  1.402341988303677, 38.273693609827660,  4.003621156813992
 3.348051102260960, 16.353043400572975, 43.556420496213555,  4.148483233486631
 6.248418034474454, 13.503833321699052, 35.009214595548762,  3.827934368295065
 9.544233412174950, 16.802192071374819, 62.992863036727535,  4.083550235735301
13.856057063367167,  6.428674437083202, 53.362979101092250,  3.938382467749316
18.754360672778681, 10.430941149686157, 12.489493125210959,  3.841252967647816
11.113761420837427,  1.414607956908805, 62.210489488515620,  4.156532431185799
17.143649625388623,  8.737296724936970, 117.455306769489653,  3.957913284456148
13.970488294826332,  3.141226130013627, 64.968851983598782,  4.479521735753123
15.981651959858832,  4.436332995952620, 110.735095521430921,  4.057464459170674
10.401981017378056,  0.248310756917624, 22.981001103933615,  3.738814828273993
 7.478787803936135, 11.740608896189395, 95.700671007067200,  3.786421977290503
 8.875323447287689,  1.788763901742211, 71.697483954044529,  3.904348474031120
 5.462836498974536,  9.833964771807972, 107.264456831413682,  3.723110243295914
 3.193700673291314, 16.318549959367441,  5.958128405561795,  4.132120179091255
13.728914116314144,  2.431615220394594,  8.776476920490564,  4.299107266150579
11.471788595757511,  7.622758697087049, 37.857205957175609,  3.878006592656976
13.727819117285508,  1.106125059083120, 71.787359935624195,  4.105336864163898
16.188544220425165,  7.683905902134269, 24.984000729747823,  4.186814040327774
 2.046551367019636, 16.478389415607541, 30.446888011006067,  4.041551139145063
 3.513369495312659,  4.100755257996278, 94.760347215228734,  3.739488950911586
 8.800777672618674, 16.541344644484429, 85.498063091715892,  4.206569029179951
 6.977552377002655, 14.348102864938078, 43.561850972704526,  3.853997958693008
13.236009176099852,  3.750257342882788, 19.168984084312747,  4.164290817886989
 9.282255863718197, 14.254097703126478, 50.301277635781240,  3.956689172935429
 4.391108234721145,  4.964739042787061, 59.381488035129827,  4.059896444920920
11.313724164873131, 16.332637044209282, 29.727179557423955,  3.892262652770369
 9.087718982361718,  8.136477119253197, 96.261136945678331,  4.107297952062052
 5.333214782830434,  7.176067721029264, 95.796096367177540,  3.698462012940950
16.446253880706113,  0.154162873458110, 86.979336888412931,  3.983333097601589
16.858897501550320, 14.123360453374437, 59.658991313477991,  3.880396616914342
 2.556356457288028, 18.696710505838208, 54.733924145767531,  3.918685860958150
14.247584448845732,  8.910333074196860, 35.427784252815293,  3.905099725687299
 4.317529008222301, 16.143439660135197, 57.348368349017974,  3.935581994247362
18.712524158126307,  4.344639132611950, 35.505171645025662,  4.080211331364583
10.964391340444246, 17.569144624784215, 51.545152293931153,  3.881312328185538
12.542438228059138, 11.088511896321373, 18.776584543798588,  4.109043109548151
 4.138547535680592,  8.119137597962609, 86.512719752969431,  3.957015181117860
18.171902244845391, 14.093473783865365, 79.676006381927479,  4.151885502150178
 4.995371627752869, 19.083065109993118, 71.834350702378899,  4.444343074483221
 4.933760813735431, 13.480273834231191, 105.670198155103591,  4.283203689912492
16.764387484300570,  6.356888618451192, 29.098491371066185,  4.046966614497854
 7.042769624321967,  8.720108589358038, 103.632106902934581,  4.056644958688692
 6.001222854615973,  4.978979459265815, 21.007473894720807,  3.920147321280844
 2.447699048610041, 13.924939669654421, 36.981390858554668,  3.984864206721750
 4.688302676938547, 12.096702498297624, 113.594029675057783,  3.917227534270459
16.061829865220020,  8.849284479712166, 56.092770990018138,  4.233170119609788
17.137471654333954, 15.570360953815721, 24.182578054725507,  4.328344331690650
12.671169173616708, 13.366261460157311, 96.302263241027219,  4.238512166397956
16.926751925722257,  0.703243009562397, 96.547582944817663,  3.973790184831723
18.549727093167625, 17.541158099061114, 82.039974544068855,  4.001186991160076
13.851752855366971,  1.300004475113334, 103.617065974538718,  4.017762557641354
 4.651944639510593,  5.564150728264538, 78.865953954559046,  3.901619685115911
17.847664738819681,  7.361869322254548, 97.885205311685780,  3.815473682352240
 3.812556445280404,  6.692843728787716, 12.519953446255975,  4.169215497017325
 7.030783874933077,  9.455499299411406, 12.946073794705516,  3.955257534017380
 0.799288371632905, 10.027589169009152, 16.277949304805993,  4.047357918874862
 7.339606893668770,  9.395980003758822, 82.959140507334311,  3.576239821621458
 6.171889613535767, 18.690877069373972, 45.248198615473342,  3.893985999778016
 9.075746039809616,  1.101160705626480, 95.797096277262568,  3.862117083214210
 7.581979152660410, 18.422602089402762, 99.140356840498427,  4.024646853512678
18.757807678778306, 15.393060600716817, 75.638616997965940,  3.911241626859668
12.198920945303790, 14.701579331502824, 100.233812230507127,  4.103509361620232
 8.791886315938163,  6.663120695976794, 117.459077988720921,  3.946638566283314
 1.058193566768089, 10.484900806536869, 113.843141514480607,  3.895716879000294
11.267717534099111,  8.818796237974839, 59.464415119643469,  3.969268866562357
 5.506346794554998,  3.292550531800614, 104.290859163715993,  4.061812571929521
 6.892012448880124, 14.124727271896234, 88.610918678968119,  4.454832451309644
 1.926093048428400,  9.856256159192112, 117.558769912102903,  3.834936592088963
 4.858493879202225, 13.586932193047803, 27.236402470772955,  3.738772575708288
11.117213048272127,  3.085864678477754, 80.737309482202761,  3.961858360344065
15.139643369391758, 10.290312476370172, 97.527424206801470,  3.956076595187992
16.537227581040529, 11.534653500648497, 23.834267767926377,  3.859241252201249
 6.934933968138666, 15.226589934192077, 74.435898802067769,  3.903696351203746
 5.663238149662715, 15.040385474897363, 110.623727514980359,  3.832980320950044
 7.709316520932007,  2.866202804863660, 89.009952068438082,  4.114527990868380
 0.117724746928750, 14.749327203195785, 33.646450592535508,  4.189980249818428
 0.361904201725008, 16.766020648537161, 96.725932364506932,  3.904515767983876
18.014444290848900,  3.009918552451069,  8.999899062685557,  4.359614885395325
13.817237662391019,  3.412536343517682, 100.141766316958837,  4.082609357216062
13.942428185946664,  1.556245821684320, 46.662362908342217,  3.878338951233557
 7.003203369070762, 10.283888660479880, 44.301874686014052,  4.212029230077110
14.397790358979542, 15.684049738674188, 57.150446994541376,  3.796290870506117
17.495281339814106,  8.190212137084631, 41.350053608119460,  3.975423611462490
 2.781090044316801, 14.327402685573606, 81.523289792798636,  4.127128305101765
 4.660575132150520,  1.780053486616874, 100.567350665418033,  4.131597038246825
10.406925118395431,  6.934624051198261, 77.190269932480732,  4.159114967726491
 7.831446436773944,  0.299781940026459, 80.766733526728757,  4.068268523139497
 8.918958408687521,  9.281686067396327, 74.194975295672180,  3.991387471758239
15.170016854924013,  0.102256090527770, 17.206431041281562,  4.038379234487896
17.334029701375744, 11.595373910167247, 31.532780613436657,  4.305032531267519
 0.610781069630005,  5.463122220196625, 48.978172699073575,  3.931605884963495
 3.560905069986970,  2.795518918837839, 65.239185707461360,  4.032308341065058
 6.289690521879655, 16.130043023238795, 60.818640014983963,  3.776910520834477
10.269836521390120, 13.725997880978170, 35.812524988172711,  3.760256817853632
18.211496638642320,  2.930469278019614, 113.870387238614157,  3.993975409558339
14.464469804842338,  0.197595300304544, 67.915868100112561,  3.736510252200312
16.986292022988124,  3.797687089245346, 17.260628737639241,  4.171155022991298
 6.421948405412772,  0.562139693349094, 84.495135648373875,  3.915029913850788
15.494358320117856,  9.342313439119790, 20.845684832597684,  3.815891420421704
14.554509161022905,  2.556485142824318, 60.319073389293820,  3.770193429679739
11.810922367957749, 14.735777821848652, 54.282109651251481,  4.147869488786126
10.383716942037379, 16.001782496925362, 43.948193588818434,  3.752361571402788
10.233790377847885, 11.302969802520755, 80.557766869976760,  4.246164847660919
 3.445892902746701,  9.925878686893807, 26.669524469545514,  4.115624403522391
 1.060948329334356, 11.877059751169309, 76.867797922427584,  4.049395551716896
 1.303550464848506, 14.820131674882305, 21.606459293921883,  4.028874804392895
 3.163363606476133,  8.990183337180607, 98.299462136985838,  3.803280392235349
15.066014547131545,  4.783389992520162, 96.352210272469193,  3.994856888670989
11.189429768822515, 10.724051733448142, 99.268559348634696,  4.168220105409508
12.014461171881040,  6.527149927789004, 47.230854142038353,  4.078967473212834
 4.085613934077770, 17.717444550736751, 21.021148963874897,  3.862138034644238
13.229377755189313,  5.419791422815743, 104.063166955741721,  4.308396964644451
10.673828670883420, 16.868904703836524, 97.139756105647734,  3.898874272402133
17.925367769329146, 15.239569120059862, 11.636721306709360,  4.083512027406950
16.035228559100339, 12.457919183952550, 76.419255842282951,  4.084320575087313
14.635102391774625, 10.165299598895038, 101.552231079363949,  4.158666591805748
17.745154338730945,  1.224317414774229, 53.376224919047608,  4.072656127218809
 9.412602851330078, 14.791076954439957, 93.791423330692638,  4.367733596435362
14.342165637854595,  1.397346648325979,  1.843621697194852,  3.674988035892941
 8.190359446011909,  8.985086347459323, 114.116401694317858,  4.098829161093032
10.796268451897740,  2.961491646009110, 91.905201800116018,  4.236661298670203
 5.887924595896529,  1.174217935240772, 51.995752381951561,  3.931175625411910
 0.984515442121957,  9.765448289807244, 55.463951338141278,  4.134708597403779
 2.678644422682053,  8.454556297953838,  5.004202356911522,  3.602373544959558
 2.157158444980162, 16.273788974539162, 26.223766200926615,  3.781550532553381
 9.968366802832303,  3.977898078712615, 21.758684084363956,  4.142753142869520
13.334680364987053,  8.739466678110482, 50.292209163413162,  3.789803786499742
12.444398788545726,  5.099303678269203, 72.059144849573130,  4.300392731836732
 1.855145393613931, 12.966109139960164, 57.962401184281845,  4.148434737141365
15.217525810559227,  9.212317907960703, 11.572381429214810,  3.806167817556463
 6.834362447813807,  6.734925242681130, 34.340633894762860,  3.854370847434593
19.108698444702878, 10.862105196808093, 20.634118030367741,  4.024742282851943
 6.543834834997737, 15.802047267894126, 81.946098460307155,  3.960532759420046
 2.393915002985582, 14.705103671478517, 54.024710016017572,  4.183888539843903
 4.640070367180172, 10.699803932048775, 89.452491312485762,  3.909270115478135
 7.760608306050301, 17.824428693428221, 68.757348230822927,  4.198768807424839
 0.553658620008523,  9.297871034411283, 49.422017583276613,  3.623639710024505
 5.667410694049614, 17.034106124705144,  1.945168861364479,  3.839739273459955
 4.725754840158747, 10.621595190622923, 37.225744703913044,  4.009728310166014
13.592124428836463,  8.086568043095520, 41.060507146470151,  3.854025446289672
 6.196624786347089, 12.845884370889843, 58.687724636496199,  4.048055607528847
11.053790032329774, 14.557402961351444, 117.442601809351714,  4.092990687478657
18.440445868778902,  1.811283998417829, 49.643407803373336,  3.478172861029094
17.425456224943524, 15.744031911725306, 53.331839165348960,  4.050923992524117
 3.590229072827229,  6.756010259371058, 91.753993255163266,  4.091346770789812
 7.051007498795324, 10.587542324309927, 28.441584498864458,  3.977668790237148
 7.321670485158535, 16.301583645827140, 14.934727558158528,  4.251633344809818
18.309452663305276,  1.685365040136957, 90.447434874184410,  4.028797622634053
17.536662453976273, 18.232924190488081,  2.120625090787288,  4.157060785805874
15.645868506601783,  4.758222520964006, 40.183846682204091,  4.139289989638763
 3.500836796347048, 17.671906500550502, 13.677490636336650,  4.209056601249450
17.812854537843034,  2.519975942604554, 107.735862583343888,  3.939170327111325
13.016484906815744, 16.846919949009369, 86.348717813871588,  4.361640509776761
 8.021095780319477, 16.147092938572083, 106.271274832658264,  3.955520775200128
15.999562218957450,  5.472685846782133, 21.582639977631342,  3.926557955348780
 8.155876927827981, 14.117975916166579, 98.904634676197745,  4.306921418848839
 0.921240143157682, 17.890068746441788, 51.152346301202527,  3.986011779266164
18.990044716067274, 11.181918987904726, 98.676716552624669,  4.051735604125981
17.654321823479073,  0.640813265410716, 104.048754255846148,  3.718916019380567
 1.522958361731283,  7.404981362677881, 95.148922395967205,  3.963515119991068
 5.621433732478221,  0.623073762932102, 16.881416630876842,  4.332513584296068
 4.428480047477861,  0.153827466719132, 37.304830100128541,  3.858518991633432
 6.702746389093299,  2.909978897795765, 24.496335038470463,  4.254694419068564
12.399848290846798,  0.378715218715205, 11.973097735303959,  3.739769301792608
11.598233093003092, 11.088466992241043, 33.459861472576925,  3.778200689239674
10.152951361446913, 11.270115594749340,  5.833998315447767,  4.090182356929102
 1.103197236661035,  8.693249520221627,  8.667267329151006,  4.195246178796766
 9.258512679319500, 18.978831443850257,  2.488424799394771,  4.067320237142550
10.789074343087355,  8.567248674409534, 43.869523266006055,  4.085511736822593
14.198547893709259,  8.955421114685610,  5.119050543127681,  3.771087319668045
15.440038097106408, 17.794396940009658, 13.518592578237410,  3.829967888576308
11.588256706858482, 11.505797968443465, 38.785246989475716,  4.045363056473465
 6.184335113616383,  2.683735576493486, 39.770923962852365,  3.997330285792513
15.105414911787582, 12.728923419557573, 34.792794617880823,  3.888639591764653
10.031577848189970,  4.497918734823103, 64.960569884683139,  3.702538872428633
 8.806098868655203, 15.951574563553828, 33.027474899086450,  3.762022141198574
 4.546692414268781,  7.624471986427338, 55.126524798828079,  4.175163898499990
12.383774286166824,  6.390226231086139, 85.048049534197602,  3.872927206214025
18.782141267007766, 13.738896472875370, 17.907194164780179,  3.916254945002597
 8.101569354324576,  2.837677036806207, 117.600244038680302,  3.708468622089694
 3.764175879223196, 12.675770115040811, 45.490934546852301,  4.121469805086144
11.934805523946647,  7.452032304654623, 20.647050485906203,  4.131388217875536
17.433125810323180, 12.775263920107925, 55.998073394643654,  3.901383581260513
 1.805024351392164,  3.862971944263699, 76.546901748520568,  4.039740244543038
 3.065183239679592,  2.662681724994541, 113.490829321628709,  3.934679789011416
14.020114955326452,  7.046156439101257, 75.282956891551919,  3.827636621682587
 8.382333426102369, 10.510200510433869,  2.207597063744357,  4.097227948477876
14.764414555170944,  8.697845131630947, 110.635991029568714,  3.724688462566406
 0.035952798885211, 19.045915245478650,  6.277053244482483,  4.169541918809694
18.369431326672988,  2.821845368612442, 66.407966679443348,  4.186523592817413
 9.363096103459837, 18.273598137315485, 117.463419959414722,  4.072394211832561
19.103610587623301, 17.823952816592744, 107.219765414259612,  4.047717843951140
 0.848022273829695,  4.313763090951865, 110.511720364487587,  3.879000650154527
 8.971955589012470, 15.140481201371266, 22.524324389375863,  4.285173714886779
12.255891568955095, 11.922789956801772,  1.949223234415413,  3.833356600561539
14.588789986827157, 16.809581090569672, 97.678886644160897,  3.982978582748613
 4.060300529251346, 18.038223776028932, 117.398159945420758,  4.202932156453175
 2.040901241079876, 14.108498498642025, 94.273028243954897,  4.016873395734036
 1.574516873225512,  0.749891721787449, 45.120272442749382,  4.017366216833953
 5.378764241316238,  5.999636324495395, 100.815107803141231,  4.348290567746295
11.276911021660698,  2.088586426659964, 75.001555723794510,  4.123161103144112
 3.896613021673749,  9.473450201263866, 58.780973668873223,  4.052226116606367
17.085601197219063, 11.131145395991261,  8.940293173561820,  3.690641594699027
10.691243197912334, 10.831638170213358, 93.747073098731207,  3.903878683225352
 6.704703423672530,  9.188949320568421, 92.780736378308106,  3.993739680306666
18.664102400148142, 17.229641752219869, 15.842103161285856,  4.143375578092875
11.693367632886151, 18.230926164602906, 35.599838535602402,  3.976442369592908
10.083148930466143, 14.356218599415064, 69.233002593256359,  4.097786776330826
 7.795493067560542, 19.116228366265226, 75.086489213130378,  3.997676005795903
10.851099432495451, 11.069244983396255, 52.091907194955475,  3.749702908141869
 8.154888094387912,  1.371423010530446, 34.939965748419134,  3.823585748891341
 1.147531747881959,  6.029180327134364, 116.004797954271581,  4.468147237001357
11.441047537827371, 13.207273320985319, 58.072839170094980,  4.055812371665417
 3.301931357326314, 15.963643207282628, 17.490925158397946,  4.148624753080575
 3.273591652034440,  2.297447693109264, 22.178377591687987,  4.034640036732235
 6.127326589935333, 12.087104603304933, 80.518198423892201,  4.023271158975298
14.527953642201496, 17.651805568850840, 44.132939964495947,  3.937578367219774
 2.706371234762313,  8.381132460628320, 109.546061441512919,  3.963904754830895
 4.035501916102159, 16.938330038490719, 91.843950135031562,  4.159973024441836
16.440990817600724, 14.273735527380493,  2.545250047247023,  4.045470497304313
 2.270478069167767, 18.909081156134924, 88.917444895377614,  3.706429747080632
 7.186860081073945,  1.073138802538944, 20.771795702068459,  4.067544413731270
15.390537927238190, 13.821598877076822, 88.445087995794552,  4.344419852894003
 9.511241350097887,  4.416959969950919, 27.332133898140587,  4.238311531353404
 0.936210035660262, 12.737001953766157, 25.169867434279567,  3.944449392115408
 5.915351490114022,  5.909689556312038, 107.410353982132051,  4.037476667788019
 0.816494665950000, 18.461540090770296, 23.252540567574290,  3.914428203655969
 1.398454048487323, 12.734470386855486,  9.410458971642591,  3.900241983203724
 8.998260259737751, 16.329311141725039, 102.330092898437542,  4.013587009491736
 0.434670690596615,  9.818384935236013, 67.184102223866248,  3.901224557551235
 8.679335253530326, 13.101155595609338, 12.568466572973515,  3.995754957262589
15.038798686442549, 11.149811245670612, 93.730438926446652,  3.724456450622402
 6.527419314450338,  0.809464702716230, 114.730258306938907,  3.852321029945640
 6.550594707513846, 18.574934893540014,  5.456768141245516,  3.998901434602967
 3.774336023580086,  0.908364514330250, 58.839579491388889,  4.208849123295278
 2.295487539882951,  1.106312571091614, 68.718336187268051,  4.052866186704666
 4.859433161698772, 10.461014637252863, 77.059547333171594,  4.026350395461087
13.057402327234747, 15.153026948577295, 11.969220174261100,  3.904105416147172
14.136984316215866,  2.452613483487353, 113.859867813679188,  4.154876750887496
16.472272727038956,  1.833877131039753, 20.629242401011904,  3.637207600403899
 9.457534891639181, 16.906897465879307, 11.238479490023060,  4.212513447838655
16.175258335818601, 18.374151883416015,  9.610664288048861,  3.863667224662018
 8.472750186802021,  6.600632412595753, 85.413001294856883,  3.968336302648449
 5.231304887655718,  4.205638855625906, 85.931683009334009,  4.157599301269757
 5.064152395102099, 15.776063949894356, 114.192023050088366,  3.546962514663985
12.326838591431612,  5.972642069713659, 24.586382057350473,  4.205222499565043
 6.984794091165940,  4.924356006574468, 53.085700371821460,  4.147724736309780
 4.954887842387027, 14.281036646984496, 11.909719616041082,  3.850704222908090
16.288689686829969, 10.910096381019741, 17.266936959391206,  3.672519704647200
 9.572447798294681,  2.835559873575932, 85.256613284857394,  3.858723439658873
 9.595940627177511,  8.024599045770598, 63.230671041249899,  4.169195836624321
 2.382343384717912, 16.419703378812279, 10.011480025022847,  3.803821889429648
14.618522218308827, 12.643648641847026, 109.524759356309360,  4.452898712682393
11.638535285098911, 17.433643652437912, 15.471500589181103,  4.209939220486773
 2.302516481504867,  1.460322966711762, 30.027887519898670,  4.074860266451717
16.347173635056159,  6.935993619875773,  7.834011775095107,  4.239828220804146
17.148028998191027,  5.260360119276598, 72.480983210974145,  4.284715665623501
 7.052891115648441,  3.516038554483787, 44.707225686783332,  4.227333781929320
 2.981694512253090,  3.331804004216138, 81.790726371541368,  4.160066789412785
 0.044259318668177,  4.572773171469281, 42.291659189034320,  4.054118991111494
11.348401084393720,  6.147436318831351, 16.203123795582503,  3.802236153864674
14.181373000248756, 17.831576884364701, 53.897591047879715,  3.677500682600563
 5.834718762247995, 14.291268333765162, 20.132187351140395,  3.761055193174634
15.575857391797848, 10.837134680332817, 38.623924679969356,  3.974630044942035
 9.399401940915510, 13.009042540183870, 30.683831504153012,  3.854030383556423
16.212213998807613, 11.292035278457728, 49.000938457301807,  4.324830204515766
 4.551188768683623, 11.703927825142646, 84.287036317042080,  4.100101461780996
 5.910948499192649,  0.250229238605977, 31.788478444420853,  4.211893107397401
 8.532892397238754, 16.014934966078808, 57.575767235634281,  4.085273505970281
17.575218681328447,  4.116375144494286, 87.054644622781922,  4.021403971434308
10.922731833926393,  6.954964576949505, 33.786278122363498,  4.348144448708709
13.637195901481590,  9.821595767112679, 27.535275896886773,  3.759826113576113
 2.936093289157407, 12.357026980931941, 109.845973790677846,  3.925213703046025
 9.712809357535429,  7.845138494895957, 106.845632635702955,  4.301939907672649
 4.109115953305325, 17.328484629065617, 107.430572208015235,  4.273325668832894
 5.150988020713721,  6.959883859875148, 75.136288647809494,  3.961950759670582
18.961789291135755, 10.902353428932971, 94.770897636855381,  3.766169772791812
 0.436266756393077,  7.109454015946572, 22.564885989239173,  3.987898981652708
18.231104788888398, 10.313333553273306, 59.390625303837837,  3.995655762952016
 0.644307645902511, 10.935810528216088, 39.154487751986494,  4.212553026242390
 7.454470402960690, 18.037287728632840, 24.943574699611606,  3.815246395210636
16.517210211325679,  2.222053198941401, 29.821058753701017,  3.927134353373210
 0.261329007466712,  1.906227650016379, 56.976833668270849,  3.925574251393149
16.635298979898344, 18.582891650352288, 113.599409769446879,  3.638544360340410
12.972287972480338, 11.097520303232523, 90.488948928479090,  3.929368027527783
 5.580962934624898, 18.223560178165780, 103.603509853287477,  4.119457200357556
 4.646705163242798, 18.824522618887187, 111.304120340399095,  4.047394685193948
 7.702901243559793, 18.056563314292859, 41.582649450352903,  4.136078419702722
 9.223316332592374,  7.221713762083926,  5.932803050329340,  3.896150982393261
 1.659333255832256, 13.567934307143442, 14.235194011101765,  4.286305930678211
16.154903564885945,  0.330818431209280, 24.390058571344586,  3.655639640014408
16.509140479380527, 15.901507193263887, 103.192448922369280,  4.374382432878432
 3.720180020010865,  2.580145993438463, 108.215450405770952,  4.044275437982374
18.648460903437442,  3.232863884505171, 23.579396483622730,  3.967220485334710
 8.177317108862594,  6.865405602277630, 110.629417799761328,  4.038345270400137
 7.999669359482873,  9.838035619267890, 40.241453659808705,  4.079262307085415
 3.696093640937935,  3.486271353207357, 55.309121775111173,  4.259235151835910
 8.589225665473577,  5.236489013271257, 73.828467723550929,  4.127779114688151
 3.158568224814307,  1.076914280859154, 26.060531181697954,  4.036886296612710
 9.031081664593813,  5.226735882360024, 69.883116312807914,  3.692533589007130
 1.632561813286802, 17.073465196813693, 78.767856009651013,  3.936051355961007
 0.554141777199800,  7.280194454906998, 26.690542570230800,  3.503792048948021
11.433423511919683, 16.452837343975471, 25.683183723791512,  4.103722073814842
12.105083982644198, 18.123358744325106, 40.981613941218697,  3.738018410292604
 6.205582291178145,  9.860886228345089,  5.544481577756907,  3.953847922278407
18.727300923113386, 12.417967748629552, 73.306735095426291,  3.624255760379967
14.859769843276039,  5.852207525482110, 44.170417521110643,  4.123783052174798
 5.320671619155844,  3.587476789716905, 36.036464211668552,  3.662228902162609
 1.635423794006483,  6.484943481809992, 73.716595906327811,  3.678727774992095
10.617342006197447,  7.159047204477711, 81.411274497788497,  4.216905266856255
15.164020065741175,  5.288321881113594,  2.041422759771654,  4.056948756067253
12.674208026762873,  6.935012117881133,  9.605002881524289,  3.912869171907962
12.119366987643186,  5.818363916710122, 109.798272486695453,  4.267629968593643
 5.080974016373927,  8.135439603074948,  8.978689370772221,  3.846522316333365
16.103661326092915,  6.865063040678939, 48.311759133937493,  3.952407221860253
 5.532199483920312,  6.144933661784874, 66.068858167122357,  3.913683480624153
 0.145012413862572,  3.731977469049347, 27.564630635798959,  3.793938353792066
 7.299076711964444,  9.067638806884322, 52.144206227155358,  4.360886507482713
11.936440226925757, 17.802518729557832, 59.016838992493547,  3.576634305987966
18.752947938400258,  3.135455149712449,  2.115289182162955,  4.226981634953954
15.164174122809063, 14.597077063579469,  8.522164794296655,  4.236165695688348
13.081505223697365, 13.879595641294129,  5.133662036906534,  3.799507752788048
18.719985317085719,  3.767208462023931, 94.560139214232422,  4.000251802177802
10.582967335302722,  7.727273864045527, 12.870747789658717,  3.719812628891667
 7.231085771730019,  4.372356563476464, 81.949444927133015,  4.470285297921676
12.808024600331098, 16.719219840945346, 111.045706236913631,  4.070095177864760
 8.762406033324543,  0.138619877303484, 28.487557952633452,  4.049619054945103
16.189684747428437, 17.661075289639665, 77.644473682300642,  3.999514518456495
 1.539272649480180,  1.847905698141091, 15.583986525169086,  4.348438762731655
 4.897706116444716,  2.835369917457351, 13.297673464901530,  3.713872102841318
18.543780659374853, 14.641016096329832,  6.091162982864875,  4.062902883056296
 5.633738864904013, 15.661232941910109, 95.748226027258909,  4.300646897226142
 4.359307121100402,  2.160511431960493, 91.370594275447218,  4.187935630495863
16.864467809400669, 14.757567112412422, 114.086621931754394,  4.075865503772547
16.781951334853151,  4.585682165559725, 51.471878390871524,  3.856524425694149
15.096666160330733,  1.872397856496006, 93.109949067150524,  4.132667687956721
12.777345330843643,  5.160006450279196,  5.529718526549124,  4.282645653751462
13.217831680263245, 10.136211570770648, 46.581665767266799,  3.614421999519341
 0.583716881105510, 12.673194866502335, 62.019839900288865,  3.608143006838879
 4.820701359128436, 15.036946170276908, 23.730381078162036,  3.845916600084014
 9.957425391985522,  2.717243571865826, 99.257386091841525,  3.878028850864947
15.188111705430577,  0.660780493831781, 110.433971618216432,  3.628160463830779
17.622917450319040,  3.305156929196551, 46.166894983341692,  4.195516246788237
14.994269596149275, 15.417371532141077, 117.529488530288432,  3.837620721736281
 6.633834376402716, 10.420109090992627, 32.495443576292217,  4.082737253121976
15.530998510193953,  3.754562730896236, 26.135766150497879,  4.099634770128012
14.249961864351183, 10.345734907718441, 73.321093167680743,  3.834481044574888
14.185500785736386, 11.522114919008349, 117.440385356761368,  4.073058608139426
11.773150027034831, 10.359358987859355, 66.640467983521589,  3.743399803711144
18.391056724922404, 12.651056966180366, 111.153873648237763,  3.728626377163129
13.449749310823712,  9.773626972417723, 106.617727039462707,  3.868892074618761
13.928331032869917,  6.035274263718146, 13.415443404742946,  3.783003804052913
18.214245696463728, 16.244325128930555, 43.851789928399612,  3.887924970408791
 5.140497212570240,  0.228771262876563, 62.615916778595476,  3.897193199036733
11.090816451379448,  9.049897501740443, 70.777828361212059,  4.109564495117914
18.976093599023326, 16.644263917936904, 57.104914100273376,  4.232988167181433
 8.255111423088149, 15.172428159884531, 27.667535192952514,  3.692819151460165
13.526444110106370, 15.047374822260601, 37.754572413516286,  4.267417520025269
 0.462042982293466,  5.267175545035937,  5.650213016721450,  4.180687862536931
 3.750371108527783,  0.729257233815250, 48.613681041580556,  3.959451496547662
10.038332179836104,  9.737335305614444, 48.561718899041374,  3.910494954090487
13.448502813150292, 12.592416009570353, 30.326477681184741,  4.058851790160831
 2.823870129465066, 15.527577788436567, 64.538427382239647,  3.575305966437762
 9.662573555274550, 14.063867014399385, 110.690192253167496,  4.189960701508576
11.754202432820229, 13.190296496785299, 15.256085415497482,  4.155962057822571
12.031707309944135, 15.109389423269972, 19.400181551254516,  3.905651439875021
16.948847187066416,  8.486652226082432, 51.976488627786885,  3.912903149627063
10.200300247692381,  0.787064245413301, 44.257418964974946,  4.008487334860370
 1.761914981364628,  7.846519664945699, 77.347979063421519,  4.030511302562739
 2.446306681013066, 10.357247627037767, 80.476541519295665,  4.096936552466638
 5.608033077251034, 14.409271678905711, 31.099846117595366,  4.186492493570956
10.824128655572398, 18.995038473648421, 106.874528796705150,  4.098970056664651
15.866894527004993, 12.793090378198301, 63.177969971389970,  3.809430086033930
 3.620783079768562,  3.037893779231936, 42.676849068926053,  3.760391011549387
17.029346909072405,  5.596864455713345, 77.579360680807724,  4.245912402726563
 1.557004183669799, 14.234321007360521, 113.690578519105557,  3.638653878479272
18.201615186425563, 10.114797948064824,  5.283421426133197,  4.177489680007064
 1.884445194958990, 10.650149695659749, 105.981440448149669,  3.960997033934338
 3.029203413529219,  5.820074390897848, 29.059137168746314,  3.844647387618902
11.400713797825189,  1.575417932453199, 110.737276636230703,  4.085966629522649
16.148297460742732,  6.449198297635050, 101.267844312209647,  3.870442754737780
 8.484305170537633, 13.060138491859972, 114.537281917765753,  4.070457657098370
 3.461793003785269,  7.885998689861210, 32.756734471163050,  3.929183706141119
15.173218501927032, 17.786128011781919,  5.706188768855437,  4.257531070074284
10.963369213787116, 12.983730591775897, 73.250909253184133,  4.572767519590188
 6.081442784000730, 11.681855289339312, 72.816130866909106,  3.910697298179605
 3.539183915522590,  2.342068676352783,  5.281359160279258,  4.319776106401195
17.673533317702891,  7.804896167606864, 33.494436886204625,  4.134273502634075
 1.429646411706119, 17.195823890721385, 72.494442228316771,  3.697811661339189
15.805041110421488,  1.613170665734891, 34.899529569313977,  3.985591299298179
 6.084432501248024, 18.310874713662407, 88.266734446224362,  4.040430754182124
 0.016865493997217,  0.022931006196592, 12.094670632816172,  3.951674952748771
 3.540532041997272, 12.378540698610861, 66.709196910679879,  4.187900658007082
17.591522151755786,  0.818915138976755, 70.243814542342278,  4.141692179325094
 2.193879826125497,  7.442932796115077, 40.558638314932885,  3.883246965472821
17.688401255971225,  9.257869129727817, 63.334300170636546,  4.110825235128265
 0.609745777145620, 17.567293053138528, 36.719628501488785,  4.120056766559117
12.106050341374182,  3.134969968561995, 117.510754121615918,  3.937734633292189
16.119157681049952, 10.658727716995623, 113.808694614565411,  4.192724562907322
 4.092806283005683, 17.559969961469889, 75.557308083507650,  3.777419222673565
13.148490117921565, 17.314158890413321, 74.790524422282346,  4.100738358251845
17.587624573285456, 14.169496559102351, 37.506037128483612,  3.975682546643658
16.442849494158821, 15.134440857193702, 84.592707734846499,  4.055125459119744
 2.277178818195142, 12.320957930267220, 70.623739233661965,  3.906277703089430
 0.908618771001672, 14.979566400609073, 40.544141304096527,  3.981449367756079
 6.130410647799083, 11.108724404201920, 48.553037411090735,  4.207703880447373
18.379798429738614,  7.569882169931435, 112.113482758654087,  3.765498919594991
 3.490590994393287,  5.271483297760625,  2.173921861070927,  4.173948438931999
 0.208524421723623,  6.401119995458898, 81.219537060973067,  4.156590360291587
 7.014922077768661,  7.019728956326322, 89.267155405124285,  4.264438561887087
16.116030078928468,  2.690219191571809,  5.257602113376056,  4.017340690101014
 4.319213998384332,  1.229991311826634, 78.435448063603729,  4.144109665224281
17.218144363532346,  4.474716396114676, 104.437703442305988,  3.808628949153635
11.854792579261954,  1.066821811457731,  5.292590734621431,  3.927114184223186
 7.547569037687480,  6.349559247300165,  2.046326897235934,  4.086935337582870
10.165311252952668,  7.109428216947802, 92.179834158309106,  4.158906485856242
 7.848589437773455, 16.846507468290909, 36.927403406680234,  4.438509497276715
17.283986286032960,  5.197163719255958, 63.233740959009815,  3.992221067357026
 1.257022777849161,  0.160551109600646, 93.577958918722118,  3.878824952223825
 0.259427180370984,  1.747428253246806, 117.508981961216548,  3.931248585992722
15.210663488165618,  3.930989201276676, 69.003345593753465,  4.074195496300501
 7.651154626322482,  9.693995892782754, 60.241631809192754,  3.531240284835735
16.013900192100561, 15.402873962123662, 31.360968721657471,  3.722833829001986
 8.814327488377030,  1.234887492411184, 13.900138213731683,  4.412604267391372
 2.209286875763532,  4.424888144002413, 88.698237737353210,  4.024848086764817
10.955500994036289,  4.112374972974579, 12.098110272674246,  3.600678046129981
 2.277043888640785,  0.973154904592795, 104.878943434241378,  3.888643657602821
17.719951411100094,  8.863494009631156, 74.854389557366730,  4.275248904316352
 9.163939877704887,  0.449352463319853,  8.256179330506109,  3.790770299916174
 0.659762191614169,  8.633388525390933, 30.197030830575386,  3.802797794554125
15.466019962559127,  0.987611317052984, 56.805980342385908,  4.095919162115950
15.558190634819933,  7.461994249147851, 60.374272555956772,  3.939550874905394
12.225483003739997,  2.927591749851254, 30.234508761238953,  3.853437580116020
16.226769491506111,  2.730375687308559, 13.182509488905257,  4.267936951061493
12.091040010947316, 17.028241971780588, 47.563227484890540,  4.418124713839148
 1.974123924741799,  5.420731950575213, 98.492427217789952,  3.727098857853524
 5.954795745902512, 12.973735251088685, 52.112719454775899,  3.835008775531747
10.649686114317754, 13.795509937894169, 65.368661132025480,  3.770850652184824
 9.874146836333166,  2.356695691187897, 51.502292094354395,  3.970968590505282
 4.745963417348049, 16.589041236376204, 51.140606089430875,  4.006615448255912
13.691001662237422,  2.201951634804238, 42.735219495702339,  4.057784879517002
18.715741689953685, 13.617660888101973, 66.047722602902581,  4.179488436690385
15.050286521200794,  6.694732805996310, 113.939892465859572,  3.976169566264045
 2.242926160580088, 16.025171800960187, 68.188858201500139,  3.878885885007310
10.846886852518885,  8.362530539853523, 88.220160490441145,  4.092360599230064
12.924835553600042, 14.981037152984710, 61.498466123331255,  4.137397461717908
18.021996669741409,  9.639967612320373, 108.623064531980390,  4.139819208913544
15.949960138620947,  2.155428428390997, 75.190666321976678,  4.288658752579461
 9.380747741344859,  9.444997607986688,  9.353465630765719,  3.918497145180225
 6.245613593394411, 15.239035867619169, 47.582924991030801,  4.133315559640230
17.106425814763789, 11.494195442161415, 82.901451102227895,  4.065596570262335
 7.636174187787851,  5.908340052961600, 11.088016613985717,  4.010686102088147
16.157402216762897,  4.415646605652688, 117.285132683038228,  4.394944568580482
14.854003218970885, 10.190076888093346, 86.403818134903574,  4.047455103958241
18.798741291878272, 12.913187145226216, 46.064872744266935,  4.136243503500580
 6.906995793240520, 15.131706702905779, 117.559530852456604,  3.884801711369223
 1.430582806100928, 18.889719382255628, 63.805456414352328,  3.848736451438996
 8.397271974696020, 12.891639359946172, 83.817170684362765,  3.852838057101198
17.575151419087323, 10.604888004468139, 27.510443123655183,  3.984807607808074
 6.001039215773496, 11.072588661570487, 117.328421923037553,  4.236390355736427
12.966313325821590,  7.944934055566294, 95.151614717165259,  3.961674183236962
 6.484137862867938,  3.726398234199988, 97.428519613898303,  4.059108420481276
12.967256967094229,  7.307235526654304, 117.389180259368345,  4.165046375040576
 6.475195337537833, 19.108514869201624, 55.761337601473230,  4.010183110576816
14.656204292769120, 14.901504551235471, 66.650251618687420,  4.348118434304999
16.054452602557575, 13.666896664330064, 99.734661261428556,  3.892552013222791
 6.963751579645149,  9.954825482427637, 99.543273595802063,  4.422534763768032
 3.104615355108511, 12.165955087113339, 18.615552063702271,  3.767383592423495
18.762140342518023, 18.877554796802357, 27.549161359346321,  3.893897995524883
 9.108136642630573, 16.992501068733105, 113.591974618772170,  4.084689106668188
 8.900109897490246, 12.860358125306181, 18.184314184672907,  4.042943719008452
13.509543764177300,  2.610685490481954, 85.157696578786783,  4.013303907197514
 8.538511615377026, 12.195301097632516, 55.210384362838354,  4.315868398561843
 7.476911121413283,  3.691842286402235, 57.011520874355909,  4.031104228002087
13.278091301795641,  3.976862333590054, 49.989827046685150,  3.848697094084911
15.489355591630222,  0.211637251321050, 117.383086254739140,  4.053207857347714
 9.658899962295408,  1.076513490448132, 38.810109731717297,  3.870935994482027
11.948804685254578,  5.307213930083952, 61.268460716919741,  4.020300949969854
 4.450953993612273, 12.874037666224812, 62.316895243853672,  3.908071080043548
17.141676334661373,  6.687342625810897, 66.867917129497059,  3.770035083103429
16.825034783785849, 16.261489295789271, 110.231166362304421,  4.117885393966835
 5.874745631208311,  1.915795261735950,  1.927987328177623,  3.850345562575569
16.873986459549382, 17.196136731952951, 93.376033866082551,  4.031829536975222
 2.906409661279855, 13.966180422209206, 117.398916652854510,  4.141312572739333
 0.146207642204527,  8.778340536852363, 71.016183433335229,  3.939030296280073
 9.062771160512787, 14.676279834605445,  2.172623584952578,  4.266989207794848
17.169273014984082, 17.111623734038020, 20.156823835205138,  4.207439163157185
 8.979023624971267, 11.064812130464810, 90.319282300777132,  3.678252728864996
18.206051243236100, 18.652899033843280, 32.237002560665694,  3.944925871419318
 3.683457823225639,  8.693768775367339, 69.147639069414240,  3.977410808103173
 0.062727107804908,  7.875954329845450, 87.764110635515820,  3.871851551731997
 5.637848615535417, 13.046948774552948, 92.506742490330780,  3.993828246057697
 8.289810018054879,  0.948091616478207, 65.255082864090753,  4.184890207847661
14.538815975000896, 13.439099139345906, 26.637624208605750,  3.766406677852460
10.266752272799588,  1.462021110371421, 114.464558754136888,  3.655343061898520
 2.512335856915970, 14.201639256719758, 88.898261283461494,  4.293506978605599
 8.422292402012378,  6.990372522382229, 18.625776365340808,  3.933984171550084
16.783150548749745,  8.055383278611171, 14.904063506971969,  3.763308703440746
11.926429327976139, 15.143283751376348, 107.400335586046211,  3.953571620921380
 6.693711581797450,  6.959060761815854, 30.265272276885170,  4.144134254366659
11.569167241025040,  7.695104670692668,  2.207671261990349,  4.372602760875891
 1.413934300586388, 11.141660927402533,  2.043128794201440,  3.941065666126374
 6.226954618964418,  2.688826799690239, 68.577519921681144,  4.299436574736131
11.299173217689177, 17.331819642658658, 66.782767805093641,  3.848527397514165
14.992189750277337, 17.935577362284569, 106.832483036625902,  4.210845241211602
11.299704320923770,  3.616909821792059,  1.983363519455747,  3.813543311056707
 6.371175845303781, 16.051989906714589,  8.599913325312130,  4.050417260536014
 7.857528850429595, 18.889729945457290, 92.031480267667703,  4.354339908383044
 1.174554131397408,  5.325242679308182, 69.148270012154512,  4.164035483179184
 4.996871178888942, 13.081334300499778,  2.147483415604580,  4.145667634648689
 6.682585504983424,  4.023193215035484, 62.840538887535168,  4.139100037530649
18.168423018515309,  5.671917431854490, 90.882345619933602,  3.987493896153652
 3.609338056619178, 13.013810994615980, 98.445142552707367,  4.257360070846172
10.117568284362690, 11.395555216177780, 21.826408468745470,  3.670339194485877
 5.448705156394695,  5.962896976806026,  5.792959905360412,  3.868391373593971
18.111974394472309,  6.510469265304606, 11.557245624370021,  4.021368434314284
12.213355621901258, 14.387464955298380, 77.597433370122346,  4.140357750146164
 5.609321154867497,  6.836966488301707, 38.512311209897199,  4.146944724379626
12.901100254478655,  9.864664504288736, 23.789991101392307,  3.796811190515932
 0.932143227640536, 19.105329169934521, 101.060450858981909,  3.776862452038514
 4.529682213592913,  5.285377433517780, 111.043692287958180,  3.810056187609473
11.852899265843714, 18.281174650338912, 93.435295353227758,  4.162768136202654
 0.315398299854280,  6.223847644292561, 107.124713096882360,  3.838300818403120
 3.711230986317435, 10.614722774692385, 94.906814920454408,  3.789780825124988
13.319871148559283, 10.953840798749779,  8.295707583316590,  3.937729156756116
13.318201072106548, 16.466774229958798, 70.304307398660754,  3.895539528390738
 5.293590183964080, 14.702427477467401, 101.700152848207310,  3.771979479123224
 4.704552236239143, 16.029744892448694, 39.672826301958033,  4.044027470033543
 2.937733179541286,  8.109628352859534, 19.298966360396133,  4.199628128669102
18.296357479440047, 16.732061908235934, 89.600799574249109,  3.981526703988693
15.013767049214355,  0.295800062695139, 50.394360775805069,  4.157473961874339
 8.427607118841747,  7.756669519742793, 22.998388534749616,  4.335232093746323
12.340149430750229, 10.454759198666830, 76.825421257623120,  3.871370310070856
15.091034393890208, 18.665284085619383, 83.383299713976527,  3.724205150525511
18.800850305705506, 12.333756981795007, 102.786576959505808,  4.025053212117003
11.197233266208018, 18.973823823855014, 83.121134460865051,  4.070752019923034
17.473721962473274,  1.027734250415230, 42.780682199068991,  3.855696390622699
12.625951250263620,  2.559113027893722, 15.224590651295637,  4.015437915052853
16.987531533252874,  7.296528348426884, 84.553129626680885,  3.966805161786666
 2.680585974876887,  1.111151532718584,  9.171891291190169,  4.012874687708591
 6.451946990169056, 10.224884814709734, 20.153846852660383,  4.136757773488412
12.869995471570066, 16.736875896904369,  2.226361909319972,  4.297711676747507
10.548701198180336, 15.387534192390987, 81.236832297747839,  4.040759068819947
 1.907484403512911, 19.055380854227224, 40.572967399152425,  4.380986291744525
 3.728823114782604, 17.202624303076181, 99.141120402746054,  3.997194743138117
18.215957679697183, 14.774138577034250, 28.147614994055132,  3.964727013423329
11.146418008893837,  2.679265354285874, 58.337455818752993,  3.984071593813538
19.030613357886558, 13.811614406176567, 107.449208491073350,  3.969715205494817
14.270276940488154, 11.858118990082911, 79.993213619996155,  3.934347493612261
10.182913546294193, 10.505594157975992, 117.414521363818025,  4.169190384430744
 6.686784400090326,  3.562876093525885, 48.916132468711481,  4.019614305680603
 8.171858202092308,  3.271005316216773, 77.727676018546916,  4.428799501341505
 8.482165166346396, 12.389531465179237, 76.880082605757920,  4.182008062265139
13.937281229590175,  7.532544471654984, 64.280453442622616,  4.353160876705438
 1.888203651258566,  7.615481236457251, 36.544901303963847,  4.171120678793513
 8.641953984685575,  8.193660664573002, 67.383273551886177,  3.980223392157122
17.073334167255712,  1.221592936543431, 62.909784505562655,  3.870992907672521
 1.082160372038851,  0.553827071440513, 19.429333948807606,  3.809504498699579
 7.615971549453752,  7.018770546558761, 46.932726668502539,  4.006736425600464
 0.934036491163580, 13.338255273173493, 85.018725877510022,  3.968507866049978
12.178730271408789,  6.355698307051934, 67.880836417267446,  3.965225001209382
10.298558004747058, 12.374895660459343, 42.517680962122789,  4.020019533847669
 8.402740330086420,  3.285177958041280,  4.833641979740962,  4.320754592462244
 1.191735295546331, 10.140226519511737, 91.262827133781400,  3.887399067532436
13.979879789349186, 18.094143697882551, 63.970065138912936,  4.062392796206075
17.614755515373048, 12.076546375697530, 69.693948584950704,  3.868314254595087
 4.378236404043579, 11.910240868553878, 41.262066544519755,  4.449311860171144
10.733220283590795,  9.814953115851962, 84.434868451369724,  3.828619573099945
17.648387217160799,  2.637633261711249, 83.226976059796598,  4.073609247136622
 4.786602563179160,  6.687177055154712, 43.427977988064605,  3.952386296300568
11.608016310200066,  4.418905061010091, 40.120554358358426,  3.961367070072407
 1.175709483590764,  4.452592531456074, 19.569532307756354,  3.916726316342662
15.080190854372271, 15.175600578950732, 16.726616866103310,  4.023711602950400
 8.316110017885391,  6.108754957501517, 59.989427732616043,  3.639689289182142
 2.953107979850357, 12.249812327995116,  5.717303383758054,  3.994108565574648
 9.944941014189521,  8.396054776103746, 26.723501000045882,  3.786930304447752
10.150417174367092,  9.226464148742407, 30.443575220905959,  3.792316573372298
15.300357655060219, 14.279271027405251, 72.895633422512475,  3.958839071935348
18.844414935635236, 12.040186372594992, 52.244478914085569,  4.138750615104908
 8.159771526407676, 18.772210844305214, 48.815294450754322,  4.272748259216028
 5.221163500236184,  3.026764681528892, 74.699669325226992,  3.900382132797282
10.918899641310500,  4.650147880735850, 43.957351565659799,  3.729154635342877
15.861484741560728, 12.522585694970152, 105.596073572236875,  3.638772888940134
12.204716683205213,  9.476305083457028, 114.024547289404651,  3.905491951849794
 7.564363221490294, 10.334902953866871, 86.748012236118313,  4.077535784764602
 0.284322095880450,  6.650683589279371, 45.450992415548555,  3.470793953009648
 7.024258586956269, 11.612319986801936, 68.889927017850468,  4.142403873164965
12.074042510813221,  9.982730146781131, 55.683126201267079,  4.051534897121305
 3.355386399643569,  4.097205849819748, 46.468937419300950,  3.973291949939232
 3.479499125228817, 10.732222698933052, 11.969660289918680,  3.813686226703411
 8.719066843438103, 10.031283064901837, 36.079846006506386,  4.236567008815871
 6.217523384867263,  6.589648097297927, 26.291163142789095,  3.881397527674706
 6.087018100434740,  0.017729568692825, 11.003735897938666,  3.762444920888353
 2.307701003407302, 10.044146306216158, 63.850400388429428,  3.580001076808283
 2.776108827932921,  5.063294879623278,  8.936627713136444,  3.758315379108645
15.645918030586586, 13.259441469041922, 20.377969868847423,  4.047383190471075
14.950934744803023,  1.572813520287788, 80.061622130098016,  4.057280517672109
 7.937877547036127,  0.472132737872886, 59.571553385053562,  4.171131662153651
16.809023818672884, 13.975992338713461, 95.905476958338397,  3.906621194481568
13.935615624278981, 18.750713924858765, 31.771963924573939,  4.167952824447943
13.650690086063808, 14.534750575516540, 41.861070331520942,  3.956737815807030
12.578437516355340, 16.741684085043371, 103.896146015565833,  3.751605974347941
 4.429114271212806,  4.663182198523919, 17.253174634721503,  4.005659908097490
14.701516649313840, 11.829699502953643, 53.013474221500097,  4.297469389074885
13.677341126613536,  2.466478561493294, 53.535410471978118,  3.878201544304293
11.223747189357688,  2.354758002345965, 68.357475332563311,  4.062033006109661
 7.144561082136151, 13.231722607780767, 38.661325206924893,  3.586236516230112
 4.537709220701837,  4.097510417790023, 32.294232786199174,  3.954182351808488
11.767138242205474, 19.080841772532509, 19.328519416118795,  3.943024417513330
13.243924841762357,  9.420130450300672, 15.078644948915926,  3.826990352663042
15.581203167304547, 17.868281719254089, 60.218378994991014,  3.990786126601441
14.451207505643033, 17.973560477925968, 90.217381333967907,  4.048351957778054
 4.531637010826549, 11.604622231468449, 55.368355628871925,  3.755955667125739
 5.218411203538909,  0.657784809578661, 95.149324716798290,  3.981250015541995
12.798416115229866, 13.622767002625894, 23.237212662938600,  3.795822568232061
 8.871008458029619, 12.949488610520003, 61.809458159573303,  4.068661502897304
 2.663042559935004, 10.086442215224704, 73.755660867432184,  3.804269199035407
 1.798050457437343, 18.038517987571062, 113.975331215762850,  3.906176270336878
 8.230849964218761,  5.986599619136267, 41.492945801923121,  3.948921021728442
 4.142905972290881,  7.255123383000250, 82.518201326855518,  4.047259680130159
 4.648379580402376,  5.347025908545134, 71.454071881429797,  4.101664361525097
 8.586611379681974,  3.605913817528739, 31.707208442993103,  4.078841440994981
18.868603187952090, 16.783790922565029, 117.321021271195846,  4.299762418117789
 2.058078997191794,  1.636445104946913, 85.478019148451338,  4.014832974533923
