BANDS
8 8
NANOPARTICLES
cell(1), 19.124
cell(2), 19.124
cell(3), 119.523
 6.244021620734457, 17.314459417985411, 78.360898929688361,  4.057111415068107
 8.055869769261204, 18.370963967898724, 86.036545880806187,  3.799517906862762
 0.882182729275554,  0.857610940832807, 12.600061080989338,  3.861940875199806
 9.118657201658372, 15.617075994706635, 109.883047200994710,  3.820216514436826
12.585550785493222, 16.071647951710027, 71.780104585146191,  3.638104407840587
10.509263635485228,  9.216870374807286, 73.397290713767717,  3.953978160296092
 0.230703229610377, 16.187955291227631, 97.859050614366097,  4.162999972736297
18.102497372609601,  3.708791623849637, 56.288478521390999,  4.140008626284772
10.836027130009654, 14.413309933588371, 28.497667760896100,  4.247127777134880
15.813128884375143, 14.756125455008169, 96.167778485237648,  4.102914955524212
 7.204646528377941, 12.385465417006149, 76.435455260082534,  3.932541575961394
 7.213323266609724, 14.825911941295832,  5.538551534497075,  4.334630176344218
 0.981693314758913, 10.245837671109001, 67.144886867685088,  3.933002983401732
13.123403141448899, 16.796119758721677, 81.792679228526964,  3.784618498039695
18.737567172350598,  0.924499577613392, 42.799201544077874,  4.012322025888428
 1.458084814775561,  6.416244061156787, 66.254381317023444,  3.972064532471862
12.472683364466391,  1.400776011471464, 80.931739520463978,  3.558899096707454
 5.136533491790551, 18.213390879119022, 32.642046007519518,  3.951952080118166
16.858458735623501, 16.087547755803090, 42.825561435356185,  4.006759791881250
 9.229804104642627,  6.732774811143388, 48.816604469629283,  3.774436117737821
17.345443975616568,  8.177424147489168, 32.739430800940312,  3.962938428539489
 9.098803541156149,  1.862708851116183, 23.367033189422198,  3.838385093975008
 8.547800959405238, 14.227897056703689, 117.436195295756946,  4.165687531496786
11.032199624682208, 12.797770762783328, 58.579527523008672,  4.227697037941211
11.465190338411874,  2.739158587635611, 98.011745448677004,  3.932299807457769
 6.896146943515864, 10.430972579236091, 72.664265940896584,  3.746052137436493
 1.405175672091266, 16.513881657583575, 21.458193427641291,  3.946919223871770
17.938187516819763,  5.561681086512895, 79.264615008926512,  3.902857691719646
17.002344207031463,  9.758896654551906, 107.646466003604132,  3.993063479033593
16.693835635811578,  4.271430181147820, 27.685168398628804,  3.770034943620673
12.129629576050512, 11.930983600304485, 11.558423707230721,  3.909094923216263
17.160174641150967, 11.687239237682272, 92.081853540521706,  4.360632389628965
14.599873213173812,  5.857080108072291, 77.060509680561893,  3.971252808600885
 6.330865683017350,  8.110518833217441, 107.905950589445666,  4.340720619675428
18.655466304061790, 17.011404630311258, 106.901321367567164,  4.164211660603422
10.427084129472220, 16.750960003963119,  9.302889044902896,  3.982595945009903
 9.581434248759626,  4.583565140050032, 104.880365801166889,  3.917197410209355
 5.618618255655048, 17.258444375385558, 88.963099902721524,  3.589713832832063
 9.743608962310679,  9.044593655128867, 60.329919719029391,  4.030495169656814
16.450820438337743,  4.396897951615951, 31.771564479071714,  4.001634033136852
13.317520733943800, 16.148822056285749, 44.157289098695770,  3.557471290824076
17.217054496116479,  3.167650644243075, 39.640502262150285,  3.851550411287994
 8.514610077264406,  2.141248060524119, 60.538862886125145,  3.953580250927136
 5.265345670040798, 15.141380945292072, 22.045835402135431,  4.179353405657001
 3.492603491824924, 13.957858270903863, 62.810783368607012,  3.857980518583465
 8.218643041837916, 17.832636372177429, 42.669998961636885,  4.090324730901580
 9.053389183899059,  9.835801204226778, 46.213302616010488,  4.146014594064324
 2.609703099413924,  1.759934148755439, 70.758200054542513,  4.070874552087719
 9.327285108284988, 12.727728325542628,  2.829855502635807,  3.715507885666320
 7.530325599341333, 15.915150339103565, 30.459090674732884,  3.930817263977129
11.184748317936853, 15.669098736599498, 95.529962028846981,  3.521405644684220
 0.570752230099236, 11.028604165302461, 12.668845108599974,  3.756810049746433
 2.577092176933611,  1.485657445671601, 23.047643328006362,  4.518849732316612
14.094727732420131, 18.648474844479079,  8.577609901613966,  4.119911054598074
18.424073176544276,  1.822706741951716, 16.254035004732305,  3.776687006298086
10.986753146381757,  3.922882753569239, 42.447778038517185,  4.261239973338600
14.102280689714727,  6.875201747050403, 54.408571203051153,  4.159716411922227
 1.932455581232923, 17.402384917662093, 61.416587198936547,  4.192300021942370
 7.673775556773517,  6.177708366275539, 58.350014313567492,  4.010945743982012
 5.010183389983574,  6.641800898209564, 85.431939916797674,  4.238843754100446
11.632989716643326, 15.125519743656804,  5.826502439642963,  4.045436165778979
15.736105557153898,  0.750130875793807, 56.471685258925639,  3.403936163500970
 6.700683219375670,  2.822025840324207, 42.482443066134941,  4.568352849797590
 7.664043310058871,  1.352770917863057, 89.262918586631386,  3.922531169650282
 7.743511850555623, 17.921587435025945, 92.200038539837252,  3.810361314867796
 6.134527850586390, 15.482838942993958, 15.195605345389536,  3.938122641007064
15.292852367638297,  4.115791319406048, 111.015166264524964,  4.155656349421019
16.699622177101269,  3.224019452759943, 59.999392878320897,  3.726722569947564
18.256846729758266,  0.402409305044590, 85.483976482153437,  4.109787665129008
 5.970655740180017, 11.254113280610706, 26.577559103160254,  4.208669580605584
 3.298477237039734,  9.726228961350287, 105.346822060681077,  3.977430986833927
 7.443210448311413,  3.641749418708145, 68.331529103904984,  4.386039173505125
17.854209916190761,  0.109130831083321, 110.720977414403265,  4.025838956801300
11.060734809106444,  2.126125123335366, 91.198039991170475,  3.894680347374697
 6.278627595181957, 15.840037745335430, 102.829752039655332,  3.971797874226569
 1.333806452492100,  4.114152781260918, 26.354504552428725,  4.209658295750354
 5.626440040829049,  2.522550821727083, 78.619283794475948,  3.930230369697474
18.685560529437147,  4.780080887961670, 100.872669364010093,  3.844591864317366
16.530355430295689, 18.227897969033197, 53.238903390448883,  3.800999661705099
 5.464122846108369, 11.949338641787739, 38.338199751499609,  3.855782446342460
 2.053915938235420, 12.318447690550904, 35.872821088501013,  4.533463266336886
 2.563141241735328, 12.404878157120876, 20.423276241821956,  3.795944623892501
 2.848699756567203,  5.392033630615268, 98.576221649409007,  4.083685117185345
 1.130009139900257, 14.340353138867174, 28.039950185384029,  3.980905312283015
18.935206800909025, 12.587926545414714, 78.022717273515269,  4.043112827642302
17.063526510294281, 14.040800416856346,  1.974852595091741,  3.943678000965825
12.857409975730013,  9.707282685565636,  2.191213162576222,  4.381754038470948
 2.026967845113174,  1.268167989138266, 33.603272752996986,  3.862731637891121
12.445406906092257,  3.703237510327777, 14.208266851994701,  3.882735428436157
18.786933274660345, 11.800131341578048, 110.621750105976446,  4.009896214891396
 5.044470632681030, 13.557282072065240, 41.704589539461288,  3.646280605640399
15.168654152676382,  3.551798663380859, 117.512613416137071,  3.955175553410777
17.917477438508186, 19.034367386650793, 22.496218839308806,  3.586934204207725
 4.345837881608621, 15.704973237056675, 92.370827478845314,  4.242621368456534
17.218008720021608, 15.863714903461071, 32.708542889495057,  3.571334563010680
15.621126469563370,  6.381394999629114, 38.147499200856210,  3.921251871713999
 5.323882779869026,  4.180300163131890, 82.195261022330939,  3.914380797457381
 3.456843248079364, 12.508662271351536,  5.590642206199845,  3.883841303378972
 8.373438340401743, 13.306346046415038, 44.544917158783974,  3.593946847163972
11.366703364141500, 18.140373509400806, 114.056687971738810,  3.983362603798457
10.544309980723744,  6.544129194842674, 77.626614630735375,  4.297873393788137
12.171085605116286, 11.227019858498034, 42.511593277899742,  3.954655608679273
13.791187986041509, 14.998290065842058, 61.017333961867202,  4.211889182868070
18.523677774762678, 10.548114700387165, 18.895826749849679,  3.892241209482820
 8.271680006015549, 17.599381622045790, 65.995506826710240,  3.816424257444721
 0.822728173495453,  6.055452623771385, 59.039543792968956,  3.946493555673886
11.128108677730610,  7.775229376632836, 51.927753395018208,  3.792178492122073
 1.518801571450183, 16.780738684609954, 83.598876416690175,  4.000766361297400
15.582417622155667, 13.696096529152200, 106.824034550556973,  3.947698022410909
 4.695896652970491,  7.401317001289537,  4.650444366518095,  3.621104976315594
16.762343173244815,  6.932065087742666, 73.887255714828811,  3.942768156032298
14.076529280384449,  4.561897039562995, 91.339062776311309,  3.780518874013669
17.144830542249348,  8.298165889661876, 52.415874361246964,  3.630897802318938
17.010094186394596,  3.531745183637101, 23.631458295169047,  4.152246481532225
 4.097004599659953,  9.887358053921554, 100.982567853550506,  3.920626030114853
15.081483586822735,  9.135181043906485, 18.169417461041284,  3.654956440700122
 7.726222137520221, 18.412634196797310, 57.753683170698871,  3.938693575435575
 2.812835197198498,  9.432448008876202, 117.498605100456714,  4.007031720535378
17.561013379350456,  2.446658023134767, 113.982927151158663,  3.997704410149898
 9.912002768065289, 11.885629404556617, 88.461612866894342,  4.168214141906756
 4.114149438655904, 19.061009826942904, 56.089791681158196,  4.113873845055707
 8.072107192776139,  6.201683454988749, 117.305829850660629,  4.328311600726694
 9.549845979969922, 18.438579511867946, 26.527950445106253,  4.184897703733755
 6.110472323663834,  4.996202203324877, 88.993994118007834,  3.877507550165999
17.371355501922121,  8.244033584959023, 15.135250767669467,  4.078825878304180
13.010091613653103, 16.629475775766377, 47.928850269264224,  4.018769791703268
 0.882491099068462,  4.658675474068688, 105.410778977871800,  3.923434201231033
 3.662574965230104,  8.580623121406010, 13.279136944199996,  4.175066983638983
11.083305094408539,  0.050107211495911, 19.990171133168644,  4.353097435748402
15.324268698691453, 11.978631889344303, 81.516686130947946,  3.992559642763874
 5.888858931748214,  8.482386944019627, 40.929083664475058,  3.629428614137615
15.457822304348159,  2.559186035425002, 79.020682762030916,  3.883739122972919
 3.725660608314748,  0.022268019738572, 37.063626049257337,  3.983193970199088
 1.028811779100466,  1.199203636757792, 104.077631801842614,  3.465466935093108
17.417006969309373,  1.923308208220121, 107.021306088749697,  4.246235764431398
14.183178320393159, 18.239816183993778, 69.231493878434136,  3.764484614144168
 6.491664563375770,  9.293108846362360, 16.058018363454092,  3.836690339622986
 9.250813593777293, 16.304237467912184, 81.870717813995782,  3.924358403593756
 9.326313902440280, 14.440988245027587, 92.576490139088904,  3.830827362930949
 2.693410427447745,  0.846357844424921,  8.938364917865300,  4.232491500231336
 3.298724933230646,  5.519334278067354, 41.427323340265573,  4.302834329189918
 4.307265959303299, 18.382537914018670, 41.200823403840992,  4.258036220552752
 7.911732740203693, 11.799800899634658, 68.985511682186100,  4.286364601978566
13.961166462810363,  1.540270212985303, 93.643202064819050,  3.751892778884018
 7.260258053252684,  3.190301377890394, 107.925424808200901,  4.106297700523683
15.977606701468543, 12.805212334734538, 58.448859791779256,  3.829214580335599
15.065836192787181,  1.459654091703006, 19.729562324028866,  4.081208348844000
 3.701389216195835, 14.794836118426439, 86.630271607240132,  4.197680865816174
19.075571623031376,  4.696491442100255, 117.432001303351001,  4.172964775775767
11.177886494445087, 15.934360284367928, 68.138814331594304,  4.087304987183799
14.023820174423038, 15.785023652449544, 40.300699452377451,  3.564394791487141
14.928398571835567,  1.125978258075403,  4.961760490262463,  3.954790750122848
12.071135689143095,  5.776009813947140, 84.592547499766596,  4.036562022392438
14.292449800520677,  9.580603843030348, 39.884197002001784,  3.536203872884371
 1.257057919811845,  5.777469619395709, 22.480632426594969,  4.158703646473938
 4.377215999177049,  8.248042656246435, 92.850110127386401,  3.971854284297994
 3.158492023160977, 16.174938714169038,  7.264818660003200,  4.080812091960413
 5.631825251880604,  5.066472153942824, 48.770583699896370,  4.130649343486199
17.057611855626227, 12.037182262870306, 29.715177033268379,  4.100023920190006
 8.957068428928920, 15.148634833434112, 99.955298455341477,  3.739859020556776
10.902604206500516, 11.268659178937773, 25.758945071751334,  4.046659313358871
11.594310467745110,  0.797815780657502, 53.096049255954213,  4.135701767776601
16.951622272135857, 16.486467528829863, 28.918479411762615,  4.087396034113502
13.485474106214696,  2.366852416132207, 114.162802385707096,  3.894571694347567
15.719543371880864, 11.818012306466938, 62.594396843871230,  3.851334932757982
11.571773376168498, 13.225074966030233, 81.016304925039975,  3.968321165737191
11.254430400760965, 11.013715644671102, 117.416865276472436,  4.159005048009875
14.620964467164413, 11.772924376034400, 110.396984794640716,  4.279985150191676
 8.255207332688245,  6.675598113092928, 28.869324795989794,  4.424588017554856
15.248764144196942,  7.564029905251267, 101.691176131291115,  4.043708677323660
18.108464443448639, 14.462158128508509, 11.501334972487578,  4.140419628504649
 0.258134107272258, 13.123345979465878, 39.825577155242300,  4.254609862117744
13.202007820823033,  6.816654651673783, 88.287046571246904,  3.861006237678358
 5.234014245870021,  9.316475275418208, 30.192496898122887,  3.925103898168358
 1.840975611622854,  2.115447764949928, 39.789340690926217,  3.792857482694296
 1.046310711377752, 16.229837200310332, 79.299009032600850,  4.015733958808234
13.873730907900367,  6.648380053233918, 67.067798906531365,  3.999457613205372
18.440175967576870, 10.409592276843112,  8.997546998773007,  3.882158135272265
17.322926254046955, 12.083892328131020, 33.829796253503879,  4.137953576529987
 0.578249835115994, 12.869846349827977, 106.651653986255297,  4.349885915742269
 2.707849452800717,  4.902353213095840,  7.623639749867716,  4.124095114298408
 8.039474421878120, 15.103632713838550, 59.657334562720649,  3.627821335316774
13.833100130060680, 14.772800118289689, 65.145845631340123,  4.040749059290268
 1.721971350895030, 12.756338320097436, 99.561699026554876,  4.043503873814934
 5.501209829859974,  8.305065751176480, 114.661032192570616,  4.099387542280894
 3.912868627356637, 12.258626779226615, 50.192105962658886,  3.701031872641991
11.624195281627612, 12.022016260677303, 38.598951276220731,  4.056496757165330
10.593852438009081, 12.605988791387386, 66.017912633543418,  3.872668792124193
 1.179896602061776, 18.482302167666806, 92.317905088394582,  3.887882294503432
10.691463043324703, 18.523523695675749, 74.615336202335357,  3.959761652329283
 7.088724802924765, 15.811304357282648, 95.611540020826411,  4.137318387302038
 6.550010813565976,  3.232918904120673, 26.324759634684245,  4.407414722294101
11.084874352581902,  2.985198544676416, 117.411589316364399,  4.145933392872950
 8.995148505134409, 10.821211869000985, 29.217504154265711,  3.823771941845884
 6.779953918456173, 10.245371485640586, 111.384986323952162,  3.857596036137980
 4.271278979354050,  0.192928751448010, 85.255521236868461,  4.071220216719063
15.681054747491505, 18.993256722510985, 40.511167513030067,  3.621625018422018
 9.991806442568844, 13.237593680448766, 72.739106912027083,  4.222798528530324
 0.440369806595107,  1.406041504270363, 52.336948675263514,  3.729094642278763
13.944202682249783,  9.250461254354747, 75.043459368941598,  3.658240046569844
 6.850246489117268,  6.648042275995985, 18.919930088682960,  3.906187925610129
18.153412801422000,  0.166773052987059, 81.369574509076443,  4.017250531711126
18.093981008597485, 11.804604638671147, 25.713179139525870,  4.126445705787072
17.486917328401926,  0.872039539891662, 99.649864325619802,  4.044569451474386
 2.880239593267708, 17.789282118067508, 15.184976000561150,  3.981933444415881
 6.737568227190918, 11.610011146443950, 94.104180799461091,  4.402618419014781
11.456810820683751, 16.052570243087541, 85.306199376394119,  4.095094630083758
 1.329694758961604, 18.673965096837779, 113.837549826420457,  4.146349004614605
18.113117485323759, 10.392483563960072, 84.038458870455713,  4.072553223462444
15.979278705912925,  7.718169697769126, 97.825248410388113,  3.762852657920552
16.225366616425529, 15.536210312811745, 79.701668138083519,  4.017224765148071
15.116572832248250,  6.329090506004675,  1.900032037137415,  3.745505126252014
14.154843929036975, 10.059136502575454, 35.781646784675992,  4.333403538697026
 9.771338087398103,  2.649882024501347, 29.084396734639746,  4.141837271828206
 4.523125394007567, 14.174617116424715, 68.552006555221041,  3.957934737776426
12.090240213799571,  0.846570582663210, 45.288510939984754,  3.817957633113400
15.370150020398308, 11.374189072585997, 117.446937308740530,  4.086686928093640
 2.190605605136965, 10.480188958248135, 27.945919456225205,  3.903147242895780
13.911449138928063, 14.285729188917790, 34.962497179104702,  4.218535778964193
 7.762115611588166, 14.303203725073089, 85.800836152968898,  4.124076310059245
17.868582534688208,  0.760254709212540, 62.907538143528484,  4.184997410977470
 7.890738478786216,  7.995429065594386, 24.538059587068759,  4.355540001527685
 0.992935593108828,  9.803430629664959, 22.851470163187035,  3.903286141572112
17.109049294096280, 16.523508834225911, 67.331142603617209,  4.001278386795197
13.719444414253484, 13.490025591547019, 102.590063668700211,  3.856717138219770
16.586575880992367,  4.568323517436626,  6.161399524487810,  4.004302044341791
 4.042367258923758, 13.260840840685001, 117.565986973814319,  3.753967697633857
 9.488376180516536, 18.187035250827922, 117.506052121835793,  3.864523773735586
 8.974004884465513,  8.346297346424130, 55.172412913462459,  4.077697942389559
 7.654359595176951,  5.388304101819532, 35.850190205742322,  3.996561555377305
 4.365528973188121, 13.007545247407730, 29.735807780058853,  3.641276864973405
18.862397170400403, 11.570042402204125, 96.074100284881936,  4.266051976773547
18.466198494749928,  9.532477078215052, 41.682683889407954,  3.737733761122944
11.834613956827990,  3.501794093092667,  5.147801363405038,  3.763697643625476
12.221712104508276, 11.369950547730417, 19.342681136666886,  3.793396306604356
 2.585276401122079,  4.735536824367796,  2.335378035491506,  4.580176538093686
 2.199756622323158,  2.445144131156517, 94.843077667940562,  3.704823327547911
12.567601880034875, 14.023626571941330, 98.812363311346758,  4.113520415505453
11.825496931093598, 11.729344706254604, 62.403762774575121,  3.822027027505193
18.075827418601001,  8.549595948692401, 117.616825761888421,  3.734963454928693
 2.648901816865401,  3.606712058416523, 87.069389681297579,  3.953061622288629
 8.723056036866721,  8.975937990447479,  2.097476484996875,  3.979464465886996
14.842016171203603, 17.756824849705339, 36.973632957090381,  4.005577971945040
10.087725458222003, 15.680861126638799, 33.738035916337516,  4.236129435214056
10.892789674676264,  7.590828509692249, 35.297696388334479,  3.896108267602985
 6.079615690657775, 10.498316264121918, 10.220757103080324,  4.247993507061923
15.470992722477979,  6.674396006542588, 61.406876005243632,  4.098292870581856
 2.615897851849635,  9.854417224861646, 85.515439497195018,  3.763491435927890
18.538952694417958, 11.129308047537512, 45.154958889031477,  3.871284743329966
16.276738083161543,  6.395957022984176, 114.635147638303792,  4.327504971156088
 1.442773293765278, 14.730647323075884, 66.077720740346109,  3.991769840030895
12.662163295631649, 10.014255092299289, 85.919402234797303,  4.115721065614370
17.555488760151764, 15.541966444846532, 63.214453467602830,  4.469197327314546
 5.293834401790929, 10.587395619402963, 22.607455744916638,  3.933741648991564
15.604803618852614, 10.583169837585711, 104.124721773164708,  3.690384653397217
 7.262163525028624,  9.403125711593322, 90.417112841314562,  3.890626942767661
 4.311188437514227,  2.059784201624354, 110.743693027688153,  4.233170978279690
11.015767636826192,  5.257953908600773, 73.557630657344902,  4.023165304421555
 6.799523943092547, 13.811150175906487, 65.195954443617822,  4.090897947044255
 4.981061137697012, 13.838114625942133, 72.423619386519746,  3.837839415238541
17.871920881755500,  7.386413101051147, 25.450667147261573,  4.145937095645625
 5.533793893621306,  2.398265669835170, 34.564592639880409,  3.730460266599458
 4.642498251003085,  7.278123374079905, 73.545606677729467,  4.097316488498031
13.300129115521116,  7.270819457227602, 15.458570827639742,  3.767410939987629
16.392279225628140,  7.499249684807668, 90.404584515568217,  3.906522611189296
 6.286034094720187, 13.365028549954202, 89.600529512882773,  3.981374213226073
 7.685038925366944, 18.433024124831388, 36.188860958026218,  4.212596472483587
10.709028275004956,  4.378898462404663, 65.689956093912812,  4.133159270628113
17.078807530639899, 10.684473909558799, 87.971503464802865,  4.027018625860497
 7.601277685757627, 14.935020578442984, 26.012600622835357,  3.850778963090459
 6.735405740423361, 12.146990872592829, 61.586703534613982,  3.816447312094908
 9.284912968842653, 16.134241592377084, 89.067002532993428,  3.956704495801516
 9.353071193437472,  1.757692222378208, 39.155633482878152,  4.147502832163728
10.396648598085925,  4.987402322682663, 10.757656976421268,  4.134805757562026
 4.457982366399015, 14.412429415355639, 106.936526515920690,  4.003354458963171
18.790229178562964, 13.949446972303260, 86.009446162535909,  4.140008863210809
 8.441866678708418,  6.950192097135207, 82.871012794080329,  4.307750914798089
 8.794708695134196, 17.119609770076178, 22.750695475294442,  3.900327357594643
 5.761186111950473, 18.440100585850985, 24.877567937156613,  3.954167545179011
 8.881292499524779, 16.526373593499660,  2.053144073691370,  4.072379782870369
13.573606835469443, 13.722725576773472, 55.221470995953020,  4.284128000749707
16.455090094339074,  6.998342998676296, 57.633766804249191,  3.652072367039740
17.462846972358975,  7.196626456534804, 46.333546094561697,  3.852443055512514
14.369876375050353,  6.224201647177807, 34.482923417038563,  3.746714781812944
 3.695280397565952,  9.785516429469741, 96.639552383966162,  4.237778226415989
 1.646855644210347, 15.075280752956864, 53.199662489312189,  4.521274236066432
17.200337684016162, 12.744949079446698, 66.271293783942625,  3.810237944302022
 3.840321951442501, 15.315995405262303, 114.196535830646113,  3.904832434894248
13.948676496266975, 10.527137772006876, 65.907669538048197,  3.988763740944254
 5.552603797093615, 11.590796891289894,  2.098817958343402,  4.165186378123640
 7.469946951789602, 17.841318913341933, 62.108964133445085,  3.746127333330262
 5.841538612195138, 15.208569385210206, 51.813427803864016,  4.016912982745493
15.215527407399998, 17.177304348450072, 12.144921554256330,  3.860216766453067
 6.766148916537158,  3.138116277089834, 102.728141968215397,  3.725341483228123
 4.545878489213830, 17.312427858478792, 64.668163251640266,  4.090575648736885
 2.915827513912011,  9.129504644526465,  7.668983025611796,  4.119452711699915
14.087800389979703,  3.306359128448446, 86.968237912042312,  3.816734553459215
18.114608542478777,  0.207355183433178, 95.529812452233742,  4.034780435922878
 1.028449423691747, 10.776225387918013, 52.400585598721790,  4.144079656708872
 8.061117576410680,  0.083249025838220, 111.178466001167465,  3.998055009040662
17.328319581087516,  8.091988630527268, 94.180190241161867,  3.947010780171752
14.588641324295699, 13.819697752126732, 69.045769517378176,  4.076013158369903
16.994985751450645,  5.891908052961307, 107.675263910172205,  3.653259790910991
15.514542431626317, 12.838773815625135, 38.551911548908841,  3.890456249770907
15.036992127831571,  4.165121491721032, 99.320037366839529,  4.165847082785296
10.470373310150114,  0.581432195781112, 48.994083121143909,  4.202696166849412
14.100617558152742, 14.553789488046920, 30.922425503181646,  3.853790529956246
14.166086900252797,  3.451246385141882,  9.946949612604307,  4.054093558324266
15.922030471985959, 12.278273022278087, 42.449289126532562,  3.808735027749662
 0.167955444305998,  7.221455130447564, 87.575008326034578,  4.193604151509128
 0.377869255557305, 12.292646073709564, 56.062466216328907,  3.793283653809316
 6.353137217471351, 12.363994865699468, 114.599853710129977,  3.886736474763939
 6.689801389679645, 13.698295761858661, 80.178158976462257,  4.013145411056251
13.787201664209217,  9.858945817657400, 59.650924697065555,  3.889112742145890
 5.436061079009487,  9.938119315669015, 34.785495138930116,  3.972905773158241
 3.876427484323082,  8.206393303493636, 88.955674788362757,  3.797091541486008
10.866219219157928,  0.921325141556287, 67.989190058876147,  4.146072435544599
 9.485669255110022, 11.386882036975663, 100.580286144018913,  3.843502411188377
 1.722508414252647,  2.673094646581980, 83.230830856053558,  4.057698636091501
 1.576993342017655,  6.288544227786580, 94.781137199433829,  3.750856555388151
11.491525402495123, 19.093567970268111, 35.402193347082829,  3.667685169426464
 3.801730970685719, 14.388014203251306, 77.000691400928133,  4.008118439490468
 8.116649296301915,  9.024840406926975, 37.777091472154289,  4.072171417630283
 5.654803088993781, 10.622568445540486, 44.106773502913754,  4.001550379783485
 0.623374258396090,  8.347849512093106, 55.718293623279799,  4.087424675157985
 8.414263350489444,  8.770911599423941, 32.467188892369585,  3.908259077257921
12.726952926345858,  3.249053420810450, 22.471870236761841,  3.948190488475336
 6.991910305073247,  5.232685300661630,  2.267231965496330,  4.272932547542976
 4.554376572360434, 16.375339907716729, 27.993395958758590,  3.844925173667482
13.621575121847378,  9.633043312892193, 113.890584976438191,  4.030105075849114
10.801132053522913, 12.949566035195868, 113.627467098312977,  4.366053809762837
 5.379991869527668,  9.149648003526172, 48.084852843655440,  4.061687128130271
14.492800600122747, 18.686574195415414, 65.264948757217695,  3.863813530716421
11.755962515325535, 12.996420542918509, 46.400632125102554,  4.120699015123487
19.063058860171619, 10.871510503466167,  5.210660750807897,  3.802194110219842
 6.079832500905511, 10.597899411374597, 86.879521800243737,  3.735690496453818
 6.934257579024888,  3.076039772467801, 85.589184022987070,  3.738959161771584
 3.456661150271218, 17.628564537522873, 104.883146026951664,  3.838962731992260
 4.708948033939356, 17.852472495041390, 72.556990219699799,  4.058270626489637
13.333678648594599,  2.672771191559450, 39.279490326911755,  3.947677638554399
 7.090104214838215,  2.896602290678868, 55.879759530738660,  4.250723765657895
 2.793697265764993, 10.931172467536699, 16.675939998887813,  4.228144603490377
10.620251544762205,  2.002076286049970, 84.225057396856656,  4.049287284997273
16.194380429417514,  8.948935032529967, 21.952223534027372,  4.216518519150664
17.780215432739848, 11.348956398088903, 74.222238618761153,  4.256839304094561
15.811120685719571,  8.043545643190351, 81.444755343610652,  3.912610492491265
 4.981064876026843, 15.579407331328484,  2.180382245276634,  3.864656320494495
11.208759507472253, 14.817625621954836, 20.722365396637208,  3.866929212867104
 1.699065236484911,  9.934256177271569, 31.881377341118082,  3.991513131203801
17.683579877700172, 18.778735050239238, 77.362546496769099,  4.080897557239522
13.015022358154521, 15.677009065346619, 111.141436912482561,  4.144408611727453
 5.486115345956176,  6.126655764123679, 32.550900242758551,  3.972734294099323
 4.856745469091838,  7.718230732725324, 55.538185025995226,  4.201947879090173
 3.299397610425055,  8.307296277958351, 19.931848072511283,  4.092145406070055
 4.861137559437172,  8.810754916086504, 81.827764246350142,  4.008946143447921
 7.239674342177376,  0.632840867662056, 82.411444128016583,  4.056175110834068
 3.429865644464127, 13.987065961044124, 96.250667945102080,  3.759852999656135
 7.137515013906891, 14.838760104911559, 55.758523721763410,  4.284968810776479
 6.970220746598965,  0.775859528069695, 75.255949988977903,  4.057883299582411
 7.915905308876351, 12.192231862252106, 107.941575559444459,  4.357118324263738
 1.501711997531275,  5.715558479585416, 48.557760160923408,  4.233740426256817
12.310887670739644,  6.523470851879241, 97.597484067015486,  3.778757723371498
15.250781050479572,  1.070614746636942, 29.676075501316049,  4.196711100520409
 0.174325936261856,  2.521871386295361, 29.870835174629796,  3.795699745330986
 6.996022913818507,  2.183722467348688, 117.506034986407542,  3.951038525167333
 1.882327052603843,  7.227036110976885, 102.660724540516995,  3.766023056951141
15.542515858776028,  8.106240892371231, 29.120485211781535,  4.052266977403389
18.001970995014197,  5.137928546277153, 35.325745780799927,  3.852274481330124
16.112290395088216,  1.774254276987033, 13.050743978086198,  3.992665647258025
 3.347173541395533, 17.850798926185735, 95.731226303886572,  3.975545719099423
11.920425384699891,  7.930360494296869, 27.601791237916675,  3.699852016872126
17.552808598041693,  3.094822033395484,  2.311571015717484,  4.352566704906952
13.307284136091454,  8.075345150477990, 93.282626654680172,  3.982175172930940
 7.939441262820582,  2.944960918796435,  5.620303186436588,  4.010103050806858
17.845941739547975,  3.333114935728926, 88.489077911585767,  4.278436377688536
 8.684353883712090,  1.184973878209684, 32.701349288345966,  3.952526104360215
11.999459978967636, 17.316848898830372, 91.780402186953168,  3.905406255746070
 0.662609743585019,  8.588838578632950, 71.785801581290855,  4.126703039414438
 5.828460054268393,  4.272818276559770, 114.316442656617085,  3.978679623490930
 1.389930814369116, 16.330464820799751, 117.376833030340251,  4.292073467163998
 5.739961358974520,  8.356868108335323, 61.180815876553659,  3.995858161190932
18.293958120197860,  3.064385780598060, 66.203085665162149,  3.817086407296917
 5.783448463493049,  3.719409284132029, 72.143464840220872,  3.885685595098032
 2.759868826160324, 13.968236101263448, 103.265115575175059,  3.971854436328465
14.337558263125937,  6.899696875913277, 42.573608851366771,  4.059119171000017
14.787537331084520, 10.812473759360435, 95.800294038214474,  3.989866786263109
 1.069345511492023, 18.798840096837527, 66.056012981551405,  3.905717069842271
14.471541698833226,  0.610287454203285, 84.062287305706533,  3.953116685785405
 1.070700457956179, 17.341510144814649, 101.739157656983195,  4.067229084162284
16.610772981916536,  3.989311456737640, 82.881229175498760,  4.368405224998477
 8.268249168366593,  8.360406175284515, 104.090921683678928,  4.193234430764154
12.535399633391620,  2.266218832682470, 32.493523726935301,  3.969432814941442
 4.214673005259891, 10.364757192829694, 64.690539300650116,  4.157472784328729
17.404683285561617, 12.174413259519405, 15.498264337346106,  3.788268138870440
14.358729275370719, 18.487225444299810, 96.859451672831298,  4.013220201860820
14.724266601322684,  5.577719738497801, 20.158181568620812,  3.718911470618417
 3.026680269050310,  3.594255544685610, 102.131514998025622,  3.873310139882394
 7.835500239130130, 16.302799655797788, 18.869006661181547,  4.188518889102983
10.360534394466194,  0.669454864042298, 15.889248185791148,  4.052648850323640
14.513172866973241,  0.657718375032195, 50.011869749245754,  4.104062544848603
 5.736847346555821, 18.223990355227379, 108.032208821450268,  4.023646245539410
17.977418400039188, 17.216849688692101, 15.040303169313336,  4.117602268272877
12.122867627938279,  4.263110057499969, 60.840333594401514,  4.164925999641549
 5.988755421662331,  2.812282271375292, 98.955148207396022,  3.966734915398241
11.236332066225872,  3.713912341441052, 36.073470697032960,  3.914453957833718
10.789422814889031,  0.668022764225752, 63.652935386546410,  4.267975989243682
17.870050320884943,  7.673351749675981, 104.558138606610100,  3.617770247053683
 5.670298315527321, 14.040902375210191, 110.921853399502666,  3.948904072916365
 4.386217892980477,  4.590290255875708, 60.263761628638058,  4.094817792858366
 8.382829229859725, 11.545460207216324, 41.085672981840467,  4.165147744521223
10.264545492440023,  4.057496058932304, 87.783020369403800,  4.051687103216859
 4.530405442111217, 12.439592795860438, 13.424760156579133,  3.733866490706345
13.555755095499782,  0.561422301757002, 100.687421177581470,  4.089309320433181
11.710621757650902,  4.433495856373613, 101.579382423348093,  3.864608811173305
11.092289265443258, 18.108057313627338, 30.370744169516207,  4.040449771122793
10.014730723819675,  9.483754500402796, 13.941787988133381,  4.109665976452228
12.671386416400379,  6.962207764025679, 117.232207932857108,  4.384202098192264
 8.067074214082854,  7.584279713470099, 94.247878832743012,  4.018090115920589
 6.223091947654045,  0.522110610378934, 20.901353709281143,  4.071762035799659
 0.590732772878676,  9.432864105530815, 80.468006027280495,  3.952951375208386
 0.372223329252859,  7.086151600241157, 29.224920679236412,  4.090849204282430
 2.898365591992579, 11.088958608826715, 74.421673573794408,  4.112539489467951
16.651087708116751, 10.191656482933841, 49.012817392488600,  4.076156651619191
 7.353644119098936, 10.210485791309377, 117.624136785349677,  3.793355524311472
16.569569163619882, 16.376535075268645, 83.615736598485000,  3.952743548067799
10.322094768533534,  0.414779589727732, 94.790625169600432,  4.156612451103672
 6.001737624580703,  0.335020642013851,  2.035223045227006,  4.051607480563688
10.030726302157786, 18.658496755954175,  5.174370041320390,  3.796996868404674
14.602825821478365, 13.638402022207472, 26.850487237651894,  4.072413291654637
 9.423006752467911,  6.821161758933502,  5.438660081200823,  4.080767004474521
15.597073834684730, 13.058470068905653, 18.735585794468815,  3.805564265554015
 6.646017306578671, 18.673658921265922, 49.854052201584651,  3.846405891884001
 7.699611074649584,  6.406351641884750, 111.498084913543096,  4.012390179951182
11.299758366099466, 11.142783653488092,  5.784236590364441,  3.883277205321135
 7.484069436559475, 13.123070981670134, 48.436537121702209,  4.358956568541769
 2.300370963159947,  8.033807005341728, 44.858471161706603,  4.431780544730628
10.565885878896770,  1.601220074106650,  8.454423868118969,  4.008096202524102
 8.393714012273881,  9.566599454417775, 64.274854806313257,  4.312487599365980
 9.826905959550082, 19.055699268941463, 78.735509088478253,  3.917077611973376
 8.644993049269338,  9.600587683084209, 20.768965698823330,  3.926222610320968
 1.793226676884712, 11.808083898613539, 88.863965630577468,  4.152727981174926
10.855611090664690, 16.864626954189912, 55.782722531892929,  4.067290478450365
 4.830515510373972,  0.656951535446621, 59.957624926252883,  3.823396041803774
17.540352644685512, 17.854473468152882, 59.324556730632096,  4.011551705246522
 1.474225908301454,  9.757531195899640, 48.522326801079522,  3.824683512163170
 4.947273624024403, 12.330046820022703, 83.653008409347720,  3.898593367952513
 2.039575955969763,  3.887134251191986, 114.162483033460532,  3.639796029105975
11.718650124202085, 15.611197076120311, 13.176812597474413,  3.993655877660617
 9.725985526527055, 12.068970049050240, 54.817720211725373,  3.523025941453121
18.217352844151804,  6.558183148852705, 18.972578501545364,  3.849839522959897
13.418338496580986, 13.506306705973355, 92.965035031849737,  4.115966237317068
 4.850858594488329,  0.892068919348269, 12.460176658922128,  3.992899300801767
16.596874413083516, 18.652485272643148, 103.519882126704104,  4.327264840764730
 1.553967149168297,  5.032396914331424, 32.495773387666532,  3.939020225764912
 0.663381942368282,  5.404448457472736, 52.769456519515948,  4.157749166196118
16.441216114320103, 15.406867347118986, 117.450793445823564,  3.975246220135806
 5.426355109959315,  5.103443933002886, 22.483672989520404,  4.261555272435235
 4.154915575063568,  5.784197830596483, 28.797140830157648,  3.946770486399930
 3.720503845578831,  7.872043017867920, 51.577144627190386,  3.945048308758129
15.040161551388213,  2.484181883483937, 35.623867584998827,  4.053028212489425
13.540999060953576,  2.946280316631384,  1.858932575414560,  3.713241603866580
 9.735198587774450,  2.021142793704848,  2.062626820961186,  4.116796258355632
16.003708716173037, 18.810258334201357, 45.911689856035750,  4.369471602130124
 9.203293629172272,  3.541842737327217, 46.272027665033008,  4.190739379109196
11.551563747169901,  6.706999407466667, 57.695948524558368,  3.771774374859698
 2.588348121198004, 16.582110558592479, 11.340994196825831,  4.070442170012622
13.287039528904614,  2.181113481333780, 26.256393338635139,  3.981310194937425
18.054303110206824, 18.141302055205792, 18.923929450190041,  3.774619529249078
13.319221209551859, 11.223672180833447, 15.468434253800696,  3.936381440946365
 4.322363063967223,  2.314093843174529, 105.478183626642021,  3.690177439292375
10.401984137830670,  7.378394152965957, 107.513219957694275,  3.878276091254975
 0.467195299093508,  8.769893705973791, 99.230213951914749,  4.263767313754435
12.233188490134884,  5.907429879157958, 113.239216912525947,  3.822393880027721
 4.713712873292037,  0.130535019247469, 101.602938854959319,  3.882971557244593
 5.497192445798805, 16.895174357353746, 117.550291493013617,  3.918094760630664
 2.479089040442855,  4.014722238492179, 36.382104669275094,  3.974905199460559
 0.329505208347447,  6.201474490477541, 38.776293187134804,  3.713835874633596
 1.132493317785965,  7.672559557839164, 107.843770155509660,  3.729853426352418
12.522532322312685, 14.930957079834030, 117.089439149344159,  3.920777513795857
 4.754595572492965,  6.796065032929902, 37.900528156757595,  3.617894711930140
 7.661895102251181, 19.071141844564494, 104.415540311210677,  3.679516276859362
12.102620581073911,  7.753320120876847, 63.522774637017569,  4.069263676761647
18.481220929350037,  3.963585426846222, 97.012489449821160,  4.054304933833580
10.777938464025494,  4.211512565000142, 109.938532441915115,  4.126802244085718
 4.791904733662698,  5.654852901444356, 64.165226760378616,  4.024144616516899
 3.959702340817029, 10.365216353638962, 69.927404658262319,  4.219909392684455
 8.292543236196991,  2.700500469590271, 51.606171907379590,  3.798038880963449
 9.482809326491338,  5.899876847766989, 15.857166760580629,  4.083203228027413
12.895913169663729, 14.566035146787469, 89.192628743590902,  3.784281521524875
15.981093308722242, 16.526666045737517,  5.565845923861167,  3.844634471173931
 3.937907189833721,  5.563852807845630, 117.533636893738660,  3.901162088429492
15.655037201019242,  4.532803807445586, 16.640845716594121,  3.779908533570626
16.965970559218391, 15.336802498130170, 110.211037683902319,  3.979264743051546
 0.262128700166696, 10.788542888910820, 102.893453896311215,  4.069138417819575
10.118218672408565,  7.862047848184967, 67.653968788543921,  3.935186768844706
 4.204502483365665, 11.908851169260815, 54.865796387657362,  4.194870418398015
 8.664550795314531, 12.623949514721975, 36.012687857627760,  3.853434980921733
 9.688537832084894,  5.109148606968396, 32.433208244677900,  3.816210922541103
14.689074040083671, 13.543304511643846, 85.744257024289453,  4.016215022232672
 0.162253601320618, 12.765071654252804, 70.401695413249115,  4.370021518899046
 2.607329636004414, 11.916702491942543, 92.957954535101379,  4.151146922030626
 8.560754906316618, 12.955827814587325, 22.807871550212326,  3.807064017256394
 8.338425425716469, 17.820121485692756, 12.597582952989567,  4.103689483328380
 6.259815259495748,  6.494510263784604, 100.700445864683402,  4.129480499220009
19.060602751007711, 15.993177845635952, 46.584844088748014,  3.831839617146709
 6.625801532016959,  6.361243629379255, 79.107812891720627,  4.055326640751150
 2.059899174212963,  8.243683746909785, 62.150552276466470,  3.567683060777854
14.144520772725064,  0.606803033825989, 61.298019902134968,  3.926269870376083
 3.167432206414824,  7.269088142194637, 111.307491737533198,  4.324608362757469
16.459554557327838,  6.971679855512904,  9.591896621002034,  4.110492301212759
15.797261160094545,  8.451931041508926,  5.168373819129642,  4.163943405058931
13.023153708863491, 11.140657264735021, 29.480763594135478,  3.826125450547281
17.299298935186734, 10.171641169179997,  1.961345101198308,  3.704958631384949
14.595057712519518, 16.617540306383408, 19.667650816204350,  3.790517843887807
17.875440836681811, 18.425435194127278, 89.290379478049559,  3.822442203573983
 1.316189052107066,  7.295621768466078, 76.167001725950740,  4.321190737525831
 7.610408335058835,  9.220267258273161, 97.881944814742567,  3.921983918702251
14.669711859565176,  9.869543394587442, 45.380853165839156,  4.097929734235120
11.772375268547789,  6.825332297758022, 39.164424963205541,  4.047875155148642
15.993591170695133, 17.135610110820814, 92.649713672473808,  4.263371689184042
15.450534179347489,  5.524777628154252, 13.005488987444698,  3.525353769321952
 7.601145706289382, 15.948692968570622, 74.735260963551625,  3.992027249375885
14.786734234453146, 17.323125952286905, 87.179624128275577,  3.940404530459110
16.890069945551573, 18.073314330328515,  2.037692722347604,  4.058030894968406
12.973754987521177,  6.465301465781426,  7.443650392224989,  4.071953751497438
18.156424498926683,  0.566977172507549, 26.540144523297400,  4.231022033209450
16.860920765912471, 13.303305869056610, 52.599091378902365,  4.140000973834293
11.379365234884498,  0.213560961545388, 87.778658037658374,  3.941309474312372
 7.144999722090808, 10.423984061343040,  5.971890921724945,  4.464166154937640
16.952144473161358,  9.040171282073080, 77.596830014385191,  3.978641071300038
 2.157842001423194, 16.075705959908039, 110.145758371269878,  4.287500645487406
 9.583681842370115,  2.922791446992308, 113.615379385831361,  4.006124408171796
 0.125255645996739,  4.791797685147428, 13.648592477260349,  4.269315117556981
 2.737511515207242,  2.038224909581736, 63.089504767880626,  4.189924007268164
13.977225833707527,  7.703729836214649, 109.430131481831680,  4.109458877292053
 2.227696902249356, 11.474871889370982, 42.733644768919042,  3.494796556248663
 2.569699581381816, 12.810752869310374,  9.638398045841539,  4.193094501394714
17.863459606636990, 15.181013526166009, 36.413259856059504,  3.996690947379143
14.133793693251086,  5.884822955563593, 25.187025146676358,  3.900079458235260
17.387500097915478,  0.461907262578770, 33.086462222463048,  3.881849559940219
14.617245651150252,  9.812065521221117, 25.588053834799215,  3.885185365167147
 7.545276247494924, 15.399082441423115, 39.294456026844344,  4.208203760745710
 8.761093362461816, 10.022362265942814, 79.664033043738726,  4.475018778809746
17.930954477766971,  9.711424658696314, 37.780189100348153,  4.116558599747862
12.408746174910569,  9.977084269130620, 56.096239832102775,  3.671881566020361
 3.517059369959537,  4.221683591456745, 18.789987428817668,  4.134867052722924
11.665455619543069, 15.163046645695420, 24.584041006752305,  3.890829204422310
 1.676411164246384, 16.941097566168107, 69.664361423513228,  4.261751254934340
14.321866850615971, 18.878532111770362, 16.062762589563334,  4.083435967466051
 0.582750801487776, 13.667159595059477, 59.884646165168505,  4.283605038699407
14.923265031468622, 18.995467527496672, 74.223989980615968,  4.253766382120308
 8.256301657787294,  3.076633043687633, 18.696138054251016,  3.700035572864402
 3.014547261199626, 10.261572861262058, 58.615432870401847,  4.314978912259845
 0.096739077488855, 12.419696213899520, 117.582932534113013,  3.870614828169717
 3.326645294974656,  3.557345567654540, 75.405347435196020,  4.205494245645068
15.274324380806476, 12.584273315293398,  5.318831810103728,  4.167164975978877
 0.409034333685365,  7.050243495399002,  5.163993558846214,  3.811597660474284
 4.367951087466985,  9.575064589620451, 77.906357900035019,  3.984574017109644
 7.207251138153350, 12.480380877314641, 32.327182170065825,  3.893355212247087
 8.970699046840314,  7.913020504914560, 87.019925933922082,  4.158300170315213
 7.171022463459157, 11.023403100638619, 57.785475084664640,  4.153566040800553
 0.423787924826812,  3.964738117350254, 110.367172905193513,  4.423008849228512
 6.593325961109132, 18.623361151735420,  7.355646930655587,  4.128591342897758
13.327006907172452, 16.328589702467887, 51.928041738113265,  4.003706882959716
10.362018377232575,  4.823813301854213, 25.599930109254601,  3.956372947880804
12.269016423773369,  1.612693913788871, 71.703541124626284,  3.851607248451848
 3.790563611071506,  4.714889329884151, 11.633628294757880,  4.076167059045927
10.976545973082400,  1.628462275417822, 57.163876629309989,  4.138700933849333
 6.457664152443824,  1.028566975358168, 95.512928775608600,  3.754693509856291
15.850079613253802, 10.720352118622271, 12.132906586847430,  3.953339383671168
 1.820671152517969, 13.240615186671226,  2.013590161778648,  3.970625658199723
13.050785877076885,  5.249832387264155, 80.702840015121026,  4.037175645545783
14.252681264871061, 16.886412893810856, 57.607725329112789,  3.626619222946454
 7.819898561827272, 16.007770386317297, 113.758054838987036,  4.070652491052341
 3.245074179986787,  5.953311819659464, 69.906574389052025,  4.135482498728129
 9.212632462434042, 12.940898053361856,  8.673253167695860,  3.911593331728956
 4.662761628743428,  1.299066865558717, 91.962936256252291,  4.049942389876171
 1.228692206373186,  2.428182402321179, 78.779612925773392,  3.958317168878821
16.748404400657694, 14.758570525962700, 89.376503382203509,  3.844361912676057
14.324396321972529,  3.623740623749432, 47.137828708626493,  4.154642548606692
 9.471446033213059,  5.394072697413428, 21.603110937089131,  3.991646347708513
14.754782100670306,  3.546005445371900, 64.177808237571099,  4.369025933667603
10.859386114961996, 17.870647860586669, 98.334908920321567,  3.600199138968203
 0.315778662911436, 13.475606604726591, 49.472157141344262,  3.857360483224159
14.491700112664251,  2.908915827694341, 68.361078553982424,  3.994894968536637
12.331161406244712,  7.974496973099823, 31.647323417267557,  3.952936266891002
17.431545925281178, 15.554705329283104, 56.013486279427603,  3.933462924239543
 6.612348045362305,  0.267888595129515, 29.123529426333086,  3.735454922288552
 9.288973682484023, 12.884964667099881, 97.022204243925998,  3.671555876788767
 6.233595252272430, 15.425509837251388,  9.942250033098361,  4.067351158484311
 8.149307675528528,  6.847745301714105, 71.096459758045043,  4.151862983356715
12.351238077843691,  9.665491947974036, 48.782290712269869,  3.926376730943978
14.113984339988242, 12.545872114903171, 22.675545532084513,  4.145618723075001
 3.690098969948623,  4.929429599940275, 108.046011372372107,  3.729742615793144
 7.554292745130633,  8.573931042984595, 75.853866072621585,  3.750572644194389
11.886585866871290, 14.516037047378719, 107.485424230609624,  3.737548086538069
 1.795186537918373,  7.936853059558080, 35.450923914665303,  4.188689180560763
 7.727462072606064,  3.829717292938701, 92.331558335389786,  3.863436542553789
12.952734379321678,  9.988736105338004, 99.266437005393328,  3.976606465272143
18.859280501120381, 13.681996261276867, 81.979844484495260,  3.814382526579997
 3.562882400399411, 16.436823658824704, 48.668362526016871,  4.104127380652566
 5.666514853293071,  3.120190072898749, 38.425695563621133,  3.804337421947223
 2.983785718024326, 12.493606567161764, 80.338722823440762,  3.761543173261516
14.986808351863761,  4.968437449670058, 95.194563444924498,  4.029172632838833
12.153330781375923,  1.588177781654933, 104.359774704414960,  4.015308376427646
 9.112839681473039, 10.980719008581012, 83.840827865507322,  4.039273380163980
15.708340839328132,  3.786012639533996, 103.526164149690246,  4.359204673003725
10.352620771592479, 15.367776163658840, 63.178379961110579,  3.907855561088956
18.951793328936898,  5.019040699443778, 62.786672367692248,  4.077083726398213
17.714942783073319,  3.458317203424792, 75.835442217228106,  4.106799233524571
10.716361923135137, 14.821182379898341, 41.826794332866761,  3.907349407920516
11.827791372484405,  4.174230582165534, 50.447836476813940,  4.001899460677502
 0.577075180426416, 16.316648745875980,  4.232885429393853,  3.880267189952018
12.020786240241600,  0.398978721846371, 12.017140120243869,  4.045020135398419
18.318933728791922,  5.661016997801174, 42.659636620317670,  4.232840226152309
13.935176676118381, 10.425323036129223, 52.381560677080103,  3.980317635152405
 7.274386958392083,  7.109359344168447, 12.181168720576848,  3.899409933926186
 6.272421710913568,  0.458355962378228, 16.494771672026939,  4.115857725365552
14.817026193163811, 12.477589305990449, 77.653620074796578,  3.817206491984500
 2.643873210909761, 11.113809537227588, 113.421740785817008,  4.261922872155503
10.910128082157092, 17.759315369033921, 60.031488529531799,  3.993643316965674
 2.695713890990534,  0.200749534859718, 18.900508708209045,  4.058717402072059
13.996082971625277, 17.804773974815308, 32.976779532289058,  3.756132267135157
 1.038071587008184,  7.125301697573343, 10.525200531870581,  3.523759836824886
 1.868924121302297, 17.069862100786786, 25.306614131198064,  3.876675257485448
12.031388811301504,  2.701426641777879, 76.640183842840671,  4.143766944329432
11.231161632223971,  4.699534214941201, 69.628248973638790,  3.829400906717208
14.130204710763142, 13.215365407208013, 49.622741523543048,  3.869706410757570
11.861315346719890,  8.423856542842802, 22.909050752918240,  4.135717835705372
 3.634610596349989, 18.588415836712894, 52.183539503708467,  3.685262312081517
 1.828510843371412, 15.440277822337023, 43.042219030306178,  4.268659629189466
 9.588975308735922,  8.859454764025749, 114.214236523377309,  4.199236103727531
 7.693225367788101, 18.486439742403956, 53.704697835674409,  4.132044652751065
16.674848035859863, 16.341672614108059, 49.695557322862150,  4.033912080437977
 5.564686228016443, 15.010096709802912, 35.092914061407079,  4.113123202559061
 6.880901642243006,  2.966292918167976,  9.581285259370627,  4.118087130676869
 8.561949180318196,  5.743533924193942, 62.448083843029885,  4.101933391949464
12.666522096211958, 10.691176178793938, 106.865911568508295,  4.047122819613675
12.042828629698731,  9.508328023141791, 103.084900370005229,  3.928963745730514
10.932821716795862,  9.678396985530936, 95.939596747468414,  3.826961190647367
 2.088402733695546,  9.138573626696793,  2.129660804152270,  4.245790897514033
13.806082806858434,  7.300735521281902, 71.137765589684847,  4.022924259551342
14.591139958469704,  1.078585136691095, 89.980768050790005,  3.728522287670117
 1.940748204691106, 16.630268519458944, 34.717596056789866,  3.750921761824132
 9.562023637097637,  1.071397394813204, 101.093017780099132,  3.950124330330643
 3.567890945865446, 11.010038895114731, 109.213948186328821,  4.039270594901089
 0.483372219852527, 11.563148973565966, 63.418246751323565,  3.923437155799294
10.082815502320962, 19.099497642127027, 107.587719865750330,  4.236396977786105
 8.105352918225172,  5.656601938126140, 39.775289850813365,  3.727799430300686
 4.011259893350863, 16.150029628309170, 99.363764175920508,  3.819033661447258
 8.391559238302952, 13.133013548863071, 12.702999569201204,  4.220968475252524
12.994330957631444, 13.969495385939432,  2.107831691740893,  4.140293875950112
10.644925061798022, 12.318562929563690, 51.195553084632415,  3.902408923772123
13.458045850290926, 18.745824112944511, 117.499610770461814,  3.976863316202383
 2.284304068865928,  1.302661788036361, 98.653630027895971,  4.049513587907692
11.200727207539128, 16.781801053242319, 103.052216763856961,  4.460284130563005
 7.092182486622290, 10.425348699840683, 51.955858372693740,  4.271954879403083
 9.725351771088047, 15.153078134458479, 78.032493981482347,  3.949815308291701
 8.392265503080292,  0.806557021094793, 71.396010673021962,  4.050716248947237
14.447403294171629, 14.419496565460758,  9.126575244641264,  4.406694167454838
15.159109538827201,  2.952364527613249, 53.421069172367098,  4.198191601804369
 6.073359000936917,  7.751509011616575, 67.432186369801471,  4.131170357001830
10.380546899786987, 10.675911957944251, 92.271422919134793,  3.789489889575258
 2.865984737067234, 18.599281325832337, 76.354864311088747,  4.180865752667420
 2.897215193119417,  1.306453880479620, 117.412767085385369,  4.176496608054217
 3.705384146471083,  7.734519384970572, 25.263387889029161,  4.098096653332058
 8.378575205858771, 15.816521451770898, 106.191239516338115,  3.643009770828636
 9.194588042743607, 16.560202087536432, 46.497339459518713,  4.131432597852625
 3.491605351601212,  3.038200666611219, 67.023094257147008,  4.017748577305540
18.828299524917547, 14.513031131959419, 113.827668850447552,  4.099249757431874
19.066596502243680, 14.562521027113673, 18.184754040409675,  3.726217842457427
 3.697721427753596, 15.485608428844237, 18.313920130676475,  3.927009114714349
11.991071653910868,  8.882715837441026, 82.082914637498746,  3.879998247028472
14.087855240985327, 18.562519629113641, 23.259316431095073,  4.224253093539538
11.974270540195771,  6.839042656547980, 45.949592772480933,  4.078033925345236
18.099138560394231, 13.220509398315571, 21.813557643664907,  4.062242954884444
11.544724179993992,  7.539673409213380, 18.925515748662541,  3.992734670982206
 0.183651250780768, 15.029972077495735, 93.889556594687946,  3.926508010422984
14.826712201217081,  6.709399990969476, 49.832379148379317,  3.925311327821916
 7.688053102061584, 15.993153825483720, 70.386058076130979,  4.191249922125850
18.100676852702538,  9.680270404706960, 60.059080111868859,  4.290015448787375
17.864562107840165,  0.870148322623204, 69.560479868610969,  4.196041290125441
13.450977933207719, 17.453563986952016, 27.194743939070101,  3.911788949440197
11.931787961842447, 10.773921838510494, 69.900740494454269,  4.172253130065931
 5.501282411710615, 15.812737461664012, 44.927654911196264,  4.003733125833124
10.576507933025182,  4.638076899315982, 54.305415156508204,  4.103297318362158
18.899506905245410,  2.803451970429732, 20.055056781318950,  4.065903567146414
 1.074017730855940,  7.515150134158052, 114.678619016441729,  3.615839079042755
 2.875139873090748,  2.507264815799822, 15.352639035331887,  3.625387359565325
12.839246314695426, 15.286170488500508, 75.602631934914214,  3.950436648849551
 0.065653334704324, 17.470334692171544, 39.599374505478750,  4.207632007419017
 3.250220260064637,  0.811469740227929, 27.421317459997791,  3.710061334047460
11.284991141964646, 11.666740436904242, 33.023698020071969,  4.128123379125053
 1.481952029084299, 15.448328208065416, 73.708237852942531,  4.269251023391480
 3.434556050372564,  3.733673029043403, 45.291941573265838,  4.213018057427049
 4.428790417283474,  2.624119707540276, 31.009157554829336,  3.694904964039867
 1.892376795335343, 16.103018801917063, 57.059099971671145,  3.453059625527461
14.309738466111400, 17.849697892428669, 107.208983190442680,  4.495627929346178
18.572559438467113, 14.185874175268541,  7.337164838538858,  3.971813464599415
 9.563107275323283, 16.030177832955811, 50.570930113022349,  3.893743019201564
19.022735959397224,  0.919558630390461,  5.719078898190682,  4.061135951414535
 5.440117737786335, 16.206850617564047, 83.012282584777608,  3.935342153332924
 3.545432149498050, 19.025807626922070, 80.863349344603023,  4.055748769063846
 3.593656057521518,  1.656901086130727, 48.792926184264395,  3.813420102117928
 4.988067574935276,  5.993766487018740, 104.588624101993375,  3.935407167917541
 1.916694024523360,  7.023427011363346, 16.483128443853364,  3.724621226992320
18.775477000106690,  1.192317195368624, 36.678742655457071,  3.907559164291096
16.194281458210000, 10.178958843552380, 55.615654673487114,  3.880222868709290
14.213395651434253,  4.002049846490205, 57.217531357919718,  3.876499524053149
 1.315522258406409, 13.942743101011894, 32.012020142739047,  3.972021225576943
 7.424169398638197,  4.714437310775282, 75.539178520551587,  3.878449619530567
14.061995807062869, 12.642490641587921, 72.888149021308777,  3.999161651371576
13.778487742089402,  3.882774126180310, 107.225467428143560,  3.966096610222038
15.754657277228317, 16.305827289946890, 100.000871149328574,  4.076327105007403
17.253462299139780, 15.913722557444308, 24.623934480562141,  3.800542502023735
 3.492146847729431, 15.316445274007464, 38.558274601775508,  3.953184120915127
19.092371390487155,  0.274976192922934, 48.628811108810957,  3.940448944196822
 5.966503250991797, 12.731388613446732, 98.957618780584255,  3.977144763323807
 5.424612108445282,  5.434094603373732, 15.336147646541269,  4.109523410135164
 4.389582257829440,  3.406772284846491, 52.459682735229805,  4.309116832696176
14.240598571692292,  7.354325950555607, 105.488787191789086,  3.812401645682452
 2.500089662372809, 18.817799855321560, 45.426253313407166,  4.078985982126746
 2.679677482519494,  5.984181157890259, 79.885442075816357,  3.965828032458199
11.975324319120205, 18.789784619570874, 41.519650965409596,  3.988502657190261
11.163891998307877,  5.904125182430457,  1.958308594686176,  3.867648331497323
13.225479915066389,  4.788486812685017, 29.433278948608173,  3.980075157276693
12.996227196457692,  8.013889264926467, 11.696612247058136,  3.899628720514149
11.148422682142440, 11.756004707194000, 76.432743978414138,  4.048655555067010
17.374851998289532,  3.624712335788919, 49.994310206056845,  4.003766417483465
 2.376676275642569,  0.050258778685249, 88.635306612839585,  3.673990753416148
15.685720213039405, 17.760552648366570, 114.004308948979244,  4.362209963687215
11.288912354808588, 16.021582602971666, 37.705517185188953,  3.984735701613986
13.573905688901979, 10.409118775973802, 90.001696905016956,  4.063165283391598
17.968804181554784,  3.344683610139693, 92.781876012563899,  4.235343263887748
18.358017859468980,  3.204341312378839,  9.687265724539838,  4.259426358769883
17.603046262440643,  0.271368280143959, 117.440422568026477,  4.156748338396457
10.982861416621819,  4.619804555449056, 94.421802537654543,  4.025730878993213
12.078624226187896,  3.680896797636314, 18.102746636254899,  3.939435431984475
 6.514718485099221,  6.621089613133497, 44.878771556376122,  4.269236076219443
15.797412536661504,  3.397202015085245, 72.166253110933610,  4.070143526961607
16.222957254939327, 10.050967988487292, 69.211688886607888,  4.081349975251330
 0.169366813700058, 19.052256002082007, 55.834933273761607,  3.786972348283868
 5.457833671883843,  0.194392236258377, 114.316944425742761,  4.137388237807282
18.378151649234315,  3.288050678565365, 46.055087829182696,  4.031916829510441
10.260619721817440,  6.633103450726312, 90.961404841354010,  4.096362851241932
 8.131916037522865,  2.947672183275370, 13.420471977027713,  3.955083812141705
11.573030950757332, 16.178897613460457, 17.087330203620098,  3.857655654615662
 6.501607433420704,  0.456915809025581, 46.040932620348428,  3.986028427810841
 6.791153209842586,  1.993799734988819, 64.393379073211833,  4.250348660086968
 0.893359098260729,  6.711091782293937, 83.474305835033519,  4.179803069171230
14.155409429782676, 10.226070447613514,  8.520851572216687,  4.074481692760259
 0.514644753331326,  4.653938157076431, 72.544317023828086,  3.834539549012510
 2.755786850573473, 13.006399786252000, 24.586922774804936,  4.095936008550985
17.602333177707710, 10.353013451180324, 114.198194364683147,  4.021002517545736
 1.326643398083809, 15.649737576234132, 89.745391859898746,  3.751457034097727
 8.612879029731523,  5.438654288214881, 97.588090976586983,  3.918666811233329
 0.815897479544481,  8.749819313515070, 91.263547145728054,  3.806553016906736
 1.599942279199076, 17.814460754479491, 30.406681042294387,  4.305185942520461
18.065594877742804, 18.041828962825900,  9.468994780517702,  4.009358057969544
16.829485472284734, 15.172391027272774, 75.584637396305695,  4.006483931949683
17.289231079956469,  8.339547129320286, 64.742419263957288,  4.022463139011084
 2.888911368562267, 12.924459627520145, 46.352799336899885,  4.290190072732983
 7.263769574735193,  6.341701207039333, 52.192492470867833,  3.850215922391621
17.876098281868025,  7.771374121244475, 111.061500646228396,  3.962132487408668
15.826749248899523,  7.297865583040616, 85.362545717155072,  4.017116245165777
10.066005623055203, 12.810346327793935, 104.320695387518811,  4.150700779447606
15.768640377593751, 13.840011171717601, 46.065198713861932,  4.043661603444517
14.889450069565779, 13.575711885919469, 114.111263277910183,  3.896370884431195
 2.481051203522124,  9.542055104155487, 39.422423783276663,  3.933770232677703
16.937050193560609, 16.286282298948642, 71.517834964023351,  4.338977951988380
 2.511199195239888,  4.871418149178699, 91.063807640469363,  4.406502203613798
 9.794612270771582, 12.667234766980659, 16.527283662267962,  3.941914274403110
 5.179474550882030,  4.922982461035603, 95.193619174521345,  3.982266827897280
 4.016816450973899,  1.866339890777142,  5.178154836269183,  3.987656189479209
12.684375149519449,  0.714226356381493, 110.681546977040512,  3.974528999467010
 5.520235565717054, 18.972925163575493, 68.471854175909883,  4.077110733949358
17.599006649432582, 14.511185163636590, 103.286529085957568,  4.202206758835876
13.696596487997585, 18.258158031881816, 78.136868310117109,  4.017780694495086
 6.139617243907481, 11.915904538069819, 103.658257165865251,  3.933720952408005
 1.443533421780884, 14.190474209132367, 14.731170218881266,  3.800594022850175
 9.785689548117016,  7.936457730676711, 42.570858965325499,  4.115479639841875
 7.129919278894281, 18.250915522168171, 98.737317894721784,  3.733196339954158
 1.132021554532614,  1.802041080177391, 59.271437540697839,  4.025735764254544
 1.882589315361117,  0.329234660967822,  2.080080070837468,  4.133437771246876
14.808874574889462, 14.911063889771643, 15.396929682842833,  3.725215285005041
10.736066441864125, 10.186628415599827, 110.422922056566662,  4.084888150986283
 6.317768851763951, 12.335383914253326, 18.757858008742975,  4.259919849573855
19.047597723703426,  0.277392556672350, 73.517093409691213,  4.141376071842314
16.642572941704298, 12.020309165487209, 99.825397283077280,  4.459450380556743
13.305436409916176,  9.192758992176843, 78.601237177446578,  3.564602983000208
 9.319541023079612,  3.560742323922601, 80.423019209346279,  4.139070166381396
15.044663998702067,  2.790986132046463, 43.077960070477573,  4.191486608944463
12.727039420018830, 18.168835212298863,  2.168739540464648,  4.266016822455352
 4.476402231818178, 14.131018741010399, 58.777525130962914,  3.843464573898293
10.021649979151737,  7.621300379750932, 100.409730479693678,  3.714363264342587
17.523023781340306,  5.926463352663680, 69.157033635394669,  4.515101125508568
 1.954940720108412,  0.855694777098149, 107.856471303647467,  3.550275106907081
 6.340343999535917,  6.806026161843456,  8.140438879984821,  4.103522611498475
 9.918800016263651,  8.860868428412136,  9.092671681645333,  4.337505606070693
 3.091576424677965,  4.035249611480507, 56.407704681481704,  4.092241054452333
