BANDS
8 8
NANOPARTICLES
cell(1), 19.115
cell(2), 19.115
cell(3), 119.466
15.227981136010326,  4.188031090685302, 77.011171908311184,  3.811623109829783
 8.818282825744822,  2.846280519481685, 105.802627583005830,  3.907851908847225
 7.793310400454772,  4.165765347395244, 58.623050173849435,  3.806565653096064
 0.130596965483088,  7.345138892009781, 103.831021269572730,  3.938384937278058
13.353402565422337, 12.961222177024499,  5.571325619713263,  4.154758143672328
 0.267558339562415,  2.401559117998042, 33.567661217685490,  4.014533816142725
 2.157373060364237,  3.477133435155947, 47.187230651287358,  4.229709860577197
10.857483402753148, 10.846870705426840, 81.134654556856802,  3.923289784202005
 4.294576925249066, 10.712526926530940, 23.400279696238663,  4.070777155259299
17.047700309060353,  9.751346964536404, 22.601292614335325,  4.158776141774814
18.878811495641184, 17.897468930999406, 70.624890835541422,  3.847555583691933
 3.679549610282437, 15.041571294904355, 64.398440228510637,  4.117615314294257
15.693461082971947,  5.017713614593799,  5.321024275231864,  4.251910961450839
 6.984245889772466,  9.439989504684622, 26.117020477414034,  3.904767447816668
17.092358300934734,  8.246569470410270, 44.364807304617422,  3.946243415829978
 3.628531730439869,  2.076115899827649, 75.911442745637061,  4.004033941500200
 1.715294247558456, 18.917894192478688, 91.026698135476536,  4.201707383686346
16.716069938256123,  2.187804356409097, 108.913386082162191,  3.819995151683222
 9.101985654364594, 18.617007245325475, 68.155196670886525,  3.788254117213900
 3.970582786536843,  0.293434856550555, 38.282183204790506,  3.651724672000284
 7.250051189265893, 17.705133559993047, 111.380635902708519,  4.255474644878415
15.631546350996873, 12.240276549115265, 106.442140303996425,  3.986133240495888
 4.093933994231687, 11.983022642267064, 27.403655010541058,  4.062908648867842
 7.637339934879911, 15.975455229406794,  2.009101433202609,  3.985954274262601
14.126079930994711,  3.619911590906838, 117.303313465581766,  4.271410525606077
 0.499127610055058,  9.637524386818852, 82.917712093404845,  3.924743215981918
15.012573617641797, 10.918958841729083, 114.574445561302070,  3.799880605367558
 7.541674308346170, 18.905684528089250, 82.630281824750952,  3.844327459699188
18.277649117804511, 18.318575049064556, 43.582400540933875,  3.885190821895022
13.692400366332688, 14.647776124588610, 30.125259692181757,  3.926096223589740
 5.945286523513383,  6.259366489256176, 28.185152971545907,  3.739981394727401
 1.569162176679771, 10.285445700134067, 92.588623344770681,  3.800473705213935
 2.612784643783477, 12.121743545153386, 87.840888484860940,  3.831952946337764
 5.050633386569528, 17.358280978708130, 61.112413300790138,  4.201590035182828
 8.672644661656660,  3.532289003737370, 101.812164731481857,  4.184361785842143
 4.350211127884809,  4.756240736461073,  5.700299684151365,  3.955595070700513
15.942142025310934, 12.169892811260246, 27.822724153456701,  4.106979396681096
 9.305794157187014, 18.743781302004653, 47.820967201113064,  4.108614905671675
15.175308227193552,  1.631481781822679, 20.817538312102904,  4.166343568135155
 1.495272525390564, 16.318705164365923, 34.391885969135231,  4.051774230161096
13.746805971523736,  6.648702138603591,  2.025997433947046,  3.912026276463891
 5.366017686410760,  9.757574770831472, 94.100953313453076,  4.211968505129504
14.009623828657375,  9.582958434742659, 25.354273155280033,  3.958167197789410
 5.506764308078922,  8.998536607328248,  1.880841569567876,  3.669723578104190
18.357698094878305,  7.904071483166052, 19.157602584056406,  4.065531577359608
 0.934692877275187,  7.877205961451196, 37.166177939266042,  4.215186325057132
 1.840496216658462, 14.526262624952809, 52.392736927190278,  3.817464688919523
 3.226296092364370,  9.815269303615292, 104.241352532494744,  3.947074510155649
12.949952291201345,  5.558106347047761, 50.163221113753025,  4.190095864698867
14.547201969959449,  9.537502945316824, 66.451508842499848,  3.762770911083966
15.540916725988673, 18.585391849749339, 117.292334145240773,  4.299273201936876
 6.872924803975659,  8.274072761905607, 81.367001149894790,  4.110186273948145
 7.252255797214048,  0.617087687427188,  9.015864740486936,  3.869158279356270
15.339249156373516,  1.726247144352837, 44.248448750164741,  3.949770742080072
 6.781976512736200,  7.420050678616440, 33.724782131708203,  4.347378535248214
 0.524335649219237, 15.159669594152188,  8.778919252009405,  4.106382916992554
 3.630233040804881,  6.091593957018217, 92.670593080895060,  4.209776157391236
 8.065848622928133,  5.968782106717080, 117.513289732306333,  3.897958436972197
 1.550430587573673,  7.697791086766586, 99.442639908898684,  3.920890151763865
17.442166077430766, 11.410458785130448,  5.467542016518111,  3.897080637671456
12.558171490359875,  6.966289200645813, 110.820000174895213,  3.759290106188653
11.498271562992489, 17.838972116087938, 82.069479597873681,  3.970998970106502
 2.646769030113537, 14.796407092935985, 98.311214524471282,  4.075321502425843
 8.684955234907109, 11.810489225951313, 114.157958140456174,  3.653799833114414
15.592659383554212,  4.901627365074074, 70.293275341173057,  3.555732046561079
 5.137241570735013,  5.732363473371028, 78.819849540185871,  3.841202280819034
 6.117447791110192,  8.611870441994373, 65.124705337986683,  3.986324049950609
18.057282101044400,  8.305455195555233, 60.907142639138797,  3.964912219184133
14.570968976033193, 12.460372543790660, 90.509578785447630,  3.621075395764337
15.506866587750871,  6.556354164680902, 73.731848551705824,  4.062381524704930
 8.436456393747299,  3.664452378101215, 15.967795660564478,  4.105879613001827
17.267352268874934,  1.791640459137191, 97.914545750961480,  4.309749265120950
11.876950225610756, 10.198372869062617, 41.770114803776302,  4.315481711354286
 5.723528432614430, 12.113119943302204, 90.680450250862890,  4.041210415470350
 3.279335244769705, 13.364768876932905, 94.497531486649763,  4.151934748066397
15.327103321415013, 13.928732771019318, 111.584825167612266,  3.700521598714178
 0.760399698762528, 12.107769875390733, 13.619243520546682,  4.089844657090029
13.822579418913394, 18.446414986067936, 54.688688436304083,  3.992273197309972
13.608710488922734,  5.025237774421702, 30.740591966562331,  4.492593502850897
 7.365850771708992,  6.303131357499066, 47.353312998994809,  4.001833336396081
11.440049606744772,  0.689451211871499, 44.486993172454504,  4.046568219171268
 6.635702073705017,  4.950145986072496, 89.742285690367865,  4.102551220771972
16.282983717475471,  5.027425223272138, 90.722401815665165,  3.894522998623717
 4.464787589547641,  9.832713776453600, 85.102073916226374,  4.002073722254586
 6.191996711156469,  2.277189999486306, 47.345335686468779,  4.116392552762210
 9.599546110880302,  1.637508986564451, 109.669974850289606,  4.164595539450341
 7.782256662532490,  0.881428415118894, 32.298562327775954,  3.857677421271113
 8.698896967682016, 10.437061984832122, 55.030550901430530,  3.969222007699622
 3.796961590319729,  7.283764436488862, 48.913453687081073,  4.023075711917878
18.211259250832732, 14.626445157273254, 31.486003358186618,  4.132953207556161
 4.927548204159628,  7.996385708613019, 72.267961701225715,  4.071796502863329
14.375847579344349,  4.754667762496276, 38.880693561362364,  3.911725999506992
 5.655789854471510, 16.891453653698967, 12.305422033673095,  3.886757853452660
 0.207095025821476,  0.060769858438041, 37.122360586988137,  4.170724866502206
11.346200491484504,  2.871658222908245, 19.034754632940075,  4.310728779431090
17.821265708773371,  1.991096357641293, 12.684997994998531,  4.008064115608676
 9.137374036148074,  9.829429090827954, 117.441265661124021,  4.046614942368404
 4.105830909277680,  6.466022339388283, 11.086269730560407,  3.890008361446723
18.975771014567979, 14.363885971594595, 41.330774433356353,  4.187194957240700
17.751963126398298,  7.475255686002864, 76.923039037963406,  3.890372122344522
10.758278323553746, 12.022529528905562, 30.925578845189388,  4.020564916855332
 4.046819072771902, 12.609774153980924, 46.680887761397621,  4.046441478396018
16.192196891709184,  3.167801534619235, 65.034697711993502,  3.707818122734909
 9.600352824285457, 15.936429187168345, 32.213368930328173,  4.253565780651252
 4.799701711935001,  9.434443467391326, 98.152968186073679,  3.849856633391394
11.623513268638080,  0.409362148848443, 22.647582845223226,  4.139926751056018
 6.475022069211585, 15.824701634311948, 16.383433091589694,  3.916816008166301
 2.328753269093602, 14.989834528892432, 56.463930519056049,  4.352464873142518
 0.279961331724328,  1.021307854000940, 82.253288024536914,  3.969517120790331
 9.607038342339534, 16.779522895508531, 107.260068126629065,  4.379017089137944
 5.648783847632738,  2.246048816962868, 61.861087694161746,  3.923503954649697
 8.386294356493385, 18.122352078177958, 54.763262372372701,  3.900195260516593
14.581407548398143, 14.864709182288019, 61.783255478248996,  4.021478829936408
10.564986163714906,  7.120063944885567, 82.167100000695584,  3.761726373501514
16.509036408923361,  1.929486297948509, 40.497610824208209,  3.869993192471137
 1.783217668010710,  1.576066942842915, 54.817933333019091,  4.082356812027331
17.371804450274531,  5.484134412050817, 15.814042873948864,  4.017413959520000
 4.593215462949663, 17.383550769314954, 19.506030188250278,  3.802168300413661
 3.615597205479764, 15.211493904894697, 72.064531997000969,  3.856889347036763
10.182598444582194, 13.824827414637213, 38.881512714684682,  4.196619426539539
 7.404087251275329, 18.020797961638692, 22.253276677755839,  4.131270614951144
 1.058072016898698, 18.053784591294132,  5.428258701363301,  4.425761632086162
 1.973242847878487,  6.791746437746149,  8.008374900310752,  3.582170393997800
 7.413500006230106, 19.047424664108526, 43.996639304896675,  4.190726350807959
16.988075208841732,  9.163966110399224, 100.800154077034236,  4.421323369257770
 8.631445323204318,  8.924211250448888, 39.497919332572259,  3.995579235116533
16.983886165583250, 13.219456119013790, 20.763150940059962,  3.636969431157202
16.351365088992903,  5.730228542911757, 110.868513860368836,  3.925226138641979
13.378571328111880,  9.297410644238965, 45.686930348476132,  4.183703329881740
12.490813315794444, 11.111816128287439, 56.308206922180261,  4.102884907005695
16.181601454618871, 11.695457796191366, 83.449152745650835,  4.078148154273725
15.856646549395235, 18.332293597851812, 94.985362593679213,  3.889162123651094
16.779746463570312,  9.799426334868672, 92.258618657968753,  3.956595910484357
13.852537542438714,  1.432458488670821, 12.335683924940685,  3.999659740747406
 7.359093821678201,  6.133856885584997, 62.101192494669029,  4.186766199192144
13.565730707602405, 12.243965710304014, 15.264419954222030,  4.031649861512286
 6.316668776586840,  2.111563907499736, 24.189072839633329,  3.655169203662683
 3.834564285249595,  0.769728044547348, 50.151028119607382,  3.751430469299518
 0.585490116996793, 13.427266986772205, 84.570067465143254,  4.016436387686407
18.360145624517177,  7.709521062053576, 12.086519927333125,  3.873233793676655
 3.238195133525590,  5.822511285720169, 61.503840941543942,  3.963962150699892
13.723187769014411,  9.161355406424438, 29.628722370283121,  4.067685088046905
 3.359596634155704, 11.972617781895387, 107.622239037463430,  3.787144308309133
 2.141074863500173,  2.530007148608828, 107.457430883972080,  4.083847485961932
 2.574785038164396,  9.679324239664709, 110.754036772501806,  3.988778730118467
 0.018688994635513,  7.801581488925977, 72.294753852962543,  4.081585506591473
15.464725296727853, 18.473553039584456, 50.679329453369064,  3.922205501239141
16.324311169813019,  2.935389628073561, 113.774404611915145,  4.104338780021554
 1.415708308201576, 15.119486812604471, 102.166232734452606,  4.003225274088214
 0.504866161031192, 14.137108249601676, 69.950325810640024,  3.921389825093834
10.700555217664991,  2.133476690215731, 59.687877055585183,  3.581900169517248
18.570163000412176,  0.882432916888408, 27.019664737862602,  3.971574943409000
 5.730859214025287,  2.632300346607585, 117.300448525406281,  4.180169703993204
11.885526489543810,  8.272996310722908, 92.341471770137915,  4.178229879513927
13.533101746473717,  9.689058716901423, 33.649124814610488,  4.016381269374616
 4.499870552109231, 13.215765526156217,  2.165113952244041,  4.292750188482769
15.147108594534251, 17.459792911042328, 64.991855099987973,  3.808085912750656
 2.237556907288945, 12.056910911551869,  6.541995484266855,  4.248297496524247
11.934903948216467,  7.557156838801817, 11.788436863273477,  3.638552627030955
 7.734982320059775,  9.341169347612192, 30.083886597582442,  4.101272869089328
 0.843690833912198,  9.236457768952095, 117.251921512504737,  3.924215574681521
18.264394931682705, 11.640547930876574, 51.374073709555155,  4.257582956150106
 2.617019212567010, 11.533160251023663, 38.529023597674829,  4.150927182517563
 4.235799080636991,  8.444619337615634, 89.078078521848838,  4.417707368882156
14.235479469691372, 17.171861202872471, 85.040094112578430,  4.156413203951730
13.848492515298592, 13.168916510922314, 45.174495996768812,  3.642080676385773
15.915691921019892,  8.188926808283293, 36.528940103978556,  4.002008866044489
12.621887837772162, 13.277876077722594, 25.535372202683725,  3.928215516820185
10.915709206823935,  6.081590484719355, 104.131610497227172,  3.801107055986001
 5.310069440652883,  5.654659171665420, 96.333559244111299,  3.732861452754952
 5.555812622409334,  6.670068536358806, 23.119057216723391,  4.317444446590718
 9.135094038110184,  2.443291030552160, 40.773356539123107,  3.928577284431838
10.357264801389023,  8.373149055882328, 24.444793639910515,  3.858360454584173
17.874864763640925, 17.932889297359928, 15.401505373497905,  4.168871356035734
 1.264013014331275,  8.056538516262988, 52.024080900608872,  4.053383465877712
15.109685163787942, 10.170572539804082, 12.095414826214892,  4.142225565421061
 7.625283938942858,  8.724998399071316, 51.508650395740723,  4.033730147987990
15.872754278586337, 12.150481676126953, 68.824374389029472,  3.558567710722268
13.408414656146970,  3.666411914533930, 53.862526210539684,  4.141782573578759
 6.075580939217742, 14.724050988631667, 108.664534618474704,  3.991166436857807
 4.635841204443811,  1.806054317495972, 16.959832712230678,  4.535252207377539
19.077029698099906,  3.137893679211765, 103.807010444817294,  4.340148073622114
17.641021685193930,  2.424176155626173, 49.075539120432097,  4.216039672950867
11.519397945669782,  9.717275745258092, 59.979739459045177,  3.764906413459622
15.965353898547944,  5.247329109454280, 22.740598283449255,  3.918459785465658
10.943229821119440, 18.235310151262414, 71.899296910289095,  4.005042156169998
11.517332121400393, 19.084684052452097, 15.260669168050550,  4.012252099065830
 4.865186164078298,  9.412598793261635, 41.565012519082167,  4.323144261162919
 4.715519612263264,  2.428944304538219, 111.061930244115828,  4.336665589949713
 9.278617140125217, 18.409904723048221, 78.812710425104498,  3.953726538767325
13.543454800470480, 11.463755721055108, 38.052547386755649,  3.998619034441594
 8.563113850497844, 11.632694262563968,  2.097254703280080,  4.123107360753179
16.280767589177103, 18.105913658986346, 46.902789037657662,  3.788207513316270
 4.297814760708307, 12.765013652170548, 15.209822440933108,  3.743379712642290
 9.037640648098971, 19.028788175072613, 25.930512722428887,  4.082191610892264
 4.916283170623283,  4.782186516810031, 44.534999238840626,  3.821683175318758
17.941254265083302, 14.402543033968669, 58.608880028684446,  3.850953117534230
 6.312681391010101, 14.051713513678235, 22.468453932538765,  3.934535795650830
18.378079432619696, 16.122208403116716, 62.873338721582229,  4.075782059534529
 6.055691835309989, 11.426463620729967,  5.438510927636473,  3.781135927998886
 0.494567514525322, 18.463866370467361, 30.688117413857853,  4.179109530941151
17.518373268242541, 11.572572231577865, 72.139960798105562,  3.915112752933112
11.994763926170741,  1.568272714241807, 96.117885083339658,  4.256928377806747
11.374038050092292,  5.876277740570369, 59.798181380277640,  3.873848681371795
17.290604279233616, 14.819270883916968, 45.076017133496279,  3.970724910092949
 7.475346645922298, 11.067690826386137, 48.253796099330344,  3.941589791558308
 3.828714788685148, 11.367381078170853, 114.284294841336603,  3.979453875928581
18.939271661101021,  0.440309349118083, 74.260984284051460,  4.124942989923426
16.073415948223783,  3.280131547029106, 80.805745079169895,  4.166378862105532
 0.440871305235979,  9.056659969276403, 41.153086318104137,  4.153163802105241
 3.165129051417195, 17.730122906704615, 110.841828091400942,  3.871836511880523
 7.657038454515959, 13.504195870116519, 13.363477885933086,  4.024143908570492
14.377555635300313, 11.154815189079583, 86.960083370030532,  3.873581848451960
17.017920331032908,  7.495800241009351, 80.775433287144509,  3.902025027510587
 7.518341640991772,  7.405872981781192,  5.235483853129325,  4.292859459529002
 0.537677599308225,  3.376140445296604,  5.629422667472796,  4.123537002213737
 9.440600863983788,  9.223529136261545, 110.862037280565019,  3.885945177855648
 9.234868725041085, 13.796452987359478,  5.520944743057968,  4.007465893651797
18.778951789210286, 18.868073225996351, 114.524206749011313,  4.063770735819530
 7.506124605841134, 16.174254045388476, 72.700702358455217,  4.163203128631243
 7.839355565426007, 14.780183306097967, 35.721548608959893,  3.842943738140927
 7.579407330378395,  1.206206513702699, 51.393394956488962,  4.187367621060651
16.743803478895810,  9.364502214084313,  2.064078443667878,  4.124602693356498
 6.070905130326586, 12.501970647299967, 117.430868954647337,  4.036960784334481
 0.769682027258149,  9.259500696086393, 107.253995348266812,  3.733594930458473
 4.163255499001533, 13.444846910341143, 19.110769777404329,  4.054675185012293
 0.041991816426202,  7.663495300933204, 89.768200742810890,  4.134033597428380
16.073309931462578, 19.003594285585876, 77.058188379284928,  3.955219915092188
12.500809033362174, 12.122011901851431, 48.917874837427107,  4.228815945578324
14.501069013942438,  6.744988855100013, 114.207665204143638,  3.970245053153322
 2.335944644892390,  0.204299703066663, 97.424143666069028,  4.157337488230864
13.022707130994320, 17.495746627192013, 25.895386299401558,  4.012053291239462
10.282410137426719, 15.377340624284878, 28.095043402779208,  4.142510082258803
 9.975080381246608,  2.380029717874692, 12.394902189980556,  3.968474469426618
16.302130573444575,  1.874986913982156, 84.869496210391858,  4.309425046380586
10.662646878333108,  5.358769056929291, 114.455776262266170,  4.172129750542242
10.283764271170519,  2.843151290517040, 77.019391025663566,  3.889088415640134
16.534237722056041, 15.609550638513552, 114.668819181887656,  3.718159697211835
18.358191725848389,  6.135010424037010, 115.164407720620105,  3.956946438743505
 9.255254869790484,  9.519472040196410, 104.464764291873777,  3.831280649690042
 9.418186353768705,  4.099460965988800, 30.631636046156743,  4.063317675525035
 3.792858137860665, 17.431787655099946,  2.108373667728939,  4.202682412874110
 1.304650165361843,  1.267753022065716, 40.942227397978790,  4.053031453837204
 4.759076052307995, 12.350712414530992, 75.375868517432210,  3.870235437858607
 2.791478899176586,  5.618060519784106, 41.231942723691020,  4.137830850830799
 0.064709039905165,  2.859215538970879, 70.796766685371239,  4.275956440065646
 1.723466292677266, 11.335811540394129, 54.576886268710716,  3.849610379002828
16.261440754236737, 14.127673239844269, 24.319887186516389,  3.751872669116076
 5.968464897103233, 17.201868508349914, 97.221488521714079,  4.092438272551767
12.566393951568095, 10.743460708016695,  2.065037180569399,  4.045848593380090
 5.906630882185421, 13.318845924879220, 53.987997999197809,  4.321510500430601
11.057612268744167,  7.705194746694710, 63.329619843219319,  4.041669275260945
16.397579016108846, 15.867815869596953, 68.371898823652003,  3.986790014205320
 9.714724931026524,  3.355653095280762, 68.544596297428072,  4.020882177286937
12.426342325668825,  3.981748753289188, 15.165053431692323,  3.986918567411112
12.551373420549073, 12.797663877647622, 76.342882337092291,  4.144988887259556
18.749533204783031,  4.015620136545320, 43.686350137649256,  4.316557657212691
16.270132817491788, 10.627014258272530, 96.640063337172307,  3.868080810713705
 5.547455061386155,  9.038483029254083,  8.392325652791138,  3.830399688251126
18.889493148646952,  2.432273022365388, 23.189669319942947,  4.196540217337799
 6.372651082354478, 12.319801177938061, 71.771252860374759,  3.971444911092429
 3.611017145809398,  6.416389952882323, 102.437598105128771,  3.778366685729705
 0.414159844064916, 12.425234136021453, 35.006048885501400,  4.074457380622140
 0.163080378775122,  2.449914115030039, 78.149244188660035,  4.264957113674015
16.881738952690455,  5.499876692845183, 51.965611689488441,  4.348351614221156
 2.853547373296667,  5.510992502286683, 55.100766639586290,  4.024032295702868
13.457124299246571,  1.897743356533744, 47.995360768454873,  4.335931566183564
 9.984138473659971,  9.250993721298833, 35.703070276357309,  4.019501456974652
 3.510503251431428,  7.927118987152298, 58.014345295921842,  3.650391435831728
10.078725502113748, 14.329878136798362, 55.123680959861176,  4.280121041526606
 9.074622341332915, 16.361667025807634, 61.048722214621151,  4.085508803760757
15.049604463279859,  5.382012750591561, 42.650711036648346,  3.820897944129377
 7.988595488141464,  8.742922014436191, 91.078697057895610,  4.032807551725423
15.263486819956231,  6.990248031966869, 63.466422691573648,  3.969106218135072
11.952493556842011,  8.258850605822133, 85.688419933997992,  4.033316131677849
16.650108966030505, 10.972655988386819, 31.542542580379202,  3.791250957876548
18.215468802973209,  1.928653577949108, 58.041539310748306,  3.833459999382596
 5.269225068533041, 13.721318354724961, 101.202434671404802,  3.997569126864546
12.906961401940128, 15.621487945528520, 92.856568330298998,  4.220768491096261
 3.398964016435456, 16.047032309744019, 29.079555760848319,  3.914997194294361
 1.673695308752324,  9.712984991762454, 75.519090576154014,  4.109526935313422
10.512121276974748, 12.730155089049909, 97.385024174372688,  3.912590276509669
12.616599420077117,  4.365492344948246, 91.570556336267529,  3.747400305039401
16.241329629664396, 15.964681403065587, 108.349112893377409,  4.147891309991110
17.153522562175883,  5.838850755714119, 33.578087861945299,  3.899195494455308
 6.855281063090421, 11.820879250759585, 78.973410148196692,  4.154232236130265
15.103023579038290, 17.997509152910411, 71.520927263061395,  3.901709480595533
11.007336578233131, 12.219969421832838, 85.349446958753106,  3.877571035194001
13.347655927375982, 10.736953075291416, 99.344674496724934,  4.025853599780782
 3.524202662307255,  8.587013045920742, 30.474564964289232,  4.357048140431304
 9.107201556052948,  0.788756711606311, 62.771209949644415,  3.736166864257360
 3.400803221313919, 18.968503422021342, 64.326088281258734,  3.707830780765069
 9.741806664558972,  4.832353353349825, 52.521299590960083,  3.902021353087080
13.002687819492152,  9.877466069060244, 73.279228376856778,  4.295062740895959
 2.327184246842757, 16.011717689880207, 16.475982192874049,  4.131004767069546
 4.861450538409991, 11.634656761236728, 57.742050674150832,  4.075335947639358
12.167369234892719, 13.643739784336999, 113.861783641368447,  4.090294407248425
10.427072665033403,  6.284112611440372, 88.901674294709423,  4.073866167974469
16.637182543204947,  0.640585766413810, 61.613645353927623,  4.296073142872739
 7.187825433542838,  5.765712059727930, 55.235053749752652,  3.769647637465355
 6.175582965228784,  6.328270996341247, 85.924534702540299,  3.916545840633567
17.019396354878445, 11.775081461664275, 55.738465753530761,  4.090243167151169
15.408785687951147,  2.435520859017439, 73.456092762607156,  4.078768675839433
 5.997579166122401,  5.532770401768757, 68.171733124803950,  4.564427209857444
 2.402191891935253, 15.859773117651921, 38.335357769089072,  3.989645948054130
11.444148302181850,  9.270960277562279, 114.280625105914083,  3.803882174396218
 4.415181798028233, 17.342608794942826, 41.424122801374793,  3.902209378921271
 0.535705170625423,  2.292967597689417, 16.142082344981532,  3.727613855360364
 6.514562496615082,  6.402266478849937, 99.912258578340868,  3.905799562433213
 2.409702420583799, 14.027487644184204, 78.316219206489222,  4.138828618524413
 9.815901980849075, 10.043454014420552, 13.968001890635414,  4.151575594361853
 9.545319324549981,  7.449436319822171, 17.113572207411941,  4.014519222792217
 5.869361392478464,  2.909935899660843, 12.075390745108862,  4.210215095757786
14.374741553393086, 16.268474632868905, 74.926045670829950,  3.706644721656241
 7.928536369540993,  5.286863674537927, 72.050130273170382,  3.901549536983938
 3.254314945169088,  8.389129600829836, 20.147680273751888,  3.939285362778831
16.754206792073926, 15.408487943697633,  5.744938228192827,  4.227800198011905
 7.593234086229190, 11.587129109408574, 33.497808049395005,  3.934019460580219
 2.414959520731775, 11.143058079790761, 71.716748691960717,  3.972206019350315
 6.295448377052854, 13.521864305174903, 61.370082092309723,  3.878733019737618
10.378283427539472, 10.821613956899897, 27.309964047895658,  3.607499528882298
 2.330066506134605,  8.000283729047293, 95.810200038002918,  3.528523079222646
17.061713814750544,  1.245562973280234, 91.147507151499838,  3.855342570166010
 2.941100541791420,  3.239507061245068,  9.097806956454120,  3.990583819774217
18.739005309644877, 16.099512622057812, 111.537519554840898,  3.952552242369759
11.296518240089789,  6.653085889740841, 55.901801558740694,  4.055212829313036
12.079158022127254, 14.276772415487638, 58.747450909895193,  3.828248833777477
 0.201774894493075, 15.075875157773021,  2.305797532533543,  4.066137197922065
13.331031081476283,  4.563927664138952, 83.589117320097586,  4.038780226530507
 4.304920281225381, 18.086240709115604, 101.095493223215726,  4.435866948088294
18.257893899899425, 10.390311356312292, 86.859373810435315,  4.023036620827828
11.642344488851661, 17.326324527967159, 111.102679385248436,  4.201293349507148
 4.635431991290448, 15.530902129384993,  5.901110269795483,  4.238467297828442
11.191230818347194,  6.418806239788648, 75.207995803021618,  4.270549941723314
 8.997871091830262,  6.151142050731091, 78.671965999959014,  3.895002330940121
14.218947502418352,  6.870483135854198,  8.721065141671113,  4.000875001716935
 8.071130451556433, 13.687046284919365, 87.487677923235410,  3.923098454176165
13.167744822179897,  5.071449841325432, 66.766960881211773,  4.027892911899740
13.843641096538652, 15.406316727648250, 37.723869966045939,  3.851536042909443
 3.029012068554387, 13.625401840998640, 111.100441106096127,  3.803663400812492
15.163657505037330,  2.358584003356462, 33.681437059814549,  3.937661241447634
12.968981742247539,  1.085434225264301, 79.266656740285782,  3.920694601511588
11.110414228497715,  5.953645448137426, 41.780171243061780,  4.135580083341066
17.743184121429209, 13.567338927862643, 16.914051682856954,  4.210336805378669
18.944490084025734,  7.507069597325844,  4.871862205883892,  3.876207324262003
 9.779883313579958, 12.005446912778231, 22.762634869488668,  4.125933951998445
 2.203700453168923, 15.754210806718664, 44.616269398534783,  4.318361319609730
 8.164301862120581,  2.115602705691455, 113.584189517868879,  4.183781375213950
11.983054056954108,  9.929151606291256, 69.279909904108351,  3.906885765096309
 6.377194101687913, 14.961386765963701, 44.254931312190223,  4.142912039579331
 5.296892326500869,  6.732387899307966, 110.972022203948868,  3.984126431513271
 6.124316850442381, 15.343826665140679, 81.266212552396340,  4.025902248693909
 1.182627064606603, 11.544784795443155, 21.119941000769572,  3.803864631910053
10.652574244906152, 17.330349497294879, 36.679437577382203,  3.801751551826958
14.355409691663167,  5.392786821865302, 98.215881069594005,  3.986118738036898
15.738794630879928,  5.153052345631856, 46.553210653748380,  4.088786418150789
 7.557691943145073,  0.345841464394691, 58.660388884480035,  3.828272870081218
13.596335219275019, 16.541095690138413, 33.774791871699612,  4.255420940667434
 5.849729857691220,  8.861679469687950, 107.449704183717131,  4.145288184690059
 5.942382446625930,  9.857844245858459, 12.396529273949490,  4.174482143695551
 1.763366954728112, 18.566419791007256, 104.660328340814502,  3.978845027274974
 1.246691048061874, 13.519023039386548, 74.481909504889828,  3.676131732073146
11.474896203769109,  0.930440838816422, 33.700184215504223,  3.896845008356544
14.044700800780374,  2.086047356855445, 57.662524053675526,  4.114084201953149
14.181669920607986,  7.842121019862748, 88.997924067869903,  3.903022055839704
 8.341638165701310,  6.247627950681439, 12.377099434653056,  4.090936249485972
 0.559144987986447, 14.793540672495375, 106.205168055429411,  4.271371111940661
 8.958532848759532,  4.014772314711873, 92.950973525028218,  3.932390894475855
17.301218758622831,  9.582832642302392, 15.516884333591475,  4.046868142922714
11.607032440851789,  8.974829237039920, 52.486912618442823,  4.163876051504686
 7.725029635065462, 18.649189079149355, 103.582585766387425,  4.079067695080990
 9.079958282571228, 18.013210656526727,  5.694810141864137,  4.429727204088008
14.647284654492511,  7.986409878708971, 58.395259230988280,  3.992963019812021
13.344759653628119,  0.610587432337323, 92.257532886624247,  3.953483514037329
17.561602882318105, 11.627477295934618, 38.551291782088349,  4.074035977909201
10.264593500480505, 12.751252910418756, 71.531048895161504,  3.827405275153299
 9.899912936671100,  7.872388931727639,  1.964298183719261,  3.793207454967127
12.748515693118506, 10.584280134350889,  8.810992631619307,  3.969437671389525
16.279861150034211, 11.737080689513906, 42.716157413214219,  3.793924962115049
18.899383587275750,  8.157132519974294, 55.714022052608854,  3.878809013473047
11.492357173455636, 13.255906670671637, 11.747781701217123,  4.297387946868819
 8.199465084874742, 12.116737040508902, 17.071960384508508,  3.940810948934709
11.002071065275370, 11.272408623601420, 65.526735601220551,  4.258957726705980
13.014878185696116, 10.782824258056941, 111.060606096282484,  3.917636718779222
 6.440504463881462, 13.037605659440759, 97.278154404566067,  4.246035685916837
12.710058488355743, 15.675555337455213, 51.500590564369766,  4.049016755512722
 3.223531829425307,  3.888326098020845, 85.094956657308344,  3.875795912173605
 3.550254367409575,  9.875468038274853, 34.634183741504728,  3.936816861381029
14.864065096938242, 14.634053076098121, 96.719896619045713,  4.347775151708525
 4.002444945286546, 18.610418914872668, 57.394189480766173,  3.830436751830208
 1.658921971503492, 10.151659193297291,  2.103912878178588,  4.048200849511461
16.434261502316648, 14.003094511398350, 13.086969895818473,  3.828145829256767
 1.060652511363063, 18.514794676772695, 47.634329621524714,  4.163212578611197
12.553210796377504,  2.090774340973338,  5.347360140573161,  3.961838436175083
17.336301512102974,  3.087058577689752, 30.151599167481201,  3.941457125494959
14.960882239005812, 18.819408476871036, 30.590975184206481,  4.021769999463376
16.190925533423545, 10.902844704890112, 75.751413278143247,  3.872658183790710
18.368421757999680,  4.446525044895420, 87.410410886590839,  3.979020651506682
13.381644462177926, 15.768791481715423, 22.329000881627390,  3.896638646579812
 8.497058640048291, 18.955348455062030, 18.369266494836083,  4.114473468427216
11.813689137996489,  5.610352108547639, 46.174150914009658,  3.848188700456339
19.110101287751867,  9.860516480867096, 68.583687410660147,  4.303691565313883
16.908479904248360, 16.308700757841436, 91.617563944901349,  4.200574806485741
15.648103023684573, 17.527711398212869,  2.206462702134643,  4.276625299063346
 1.909173477630893, 15.773997119556297, 12.483337425210189,  3.889592670176582
 5.142167551923114, 14.937548557142817, 50.030738829597283,  4.265892233664233
 4.286146610302566, 13.542050647636346, 68.400937086249172,  4.304100587378718
16.533478824285709, 16.422432723566491, 101.818774817550988,  4.398444270991229
 4.613188677827324, 14.900002080608845, 85.334913949850318,  4.552105293406119
 9.940963695557713, 11.791290965572855, 101.311679059590048,  4.058745231711844
12.597469211081833, 18.443337967833365, 61.554171169219558,  4.115969934976929
 1.790642901100334, 17.073838410107602, 67.363594163461244,  3.999635274648881
 1.326572566016109, 16.299751807051702, 25.548607150781180,  4.050704484818828
 9.737059136515709,  3.489851772058913, 48.808733128802288,  3.904704852084429
 0.964210976809882, 10.752311313468651, 58.473688538592093,  3.988436729887498
 9.262263635930161, 13.994650078234097, 111.060629637472417,  3.950091278329779
 5.524274436380075, 16.295666043546312, 25.706339934988144,  4.039262724447972
 6.259643903505460, 11.405691223201631, 110.986672283059391,  3.808539215538189
 0.048010011461729,  8.978047343102769, 33.395002423344167,  3.552417345390062
10.855837424206388,  0.141882178957757, 29.701466121882017,  4.282529264894623
 1.856227387635243,  6.174179222768649, 69.061914397319853,  3.996839240165041
 2.277944042945483, 14.005387853292479, 60.637232791419613,  4.135666547274480
12.917296107455618, 17.810878120499446, 68.238509958216980,  3.968407480502493
18.182358176869133,  4.919465768346067,  1.993513201226972,  3.984939388617291
 3.880822574095620,  0.141559836228019, 83.692690033864849,  3.787846698498828
 9.380538981356599,  6.860536520755113, 107.469957604423172,  3.708329718543170
17.029363169186791, 15.407434713268168, 52.905791604567916,  4.237152634327353
11.253071599782203, 15.703677123474158,  8.441612308740178,  3.907996806978556
 1.619815373024351,  7.286440209661020, 86.128838103875808,  3.774158315490991
11.784996183066760,  8.948556573661779, 96.290126041722971,  3.707639116662832
17.477963862684025, 15.285719801901424, 73.025644139523934,  3.675536567823318
 2.341142730163980,  5.531457880299173, 117.529194556845496,  3.860136529072460
16.868299043289895, 18.112369012753600, 87.982995913658300,  3.901263069036073
11.751312480954088,  0.040425831439054,  1.989706690252341,  3.904859536943259
15.182984433319296, 17.305932708481933, 58.431155900170069,  4.137739067508370
17.936035899087390, 12.183732729469146, 61.886609780398850,  4.030891585760303
 2.153898206170499,  5.776245097857589, 17.195109434914208,  4.144387647732773
 9.171177976219751, 11.688077324430678, 107.776364727601845,  4.014651863843602
18.829223089229824, 10.884176925450225, 78.965348432681154,  4.152760865319173
 9.812118743331890, 18.064301124474216, 91.654989920861809,  3.932201127218326
 5.858202480635093,  2.109066135288440, 54.997053626141941,  3.967882507243099
13.745716352168946, 16.622097906808097, 12.303909901196757,  3.835964860163722
 4.105810011185401, 10.872066265253762, 50.933249924056312,  4.226728436575132
 9.853017887036197, 14.115530181838130, 117.324230960511954,  4.187467461277610
 5.355061549126466,  9.095680050486894, 45.585674730992821,  3.727926191690765
 9.612242064970335, 16.642930079432951, 114.384322865055580,  3.508232471179882
 4.649777047942094, 17.543265700524383, 93.511081343368588,  3.797496343032394
12.253137514624218, 17.947988155414677, 40.194418725652930,  3.755769114521723
 6.030482209504665, 14.244786406525275, 39.293793329475037,  4.178894651396029
 0.497465692743412, 18.342202887280003, 51.698153067954223,  3.909140474966004
10.591426160999342,  7.529654201619928, 32.215197330856910,  3.810824012108546
11.545445338454197, 18.000452925428959, 102.102097741107116,  4.046154412539047
 1.307272165515859,  6.193344857471771, 79.401380993405184,  3.817771508327059
 7.610418038818604, 18.022486324161935, 117.364648420008663,  4.102257357753360
17.874831299232287,  9.137455299735802, 112.507467594270238,  4.088769903874645
 6.400826750185322,  9.917455384350804, 101.754419841259221,  3.993397410381972
 2.140623661947999,  9.969869867709061, 10.328373479508310,  4.207120128984977
17.740978017202085,  8.784082543455806,  8.377444771717025,  3.932023608526584
 0.213194707016059,  1.797099183089676, 94.309289960701790,  3.913310930132068
 4.783564604695372, 15.701343354899665, 104.816715317160828,  4.235163773659493
13.086924177275639,  2.086541823622575, 70.226915839982865,  3.873365589773919
15.209883022534473,  9.066576526508330, 50.048937592559156,  4.132963309397596
10.034429225811728,  2.356586459093033, 117.359796441183889,  4.209085543629811
15.122839689981996,  1.909805531248914, 25.023107428632958,  4.184440463524273
 7.378001635403255,  0.409272693202164, 75.283573729861132,  4.266647842900856
18.187388140859156,  4.920064552117694, 26.478605708174346,  4.164324209486307
 5.098184234918228, 17.613648710157353, 47.011313917680390,  3.773884670903841
 6.968832092369033,  2.087647592157291, 86.311495597110280,  4.679938138762936
 7.796451036678329, 13.142670923209591, 25.936089732097670,  3.642641071975353
 9.008029198462586, 15.633375157737076, 84.190149093447630,  3.864830121024975
 8.306721412979813, 17.663511804236236, 40.031004958059491,  4.162113477418211
 9.698693666044734, 13.877235465049520, 90.931861446826076,  3.701512676852433
 6.306543936351075, 10.979122463887547, 37.099357106603193,  3.697304576644511
18.841543473063407,  0.909648726711614,  8.899231615017472,  3.955676018370545
15.643413465863071,  1.508312546468294, 101.875397844183979,  4.085888176857827
 3.329727106047319,  6.921525412530510, 82.645000136657089,  3.858237979120270
 7.546237496278613,  0.165433455960631, 14.617842490158711,  3.601329870954109
12.844943256200775, 11.057340815531386, 117.618250298690413,  3.596011043727752
 8.922797461595668,  5.389033096672434, 110.893141131110411,  3.740519235880323
18.276610470085963,  3.881255703000547, 19.379261712614852,  3.975678599761365
13.767934340181407, 11.902570314687376, 22.132913995425579,  3.738088731013071
 1.881073468545742,  7.294144352767025, 45.137048819653302,  4.121596094497624
 1.482021962478647,  4.715000809337238, 13.354780811059449,  3.851347624404540
11.305335458549749,  1.383718616782623, 85.183702179545335,  4.121909260783239
 6.624123089720802,  2.417348856821779, 28.037217437602461,  4.034145255626867
15.179972663324424,  8.425103096525586, 54.411127847569681,  3.983499487228340
 5.251443331127773,  5.784867760106573, 14.763426853888660,  3.730663611379892
12.730615823499329, 13.873365938841802, 18.858020626823045,  4.020107604152660
 3.414664995509422,  0.308989792701510, 27.035557380044207,  3.891986462899748
 3.272885073892388,  6.037049718898940, 75.374526703575469,  3.902167727851732
 1.703947803998280, 10.733673383430999, 17.312630507337186,  4.011827469193633
 3.219992668006215,  3.648078157305420, 64.781162502031378,  3.853686975608301
 1.408718598888762,  5.437503098548590, 110.906567436718717,  4.181272059876490
12.629038774918520, 17.970552181546701, 18.984576491725676,  4.045245528279943
 5.970723403920833,  4.556424757360587, 107.786905054253467,  3.799991851266928
18.492399935753486, 12.278136485614514, 109.666458666535007,  4.389327345009412
18.826309090847417,  0.304348891641833, 65.063667288058397,  3.739718322074272
17.610073265366712,  7.220370346178390, 97.313487435032101,  3.568938453265412
13.421031380777647, 14.045760522164581, 41.406501771719824,  3.997489626744492
 8.645354707516860,  9.370026746466133, 98.374827166246419,  3.830048835936956
10.532550537707854,  7.111790276894593, 28.147903054142528,  3.968486504978139
18.848972485522324,  4.504303777123373, 74.579190688401795,  3.953676706463008
11.378824448357294, 13.060950260042247, 34.868659376250207,  4.199447449008085
 9.866914456602622, 14.524818108176238, 79.887190263876448,  4.049883068489111
 2.248288778667696, 16.113356555264243, 82.073106777933575,  3.847827719224898
 9.399557330553675, 12.367997406279729, 51.545191229595424,  3.884360876967721
13.821205045643499,  8.412623657271638, 77.948168461783112,  4.243485503069681
14.509886109107917,  2.914094007499680,  8.673813946603479,  3.923306956763840
17.795010742763402,  8.893447233235229, 26.436355909265796,  3.815035360514912
10.863746625223225,  4.428843581222289,  9.019478441852689,  3.986044849368309
10.525585447401014, 16.320550792488060, 75.552445855728948,  4.069535723200398
14.863968668370999, 14.023207621485248,  9.258206131449821,  4.084182445256128
16.143481269545585, 17.169522046744678, 40.379907853558805,  3.849214479354194
18.690868714126516, 11.431988681446050, 103.947245989969431,  3.974345733973387
13.720270493174954,  3.782139574451316, 87.759071862819482,  4.268604087862050
10.099923890392850,  2.424698342846904, 81.556025709345860,  3.727892902024270
 3.373411555260210,  3.213457119123089, 81.223346671063084,  3.839791443457132
 0.784324198511995, 11.656947301540349, 44.379947756657629,  4.125261068917065
 3.975321177691959,  4.050928938346694, 71.921618161538518,  4.061312878073046
 2.349595324043393, 15.905198508586368, 114.296990522002631,  3.809270823977617
 7.049182884774011,  9.903921826372040, 20.345365631646203,  4.226191650199167
 6.867815731272779,  4.905204224258639,  1.994288346096503,  3.976042131210312
 3.019653071730514,  6.277502571345521, 106.155317627193341,  3.746117602393375
 8.633149569658647, 12.595349293202839, 75.043504406047916,  3.881396725110602
 0.974899531268383,  0.872214785171592, 86.444468401471809,  4.084264143052512
 1.578823854532120,  2.058738385710158, 61.474093389422258,  4.097592108747507
 2.216142437097319,  3.410824269951972, 100.485929886775821,  3.691099446385762
 4.293396035988855,  2.333588234189312, 94.396991305708852,  4.126569994479222
12.560374954508760, 13.931367698335348, 108.545121686690337,  4.128206554438482
10.399752295330011, 15.890316223179823, 43.534202608293683,  4.238686182899063
 6.742739145735190, 15.585092076466424, 57.628801067136351,  4.306483035183035
13.115273127011083, 18.823817834399428, 88.465309861867141,  3.757887981306758
 9.421548272718177,  6.157223077190856, 21.126032613360085,  4.318160321030266
18.148970981927427, 17.088003514406751, 84.384094387140010,  3.761931176641696
 5.537617248699869,  2.329187611896012, 98.884955940981030,  3.953114551659863
 6.226974564879764,  8.658873791919568, 76.129609083322038,  4.095508591131980
 2.960080371059946,  7.552499485328553, 114.089056276677852,  3.842694047147504
 2.148845239931275, 12.841143956321293, 117.493128882725202,  3.747025735453611
16.858482597641945, 18.899732557270973, 105.395766407824539,  4.113772844864295
13.184064192239923,  0.268902042842449, 107.594812379199638,  4.350659783637520
 0.073855751853947, 17.563461355466931, 79.154923477447667,  3.972174414313756
 7.459990184446265,  2.695558941433310, 20.769990105978923,  3.616843488240874
 2.134683636175418,  4.107340049230503, 29.722250679618217,  4.189096863287466
 4.148975514656926,  0.825846007710772, 30.765276347953431,  3.682441456657158
 5.527554070968604,  4.897637024452020, 114.206277621655246,  3.426139540091820
12.414249287524575,  9.342546139871729, 106.959476972069993,  4.015832021126587
11.116553742076865, 17.979659658850235, 57.689028984086640,  4.073557178798701
 8.550168630522043,  3.252443764803941,  5.522641261217352,  4.284920486417938
 0.472803391772627, 11.062620564506661, 29.071740246415953,  3.853707623105895
13.160280624029193, 17.255725026663420,  5.405287590008016,  3.837684484248341
14.051871953042349, 13.834976475719380, 71.903464297434724,  4.029423271235479
18.997600813371921,  6.571213894009618, 48.570625475945057,  3.911939016155062
17.721497538502739, 15.394015057956704, 37.111479922502134,  3.974730803310663
 5.508834974846266,  9.273458347246940, 16.599890974807369,  3.936441911154925
 6.343541958979492,  0.987918129275762, 90.933818864013631,  4.191010822771251
17.711966057650791, 13.114497461460996, 99.475071680880092,  3.990617641533962
10.557209603633279, 10.080971470533004,  5.525739472082821,  3.815228250623709
12.574544740216247,  4.946496766337516, 79.703596200423377,  3.874337612843808
14.268859981621658, 17.120296687337731, 43.806149845782230,  3.834633515739576
 3.488538360695878, 12.227817887590271, 81.933597762976376,  4.168095095688784
 4.156091184089584,  9.410729928400544, 68.583156131405531,  3.969386174873153
 3.960305862679932,  3.347549734047916, 58.353752306566093,  4.040766936755372
14.276663615742413, 10.766020911350255, 62.717206166854744,  3.964616953549568
18.837896486352804,  5.227908393273871, 63.220618182445079,  3.870270487994895
 0.832047801961496, 17.684896022218233, 59.498421526330027,  3.940810675063031
13.223079261779020,  8.017699002740400, 21.641713697301984,  4.166002826160231
 7.517103923066413,  8.068408383130867, 114.150802680755035,  4.042328221215171
 9.122549844125327,  0.253456945458985, 98.992845251835135,  4.242414016837057
 8.710430717153457, 15.356640961249132, 99.843620010832922,  3.945664074393033
 3.598301587158252,  8.554288354817304,  5.102523113561479,  3.775670486839242
 6.580174584447539, 16.072689477942852, 90.326241919713041,  3.973077654255412
 8.714810975177487,  4.902302716550785, 25.178267612317818,  3.946482132331764
15.489048029265156, 12.998535049387515, 34.806010785380600,  3.990145934712101
11.606904259495645, 12.519987742286009, 104.841200081986173,  3.789008462362796
 5.187540375401953,  2.253028236858950, 41.383369314736463,  3.999086283473441
 0.846931325179646,  3.711831428582922, 90.954385389235185,  3.758886718124020
12.862423827075697,  2.305085479761495, 41.324389649197023,  3.591286782819911
17.654100901163119, 17.273673045473210, 11.447191430684105,  3.743697666931525
 2.746126226912982,  5.810372472050245, 33.799580729795274,  4.334293896374702
13.320068250457652,  3.077826186289478, 110.795961222773144,  4.121375992565757
14.888563274984078, 18.081131833668437,  8.841685290913039,  4.013425831240269
 7.399438863268757, 16.845201477034852, 64.805679184519235,  4.125267201785124
 0.952358943643472, 16.940975861451420, 94.491561656197433,  3.825800754372275
14.291279404341060, 12.116295281171888, 52.707679878029801,  4.090018580573192
 9.790506901920981,  7.190892574847331, 67.325119540357747,  3.825922636167081
 4.220248312654552, 13.601418845025663,  9.917612050875592,  3.927375118046825
14.857083637831732, 13.495587860904749, 65.460535377233299,  3.836432615628687
16.784280872055760, 16.306959476922891, 27.798085994236182,  4.327555345250363
 3.206874972044657,  0.005883306268109, 72.047778800264041,  3.953597389326033
 8.869445878399686,  4.256342041278154, 97.401120892956499,  4.201540917673778
15.645721878512658, 13.372502852654890,  2.100237954093587,  4.018977525049144
13.095290093132514, 14.151607631491659, 82.581284417313498,  3.944102651565575
 7.023968072439867,  1.339741457331103, 71.143205623014623,  4.241875729296414
 8.628588569201982,  7.427336838936649, 94.849297399529704,  3.865210076291599
12.287802325170368,  2.365628897290861, 103.996431717962665,  3.971057382117293
13.338357930042562,  8.071557612935703, 15.476028337607726,  4.280750770053732
 2.784959059907127,  6.289848474046155,  2.064698917169040,  3.876837672996083
 4.207058205517537, 18.684326254708541, 79.364282342959058,  4.499348025622932
10.990679205213000,  6.673509720275140, 100.129750859985506,  4.126929638656316
15.911213906102100, 18.412970157675723, 81.551468417123672,  3.925287045076160
11.518856533166193,  2.055088939269072, 37.589891188007194,  4.028441386990590
16.464394978224359,  5.087742524886794, 56.240299556846665,  4.018641892174874
12.333346325417851, 14.865105506157935, 88.115178175562690,  4.167975246125866
16.518644115571878, 14.397254881406411, 86.861583071124286,  3.871980096421470
15.123468535438960,  5.318611945452499, 12.401406391046436,  4.149273706872378
 6.434398658245996, 12.028397215725990, 105.026817679541438,  3.743929109401927
 4.274899530905465, 18.251580788966503, 87.890948912624125,  3.889286271111569
 8.793820471566944, 14.836932226119924, 103.712906383146859,  3.841100649081398
 8.078017840888476,  0.617106566155501, 94.840283755152939,  3.999370279164702
18.329863794346696,  5.489770956747939, 107.342988570262477,  4.165895603179585
15.533663411880706,  3.444476064350359, 105.569079892095800,  3.552334456023941
 5.231388762333193,  7.141176005457545, 37.824830397767705,  4.337956323472115
 6.640067385805621, 15.655408562870472, 77.097341319643846,  4.371152390075375
18.462839964234973, 12.766502248869353, 90.138219312098201,  4.041180271485561
15.406386255226671,  3.512391171861457, 94.415558484625691,  4.261221871495903
 6.371407424964149,  3.158347525450123, 37.609052791491848,  3.929176063572456
 8.921214324195903,  8.413712358359962, 44.201270159560899,  4.010397497781943
11.837190767259036,  6.079393903858588, 70.940924217664488,  4.367088936003053
15.856736773855250,  9.153541541834551, 108.904865160681808,  3.898840731608561
 2.407260904223236,  0.254854553917711, 117.475302779175081,  3.977956255566700
 0.599183776020529, 12.198764716185124, 25.075330712302645,  4.283626667842543
13.689659519243712, 16.073178253234310, 78.912565385398651,  4.392134278456678
 2.508946491927075,  8.464058492873290, 14.129727140752387,  3.954513256240170
15.121620917434001,  0.168120549923986, 37.087255967127852,  4.123265526242252
 6.098899778335786, 14.738491635129851, 114.068534154677621,  4.027314460332006
12.230219029214028,  4.321966849380003, 23.367989756784564,  3.742879376028384
 3.474495138018780,  3.380598837711050, 21.046098952249487,  4.472899476632378
 6.884749660789227,  4.301071163856654, 82.589886780660109,  3.978092556384983
 2.251693236400589,  7.423355512994090, 65.277886520168209,  3.949477439065284
 9.675058719514768,  4.382296823256733, 64.801156547601252,  3.713267200533807
14.823187235938949,  2.661115569201821,  2.026138574897016,  4.025470538058179
 9.958466418452241,  2.496253461382839, 55.809035775060330,  4.024126477002361
 4.136166403471787,  1.940725768033417, 34.503850667809672,  3.996311757766538
 5.703431656309641,  4.057447438034726, 31.715904930564449,  3.657532004554283
13.833562835741972,  8.803109952323537, 82.304217999234993,  3.592054953243413
 3.213919036575024,  0.629595491253461, 44.405898887792354,  3.866549067803949
 2.196050570014557,  2.977759195510305, 114.437375801783844,  4.134542375591857
16.088303074703685,  8.449508115492073, 117.468596185070908,  3.972746894601171
 2.662953693073788,  8.248150359180315, 26.315969544358129,  4.141238003691688
14.538574452530799,  5.535195042816227, 18.680033510265655,  3.983181823407556
11.517834079107983, 17.765542188797188, 117.576910214361263,  3.712409596423265
 3.436840805836973, 18.217876129921180,  9.136449562557155,  4.276821914155706
14.880581221764908, 12.049028524152765, 79.612468223838647,  4.007204152065857
 3.383987885974478, 18.755576121080534, 23.039303951934617,  3.907311630842626
 7.941031991241517, 12.092788124569539,  9.470668491468098,  4.138547074403219
 7.519830965858283,  8.302919211270574, 58.395471508719019,  4.325733732481011
10.166383850553153,  2.224908985487019, 89.347804970308133,  4.087393372887861
12.839511736099359,  5.165871412576606, 107.429397857137729,  3.833483142367552
16.380032883464299,  0.872198578003973,  5.517058704079050,  4.044348814460167
15.758697728721458, 14.742309821171370, 48.918438123739186,  4.121812758672132
10.901325729884773,  2.829314968419318, 73.212126177826207,  3.647591757825146
12.312362852893298,  7.265393036976322, 117.562637994385767,  3.776642569630221
13.668668243658225, 15.968948877534661, 105.031307625872529,  4.210527354764456
 0.587530203510151,  5.542942752022010, 58.499502942308332,  3.926605832317724
 4.441051237083486, 17.516612322477076, 53.436994068625800,  4.365827344633295
 1.009356802535617,  0.187082937403198, 19.456497343566816,  4.134104641923071
 3.963160622969655,  9.902047792375578, 61.461496088643017,  4.312347717274138
 3.105310614065410,  4.119129724843349, 25.539896233659224,  4.245450540487501
 7.492238688031249, 12.001171951893921, 83.294534080617240,  4.205797745668201
 7.133123389447003,  2.482776134155613, 79.178899167249256,  3.726518346644363
18.931744423618476, 13.306223006478385, 65.941487207169672,  4.293591304200523
19.024211020747352,  1.064514681530712,  1.964699945203799,  3.893789769606816
17.332873624898255, 14.597744281840111, 77.022328517549070,  4.212890943041739
16.404925186997431,  0.906807831233678, 68.268559866788181,  4.177583409833332
11.215838077414089,  0.479745998773607,  8.943212486268074,  3.923932652375183
 1.217259104103609, 10.218570895476358, 48.123468860891542,  3.903440703048263
 7.089640458811552,  5.795998423870384, 41.453479659604263,  3.868889522099446
11.608309772224331,  2.737927658125314, 26.738828198170904,  3.716707979337689
 4.933623081268002,  8.974104927072872, 54.562995601569504,  4.091819712481040
15.617401224209297,  2.028938924045369, 16.562650423097256,  3.773823327964085
12.908585988867753,  9.376364970815905, 103.040612811328145,  3.881163957001361
 3.051689664223535, 12.880255216548369, 31.716086937673577,  4.343599137459881
 8.021135364741896, 10.471287685791712, 68.576563813383686,  4.012251076879606
 8.747749366013744,  3.796213746928897, 44.489948156750685,  4.010593102715871
18.221021767642338,  2.804500048150682, 117.418318573427086,  4.080322177811575
16.737244268533594, 11.319088554767120, 46.939392111486022,  3.960035945289464
 9.846508037923345,  5.055703460261098, 85.217562854946223,  3.685003061693835
18.011944568882708,  4.840300470390741,  9.246208578128998,  4.081891395912457
 0.306177423842021,  0.139412165998109, 100.979482999184526,  3.839293922078593
 5.362564678682204, 16.393075314787502, 32.845229348640537,  4.276911282566296
 4.528456967404194,  2.592680906461939, 103.840391892218037,  4.546852350667954
 3.578511411576364,  9.357513590502863, 79.066162479589792,  3.907604217644639
14.348508488940739,  8.951323563993965,  5.294773353315883,  3.960392611161669
 8.804067157205978, 16.386789249975031, 51.299573669316693,  3.865874362547713
 8.347986228919162, 14.660650985954998, 68.648603007785539,  4.067427889147786
 1.407750254243154,  4.501679993079259, 96.896882895657455,  3.877465785852261
16.963049371800924,  1.632120013538275, 53.624638769594348,  4.058190719523409
 9.261790361592499, 17.656387937728635, 87.650408098797215,  4.163328567534811
 9.993972587697842, 15.690725065719585, 24.040070495681444,  3.673247758293025
12.198734582473682,  7.869385407598678, 38.541954044897544,  3.657183237768626
15.665213435086669,  7.891923446615774, 105.278648766008359,  3.680504729482405
 0.155409508895720,  3.412214094657218, 66.889845142178430,  3.482815583509725
10.644717545373972, 15.195486534859951, 15.591464132366529,  3.965568296497919
11.735289502317228, 14.995086172259821,  2.191053094945218,  4.364505492233781
 8.158556636383732, 10.155493741059244, 62.058720685172730,  3.938634395720647
 1.340786578016516, 15.568757304698728, 21.433794135707949,  4.213799180767702
 4.263682942966342, 15.985773288104923, 117.566954355342787,  3.742973764737764
 9.964006110423295,  9.749605841720172, 77.414932235781336,  3.937867084972895
10.246012621405363, 11.993026511429193, 45.469436634692300,  3.959910814457037
 1.008079810881071, 11.261854821217899, 97.030237135872724,  3.792302313410309
 5.739649393783212,  0.019588535105251, 107.430535873861061,  4.565515114806366
 8.140944530675144,  9.667710067872420, 87.027300091164250,  4.120119901330647
 8.959464345482671,  3.891939555092411, 34.664070658694804,  3.994447432482658
 2.059260785958235,  3.806358041139851, 37.538930781522183,  4.210050001719381
15.154620372919391, 12.545457241940097, 102.474453411016825,  3.882766133900871
 0.650885291235770,  1.522581821982494, 111.089049611328747,  3.788008468677786
18.138590787842958, 13.210556971073720, 94.248225567433167,  4.070642030345854
 6.037601781347100,  5.824292330770565, 18.605754840832137,  4.110892688122514
 1.090298788299658, 16.089827925529423, 87.391493657769757,  3.774465034658813
 6.992605829899981,  5.013787736904717,  8.830316819821432,  3.827454743870752
 3.213755304518743, 11.203596037461370, 65.233668390062292,  3.774986581570462
15.512944117955371,  8.632926469316249, 40.488431410444292,  3.987113284823007
14.035475405292786, 18.299900891964278, 98.866353413925239,  4.084953318066211
18.036488823659923, 14.365008593219175, 81.115191565536207,  3.867973606584392
17.901782662483935,  5.034060305392363, 100.350384120055423,  3.886868855047452
17.245440565218349, 18.237349882970616, 33.861435899350234,  3.737269757021000
 8.132278538067778, 12.031056153792171, 42.040093242475905,  3.995617639663577
 0.771639640921747,  6.555550686289791, 22.954782853313244,  4.244220200334782
 7.027601932499709,  4.462912014851907, 75.744883133775048,  3.798739736471931
12.818156919414992,  5.546364388851621, 35.093758231598557,  4.399583911534526
 8.845068585709591, 12.188190507268086, 58.673100678142823,  3.848460008717358
12.709762161228474,  0.392469791598349, 75.308695389969159,  3.589736721771235
 2.020850821605401, 11.427790925395106, 100.778160790092826,  3.951380573255440
 0.773478576528858, 14.306999945682458, 48.494873818255876,  4.156195482071380
11.072443815111624, 16.606828885421333, 96.551396443390743,  4.091983504992003
 1.797410943052207,  3.969056367669253, 51.401253371731364,  4.234039315327088
13.913091010817114, 14.719666477540523, 117.445185859190389,  3.995550740057870
 5.102288456737659,  0.679282215509013,  5.400925578931025,  4.298688026519264
 3.477132558293027, 13.091736148697864, 41.957669803958900,  3.538926028323165
 6.989076331737597, 12.552254256522986, 65.173281178375447,  4.073512275874602
12.663160131071685,  0.848643949661567, 114.346562592470789,  4.338070121151236
 7.017522195152680,  6.291823387754075, 104.420587629900552,  4.018158874649847
10.798027447986902,  3.914026656848470,  2.055487041485581,  4.064810816589477
11.844639564865076,  5.433615413320846, 95.071777372412157,  3.692306936055867
14.429737469528858,  5.643598734023023, 102.306504949976016,  4.155551347131296
15.599764924953275,  8.625126594945019, 70.300656356934539,  3.841862582544433
12.576918703263665, 14.622628552947718, 100.214790121112628,  3.941281283872302
11.593850775051656,  0.520596771379681, 51.513938367277454,  3.872721910783546
 8.700811770442831, 14.766760685047222, 47.780139844372513,  3.884560230918351
17.346314096163450, 12.433206419314818, 117.380066552570696,  4.068323408381377
16.653813291303432, 16.899220556210118, 19.334707122572702,  4.272809204225703
11.069006886216798, 10.329238983613763, 19.219718918972379,  3.739763374307308
12.318015964590773, 13.919998832290560, 68.350618413223017,  3.865324640327477
18.228184578697945, 16.804589262886850, 97.962501183067005,  4.031385135544611
14.120865975344138,  5.720763136270794, 26.515476373699439,  4.092876581732553
18.119787668060091,  5.389231934574775, 39.891157906445692,  3.796765618311660
15.207427615923571, 11.826704643491604, 59.144894994848265,  3.610578181331556
16.221038122316426,  7.225675846832656, 85.049122635995431,  4.328630294296705
18.090407512450970,  9.426113228311765, 64.641648759777013,  3.768389540309809
12.929687984618598,  3.385187008157224, 62.682280985016369,  4.284879927824058
11.472719639552720,  1.280221437760577, 65.794115025263324,  3.695623906685267
14.177790125780268, 14.705428882518193, 55.637875418960398,  3.712367107905644
 9.148724502401466, 11.444402385405473, 93.872253400208663,  4.008695473855480
 0.116299718995708, 12.735436458195492, 113.753574758234919,  3.959722854030812
 7.991821030857617, 15.377317608785763, 94.131992457310503,  4.073901065950874
 2.760889941565071, 14.943910799009265, 90.751069908510175,  4.022391610553541
 7.294410740264451, 15.926509846158698,  8.866188938859619,  3.708558822723810
18.679436367203461,  6.350086523242019, 93.691100603384825,  4.179781041269999
13.425828840964071, 11.684963271255368, 94.090393610123840,  3.972547600398622
18.449200918715256,  7.253224095024128, 30.020617716937320,  4.146846581110939
 4.984997616505033,  8.555863826943645, 117.380605878233069,  4.139143698732021
17.030233382345330,  6.483005603531203, 67.072081758589363,  4.123996614085985
 5.469314907589379, 17.483862385214184, 68.804646091219212,  3.930406030736846
 4.773391741808124, 18.901798056813249, 114.350669461484856,  3.835337817914675
 3.612318702886075,  2.756576787062696, 88.679852000921429,  3.623498333137436
12.265734437234137,  2.621279611022244, 100.072085618878887,  3.882584466705646
11.451595377745637, 15.761361397751779, 64.771240062532925,  4.247763615810183
19.050923331922842,  4.903692467062295, 83.080035818760805,  3.981451023912760
16.176164259687752,  4.630241750738504, 60.282852673665253,  4.126455460498082
11.245885937157261, 10.830083366261597, 89.275094922102994,  3.886063235526942
17.273635553991515,  3.489371422911171, 36.721129017837193,  3.706669706661831
10.523039171074089,  8.496855125088478, 48.552344156476508,  4.048271788430967
 4.127363273516292, 13.722966684043211, 35.598296109092885,  3.722351399883794
10.690513935959901, 12.972776837963321, 61.977264583033900,  3.616844159681614
 3.367439491914163,  1.844409736117564, 68.366773922600302,  4.149338815804355
17.123522478990850, 17.838451713820447, 23.357821447393359,  4.024530869235355
17.967133522562253, 12.018189602774282, 10.308828381401344,  3.533748280909951
12.441409212087905, 16.154980251883067, 47.116146205077449,  3.860897905818019
 0.119509670396537, 16.140057892273990, 117.452664040842123,  3.872897758488142
 7.045599726195459, 17.624962469425043, 29.213263051473707,  4.009669135099851
 5.850477738295719,  4.977919218347014, 51.630936408315748,  4.072347069870628
 2.560370379092562,  0.594679440208764, 13.185749712978973,  4.164507194461725
 2.864794292141753, 17.058454520366485, 75.543539514711910,  4.123405989133627
18.389399094101787, 17.776969478761032, 55.921326891548851,  3.857781802154696
 6.733601084816098,  1.829166552987852, 65.833592423027270,  4.255631817861541
 8.838517046102808,  9.241682313028154, 72.789553131542803,  4.148159341789392
 7.008091218805512, 18.634293981517423, 35.976941905735465,  4.050181765313686
 9.425197414338577,  8.263725476887275,  8.904791713217096,  4.132104733111067
 7.784920756949648,  0.911416191440272,  2.131673862102470,  4.064050876584963
14.998692991919141, 10.394008467477228, 18.732450817074046,  4.015842028783325
 8.994975022010181, 15.147295922185162, 19.712669045752644,  4.006183232968513
 0.328126551646501, 18.195340132716840, 108.224382459883273,  3.643476773503072
11.467922856947300,  6.155351133606682,  5.474486161935265,  3.866774746594098
 9.476232780100366,  5.354948175271267, 38.235307196664088,  3.749136721322570
 9.744785975421744, 17.184486833042474, 11.942475829825588,  4.261292396852951
14.937297969089068,  7.499380160445672, 94.759484630837903,  3.759691425385620
 3.649546116193144,  2.414007145062034,  1.963961631794047,  3.907682751350504
 7.024429550620271, 13.473991338516301, 29.924032853296662,  4.208057107672965
14.402020462038470, 16.078679247420389, 16.031290096315161,  3.793629476757442
15.587293259469835, 18.611684907579683, 111.599009605662758,  4.106870975155947
