BANDS
8 8
NANOPARTICLES
cell(1), 19.121
cell(2), 19.121
cell(3), 119.507
13.278439541457224,  2.422193780181341, 37.872152380295717,  3.804425960577701
14.223023682187021,  4.119366320224497, 100.904870343606760,  3.792842150377881
 4.115896840316023,  5.793412380918848, 55.582245531415730,  4.022546041358507
 2.361771446612252, 11.876286329128384, 33.105921820771563,  3.942000634984113
14.209753057744782, 10.654161017285793, 26.114321378800465,  4.193435807094528
 8.117772571504160,  6.213471846688310, 70.853141553566886,  4.282874514189027
 1.616786677829795,  2.226477487255174, 64.813378125488541,  4.062074432011876
 0.576656935782024,  4.068476023583311, 113.893430352180317,  4.350393807320689
 7.280043668888951,  9.490119447181414, 16.467463928104628,  4.084045659844372
 5.571554834407323,  0.759810612991804, 102.101830012936219,  4.134302849479213
18.485501371028018,  2.130150173023505, 99.190994794524187,  4.201271142171081
 9.851737663344617, 15.374373237193831, 47.067950546303841,  3.673816064603860
12.152164757113921, 13.637460681465074, 90.659064842970665,  4.045319006791223
 1.641973852457579,  4.884577341622150, 79.241510932568588,  4.071797140491743
 0.280948130215005, 18.537649331234515,  8.652394175770015,  4.025838539210501
16.368638390385765,  4.209440368955551, 53.174864218996241,  3.695324502248974
16.348483530418662, 12.821171982503909, 107.474536377792163,  4.105348024116616
 2.247182232336060, 15.304226759178652, 101.882241098199287,  3.872518926709159
13.042011811683919,  4.607599473861362, 60.330027876179180,  4.089652769068718
12.350978515018983, 11.312345509962743, 58.220685754917824,  4.138194346876503
12.521007883917715, 15.419664900256654, 87.095967846771970,  3.955116098998770
14.475672864844967, 18.277668210982139, 117.406116808503143,  4.033314419433693
 1.563514612831624, 19.115025382327548, 114.004052776844517,  4.032579873445476
13.759494496615083,  9.892313279690276, 72.588505936463122,  4.020734812534591
18.006336537045840,  8.372453516870115, 35.700274886794055,  4.053795862135660
10.337139781736568, 13.337457472857087, 110.075137555614077,  3.878841430802549
16.429744962199607,  2.320391247529251, 20.148624936801934,  3.817851778929676
 7.072781465221741,  9.945245884062576, 87.802841228113195,  3.553424188963058
 9.068447744288596, 17.664331230197064, 50.066116424323759,  3.894780178854650
14.695397972663592,  4.058541244778306, 27.732896630733617,  3.940558696066976
 0.817690990533595, 11.815456803722679, 36.865119930430282,  4.164382350015577
 2.321532002440012,  4.660930077148230, 44.372486024286715,  4.041336322550237
 3.642781914731919,  9.521015206201415, 62.235025127732776,  3.915641936628612
 6.807270450172253,  7.613117571365636, 98.611819765458520,  3.743624220133574
 9.362253425164987,  0.637330258046453, 13.073081328041452,  3.960486981413563
17.813500758540140, 18.748436397692519, 76.675586999953978,  3.986590077005380
12.390437580001675, 14.038854675796649, 27.635301051364195,  4.059122836367169
 8.574593971198350, 12.661627826849575, 34.196566411864701,  3.754251091061067
 2.447704596749085, 15.853202320645359, 42.245794054145399,  3.784516050797885
10.569741836750412, 15.996682831327592, 53.450872820743669,  4.154196937780152
15.776295996576179,  7.775228523879650, 100.141240477994515,  4.251403861670471
 2.457017305653695, 16.353281933108324, 59.926036266132066,  3.867942355890746
 7.925880427133920, 10.481154489535527, 113.907873584925767,  4.218407762772737
 5.989572461885844, 17.997894255630367, 69.024457688957185,  4.075633632791908
 4.581639185225217,  7.403730759875794, 14.448629886430309,  3.793466610251976
 4.103747351024333,  4.105145079657532, 85.714152150160402,  3.398422559789697
13.851089915159923, 15.120925037581397, 109.677020705063569,  3.980269969959194
 9.278704652538325,  6.157966450888528, 117.365738305048296,  4.212547956737553
 7.329793775188567,  5.825435082030700,  5.039390091023248,  3.820436703261446
16.056838389140644,  1.655753665078425,  9.061809372783575,  4.006761262466613
 1.458060753724816,  3.162038710479246, 40.677214543776635,  3.952315525244576
 4.520974786465358,  3.927258195758712, 76.632018610470340,  3.811912142053467
12.374918879750737,  3.029629745193087, 80.272545399621052,  3.882102997254157
18.513664479698054, 13.519812773362188, 82.410246242662552,  3.840100539452960
 7.476978010038175, 15.371859938506875, 43.927032993057644,  4.184765679691482
13.710558646433959, 15.127605761008191, 35.551668607932172,  3.971642078938769
15.996408975903142,  2.559892508756596, 78.953258657425053,  3.773688438452417
 1.574118913417406,  5.352386143551342, 83.279448622534886,  4.033137305372205
14.895071363610153, 17.515244973841426, 58.235967687186339,  4.193189854551683
 9.751655162521095, 12.473623155940894, 93.548631980462559,  3.813404285765250
 4.715558752041038,  4.604623098977621, 35.395938632052349,  3.878575642566568
16.511326548212779, 19.050276400394736, 52.104799752973442,  4.250645566926564
15.014508958669062,  5.006860335146690, 92.891086416609966,  4.176199981039792
14.543006189186457,  9.796521365676176, 96.903689356283550,  3.587293068564438
18.055473525556227, 16.307755438304408, 114.333206422338506,  3.685377731216090
14.598720309197258,  0.299794436599734, 40.932994061877757,  4.012929242807941
 7.534891385108405, 15.289753208234972, 56.038600442991026,  3.868348111309790
14.603722183319997,  9.990579996434343, 11.883164074207766,  4.412612108399316
14.103475865224173,  1.475523758964021, 34.055502843720504,  3.993384545979554
 8.530804791815148,  0.895492714107285, 38.699114057917825,  3.989826331511147
 8.904819527883845, 18.915370645721595, 114.229588282876151,  3.807829343324562
11.315903180919053, 16.681947198709011, 18.165387714019264,  3.799789745445628
12.581092291806547, 11.504982668108582, 107.488524712001166,  3.840145670331893
 4.942995183985833, 15.923700743852107, 72.394553211379602,  4.079245683682330
 7.375179160127865,  2.800115517160956, 73.748432966819124,  4.608107328581617
14.053832301126798, 15.627687626203615, 105.886801386328784,  3.596495409140919
 5.004238376807574, 13.939864042487576, 20.697757286228601,  3.913789763450745
 5.842428278837111,  0.756155283385137, 35.697225267032081,  4.050513167115471
 7.554721815635489,  0.219651599106593, 42.737427049364143,  3.999193906570439
13.189884695025999,  4.404738531218555,  7.956590663606542,  4.179074539631274
17.381895347623360,  8.909171384123020,  2.143494426655358,  4.206344662382206
 8.070467172528874,  6.514818557180911, 107.173030743205970,  3.819271296225572
 1.354667275826189, 17.649087055938686, 82.518088528640931,  4.192402728452312
 0.890641862285161,  1.115117884224063, 54.076662339573005,  3.948983257441083
11.069680586325534,  7.060586370405443,  5.494014732287438,  4.057152781664278
14.876258906322983, 14.322236800583601, 71.615522168339666,  4.051625020112713
16.624906158952960,  4.755490517484463,  2.071826596959192,  4.087017977734951
 9.970004458463327,  9.729769518005702, 97.082414484896887,  4.417321721401041
11.916734712377776,  7.560586960699018, 107.331091909368098,  4.074990419166616
 2.600226278396314,  7.729949622392323, 34.525456804540198,  3.824869919952491
 8.305819704961417,  6.675519818326229, 33.612855544203818,  4.068602635555155
 4.627094980618050, 12.998305444051383, 36.262789941178625,  3.899010706815105
 2.920475068362143, 11.286551717237089, 88.866186404413483,  3.870092649784151
15.712602993853768, 13.620001212554165, 56.993229824608484,  4.098707891494188
13.363386369505315,  5.644308211428778, 83.243545123050737,  4.164626757536638
 2.867989755462454,  0.529902464391575, 86.802210472280848,  4.473665597567665
 0.762287032543408,  4.019853549690365, 57.010637277183974,  3.877126722377836
 6.897656292371270,  6.048787317309678, 113.931253541971401,  4.144005982639013
 4.312277586551718, 15.506062247670588, 14.861546690202832,  3.846914171577986
 8.943027115809773, 15.292905882632036, 97.407040978624451,  4.091488813306300
 9.889977036526091,  3.075902659980319, 106.903916184972445,  3.749856943786368
 5.268137515082823,  7.296130857461694, 95.024790000458196,  4.006331994659638
17.604531008804607, 14.101178685580468, 68.211426925860877,  4.100616733271810
 9.061513868006847,  0.349412104638953, 76.946569261940027,  4.033150493329923
16.906128340513490,  4.492390178954491, 106.936401071520962,  4.321206463936626
18.368437511636653, 14.974135628579388, 75.333884953416288,  3.766014191587071
18.058902132262983, 10.381054188858480,  9.005652279665714,  4.607473537736508
16.102246880768799,  3.884861206738136, 23.901825754236214,  4.112823497474945
 1.870353925121481, 15.804792512082056, 111.895695796588257,  3.771720134592214
17.472258245624683,  5.454360974835965, 76.706986406179496,  4.099022702544664
 2.182779054787026, 10.078136926384998, 16.285365472009122,  4.132652343471983
14.563943239462025, 11.413701199205741, 103.939421479958639,  4.272721295813069
 9.422526317866060,  6.513056941288337,  1.918285220626025,  3.814841800359304
16.254789062797286, 10.628071865885202, 38.625155203297020,  4.112210672876841
15.445218786920776, 11.788128274451102, 45.764208101923160,  4.363055261860218
17.262982958675504,  9.879181156459472, 58.387160758186887,  4.111287024158164
 9.230774057532280, 15.047492074365399, 21.070512330775426,  3.912377391142029
 1.341301154801517,  2.269747847508973, 95.159241388870328,  4.063576699870493
 4.127008757744431, 14.790428667665532, 67.463444710192945,  3.911973498271992
13.119168311150668,  0.907299414266653, 24.251941713555663,  4.278982195139251
10.564350237562362,  2.419395486083514, 49.195176962519575,  3.557534092375986
17.532989121366239,  8.698531162419480, 74.396496871715030,  3.809283782935483
 3.950441527856285, 16.586995195314366, 108.615972680128607,  4.041737689070178
 3.465977445952584,  0.868038109106903, 106.233991451180046,  4.062881744928231
10.046896854455508, 10.484454394539723,  2.006603626731964,  4.003384030599895
14.101672810858101, 12.683740763272922,  8.300180897844969,  4.190895975908031
11.978697821196981,  6.895972982139117, 79.734116296844093,  3.759688260779414
16.063654818302556,  5.096397202070510, 69.173014927782802,  4.396633859164808
12.324252228254304, 18.467051708909860, 47.500566114465002,  4.292290054546841
 1.885576151830008, 11.651790129346713, 68.560389296321389,  4.096752600879086
 3.938347286170841, 14.285200987671855, 96.056487723647948,  4.057941584652505
 5.075705093363236, 11.604037715239171, 108.186222637533248,  4.186861188571761
 5.120065582764496, 12.244146919545482, 70.807001886868932,  3.752519887251402
 9.306271696894475,  0.804749851332078, 53.762571525870328,  4.094880910886396
10.962177166956899, 10.863083327313010, 66.363121679680788,  4.506759295230525
12.262442305177229, 11.071161709191365, 20.447030542899597,  4.153334687473188
16.354868797465951,  0.696249322226238,  2.015080802325655,  4.010187148459331
18.292770833076922, 10.991795125180444, 24.803325800492114,  4.283792379802244
 0.559550745494199,  9.025889176256971, 20.256091584784368,  3.857180411381836
 4.230667989849021,  9.573788261277688, 30.303612647658163,  4.012112214751914
 5.131970294568015, 16.526671701768059, 104.508056542761352,  4.167613879207504
 9.789673087675210, 18.316115590025650, 57.554482050694411,  4.014164832590129
13.037305683795461, 15.405175106988660, 68.122604029974497,  3.834944072700611
17.359423467623699, 14.067126053153370, 111.280503932496913,  4.010179139314168
 5.630588590613186, 16.673817503694401, 23.963338310039713,  4.051999368052265
14.509626603721665,  4.309527705981862, 41.640504127255184,  4.021379143580416
12.614123775315822,  0.328913080515970, 114.236113291811279,  3.605654767823677
 9.584699061791774,  9.922549291623428, 73.008464822730431,  3.997743081085477
 6.627989045170626,  2.539022043473940, 56.536919527488735,  4.331023405228165
10.535015917821381, 15.885589071581961,  8.719522007633062,  4.233972992634921
 8.930709798488291, 17.128902833071798, 103.013685735055319,  4.075560053584704
 6.998192958906624,  7.242252403519916, 44.134287713267348,  4.165500145594507
18.789214970877502,  5.658021910955553, 72.289126278451278,  3.908240368150226
 9.466940282572601, 19.044623148033075, 23.039770835002948,  3.622105379631208
13.023217042073895,  0.533845945313527, 55.284303489806462,  3.919158585239142
 3.257618200942451, 10.245638279682993,  8.481974849641293,  4.078641249443796
 7.688526592971108, 15.766554906034653, 76.386588360622355,  3.838777215658372
 5.366818134981575, 10.397019799328975, 26.514306181666022,  4.067395304866607
 1.867494590738017,  0.995064822029791, 29.126728425668947,  4.104886405665928
10.707281101056726, 10.009815445895578, 104.374079275218804,  3.839485522403388
 5.891589805604696,  1.292245334498301, 79.136842817247725,  3.874285719930273
 0.134174160257558, 17.502248245504493, 45.043443919094955,  4.170276911370260
 1.031682719552913,  8.766030471761994, 12.513516397955295,  4.152272454575800
 9.214884306671188,  4.908582276240161,  9.048398139381682,  4.043808508547539
14.497631365340892, 16.279871547862928, 25.122351336298639,  3.857097319782651
16.572099826312972,  8.687323864293294, 93.856183906411260,  3.976330902041392
10.908404828506935,  8.343607887021099, 17.667003031302539,  3.895090025455002
13.998775173615105,  0.212979646012832, 86.460747173598023,  4.298933618487447
 2.519302964937421, 10.085488716123466,  2.092406362660011,  3.815326719131186
 4.910780683049945,  7.387269815095991, 83.698487714683637,  3.794294882749488
 2.144067674978543,  9.318526680304029, 55.276459185996622,  4.059647671250465
 2.449924573836908,  0.005663671327247,  5.178365067007352,  4.057478374616786
 9.702396632645675,  1.284357653449928, 70.334263866000711,  4.111449306608077
10.114840566446912,  2.883427754621976,  5.631983735383455,  4.096227885308342
16.422694317225847, 12.874879649203768, 96.293055552502850,  3.646249940558755
 4.203697967338044,  5.760281377428345, 17.830989477248799,  3.690418442867547
17.754775630599344, 16.074223805357285, 15.960469592435649,  3.842255440768482
14.272617920168056, 12.352001010389522, 41.765848207720758,  3.962455964964586
10.353255406699640,  5.977471054829841, 50.388078485351798,  3.941332078776880
 7.389835493430044, 10.165802138692744, 57.092065056528206,  3.727505968128420
15.828675261394942,  8.766422232184514, 107.068349516419588,  4.102880140561733
14.261308055373654,  3.016543992556861, 50.027428760581707,  4.059013876920453
 3.602014541074049,  5.847625731306030, 10.889484410651873,  4.057586713442630
 6.252353927218967,  0.528065418605293,  5.093164618268579,  3.490304331334505
 4.139923412464069,  7.354636135407377, 87.764932447467473,  4.155017597167920
11.304084969053932,  2.266581448006182, 98.860302790336760,  4.216305004641661
 1.594951658383899,  7.501064429068096, 59.108922886164876,  4.252293797379117
18.926090713858379,  2.136410231711373, 81.508421211469113,  3.916005982915465
 1.050165277807826, 15.816784041909793, 86.140279983535649,  3.927139360534259
14.195591538237432, 15.801815334121782, 114.273188987578209,  3.937416285172958
15.871985013902417, 12.075721484806019, 61.746611976219448,  4.301309819444331
 0.488736283321474,  7.668342692976927, 107.156997839163211,  3.571753845156392
 8.603970255272378, 12.624104706559240, 27.684483713723612,  4.025743507349407
 1.679036342113578, 12.272009236974828, 28.458087778661561,  4.274541132368729
13.560625454320608,  5.234304886218006, 21.009434533976670,  3.970583264690306
17.129814793935619,  8.994445670464303, 15.137896230943946,  3.804813619837709
 7.388267665817965,  6.938143193392379, 19.586229748151109,  3.913038211034906
 3.961940429675317,  4.159823610626673, 59.214449137861592,  3.882306098993005
18.589206575887051,  3.596583670810724, 27.174708968599237,  3.938119381331635
 1.398251518863908, 15.230886347930266,  5.520224513518321,  3.918887787101487
 7.449796805853408, 18.207761390723977, 110.304367249106178,  4.265304191759832
15.916780895958448, 17.273662395696689, 66.350300112434809,  3.864441712930402
 1.081573280831813,  2.091577125589111,  2.019090967437764,  3.991272146996844
 5.488978543414784, 11.698757621154666, 50.863983824293172,  4.123911263837731
 1.139243228854489,  2.600677770283689, 75.269792442722860,  3.921891451368481
 8.830733397475022, 10.195634670162081, 107.659251760338037,  3.665561444856241
 7.430335621272403, 18.405122739628055, 46.614545328985223,  3.839851885620484
16.786327258151154,  4.736021032560419, 46.762118674081570,  4.141123206297847
 3.678649769636938,  5.449175431643808, 111.485486539669054,  3.823547934006516
18.091694629790606, 16.923719627384404, 12.202102428202609,  3.830780917542393
 8.037697450023614, 11.472813873061726, 63.300708257917563,  3.825452159729745
 8.469778896754905, 13.818727630424030, 72.951755746059490,  4.058580436715891
 2.141229199058213, 16.967709805972984, 69.888208104766861,  3.683022925907954
15.248727720121874, 17.113459164530628, 44.324242927933241,  3.994946193892467
11.803756600822666, 12.447631792558600, 113.844768973309726,  4.324797798626536
12.399774007147125, 11.628952225004276, 34.123329895380472,  3.977351648921847
14.161603095945608,  8.495733352721894, 60.593416269812742,  3.922255892134813
15.072522334768991,  8.409045572979664, 85.846318657595575,  4.123224716442810
11.143865791145714,  6.181143962972459, 43.196480641667620,  4.105300774000916
16.241797339349162,  6.579202389708448, 38.825230224483690,  3.955615771785315
11.659158195599490, 11.805351659127320, 47.938853139988595,  4.341039713888320
 8.842370247796927,  5.304683832556403, 60.420555966477473,  3.940653554788583
11.405982123652478, 16.902508236595583, 75.181094839519204,  3.583346654968511
14.737666326084151,  5.421460158861278, 63.800089601919701,  3.732361485183424
 8.038954241846874, 10.228413443698541, 69.441312467246050,  3.798466434934426
11.530343043234545,  7.381704380000058, 57.882678230735507,  3.896674482185803
 9.982819435009237,  8.019137228705272, 46.979478011019268,  4.017024508756859
15.645649543875315, 10.159486919822079,  5.548728005086331,  3.805574678895471
 8.886378288030050,  3.710021320607331, 92.232091135336134,  4.091959245009860
 6.819320171198632,  7.266733232884018, 75.035689806953712,  4.633057609366309
14.356437065054246, 15.212965633878769, 102.090542295742338,  4.056965661528062
17.126155813429023,  2.676334369988023, 103.188533813247744,  4.018246707268628
11.292627333188937, 15.803576854334278, 94.360266296224864,  3.653051898614660
 6.966320707691938,  7.640625850347575, 63.445266771220140,  4.054554220713609
18.236504624772284,  8.617235382525392, 46.647316224966239,  4.147505773533695
 5.817524264284874,  9.922081947443438, 33.984717391788728,  4.022393590067608
 9.066499237499313,  5.676524454792943, 96.183298878097816,  3.896486927947061
 0.423553130972800, 15.835518234083198, 78.916616559639110,  3.961038706238477
 9.115309233510898, 16.345335641761540, 40.251595076220404,  4.051617039931361
 1.103633740169102,  5.019630966535108, 52.961011365992228,  4.021325740009654
10.748448649592296,  5.656086355830837, 74.045175904683319,  4.052362133275192
18.230606952998514, 14.988575366074969, 23.885224163366658,  3.885641724525096
13.218725234408813, 16.034434470734666,  5.623414518443947,  3.951204275776879
12.420860585005075, 18.977089677334565, 51.536308409352344,  3.782146740779263
14.345334194341749, 14.100243083652412, 18.406637543276553,  4.014871268942045
12.595519952067120, 13.093916080681110, 97.778318883541544,  4.194653113079095
12.532922138011951,  2.644541947486813, 90.761745892966857,  3.790136742877183
11.385930665401656,  5.801858600929126, 38.926736894517340,  4.047507983778603
15.169496937422974,  9.874803540287065, 114.294617160061506,  3.903549571201232
 3.665370670860286,  1.385721323287965, 72.294657563382444,  3.765016288791216
10.750263317339583,  0.837472994499622, 117.492994228816087,  3.957667477915400
 1.566275241598354,  9.485108339906533, 82.436543163990706,  4.398723151087890
 7.644008188522186, 12.814603954710128,  9.207305677410448,  4.113216696007223
13.186392284736435,  7.898801746020747,  1.961057763223740,  3.905360256205540
 8.711388215098706,  1.289371581661279,  2.103859882623885,  4.128470860333712
 5.968909835018768,  2.942771914643028, 88.945346286993399,  4.234602839703244
 2.626029409812288,  8.543540167570510, 104.125631244793553,  4.004604932604040
18.646808248246668, 10.640683778499838, 105.191436594112872,  3.587567415896343
16.491112502483105,  2.423493306744810, 89.819640434660997,  4.258882598221640
 8.201907014912688, 11.384814292009871, 20.004101977775424,  3.953395562511745
 5.771617721562086,  2.661015510113048, 28.557982149643088,  4.184093022919928
14.754034306413352,  7.317974207613512, 111.020604857400031,  4.420268509169933
13.006714632822765, 12.575946089982029, 54.062597929826758,  4.067072893304183
13.280263733087239,  5.949411078696090, 97.438280863831096,  3.953206786556577
13.356375177320311,  2.485997770469317, 66.980996718063849,  4.182140072670969
16.666125884629952,  1.746887325263050, 56.199728845080593,  3.970017889185432
 4.853156227096565, 18.187499013840736, 39.983250597048496,  4.040040617414014
 2.809934422856617, 16.713579250861429, 11.401639203361979,  4.018348464105513
 0.601138190299470, 17.664715725439038, 66.367090573846752,  3.708778887113208
10.684386254905677, 10.060767559737469, 13.853365917012596,  4.327206753736020
 8.386391514640172,  3.735621852303099, 36.144023610378611,  3.641282312576738
17.365861128564461, 12.335269383154445, 78.704203323844752,  4.185781264812474
17.701052375004171, 18.675057863343202, 96.092124868620033,  3.873982254495136
17.411473240954994, 17.805771433967315, 88.256880569920426,  3.875651270639370
 0.456108508214005,  4.855351238040693, 32.936885962974323,  4.003576566588559
 0.716763185861502, 14.501611912974026, 90.016687036982674,  4.250775947622174
15.425831037039929, 15.802500179367328, 93.760461571492655,  4.239698145453552
16.242683447513787, 17.288576829141125, 33.204570933482543,  3.969603245451868
16.075589394819463,  4.830036182186880, 35.144171158619564,  4.081946597681016
18.056716422596327,  1.080985746862176, 85.222720693632397,  3.708337891404287
18.316913673996346,  5.470292570048763, 65.564889364064641,  4.062504767167507
11.555296507025139,  2.611052761294280, 10.874754678565834,  3.390851214816772
 6.784468608081291, 12.046110523229840, 98.275540825600629,  3.756873541445839
18.690545531290891,  0.907062932763371, 106.618713932024889,  3.543646069716666
 5.416278612755119, 11.459679460224125, 74.705323273165419,  4.142877526022842
12.442835681854236, 18.776179627732851, 96.138175117115466,  3.635932464116254
 6.481943440961708, 12.738235423287691, 90.518225998305169,  4.292092144088800
 4.136352307411209, 12.857613831907713, 44.449373086383567,  4.161352590766044
 3.981436788160413,  5.179396301156429, 91.827995130947883,  3.952538688764228
 1.320411936559371, 17.708482628683559, 73.554508697663664,  3.937368989595062
14.232104851403585,  8.961373618872521, 55.452398396867899,  4.026238105752333
11.786200746073877, 11.376596479741313, 62.219300658770990,  3.939014041364070
 4.966587403874454, 18.677104456220555, 75.598750412245352,  4.205432431774676
10.549005067881000,  7.650744269845275, 21.855525608816471,  3.934716627356901
 6.838134687859057,  3.011074729375995, 32.462696830022729,  3.938137531739435
 2.988688261763939,  2.597833779524496, 25.472957684016116,  4.090285564049157
 1.806399608240979,  5.562306499584283, 48.349264493672855,  4.162605296289383
 3.779075606481304,  0.853522417835177, 110.708918215355681,  3.919708318110368
 3.228431150991847, 14.838015561682102, 76.065389876752064,  4.268457093769522
12.262869087321807,  0.448232944641107, 15.800283813310026,  3.895610436966446
 6.850700016160801, 12.612057817674225, 117.397378784183374,  4.166191716483675
10.740888187968864,  3.284553354619058, 57.183947883004855,  4.119349500175886
17.756905187620585,  5.405516306678122, 96.173674120018802,  4.355512586629510
 9.062768719428163,  1.003162564628503, 30.069773689687111,  3.702888149116796
16.451551331593194, 18.019107418248410, 80.462962643241667,  4.194031087919505
 0.835026746224338, 12.023196240804083, 60.930280911733369,  3.983094116834496
10.133778920541786,  9.112904491622167, 35.987831193390633,  3.652484889929966
15.035290095074975,  2.480113273075050, 97.158089425076085,  3.824550070520151
13.360622658969653, 12.096381248479366, 78.183435927092148,  3.847312079642133
11.751363372974453,  7.029123934363705, 28.779245597221276,  4.186195147461972
 9.072288876138943, 13.781015222523301, 50.434613929790586,  3.849913161625854
 7.071925852337024, 12.923996741378151, 23.859690864549680,  3.900643809413797
 3.487515963061355,  7.897192773569371, 100.385502830637506,  3.730662192410088
11.518986846335197, 18.231970167585807, 36.643245284574867,  3.875863552941644
 0.443212946246477,  5.773340191615488, 100.668485341956512,  3.703781161127050
17.777972017620623, 14.530144119427227, 42.083105427789086,  4.238032478466391
13.891356294931182,  6.925269634328895, 52.081643095671964,  3.792207740378369
 8.500579147260481, 17.822166199591194, 80.679190095602436,  4.077550521386019
 3.814337912760780, 10.900836198956963, 58.547567526222075,  3.858297037464416
 3.824167679320360,  7.864597661796561,  5.161350035054880,  4.162316756096190
 2.787439397092158,  5.614433448927429, 62.772236177698652,  4.154216039764949
16.808955202437929,  5.860376765556244, 59.328775150548793,  3.920204197336570
11.089281699456279,  4.020887866163996, 14.343618702714453,  3.909922856953432
 4.888785030862186, 18.230027351838352,  8.261626136466067,  3.934211309757662
11.444481268394224, 14.756652645261507, 64.453902091813418,  4.136415882264694
11.489640054293911, 13.580305553094082, 83.651606097652660,  4.008455414042172
12.529624422595100, 17.986631476719175, 81.843652292567029,  4.118959472442614
11.398033660814050, 14.604278232296018,  2.155788341744930,  3.972750667840200
 7.567830839528864, 14.139613081111383, 82.476691658261075,  4.254437169382656
 5.090983089315700,  2.989083538891520, 39.019349545774077,  4.039196765016571
14.433826148779405, 19.003127062087536, 110.889306191735869,  4.050841974062563
 7.375508199994050,  0.205376706905053, 106.382681442063529,  3.862851917643217
 0.579562641019801,  0.043945223815973, 19.225155931172281,  4.315941787748088
11.546207047362689, 18.320771928160678, 27.545765444452691,  3.724227061404455
 2.914470032599731, 10.977170634764809, 47.684134429621430,  3.626136877018968
 4.924306259723786, 12.175677363849161, 54.889486196732463,  3.912430522157404
13.163405618538684, 19.059401041732009, 77.854159714213480,  4.105619887716604
 0.831235384518837, 18.005430000448843, 32.338133740389210,  3.745959953254598
10.480252042011463,  8.017209407668553, 53.957377199064062,  4.207012670834768
17.289827418849008, 14.868391681905566, 51.909447816866759,  4.220323287789900
10.701963501612392,  3.084971194803192, 63.240138378751098,  3.943809585127730
 3.973875372025450, 11.746594665258913, 100.865665198328415,  3.875231244162508
10.418586750960191,  3.736634816512278, 22.927516811938915,  3.973571322631255
 2.954492290896568,  2.133750434268938, 50.777693487015689,  4.057024901182727
11.927915813632021, 17.097892763730293, 71.419670057295335,  3.748412527634332
 6.308249990022449,  3.805275773377747, 104.998377298791212,  3.939823527580750
15.764843621578059,  8.778834093250582, 32.247830957659062,  4.183441889508292
 5.757819504398307,  7.572701488655665, 59.677773704741668,  3.759831385210051
13.599968430166552,  7.372636872580884, 14.958235865162742,  3.891972059352327
13.403243303016469,  8.677210815499066,  8.213811446377967,  3.722990360295526
12.576875378665978,  8.142684415501849, 94.106280914862367,  4.007096708033324
13.014003005897964, 18.407713713720927, 12.054377536923047,  4.034346023288181
14.163803927427436,  8.308450908744568, 48.279878351814915,  4.230426356189872
 8.008449958047152, 11.660454546462828, 38.011960016687979,  4.090937736909334
 1.513158233818193,  4.219800838403875, 104.670863746463766,  4.172566607382137
17.337322869959358, 10.542446165435297, 53.513022703787719,  3.913207140621630
18.732035371322581, 12.680385214801356, 115.312176805948866,  3.918344433851134
 5.018573632809516, 13.434371532675836, 61.500644604509958,  4.210928296095116
17.667316891642855,  2.798745740397160,  5.425999850177297,  3.919729296754626
 2.229094009341745, 11.856241210334908, 93.090038359852002,  4.174997913718608
 6.681330381293769,  3.283993927410755, 11.711457131504119,  3.992549327516429
 2.548609249383155,  3.877057849931987, 14.455815571891350,  4.303786327103689
 5.092446629631399, 14.537938424088916, 27.739048260460240,  3.942213291064680
 6.391139242008872,  8.590885210385355, 53.610744850292910,  4.062384827646690
 3.818279290110991,  1.075762409065349, 21.806819409521864,  4.008201147186072
17.992127956208943,  5.479891595916650, 13.454351720494575,  3.904777543257122
 0.287545351824818,  4.139307374115598,  8.850751060352415,  4.084428899340605
16.626558260619248,  6.616984985856084, 89.302433321319299,  4.190436361419199
 8.329010034790926, 17.843432857238565, 73.210611320132998,  3.836386218543286
11.943972999506034,  4.820546731134300, 34.983287177465648,  4.137853522715943
13.044572392192945, 15.257430430531242, 50.190847543931561,  4.083088591366556
11.666284909947823, 17.331596415522490, 99.872233755748809,  4.094799514508987
 0.866102223171157, 11.443908245810283, 75.704571104194073,  3.954063620999906
17.372905327833664,  6.034824537445671, 29.937831368154704,  3.677216697347936
 4.641208220084176, 11.846573327720325,  5.040846508754138,  3.898191881646889
 8.637977746453060,  0.733886839564512,  8.945519723187026,  4.316974479450914
15.780201183809641, 14.290598894704120, 89.191873808817945,  3.876586025124364
 5.101677534710723, 19.051108627035731, 53.621296225585844,  4.044249842086480
 6.386382618342889,  0.370710177545760, 92.295475420627113,  4.192423941264892
 4.638204247828178, 18.212452450944550, 27.330431789288962,  3.504944576295804
15.010979802735497,  0.941179759144504, 93.508830739223328,  4.036178240311673
16.408689907272535, 12.069387164808346, 34.686565902301226,  4.029121494574689
 6.949299623979026,  4.280012506635152, 15.737111614875124,  3.810552272649895
 3.730273775012118, 16.549582531843743, 34.532877330302270,  4.037536810056033
15.384934878703023, 17.409433065964901, 62.372454543791775,  4.138862690407496
16.581873511518253, 13.815622868606640, 27.336300219256877,  3.958133490694198
17.339491852607800, 11.213248971927719, 71.518345559401681,  3.805298106084351
15.791504319525570, 12.597603031790475, 21.858958134830907,  4.018256445626595
10.356486814345244, 10.316008694948318, 117.393039684455815,  4.208085171638233
 6.239549275315849,  7.372407469944265,  8.355999500674313,  3.789967916008937
 0.814903942220911, 18.162586646236395, 49.092225053122831,  3.867560841984571
 0.501366053736051,  2.877437563693666, 60.867104890924658,  3.890978316004758
14.327290096984855, 10.038891661476805, 90.502242259373460,  4.185174933335932
 2.353186615471627,  1.400798707846325, 68.649928923402371,  3.836633700621550
11.031601816278712,  2.619169173288282, 84.889931172733284,  3.911155896594072
 2.666353476912375,  8.863353896959323, 109.839449963281453,  3.721747767448611
14.751278631630774, 14.294296243030519, 81.318731595151846,  4.135846322559445
10.166439605291052, 14.727850943640167, 36.910003614139093,  3.654696889079867
12.382160444374064, 17.306505066176108, 32.368439337731857,  3.823181579916810
 5.461845461345563,  3.191314963042958, 95.267266580108654,  4.155251417999634
 5.928918949312016,  3.541437277886955, 43.685812935111542,  3.569339581847008
18.296564149428843, 13.124037395067839,  2.004350843612877,  4.001929522626984
 0.115937994852733,  1.661576138784361, 22.963829070522799,  3.750467699671646
18.704156411667309, 11.519155496657442, 49.481194676091938,  3.857984769954149
17.022700816749349, 14.677655270008035, 37.925286291399168,  4.216898525498150
12.869332556138797,  6.616215643632144, 66.946202508899859,  3.894169518311371
 8.788551244350858,  0.868731145769258, 95.932501917266833,  3.981103621813483
 1.627342840656112, 18.652080500294222, 15.148141891591116,  4.134798727758277
11.872681059968302,  8.049386182334160, 32.683917226870001,  3.762124677560488
 0.184783963619128, 14.641895435756327,  9.244034165533250,  3.818655377387420
 5.676138210870048,  5.371179216447542, 80.285477545394571,  4.259954284990709
 2.136939645443038,  0.670366181006365, 37.391168765689279,  4.063039390098668
17.121378393023175, 17.632926019777415,  5.380107241277447,  4.148091460499008
14.806567579413315,  5.951406061525470, 73.240283886186788,  4.231178395892401
 8.167265377006455,  4.594606366214162, 53.333420012615974,  3.853447121361476
15.402603256831814, 16.644493558856087,  9.115434270559236,  4.296467484158958
 2.813446532140458,  5.376724293517067, 97.460737523190517,  3.802186552786926
12.063051773962508,  1.205640732891385, 20.014332472927094,  4.338835370223873
14.357649088968310, 14.828381714718731, 14.395654199768989,  4.036988996425902
12.156410026385082, 11.609284339916139, 38.346103203585940,  4.157547302844992
19.118191875548657, 19.106588696323058, 110.463163473513532,  3.705586453539303
11.940942850160832, 15.089263688663284, 57.084793667286775,  3.770819584778386
 4.153142085644908, 16.713455148466156, 45.535286565864851,  3.597795452339415
 7.125021364998220, 16.512193661332102, 11.435477039116588,  4.539652314339891
17.252387776796454, 17.396977046142968, 70.530717958864088,  3.976642696812785
14.828116439843866, 13.097333203269503, 65.588707274208375,  3.714421242083353
 7.936265702673812, 14.275334542814026, 68.876454570037282,  4.163239538064055
16.629073947239959,  0.879296143835217, 114.305848332338115,  4.199061160859127
 1.548745783933186, 12.604377249102978, 52.830400842269199,  4.028514723477967
 2.854356369224913,  9.249664955518332, 23.467833386447307,  4.025559483239793
 6.580472515241954,  3.627099360514482, 63.282213440736328,  3.997029231595624
 9.845315789777167,  3.809401695722307, 88.391079793800287,  3.599953757870941
12.911989924774684,  1.594114841786175, 30.225326090511707,  3.917214368216787
16.365801461898783, 18.184956530596882, 22.290976879840468,  3.882405574214774
 6.644109920214186, 18.070802086229204, 87.780876299909849,  3.855308435819023
15.927337934344449, 12.079915018813168, 74.999725003884819,  3.742808521561451
 0.989111973215353,  4.300749343360994, 88.100405322651170,  4.336243545228834
12.237553450875804,  3.715084452792894,  2.198468911305250,  4.061293866738595
 2.985152432453484, 17.744971777438966, 94.096560444347276,  4.117144126587284
14.883134739293460,  6.514467589229048,  5.093072978969974,  3.662009325494847
 9.811840533272289,  5.589292954859500, 110.819192804504212,  4.280006138704447
 1.902028635015347,  9.328427185469460, 72.176324338712604,  4.434276578366901
 5.433280247091488,  4.935258230187917, 117.595423868246087,  3.790615202312880
18.480246638105999, 18.199714584119370, 92.130426945417398,  4.168650752806676
 0.210172992065559,  8.662814320639738, 78.493774429709831,  3.952773162190636
 5.656449052782524, 11.190387409765826, 66.448213029984032,  4.079832065172525
 5.273248822839444, 17.414369807703174, 113.798269732419598,  4.037320930417507
 8.140102523202087, 10.040178623173631, 101.331498744081856,  4.016724601932229
 7.652706214207064,  6.819080663408790, 89.929639313027366,  4.027472614354464
 4.440308229522728,  9.601637472505789, 19.711034006522198,  3.977954264690596
 6.064963148950501, 11.206183735549597, 94.525159817902917,  4.001250216727043
17.849050878230425, 15.249989369293646, 60.017194249327851,  3.901082864034358
 2.017619081857299,  0.489289871209169, 78.640790552128578,  3.915943100756982
 3.998286001662006,  5.337550924175601, 72.240535700279821,  4.088337026310918
 3.862313268563300,  2.121228107296949, 82.590835057716291,  3.978519941176664
 5.475231284721278,  0.302876853627172, 14.103498245000097,  3.978398712754714
16.199080735870812,  6.431431721645166,  9.951858810098043,  4.094340800276341
15.256386615631271, 18.126743068397165, 18.382445011190718,  4.029567068997395
 2.992985850983798,  0.517973066390491, 57.584228173247055,  4.244927759146240
 8.951425636907530,  6.537435632854518, 25.488040556142664,  3.966921131843166
 5.917425766081580,  2.907745554195792, 69.538215235324671,  3.965061320429536
 0.665930966190286, 12.895733115632972, 56.880707838453560,  4.175729845482532
 3.332878876586843, 10.210257844681930, 97.305879425226578,  3.974909484460651
 1.443740722661687,  3.429472810169300, 108.735745009922283,  4.023886715789700
 1.638738487501541,  6.675872147260566, 117.284458730531995,  4.441415467096242
 6.024258049714553, 13.050997681208102, 31.393928427233000,  3.764072497580273
 4.301237692962710, 16.476862671900655, 79.832215361746520,  4.092910245235838
13.517053654180614,  3.746976929567738, 112.860953268926721,  3.753799922648237
17.947360434844377, 13.913383348732781, 103.422341798589628,  3.961820196998112
10.312531109488061, 10.252026451879889, 24.904486372503502,  3.996087005597809
16.062834584501690,  2.360961698685182, 74.528474339765182,  3.769687362916313
11.426595878067920, 12.469227877792514, 70.387475632088126,  4.149499617245666
12.943214043225723, 10.819395415603278, 30.117120239504874,  3.977937931770139
 6.093364996555256, 15.326501738609085, 52.441938139831883,  3.877204179840667
13.238488226895111, 15.715854211621320, 39.620217062492145,  4.262032495878271
13.709268393206816, 17.600292471167489, 90.334166904231395,  4.200556971513539
18.435797914463464,  8.521808036666220, 68.931744932765483,  3.946280128632994
19.071267683006376, 16.553268172426780, 28.811000900823561,  4.000624394247631
17.636829939290365,  9.502800602173885, 117.512954319106242,  3.971988138827594
 4.482505452766431, 10.810372965568039, 85.372879889537643,  3.736097203782851
16.701365826554966, 15.050849717832380, 117.607744049247941,  3.754695079485987
18.203319818237823,  6.025446684456081, 42.321058498555360,  4.055881518968769
 4.823738574811980,  6.181005535331024, 31.999088448488681,  3.580065545589637
 8.265895865022340,  0.235694396951515, 64.212944124687056,  3.799818337650872
 6.290348073885263,  8.857396269808703,  2.032196509421698,  3.998693735656800
11.326428170062108,  8.407558023087191, 69.916575150973173,  3.670179144106410
13.178317920476836,  3.924997669099731, 108.907162912377473,  4.133276521705118
11.984947834815451,  1.550016650888594, 74.061395920603900,  4.256933070663591
 2.983290892538363, 12.561021835863400, 104.718118148321082,  4.135512182540820
18.895576915618339,  6.505777662216086, 110.655058113417454,  3.889667225840407
 2.997577573919298,  1.670382573409889, 10.834928168815546,  4.209612992487668
 1.159678754488786, 14.956183987542358, 117.754303530013900,  3.391573937565900
 7.927589452517229, 11.289174016860819, 45.350313201413556,  4.115690800116655
 9.709043332892767, 17.933919428832958,  5.227647583386084,  3.946184784415988
 1.356177644622262,  0.180063737054430, 102.594220090573543,  4.372796538445547
17.137378222769733, 16.771609618061831, 108.096851186986711,  4.019317383389392
 8.238616574588052, 18.917304937905612, 99.538431947600628,  3.451674362935657
 9.582244919030117, 17.527177884985296, 84.899608253216030,  4.365932054201432
 6.599198677137431,  3.326542717728629, 109.143656033350950,  4.119649191670537
12.138345361282171, 18.716350538650492, 64.372688077309661,  3.876611119342164
 8.942489206030622,  7.178251091210821, 66.924327797040490,  3.953366920003370
15.117576397522589, 15.532884446994013, 77.462043729632811,  3.941261584118563
 2.549973263743663, 10.832309440277307, 117.441136804131304,  4.063722183736865
10.196161732222130,  6.034127438250482, 103.960414909739967,  3.881627005789545
 5.064147027919754,  3.660653632558987,  2.270712762694346,  4.530054278825295
15.433432049693117, 15.930361268423704,  2.017594765028177,  3.953023249624038
 8.530579837705933, 10.537962161090894, 84.351614903936493,  3.984181299418167
11.075588768168483, 16.710771903156818, 111.947615252361373,  3.860702084990626
 5.534344328618523,  3.372912544912147,  7.795200278069912,  4.141984065406833
14.936436892222487,  7.484130799736399, 44.299554343201592,  4.039117065869225
16.652462918589094,  1.931354842868021, 63.877115707404585,  4.137115591629358
18.104998623008790,  2.554211534497145, 16.278784182876230,  4.044426087867310
 4.393613356844397, 16.343035560983203, 90.531433603732026,  4.025180968367602
 7.015347896107309,  1.977760597736032, 50.596338568855089,  4.058495182037604
16.458166283342347,  0.554009108941824, 47.430137982324723,  4.317918702817583
 3.884234045426120, 16.968123161342987, 18.414738513584627,  3.750598371244548
14.337276463983738, 11.801350722937425,  2.081724315500593,  4.141489177632299
 4.080125837410289,  6.323286356222412, 107.210038347509581,  4.083908303266051
 8.432247127895934, 14.862172399046198, 114.232976966491790,  3.985069468970759
 6.832958871853559,  3.161176161089488, 24.427797520779745,  3.843464606490232
 3.569553569844711, 15.832808467457378, 56.085824249322322,  4.005413107989615
 8.474893368392932, 16.432035966589496, 29.121443972712296,  3.989142552931891
14.953400922632479, 16.419884995523216, 97.762963412378170,  3.888575101480433
 4.232670777196513,  1.786107273208673, 17.781433584790683,  4.198689290593628
 1.612293692752403,  5.261801338386826, 68.832247512070737,  4.018097404585559
18.815353502809387, 18.380420652629528, 40.503235983875086,  4.284828088500775
 1.242530335263054, 13.442659956408642, 108.570376335959935,  4.116542890725547
 0.724960187503407,  5.736664195095842, 23.910976809851558,  4.226014304472841
 2.338255039522976,  8.845187525489843, 51.038241866265309,  4.348968288143011
 8.048837320841550,  9.795083093256927,  5.566327921738115,  4.014523396256941
18.714578809618391, 18.418115818065978, 117.507492084753423,  3.994350946611531
 8.778906422555883, 13.754885775623526, 86.801492717815762,  4.105475333913355
11.903973574385446,  3.239169424647798, 94.900877836491162,  3.950897335886014
 5.584228989791899, 14.129202224087173, 40.364580471572765,  4.236241618026583
 5.157414273883847, 12.586677831885474, 17.208056726430392,  3.469261601882549
 2.032350215471566,  6.742419450810783, 75.515165044134619,  4.001783749746597
12.296978616550760, 10.091996351614966, 100.637080975833911,  4.109559857191710
12.257313015109972, 13.221073313417365, 74.488188315725054,  4.001563433935504
11.877706258769868,  7.224372843721858, 114.233480539054966,  4.196538799874297
 0.093139568193210,  9.857426634606666, 101.260790128633190,  4.019669941062725
 2.273478525352441,  4.015733297758734,  5.404283694649034,  3.857689794087678
 6.081325505132642, 15.335187520998856, 100.490325936209402,  4.285397424737917
11.033931636875755,  9.541426289011881, 110.731928132934755,  3.932259461583722
11.284894664645998, 15.481500195763239, 78.776632019333888,  4.111799881748168
 4.094284065571546,  6.419485571972889, 41.133840356414062,  4.111133025490717
 7.457581950576642,  5.663662945503239, 86.110969676101277,  3.951720359318020
11.084610894226657, 17.813599746553841, 107.806148566650322,  4.577092776488232
15.132440813032741,  1.938159118180614, 82.860064965996955,  3.968695880911239
11.311661667713429, 17.833016145859283, 43.404241204952534,  4.175033864556780
 7.124774048345897, 15.552975986723514, 93.722463344866071,  4.126484696364975
 9.076596150697464, 12.033943611587919, 76.504986445068340,  3.889784322334166
13.934301844116321,  8.380722030806554, 35.985518113262870,  4.013627865197421
16.565356903772987, 16.642203720188132, 84.443021858440758,  4.159088916632837
10.016956279663756, 13.658493165348062, 101.005984454745231,  4.100378810589498
 3.689017837080721, 14.004377350304686, 115.243369156279542,  3.970819666349588
 3.228616375800458, 16.381953557082884, 63.817100711800528,  4.038859139310920
11.958061155331574,  3.781598484397386, 53.250937558420844,  3.891072480816530
17.639658867134035, 11.713497865038047, 18.218648624630063,  3.994502124446788
 9.374678094338865,  8.890945068575839, 40.672923094981670,  4.059064464244462
14.195947594248741,  3.853375925168362, 17.092552105936239,  4.333603683082775
14.763501238386947, 10.351130965088728, 68.535913617041587,  4.248167277047524
 7.464446750292778, 16.524921678739982, 117.611936052985641,  3.764045288599791
 4.260121513933391,  8.809865782636347, 78.251086248569862,  4.142364990078203
17.264185230028410, 10.249081616568347, 28.764479098678581,  3.834701455107697
 0.537909902926253,  8.574660062728359, 31.387574389864444,  3.728072132292917
12.408842249223673, 13.355447928857760, 23.728128059234479,  3.759364803940660
 8.731349213866014, 13.213942358056789, 59.375118963768287,  4.330542744138571
 5.573965023724880, 15.832189376078841,  4.961049606289678,  4.259084242808792
17.017008618779823,  4.783380417306199, 85.109509711979854,  3.940924719712432
 8.684450540110694,  8.336804530679558, 93.412776614727690,  3.819637537220762
 0.246548926278960, 13.421237072971536, 45.848845488758684,  4.105530695866973
 7.397645656334772, 12.922633897387870, 14.028077795612759,  4.310360096127075
13.848601083037016,  8.195052795131764, 117.588618066615751,  3.722702395529521
 5.138968185323407,  5.628046719004063, 50.941806325187478,  4.120342168853497
 8.973245656647709, 16.025785324724506, 90.175330511282340,  3.920268154368450
11.763071500916228, 10.146004756393616, 44.029021819614428,  4.032609459679888
17.149465687780388,  2.617186961173134, 38.613519162718546,  4.085316385620921
12.968296809043228, 14.705992193530085, 60.697808335253448,  3.754028669367614
 4.793188108120160, 17.799307344518493, 49.546202121298734,  4.096015606595874
12.099284552728040,  6.587637743698310, 11.356293061894544,  4.045119593602445
 7.237704876376631,  1.784083666901309, 85.257002383451407,  3.791176958697009
14.091919881286444, 11.133199127188831, 15.871992021731151,  3.693499512684900
 1.778786807599927, 17.101771047992059, 97.897740517114542,  3.890959521817484
11.105165293096555,  7.189594514652395, 63.272743253668992,  4.237196326292665
 3.986335919351906,  0.787866054174080, 61.686281821650311,  4.114473504352000
 1.505670839279365,  3.939690272382011, 20.195269424395637,  3.907188717509819
 6.146813827806377, 14.299253910110016, 47.755601357241432,  4.075734461534125
12.256507021356201, 11.300664446162793, 87.029556888003185,  4.215555142828225
 5.482750537988136, 14.119260116235630, 111.438766134503922,  4.047467115139090
 7.504170601873348,  7.027682849529604, 37.650867900961586,  3.787228969634250
13.040445966059266,  4.306173373412247, 117.406686686753488,  4.153314874512591
 6.933968459383634,  8.987545341957368, 23.005252039702736,  4.062732021651275
18.746396721573486,  7.247915435832136,  5.838842979893207,  4.294593451234388
 6.882080168402531, 18.107943667616162, 20.493246851252596,  3.835084088543175
10.951545708895260,  2.401372655242203, 41.611072419095585,  4.042573871949772
 4.695133954020681,  8.048488107207415, 69.260364043792947,  4.001599243573319
11.836247622040037, 10.941369561987749,  5.444398280807090,  3.798642448402273
 9.849611648603538,  2.029486648359966, 45.396266301446559,  3.815423863208973
 8.634032725894688,  2.670305094256485, 81.684413151406019,  4.052028195353277
 6.192616362351045, 13.172333227051995, 78.787104938692664,  3.799672078042001
 3.453306550745663,  1.606679571706652, 98.594379605264024,  4.106616547218933
18.553172988520938, 12.546931113815381, 14.314880741806089,  3.999883489416447
 8.847044826851347, 12.081742761325282, 54.001990780914703,  4.060327125665615
11.330594415979053, 15.374307979819301, 117.284470430165612,  4.173244468570311
 2.039939125989854, 11.845911405835485, 112.261973073942002,  4.007329173822114
 0.190107208341520, 14.919343398887399, 94.847246353631689,  3.914864996744628
13.882979691696740,  7.386862916207894, 103.850250007487617,  3.897230331816057
 0.626047943677640, 13.162606754950316, 98.646082971380196,  4.450573619602570
 7.644285559462440,  6.326768128843844, 29.347120820911950,  4.166534819693407
 7.503505678894813,  4.684664384388875, 47.490822936810183,  4.160532674581132
17.629311416455174, 10.107011433198036, 42.516212233876161,  4.151965529695646
 0.471588407199100, 17.165723817053848,  2.068486411949332,  4.131697625681829
14.593692142580869,  9.267654019079460, 64.544016959162008,  4.015999498092330
 7.561978625675075, 14.910174786985227, 107.548743564058199,  4.160154604965884
 4.243876088347691,  9.305239732105937, 37.832812545832319,  4.152812537879288
 8.444123725982330,  8.684594469407818, 78.933710775005380,  4.266608480408842
10.413900207173633, 15.983782456677407, 14.262265001841211,  4.156633206585182
 7.210788181299491,  2.989245692287799, 20.451466998829574,  4.059507589874045
15.466753114311977, 18.390478639782877, 37.087973049949873,  3.960576325073340
 9.851641366016223, 10.365450992497408, 90.287279405015937,  3.943170066016591
12.229860248023627,  0.617775154083750, 60.484686536170543,  4.051177866374854
 9.557595912702070, 15.810066110046469, 25.222556576166220,  4.176477443929240
 2.204649370253611,  8.376319120341590, 65.921827434750227,  4.289775969521717
14.452338641552769, 16.222317204457365, 54.321243888912598,  3.607551641849289
14.909874456671774, 11.639078713007585, 50.584854151110022,  3.988290932453386
 8.455925289706720, 16.665803556039581, 33.394351390378610,  4.289114744708464
 6.665040259196444,  8.432047101185875, 110.443840865274936,  4.169218224353770
10.712878540545285,  3.135015164997718, 27.113325405788331,  4.278311495802084
12.525931828178996,  0.205295307227525,  8.351926300716279,  3.603093479719143
18.241187108515547,  9.464820035343751, 97.347529701866364,  3.888719025609013
10.002270227161883,  3.502182447626722, 114.373961607383066,  3.914431043760013
16.818816581030767,  0.198645803248634, 26.122937700799859,  4.000076340898797
13.564245642015003, 11.981243571821398, 93.987738909770030,  3.908661289321273
 7.948155030931805,  6.430312032918037, 56.764147646527491,  3.834069995970225
 1.317999090610515, 12.688633741042054, 20.863722598215130,  3.605974420282038
18.534532869879911, 18.817650288774679, 59.048019126970672,  3.610909390760409
 4.857788292420053,  6.233541482419933, 26.164006388116928,  4.156519284532938
 5.538631968408352, 10.588472818841652, 81.631433809333302,  3.909915383627633
16.668881575488392,  7.241307991965752, 26.214350874361081,  4.108419786436414
13.282260601538749,  3.583331192612565, 104.750440410979820,  3.983508389890060
 1.388287557607817,  8.036450469849804, 94.368124165861488,  3.996319571676573
 2.375462474278224,  9.031565439169279, 43.984263329243497,  4.290899041622438
 3.566881391075203, 17.810692247782800, 117.457424115605974,  3.912695803762139
18.151930977701429,  1.319494239436224, 34.806349525462153,  4.049957053223554
11.054774055924758,  7.410205208461529, 86.209236574644265,  4.038884504786214
10.098973074905830,  4.537535518675476, 18.088641898161693,  3.892019424883997
 4.765738914086544, 14.449252394171166, 86.980516683963089,  4.040949774643983
15.002925753567702, 17.215052864609614, 29.251368634959086,  4.283142946335197
13.704700249055112,  4.319612121902950, 87.349825917269428,  4.094159281048755
 8.333472219625177,  6.710219829152265, 12.996149457699175,  4.013504219502695
 2.338990709442778, 12.550903082023339, 64.663681119836014,  3.860088820738517
 1.436285459657680,  6.162654850524632,  2.102713887721391,  4.180895383801509
18.046284608986436, 10.916181221512680, 65.672401490188136,  3.960810723649101
18.996385818789424,  8.846813665830291, 113.839592530738173,  3.960289655460697
 0.900543245543342, 11.959539145411297, 85.657926948639314,  3.805676271577413
 6.753390628184184,  6.515337979368933, 102.255276311589796,  3.779057772991792
 8.852395993870505,  3.120169728671430, 66.791715094927952,  4.005869302969546
10.456779244386210, 19.006478646841796, 92.484392642083392,  3.927338358285115
 1.136945991995810,  8.154440966031000, 90.384083632727311,  3.940518859769775
16.029797861082599,  6.005286197579317, 114.998788919623479,  4.140585236649885
 3.941106782555646, 14.186124220495417,  8.397343627590116,  3.913137411529851
14.412640295146568, 11.411129411122996, 110.840924837416708,  3.793101393296424
11.775787144244161,  8.926081871632791, 76.296429370981173,  4.144587795198295
16.886931892353815, 13.698497644907974,  5.622730811624291,  3.642848260772611
16.824145804634341,  3.149645844549497, 110.888161740594171,  4.006721535951867
19.066064532877427,  4.741688203638809, 92.155582357417543,  4.055695054128089
 1.948857787366288, 16.764479667990447, 52.600231067189156,  3.857802157427630
10.454034575625009,  0.137263750129393, 88.596662919429150,  3.800053303156179
 3.892029512223667,  8.779470679416162, 114.043327399192336,  3.963032729800425
 8.339778020035510,  1.425985688291755, 60.464225593881388,  3.866900891982278
18.141524666145212, 10.321059720919195, 110.145321268869537,  3.939692320928529
10.676745548017731, 13.924158950323621, 31.252303752066208,  3.873477277906377
14.189933092903933,  5.009659477232342, 31.655693117290827,  3.839565872102579
16.004380128770563,  2.135067855081230, 60.009092459861286,  3.652695013798795
 0.352914340791687,  6.403223077862259, 17.165014977576384,  4.221966804652629
 7.228359255626090, 15.308337404880190, 64.734290252121781,  4.382803944683937
 7.506369698157457, 15.634004760067294, 17.341556570706178,  4.225816336989296
17.956849748400387, 11.020348297766196, 88.813825791364508,  3.965754969412191
14.537164611778103, 14.027055137928878, 31.766255319632471,  3.855765854671712
 3.273287123534523,  0.742764852890530, 43.446261049022773,  4.148457144837375
 0.734527902681131, 11.405455367867239,  5.249672666517410,  3.846780360779862
 2.870789204066856, 13.345415860085327, 24.467405927409605,  4.316391554330425
12.246807985575609,  9.648570854050968, 82.776971237513948,  4.181893900751887
 1.183709568308575, 16.344813653520802, 105.623388938650862,  4.040710285581389
 4.812080382150622,  5.241461499087015, 66.436426385862731,  3.908446328157051
 3.780417922044158,  4.334372674263299, 101.438575911994462,  3.708985516932535
12.373613039982802, 14.190485143993236, 44.593158958866042,  3.769175010869753
 1.932377305271680, 12.011430847884082, 40.947528850512398,  4.252142187506065
 2.295736873931410, 14.471156494934695, 49.240330737611600,  4.075196258250477
14.502047325120335,  1.233034403216991, 70.716588258999536,  4.022521102755080
 4.671389805019802, 18.474901915993804,  1.958035544699959,  3.869902402540524
10.669591785677115, 12.878376573904999, 17.024917201494681,  4.138080103263570
 5.992770520763425,  9.746448450778683, 11.558490055421670,  4.164492858649689
15.020769606522610, 17.704410471582833, 73.913294040439908,  4.098366131417373
18.266757022111424, 16.770635994951167, 55.653764062548724,  4.291691815074605
 9.087246116363874, 13.711756133492763,  5.480831701288583,  4.005083465472962
 5.183562097153992,  1.306509154963318, 66.081555141105611,  3.691916509237937
14.097841045886172, 12.114173060737057, 117.388976455314150,  4.001275126518760
 9.687202889872374, 12.713546580633730, 41.739837010338540,  3.874303285140550
13.533131200661112,  8.626886316202066, 40.791126116821339,  3.851725100484040
 0.082835480697276, 18.336390253197678, 62.701205602270321,  3.665766164733979
17.907513519403977, 15.425903166266975, 19.866154435027166,  4.072500985831821
 7.168951129678228,  3.571956127599128, 99.286010037762168,  4.403693997288807
 3.133963624351034, 14.074311229481422,  2.064737176436921,  4.012644904635558
 5.627454999495065, 10.196641942786837, 41.641475899769247,  4.027797540193657
 2.934912853064958, 15.188277577633245, 30.961286191647602,  3.742539367838479
16.435165298144387, 10.080412419596390, 82.128515560149182,  4.184575684539183
 9.827050816593029, 17.561318175092424, 67.370623650989032,  3.990368454850018
18.104819999852786, 12.812954031456441, 31.334525886452401,  3.558561232696464
 9.240478085249284,  6.710956502579787, 82.604915072612101,  4.142565236120561
 6.762685138089507,  1.237338292869632, 117.469700689223004,  3.962709630464812
 9.252007848535687,  4.483384610259406, 77.891620474995364,  4.378596820243089
 6.502424031164584,  9.294956625380086, 104.839336383254803,  3.826481822149384
17.939209261076115,  8.246184601818655, 62.404230461588739,  4.026342359931457
 6.967475587477244, 12.888704745040830,  2.102308049772915,  3.806719700154111
 0.600219922433506,  8.407750766763229, 39.407103881925423,  3.952692290451447
 0.099983390398517,  8.047943504487785, 86.229399017685651,  4.204764308164017
 9.464523871961944,  2.178228576345099, 102.831510690304114,  4.279333998087727
 0.912333551285137,  2.034566958625804, 46.822596406026037,  3.436534177649647
 7.025115037848614, 12.983272722731405, 103.770422977274592,  3.897322540769716
10.740629136431560,  1.458766442837783, 111.059263450711015,  3.923889238216788
13.436098317214006,  4.706662832961253, 76.893352956926847,  3.949769214949759
 6.125447109004663,  8.679883846491746, 117.501871097128159,  3.806039435972379
14.301382626968120,  5.044015393864218, 56.314576860931084,  3.966646788170507
13.944273426914872,  1.604665629169941,  5.158159844437066,  3.858113254825622
16.375204342191022, 15.381536236499024, 47.730105370903026,  3.875588156968326
14.952210839612878,  0.804851167887478, 107.007567744625831,  3.898539884921755
17.813470975102359,  7.117523798519636, 103.837289800542678,  3.969707242546160
16.797031716435885, 17.758771993825050, 104.144530964385623,  4.074007875599492
 4.557174541464296,  1.920128723236702, 47.207938224928284,  3.766324020023178
13.738214824030459,  1.727702522819021, 44.531071217742010,  3.794290097683154
 1.413714952548765, 13.687612781866479, 72.192732304445684,  4.275746230394603
 1.414262243353727, 17.932043772620975, 25.307283028312185,  4.041140656868243
 4.707983795720554,  2.543538632912509, 114.261567740977057,  4.074718286512043
12.897465679042408,  6.268765366886686, 24.836014859058768,  4.048860243073268
 2.086109161013598, 15.623525539316462, 38.239736547281524,  4.267031450698838
10.265383559350550,  6.469498341455280, 100.009390552173073,  4.032940081980042
15.009720785471064,  8.427768531165121, 18.632964118195801,  4.082176292114529
 9.095157679255369,  9.740614701988195, 50.480737647674147,  3.965735340122933
 2.525592770854320,  1.583491576750307, 90.909869654164922,  4.016199615385522
15.889084084166589, 19.008404519293062, 14.535146140626701,  3.646227380950465
 2.434816795311262,  2.519162100247503, 117.541697351839403,  3.741555457071974
17.737146806718041,  2.091291356038737, 43.607439517489318,  4.268143376990350
17.290189898301772, 12.344587384251602, 92.498518965073330,  3.954411028201229
18.153911442232332, 14.752966771617229, 64.106485467775116,  4.137853870230119
 1.079247927625540,  5.095724652830597, 37.136289486358436,  4.132765017154400
11.801852393125110, 13.310913585160637, 11.608808669167313,  3.863051876411635
 2.469010692343447,  4.959138945150132, 29.327262956887118,  3.901467017847896
 5.735205174460760, 17.691476567134345, 97.098158803332936,  3.915165269910222
 5.290807927377504, 18.535029675253419, 31.208323955436533,  4.224385783786452
17.770285724972464,  7.018077246420432, 55.509948614649645,  4.040182689387661
10.186720932745441, 12.048190661075383, 80.286348271341666,  3.691281617465926
17.769191160850816,  3.316481460618899, 117.513219766874258,  3.967675882328603
12.056408058709721,  4.640267006603838, 70.345469739046436,  4.001888049247196
12.447835192295171,  4.793633687723170, 46.833436143406146,  4.086430326505805
12.371933912625417, 18.562732603464227,  2.165291051348859,  4.038115811759275
 2.342795478105250, 12.308242037250778, 79.354815143044931,  4.101831991183088
15.308765955014737,  8.609970414909938, 78.382768048953849,  4.071383502777129
 8.085674304449199,  0.137142253223741, 26.508868705662373,  3.680555730957019
 9.142730907771648,  9.209075532961821, 60.335333643438609,  3.863010681294063
 2.140099441159643, 16.307322068194498, 21.714282274923150,  3.783254384914639
 0.026346711851353, 14.873487645055095, 34.442025597898486,  3.784377937622863
17.889714005262089, 16.535621166677046, 100.401956365807763,  4.002620360571708
15.902425196401317, 11.931590279605119, 100.012516217082634,  4.056193374255741
 9.477590238233669, 16.793538285006672, 61.466452566739164,  4.086606156740781
 4.779121278254190,  9.029829531749158, 91.502179661674901,  3.859011580495309
10.174916148591464,  1.327713401720499, 33.739815679450629,  3.865986019405952
10.405551125555322,  4.289445596949046, 31.331941627948442,  3.731059133409105
 2.947008495017435,  1.908488758551496, 33.296353395224443,  3.730398938682587
 2.935132244423785, 12.612269716072236, 12.116554718026991,  4.267838272457802
17.581039097584714,  7.058890463526189, 50.493150150612465,  4.229660345903246
15.024404362890952,  0.344177770266292, 100.401348279755510,  3.930836645494377
 8.384561245922107,  0.720152283995967, 17.117461818751536,  4.277763861564650
17.376460130557980,  5.977924570011523, 20.738707303655534,  3.814328092546451
17.564410358703327,  1.369713304553256, 67.932522376801501,  4.001835607189545
 1.658328740416010, 13.996897162884983, 17.321322533377479,  3.966380776410214
18.357854235796864,  1.747150481199137, 12.348277940414528,  3.891679278641997
 1.394963571738407,  8.252885589705359, 27.357870158011920,  4.048167409904316
16.415620804542385, 13.530010959759991, 11.324505020984466,  3.592600646580109
15.960358059121241, 12.615148556885828, 85.429708388182874,  4.189798813376321
11.802059403587636,  6.638180173814059, 90.329582958151562,  4.259414031451825
18.297855068269605,  3.068817052872367, 50.072566682622544,  3.847061136512573
16.987995260124645,  1.950779780190150, 30.613512532811331,  4.247426358583535
 5.387040178094161, 17.592782391641563, 83.817232804407055,  4.262722266035787
 3.370133882284084, 13.918222033366135, 83.109991819587663,  4.234327951023723
 7.959583984022905,  5.011598037377978, 40.900673663276734,  3.908447647747621
18.712984711677866,  1.752787442033789, 71.748695232050252,  3.935720124447673
 6.186724860035997, 17.463275158383034, 59.160329836097247,  4.037909167481469
17.131102159774674,  5.808901015541560, 81.094016389746685,  4.254469056276421
15.322570731381731,  8.685620372937342, 22.659217869098143,  3.992146807307682
12.743415787193221, 18.699289076705899, 103.744660558806402,  4.284065305516356
10.682110677324346, 13.878872636855471, 105.010099588677619,  3.996974334692312
14.727995130036314,  3.330003005240473, 12.719981187714469,  4.040451132485487
 6.715086361861504, 16.243449778769151, 37.104864812617386,  3.825196531904077
 4.495215533307583,  5.804289719363896, 22.084988124627586,  4.032059580970210
 6.069344887536280,  8.646002920897097, 47.980721319793886,  4.132819983823134
 8.069011932820370, 16.546500392644592,  1.923596069336110,  3.713160305065663
 8.801794163950307, 10.113024015870792, 31.035758571982001,  4.328407120839366
12.746212722705218, 16.615127887859202, 21.705229564726746,  3.835899109302349
 9.674077581834897,  9.174645332144777,  9.339886567815068,  4.054221776884451
