BANDS
8 8
NANOPARTICLES
cell(1), 19.114
cell(2), 19.114
cell(3), 119.462
 6.122061040910801,  9.557801235204769, 73.794559277250357,  4.092003418009119
16.864026331664295,  7.037145611804191, 62.057541622878418,  3.824345655441168
 0.742677173992610, 14.610415384161950, 32.268370301398711,  4.329657976586743
 7.442050083450323,  0.696808421755731,  2.020463642130738,  3.928087456257679
18.763347873068309, 10.075792583890680,  8.603058117332106,  4.071515657051990
 0.513338329205646,  5.208785725124607, 35.767446137232483,  4.227693732433700
13.224762863148992,  9.525280384402057, 104.182581347926885,  3.800965587633586
 5.426858332253045,  6.169975097072163, 24.010064418941841,  3.785004338267780
 4.274659129319054, 17.715657109216483, 38.006319852686893,  4.300433351192000
15.809251898732191,  9.832845046150601, 83.451670420235274,  4.010597537915350
 8.942007876003379, 11.558163316835925, 110.709815142604768,  3.922428841525417
10.135617451259080, 11.075865703855195, 85.846114789418479,  4.099904559167679
 2.348985500757161, 14.533170301180892, 80.149169261632906,  3.990787769068697
 7.021234503606802, 14.858238824979159, 57.196709676099076,  3.924084902802582
14.511910925182686, 13.232061111139616, 104.149204993346515,  4.033105045528943
 8.347204898575949,  4.762612224508598, 95.610942731823542,  4.121170003178332
 4.518546200530848, 15.735542350853050, 54.311356825134176,  3.838826144052818
18.182376719223399, 15.142483485832532, 13.204164508037733,  4.020868491945162
 6.416984928167054, 15.439506716253597, 23.195745707843241,  3.851550905118540
11.636530596166248,  8.807064907224531, 74.389533783220259,  4.047754272373826
17.467476063851755,  5.001564918476466, 52.717022451940593,  4.167055918522199
16.300810526738040, 18.644692970533193, 114.237804259310565,  4.131164418998043
12.964432977432327,  6.416908312363184, 60.929721812871755,  4.224366826902513
17.138904251385934,  9.838729483196150, 18.925811498811399,  4.255975736517240
 2.518893792617794, 18.417809928402281, 52.474616759801854,  3.719175732256809
15.070920414677087,  8.094167522340561, 46.172482421723252,  3.847647952878923
10.721907387888729, 10.553800050413029, 60.834054530836823,  4.043290190107189
 4.092146819027389, 17.060417404458050, 93.574797511378463,  4.244044382570598
11.333700344568184,  4.827005973091622, 57.381391159216633,  4.066928972826998
 3.776955390919204,  0.653600197478415, 90.344087805459480,  4.124616612807413
 9.301558327708943,  9.032075147281452,  5.394253371037615,  3.730288334885874
 1.705600351797863,  9.702005888446381, 56.422787297249151,  3.649007265654904
 0.282543957896683, 15.893880488062107, 107.404199130521789,  3.907897201540425
 5.828154802117135,  8.597846213697773, 50.787338661999257,  3.992550851693607
18.575119963158258,  3.146005196342757, 110.748838276225186,  3.654512354955335
15.355617211033456,  7.031207477222666, 96.291698328387525,  4.155515022997339
17.061851755838362,  4.311210714940615, 98.889065327458184,  4.044576687900268
 0.696414894093584, 17.216956774223963, 91.177789492084131,  4.015758903690968
 1.241213675304000, 16.741807955838418, 100.052372588350693,  4.326490019562164
 4.076404078032920, 15.338861466354752, 89.739348289201061,  4.139872330294047
 3.272439670812600,  9.432834169721012, 113.629487439557451,  3.903378637663222
11.485679825707610,  7.741512644890744, 50.398965354063520,  4.024859743435877
 2.391639007171992,  5.674096398401236, 80.435252081520076,  3.684905901166126
 8.427761338308459, 12.201818738648749, 36.223151943071969,  3.935908886484466
12.161343725752225, 10.148541804407243, 53.765278698192375,  4.191033791132254
12.270325905455659,  2.190611370089248, 61.567183837930855,  4.405365684867304
15.905399270159982, 13.904067771207448, 107.991745901186746,  4.168293740452481
18.601227824671760, 15.942594173834054, 58.747097677636120,  4.051421518978960
 4.932310642550647,  8.251229659316696, 20.839798883706415,  3.817976637601287
15.985515139189815, 14.175926871417518, 100.667024195636401,  3.733622878441080
10.414825692142850, 12.459450247303881, 103.448834062179685,  4.243564972580030
 4.979990620609252, 13.758387638224024,  5.573225775271116,  3.959905437813453
 1.617973149006128,  4.270055993953130, 11.095814773539763,  3.851621070672892
15.471887124873126,  7.973579529116114, 92.134976220199988,  4.364285451132378
11.757340858348645,  6.098409595574728, 46.764924410191163,  3.959368101377192
13.664515223156009,  6.394935458735858, 82.038089969341712,  3.864107673264427
 8.373671347669349,  1.338393317158893, 103.913030777686714,  3.902454052614130
 0.937751417434136,  1.669685735743393, 107.458245146065963,  4.100623684504120
18.571830189976275, 17.669043859686820,  9.303795349862273,  4.085894097970310
 6.895947266205652,  5.600757857962108, 15.477703207450441,  3.939826598630818
 0.766169010690757,  3.297440456391227, 117.486200138611451,  3.839118494620589
18.815663519285181, 18.752814900754238,  2.159317456256874,  4.283865922228064
 5.731698075380133, 13.790163536393303, 38.884248996175351,  4.145011782340408
18.768253326946656,  1.809479219481465, 88.199158584660324,  4.159507436910004
17.964114634087906,  6.360443799593627, 28.858519005513049,  3.711225484861956
 6.521025816445932,  4.810310145266373, 51.668136853112102,  3.782868790201175
 5.193686683165009, 12.969811818698627, 17.765901351971582,  3.985083221645451
18.058259016453086, 14.672647176076573,  1.989971712439563,  3.962630801925511
16.105160908440308, 10.378404305388029, 64.862200784814490,  3.938384594963666
14.476092559652193, 11.966973705473185, 26.706222176000715,  3.925022713433487
 0.074381327863028, 10.912153971064564, 50.121018595616725,  4.070911961783929
 7.284528901691830,  5.654067984847392,  5.713393238317080,  4.124378732459672
13.718789889298135,  6.005341297912429, 54.234362846755893,  4.083429888588958
 5.249847196878169, 11.978244329303553, 77.146500359032459,  4.206211300511869
 3.374988471717673,  1.033527396976465, 14.878218129505527,  3.913456109298367
17.805193785030070,  4.269249848251889, 40.509387865578077,  4.022552291423573
 5.889719347997036, 18.872605557993094, 56.958873677659902,  4.265489491900770
18.814510175833263,  5.722131558166073, 107.614906329068759,  4.261306972272275
14.642790308121837, 11.889263945601524, 93.881746817719829,  4.154044184698017
14.608785857859226, 14.559912190488443, 77.944987981663630,  3.889478199004036
 4.769441701373661,  0.640265051516922, 18.837912449249544,  4.353247138887177
 0.410484367428423,  6.075752209845619, 56.425750066993480,  3.881800411183905
16.809134395241777,  1.080677042913429, 84.449212369910484,  4.405878140142637
15.644395802414781,  2.747720257720814, 69.127462481144008,  3.745832357497126
 2.358082957255514,  5.362712283113058, 42.229696214133064,  4.170861982732914
 4.456279820464983,  6.599796516879211, 77.093735144593808,  3.974480770758801
10.094229432570771,  1.597305457283197, 117.450144401688249,  4.018056102502115
 7.382186404413495, 11.129479308245578, 20.391788575481261,  3.686144282556142
 8.740492733282347, 14.270422275202208, 68.171698883748277,  3.865337937336931
 0.302543263342377, 13.705329320680040, 21.295637750073347,  4.065080151827972
 4.120645871832942, 12.258177204360024, 21.880898408472692,  3.785869988047503
 0.893223366089175,  1.888470584134170, 100.365049224070034,  4.101033536066262
 9.866187741931221, 18.254544946363669, 33.116495489303539,  4.008005459348682
15.925261804961689,  8.200536430080014, 14.810499496550294,  4.118958072379944
 9.922359969481635, 14.226571169159875, 32.879078543813179,  4.057126763297544
13.287548532177846,  8.101181352802392, 35.276552470734941,  4.158953518979158
17.616746033870402,  0.180748552060960, 74.764851308495167,  3.974036753701740
 3.663810648113305, 19.096177984531714,  1.962124783593900,  3.568246008427160
18.514750154193930,  8.178908718018583,  4.741005329893035,  4.254618620646100
 0.443671899358247, 11.363460419093743, 34.697280072951955,  3.785188807151260
11.524555093174637,  5.001762991700480, 37.709113384887452,  3.897673732096798
 5.936142097740776,  1.142108929900159, 52.989528160539635,  4.091614801219064
 9.353628317297234,  8.412732585368595, 104.844214062524927,  4.317648723363535
14.905813792747113, 16.749048328392707, 15.860632864671324,  4.118800326831292
 3.878653962267403, 17.822856592710199, 113.581488961156055,  4.045108622081194
12.469253337207368, 16.798920078482499, 80.127294795535406,  3.578626202267594
 9.319655654228200, 16.325803421396209, 25.539403556948230,  3.686029378999953
 8.809651773961683,  1.962344503737230, 58.925175809145983,  4.035162432794099
 2.754515836691305, 16.899537859322745, 12.418814459235969,  4.148094070509695
10.803161259816838,  1.107017410506701, 80.966357613190212,  3.972499268522937
 1.393694265379329, 12.639518299377828, 28.632508106176154,  4.002448770940818
16.499574926568474,  1.538107793336189, 32.940899053531780,  3.840220966141429
14.862349181434897, 18.655458732662176, 77.712016790072155,  4.166192186740291
 0.984240810625433, 16.324954625187527, 62.449534952272458,  3.919623525691143
10.352398697316683,  6.978340631744161, 80.035622705944178,  3.770502416536511
 3.649118852515044, 13.906397760449725, 107.301811823921355,  3.901165986698341
13.336985928693482, 11.415051771566844, 100.891017539236898,  3.763442336778831
 3.389948847668944, 15.432761110105464, 48.474151613796465,  4.083426035960106
18.657540431992054,  9.643464724166190, 46.275418362598103,  3.950457263015508
14.585501690824934, 16.179418205520211, 57.200320617539653,  4.052791731169395
 3.398141167995338,  3.717456348763042, 21.473380481129801,  4.165001347202328
 2.777738068758987,  8.255957728202285, 34.421157731564662,  3.827452139549266
12.969004030654133, 12.821837870258095, 74.553296222675371,  4.186929269048839
 3.087245794398583,  5.126726734702395, 110.341907342130568,  4.504416039355736
 5.875477185833561, 12.747120746618723, 50.087607037527746,  3.803745591025960
13.652304905522566,  5.555464496078788,  2.155294418667842,  4.115023276550683
 3.163387356591982, 18.159622663354920, 69.568724817797971,  4.292501263191229
10.725316939766074,  4.664462554856273, 19.801958049747839,  4.161136629661079
 9.882824065997770, 16.608513603304750, 104.170042308298264,  4.235183302916357
16.675315357166735, 15.423103700687756, 74.733528826983829,  3.925396457998015
 8.809543962284287, 18.556820470353404, 37.899286214131557,  4.006953653647527
18.098727811193609, 12.266419858864577, 85.754777563846332,  4.040565190314204
10.629003338580787,  2.754130068212362, 90.944292262235507,  4.173946514595802
 8.335405524277720,  8.057985961328749, 83.377075052546132,  3.856973635372053
 7.292533857090716, 16.377949947140412, 18.610044070684133,  3.885449419189061
 5.729841264544497, 16.164204250795216, 110.009227980468907,  3.859911291479446
 1.079882312531081,  4.426995920338034, 77.004059669907946,  3.933065776100666
 9.523696165138947,  4.399493701262741,  8.841524786603143,  3.872122465235261
10.978605297141435,  8.326720089221814,  8.898446204009860,  4.155606757413066
 8.645852775317644,  6.406805354017878, 91.802254173863034,  4.048018871137224
 8.918174513689468, 11.014564215042693, 57.206653198097889,  4.042923336570461
12.670534540974275,  3.516983924979627, 115.247178103285975,  3.734195345623186
16.144993913273517, 11.152557590555658, 111.081076347290193,  3.947970186578200
 3.088042780374046, 19.112049882819871, 64.602902133670838,  4.274019140880779
12.564180204428142, 12.141731145024149, 30.494988554415819,  4.177267604462639
18.246955886319444,  1.079678633373567, 96.834059726125147,  3.949080762308838
 8.618053479319526, 12.385664918459765, 23.666776720309169,  3.636373056496224
16.306254570338979,  8.879848045935791, 87.272925454205946,  3.911223325330126
 9.035550006138653, 11.734750465665634, 117.559534178706016,  3.772149800173248
 3.402643080324580,  6.053036956114983, 115.903489047551233,  4.247956331801823
12.679954461755901, 12.455747088060802, 50.367817434149650,  4.034932410309133
12.359724162366566, 18.130436448126595, 46.027214257008929,  4.098663653958099
 5.968067834033669, 13.660569507595165, 32.101935369882874,  4.076117804602833
11.666764822998033,  0.412420680675629, 101.684890370850809,  4.178237313334067
 7.147205358082448,  1.311032337751433, 92.583915323276543,  4.001938454492625
17.238065609443904,  8.561253825084204, 36.380127412739014,  4.053729642643300
 4.474172878515826, 11.298274319434642,  8.481396723276260,  3.686380507294078
16.807999176098086, 12.574568862755667, 57.458902040945532,  3.826028558477639
12.798264413885175, 10.071423092674969, 16.715324017411270,  4.086877171950202
 0.166362970804354,  5.307927756127862, 64.707888911160111,  4.101025694792390
17.611518715381852,  2.204848221247788,  5.442670515815778,  4.244081795569322
14.051086211947238, 12.163046384024948, 86.313627296862336,  4.075687919272152
 4.236740400329328, 11.873678370854455,  2.082396803973749,  4.086074821661086
15.687196548036951,  6.376571449155776, 104.724515889596461,  4.157453064725396
 2.787487658107445,  0.810763064727809,  9.721077285306498,  3.920202353354918
15.683036424458583,  9.153270826365905,  1.984553860913466,  3.819495415482963
 8.560008842093994,  2.937601708984213, 77.815005210442905,  4.387731063268036
10.160551978473405, 12.016972315007511, 71.520340118973621,  4.169355477331567
14.102871652764499,  2.529170980414875, 104.304993379326390,  4.131995604788017
14.777428728493478,  6.102520475725755, 74.494388914454234,  3.997414033704219
 2.215655683621655, 13.912034353025522, 69.878207980313050,  4.078665623768420
 1.685834621918465,  6.370291929837883, 46.080520420138932,  3.858495070006695
 2.999378097970374, 17.633410502244111, 42.197029471254325,  4.124927280052798
 0.499370345005447,  6.527136269549450, 101.570170386465492,  4.316571469531735
14.432609942860591, 11.286706277925463, 79.964020640964577,  3.738180853029867
14.795223405462325, 17.162648565316729,  2.485202757608513,  4.002225543686288
11.229253238470823,  7.922279205976209, 101.017965387592554,  4.243908473343451
 6.600562366502398, 18.932644111673429, 41.135748140362807,  3.807719384583697
 1.628192085933476,  0.059027898115328, 83.209191546718273,  3.954754891743540
 8.766946317090973, 16.263736837463313,  9.123727133781108,  3.844520159758373
10.932641462586973,  0.485445236761677,  9.206724746053318,  3.973457267249886
 1.797840924856928,  8.492698498806419, 27.548905006890234,  3.907380230041988
15.103632335338878, 17.775694631267733, 72.047574160719577,  3.865940709659833
 2.332283985497113, 11.095635499504231, 102.826055166899565,  3.937278320497674
 0.499362504666035,  7.915720651749292, 16.365123640874124,  3.770761695625754
 4.966878164650892,  1.942980024922254, 101.582645729242259,  4.360028288229908
18.396779357676593, 12.021247344899924, 73.299445699068784,  4.161266887768138
 6.540190216056586, 18.656644975141276, 26.837911650993416,  4.008222388724604
 6.256688378181675,  8.957937906084394, 54.867515964295599,  3.844650178365161
11.749391182830294, 11.567283778895902, 107.395358288663715,  4.257633390118198
 9.095641675444615, 16.060818080563735, 64.688672838689143,  3.880111145147534
19.051142405295497, 17.545589618090524, 49.487753594273777,  4.031793078105818
12.216377711160963, 13.668245903137491, 23.066354087237130,  4.071126742898302
 9.367472894123653,  6.170123730343264, 34.257545008436182,  4.477043311425527
 7.270556933790358,  0.481295882919721, 96.456277937941820,  3.919019066219911
 3.297903803985438, 15.827671893283174, 76.530564104711587,  3.908035606150383
 4.744331710674635,  8.153431886302908, 91.709513191321307,  3.902845649748655
 1.605114886115590, 10.470957742503957, 42.840486964949633,  4.098626384677960
 4.728409165217273,  8.401328398490978, 104.260659274529033,  3.649401649780246
 3.290984176321750,  0.272938461973028, 97.309943431871858,  4.175820729304447
 1.286748831521544,  5.609745313896594, 86.620336870403122,  4.354808957989504
11.392313169666044, 19.047666133049667, 113.900551292376193,  4.102123100685504
11.527034594057415,  5.921076567244277, 12.312583722518333,  4.251242105727205
13.631943399271107,  6.939720306814454, 26.587904690517416,  3.893755116240406
14.031366559346875, 15.230732398873881, 33.037572906863858,  4.300721818457943
15.284013513623215,  6.479468660576629, 57.787355965477701,  3.574671211157404
 6.651828319237866, 13.624934193257305, 26.604851948226095,  3.849235813567010
 8.361518591405622, 15.583420899527333, 29.490502869165383,  3.855900272384543
 5.937992917901833, 18.953008553626049, 76.946338263636662,  3.697576696355994
17.557023047122524,  5.986393427329321, 48.563514896574254,  4.232549054153890
17.215114979133666, 12.147903642862589,  5.101969361040433,  4.110345992431694
12.854476879941595,  8.069504316230310, 85.578004635465575,  3.927302683604346
 1.956171491627505, 18.042020336955925, 56.485110722182569,  3.817652581925834
 7.048082682476259,  3.565716020062066, 45.720642064050537,  3.751680982481846
 6.292156668457968,  1.277321101020586, 62.134248083725879,  4.184096196374943
14.181788636839629,  3.113351546910277, 87.701068278455963,  4.052961899476080
 7.560456004389091, 14.861222009079732, 14.800525430116378,  4.300806685795433
14.788937600298638, 18.950486694793980,  8.189895048013373,  3.962032187398051
 3.679346888968139,  1.990282878864466, 86.410877984099159,  4.157099420098719
 8.564725307307242, 15.259685976013200,  5.314789158372212,  3.747584918546739
10.099691789931851, 16.733610891086393, 110.595295573826789,  4.147803229005728
16.222409602118795,  1.662240873356994, 15.598030539986230,  4.097074432010608
 3.591727091054678, 12.878512106848712, 63.030643649815751,  3.897740078393725
 6.382985569788934,  3.719299984116780, 41.862272778761522,  4.083218748482514
 6.849021296959930,  0.447020213687303, 80.816649764081447,  4.039491273516659
 0.867394245886670,  9.872352245145047, 22.907720566152712,  4.320993078234860
12.919948687716534,  3.453590349346951, 24.821671144130161,  4.033673156115029
17.382569245510478,  2.546812129445564,  9.488627617437899,  3.886925886579115
16.646739318317117, 15.222456233379706, 111.881661336449426,  4.130465204519842
14.858752970481872,  9.082734604025353, 68.444084530161234,  3.971460206210079
11.431025513642322,  5.722333418112059,  5.621146675584053,  4.048776435451856
 7.147967370154277,  9.556066232952659, 101.446919207101331,  4.090022772915851
 1.183457704135022, 16.589507048263091, 73.051624829551940,  4.272539594525617
 3.265775291739075, 10.988828049680585, 52.999935305692269,  4.243319317715915
18.515463739726673, 10.341724979792764, 93.793925083209658,  4.005011805790435
 5.002561408384055, 12.287014108632285, 110.715610739593714,  4.056427295094019
 9.947587973566067,  4.511497049338527, 82.965776729077646,  3.869815842836307
 5.448408894864828,  6.888207342782295, 27.848400560252404,  3.962785006610992
13.491780681815417, 14.734009041256680, 39.215067664012203,  4.010110358677374
 2.811280226447758,  5.947871100714858,  5.967959149499337,  4.235811499372032
 9.261761955069000,  9.362954889091640, 13.070390541816492,  4.006752857932158
 3.508217771652093,  0.381925609841927, 48.821320515728608,  4.043771019957159
 9.956410734530072,  0.207244677226650, 29.106583063719480,  4.207817163037515
12.919990200489616, 12.947217360281108, 117.435378845699347,  4.028854379018568
 8.522463754117473, 17.469336101670784, 90.198719937514809,  3.992784019466768
13.109408641328120, 18.246988120224380, 98.083818211599990,  3.966327801737028
15.425251038302177, 17.731751456046894, 42.693338413800831,  4.278789644637831
17.347663221960783, 17.389870974096343, 35.093156567808762,  4.070207718594499
 1.272086099059385,  6.024924819610439, 60.411053032661208,  4.141601855088320
14.552141333611319,  7.687864088494000, 78.252662295732094,  4.169605567722992
 6.278894267259130, 18.645630969275391, 30.847023906997055,  3.954556584648999
14.457571161726964,  3.235465472568097, 46.821874637915258,  3.908718912735357
 5.387154432836643,  3.293850529602705, 74.444696185872843,  4.458215666921385
 5.468689398268725,  3.524038930687459, 97.916903913119739,  3.632108574379498
16.347829806704681,  5.401729407916481, 85.043171703113870,  4.143159522148415
 6.425094506072795, 11.977492802059052, 97.128379292372301,  4.039603926759797
14.285600511558266, 14.800415364206003,  6.265989041320959,  4.064084192442402
 4.581401837955467,  3.816119383235545, 94.246980457486117,  3.858523936684472
18.809644997206220,  1.088441681886542, 42.896207815212001,  4.102978319028077
14.927375135008598, 10.485260545653693, 60.807862175426202,  4.336331322536363
 6.487163753422969, 14.802052544621290, 117.330702509277955,  4.186558319396193
 8.427246429854275,  2.117388574361366, 12.149347740517367,  4.415238284607479
19.005372775784156,  1.621265856130915, 79.801822780007356,  4.075686334456821
 3.468885533613863, 13.694447640169722, 85.752733217936282,  4.165041027043891
14.219216402891647,  2.579498901626665, 39.640696621630326,  4.018647564642772
11.595030861523380,  0.476719547350059, 106.816995703545430,  4.063306663524686
 3.825387619658529,  6.056315103777012, 38.305345119974675,  4.095023965443523
 4.607819920755332, 16.515351485839389, 82.866553441167866,  4.049104202540640
13.278125111124865,  3.043107182328115, 83.960282164617880,  3.597918730574484
17.272243273582230,  5.319572441209237, 80.370152951467361,  4.153627774826766
14.506679662297550,  2.036995295754906, 53.252468165881886,  4.001416615775322
 6.788018855363414,  4.426535570633300, 85.331443646497149,  4.013965731647406
 7.754518614704895,  8.001137361728739,  2.017728572392268,  3.945797699863853
12.658484069549685, 10.780949911200400, 89.968391027435956,  4.163500268058072
16.256483262968594, 14.432379943738002, 61.749472786415382,  4.094588864582271
 1.412739638251736, 11.552335495897621, 82.643379220006324,  3.948338628326053
 8.552044988306044, 14.431781312522618, 60.833842597301484,  3.984551316006361
 9.357072142400902,  1.765750357634954, 64.899643922101390,  4.109326991341797
 0.071353764540474, 17.484074853364479, 39.496334796649627,  3.847214180215754
10.654402054005823, 12.616441192619627, 114.060930307372828,  3.871432109123294
16.115864501552689, 14.096738787200984, 66.725846300959205,  3.778441192550479
12.434362519252140,  3.464845478891422, 32.702538044356935,  4.157979042151956
13.734557032940387,  5.886954192421185, 43.109207120078473,  4.008543105355762
 6.830903430946572, 10.440974459581579, 107.497812545046983,  4.030840382745569
 6.713336965130682,  4.313083225253574, 19.219913283168612,  3.922265713415876
 5.112587417279538, 12.338980528608559, 81.795995470591592,  3.789627338122339
14.021245049942078,  7.147192825162319, 19.184273902345762,  3.823589419110495
 3.084615790483952,  9.449179174134818, 79.665973152671469,  4.044317334063185
15.649107600141839, 11.136177874703101, 33.324492321780653,  4.402310900190134
17.796320455655785, 15.176493056184595, 88.445957004206434,  3.827808439710229
12.814983396602322, 16.536373541355829, 49.816104545864938,  4.025679871146815
18.813937512970735,  1.309203884247213, 62.363254458420620,  4.004513477473272
 9.792139130362381,  6.564198012273718, 25.929418821459297,  3.759982055056437
 3.476703830993081,  6.443916475961674, 53.574054169311829,  4.079227051213946
 6.642794111994761,  5.080429668492835, 103.799073787992597,  4.012962036287781
17.097011302084208,  5.434994498177301, 89.219880091723326,  3.906802451180598
 3.161920189498191, 13.023144665433772, 73.809132411771742,  3.835101659322686
 5.680858938073806,  5.638595670250229, 69.997917533144943,  4.028499477235171
10.240481146369357, 13.920792606825525, 91.434221557157827,  4.116898320691580
 1.519242325148656, 14.764788917890945, 51.911916601322950,  3.808560356960088
 2.100025488069731, 15.088034982222522, 110.916171350561783,  3.876621822656208
14.562398401048956,  3.810646153659281, 21.142417743816232,  3.981104893584084
 1.803680380138622, 13.572865831232955, 92.830492166528714,  4.227373380681551
13.433005733718122, 17.238622164253339, 20.064738919344652,  4.115681623134144
11.662561890773112,  1.287684705620858, 21.803669707368698,  3.709555625432468
 7.545869546414192,  9.234647687812588, 70.136234790550517,  3.767106038372817
16.241072264907967, 10.448775856293887, 98.390503967558004,  4.019440068582084
 6.259764222575990, 17.323804014636075, 86.666217632752833,  4.355777124895991
 9.993245985762169,  3.131613071357189, 15.953094165493331,  4.035130962364359
18.919056680666316, 18.540209293733639, 117.405725943541583,  4.089001862333820
12.296229514053969,  4.892963641910720, 71.835917293918413,  3.607795433301193
 3.480522165021114,  2.990469415119879, 67.602115396207864,  4.177115413381319
16.739158145314107, 16.889276071973960, 98.162603847674177,  3.760318734212984
 0.141184251084220,  4.993580107548977, 69.100909622807322,  4.032630348207833
 2.811083613767722,  7.738440704774344,  2.151955181343401,  4.140272256775458
 2.926515151606839,  9.105969404894461, 107.746331131622725,  4.191721269268126
16.605889296162466,  7.148612389858386, 22.199640319751410,  4.113876933905002
10.932839103828355, 14.293631435082533, 46.878276071878595,  4.206682000560363
11.416241863643164, 10.102068233404095, 20.635040542488319,  4.091844746581364
 9.929502408546114,  4.806178309225903, 43.431935018181186,  3.920217590105846
13.653964514493348, 13.584786691748009, 97.560692465573140,  4.117365350933022
12.749863790997738, 17.448264631658315, 24.320757007738596,  3.931344102599316
12.451986635047213, 15.554725421213005, 60.651093796389375,  4.136037008919048
16.755058538270994, 11.686015326908542, 90.216332406580406,  4.181091250654789
10.192346710073693, 17.426286372162892, 57.599605064431785,  4.171463330644706
 5.189605392593798,  4.273693102776680,  9.006728660434042,  3.986979648357157
10.901913385855275, 17.776272706832039, 16.810583357415691,  3.849223457232261
18.948969888580880,  5.306497854560080, 113.916345540418178,  4.033615249070357
 9.929482827971768,  8.971128938398442, 114.534140436580728,  3.577733771501939
15.182311224220614, 11.013316166243948, 39.441285694436480,  4.062668321024844
16.913631077348796,  1.967348998977474, 49.871716824618019,  4.206519166531317
 6.388529721782538,  4.464957314020223, 55.568530755357017,  4.000578945720602
 1.226293981299613, 19.107057266988779, 21.198709373543423,  4.227022541538921
 6.184856750762189, 11.403009593241592, 67.181503555963772,  4.045736341947097
 0.334309436286380, 12.486086849802025, 99.696579995682981,  3.899077336720717
16.610403993990630,  3.423470075469538, 56.247992619660089,  3.751155994496155
 1.416172463056160,  5.976414486107369, 24.329501684093650,  4.024390660137844
14.773350981585452,  6.919882799720947, 39.282476301092260,  4.121921036598143
13.976010426815270, 17.197452062743071, 104.076857616021442,  3.933943464733542
 3.839565642931800, 13.779877682465578, 114.363435643189931,  3.996634955314465
 8.929008298816285,  3.749965497855873, 106.919869587227424,  3.721870725983662
 7.261235824614486, 18.960688435700341, 15.548919049767177,  4.029955012583995
 9.983086847690982,  8.869987696468359, 37.307410063210142,  3.730532105990196
 2.458950528724150,  9.577508037776008, 75.323077914255293,  3.790609801603058
 8.242228217674857,  7.837117758933244, 18.927024649799083,  3.701175928304542
 6.567616733711122, 17.628762631989357, 11.935302945207274,  3.646346324333876
13.342387463874555, 18.730381924591214, 91.543580527175109,  4.136372810195213
16.058230379401035,  0.594246336345129, 101.064401367265987,  4.323536422982896
12.475977963469237, 16.001380065155011, 28.940960056441874,  4.101265818162215
16.790847000483438, 17.475440725003956, 64.502766380613451,  4.117251932660985
17.150719711076739, 18.982991898800748, 57.009107680524011,  3.528455150792431
11.733364627068816, 13.974472327428700, 15.556970422767842,  4.321998969124263
 2.683706944936812, 15.596885267603234,  2.748926758971481,  3.865816616695053
 6.972785168417222, 12.691784273548386, 53.847616414473464,  4.007223955394249
18.110326541444419, 16.098248916741621, 54.678713984894941,  4.132154401511293
16.002077455739851,  0.782754217643816, 23.646333046824203,  4.287809260355152
10.641584138586779,  0.638399730804149, 94.427751759136271,  3.945638309736585
15.121247909127375,  9.552546288677018, 72.429653441245591,  4.046567833240244
14.329406876351715, 14.293510848066228, 12.282829358921754,  4.058150833831250
 5.353509300024559,  4.444004529956672, 90.421197234495168,  4.039765111266584
 3.019694823085887,  6.958112399740448, 30.849837435022824,  3.736881474273456
 8.316312826244975,  2.850655370498855, 31.809633401412498,  4.022642655511466
 3.185251634180060,  6.525923592988673, 73.018601033477779,  3.826919313339114
 0.711819821004296,  2.681125943483578, 47.131812369230424,  3.910426431411458
 6.971548849430129,  8.396563320262130,  8.468648578066679,  3.666607238988916
18.161722679461811,  7.730348754010656, 76.054778628763657,  4.033681829080231
11.857082560458869,  1.249589263495811, 75.611901109992573,  3.885997576616409
 7.457883731940022, 18.481400228449012, 115.330881725729526,  4.000761825773578
 3.209679362889772, 14.309910357923505, 44.562687496715832,  4.021863048784329
 9.449084141906555,  7.641506123665900, 109.060788551426697,  4.201972309585551
17.174165299776963,  8.940077680133991, 25.972450737183948,  4.152224687364590
 1.755337999510726,  3.189708835380325,  3.046467129560976,  4.051268214239340
11.085651013121360,  9.087229679310553, 28.445813347077046,  3.694060830916427
13.348614142087301,  3.946587402551521, 100.398384924758645,  3.939945502554150
15.209217090249590,  7.984040867997052,  9.557360036116698,  4.136132146358127
12.401187640379321, 15.193027781454921, 67.101216883233761,  3.970878958360863
10.494252469657305,  2.192368574839457, 98.146337118311351,  4.069509283526115
18.452011109277180, 12.790645430918980, 105.035096282537936,  3.917946820141722
12.278170350282092, 15.305075450528021, 101.016697013012887,  3.974514136895567
 9.147228842032648, 10.813138030515226, 51.131078223767027,  3.826661721560013
13.357933333813904, 18.901762587629353, 31.502887278905384,  3.764405917849708
 2.415362029254176,  1.899598011177220, 39.884660825132293,  4.105617492445933
 8.175441429291096,  6.282456565997830, 48.480154796862202,  3.926401177198075
15.384823506024327,  3.772387737923705, 29.950171529932991,  3.844562831329477
 1.859915979860774, 19.029419926367172, 103.847508704974672,  4.105494114142782
17.238494349606299, 17.277472557316937,  5.587161924860219,  3.752830493927136
 9.338768294646226, 14.809922313230055, 51.153425909968476,  4.169459357953690
 5.945762879850685,  6.513643347776560, 107.396864660458917,  3.788173016631925
 5.531639458434387,  7.608684203246908, 41.517000955120402,  3.688026003350170
 0.169424232500891,  8.441629408635883, 110.941157092886783,  4.313084062551754
16.778571805174924,  4.662238474058229, 25.501415172787958,  4.088465623875666
17.914391476121640, 12.142953686746282, 53.748995204052612,  3.942357254140208
 2.511290466961185,  2.771862852544665, 71.496064961221109,  3.793753900200667
15.792595193785347,  3.194384184939879, 64.176389850789846,  3.828019048956124
11.354230527907093, 11.137561532422504, 67.509646752455978,  4.361520920925800
17.663181431154534,  5.299117216817508,  1.963658619637897,  3.907613298224644
17.954824045734206,  0.980557108989977, 28.735484572977679,  3.847925004994606
 7.951775192291902, 18.601082492574815, 100.250635249686880,  3.813290253452473
12.270281861865030,  1.039938492980129, 70.378238074896728,  4.128199689924849
17.215792989930645,  0.965893955980091, 91.820141840024888,  3.801191350395461
 3.392509339842213, 10.482471667866985, 94.943278213294263,  3.900199781989814
 3.236859577020375,  3.664198675971274, 62.967877279480447,  3.684820648144621
 1.798640034127069, 18.739509459430302,  5.957458707830678,  4.159744080088418
 6.072447251466270,  1.759144123265376, 70.655303758586371,  3.785144551223566
11.021779556499121, 10.390279922344224, 78.158883953232575,  4.089769184618949
 9.051074143274736,  0.958877241009485, 43.826617177511764,  3.786494953780950
15.554602100012380,  6.689366354587269, 65.522700296897114,  3.571662831210193
18.270993824735239,  1.613153215040177, 37.383988585416994,  4.096322521400637
11.283581276995530, 12.448240480503522,  4.838374929708599,  4.048223267251429
12.918238988638528, 13.700768394322024, 110.916309371294545,  4.113319700285053
15.461323431312550, 18.182972100777445, 12.107697429359321,  3.961656741790485
13.389114717820361,  1.137997688719919, 57.281192767547203,  4.371378180629621
 5.424251289566446,  6.492973657282429, 61.213058091833993,  3.956877162239404
 3.515656999572826, 14.893506647624788, 59.428769731486327,  4.304248668640336
 5.534347422691557,  4.541370224138348,  2.117190148435834,  4.171322594014306
 8.587024584996673,  7.522911776069650, 87.402271376665496,  4.173832885188254
 5.595981406172445, 16.355110830742650, 62.754553586439513,  4.022830015131989
12.569941477638142, 12.283934468172200, 36.014354319024676,  4.085723606375036
 5.078621105768817,  2.517317561919927, 106.960744396828900,  4.244961482968132
 0.345968516005483, 12.136630255169573, 60.488489581300939,  4.171789094549432
 1.359481647702760, 12.484956350179127, 88.904376231021629,  3.768639528106406
15.662111834543495,  3.043154208937769, 108.069223294319428,  4.042186748026333
 5.620199067330374, 17.693137304029030,  5.056680536636344,  3.892159888158486
 3.155978977454746,  9.432731927842202, 60.216963109278808,  3.595796630740873
18.475641663071027,  0.470193238549006, 70.699418395852106,  4.133651891412299
18.714743689683612, 16.882824063726730, 78.021261255453837,  4.330458677876387
 5.214831922971507,  5.043866857883589, 34.565597697953088,  4.115817493854605
16.232921994012294, 17.240332428042176, 81.367508187958094,  4.000793630077126
15.276166185349634,  1.899015955721443, 80.814947554423995,  3.566552348488898
 3.142678706507714,  7.085322056841170, 13.688168698521041,  3.705008271876121
 8.326896868758739,  4.944652628829347, 100.144802495452723,  3.988366030525256
11.794563053970679,  5.011893653983655, 64.521600301940637,  3.818226916932002
16.715849623718849, 15.112697931225730, 92.537514110201528,  3.946424512198588
 8.093666793349886,  7.183543248492560, 58.221683679472321,  3.949904742492546
 8.620986635590604,  4.186561432221413, 23.204951835679203,  3.817319857944209
 9.311152753191596,  7.271992183234480, 67.067610432877160,  4.299226116031516
 6.628004793716364,  8.617728477802499, 117.418381782825236,  4.078334135332925
14.257850818247062,  2.659162680926478, 96.114850221517898,  4.400931609941756
 9.419671345153221, 12.964138665441997, 80.925476269405053,  4.111560831138294
 8.427763298090497,  8.256365718231690, 22.742150413249885,  3.926982005489541
 2.103731644723844,  7.392552301033787, 49.893117249272130,  3.991531946647591
17.066840923309723,  4.895926320373241, 18.130381992515293,  3.991547854405904
 9.293621781864388,  2.558022143759245, 72.812754165157472,  4.127048066343255
 1.354665407295817,  9.078413473318165, 117.577594147009449,  3.765433915443391
13.887454686664830, 14.939250098108051, 89.573454358279648,  4.227017014340496
11.695830649569499, 10.168503569771667, 47.111786966517755,  4.139084968259263
16.763168220408442, 18.997276984651151, 46.415539595817279,  3.829784893852593
 6.812677902540269, 14.097975059506082, 46.498831805412884,  4.016098309309717
 0.412456955481478,  7.690009640757927, 39.497067003526510,  3.834981289326380
12.938491620586621, 12.606671136728197, 57.891907185484712,  3.895115375663210
18.018621087249588,  8.797587264282937, 58.725944190819767,  3.822416884913078
 4.298660527387423,  4.428385379484744, 48.264333295886694,  3.896823061618535
12.348055740119825,  8.850980453257803, 64.190249909082354,  3.937371105825520
11.650259190370111,  9.243693615140169,  2.135906297035110,  4.232535821660825
13.083760704773459,  5.503287030669685, 68.162260539427919,  3.950956899313605
 9.659636938613689, 17.078391251434049, 21.673860156541419,  3.970679682565204
 7.585766445120250,  1.800392328270673, 88.357640580256970,  4.013227360014613
15.913262865345811, 15.307676426732490, 22.671639471537183,  3.981759165544132
17.757577424087913, 16.564184072949313, 103.282295066186791,  3.848174787991366
 3.901797818958176,  0.580763010739409, 117.299925988367605,  4.265403295012249
12.286542670278310, 15.643551373963312, 107.358853875870807,  3.954350332594049
 7.224876899537642, 17.171583517131459, 70.381957060985926,  3.956545831403728
16.950505667033521, 10.600036837214184, 102.224414923702170,  3.778419563257295
 9.636444244550981,  2.273074586495184, 35.405751933734479,  3.661731294416959
10.649778139264587, 17.227648693056558, 12.687056805800269,  4.423747014794050
 7.884844031203281,  6.029929659902244, 38.888497287332719,  3.989734969627434
11.598193202148275,  9.032741758422844, 93.504189729505512,  3.995821538455560
18.958130624423401, 18.399755226308841, 110.654625298628829,  4.092639265868974
 2.719739062600886,  2.683034658487302, 55.178052845799478,  4.176517080705330
 4.801451111841540,  2.386126021615678,  5.514630070486690,  3.947718338616079
 0.222110859746892, 17.718692248636284, 16.113097220124654,  4.004978560608945
 8.889635894649317,  1.040879752349758, 19.166775819231145,  3.934764325654041
16.767265786658744, 12.352304187230526, 43.857698225520686,  4.184941076339371
 7.263419342461173,  9.693298323925314, 79.922018147518457,  3.964225681154619
15.091774617540070,  9.174289660877582, 29.392645183628133,  3.847539263496413
 4.449244543538809,  9.808239955813889, 24.982935039525490,  3.919800738294674
 2.751921645192025,  1.684551391271207, 35.363548820499474,  4.111116781754077
 0.916106918733535, 19.103000305628971, 32.011915397434819,  4.078803643158772
 9.838210867427611,  2.510065604837009, 40.220841232661627,  3.934393772909365
12.470937348802238,  5.416171782915342, 107.137536899315847,  4.104115935050187
 8.040801199181397,  9.889038541081641, 26.354364919499961,  3.742723769449861
 3.553289749624681,  9.710030780550738, 70.469063233227246,  4.234535620791283
 5.708056148756056, 16.012568017712269, 97.208608503809444,  3.950175591271190
 3.099426796705495,  7.084010121271091, 67.211721710362198,  4.055955591528845
18.988580719943180, 13.077023295327768, 64.381476204074133,  3.883594914626452
 7.528265424131483,  6.129928624160308, 11.658064945218648,  3.842689327337619
 8.560144989325872, 10.330809247998486, 90.430483619253593,  4.051559617822604
 0.498431341683064, 12.540347886030393, 77.178245100892639,  4.030853094328976
 9.401482236416982, 16.758556810130969, 82.295862961192938,  3.917586761874767
17.226198639841780, 14.271866122589133, 40.358489184404014,  3.808748501583170
16.080644050076899,  3.568450015265602, 60.173876082564192,  4.110590592173551
11.272643769735973, 11.524878263310580, 39.721790236835311,  3.832522678617899
 4.331527877095293,  7.308504875808276, 83.632424368639690,  4.184070497119283
 9.573269909876068, 17.932138625543836, 77.887990697421813,  4.065724609755373
 4.354635354008145,  2.931047406601760, 78.557027535012779,  3.907657075607599
13.049586945658648, 10.320813461975824, 12.774657349248269,  3.802347800700603
 0.502622936543881,  3.755555786819277, 83.129989544830210,  3.688798811420459
14.363428207645439, 13.174761365832010, 19.179141967186595,  4.394273862739514
 1.678386682812654,  7.000281878520819, 93.928067140576758,  3.999157582962737
 1.703390535219546, 13.223886342480997, 10.630044838948630,  4.278680289812254
 1.702506321166211,  4.183866860859950, 96.993219034415944,  4.105799835046525
 8.312502412371375, 16.593402985747169, 94.072410145302371,  3.907907518871381
17.751099272924804,  4.238538358813897, 94.080640901572053,  4.199784041962668
 6.103084110806448, 13.889751214221008, 10.975802576798671,  4.073458171870990
10.218144168935378, 13.808700156798581, 19.454986909021574,  4.000056030551637
 6.694110012648822, 10.792160348284474, 61.017366722634982,  3.997961166955676
 6.626163281832861, 15.242525211775703, 42.661152499310795,  3.923965879612007
 3.643773560783317, 18.072997304514463, 24.248177881231474,  3.704462556367447
17.965169150836481,  9.010631850202332, 114.687583713150190,  3.629692006527649
13.864348224383640, 18.282874852407559, 110.780649161431811,  4.000654449876579
 1.310368829997123, 14.872367059075270, 36.558502463508134,  4.335506071823020
14.505364071208923,  3.704528377822788, 91.607251683730837,  3.801956809289828
11.544851420513167, 17.697759855270423,  5.737581320152169,  3.965738947810416
14.716498852421713,  2.363109218369638, 73.236765909663760,  3.845368018582908
 3.023776489371391, 14.302392903473031, 25.160095139601236,  4.007566793759715
 3.111810885704522,  7.776403739555497,  9.771545696659597,  4.207841325604245
17.596913107712616, 13.517012263318364, 80.591916423783388,  4.041651983676037
10.488736654646967, 14.139165011981527, 55.229893439489544,  3.937765229164716
 0.449322374615470,  2.293752420008619, 58.541520329949385,  3.965666942070392
11.512698329540116,  6.012614842971885, 112.421000974263691,  4.138382367523648
 9.192724974875334,  3.423467059112530, 68.829321644621004,  3.976060561230705
 8.844082448015467,  6.484352614736974, 30.113939647077771,  3.809778202196567
 7.140202647712631, 15.897697377308109, 35.336739970059384,  4.078439559223248
13.554294909404705,  3.885561130638325,  9.094357194606408,  4.213678734734986
 8.869021150348395, 11.892603751389176, 75.272869472285393,  3.693236232361604
10.926989012141721,  2.304376010986331, 110.467586323471124,  4.176413402765491
 5.307419414715493, 10.101965610345086, 12.423757806219250,  4.092876001375730
 7.486000303217927,  9.470693147915691, 94.201450139563150,  3.914374618176449
 0.384276948504605, 17.001179770191641, 95.082155453458896,  3.748591623500186
 7.402264315380002, 14.104531700075324, 84.306569286498814,  3.849867963814057
 9.274830402441467,  8.763750206324271, 44.088825664556076,  4.075136523346967
 0.737977299748900, 13.809051651772080, 16.924244473841064,  4.032280949721370
 6.795374202815394,  0.645981774284463, 22.557625971401521,  4.041082207367342
 6.099853248174891, 10.558554728759132, 85.447074992190338,  4.005883407568348
10.475547411475938,  3.942878799567981, 86.722988439119106,  3.777694611146750
 4.114002016318318, 11.602105004577732, 117.555439276093523,  3.705524155543804
14.174678762955377, 13.202180673907311, 70.398447611941023,  4.488816241443417
17.713912236579294, 13.573847589092130, 96.172038611415147,  4.148906514574712
12.687735347194627, 17.871244735793177, 64.096077439776820,  4.099409830458769
 0.392097049002953, 12.142584866247470, 108.879240943968554,  4.028667353233431
15.912409936843670, 17.764125544735812, 51.861403695613767,  3.745406019325938
16.228991855462898,  6.815398042799101, 32.508510284449272,  4.184229204269552
14.251287625247503, 13.815350177126589, 53.925689414997684,  4.013336607554438
 6.805682377966803, 15.683163043403722,  1.930845799612649,  3.846960530702389
10.811543092544094, 15.465429386108577,  2.083642075241351,  4.130284603549129
 5.050851747116675, 15.451303741180153, 66.795616301714546,  4.296753063457001
 5.398512277586296,  9.274440390903456,  5.046614537641243,  4.065489086279506
 0.276577680607562, 16.457026500028327, 28.416726521357749,  3.930035851705529
15.366732851244345, 11.045257192156727, 22.750511865478838,  4.131450127054275
18.735881330443785,  7.628024671513367, 11.898092501434553,  3.939672031055032
 0.915916779544946, 16.136447116917953, 66.702396464388983,  4.018180509044152
 9.693912484409875, 12.725706461777827, 43.216854589342518,  4.071161815401949
 0.407637116315583, 15.440000809233622, 83.584653736405656,  3.904981836408624
 2.185360809975388, 11.094152174191176, 66.858326746382247,  3.932566780353646
 9.812918426367908,  1.923344229097131, 54.627366437073618,  4.423115140262396
 9.202329981550262,  1.933928285639508,  5.654851952497332,  4.189571537258988
10.553295140231377, 12.974590250640007, 26.970557811034347,  4.008294540144004
12.487120225560453,  6.714512464366794, 22.691711981384064,  3.703967461347784
 6.843309344102392, 11.179803345025864, 114.331728976347236,  3.890302305515622
11.796549540952304,  9.323942857361557, 117.668201971601022,  3.550873182811147
 9.954920049667967, 18.201094206292083, 67.769032261448729,  3.785724959114258
 2.297282658603788, 14.935917340184355, 103.671493474912424,  3.853837439345525
10.119731275272878, 12.411070587507874, 95.309249809386969,  4.187222381886987
 6.221970763779927, 17.193910205039781, 50.542356483566842,  3.749594708467850
 0.416479164476244, 12.146495713311397, 112.989679399710980,  4.035801953050802
 4.201607605673318, 15.713278397163322, 28.989861717639023,  4.122182453048699
18.438608772048838,  4.471896938409194, 73.272928776723816,  4.229574937811424
12.272356060049937,  8.723522875437062, 57.569246511836894,  3.930848679404382
 0.252288189445110,  7.982882118467369, 97.614295506939271,  4.067255721845227
 1.349256879182235,  4.279961463988325, 90.989764122809206,  4.016679721952009
 2.475531535324154, 14.106096490909831, 96.718437314162529,  3.553664516046965
12.283128924123877,  6.511823151109618, 89.434261611810584,  4.447749571416272
15.232235040332062,  4.281457241108070, 35.899328988762321,  4.444062976977523
 8.645748532309581,  8.255634322542543, 63.191401446920068,  3.675100063498284
 6.993635129664968,  6.608552794590378, 113.882885046204407,  4.065200669498620
13.313959662392678, 11.852801040097727,  9.085862042644862,  4.177314853749156
13.086917567672625, 13.896393768838630, 82.659688965002175,  4.154815958458632
 0.327870248179315, 10.955872338908407,  1.958681831588392,  3.808480153696590
 7.100507223544146,  1.922331658727785, 49.297491994121970,  3.761732144824980
12.695224942424494,  4.009770228913344, 78.844037245569254,  4.073129147811735
 3.594834636926798,  9.667867265205835, 99.316724258566666,  4.026213660383735
 8.340911002783765, 11.960612557110345,  2.061861783472196,  4.044058322048089
 1.816112602015666, 13.454713618617193, 55.942921776152929,  3.915598716283938
16.299904952724269,  3.301692017396278, 76.927055900324177,  4.022165619001442
 6.168807254027740, 13.188186186137061, 92.833467116775779,  4.433896004798609
 8.853593065855408,  0.994832843366376, 84.550218453648057,  4.112906647754791
 6.568430532328638, 14.919760722605954, 74.605830572190101,  3.854541784445748
13.612469423621603, 18.705970294660546, 117.425689179921690,  4.012642610401498
17.992099897209478, 11.599624691252700, 69.155685327491710,  4.081166964816865
 2.156364025804385,  4.512261130936831, 27.982809917705186,  3.925582550019276
 4.975885104410641, 10.798194721799959, 28.805991007072699,  4.000763378350871
 0.056220545249119,  4.481724552818245, 14.690918116169444,  3.889912447503127
 9.497703941264591, 15.087816094066433, 39.891405308003449,  4.055146392986749
 7.229972267743727,  0.431855299400030, 111.348098981019163,  3.944296828530920
19.025310537471952,  8.860885452747681, 104.997520432488145,  3.907052813166448
 6.388381075817287,  8.953944056594946, 32.375163129399866,  4.482544575940348
 6.526500066520051,  0.553159821021668, 34.501179505062133,  3.639853984187302
10.438835935590884,  7.011305016181648, 16.025043870556459,  3.757014338549085
19.081415566279311,  0.851650617852265, 12.709969706184715,  4.135660316431947
 6.465058359276223, 15.490784978329474, 79.267001243466723,  4.294641119206359
12.623415241176694, 16.136659245856805,  9.407191002563081,  3.447539715045042
 8.258069519253974, 17.211451311516605, 54.146635501056288,  3.750976159063034
 1.751226165436235,  3.247861666569578, 51.128821799618301,  4.068773001689757
 5.689593796909121, 17.261176528056019, 103.615479420478763,  4.314683985474130
15.997724807934821,  2.863886015869011, 117.410421287553149,  3.916642634546983
 8.679180445756215,  6.573341136138624, 72.741499112727880,  3.972691490495675
 9.049890207662932,  3.193802082178007, 113.958147700915774,  3.853175907073061
17.241965675137468, 16.143391791679910, 19.021895349086225,  3.815043585559536
 3.030840011361570, 11.164068840185326, 32.064287647910739,  3.579537023631232
18.271838313658776,  3.113534921978996, 103.943338193978505,  4.192911768737774
 9.824801729447529, 15.833706807771636, 97.783542958543563,  4.185331521889156
17.542506668691715,  4.730453952903541, 44.551569573208347,  4.019046689440207
 0.895759548879827,  1.395878119231662, 113.938232575231453,  3.966672327893845
14.076744393987152,  0.635254928130370, 27.605195606886312,  4.188578692136919
14.934880191552422,  2.872409323903959, 112.105755815266534,  4.102646648864989
13.837836657790055,  6.214081104630806, 117.579084883824081,  3.633550494888467
 9.569468003703665,  6.694477712844221, 54.001661727192548,  4.337555376518325
13.310797207989554, 14.286904114845427, 43.168436769903181,  3.798390866362428
 6.671173165719817,  3.884333557165569, 117.379628134194704,  4.122934498002352
 9.154638693341335, 17.773561933055007, 73.886513189939521,  3.960513774221291
 7.594723351649891, 10.266025579315496, 47.516259041109898,  4.034359460637329
 9.772744447704374, 11.959866640089224, 99.378679852287604,  4.027308909062482
 1.958797903981088, 11.176384385567790,  5.607132592552774,  3.757742726311161
13.467881567597484,  2.221827975676707,  5.265255494584595,  3.952072993849908
 6.283272690292163,  4.966057973641356, 65.153483420736507,  4.220490551235848
 0.045810500652952, 13.553263061211767, 47.009075484929134,  4.062588312784355
15.470674914297229, 18.072703570301801, 38.558213580276075,  3.842601155363949
 5.776755776795573, 11.138327541476805, 43.504616518803488,  4.397195554170275
18.426538860585751,  8.292443746581380, 67.119848371665995,  3.733510329245707
15.874823904311194,  9.176569706128372, 55.244262676309717,  3.831551795793061
 2.810661344322303,  0.481609389392396, 28.336801792581831,  4.137828186340573
 8.452997620337309, 14.141744874204258, 107.244346340031782,  4.002616323688405
 4.244256657830533,  2.985716384492859, 82.520942239528779,  3.936945890026943
16.988249948286331, 13.773008427224136,  9.126258915760062,  3.967844642827773
11.020428136035196,  7.499841587554450, 40.748742583268722,  3.856987276066393
 4.215997414539401, 16.442640147142193,  8.513445116422560,  3.930938053785776
 1.011429709366588, 14.787708994763422,  6.763540292508449,  4.054554544872978
 4.321640659151165,  3.145858002734156, 31.055276745957642,  3.968962482624716
 9.770325731090537, 18.863715456634239, 51.018699754852335,  3.917347483221533
16.683274701960489,  0.851836717273096, 19.532376186198885,  3.974429449931295
 0.563997471274451,  1.859216825697615, 25.237509515063270,  3.932807709434578
 1.007545352455399,  6.759057792475393, 20.072713411595814,  4.046750902553341
 4.469237739237792,  2.595399845013113, 25.263694053190115,  4.012447994608247
 3.583035330615070,  2.017287233506679, 44.363188627060651,  4.128493979437745
17.687235646984330,  6.455458214423305, 117.494865869692887,  3.847270514180067
19.010859920637770, 11.428227303641751, 38.503234187704102,  3.855454448380985
 6.212468089491039,  8.769549799058838, 36.555713226025041,  3.892916656427845
 0.485389248207846, 16.034796376614526, 114.420857869663863,  3.806975877601182
12.337243070867506, 15.980379293746742, 94.470091413249165,  4.094333645227189
13.527685990948960, 15.665456932733917, 114.455214852880133,  3.973030649416784
 0.395149805617008,  4.080404638156476, 31.678898178389773,  4.172559930848190
15.481552400825986,  2.077891531839035,  1.874198708414850,  3.733594380771844
 6.353745672202366,  0.203663199461767, 67.080365586018303,  3.844932602177405
18.995501351547183,  8.253937972108213, 71.666798437398327,  4.011885412955274
 2.160853649793402, 10.460966589216993, 18.886622146416673,  4.051625496723555
15.910433923328254,  4.860407345290014, 12.431407131292966,  4.020414334916050
14.373419877513571, 12.932627121954631,  2.107878425174167,  4.168258292961180
16.084180604699434, 18.135914239868359, 107.375962445222427,  4.087714223720414
10.343946889582634, 10.207194065975665, 33.349824823116528,  3.992759658082615
 0.554676350157985, 10.987240552592937, 13.954937271547893,  4.004576061724526
13.147027725954400, 10.181210107160823, 43.113248037932969,  4.361874245549717
11.865454770658566,  5.188457692875708, 93.864640590698968,  3.742482400538018
11.684839244944950,  9.905891160628059, 82.283199914765817,  3.963559131196045
 2.060784535684716, 13.942777577097822, 40.704708545355437,  4.035140972531026
11.687061104727391,  4.113685950427105, 28.633740226380404,  3.922068233352333
 3.713836460771931, 13.334782561597198, 14.165630142963222,  3.787302798263605
 3.186226018837637, 18.409753495249397, 79.606203404517530,  3.998380472301112
12.971887008872995, 18.218506058190926, 83.794607940315530,  4.197803911122700
 4.211236667658443, 13.662804017028311, 100.212439464740726,  4.233184441842082
17.644411341386299, 15.659503052501043, 69.954388445161072,  3.957266394103068
16.885379542080067, 14.235474412377357, 50.483440905213186,  4.040128168874739
 8.757150912243290, 11.139567584057239, 16.751302746597450,  4.089492830654157
14.164727092777023,  4.850259769353146, 50.439230554944032,  3.839798673566768
10.777203361143759, 14.234935616154798, 77.500092684931914,  3.646729183414533
15.541344083198132,  9.667051891727965, 117.517840602298463,  3.868177757562151
19.074452258849529, 16.984153299439704, 24.468484357398854,  3.970290740074846
 6.034517248599520,  2.500567496233900, 37.897907704627599,  4.206298938591122
 6.616399802777274,  5.668585017350933, 80.465078254510374,  4.126367103882889
 1.319475973393533, 18.085939805789476, 45.879636133839732,  3.747246784777294
 1.604790730750315,  1.355063317499539, 93.765889999516830,  3.907007526415186
10.644732087752276,  4.579694469111669, 103.465046296340049,  4.059152070431450
 8.894048837421956, 12.071775408941246, 64.193058377057554,  4.105920456879386
 0.630185620433365,  9.268777240737817, 63.609517405374980,  3.940288009586729
 7.557642504537463, 14.969992946734134, 113.342391244684038,  4.028719991957923
 3.682029604080186, 17.819867942498302, 107.173703544290490,  3.851762276135680
 0.106612921058601,  8.524884323875039, 53.282139034594813,  3.773129648487493
15.583327870965697, 18.486980673612081, 60.550023729683637,  4.255611468741269
16.129976715176305, 15.571942235762679, 117.470048443688327,  3.968231875675330
16.152043008458929, 12.299710034047342, 15.407246460854189,  3.999307273415435
18.158708625743738, 12.995380742032035, 25.237829621005254,  4.255117265456953
 9.690334330722536,  4.319403991768191,  2.101399764777198,  4.126342458986937
12.713975230095604, 16.744676220094913, 74.902688122596473,  3.652508636403808
12.406437282119128,  7.284097302890603, 31.480838621618950,  3.774838921679677
 4.953421947133087,  7.113107318866284, 96.453254599268433,  4.089550499794185
 3.617978025852003, 10.233702327074276, 39.279409465671279,  4.094767539364559
 0.164367465345822,  7.755430283113488, 83.185213937094943,  4.042191391988864
 8.600597028191023, 17.641443106287536, 47.435092070281087,  3.957148047542302
17.033565386097212,  8.348029165195598, 42.598150317003217,  4.226559326837910
 4.873058212156444, 18.406653939999853, 73.318332401717072,  3.830754762391251
18.569451715877953,  6.081520489783735,  8.295982392279054,  3.835504176870175
12.802116223208939,  1.995182057754181, 43.331095944408162,  3.961589843293147
 6.056421879927833, 12.764140420053348, 104.061352378447225,  4.353230713133311
12.983434099528056, 12.829813291614867, 63.815253870343497,  4.151884865802765
15.337573351226638,  7.376158007484421, 100.811086646200209,  3.945958710729141
 2.304868679338804,  0.784996681762824, 75.886436635092224,  3.994637183258947
15.777695556599202,  9.768763292631510, 107.250763399040082,  4.171876910147263
11.107651815705511,  5.022479588985303, 75.363830270584771,  3.817150299322429
15.269559655632492, 15.160525365844855, 46.714990217251717,  4.327876396097572
10.404121114486546, 16.130782474198657, 117.003467092444339,  4.101237386769163
13.030394802581819,  1.653231962130147, 18.108277665320166,  3.937153961205704
15.642425394118099, 18.146999784905866, 94.732306010249076,  3.808407732749813
 5.626933033134429,  8.400126243911643, 110.663332377904197,  3.780340883218454
18.377870692202489,  1.093946561206992, 53.626534962741978,  4.000962777845176
15.482305564538423, 18.397031282891021, 88.009384188022736,  3.963866942561284
16.552933200405633, 10.992580208453807, 11.730308885616955,  3.628190079119361
 7.328779796163871,  4.358522359527349, 110.465638613422087,  4.099664378072446
 4.467810577170286,  3.241510915697244, 58.946770560014770,  4.145511732554613
18.854078627423455, 15.687721305944688, 43.469408166652627,  3.717293695112873
 4.930704791872799, 11.495485098790077, 57.520819278642897,  3.958005651627289
11.981722021008139, 18.265843604260620, 40.357947887598520,  3.974997827600589
 1.685525063865465, 17.434871369930558, 86.935537822353240,  4.241814343191196
18.790782964290049,  9.641877201269708, 30.850683432029012,  4.133331645356313
10.424568452642502,  2.368109359615444, 47.173800920139136,  3.964712546950666
 5.588993974496716,  7.267430905468132, 45.467279731574116,  4.184283983091730
13.720475225678923,  4.865263461963481, 15.859048163184175,  4.024907976316981
17.996095507533468,  9.536686718661803, 79.726968299567204,  4.126440428420969
 8.482045799950386, 12.104474905648619,  7.955919698015346,  4.361661494174674
 9.560212159659892, 18.180075281036551, 61.490113175393240,  3.803145418544002
 5.128943880389074, 17.626976130242241, 45.600105950709739,  3.879771122473807
11.398142584966681, 16.114762296074499, 36.090329984806615,  3.924153535748844
14.068884930759479,  9.505341990962879,  5.644991211275705,  4.167240847458901
 3.509421355463037,  0.980153781673770, 110.388825540424932,  3.794536794777466
15.378143814451201,  6.698124979940316, 110.158237299095433,  4.277842698061161
 0.864581881609030,  2.176254708678665, 17.769291706305076,  3.934560494065114
15.907443362256656,  6.142398919992200, 70.684914106431862,  3.699478106601655
11.071058997444654, 15.217548373506482, 86.233970040318169,  4.351601926795233
 4.641525421842529,  7.383625413932863, 87.973810910337150,  3.700693229661072
10.298752205651615, 13.042807869926056, 11.690918547236361,  4.074728710722308
13.433035160753265,  9.767223458833051, 114.448507111092667,  3.552451931834922
10.313511662673085,  3.901891753242878, 50.916295032217427,  4.039682799180587
11.490120324223856,  0.501775099461288,  2.170111466715900,  4.127086273278465
10.090895046248800,  6.045915026788405, 116.926109492866914,  3.978959867904213
 8.590265141134298,  8.310440316079660, 97.840193219690036,  4.026365687008412
 0.092665666408935, 12.826810906025640, 117.354412232713386,  4.150421902602709
 0.652888190828151,  8.578146831749818, 90.058660276015175,  4.450203144735227
 2.700330635124208,  4.957949125337147, 104.720621084543936,  3.908162265252168
 6.674210747296398,  0.516426565755846,  8.610925276724256,  4.088051498787953
18.475327813778666,  3.604592825923153, 21.895452726856583,  3.915959173353718
 3.389855161119505, 10.940646386136846, 47.344226025157148,  4.411010451652985
 6.111005423790694, 13.050006406072001, 70.993178872337992,  4.192623496154660
 3.686378783639960, 15.875339741292919, 20.282541718390700,  4.092919448394036
 7.616924868112428, 10.399269374886115, 39.877261034107867,  3.823377420249364
 8.601137809778074, 11.579925961829915, 30.052884657993861,  3.767807666147285
 4.892415421887560, 11.073953194590361, 89.154192160747030,  3.853295417894532
 2.171348444484491,  9.797858781882560, 86.166054504222316,  4.028052030176815
 8.846310549803519,  4.612711449918101, 61.960333137898779,  3.971261190923898
16.399802023572640, 13.786165650625493, 36.578379224125094,  3.931756320364990
11.658229521755869,  5.883452207246391, 97.547945555082606,  3.720443405775663
12.685424299705780,  1.905580453332989, 12.896523545508556,  4.119008019182927
 3.639025197383003, 17.077067179520068, 33.993222965674988,  3.775435131115091
 4.008649925174287, 16.534075257965124, 16.320619870211843,  3.940860177171585
14.988861958289235, 18.053735283566908, 68.085337361419747,  3.846360440605668
 4.122766216323740,  7.070833811499990, 57.511334946949852,  3.814140848032963
 9.806248836101830,  0.955782086943405, 25.128408796686085,  3.881299350218530
15.328992650979123,  8.999036943713746, 51.169284912577290,  4.176368810568515
 7.742628886868955, 13.698784213766778, 88.241788137303359,  3.993163691176146
13.005509227801832,  1.957894059868788, 66.519939901472767,  3.820502561022404
13.455577689994206,  0.388411901483655, 35.420510347783406,  4.101067143468984
 7.782862254802243,  3.495036542470585, 27.600441690448264,  4.222876611894651
11.374902749156378,  0.056917997471617, 87.808639538457655,  4.127777948453644
15.441874244608227,  5.659031588086993,  5.759513874941632,  3.931031037101629
16.708785165414078, 17.354793425551186, 30.963305150653234,  3.630057101705474
12.421892856056855, 17.556353613293329, 53.895560173443087,  4.310755025538248
 7.897291886545990, 14.887532926953304, 101.133963299793166,  3.740645865874670
11.074001369306819, 16.085863526699857, 70.804236949999620,  3.930751034026966
 4.308289242376885, 12.039085575387558, 35.515765234049226,  3.948089903983264
 5.134207802847711,  9.183362680833572, 16.387636888684479,  4.043572948583281
 4.438838088194297,  5.956877527355044, 100.633991947396510,  3.847800930055561
15.982811299363991, 12.553203086504528, 114.873344020418912,  3.995768808331949
 7.671740696074018, 18.330713256088366, 107.226121559879388,  4.035461123051234
11.484064697617846,  8.264699457964237, 70.423045615540445,  3.819837988766989
13.034777786450517,  1.282172145340417, 49.761530542553892,  3.673466806374043
18.704660028018374,  1.573461720393940, 66.589216212181299,  4.313140556612645
15.976421910380687, 10.985791474803124, 76.481706592400769,  3.813142130754352
 4.956565296013938,  2.818554972057715, 113.665235287170162,  4.088907532325885
 2.652124765776923, 15.822550869785237, 117.586197007288746,  3.707051863921938
10.053839448257087, 16.563555349023726, 43.397141133912072,  3.529226389341238
15.681311039416565, 11.346367906260252, 48.003752845860980,  3.706879924985188
15.864293743549272, 15.625382397603193, 85.072322673458899,  3.954877146908423
12.521830112774625,  9.564269765048937, 110.852770497498867,  3.867620828120068
15.191293049655739,  6.345473624143529, 114.146572024745339,  3.718616604389580
15.835008534311619, 16.163025122014627, 26.664002575361604,  4.005630743462882
 4.675176040573087,  9.189210692613079, 64.120618590940893,  4.047236669816932
 8.353913920965123,  7.588893232675131, 76.654473053450545,  4.103543292162931
16.491994779700800, 13.548878557839807, 29.835465823469203,  4.163936486564467
 4.870726764896683,  3.816953778371831, 12.842729885113876,  3.577779933578911
12.410810736183594,  9.678750304439507, 97.412833012917005,  3.938557121595319
 2.942939542179022, 18.902107055450987, 60.224890935999021,  3.817840513468273
11.708334150858994,  9.885755480850998, 24.725755075575851,  3.969200381718033
 3.290104857201768,  5.273117253369758, 17.111777873029116,  3.989428873906929
