BANDS
8 8
NANOPARTICLES
cell(1), 18.962
cell(2), 18.962
cell(3), 118.515
15.646069125080336, 12.906070166202625, 13.831341390141258,  4.131218299434780
 6.828592898555150,  9.152393295006677, 23.759286947044753,  3.878388236119631
12.244106704298622,  1.708862248373982, 93.216206242932302,  3.500198547216373
 8.944819105807918,  5.531091028915765, 105.120103055601760,  3.980359458381136
18.392007147528172,  5.839413635979729, 70.195155402888346,  3.964877368966425
 9.707030045367258,  0.648057835692477, 97.472716414561347,  3.909757137809577
10.276973209411361, 16.892155075469230, 79.474829181730087,  3.715077373237050
 3.744861640078350,  8.624842116729972, 109.061539758154922,  3.871130513942852
15.870195366232259,  3.392974014761108, 108.343710090745205,  4.019856672564632
 6.146952292346588,  8.454212593744009, 98.891015371849065,  3.773002277314223
13.871794088106434, 16.532652683993405, 16.181961140653250,  4.099666502484273
10.760379483592814, 17.524652005889269, 94.387840111291297,  3.811044138822843
 8.210365110342707, 16.000590317809795, 99.691555719738830,  4.233715495044609
 1.959305475211117, 14.120417427137463, 101.021827663433157,  4.192132902272362
 1.870493222743723,  2.037816096683400, 105.393344949035296,  4.117768653775491
14.160342110847537, 16.666392536416858, 86.256191617492220,  3.825039975492457
12.662725885553289, 17.168982033887055, 27.136623275374962,  3.839002715325512
15.602134436893374, 11.973472052839872, 53.193938113226224,  4.044664894325094
 9.682397911549224, 13.519418183608607, 62.204396351487624,  4.212734982083629
12.102634787346448, 18.109908813736364, 23.593091768208314,  3.569937030731704
12.657042046476869,  3.485095932872625, 57.135648425075480,  4.149609991653603
 7.739977849658057,  1.885447507954175, 88.028788307620502,  4.332461376041706
13.394340552477193, 13.235028433284914, 46.422743578529925,  3.901266171167954
 4.906656268893654,  0.839210124722186, 54.420515611654160,  3.617134271764390
 8.477943251146103, 14.683433060553066, 32.915921008818430,  4.073988841336817
 0.878494582108199,  2.749635501947144, 88.841427270699597,  4.132425035944280
 7.746851981501444, 13.856208526883661, 85.584082868059426,  3.958084106813417
 5.490722848842532,  0.096851437319532, 35.604381784937566,  4.048206667038821
 5.135084912561699,  9.975196832475103, 70.753392104745686,  3.879266235466489
 9.530699575584734,  4.546690444048484, 116.627402018685615,  4.096342677973225
 2.847216953942638,  5.870530929226577, 72.044016215794827,  3.785261509184523
16.131823158467412,  4.608975642548335, 83.697538215201249,  3.567775233430668
 6.588219241265876, 17.063787201954703, 15.161332403467746,  4.065956872165350
11.425869508270589, 11.199347696348957, 13.315655517135172,  3.992632345404489
 7.318150310134633, 12.875335253592306, 21.911666405277074,  4.483790389458115
 1.463981785117632, 11.936301405636822, 40.351510266204663,  4.002310159132626
13.877340940743938, 11.695218130895208, 102.689745649244159,  4.208044531854838
 6.965608145079004,  9.237534539784402, 85.448549134879684,  3.989323943431089
14.842397611728561,  1.191588562842056, 111.921670730814625,  4.253718959555092
17.768285749156654, 15.410520597214123, 16.637614841914310,  4.059519030563100
15.668018804589314,  6.511608538861228, 76.182429437197683,  3.927666471130860
16.693794356896220, 18.698192197076374, 104.131910418287219,  3.998582841188717
11.234741240245054,  5.931765601759568, 60.149855807689043,  4.116373329887479
13.031577680948976, 14.705358090248080, 116.348578393763958,  3.778331973593154
12.166903054126665,  6.742671348748702, 49.645352239759774,  4.176888694467695
 5.589556267841221, 18.381158964654791, 104.192621317720153,  4.101102407040214
 0.724477590438026, 18.570833329993320, 71.398517587184088,  4.016782807060838
 7.874136789143696,  3.573844456135655, 74.072717098094273,  3.771060771904249
 5.760272062587918, 17.336728264833134, 61.873240661387847,  3.953076116634948
 4.415387322323406,  6.186611472772030, 64.845155822013254,  3.619812770973428
13.018667720000789, 10.655471698565622, 93.162118260331894,  4.041685036060982
12.524359261443021,  3.601787079059254, 36.884731737268872,  4.183661380686339
 9.760832881568119, 11.017213242834979, 95.289983658571174,  3.625635010988321
14.411358713567605, 15.049612000712383,  1.648418077671309,  4.335441829028587
12.807870741398517, 16.939254149227718, 110.682186278918977,  3.728162017925959
 2.683004527289656, 18.130020958132601, 67.873410142471997,  4.066481054923534
10.381392510308403, 11.619603007122796, 87.644245589338439,  4.051235564512124
18.748939892407904,  4.610890161282132, 13.749000237793368,  4.267391280766959
12.154540884215859, 15.257931828201682, 57.148227661763066,  4.204168894099509
14.265461999998186,  8.875169106157715, 59.903324436867152,  4.078717614992446
18.798766514571103, 11.222323560793710, 79.081493879595371,  4.024768577249774
 5.109661675105754,  6.035126778100742, 43.728094892490390,  4.021302377697948
10.868765815323433, 10.481163245626217, 23.243275289090118,  4.173343840572461
12.471182243766743,  4.157356518687704, 105.888616542622884,  3.701743118821209
 1.952435040875387,  9.669878485343380, 93.928364691688557,  4.409380522414001
13.326717581178563,  4.941072128213265, 28.838310856890750,  4.067245384134242
18.355353192536743,  3.711125967331268, 17.797279989368914,  4.058108061197534
 6.530885743643297, 11.984208522897978, 35.738534678923905,  4.560901168723274
10.263723452324406,  7.215370540819842, 33.525076987606361,  3.766278519494603
17.926033138747336, 12.835579613592593, 66.013868279262226,  4.297475459321638
 7.016131072495068, 10.185826525240396, 29.578620079567429,  3.371320762447826
 2.947212886816112,  5.600701913827864, 39.891445731481419,  3.597965766543623
 7.703081183907255,  5.326793878496960, 85.715393647638564,  3.875806785000534
18.655927035321891,  0.464940066661903, 42.168296296500237,  3.914589967426857
18.583503457264495,  6.874198849753016, 101.487214574868901,  4.155292564062071
 1.330413667042990,  8.300984453457193, 89.964342840993567,  3.965157340725920
16.687674488588769, 18.797668982275631, 88.050961746239125,  3.633086017148230
13.058747281344671, 10.559584918366687, 50.399087624615575,  3.782665694692237
 4.607322940825240,  0.098051727128499,  3.444644604424551,  4.081113394885532
17.866019520385613,  6.027492862097628, 31.411878788807520,  4.002325338486199
 7.931453942489330, 12.848529642177292,  5.471618737550703,  4.214370893226333
13.147665676280772, 14.880244509958091, 38.874441162678551,  3.671746839478053
 9.313759844989766, 15.134552342897459, 114.470020923708731,  4.234877349031765
15.208853901677211,  1.182897204653970, 115.825972251874134,  3.571752650319588
 1.261777570695074, 17.875917546664681, 18.154568717905136,  3.525848865802123
11.816192839051732,  1.507075378954065, 80.851791737106822,  3.847909101687010
 3.646018754132746,  2.373434175403152, 42.306081292048482,  4.342528266428784
13.772053111091493, 13.200337326485695, 42.340214212905913,  3.793324400375857
15.908793267449298, 13.299507219937036, 99.134759825911331,  4.487612411674909
18.628718373743613,  8.425010477627779, 59.571248007955418,  3.974690240338114
14.879426047251386, 14.500026884381601, 24.110818389281253,  4.238252410498484
 1.227111487691768, 13.893516320414305, 52.627388733311967,  4.026735458481105
 4.862757592869992,  0.091760799880845, 76.986098258524819,  3.764584693198331
11.327787761594301, 16.459764286438375, 47.289348332748190,  3.876883778279581
 5.736349381603746, 15.394096336899260, 111.588089019443402,  4.327982782373585
 3.239630378657645,  5.850634830454902,  7.662658036954483,  3.814196806724153
11.571533231699739,  3.756296232911905, 12.973133473536505,  4.007638930285207
 5.907435858944725,  1.707666171653722, 45.944264075285673,  4.279862672715495
 7.436866404821957, 15.984295535875896, 37.071753186992687,  3.793440427061126
15.344420143734206,  9.508637439557917, 113.603608543205041,  4.182113042861267
 2.413170642882053, 16.737895607546371, 79.137668905130425,  4.176039542973858
 8.141869270392883,  4.364974273259106, 66.630293312502872,  3.780371037919482
 7.256442009758690, 13.260413678300040, 81.749370248541595,  3.842400116285284
 6.486604119700571, 17.669001379341150, 96.383144868498078,  3.914656567870981
 5.222202116179525, 10.380157597269012, 115.715542678087630,  3.953319969866627
15.968787000072599, 10.404364186819675, 95.999434396982181,  3.919211430732951
12.197264107363686,  7.370037042869291, 103.961200309278041,  3.718289434852787
10.005316914165213, 17.678486828470326, 86.580073149455572,  3.957152306791127
13.601516712398979, 11.037949537355301, 39.052465999060871,  4.059626357547423
 6.480018375494828,  1.563510822028790, 59.738378852363176,  3.851375713681424
15.780422751446368,  5.807963178183161, 10.785277655300005,  4.215744718022819
 4.741048447760791, 12.691443014994624, 15.325500309843514,  3.943557636137543
17.068075402870093,  9.051284145819876, 55.863136766527539,  4.152653034397740
 0.203842492487899,  9.461056269932453, 111.744806839184037,  4.223800977550205
 5.722008066795753, 12.007337841246384, 109.159760826681435,  3.937389115718128
 8.448821882397604,  0.386220087492952, 48.823641690131801,  3.824356657369587
 6.184094459680908, 14.053895740096181, 59.923725327911846,  3.702205446498022
 5.030576366114023, 18.260040554689077, 10.733153146417990,  4.105389227962681
14.829677526912722,  5.240931456316981, 14.665444177525446,  3.852872675139501
11.542789269226814, 14.224686721761737, 84.987819710517357,  3.719650725856940
16.387480242055936, 15.515106677522320, 110.484284441570281,  3.984169390608570
 2.543098473268197, 17.502324415303413, 108.999262954760113,  3.840155928930895
 4.157639208449946,  3.375617439329813, 10.937165820863834,  4.053133651725742
 6.332492895897252,  7.663390882631699,  5.941118102036795,  4.096008400016637
16.727590608606128, 14.914134740980392, 55.841296942330658,  4.016751565436591
 0.122031478403497, 16.886038216718102, 39.256127640278898,  3.814947987089119
10.879648334517793,  7.586589973396937, 11.449940231543820,  4.199689122210822
 8.588492277324729,  3.798935744243785, 43.333482708232658,  4.286839995326466
 5.552771106930901, 11.278092542772473, 77.614873301667018,  3.986099576620297
14.430699460679230,  9.203413146109742, 15.318758783587210,  4.209292734989370
 2.710752299215986,  8.522279928114330, 52.898862468162022,  3.771892146339265
12.414829485267033,  0.735670992222271, 73.809528933951540,  4.117993858988043
15.985860082889458, 11.429143815058024, 109.914640034239028,  4.030018063121794
17.468147128631280,  6.625986088884648, 115.875221914338624,  4.205080073912837
 7.978340569341702, 14.358882026290875, 89.680756686613179,  4.275665498758510
 8.896438688623185, 13.900864111482967, 14.608494747781601,  3.841030664075222
12.654780971318727,  7.104741507001649, 78.943875302363949,  4.224965083098168
 3.808846465695549,  3.303352296073648, 94.449664430293240,  3.543452685769922
15.288396883489247,  4.275308410717450,  2.615238520317761,  4.137135084271184
 7.623907090627592, 18.731099336480259, 74.363477774194280,  3.752802607876366
16.056270674904280, 18.722729405437921, 81.338235753764522,  4.294162435455894
11.462744781508585, 12.286002523466019, 54.111582595807057,  4.364414958269708
 0.394783307983029, 14.138894281777167, 36.448799519955784,  4.041774307850092
18.908295949045403, 10.929033774554098, 74.883872287762131,  3.787668796525007
16.103010427388742, 16.636617023605815, 114.411284453688637,  4.200901787588601
 6.560455273895993, 11.620517177266803,  9.160039172884721,  4.008442152070573
12.277640056463671,  9.134046575612285, 18.775703135563049,  3.694250512905767
15.403817031567387, 18.092298465321150, 30.322958639303405,  4.027535814105643
 2.774737935014016,  8.146705329442270, 118.171407100214424,  4.244266310521871
 8.165933168752527, 13.776116631952513, 106.553328852172498,  4.034870778746089
 8.874802758780868, 16.256810382495537, 53.813053102083465,  4.307805803988267
 2.815553495080065, 18.888766599245166, 63.957289394264599,  3.900380696484492
10.295236148770154, 12.678273862158978, 73.211655140677692,  3.991020897379530
 9.071068733186719, 16.766979795076136, 59.573468828673796,  4.164393301460413
18.289513403317244, 15.442758584354035, 29.412499210835254,  3.984696599313255
 5.865043321333037,  0.978967190337939, 84.407279665440967,  4.000443761554616
 3.606838928953256,  6.693337299890025, 96.463879847948604,  4.047980331570550
18.191397206329018,  0.232374181877652, 107.796339706147748,  3.867000870239066
10.568701056183126,  3.564483442982350, 47.237345358325882,  4.378974070829530
 1.625811938975078, 12.183524333713100, 28.519031255190267,  4.052631536338562
13.904747461662378, 17.579027137733590, 92.070002104883798,  3.859206073572587
 5.051290104367210,  9.853164057393874, 65.442628129461212,  3.914354609344014
 4.410644491822650,  0.704953416606033, 80.855036055737671,  3.681636124178917
 7.176351049073710,  7.083529390312347, 108.228579384581806,  3.815570906902722
17.495760005906114, 12.025065764664198, 92.348357458447438,  4.475130325096136
14.572581818294834,  0.212406611495054, 67.283565788628252,  3.561489282004691
 3.891576321408142,  3.421105864236716, 62.158937055660587,  4.117570485004171
 8.569893799797233, 16.778073580923579, 82.972770706031653,  4.010226147823363
13.162230972559717,  2.753793421356229, 97.758212561513602,  4.162721524235110
 9.793655320695240,  5.886202023098882,  6.117360531055668,  3.691744213542773
13.360281176627128,  9.195376174172706, 42.409772053988746,  3.584371925442341
14.857792211541728,  1.282064568240187, 14.720116024536429,  4.048019054743109
17.616764812815369, 16.868547088869814, 52.551935540789579,  3.825869650373520
10.403991684102618,  1.916417075317311, 60.191273688969126,  4.032836222359191
17.063983921409552, 11.718599659456444, 26.426774226935716,  4.193237468072953
 3.301478890229602,  2.257413050925856, 18.161767091037486,  4.291408098765150
 3.985267963052557, 11.790290774749625, 98.141665192640502,  4.249246680871244
 2.308618833580073, 17.753546642450289, 51.822736517179699,  3.777306611836118
 2.488684372748259, 16.144949009360303, 14.709235112853666,  4.381382872950726
 5.745409339726419, 10.721429084620743, 18.603866270005931,  3.819377149160020
 7.012488563954066,  7.237539311749551, 73.067847751312854,  3.989351056412650
 0.576883392352619,  1.657542301186260, 80.127686574356375,  3.979026965138008
 4.226592643257241,  6.545099479784484, 83.774489203352175,  4.355415967247604
 6.439335323622768,  4.213211735898976, 20.417941085843132,  4.358594549759748
 8.513501325846082, 14.469448549976404, 43.992520419892259,  3.912561025857835
 6.345514671053570,  7.203315819213594, 40.124569764447251,  3.924936319983615
17.144688944693470, 16.766615571477590, 66.324889441291560,  3.740530798149386
13.419011009634769,  9.150835299244559, 46.348044351941120,  4.232231012008472
 9.478933891225187,  9.166683044495628,  7.998973229147789,  3.887701600775521
 9.707574753095903, 10.947379457695728, 33.232552394302459,  3.783481320771248
 4.046565092283409,  4.959409738904371, 14.536647297663242,  3.787293743470444
14.992197080139055, 11.887354960795202, 80.637989015763708,  3.995308793231696
 0.214984737151471,  6.038864866893616, 24.710461387453318,  4.032227661055591
18.881635974761735,  6.096578253452465, 94.907739152591148,  4.023337792455119
10.858777411881682,  7.979884466922900, 85.767220733119942,  4.185371934366424
 9.767984441904680,  4.467850549030159, 79.680744530410479,  3.710015276877087
 4.551383655500850,  4.228763703552545, 57.310498058188820,  4.309938127182297
 2.409605328659620,  4.584088131064211, 21.528608388184836,  4.023660363256606
18.553170442511387,  7.735497221887993,  8.452199731918784,  3.993041962162841
 6.009845198271017, 17.619552721983002, 65.769307764399557,  3.859797212603882
15.964731819973624, 18.900335454977487, 55.503128283254817,  3.969313564615137
18.716451943551409, 10.449320412085894, 51.298209332277807,  3.849987838657916
17.606365782738141, 16.913534295946011, 93.203875585493876,  3.976245928455892
 3.228514476164805,  2.961519758523846, 113.596017212811660,  4.143467832163194
10.689884767268904, 13.933631476958528, 92.806698370316340,  4.029625462340055
 7.201053032910778,  0.330969377164322, 41.480974545689890,  4.015616175232463
 2.295805902401948, 13.405752696850602, 76.767424873045300,  3.961442273706685
10.038492960835834,  7.209984782982346, 45.095641284472578,  3.910376991171804
15.911804841819256, 17.946044424188699,  4.358568472761526,  3.805199329335201
 3.612513731086056,  4.572308434817185, 79.858219023563805,  4.444704047181620
 1.183576228215330,  6.873336764766489, 35.012241838245146,  4.302390501500324
18.306107377783917,  2.516504226989741,  0.712208285516789,  3.813249856959865
 3.592484951971308, 11.571412735243081, 112.383517023351914,  3.812235402805896
12.233521415000512, 18.099883541291216, 114.498576786293896,  4.069973605096839
13.993337685797549,  1.353404921172683,  8.024387468743855,  3.720037715442880
16.028340931634599,  8.198030503168960, 49.416031519988152,  3.996690239660967
 6.279072347092522,  0.145978831920548, 69.337447835788055,  3.871955054880580
 7.135895994135460, 18.716000218257943, 114.683823598577277,  4.147469189410534
16.282482761618613, 15.070101687135152, 32.920134372843542,  4.067214693561623
15.070733735568671,  2.824696207465727, 31.776082405499107,  3.826232571443043
 9.327374022624957, 10.579233151502267, 16.680863981135101,  4.033076960842680
11.365756320460187, 12.459720381295336, 68.702591389402130,  3.793593834033531
 4.273474790376007,  0.866633052501961, 90.130137210937903,  4.015584322435743
 0.205821248033615, 16.356233990156142, 59.206784359142965,  3.911143245246143
 1.923410746503254,  2.330945595449120, 76.597396098113123,  3.654281461488067
14.521808491183439,  9.778980812639698, 11.300312022366761,  3.875129384744953
 2.580076238006941, 12.513014292528597,  0.744919971103913,  4.345868958700729
 1.495294052898050,  8.400972765605193, 63.519835823271542,  4.091860817085330
 1.206128413151556, 10.986353840896657, 115.513154156808099,  4.141268520823475
 6.490214101416816, 17.714992213383628,  0.178795003440622,  3.731098683032072
 9.219965328713736, 17.218623301142031, 63.694706847285801,  3.809719881177875
 0.679098552418239, 12.178130177445096, 14.792410323224559,  4.205531727937092
12.366388089653825, 16.651771470925944, 43.432474454849924,  3.967532042541351
 8.988047789517692,  2.401569587068129,  4.618474694531838,  4.058107554238370
 9.807648716688107,  8.974190223811716, 41.018614898216555,  4.054778442586163
18.874597813796580,  0.986984955591112, 66.017143992816699,  3.526636315040332
 4.069222232450525, 14.666003139641104, 106.454840570394495,  4.325276219163422
 2.427893201351576, 15.390981582440444, 65.260708286582414,  3.504665447664632
 0.823780633957625, 15.132442479293019, 115.766364700143370,  4.115632490090661
12.243480692274687,  0.980768731232963, 63.772798393645552,  4.233687238695669
13.974492886581565,  0.403767487937642, 77.838491504955002,  3.885748167142224
17.473919873431878, 16.182215014857341,  8.831142830411530,  3.927525245780868
12.780369381995005, 13.244357710988472, 33.503997643589550,  3.907735285893045
12.996914171125081,  9.570431436780716, 35.222306492002986,  4.196037649215799
 6.086827882884244,  4.223087298138137, 70.167739238381571,  4.393855258223478
14.678278234529397, 13.548049932799298,  9.906714839974461,  4.037560814611543
10.365185971190895,  5.219034692745074, 19.613478460122177,  3.854066081150567
 1.345002569156836, 11.073414712451381, 55.191693971655852,  3.594595549083740
 6.581745213739363,  2.993319184291377, 24.384624847619900,  3.910827178447693
 7.040818660334786, 13.888278251137349, 28.898549830270927,  4.143967871036328
 6.987746512195735,  3.991235499674371, 82.173088214129535,  3.813633317218275
 6.087425840488399, 17.097839602666660, 87.219094425559064,  3.999793085411273
10.648021272899250, 16.199128421560420, 75.476799024359309,  4.401023315661472
18.586928587813841, 14.861516052810803,  3.305625385772990,  4.613881342471148
12.900426691755209,  5.686533411433863, 100.539194584724044,  3.931795342160103
11.505980470664241,  4.624055888255181, 73.093462725337503,  3.956309616733010
 6.838389734325262,  7.400832138962773, 78.672254134053915,  4.426823770118046
15.078128953198579, 14.993372260285980, 19.851644170369688,  4.177435864358165
11.302949388345180,  2.955008511257833, 113.322910530413907,  4.044821316441723
 5.287308869570306,  4.440326424673909, 27.972314568562538,  4.084426839576401
 4.943798151885285, 17.450822140672688, 18.789624126243467,  3.920274172522697
 0.850943617771510,  2.091578537185755, 45.570717993190875,  3.968785341690471
12.606156448487862,  3.585473363960820,  5.399678630705769,  3.698895364224641
 8.678745959074950, 15.790286233583759, 49.870844824384811,  3.601319814352939
 2.866307033516169,  7.140694705749720,  3.745195739299751,  4.176222340866509
 0.722767390711825, 17.971245992189932, 100.069343471532960,  4.035736052781317
 2.846785432896997, 14.747425040529444, 61.552728369742965,  3.847621751361658
 6.449097030042680, 16.572788174297376, 46.803989344003568,  4.120888086788357
 6.483451382428219,  7.030635088475691, 17.324314895882264,  3.997926576218999
18.000077803142307,  0.579921357100863, 48.940279875410923,  4.145665821239200
12.915647487611441,  3.860390943380228, 76.607384272571124,  3.746165644373992
 1.108995736849202, 11.255336986695800, 44.107995878795407,  3.621739714772984
14.231364061975308, 12.269813144444417, 89.743775751392150,  3.874230271724467
 6.690807488441435, 10.485684577727195, 61.715085450377124,  4.324950094154265
18.358624109767916,  9.779010772659776, 37.565161237092823,  4.166881322830164
 8.937842129833609,  1.127365617313319, 105.676153597970213,  3.930728888189706
14.302030245912599, 11.228091476040312, 21.308518652112490,  3.815652968557150
14.452606737085960, 11.889205900714181, 57.197639926182049,  3.944113490963382
 5.837491445626319, 13.931107951759335, 64.116133348581897,  4.165006866552930
15.235602705137980, 17.390015640961131, 100.744555068944152,  3.769802536852322
 8.069826643824657,  5.949231844925225,  2.868016695135130,  3.624626088645535
 6.568501414145412,  0.151960087659884,  7.026096548221147,  4.084658303842523
 1.689599798200945, 17.540125613608748, 31.932581425762859,  4.076634463641396
13.064527992832602, 16.709158150031545,  8.307397347994888,  3.740927896085011
15.113397145945896,  3.743330808089143, 79.974083262225193,  4.292041857429813
13.449902100950180,  7.823603077293937,  7.960429217736539,  4.133806566969542
 8.052545005363331,  5.529829062893734, 30.677624714998668,  3.904822429506937
 0.241848512444997, 12.799017186152554, 96.423845457747618,  4.093534577376543
 3.678074742281373,  1.772672743088143, 30.527895709153434,  3.915065183127875
13.357754673764564, 14.783900519521639, 71.964429111415924,  3.816026440287548
 6.174191963997444,  3.026024604166043, 33.146472106063982,  3.695740286151952
 8.757458275527465,  8.386122227614260, 37.047972070959212,  4.219039509863816
13.599595856909314, 18.796350696722172, 58.778841302804935,  4.074920253848161
 5.540608928628994,  7.211533531310997, 104.296564965740885,  3.761031211000178
12.345444263904133, 10.481732605745700, 106.488490545174727,  4.286734738192766
11.276500555191179,  4.080097496109739,  1.747124317478592,  4.011152698975153
17.548299512391555,  3.766061204097233, 34.565751283883714,  3.779178865958210
10.430650230492031, 18.160568828037775, 14.765674212646504,  3.961639513198226
12.170824924614157, 12.458469701453938, 76.720672058415261,  3.856068210488335
14.250513376592684,  7.887901683047355, 53.043654755068324,  4.102612958689615
 9.344887727499467,  7.554127983216972, 96.863909114295481,  4.008925100530134
 9.820275221894272,  2.103258803128286, 84.301402925033315,  4.210542234145659
14.868737247248948, 14.395480637086028, 68.375070941429328,  3.987669162988332
 2.731888300403497,  5.035629281595115, 103.014509589523840,  3.678853759304522
 7.978548631556182,  7.405675556967549, 64.204341911839023,  3.990963551865620
13.510843169147284,  2.184945340053430, 70.259472700050608,  3.837120250385432
 6.701683582789300, 16.081211285002393, 25.232886333819483,  4.100314121543254
 0.828971104105891, 17.669773981674066, 82.771692727074139,  3.928298365873807
13.966035892180590,  0.988654080785689, 47.922345778134137,  4.199647008352914
 2.712586356711506,  2.878465998372119, 25.108872293715756,  3.912200624293449
 0.850142200256656, 17.364263937986994, 89.863449312701249,  4.014991802752609
 8.705664891581637,  7.445694885250099, 82.396386713105940,  3.885073484873476
 5.803910018912194, 15.308486340860451, 75.800446760089145,  4.227033369795200
 8.656216514822162,  8.695797568452519, 20.287048922432579,  4.010092791678624
18.312113363080964,  8.959783801092774, 107.793769076085496,  3.921467326490837
10.841406547852383, 16.755366812778281, 107.356948233613906,  3.949374995986490
 8.110860054235587,  8.972232802254869, 48.956250108539969,  4.163078216606642
18.524265670253254, 10.890344731398168, 101.368499249010938,  3.876572857739945
12.315100072603959,  5.215438765829571, 82.878335743784405,  4.229872332397357
11.653209249811148,  5.136911310521842, 53.799057201622468,  3.541121197399474
 3.715673438063086,  9.331899626494774, 42.169388602524592,  3.776292833571634
 3.703650905824183,  1.149699799454664, 117.137836120773514,  3.849412927848939
16.493998079228067,  0.029513413858512, 18.340821474129257,  4.256236949260256
 5.532370375032443,  5.535597621812967, 116.384845356355910,  4.147287021889038
15.454811686005602,  6.489209916309940, 36.273909119987238,  3.889204630092851
18.777116696321301,  8.897926432864400, 67.204553813874938,  4.065823283932452
13.449005909764770, 10.952922926236718, 71.567688869088400,  3.882686470055766
 1.216585862630430,  9.326259069899685, 71.105866072573576,  4.078176996904171
12.822100841425408,  9.197681294385731, 110.522171682336975,  3.798798032601427
 5.180961561816265, 17.265935974523646, 57.843573563805712,  4.087282757315413
 4.409642461727670, 15.977920955157844, 90.533229778731510,  3.720661387241849
16.288298590214250,  6.749751481636788, 110.799739499560786,  3.905183779919235
14.808156214857666,  0.629919894228473, 41.360720290954873,  3.928342803244505
 2.632800857688707, 11.911668412481745, 68.099346222608389,  4.342178321184665
 9.738536499698807, 14.182530217109493, 110.362472531705805,  4.210909042964097
 6.653722234112093,  2.878203971783950, 96.708868011994753,  3.756047464390363
 3.923721815878461, 14.184728097899923, 38.246159718881721,  3.874691682328689
 2.054400212563189, 17.072173145968737, 74.981371097509481,  4.182198228661084
12.601081285243291, 16.336640495849611, 65.694546344893652,  3.969909526701618
 4.717289502894825, 10.694680464067082, 105.612544807047342,  3.837796161750640
 3.358059168229546,  9.041918206799190, 38.289742805764050,  3.991315194279358
14.013936356605221,  6.586535682128647, 32.513552472868263,  4.081983199554076
 5.619354255001002,  4.719180154881301, 90.401057077555265,  4.110944629568380
 6.370252557669250,  7.620739939253927, 10.099277337972319,  4.204502511178545
17.603362487298469,  9.248333312850091, 84.111691014811015,  4.327291250327838
 2.453571565430457, 11.027423785464588, 60.579641320490069,  3.865992780954964
 4.011199406379871,  1.066532570489090, 14.242558704826166,  4.000995886578250
 0.702121421445359,  6.181670401051528, 86.354284979069732,  4.309216020688137
15.041077113804668, 16.365143311585623, 49.813365001553187,  3.751641593890670
18.849461816957866, 16.599071649309593, 63.004808007446861,  3.690833544989494
 5.779107552283555, 17.268641418440396, 31.062677168986127,  4.261344426694240
17.836561777054019, 14.976743498334221, 80.472481064358476,  4.161168744562552
10.232730266472016,  0.888719449986352,  8.437816258989155,  3.847748503572855
16.336861495308270,  1.389939944811152, 37.271454546771537,  3.770563298997745
13.615065766752190,  4.752735025944863, 91.083597603715390,  4.315693994278993
15.479988331102925, 14.875144671920841, 63.439927467257078,  3.889067763332187
 7.193520780934270,  9.971255331326976, 44.103791845892282,  4.253669702871263
 3.334993166067713, 11.475679595810021, 21.694204814226087,  3.969420896531618
16.464357834183510, 16.915767971648048, 12.748057981279127,  4.268734498666161
13.372883186220177, 13.391612097737505, 112.525080036795075,  4.330899043513837
18.463619267181603,  2.755312000505449, 102.043506919800137,  4.150906625308961
 8.163544432685796,  7.028681354656531, 101.638248569328653,  3.602924982283325
 2.439891474181484, 18.762541834002274, 86.339530166758450,  4.198411794730315
 8.009395082883692, 12.346225248486117, 51.526378388641035,  4.135713344982671
12.503770815013842,  8.295344811116436, 74.456712256073004,  4.103995345280077
 4.136484169926529,  6.486098247607035, 24.545395582796878,  3.857950870177427
 1.877816870886708, 10.107732873452258, 86.469538088234188,  3.785580578893022
11.925148354568270, 18.954063185840152, 54.972397420331070,  4.148642228035898
 5.034161907546574,  8.598148615968416, 91.369529453915519,  3.883511903645995
 3.041206274962981,  9.944315590755860,  7.646694618429901,  4.350647076601406
18.295240422949917,  3.711822616342144, 112.495047322386256,  4.088386694633658
14.165679103365719,  5.240512722680399, 46.630352180288888,  3.629702592462757
 4.111350670775308, 17.265040917718103, 43.382230624170575,  4.125521661422459
13.806667625677029,  2.932427701883030, 22.069627345319944,  4.179899864514304
 6.523970862421736, 12.092960389017369, 73.612760802244594,  3.681393927206751
 1.082690642675757,  4.676151377368371, 59.532151862025131,  3.967091100772787
 1.149200731867578, 12.182310489609266, 104.781990922910538,  4.011775336797156
13.978302631491983, 15.493355031864130, 78.947774397320686,  4.160314084180228
 0.004792592336778,  4.472963149103007, 42.084153957118147,  4.054627242378436
 1.307754070048124,  7.810254767140183, 48.798743222178786,  4.001696580409974
14.896197953463757,  7.731108522563350,  0.462788158289189,  4.023610125835564
 8.115175190352424,  0.785983500962057, 80.527082129663313,  3.680207282881220
 1.107387567190631,  0.341244840365592, 11.071012816909036,  3.918764052906854
 6.083520015392820,  9.717784961077518, 95.118112528766957,  4.181757880776369
 4.606975739678217, 12.104771533022287, 31.777185306543728,  4.161318662422650
16.526822658326015, 13.174955828527800, 117.123821141827463,  3.892776317886427
10.956304386734104, 11.373316478191251, 44.125414082346772,  3.743499514760960
 4.401102767268783,  7.394182419044436, 87.763376543451471,  3.780138190773876
13.018924062943572, 15.307778191740866, 104.414926811372879,  3.902744430600689
10.857686426735059,  8.120105014535675,  0.453238958637303,  4.031932059021559
14.734189481518390,  4.757338910383278, 113.674599109853432,  3.687022750480256
 8.797638965736352, 10.413499294401795, 91.386313603496092,  4.415564072464526
12.722856997617445, 12.314449099431497, 64.960488085315646,  4.149803710082999
 2.663850086195903, 16.775810909542123,  0.602620369189238,  4.180998260599340
10.983791447537509,  9.512722316501383, 62.361326562893829,  4.208540840955324
10.610213044654829, 14.404565768298756, 96.773380708475969,  3.960951606278536
 5.145705915418473, 15.105555504220318, 68.681627078118822,  3.867868970756840
18.596855450454573, 15.255551360693655, 107.051094892134088,  4.188443467857383
 0.271686913141099,  3.154257234790888, 73.236032882500211,  4.007572348062800
 6.841363648258655,  5.797045996156115, 94.122877243400879,  4.007433156262285
16.039387153876206,  8.211795639800012, 20.120562404536557,  3.526139982759295
12.949578306570009,  7.033095884038882, 22.111580303786734,  4.184758240667816
18.189082151744579, 16.145308250587050, 85.932438973041386,  3.785740779540092
 4.711248199638694,  5.116729809646220, 110.504037220938713,  3.896233234174447
10.357810126983086, 15.633336163245197, 17.610036418792216,  3.642077339347077
18.563599880974323, 17.325456374787652, 45.499947455730805,  3.894718845977525
14.949050477355708, 14.422866166867466,  5.775339811879071,  4.019794428838208
 4.462049558942971,  5.314429399389889, 75.668871802577939,  4.223320892724471
 2.586566827318734,  6.329954416118678, 17.897060750861357,  3.984952022904683
12.944518194210797, 11.482262511285290, 26.734860488316652,  4.070760979628447
12.119983302218188, 14.787891137907318, 100.515093126977504,  4.055664308911835
 9.742289568304923, 12.459538163987672, 102.969353437202486,  4.209264556679300
11.221709994379355, 13.673491824215983, 81.223943645700061,  3.849359359821662
 7.329318178956283, 10.473318352691452, 13.051077786425061,  4.226354679551037
 3.798859867029960, 15.539782731836864, 22.308965864343957,  4.183867286640885
11.974228398078282, 15.500291076285553, 89.312699185607045,  4.043437197164298
 7.243949540944505,  7.850369111626586, 68.154527731470552,  4.026766613957412
12.445084298646760, 18.399497890805740, 19.688219081925560,  4.271179900328919
 0.451372066059592,  1.246043115193151, 20.908156532083733,  3.814486119955777
 6.744827481905856, 13.744339916192688, 95.734742622211414,  4.051671218550211
 6.487556652127662, 11.340909334292808, 40.079964127021043,  4.172427430218677
 8.994478735230022, 17.122511258341021, 11.240164920526098,  3.926036443547552
16.265691229827528,  8.650697621839608, 23.862369345551528,  3.943915309059101
10.999522269747162,  7.023461268122772, 108.033566142046638,  3.740767439009224
15.738773899478570,  7.747526282220652, 93.070009321838626,  3.917709502939512
18.250770155400506, 12.144247587115290, 58.264967882476419,  3.939844867829115
18.578298474537878,  5.339853354382474, 106.100421715962895,  3.991731889368926
16.158472958298674, 12.576271792873502, 49.234847232031960,  3.961850107138202
 7.520330756727182,  3.864803368334247,  8.619959152478074,  4.168153100092451
17.333398053316149,  2.079961725098537, 69.284676992870700,  3.999442618044393
 8.152364982081270,  7.767542215528493, 58.382096435315709,  3.868540137256358
 1.191580494222657,  2.152981753276474, 38.624222753591461,  4.470202350704114
 9.862852748025896,  6.015602582091536, 76.288838082325512,  3.732784972064763
17.247046533020225, 14.740582042785523, 103.054125170913053,  4.277684016138461
11.590234485019833, 18.104652680178326, 50.941675717615112,  4.116248415161622
16.591357607483872,  9.073155048628509, 104.252777125786963,  3.953873064269769
 5.181967777579970, 14.675094019617086, 116.113814829559274,  4.656189429924042
15.699515416211661, 18.551279625996113, 62.189155904904041,  3.860904815508570
13.267897137650703,  1.811946969373391, 25.927318658679862,  3.828472966185148
 1.239541869082965, 18.194335868917051, 24.242108786353459,  4.115894104083305
 3.409002099610698,  0.893964385854291, 97.719761056049705,  4.024648587360626
 5.881967089545078, 14.153307567628143, 102.649960832814472,  4.149059422858008
16.864280348241397, 11.513461259642506, 18.022421317810370,  4.404549090388481
 0.145631392567802,  3.975857049908353,  4.497048326565420,  4.301749620832315
 0.091639142960281,  1.953562911983439, 95.319145807891914,  4.292217187659655
 9.206630373700484,  0.837694136317933, 37.428222913878351,  4.047029052680487
 8.664047862162773,  4.375860017609845, 56.233684960964695,  4.186247352318047
16.405471965761954,  5.206694696850939, 98.424867834276810,  4.060165114469201
18.872710495620737, 15.952327245420930, 21.103710675601388,  3.950245203137924
10.544954258652115, 12.848740577834320,  9.555036809726111,  4.366148523361817
16.496916765131495,  9.148788493867571, 89.490419263544936,  3.848146763090908
 8.511131829924485,  9.467978306814759, 105.437749057967295,  3.897084136983425
 3.321396383845276,  1.567128780686503, 101.649519636082744,  3.867012622597457
 4.632689882572899, 15.501721907328729, 54.178074294634548,  4.103001817967726
 1.110545263473868, 11.789676102726730, 47.894450226535760,  3.947410410609534
 4.107138513448490,  7.310791347497918, 60.430627874368490,  4.234373326919770
 2.023697427697953, 12.145577190758242, 90.053357139675555,  3.839569165867462
 0.532733626808835, 13.223363715992525,  7.169890277351009,  3.946508950866665
 2.556240245039285,  6.969809002928455, 114.010326796398758,  3.974415428505513
17.747204822408030, 12.514104833412455, 87.602391690479280,  4.246505490848417
 8.923655112944761,  9.859271375245925, 75.815401553500749,  4.158900351518149
 4.872215409207588,  6.734735668584519, 50.268949088639594,  3.914310427722457
 7.298163788787429,  1.722188638342183, 63.576397065005665,  3.961496912754995
 5.197599741169561, 10.305767123825264, 57.859593733639564,  3.944853053662280
10.868959041081537,  3.177362942204533, 102.666996699396051,  3.744778108617181
17.242213050112287,  4.947429478623133, 21.410119549313119,  3.889437691140013
 5.451441092033574, 11.404160687888936, 88.405454800758207,  3.903209323434899
15.504181283997706, 12.691128338237066, 74.084320635984213,  3.481976735358977
 4.241209774986236, 13.178306487203901, 42.989927825764468,  4.046805911776468
 0.343745733606548,  3.999858856721480,  9.655455745004474,  3.978876232624168
 1.039579775051192, 14.251317323643434, 25.131764812916298,  3.964730769149840
15.425917485866229, 15.361496383154563, 59.574868653738690,  3.853183001671940
 3.141447300677812,  4.498180890305680, 53.254272517277947,  4.277454055493582
16.796049635381827,  1.286177645870578, 98.661726258552562,  3.832554580032549
 3.599312636218595,  5.699762701702711, 31.661121746952798,  4.258600971631990
 4.955691406856108, 11.467451534743795, 54.072184006373384,  3.986511088057360
 6.415629861207344, 16.451781808231498, 79.660719049409437,  3.916717035815128
11.361537509283261,  3.518752758537933, 32.919100081376008,  4.022264816075064
 2.959523387355871, 15.819890978964995, 97.065075255657504,  4.132726189418572
17.907257409630304,  7.609199441070865, 16.913003974718848,  3.974197415379217
 6.683633562267667,  2.738752450899036,  0.894664399344263,  4.259456362924335
 9.356087514895625, 18.836550248996108, 111.099535006711591,  4.188030759689090
16.317479218739798, 17.433992923791596, 69.963874232537208,  3.441577205496301
 0.123386581381278,  1.177000148826877, 115.534551058065290,  3.968143279034903
 1.880872858091409, 10.217253229246589, 18.166627442180854,  3.930265507354933
13.759850201844534,  0.481215800614609,  1.148807712499742,  4.438623948760470
16.311836327435671, 15.555051427232991, 89.813073927304828,  3.753184519398242
 1.477265986452065,  9.738121720042844, 24.812372822568395,  3.778896478947066
10.592227755655980, 12.404999103159629, 36.818084257940804,  3.880428911720985
 0.853330094922029, 15.116075359168741, 42.606846230977261,  3.792192676748572
 7.364761252835876, 13.518045859821317, 56.401532284584576,  3.803400432588505
 3.769582461880416,  9.397461051378171, 74.473573108516788,  4.122824343694587
 7.203689427848865,  1.022378549290418, 100.653212153258622,  4.198687635586017
 9.530044050866959, 12.699108273864152, 47.612229461738558,  4.229144565185051
10.867072429644523,  7.155706767815290, 93.131040013020652,  4.040757813280332
14.498336101409929, 14.397359064010779, 94.875708630482620,  4.687543550067777
18.709060617275746,  8.308647398467713, 27.900223911613182,  3.822614638393957
12.380882628926640,  7.302314732081769, 38.507063227022435,  3.872140073798104
 9.059955966844800, 17.384280117194400, 28.628195172685061,  3.912752794173611
 4.744630466791182, 12.275200653195553, 25.599748370286417,  4.477999991002458
 0.778362581889455,  4.021846945830650, 49.959292527246077,  3.808218205518946
 6.971482596474925,  3.141072040576018, 16.392851545169300,  4.021431434989928
 2.981415194916139, 13.727934494829697, 57.595908491231825,  4.203448900396403
 8.742142496735820, 11.463863327686875, 65.820454977534311,  4.148626299232600
15.157629788712432,  0.728610669552676, 51.745862240583079,  3.825166993475154
15.291559131875747,  4.182902796450164, 39.788932466558443,  3.888164098176658
17.124945981304180, 11.730402100632329, 30.570085016410900,  4.010459478989796
13.340450200848702,  0.175205643835585, 34.083532881541181,  3.996677912581966
13.760828317301280, 15.777251503481157, 53.429799621455892,  3.778164848098627
 5.788437879926740,  8.347479468610567, 112.422047779525769,  3.731546216473246
 0.018976550743172,  2.339824353684238, 31.319137763289429,  3.656933209346259
14.854939857327137, 16.672847806002718, 75.074392776914152,  4.025256369837593
 5.354577113288736,  0.555662224018107, 111.167885943525604,  3.880987826044139
12.957906862915973, 17.431860222937360, 97.651734889519233,  3.898393392428558
 1.871145065847076, 17.012763714417613,  6.640392025594727,  4.159742014630070
 2.430390744525922,  2.639453389501572, 34.433256093648488,  4.230826370655560
 9.872546428424020,  9.300938769181153, 70.984422485268169,  4.082263359491492
16.609169281097095,  2.503939435290076, 28.067617107990511,  4.155697593976531
18.815451348185782,  2.022702641450319, 62.309476725346101,  3.946402518626510
 6.070276308962983, 17.915473749064557, 51.414874479334841,  3.771274059919988
 2.102036201621654,  2.321178784752977, 109.802072508599423,  3.834011219632529
 2.386216906481971,  7.108141006442862, 11.447754841747438,  4.268300337336946
 8.698981765005104,  1.788331872773281, 52.793000728027799,  4.422284207082694
 4.066138928329564, 18.068249033182912, 39.248181829614452,  3.994975088377970
14.770982434216634, 17.320227032575492, 107.332550392542757,  3.956906412125728
 1.602159779491366, 17.865467759509972, 55.769306006113808,  4.088145689224574
 3.220048006373563, 18.457120202279533, 93.850308749896840,  4.172445586144436
18.169156457028595,  6.639830937661507, 52.534141276998156,  4.164530262287751
 8.761452656465147, 16.103416498161295, 71.749916240557553,  3.933002967046157
13.731950591555986, 10.257975085189164, 31.440955074062135,  3.581015884360347
 6.914792591780566,  1.251445364497473, 93.171722868965333,  4.007232703308316
 0.972200179462829,  0.105712719458156, 28.189298774444634,  3.961333088278716
 6.794736675506884,  9.026682602299442,  0.756906581231773,  4.256048222384958
 8.598659739756890, 18.956657131473605, 18.232122923604059,  3.954867692091661
10.187590166227857, 12.982212720547290, 40.703334059319545,  3.959584065715547
10.383262705499384, 11.386990918222052, 58.404970545453743,  4.565731033944983
10.097020473301553,  1.163458967468758, 77.185789039252342,  4.108223615351425
15.895230854045113, 12.430748174316349, 106.105350876262236,  3.835587056014335
 9.136201830849229,  5.913597170172212, 23.349094089465364,  4.116901744760009
12.747623893113900,  7.235500895505668,  3.944785276785259,  4.098379059401759
15.552415001548491, 11.258802029970107,  3.186548296133950,  4.151173661962035
11.800642656581019,  1.226863961893060, 29.591067655696389,  4.094108862924539
12.386274079473241,  1.332796471204116, 108.561094449738675,  4.046296068831452
 5.106603417511113,  0.384626837468396, 27.080465764209418,  4.038370332109984
 0.620846892741822, 10.639824058700526,  4.035651888906408,  4.158827844783283
12.496872680133366, 17.076542650040604, 82.651451088989688,  3.886457592669569
 6.031441152503595, 14.493712286389512, 11.965721506154553,  4.036954372970265
 8.308551703364502,  0.369882482752561, 56.614631858184026,  3.748492579182932
15.426892835613382,  4.235688367338788, 94.697891830789729,  3.778207090578394
 2.669020461919593, 13.212875755454000, 72.478496701380678,  4.649304483033664
11.729072250771798, 11.716670659827573,  1.922377531461902,  3.922507768381930
10.596590052257081, 14.453644093715674, 24.829566113827234,  4.379343635682985
11.249126158374901, 14.803846272347920,  4.250905406081703,  3.849321042323948
 9.536822033218705,  3.749351721762102, 91.354919142566686,  4.079010468579197
11.141327698000406,  6.635888380662539, 15.904182723754376,  4.203126756692003
 8.956177072500745, 15.353918512738653, 67.340193929441455,  4.208384850180586
 9.342578609494295,  4.272250589564126, 99.229224888177839,  4.068407471709452
15.876504763432154,  4.456717209935172,  7.011058319184143,  3.795435570650033
18.078806403328890,  1.891341164950580, 85.280418503874770,  3.785253657111879
 9.349830540362452,  9.348150739637703,  3.925295770072545,  3.889469346275251
 4.726721183119592, 10.789477904318765,  3.902252993880161,  4.019466765297419
13.377377975090324, 12.522276725360122, 61.067021294683450,  3.738689945345754
 6.856366900499404, 13.242317878841874,  1.394579562253381,  4.010565002418832
 9.805333754827144, 11.188048115797054, 83.711608107869552,  3.710402938131373
15.244450448729904,  0.446057411377822, 95.202819304703453,  3.874691167522181
15.722862975211052,  4.229364227516428, 50.009830527728163,  4.039712540746603
 9.779872047000600,  2.019414322560406, 21.904516304158005,  4.083614684352391
16.004355104624477, 16.463334803864857, 36.771091458208659,  4.069719697764184
 2.327506225077584,  0.821661145042205, 59.339940580779199,  4.082313397746306
18.322778919837802, 11.898941318106937, 10.818123911203655,  4.160509401307112
 0.688973571266022,  4.902679642636871, 65.955291836810929,  4.446940494902941
16.766635535357803, 13.628334526224327, 39.682174590785692,  4.151336790576221
12.089585494937788,  7.803390788265363, 56.557215638315341,  4.148787158661803
 9.258964434168366, 10.231632707968622, 109.303985985844591,  3.977673201682332
 1.203871694776443,  4.626554007212182, 28.391612986271408,  4.088399765573217
13.405668002661876, 10.818471956293886, 116.932067390863068,  3.920391922886476
 3.412227784803863, 12.973866431800992, 80.655644548555102,  4.132410355824825
11.562290426469376,  2.498879520188886, 16.890150409583576,  4.207744007864457
12.559333139821861, 11.159097020154743, 97.793090522684793,  3.878670744297086
 8.642141496063839,  4.464545815358327, 35.729344893794419,  3.988513713727132
 9.629074939590984,  6.932194980129981, 111.918725922002395,  4.459053929161162
16.085741926811391,  2.849832055276835, 44.379438076733969,  3.928143715059528
12.398013274716240,  5.414373422152269, 42.342195506174065,  4.176334401855160
17.437623831515449, 12.959515119396960, 113.302990681200484,  3.907188255141708
17.253100551523211, 12.087923730843215, 70.836427730787108,  3.972616566721527
 9.525474307048437, 18.340119564400425, 90.798764702846341,  3.916762834820261
 6.463491669967995, 10.247045538436781, 102.261281099957927,  3.767494513696356
11.105758520938354, 16.179419488510277, 35.668108372243530,  4.053714376110655
 7.526154408069600,  1.769626820237877, 29.875886574953558,  3.803398510434270
14.087517959814827, 11.098187047239207, 85.790135145487270,  4.265687127247087
 0.588162036530259, 13.046531457997496, 83.782192117354725,  4.221057276327622
14.959036161567370, 10.342069365799077, 67.868895455790806,  4.180572497672446
 3.786333006911552,  8.824536640199543, 14.972161188894013,  3.999871351975401
11.762267973606454,  4.369895218005145,  9.072551061205939,  3.860020227059612
 0.649281130211614,  8.176507987677672, 21.350464864072933,  3.977407708551641
15.501069989088039,  4.566557243837631, 72.696604291218733,  4.037917953941210
15.407069156022672,  3.949426319944161, 54.074127907764421,  4.127889327344831
 4.583005480675610,  8.492149610379364, 46.791125757450551,  3.786643577605890
 7.117465388190069,  5.687514896635402, 47.019108046997182,  3.714045363926703
13.482802821987843,  6.360761720021673, 63.638541035409034,  4.221525259654351
11.168971092079886,  9.196236661398640, 100.805199991418633,  3.820720114214960
17.951946355346276, 15.340786134708511, 72.940831349009159,  3.896935551954887
 2.187766861901490,  2.920954696114753, 69.706933607738236,  3.832151676207175
 1.388503522119494,  9.320719835013371, 31.501765932943290,  4.226099380769824
14.936713900165209,  8.519254427164018, 28.402527069655051,  3.787408296446600
 3.342893077590678,  5.572405999655055, 106.882336942592175,  3.582459237005837
 8.719461579935430,  6.939386175857780, 89.109426235601404,  3.888107356420889
10.157371015079626, 16.939362126326483, 40.133391966699079,  3.992666345731879
10.128189436356500, 15.524379240418243,  0.445456513404170,  4.184819022942984
 2.426098907079972,  2.756331352505148, 83.459373778265785,  3.950454421266897
 1.684645026425016, 17.956917210743985, 35.937556146063315,  3.791790083488799
 6.898687086174512, 17.413823626453190, 108.042732386841919,  4.151433855346032
16.352459410870253,  1.730502158869700, 11.032821014209151,  3.958547238778054
 0.413166033714086,  8.900222426715583, 97.899103240434982,  4.221125467097441
18.401231100321816, 12.855987346023502, 62.024441037598486,  3.716692533455317
 4.138445007016389, 14.851921186273765,  3.946115862268136,  4.072353949986992
 5.409926597402706,  2.307235996051355, 107.540517501429690,  4.174058069445366
 8.497340119220331,  5.298614874991785, 50.574177335448297,  3.883167449879100
 3.195953917409273, 17.862407904213981, 113.987783728555044,  3.937648363030144
 3.354475471228644,  4.785299528221646, 47.118462539845616,  4.009001924621693
16.254804734090840,  0.683340513381299, 72.920847599678908,  3.758130888013577
12.170852049316691,  3.010929164993116, 50.925013833118996,  3.678995253533504
 0.274994035549824, 15.177421035972705, 69.200510535588066,  3.989850833566225
 6.948721196133151, 14.273071371392238, 18.069866038636562,  3.720694034797538
 8.339796578646999, 11.824049610979344, 99.041494553430624,  4.198048674975588
17.678823912238641,  2.307764421548890, 24.217713605550703,  3.826959282896734
12.046757464435011, 18.650907121801264,  5.023791070575493,  4.135898542748413
15.477475224692403,  5.299308386320361, 103.596817340313393,  3.977693473140881
 5.244801529346049, 12.488741485437691, 92.231359140751167,  3.961668907698363
 3.801324376729704,  8.647416105306380, 28.031001635925318,  4.276061323569392
12.848015458340926, 12.654479534236051, 17.079691818458286,  4.091545894606846
 4.250949311613081,  3.688324631550485, 86.786150767141493,  3.861641775669303
 3.293280000720288,  7.176162107147328, 68.383995677252869,  4.000794328877972
18.851700887841609,  1.724496598836793, 53.166646642412630,  4.269670487964523
17.879728746447896,  0.969872672173744,  7.272931458381615,  4.232072139787004
 0.975933824934210,  6.001488695590083, 109.708979963493960,  3.817549750086702
17.788297292388830, 18.124193124987659, 77.490365792255574,  4.082660861425796
10.864314895177570, 12.816800815932016, 29.982964499419499,  4.009912287362813
 5.793604219044484,  3.048124815731962, 38.589008037188236,  4.327598343805311
 1.366995679228401,  7.431006161681094, 44.734368630857624,  4.136623486231326
14.766429594198833,  7.158830428755325, 107.203646044319257,  3.939594468367950
 3.508533525663005, 15.721847437809103, 27.927117473481442,  4.046416590566595
 6.585309657439417, 15.448898740775155, 40.759765523323743,  3.847525431742981
11.308178094799374,  8.181760126052080, 66.939640636667718,  4.476756141075868
 8.718231991083547, 13.620163069604111, 78.138924253526952,  3.953730658886531
13.309248603165212, 13.908594636833266, 108.500631284669311,  3.781737899516706
 2.932282836579169,  1.942298926419728,  7.367330146606665,  4.015886874921903
14.227413156831403,  5.207961243180455, 18.605219518785127,  4.113334505767641
17.367695997593678,  9.701548488771742, 46.106312851264775,  3.741967645272701
 2.344426996944222,  7.717557965101644, 56.692175103269719,  4.015457135053391
 1.911030545016684, 14.585364134299850, 93.160114495364368,  4.043454031059754
18.208297825176608, 12.007499913375685, 22.145011284069778,  4.315351662055788
 7.755213931892796,  5.981310792483375, 13.632853121564064,  4.047853621912965
15.612438079607131,  6.265998756716597, 67.254854918527272,  4.165745478760400
 5.726325198454051,  9.784089577505755, 81.817343707027916,  3.754303560411915
12.267490669938351,  7.303515007936229, 115.256984240408570,  4.074303626875333
 5.281358280942881,  4.725964066130205, 100.023835509485551,  4.198152995318927
 9.331404067372018, 16.197516243543006,  7.371303486617034,  3.970778447640155
18.895153989860752,  0.583511157206719, 14.957797893142388,  4.108505827351864
10.540958329769667,  8.701660775952217, 29.851384824660830,  4.176157080080992
 9.229088696487795, 18.594076613607609, 44.783425934597894,  3.851287533721237
 6.844100571971298,  3.114908369404065, 77.935930942959317,  3.610072608336002
 9.918023805501923,  0.563134706039870, 117.695678763779043,  4.187662303940415
18.771341386742581, 18.591679157185915, 111.760344239827205,  4.206135896652247
 8.367355334356386, 17.468736176153953,  3.628952120120626,  4.056381415116301
15.661924995009921, 14.204585739085633, 83.723398150100891,  3.811721065599780
 6.503486168747569,  8.529397198263977, 32.977279734116259,  4.253025780152774
 0.309294949477959,  8.369085206915136, 41.112943595570137,  3.607683207530664
 5.370460114574957,  2.678242289108954, 50.091429777941151,  4.253717059851056
 4.423631077466868, 10.771131924426864, 50.073418957108913,  4.195304047956502
15.195967905246913,  5.113470406929800, 25.233704178707583,  3.920170831730555
16.143606134872496,  9.725134018749971, 63.583530695255483,  4.357556950806058
 9.026447752248291,  3.629332975450197, 109.192393606704783,  4.184268555489771
12.194860584826049, 15.133949540683455, 12.711502443858178,  4.089462736207357
 4.534449189989283, 15.973872804534730, 83.373417404598499,  4.175718723467340
17.335176456506893, 18.872244857396065, 33.816184336206454,  3.996219697762093
 8.994387067342522, 11.131029262468727, 26.720282633741881,  3.815984583832700
 2.820520554639233, 14.671352240601429, 87.071878412386766,  4.133469067492705
 2.914820646958962, 18.473011520247908, 47.950958470525457,  4.135418037866001
14.454311572885636, 14.341386340942371, 29.137870549234197,  3.941716278479956
 4.562367529551958,  7.812743395100502, 20.922112446558270,  3.815946543480031
16.512350035825722,  8.031487868691746, 80.213112596970220,  4.077012704870554
 4.222218737766338, 15.372503775907056, 34.428841799956267,  4.041578894457164
 5.419447411131368, 15.260156912423604,  7.801509640791765,  4.085396415207618
16.739693991443765, 10.756808755751329, 42.491507950913849,  3.847480201558654
 1.687516571489990, 17.110753026765657, 103.944541436168535,  4.120741724532555
12.917173003036664,  0.618318136650363, 88.726180381378228,  4.181100978511822
 7.271801784554255,  3.568593801834367, 113.157284232132341,  4.057657961714390
 2.034072356338819,  9.602192081996236, 82.017999333765985,  3.639320241507055
13.403276726026654,  7.229053578712445, 96.378208192060214,  4.188877209419084
 7.391448349788699, 11.890358019967103, 112.854734121445517,  3.790528741809509
 0.043928040025084, 15.524547537177751, 49.066421956017365,  4.138945615704759
 1.822131413685528,  8.295530667379312, 104.739117026359182,  3.863010054756296
11.310991620226499, 13.683300673890530, 20.748983993275122,  3.985649369246798
14.392342849258144,  3.271587750377213, 60.947771435198050,  4.167328615644064
 2.842688446779641,  3.084466335817853,  1.758636719082987,  3.575602286158226
15.316406131375516,  8.949625911513342, 99.833173879735099,  4.213381822795202
12.131050014456180,  3.887689384793992, 66.860571237852696,  4.242943191508938
17.533748398852701, 14.320986828431277, 76.600159600363938,  3.695554198103523
 9.564177744471280,  1.763574115964897, 70.991287166988343,  4.130292193525248
14.866077104471387,  6.995140779774948, 86.512029052913661,  4.184801962002230
17.321088208346850, 16.716252452908257, 97.141694531582871,  3.894340557920840
 9.663335106201707,  3.850195627985858, 27.029454792080998,  4.386484947027581
12.984168634938410, 18.703119903922449, 38.049533974125161,  3.831189074155859
11.959048506804404, 14.187617009902496, 50.502929410923905,  3.791001506630274
12.674978003703201,  0.342676583984819, 104.624711979269236,  3.902667362950607
12.712417308952176,  9.184515811786630, 82.446009126274234,  3.783301428901253
 9.059868626765041,  0.249424065462031, 25.293163629599519,  3.691755407589469
 9.866689194179285,  8.478186451145151, 52.787778314546763,  4.293768728949057
 6.131450513649700,  7.486226318864151, 54.838500101659953,  4.291112125013687
16.831397829797822,  7.562271517364532,  4.672527977098977,  4.195343761203331
16.721875250360050,  1.755556417588823, 91.581838968210164,  4.358987283561889
14.405105145816224,  2.099731238103228, 101.579133439811670,  3.875239270003477
 1.339603266094652,  4.178361205503770, 98.718824346890941,  3.940670459422042
 0.531211773639198,  6.989657865127992, 74.967128034248347,  3.979544094736724
11.831544333399444, 16.508752169016880, 31.401465985436360,  4.076025604920375
 3.374891421780919, 11.234676851402297, 11.705332045661248,  4.145665388768393
15.805917601876269,  7.973763581720437, 39.990278447434918,  3.696134009453979
17.505165237518874, 17.549452499710124, 118.383013079974006,  4.332111508790029
16.115455438650919,  6.867832036103557, 43.719471200464064,  4.077850078061740
 2.486942199543412, 14.866737206688542, 46.049436575832146,  3.734719358838679
16.026471643178041,  5.699345625651423, 58.029118755602553,  4.067148563472994
15.734217865857005,  3.390084274139812, 87.896653623929396,  3.721082273541050
10.786215835699933, 10.498410644533388, 113.613664269208286,  3.668774554263299
13.866086492873094,  4.321465298996374, 117.312152388307069,  3.832948180051534
18.478678787535927,  5.876691489123955, 38.507890368702725,  3.687758333378887
 9.394848253034711,  0.636010849043276, 66.846984298886767,  4.089085501945558
 1.588705270917596, 14.898764773948965, 111.775899023999443,  3.989734166035901
17.418173160020498,  5.800928726543884, 62.400612185619593,  4.103188945169297
 4.935383532600230, 16.808929338380086, 72.151249054983168,  3.831565936660085
11.780958518209236,  7.514621272515087, 26.053625491854401,  4.084005053380459
12.415272098400569, 16.455918418725926, 61.726366870516863,  3.811560730316460
 9.008005344285504,  0.086891621567738, 33.301677761184443,  4.332571612866770
 4.088014537790291, 14.897534982560316, 49.726630782312284,  4.101938700938399
 2.387480107390242, 12.074576116288428, 64.119406452517453,  3.508883990251752
18.494544585824489,  6.329362855040404,  1.227283595321890,  3.815909339181950
10.145302962186738,  3.919390067873450, 95.330846585930246,  3.913437778243577
17.799349618128112,  8.556268619222973, 13.061966194075392,  3.957560226502044
 9.898309877110785,  5.511753830710250, 69.724856368092404,  3.696345063996540
15.779833465688862, 18.252259679263194, 22.409631550125255,  4.129845491757748
 4.222413986190575,  1.722792279409210, 73.303023732184599,  4.367833115092858
14.017130624579519,  1.456378016300134, 84.717702832230458,  4.288709150562544
 7.412572018377213,  5.047201860357864, 61.009491842050004,  3.784266982732633
 7.718984592490663,  7.513515354507438, 27.192856066124019,  3.906302996065049
11.847992379692146, 17.567825610251532, 69.519681630004456,  4.172871441005948
 2.155319480097198, 15.119221238775495, 10.476926132703735,  4.327820851219538
 2.720914707602322,  8.467742652280180, 78.348393512911755,  4.071663385249354
 9.988497775409638, 10.176517104494792, 79.787540586161569,  4.080480267831968
15.800083207668886,  2.915988951960021, 64.833361463372682,  4.107386080012821
 0.989022524561528, 13.652485700376621, 32.505464391848676,  3.835606711559719
 0.391255291458131,  5.958958446945083, 82.216051096533249,  3.996154157461347
12.283600166335347, 11.296763570793749,  5.950002117875989,  4.202937585716852
13.290638998783573,  7.144172307041813, 70.538819805995573,  3.998226195201671
 1.990875507251298,  5.034142035077566, 91.838322564922578,  3.672369315759583
 7.103331932039581, 16.451312643152434, 92.903824668292046,  3.513932244388405
 8.448793661450393,  8.233562918057050, 115.667031692887591,  3.796804405024827
 2.577904121401207, 14.179439009645321, 18.554720586850404,  4.099749524736287
17.858942392667934,  5.214507054609209, 46.879902839885403,  3.767133433321971
17.388148450055230,  1.822539117326305, 58.654243041773377,  3.889390523993129
 7.851100983100054,  1.927149016019454, 12.490413683676277,  4.330711351974984
10.122207511743332,  4.292477680569344, 63.487402905150880,  3.644664960688627
15.471917451264630, 10.364657139947779, 76.995342812724004,  3.957001194387346
18.116391859306294, 10.061255534566197,  0.328295796330275,  3.891440560112797
16.594733664074443,  2.695077524223997, 76.130166009831669,  3.838583449714442
16.157092341860437, 16.215583878829950, 42.686015301116669,  3.804931412119136
 0.628554996429736,  0.032209376696637,  3.348454675083993,  3.872787330647669
12.496063174564364,  1.512814420140904, 44.275390958021397,  3.685832153296502
17.238202163102780, 13.534696476484903, 45.485582898112483,  4.025095179777456
11.293626388727178,  4.267671569545747, 87.582750729534055,  4.124671737760682
16.860879868715649,  9.248515352824885, 33.756689507265747,  4.084163743429399
 1.695032942066316, 12.086381963258289, 108.842356473464633,  4.139349059956404
11.276329362264134, 18.693761233708415, 100.976616210742492,  3.963510732412282
15.752767687228172, 12.509880393189988, 35.941006014364604,  3.916441540892325
 2.997722751931061,  9.069324460346573, 101.068664103565794,  3.910870176156174
 6.028914796189001,  3.357093829902008, 103.717206420083144,  3.808077318299492
12.665077400783526,  0.069846919826629, 11.494634808500656,  4.120420718186555
12.958601125867492,  4.911948087352944, 110.407985504845598,  3.717479417503625
 1.709474607437496,  4.457916927669586, 116.952872632521107,  3.805819386016780
 5.250726724874890,  3.930620039306770,  4.751439393702939,  4.019132030831011
16.226837567107282, 10.851595449717266,  7.254261699590058,  4.114616267450386
 9.460187993679709, 11.821725723181041, 117.076626114823583,  4.167915049387120
 8.851880637168000, 16.930588590233505, 21.771567333629296,  4.186032264031216
11.116399493527222,  1.733376765217874, 40.782005557197451,  3.817716460399162
12.478435643593221,  8.597823046262290, 89.601387325631961,  4.218239618830952
16.588912890290665, 17.593147089269202, 26.413953732280504,  4.139733287908679
 2.442799578268040, 11.052564713164838, 35.025353172980076,  3.891796758725452
17.524069262346607,  5.572348505762686, 90.382653242929777,  3.790227990084374
 4.563530502589035,  2.601397605793303, 66.469381214252294,  4.183945826225917
 4.245426146433986,  0.846124580396292, 21.965573829311158,  4.006040523927650
 4.446091373688008, 12.126121833469666, 84.492852767374771,  3.794464500525718
18.667691404538381,  5.133915565391084, 78.381354220236190,  3.965171539835957
 5.571417874057413, 12.663603420484598, 46.686886232351000,  3.876532864386667
 7.815060156353658, 12.670266634497871, 70.127636504535914,  3.820171932317942
 9.234546848470652, 16.518110943773454, 103.674378005278740,  4.049762388584167
 5.097219725529495,  6.269700383321252, 36.067741830433633,  3.886922107355188
14.962115302838106, 16.607850355601865, 46.157325887456039,  3.548628331836126
 9.478063689386628,  4.976632181089900, 39.539099548944343,  3.847957636415812
 4.483968517571858, 17.114669263165979, 100.471688304640537,  3.699273533122865
16.442865799111214,  8.551953199042604, 72.761519285731822,  4.144395458095808
 0.090837424288057,  4.686859950523988, 55.825106944508974,  3.686488876544854
