BANDS
8 8
NANOPARTICLES
cell(1), 18.950
cell(2), 18.950
cell(3), 118.435
 2.985925173203245, 15.070180232073008, 118.041649879430864,  4.282377832824586
15.674860800772191, 15.931907206320535, 71.694499264734134,  4.166511013364047
17.301987528113553,  4.278730393974037, 58.739329824818526,  4.231838056030030
16.825594721645555,  5.345878021130699, 22.377870804834849,  3.869998116459980
 4.723348902142207,  4.788239238206709, 18.704595755057710,  4.154548764578495
15.652237797686785,  8.791461263570945, 41.057200730811246,  3.872008278598491
15.901845897478283,  7.030453999802714, 25.814891922621136,  4.001119182780854
 3.585966516517172, 11.493239050313791, 79.141146887942639,  4.088315429394403
17.776856679610692, 14.388804941604869, 24.548429901027031,  3.952811575582705
10.025208431390293,  5.872048499082942, 58.711755443822803,  3.853270210779607
14.183024458630497,  0.508702335663169, 116.030405102242526,  3.817150257407318
16.813218235843834, 16.704500321480168, 53.377665448612021,  3.986662340534809
13.748425099760572,  4.356408483843126, 53.572399829898636,  3.859644633850231
 0.246992731998229, 14.554755222110051, 110.402076883576953,  4.020796830615220
12.632773101274431, 14.475082498703612, 31.831703788115007,  4.042412061385753
 2.187664539664232,  3.526389783437754, 11.455720005552816,  4.072792389798684
 9.717709619424964,  1.689793623263517, 113.422738829082689,  4.327110382587310
 8.328684622575997,  0.896826062669145, 49.468206969805856,  3.965365016206982
 8.501558912988688,  7.854771419782910, 63.440297485443594,  4.090730438583416
10.675205079298530, 16.314262902854779, 62.059590726359112,  3.724051218275068
 8.478170160043167, 12.944828780736771, 70.267428651514962,  4.297558726761617
 1.028352534564499,  2.561575432257901, 102.653670837951452,  4.186643821277060
16.839086464133565, 10.518122262968756, 115.215179139329834,  3.633250607097034
16.587523085488296, 10.190788024751740, 44.748924788588496,  3.664500844638861
 9.870857213872720,  5.945552772557174, 113.442388106112389,  4.157589525517685
 3.274829318923043, 11.962664492015930, 55.004400118485059,  4.097651337392604
15.911667917764005,  9.960485605006612, 53.430359039537286,  3.823403542731882
15.960711156862304,  4.772786983187977, 104.563575879015985,  3.841726880501349
16.868517346012730, 17.921453812488615, 16.216876845616472,  4.061525955723854
11.843524193012984,  5.317944692132133, 72.723289786115359,  3.828976493688419
 3.002688784929199,  3.855284446381772, 116.774001363341938,  4.062966196308801
17.700351622314475, 11.054066170655998, 12.704192960329189,  3.780985184207660
12.368211288762584,  0.194224550351940, 11.098454464574017,  3.901035265433709
16.187126932532212,  6.825392682505997, 111.962374589330395,  4.131747179820683
10.942083864719233, 14.650503349467080,  0.733080814530172,  4.411819832603938
 5.032998651053021,  9.220851035448765, 76.136480861522088,  3.794925595881646
 7.226608481964624,  9.056613964027912, 110.405311831555650,  4.125820490299832
10.078332049112980,  5.046623664974303, 88.339994663575069,  4.115543350251305
10.899796458377297, 11.629321938630873,  9.938839971897179,  4.115602497433907
18.894984821514932,  8.542420942819428, 23.777695730264931,  3.813549821034239
 9.809475760022039,  7.126301680441159, 39.271098037160499,  3.665818994768557
 8.549119443230579,  1.920029206384736, 39.980487899013312,  4.119561349622129
15.409568844412508, 18.305653801412831, 42.486660005470121,  3.826084682282101
 7.483303853262354,  4.241037175017520, 91.617316693376239,  4.347183041880187
 5.928068908896770, 17.470823083309512,  8.850480670964565,  4.361564509569263
 0.645555902596918, 13.249471864639043, 76.917719221509913,  4.070751239129068
16.189470186707741,  0.949860503771754, 29.202892752639681,  3.990131824329834
13.950176992187567,  4.037852832459712, 30.804105677823550,  4.276026713693204
 5.805439376769159, 11.302604843317489, 26.463373895200366,  4.125799553812969
18.131946721805292,  5.918587242321708, 86.686815299211048,  4.095769493668096
 1.957614285625990,  1.063321869862430, 106.399652138404733,  3.921201525165856
 1.679467783220418, 17.599278148947622, 29.543518039944274,  4.135373768841843
14.358015983490331,  6.654932451206222, 101.258928669140118,  4.368693391182065
16.322617536272240,  6.584334711357537, 51.794679731686962,  3.723449943740739
 3.048063992349316,  7.446790650081469, 49.445283925215222,  4.427978107664083
12.604201491458998,  6.291462833327253, 48.955628842086625,  3.893599665681101
12.348495491579518,  5.928600752810419, 24.290471565131760,  4.036886914135775
 1.740156304163495,  4.814149462202133, 99.281849774050727,  4.040284727287676
15.690231629966487,  9.279977026013970, 71.394379724897306,  3.932153123643029
 6.024023879629832,  6.694754653451097, 22.159735183845296,  4.151899068755212
 8.613738651136806,  3.818627991554694, 71.451349884355665,  3.720887838113735
18.767091469381754,  4.681778375488284, 49.443943995362957,  4.022261622769963
 3.278917450962521,  9.575652267100343, 58.233063274920127,  3.917788645120436
 4.412150117319212,  6.376898904704245, 40.820702647074306,  4.188480571805425
 5.958503066682448, 14.537455425089217, 45.354180795185698,  4.367176199904070
 5.165191587667906, 17.659040485973730, 23.221635340419684,  3.905088263790967
 5.610728837750029,  8.266572494373495, 82.696565057043387,  3.988938814553113
12.557184195170715,  1.168255807223789, 55.799500074308682,  3.880736453019442
10.381267153955918, 16.839877050231781, 34.188224986558843,  3.969606176290732
17.798930431933517, 14.802373841277566, 13.819937924863053,  4.007105525624161
13.852025588227059,  4.645373061384712, 35.446390377505473,  4.167636223139403
 6.609638629422299, 16.509681579691886, 53.432642309145216,  4.024601845172061
10.658666955672119,  2.076866084920745, 19.959937029384101,  4.031639052544435
10.644521655443400,  6.660968385332720, 109.486906777702643,  3.972356581308343
 1.767004925956142, 15.452422384114467, 73.581653181996245,  4.223072447676414
 5.287045657549254,  0.174588903975224, 66.027828729503796,  4.303171084698622
14.802770435978799, 16.153294190525532,  7.864376239147040,  3.655137461614201
10.978067525760459,  2.899057218135805, 13.656501283686532,  3.864975825287720
 1.833460253947779,  7.534487229779963, 10.853099161760833,  4.059987062000133
 3.661370275179547,  1.148009067284429,  6.216697401117787,  3.842479860264858
17.211463279492332, 11.359211643533325,  3.233024741820482,  3.812985897536175
 3.251562786895795,  6.542732455438720, 64.263253561539713,  4.083159010652387
 9.923888432696133, 18.075208933122173, 84.834540162782062,  4.165991207473035
 3.726650211884761,  3.777579251836291, 67.083054181207189,  3.781415335617406
 6.835254889925197,  4.000787200314933, 46.908098678851410,  4.005574156170653
 0.114945596278764,  9.647531299952696, 112.246545181545073,  3.824123287390519
 5.973327419167354, 12.722555815852568, 10.869072175446517,  4.043650801988250
12.813668171740696,  5.753429829721893, 80.892752095454071,  3.992667744007556
11.396671682351654,  8.360977463507028, 105.234863079507733,  3.882601080526765
 7.867881047474748,  7.795012101806620, 42.522942380264247,  4.014950010898281
 0.276919399927186,  4.598264589383593, 53.460889734439085,  4.059481593587473
18.522841534886144,  5.731194682915638, 66.252951034667035,  3.788697339431640
 6.085437885854726,  4.851664664652065, 50.737466729689139,  3.942512374947671
 5.884353798968375, 17.446076012419976, 89.508331127794705,  4.325507376641771
 2.965968987832270,  1.010850874774586, 82.432224576862055,  4.340275841158633
 2.866922369981079, 15.335512398678548, 52.699387201861704,  3.945347154082915
16.003905613218961,  0.205293363147176, 89.830847623887834,  3.891763116797351
 0.932730567197678,  6.776821530996470, 56.777220126511764,  3.943293585997603
 3.911153105844325, 10.548699552449172, 112.505661899033043,  3.989239335326356
 0.102482863525457,  1.056190557971787,  4.241670142776130,  4.293214057232787
14.888369305133613,  2.088037620526555, 14.476715911207227,  4.009846864724594
11.748699399661600,  7.906020293561677, 56.021175835880392,  3.687636118591779
 9.577144528698691, 11.036293723531612, 37.149000420689241,  4.012307265766277
 2.711135750497166, 17.331833766892832, 85.795254283851875,  4.020112564674053
18.776990350529019,  1.120999058961757, 43.630121180436170,  3.897113568332295
 6.412677860332340,  4.667301262604698, 57.051633109152547,  4.333986134676407
 1.223783301240181, 14.047132422289902, 39.104368099366255,  3.851988801371562
 0.064048578851145, 18.750234037496906, 109.724216208344359,  4.047840972083134
13.986060807256299, 18.613539985729950, 82.745097216154221,  3.879959740528079
 8.811674405265093,  3.736988793202112,  1.878768220031213,  4.265062484110314
 4.051224265686792,  1.510359739406023, 97.101875518640824,  3.747425190482400
 5.642701080567528,  6.237869774714895, 11.262186513716063,  3.728584977430350
 0.664463833654729,  9.811254801134522,  0.559826364127391,  4.011666109915520
 4.721684034435734,  9.193904473857332, 89.893348112329591,  4.177514515064755
13.232399798763748,  2.025769070980145, 44.139713713307330,  3.812278688995138
14.308831046510811, 11.099543465850736, 19.168782122229526,  3.974540817690411
 6.167997960867766,  4.440642614096380, 37.718031289606017,  3.793173460773077
 5.363318407447961, 13.443599718717939, 114.967157390113698,  4.140669804158512
 4.414101320520218,  1.649811814647884, 39.961190757066433,  4.163039101459108
 6.830915967894541, 17.360419309707652, 102.008952907470700,  4.092622989057643
 5.817239610342962,  5.693065385281745, 69.736179841102867,  3.821915391247745
18.153143933100903, 16.250892913681138, 91.900438882958952,  4.086671478936458
 0.802985904791869,  5.367369706376551, 105.774503067316019,  4.195924289152805
13.297251925842149,  9.212793656186539, 110.697731905659708,  3.774506022908334
 0.294289665792574, 10.974511342918083, 30.591360834810480,  3.809591082196989
 9.994053614062434,  0.904285533273478, 92.490356493728129,  4.179724756095366
 6.871907193054955, 15.443885608777160, 86.058436368281832,  3.881246696021039
 2.226046401445295, 11.703351771619952, 87.710435418794575,  3.830977006839658
14.375307191841964, 16.776174200990432, 34.674984580860162,  4.044424776476431
 1.711850006194601, 18.359475362172969,  9.365586671625085,  4.298734362622381
 3.615262596323929,  2.088855218850453, 43.954332885234415,  3.939858799783641
 3.437002147057386,  1.853123554299351, 16.206943643849431,  3.855424259026537
 1.650830812416648, 11.643134946761366, 25.762079840390474,  4.282671454064078
14.686639123121990, 17.975535281130345, 77.206641523082382,  3.793077051681564
 6.228693643391461,  8.658367266246518, 55.707613753844456,  4.056885729054136
11.928513121637762, 13.502852916244416, 27.809554761228235,  4.344961783896927
 3.209678833329475, 13.449272036465194, 22.409467662237279,  3.939973427176692
10.025573603929782,  9.132673512778519, 70.628013546950129,  3.848236668540562
10.554990157531231, 16.192386331982885, 103.582615783742824,  4.214794542337666
15.447813534077586, 18.852874707053882, 48.409908407704485,  3.983035985332171
 2.413024669903299,  3.954609976049869, 70.790935352157206,  4.086358406649481
 2.080990379567077,  0.433034838566852, 68.663199088818700,  3.983810270798517
12.132255067041585, 11.861683191442486, 95.179296109982843,  4.108599733789362
 2.463563209720697, 17.303957210950255, 45.130125714231319,  4.159264121778086
 9.311883060480902, 12.995076802547715,  4.280216802581582,  4.061733854714741
10.693074938790241, 17.884990052764309, 80.688584247838278,  4.010414414045476
12.027844362021476,  8.107780669388601, 36.484373542363059,  3.719952435952132
16.132657668266344,  7.734761971172908, 63.536707890623923,  4.092895380528320
12.689458170043405,  4.283571927446211, 17.204241063734681,  4.093331084866723
17.060939595524371,  4.845209151871343, 37.896587237476346,  3.833773046654171
17.728991253902812,  2.704047536454995, 68.590636509187291,  4.014506719165163
 9.293604559814021, 17.161864644448315, 46.387970078287168,  4.362412179514934
12.231817054963962,  0.967351829229587, 35.806222568966753,  3.888616724183493
14.208942632899525,  6.857210095367554, 107.634957963547365,  4.054154177074993
 8.747200654625040, 17.453878888572714, 95.632947784604596,  4.097108672197471
 6.678560358035726, 11.956569981405512, 99.399048587406867,  3.594113700574630
 7.101602835853692, 15.962342647264466, 117.865962095024301,  4.084430037585853
 7.395704887182165,  2.114672505963894, 53.196851602463070,  3.835203537369210
14.003166471749891, 13.217604776803181, 24.209959732214287,  3.960597447724819
16.091486679706943,  8.774628157558601, 104.527783356703026,  4.154206036037349
 7.153101257933935,  9.692145140105611, 115.415902956092680,  4.216681302113347
11.436155175654752,  6.187826979171669, 91.732185602728435,  3.494237456295713
15.792135126781764,  9.013489089182048, 37.084081930790667,  4.087891278852524
 2.851661334882937, 14.604673733450953, 48.219606518498530,  4.057940764074067
13.568281427954044, 11.821817073847946, 113.888675494219754,  3.878487387061787
13.098378684983940,  7.084349530154688, 69.628190505138264,  3.707507979313160
 4.221817216730318,  9.068144363987621, 105.737472316131431,  4.235842568631314
 0.645882261729542,  3.071660527432853,  7.793011327993177,  3.924834021686764
11.195968796674444, 14.453380334713222, 21.664886054015753,  3.990194728428095
 2.866478526533912,  8.071173835952456, 116.122017425128192,  3.984445229379003
13.235521998517845,  6.438976066458341, 13.949776615898843,  3.783083167022661
 7.421351488116076,  5.477471022073988, 103.209442733793978,  4.071042085013611
 9.278002335445596, 15.337644059557478, 99.468535289520077,  4.036932460879707
 2.432657867877123, 17.047790706291245, 103.905151997611881,  3.857545295921690
 4.508260573297295,  0.283193615885424, 12.447318136025178,  4.129786547696883
16.484405490544702,  9.077874171658367, 32.921751249327521,  4.339024895050716
 7.673309932620985, 16.588629375478774, 68.397834359913361,  4.041099509981627
 2.717696980694395,  2.961308877779930, 109.939184298014297,  4.213610624119354
11.786652214360048,  8.746761631054769, 88.533814064376742,  3.912501109567498
11.285479146147242, 17.610708086401925, 58.558978456376899,  3.805255330884932
 9.100353115865992,  2.999507425580578, 79.086578093113346,  3.755360231235937
 5.596239665118300,  3.634406390339188, 100.037165599185712,  4.117235458310470
 3.446195971151085,  6.319249935785784, 102.693406815114628,  4.096768458716132
13.372813777757749,  1.417221215052371,  7.372895458938231,  4.177554173883103
13.358878260398193,  4.477640164250479, 57.507356996066740,  3.713741160401002
 8.089071698592464, 14.619260485116353, 36.459629053455295,  3.862218237494575
 1.162127634345897,  5.434594208970391, 113.204894847259496,  4.543763502250283
11.882216952195716, 14.061776459121864,  7.026918534065858,  3.709845811771074
 0.571886419637902,  1.800755687143154, 27.535702474745754,  3.593862813906731
13.289269999100082, 16.829335363299212, 14.343118487099231,  4.272658303354896
16.971350706670613, 17.903687465568559, 67.232971287307521,  3.949246823806734
17.595725463906220, 16.075974845930389, 78.987689318963064,  3.974753170209314
 0.669888237080245,  4.766005006176548, 25.098489085569422,  4.013230584706730
 4.162285089188164,  9.407497139274124, 96.958708397256302,  3.915229045740649
16.940656136400296, 15.048640599366793, 99.267125665378217,  3.849825327095617
 4.807148298504591,  2.425233631635372, 89.115398281575665,  3.815102200980915
15.195386915966470,  8.556287813565802, 95.172803160069293,  3.919783505149141
 9.339561627804111, 12.576160811377838, 33.303886512292266,  4.033107814089760
11.032006550286747, 10.483301378744009, 116.603378511653275,  3.979035454262618
18.372172910840224, 11.607064581024495, 41.615678781688487,  4.018081292559949
 9.301906266899691, 11.752825486295256, 92.120745648082988,  4.215171294099715
15.216409790969996,  0.517311902766255, 108.722021835326785,  3.866068538116874
 7.623395316466460, 15.565375306534868, 75.269190294758715,  3.739844741791670
11.385197462668067,  4.797414274573490, 103.569256742124495,  3.980130865664656
10.955471674134644,  9.378515261312689, 60.474682074563709,  4.185426330965049
 0.201750352501060,  1.839847857182367, 35.617817297351444,  3.807497976637454
17.936256979103916, 13.038223834771463, 89.314265128811698,  3.861037118023402
 7.033441514153100,  2.874767607499885, 14.557607025775612,  4.227169914247372
18.524565238859999, 10.698778099023423, 56.582604131928981,  4.329232274279771
14.533073491242122, 10.099924272694363, 57.330587671125755,  3.867868804373947
 7.795996160630907,  1.486545313936864, 117.081295718124196,  3.860523607417551
18.237901831983532,  9.574221194494303,  8.529628110136587,  3.898894183364788
15.237572687289497,  3.532453026932590, 62.844880121138871,  3.973601871901571
14.686850779072536,  7.158879076505561, 59.842674166514307,  3.847616808143393
 7.301613373634153,  7.599713744408168, 94.246676922147287,  4.165510850504937
 9.405353536583769, 16.571390264785428, 71.983925572808317,  3.921429434463290
14.781437117570766, 10.908341255874449, 61.252847904068084,  4.120189874781050
 2.009082705804317, 16.639484310129479,  5.652602032397684,  3.894629972649645
 0.841887307213805,  8.488403465828652, 14.694270572813796,  3.905137590896182
 7.866325915950346,  9.279251446497948, 10.934257046835388,  3.785078627017449
 2.972553666887674,  6.705260949107656,  1.338237663232274,  3.702656623447250
 0.589315952000246, 18.319401867008970, 13.301435791500822,  3.868343982536456
17.288062393459764, 17.870020519338176, 113.068073162490435,  3.669696592049965
10.128179689320332,  4.127521961707518, 36.961451141715393,  3.925764472204998
14.532766776540354, 16.430158433517860, 61.067071424562819,  4.213162212252192
10.675670777354407, 15.535625875653679, 77.525978651697713,  3.830799870513096
 3.605200031003081,  3.147771813863114, 93.180225650094329,  4.276963309437900
 9.396965159637661, 13.878113600682894, 115.338796071823211,  3.910957161090820
 4.563125308457008,  1.112064438487811, 31.737189273459443,  3.976926960451103
 0.526383825005389,  2.284042546758264, 31.531271627939748,  4.434439512676065
 0.251985207770076,  9.656916060743152, 95.813968754313407,  4.094591369974378
 2.254786590845259, 18.820567010223126, 91.029847731630866,  4.008011231951281
 2.609810232271673, 12.881474694748739, 70.466005519166146,  3.953612352239031
16.930545098593996, 11.110322439483358, 92.641585754679269,  4.008591859161622
14.299357530413308, 13.500037286580644, 46.509804466582992,  4.084531952676792
 8.922638840024653,  3.679858802092705, 106.395843279469688,  3.828266788204876
18.052537730955752,  1.097454261648486, 51.346827776308373,  4.218629106321583
15.450982823658611, 10.241413336755016, 87.983507101631787,  4.041793408943075
10.068717289529802, 18.341922537744452, 53.460313515623803,  3.797339019859325
 5.702846543434175,  1.732114713499638, 69.930162999218780,  4.026810728483363
13.011232714616890,  9.496108832023708, 98.421982666562556,  4.065471339782040
 7.658939368707295, 17.942816314057303, 78.211195704484311,  3.823850261016747
10.661641359986726,  3.336894390829650, 33.106994165273591,  3.860134451158632
11.348257798451685,  9.563112518057597, 13.196604491072007,  3.645224331544449
 1.113318712478094,  9.444869529993374, 76.984461321667823,  3.575132775752085
12.663073438749661,  7.451079831645210, 32.733287118909779,  3.971362251332276
 1.966853327841039, 12.759177498122256,  2.722186130886350,  3.646522761793833
18.345587490108191, 16.178598813987957, 49.674455586401272,  4.063282503933868
 5.636997766568994, 11.301669463185654, 85.715957431195932,  4.081521879761549
 1.050740398826238,  1.945255886842727, 87.695096784915620,  4.205110023177700
14.451397085859771, 10.381723850229982, 49.879517358662177,  3.868212427095485
 8.926087510318133,  6.566409741504067, 31.704157446769955,  3.967906205866768
13.735511877393582,  2.057400062479005, 79.539903270846494,  4.080788109928804
 6.987495625565416, 14.478907576805835, 22.153440419333457,  3.725239426949564
 0.138119936910479,  4.335428524044888, 95.457366556610893,  4.231624906128820
12.369462989213954, 12.724285054426241, 87.497408927014078,  3.889249117607379
13.064253413353075, 11.188174435544251, 34.167260599590477,  4.051075661731330
 9.796772601639237,  5.673645452122618, 21.299951360950729,  3.808725688905299
15.578075165762765, 13.401565036013665, 55.329831578975728,  4.044563853118480
17.146054749858642,  2.744293153838633, 77.319585682793075,  4.043500853664025
 1.431302983225759,  3.674732002711666, 79.597982801489650,  4.001248074625780
 8.405718914964545,  4.496417489126546, 25.885740117906302,  4.147464055829052
18.450868643340918, 14.712308666267647,  9.338488375127133,  4.179323205978653
10.253725143494551,  9.919039791480039, 112.837136709780538,  3.782505103383842
17.829257570846547, 11.975315669745292, 106.438754905208242,  4.018522158567815
 9.766180168268544,  3.137800055070104,  8.695976603214037,  4.221529740507181
15.540584481968917, 14.339017525083147, 67.984029873691313,  3.859789036642678
11.716004302438648, 18.184225053127911, 100.391898796415447,  3.601346809980388
 7.768081469437311, 15.801099951104650, 82.292613681689289,  3.854302300256441
 3.822060893181537,  8.784053087090498, 17.599230053807730,  4.325740590227168
 1.065815102633926, 11.935959664247951,  6.171637080947375,  3.661118216063789
11.153091279102508, 12.263573705811872, 104.637900067910223,  3.989159037681678
 6.398321600228889, 16.290181721893585, 49.369699839885428,  4.119571351722334
16.820394428561841,  3.455312185629690, 100.224768658602642,  3.935070241693094
 5.403684902013683, 11.246485918406634, 93.556535372497621,  4.149643392989504
 2.042780786842832, 11.647981212842145, 10.581491632300725,  4.123458370792265
 1.013678109423260,  8.218913219881950,  4.574374048510833,  4.318011749311058
11.443505134046337,  7.946966315496968, 94.904163030352606,  3.698596963990465
 4.228386204858273, 14.385512291874660, 110.641231352671042,  3.920634529351080
12.300924181840401,  0.027328726667167,  1.177606929425946,  4.312342211186855
15.150700509124141,  4.275226235477162, 71.090348504135079,  3.786392143683238
 6.245243465646509, 12.086685170596486, 107.776610172381282,  4.084477334475291
16.178841087159729,  2.505549732892096, 86.796969553578990,  3.724806461239997
 3.035188356448401,  9.974460317986553, 33.240411035298884,  4.025985581008590
18.259688387395897, 12.123954219850736, 21.177367429789864,  4.197264016960728
18.570376629401018, 12.171914194019744, 62.375744582837939,  4.080325114252666
 6.155861894777113, 11.669170254067398, 73.312495723280364,  3.656847781298794
12.030217914197117, 17.154911223924092, 49.435572178067396,  3.817175526230644
 0.150514287020143,  8.341532314516945, 27.760532153135816,  3.925397641389818
 2.608420541857465,  7.339115217443520, 68.237478666651029,  3.979162568404556
15.885210147668557, 14.495313126199681, 75.611061389504385,  4.180581137737373
16.068665835506650,  8.241688150435110, 67.656717575804876,  3.675861044215223
13.527827446113932,  0.347922295269545, 112.222551461164088,  3.909247780987659
 0.212539144747949,  7.215738969234081, 35.552369796405806,  4.037751109097650
 3.084924732773902,  7.593899214601402, 93.385902822573541,  4.167914839632215
 0.916683804154997, 12.407161983849374, 99.100632305933402,  3.961617960679888
10.007616900236512, 10.711294830843496, 107.998417201133208,  3.737734475261694
18.848502835270285,  4.305660959943096,  1.249134621205507,  4.072485348815782
 6.686360687838310, 15.335610218600880, 26.204662535715347,  4.138229987195473
 5.529006199544495, 13.607871765921297, 15.465228079348593,  4.049857532315968
 8.430050206623795,  0.477910857082717, 31.893045757905949,  3.788627537097689
13.296272246874686, 17.281684075667915, 45.532687759303315,  3.822698918692496
 8.685174650458002, 12.133099431436245, 13.634611229676931,  3.785983118386453
 7.103395934118055, 15.454399868583653, 62.715226172186298,  3.636076413189423
 0.032596115310007,  8.886105729260445, 89.226939937031119,  3.867938555625645
 9.140273316123118,  1.569384284217082, 102.959965095061506,  3.911752041594425
15.177466624706963, 14.787806982162417, 20.759896073803642,  3.961509226672612
 2.608677341842772, 10.895229730553590, 83.037984717340507,  4.019463477658952
11.397894887779621,  3.490851539848997, 99.763720719170649,  4.010397441853578
13.484620316607266,  5.926914662777396, 39.367305460907254,  4.060106606329616
 0.225561250625618, 16.482532013466724,  2.221335542108797,  3.798324670427150
14.175741557160888,  1.603176261427756, 66.375979173187673,  3.933802126436322
 0.040693753181011, 10.078772343763262, 69.455154126304791,  3.881765669999888
18.475426606729890,  8.452941942348909, 60.189652077835063,  4.164397431273660
10.638330752458243, 13.649912763861002, 48.095304988265440,  3.852732833278248
10.597021024439607,  1.392411567051177,  4.535822902453219,  3.665727517214798
 2.087587596937617, 13.043590822424473, 59.415020778178146,  3.784666712165828
 7.028613214284986,  6.951602005564010,  7.726882040820109,  3.906217753449784
13.627531712717014,  5.596305365536657, 66.017509726910205,  4.152911684399850
 9.954592603419504,  6.508269044535289, 45.858597068239007,  4.259653979866243
 7.041378430275226,  7.806854739886311, 48.351866043612652,  3.806128000721738
 0.593099143245279, 13.259484961517535, 66.785313060976137,  4.459564690239288
17.033167518068996,  6.163219343900018, 13.010402692165190,  4.037421549596643
15.215763919757665, 14.276421306463648, 16.882067708304728,  3.859169117340195
15.193882001603173, 16.125757802279605,  0.806073868238094,  3.758346579449758
17.018346052031809,  5.105830845011260, 33.130679995940724,  3.685037043838546
11.554270401527678,  5.829835298967496, 84.663623545778194,  3.951559685460099
 2.289850936237598,  5.904838454089679, 75.940551701977085,  4.054551910160082
 7.560323302939518,  9.072687210449542, 79.290695317950281,  4.002836322411207
16.569799378598717, 11.092224705208958, 26.360974364168207,  3.940034231431782
 0.348622658052188,  2.493051496112748, 21.046295410024157,  4.077981832176937
18.681204433722449, 14.197076147606166, 28.420113094563366,  3.973698406301790
11.753944968339358, 10.153414404008014,  6.205732426180330,  4.075021683529227
18.365313867591428, 10.096321050512932, 85.272131561219226,  3.919448355882333
18.940933374335231,  5.042910706271417, 62.426612365742940,  3.975613258088342
12.252733246514079, 18.056589705298919, 89.626455595622460,  3.935303924845784
12.036450182515077, 14.173388002433006, 36.679201228749207,  4.011689445680764
18.831563252382480,  2.984026885008680, 14.797685691923171,  4.044738126994986
15.792936798362657, 12.088130229592606, 96.951929441966655,  4.003676257791271
15.342192170326618, 15.839152210927480, 110.382783369234176,  4.078388688587744
18.318098570306905,  9.515717906440006, 50.160357205818798,  4.034636729453966
17.499711515411583,  4.795067690109619, 28.738210064497473,  4.011568964591331
 7.043931604070671,  7.712080940411244, 28.226708292782856,  4.243006620252423
10.844319974513050,  7.208231164249592,  9.186481437132867,  4.237213533376050
 7.228013290860206, 16.875180274171552, 113.909356516811542,  3.937995634366026
17.241372456603763,  4.083521569816179, 90.298868375775371,  4.183654435310593
 8.139766448706689,  7.454296246612465, 35.661002115382608,  4.222812765894471
 6.900088194717492,  4.840309182463266, 109.827676856524306,  4.378662144674971
12.802039039847807,  6.818253291799596,  3.011463322375168,  4.078542872140244
 1.791632911146327,  8.663674840979867, 99.903953202433698,  3.675115290671278
12.216677523452711,  9.115108732557209, 73.950078301865361,  4.080386526473561
10.718856267118442,  7.135784136258044, 77.529902776656073,  4.174015444041919
16.512982377314863,  3.107551570085947, 18.142561475484626,  4.062252591299379
 8.329491672366499, 18.680327521581500,  2.013789756472759,  3.783551809233097
 4.047146595304239, 17.852817022162412, 62.213986207541446,  4.102847098837921
 4.369959375861119,  1.078464922371004, 27.698580526735658,  3.974197928673922
 3.486518409211172,  5.602259301545454,  7.671831266572905,  3.664409948853183
11.826304702031068, 10.537688310502624,  2.012666653258047,  3.824492330007221
15.810606199025123,  1.436713221730962, 33.494527234059873,  4.044079976930441
 6.723970167118861, 18.782829061015118, 42.940138519467361,  3.948358299026673
 0.220550206358655,  7.703226188471908, 39.563252166808553,  4.006079700861206
17.817836529029631,  6.972818413878454, 116.612612921624120,  4.184958085839362
11.219530345011778,  1.130241615195100, 72.484039164422583,  4.040785993816042
 5.650279095254243,  0.211722175931990, 46.701410837282445,  3.856300795051156
13.885237708177497, 13.581705959087172,  3.635511249160540,  4.112506091358457
17.924497352602401, 17.558726347467374, 26.684701414102623,  3.687310886339263
13.891337417719480, 12.484554194272146, 72.707205392640461,  3.837506678708529
 4.025979528251987, 16.161657039948228, 41.594915128479222,  3.887355877854808
 1.699440961285366, 18.502045404949950, 78.820734870134515,  3.830991860803183
16.696357799052535, 15.160923080205642, 64.322151217989926,  3.974427576213893
 2.231851716864880, 11.283818905533671, 108.780487624019216,  4.274905482675854
 6.910949980636672,  9.924764385906093, 31.666248081833452,  3.840014014704453
 9.838754116387738,  6.672825058944237, 67.431108570331375,  4.194535334403218
 7.870399911105080,  7.471070850711715, 106.729681254102559,  3.947206527189526
14.011083590543162,  0.120122466391779, 93.328868272612112,  4.159296024071818
12.239683242718211, 12.858216360339851, 14.841558756318426,  3.854453867420397
 2.081930786427987, 17.777803299043164, 33.904525578305623,  4.036880124229410
 2.465096044577221, 12.603666576849671, 18.543952823375719,  3.981068985595735
18.354227349625106,  0.409804511056713, 71.790315868862621,  3.940405290607690
15.988962295694432, 11.360700062294089, 65.395224735091134,  4.020245850557229
11.850152732547354,  8.596847808660995, 42.251335745040443,  4.107197394370020
17.407424395364480,  4.934852168890793,  4.989291477532286,  4.035057591972582
13.576071588960891,  5.430358585690174,  6.719489055278901,  3.936861836265968
 9.415305433421256, 11.060379183447184, 56.941894457109314,  4.201022583240331
 4.055214380493963,  1.124036692261399, 20.311616780722098,  3.958035908478452
 5.722209053220220, 14.523058847644766, 57.081558473644414,  4.101364560898756
 8.734139174366614,  1.158564754311438, 56.792316700458592,  4.017417175336415
 1.887555501576518, 18.052004040664659, 94.941604450409088,  3.932112019018854
 7.156763151894607, 12.474045330913389, 53.739276649367156,  4.122039618696481
11.560538803572356, 10.418157053222894, 22.048571018226529,  3.996041139178132
 9.037717577422486, 11.524104859301227, 41.257274670451075,  4.195802398737733
 8.101940078023937,  3.762368243694518, 85.014912055001176,  4.014137160001743
 8.660367282508044,  8.992420561738367,  3.884010658662913,  3.996164256766026
 5.251181474442393,  3.905386982097604, 73.857019925204639,  4.217716592394507
 3.550565905595971,  9.463433732970110, 29.270836943046319,  3.805672801442471
 4.890514806216567,  6.717787180963194, 31.514363380618271,  3.741712766723542
 4.093908033307628, 11.121977359695324, 67.318225690265862,  3.812699654781802
13.760495665496027,  5.783109322285369, 44.664276681013419,  3.844152470051591
 0.276098505162422,  0.773048015104607, 47.482233952421062,  3.882177248528540
12.650128644879489, 14.908206446761257, 84.004684648716861,  4.350045357691567
18.410870439695838,  6.519850063560956, 102.090754516265676,  3.903482769669910
 4.465924933594331, 10.686193770662946, 102.075037954882518,  3.780917475573723
 3.916839810156220, 14.548732335187049, 100.933904897245142,  4.258159468643115
 8.441919516057363,  8.984069964071368, 19.904311810523257,  3.859541139109071
 1.877332159551104, 12.339304492541302, 14.538258806736417,  3.895641461248052
 9.748491617040116, 18.017832324158295, 65.255086851136895,  3.732779091390660
12.802012376530431,  7.939429566018526, 52.412322396191854,  3.773096781900257
16.453732750424301, 13.208970201099039, 38.457047372964560,  3.866855482412621
16.723599714934053, 18.442868026182957, 20.297945883680711,  3.956733001193348
 8.498641492831563, 14.373390413836049,  8.468161005835203,  3.662893373976022
15.012035757548562, 12.625591722208540, 103.642744714201427,  4.012255935384895
13.024403330042436, 18.461042212082155, 105.705722691747368,  3.721972574581511
 6.901745097933060,  8.206944547975597, 59.693054887914109,  4.072772414571723
 8.014618464533910, 13.166785247208040, 29.472192238889210,  4.137718783441089
 6.624918336568408, 13.684690622641920, 65.969740039285284,  3.813491851506237
18.293469043880496, 13.436263536284635,  0.185127416477533,  3.732880877903896
 6.219421708976089, 11.856666068393148, 18.858264718551947,  3.697882182857196
15.430127624486360, 16.655145091461822, 103.256625460563754,  4.002091324938823
16.918933102010921, 17.371014785997279, 95.923619627126669,  4.179315255528708
 7.016255879701243, 17.588906732352100, 59.428397322255087,  4.034814567559305
 8.425089573683570,  0.794206896622675, 99.069590937350782,  4.119160811514885
 3.174993426229316,  7.165775779673607, 109.493422400180734,  4.288450103618005
 8.577637985773899,  5.467017701111885, 97.691237899430860,  4.015998298146157
 8.239938180706091, 13.285020787613835, 95.962865955977193,  4.304069612246067
 0.269888181208778,  1.093862367755394, 98.071577395822956,  4.053538255963947
18.800437453539679,  3.443671946011723, 83.642678474221299,  3.859169069264334
 9.665911268368404,  6.091073389168401, 51.388033727047095,  3.733818290725184
12.745309974500969, 18.622773765857040, 31.328244813216308,  4.248408005742919
 9.326760119691500, 18.780664067621714, 106.459412897343597,  3.842086521476593
10.584286498598754,  2.206272398605878, 60.327900756752300,  4.231416314702628
 2.102138615843528,  4.462428490644432, 37.926298564737607,  4.145612733326121
17.472290001522975, 14.730422119654810,  5.326608338104029,  4.073972497876801
12.512412596195976, 15.705961493070623, 96.714221262189184,  3.894886992799477
 3.079358597075188, 15.374667307462555, 12.020283960641123,  4.130611907584361
 1.438923146938885,  5.056275062948298, 45.724146175885281,  4.118108554964429
 4.100562840772728,  7.716809659282736, 36.439324867943775,  3.984385221001762
13.352578234216610, 16.826066725092343, 65.754750512771039,  3.787947432641110
18.289395701343679,  4.084268288553875, 73.608874042576318,  4.137298506874282
 8.224613301967612, 17.791149655521650, 110.135653821259368,  4.065418222128240
10.061220238690025, 17.931205049912720,  7.989530631353002,  4.128824165930348
 4.376223049877564, 16.079331723272436, 19.538755771682428,  4.188403107735978
 4.109793520675499,  2.823215765848917, 63.112075705111529,  3.872967875681077
 8.978749569154703,  9.475595513789662, 97.482246321509180,  4.028367682599297
18.625066110395423, 17.929354968444230, 101.365122196142025,  3.820582361203034
11.473717325365822, 14.579096991888385, 40.498280485418746,  3.750792530338206
 9.404595208121290,  9.185679100083767, 53.453086760835141,  3.706754775713494
 1.559313345819050,  1.042562941071340, 113.497402820004638,  4.055054114163025
 0.289126964686990, 16.072385354650805, 69.851415314849589,  3.862210423722204
 4.361748538374878, 17.609408907582065, 76.017573830794760,  4.099077387701507
11.949053107217818,  1.964479203139392, 47.944569518723888,  4.160928000772896
15.349907768579659, 11.658818054529073, 82.838784823347396,  4.396243197774034
18.240943201635098,  6.327662832069153, 70.097309656314991,  3.850651937722772
11.353223903277044, 15.896477237515386, 92.922691156826616,  4.042047967475114
13.021776437557467, 13.595389876970787, 63.667657434412270,  3.912480371256474
 0.088528308621802, 16.576689721937747, 41.836099676956700,  3.926437778933559
 3.605931478868465,  7.789385509671690, 25.523879914217424,  4.368159801776851
18.512836121660687, 15.249661242099489, 18.647467274090769,  3.860143569573410
 8.507829867084007,  8.055359027390955, 90.456966034505626,  3.803105355112312
 9.509931270063769, 15.097668557525054, 89.109931333301859,  4.185369794899739
 2.496005884261980, 11.051236855612069, 73.920170899613993,  3.861788436701741
17.953145701053781, 16.535757385979803, 87.941997493823607,  3.651169216220389
13.295004246796710, 11.916355891953273, 91.242602744595956,  3.861182841050538
16.000682820812134, 17.320814431310776, 11.281493686547851,  3.949089314531867
18.037683984702749,  7.254072664470605, 92.805114107141051,  3.912971059780257
 1.441886750115115, 16.329197191161580, 98.351402195504789,  3.728420356754512
14.265567675512846,  4.125119800088696, 114.411763472934410,  4.101064873924516
 6.755756081906259,  3.862869710066693, 33.777455060884613,  4.098885212986336
 4.037904590899468,  3.740636627827195, 85.446574088271376,  4.063573288530339
 8.147994619153213, 13.184243505544298, 111.425204926822801,  4.419056241583375
11.024614206224278,  4.101542020081295, 94.834396423034860,  3.968915701990912
16.870034294452047,  3.985091912787132, 108.232499945428415,  3.840049146392008
12.719092607008781, 13.630400511512827, 58.399516392376093,  4.327509958975774
11.924003170823779,  9.929907701449814, 84.688413930102328,  4.081197295598554
15.765748481656990, 12.214594446373626, 78.831067270384040,  3.709555642615658
16.693495888140216,  7.585545177735256,  2.087534549902676,  3.920560768860332
16.212207323091292, 11.829392164918639, 110.560578954784887,  4.051715737156108
 7.692522294593050,  9.253941773386021, 16.057730604192038,  3.988238385905488
 0.512091031061145, 14.038157571414724, 85.034416594497571,  4.016122910323017
 9.182238437544370, 12.737697330331596, 84.642783741477643,  3.767324950845910
12.597895310650376, 16.482032185311457, 74.285954285639534,  3.934395070757523
 8.919651290890734, 17.861112649314261, 21.821319990620665,  4.070932863058227
18.560652668520905, 18.568749104660043, 57.942327401742212,  3.877804380027882
17.062537949858736,  0.979992666853973, 105.175201086750619,  4.145104127954046
 1.833472896654384, 11.533135819659075, 91.606951226952134,  4.000670264250832
 9.856957288220253,  5.546933145832676,  5.412812640027736,  3.905989400459402
18.452226921194036, 13.017957961753179, 52.372533279278208,  4.230386039755607
14.839402275306844,  0.527137333233703, 70.072915677018941,  3.803472029862500
17.499049416882801, 16.983546341669609, 32.109383369061469,  4.029825745952892
10.816188637933966, 16.442993236531876, 25.049993963889399,  3.784467041584085
 8.968900261079586, 10.635353570869325, 66.855716597663758,  3.993518657692992
 7.511270943490097, 15.329836888469927, 92.553239684573938,  3.757947058818639
 5.699460633918534, 13.812453237587448,  2.607553619628717,  4.060407429936453
 0.637014585018921,  8.989373880268074, 46.566943752552213,  3.620215099856495
18.225706706045294, 18.057425419253956, 75.585056418003646,  3.983021977635063
 4.767628249443677, 13.625430475055255,  6.823117049318665,  4.577127985164271
10.823528060697090,  4.588272523552492, 42.209423541601069,  4.164745606696446
14.969573356351406, 17.102237156597518, 56.970146354106525,  4.116514403166170
 7.564968002794632,  0.456692029268847, 74.155009637223728,  4.099705893014731
 5.975676962380725, 16.567438356015550, 105.992167692685200,  4.196043520169375
 7.050211146036953, 12.214901820247608, 49.609462714462474,  4.141081586223986
 5.620925047388272, 11.919667196828279, 60.461104187175494,  3.914750371404267
17.098931387068848,  0.103512968672054,  7.625478210009980,  3.740402463417805
 5.220169786747928, 11.258612272807666, 42.799946098585380,  4.044187354472780
13.094621856883599,  4.159227336109841, 76.233503605447751,  3.845771836788300
 8.836609799976552, 11.243757315248054, 88.134059092364225,  3.856726712687901
11.307604336453327, 18.309681924328672, 68.823964438822003,  4.041595014443245
14.453764027325963, 16.724474405319050, 38.884813779979304,  4.264942821439398
 3.388511649631729, 18.852120741890637, 100.561397203001576,  3.947262701270181
 2.085322590550817,  6.038128549123002, 21.607977171092880,  3.896738047684986
 5.472051450244240, 18.488460450152861, 93.446890165942875,  3.847355792789314
12.935224778458299, 18.045551564934815, 21.427606429225946,  3.987192285168086
13.631941568671181,  0.459777752712554, 17.844550963022577,  3.760597518996406
15.809182439272332,  1.276362739250068, 37.440066363270859,  3.780192076950321
15.296830674215640, 18.527889764796228, 99.437914783651735,  3.779127368588384
14.537758854413788,  1.314261225627286, 59.584470664313429,  4.006025134547405
 9.305764379044495, 12.117552866519574, 63.097390241700296,  4.080238548211271
17.432855818071396,  0.754605827099320, 80.914694233992478,  4.183092748363114
 3.738130982931254,  5.595686082947129, 14.709633675850164,  4.227958611976379
 2.340805185005392, 16.018313394090914, 15.976676274122461,  3.992986227421870
 8.184878121853485, 15.461775343828524, 18.706385168963628,  3.705282358580961
 6.115171413739322,  7.952455101806919, 66.605068090851177,  3.832890841800663
 4.676449635311775, 15.511397812903121, 79.649954294668575,  4.299348303477847
 7.435729058018731, 16.480242216173838,  5.089483427437398,  3.972317284652460
 5.634853611119202, 16.557892770371978, 29.993009034734271,  4.062055681662841
 5.078473826515826,  4.511394873087095, 81.583385642970413,  3.864868866352435
13.853387736673438, 15.569143584395967, 115.261530743264373,  4.051159128490959
 2.493569229377842, 15.862893717205363, 25.774589241526616,  4.293996367822477
14.297900433972659,  8.691642896643401, 78.706378360836666,  3.861284195403771
 3.214040369829501,  0.105758067007220, 72.501885295099584,  3.829379657131968
 4.783150495257961,  5.074763226287916, 106.290147823172148,  3.848524488794815
 4.537505828772166,  3.919247864407237, 24.939481673929457,  3.617334884718837
16.241414392546428,  7.218431278735960, 47.462490746417089,  4.156161082949906
 2.727601747487671, 14.126785433822658, 35.451262686996174,  3.990651606465876
14.164596004244997,  5.683502454882726, 87.706103719923362,  4.008683135146304
 3.512174717589744, 13.437084614226935, 28.865416877611718,  3.764183689410787
 3.017405263075930,  7.430898193079205, 79.680199430931552,  4.132120919020976
10.352285213291944, 12.189460574458197, 18.358084013623841,  4.170974818385092
12.289773743329373, 13.053031399186880, 110.274274699200461,  4.163676858899175
 8.748875938907597, 10.162234168485009, 75.672076946358374,  3.914991116801495
 8.552003677776698, 10.799667794777072, 45.642164607593678,  4.741030722508079
11.449946787279270,  1.903679156704798, 24.027696987202621,  4.214348735184840
14.684514592268775,  3.367276085183715, 83.458116883518130,  3.788907158746921
 6.911230407690713, 16.079466867936109, 12.488388917050806,  3.641941316888890
 3.245368259173095, 13.194692962150345, 105.035276640453972,  4.331809832794446
 7.566025050857678,  7.291802708952826, 73.131785542502385,  4.022972533607666
 5.754089761892729, 13.216246305098101, 89.712611851805576,  4.112479446389187
13.599249262333847, 14.803120331053762, 106.819946188129819,  4.011336733600268
10.973864716192386, 16.086745939362014, 112.554758295001847,  3.845283064358814
14.722213491801572,  9.912675412380706, 14.802380608595932,  3.848260093628503
 3.107316032415138, 17.129641718637757, 58.447491965526986,  3.738381370618506
10.318856161157132, 11.585767251367841, 100.708710373031664,  4.116338161642632
 4.109470821284710, 13.540824415558403, 96.858183158834350,  4.142759872091909
 1.050710559796105, 18.737553942357376, 18.353753038009579,  3.672101016365136
 2.537937484017190,  9.810621601389553, 21.311169289229298,  3.723033456031267
12.775042132013303,  0.399764562093678, 63.062268737825008,  3.646775914089508
 1.555141591319234,  8.701149903760609, 53.382759027092725,  3.921428597823841
 6.013089697987788, 16.902583720876954, 34.014358684736926,  4.011098577529487
10.406821701683930,  9.677076544634252, 49.619956525113281,  4.266731680857286
12.229639494890957, 14.661062672036429, 70.005575220213771,  3.838691979669600
 5.464834021107587,  2.674047147491163, 113.390051949076323,  4.385593691822033
 5.868239538291257, 13.388417168966321, 39.455554746698965,  3.987662708973680
 2.027679662181656,  1.929568569912935, 75.697514466385897,  3.896699808472674
 1.476184070872022, 14.423949711908852, 31.830138553480605,  3.684792789204489
 4.437940959533846, 13.654666878621244, 75.964655421936925,  3.782026213026681
 0.195995013522673, 13.812318137964613, 95.200958407682663,  4.285827596853435
 3.391816554122773,  5.797686747355314, 60.042345985305275,  4.447693933659384
 4.922697636903837,  7.062484653171879, 45.158201449453628,  4.001041329303332
11.327473227887898,  6.372133002140216, 28.320149734461022,  4.310961980516128
15.110651679521903, 14.185607163549381, 42.380897956557909,  4.423407991597112
12.287466113020727,  2.144594508651716, 86.383366896801661,  4.076170554077722
18.782302493625242,  8.119951152366818, 73.579089646829289,  3.966676444114419
13.762765525366371, 15.335036583240386, 79.968915774960934,  4.046654369095872
 6.192728215304470, 17.753440404418061, 16.051605346901219,  4.357476682505999
 2.017531003221438, 13.320640266251941, 44.206369365407561,  4.063872472498018
10.574610710324144, 17.588569637051684, 38.242266627392702,  3.607282755340554
 0.396172618863576,  7.229619001184069, 82.756388718024198,  3.952120401739439
 7.860936093481132, 10.760059412024098,  7.347395447508184,  3.913358854185427
11.832405511156075,  5.728893994532465, 62.281594374902973,  4.136025151816735
11.999484122712044, 17.465859676234018, 109.172704574820003,  3.726017934362830
11.823897744313975,  3.405123180787617, 69.104883635717471,  4.120842582895534
15.364021258066412,  9.797480004664877, 22.894429329260149,  3.841430480625986
14.056996700250416,  2.964947628955329,  3.603344706904740,  4.065064357904530
17.216115106016723,  2.253582738507014, 11.063714589990219,  4.191797291937393
13.622457156381612,  5.679562189351252, 97.314304577698209,  3.870252009656250
13.906989856302081,  1.729111018656971, 102.523980232041652,  4.232141591201149
 8.665818424746899,  5.506571190544146, 17.435935573831006,  4.218464365076077
16.904604448744458,  5.824515777660679,  8.946501204381489,  4.103975785872036
12.907059199978935, 18.828471926559828, 27.209383729032169,  3.870144242273545
13.217089372218839,  7.987154115135096, 114.388068324306630,  3.879174727066369
 5.158915108875615, 13.347670191950371, 32.383506309552025,  3.975514095412899
 6.162489557786784,  5.687443991091567, 77.526737372512997,  4.104738188911892
18.704046824676727, 14.213095121562993, 102.821700942627430,  4.163082014364448
 6.154175795959598,  0.371055677535537, 85.833521271284411,  3.924853965101425
 4.706818020708592, 10.030617488686515,  3.715568590054599,  4.044360977428330
13.172224929346841, 14.576186570888076, 100.538695447989298,  4.151818636333421
17.839802450844491, 11.183114562979174, 17.080566374337813,  4.224353500641409
 6.863728518827283, 17.293639370510469, 39.064101245259558,  3.989357655992121
16.748128687653157,  5.092341646650845, 80.646930175178909,  3.983682651845759
11.348547733423894,  3.174276133780371, 117.059495750406114,  3.970864913474941
15.116394048426500, 16.012376193502494, 28.960839921560257,  4.077161198543602
 9.644588250981997, 15.114950657173585, 55.817297585687356,  4.177093289581099
15.453180261107958, 12.083173680949722, 30.104625555112559,  4.113097620854128
 8.606445974015720,  1.708542698832796, 67.503933783535530,  3.540362487402987
 8.294064158075573, 11.449174863766086,  0.786160594990526,  3.819294591643914
15.869855500590054, 10.306899102984950, 75.390425587638305,  4.121395880893048
12.257129804307777, 11.850580570665949, 53.339495769261511,  3.976499107330912
11.036731114754803, 14.055493707100013, 44.262421139475634,  3.896439133670338
 7.235475150950006,  4.447858464869778, 61.131081655576295,  3.985752642865007
 2.912165310317219, 18.235821979953489, 49.988958328512858,  3.949896719509992
 3.353689241905040,  2.957966605213347, 48.602089041477875,  3.944635095657315
 2.356907386740517, 15.302078619947428, 89.204487169526928,  3.921437611325321
 7.292494713466321, 13.431127511280168, 103.332326548056116,  4.248730922779015
13.895700366229290,  8.428545609740819, 118.090718286890365,  3.670946084496336
 6.273469824984398,  7.824129486698318, 100.056472333909142,  4.097451837250153
 4.346934851365162, 18.598524506713787, 116.180986103889694,  4.144018529763145
 5.677710911740795, 15.380441174412095, 71.957629179415477,  3.846516188117675
17.283549074120891, 16.359700447441607, 45.594063538681837,  4.330249787272215
10.437135932959896, 14.319784731508989, 66.555530708791977,  3.942048365978242
14.018621346670242,  0.303473327563260, 52.129641241646773,  3.956371852246033
 1.515721047069426, 11.967569770909389, 115.491470001348461,  4.117772388040150
 8.987331298676921,  1.119434489113443, 88.527588209183989,  4.007673506522764
17.844886746742038,  2.889916229912204, 115.941205916737445,  4.054244801610792
 0.742432356544886,  5.771147989411946, 17.767649309774118,  4.256570786100258
 0.280392021859595, 16.189933016929924, 61.214702598878510,  4.301253340348347
15.816817277651021, 13.970013753737904, 86.319264571379165,  3.709879747454687
 3.036058081045125, 10.559088268621212, 39.508097951493184,  3.979603851717734
 4.639137152713407,  5.435372597972086, 96.509746084326949,  4.018646680533395
17.569229198485651, 16.081027896465148, 106.831423463215813,  4.246547249618668
13.592961423451282,  7.042127813754809, 20.374381630186967,  4.412349030941079
11.169774646337515,  9.268459612615880, 80.844335424426333,  3.749934077424297
14.911591471436568, 16.950592155764710, 24.579296961776233,  3.715991569991402
10.040515884328743,  4.593279241347367, 54.982748412164597,  4.014234646630385
 0.257396621454639,  1.052602755066542, 39.567807430785699,  4.246145429649772
 6.662918422065998,  9.173780941476107, 39.010328471809459,  3.826426189296566
 7.888396983471806,  0.360575902895853, 25.727577489571306,  4.192874127167855
 6.055394664757211, 10.724239137699998, 22.492439046432057,  3.903803388648944
 9.016846933925196,  8.405925625354300, 24.552759720157866,  4.192352547418284
15.209361484970474,  6.569928988823501, 74.091241042130761,  3.763642591102802
14.532312008709059,  8.213308717007422, 91.303034457567193,  3.945026745954818
11.926022176231671, 15.986026655088352, 18.103578696572342,  3.895381324124019
17.493931728464059,  8.342321435691783, 20.006956529234827,  3.841728502989178
 0.470059281683343, 14.940679326569558, 56.162675606838974,  4.362576835869256
10.270506050080691,  7.496806413763539, 100.748075580903560,  4.019378495791402
14.878644977622784,  4.684984676008238, 118.426265946781911,  4.081510493692730
 7.172859449996951,  2.643761924817141,  5.571098279830314,  3.890755608739850
 2.128863189355978,  0.949842530861110, 24.247396135538409,  3.861947365153227
16.800882862641465, 13.644704030846295, 59.115409085477943,  3.868093397313956
 8.179444327669410,  0.730047841466466, 36.038199161569146,  4.109951520435516
 2.994972199069981,  7.880781842848654, 86.071313613950224,  4.565387263424460
14.793209015375997,  4.886010964029479, 93.575531913735105,  4.117822421980293
18.040897526575900, 18.723856551120807, 84.830756867996328,  3.955964601079150
13.427937963791750,  4.134308482076254, 10.631871034555653,  4.297634892411543
10.511174122912506,  1.969992206548711, 109.426619154264841,  3.809351261174211
13.045501585177551,  2.941918537606655, 90.435444206150464,  4.034784843732699
16.569041865112105,  1.929390168880980, 55.241816489671820,  4.262651772745240
 0.820721654751944, 10.176696240920464, 103.385666062873199,  4.024762157660875
 5.864440949603452, 10.618313706373279, 64.001534038585021,  3.621831828686153
 4.743928529228215,  2.697351221312447,  1.862355842884680,  4.131356728371350
 1.538299916735490,  0.741045610547897,  0.409954877166979,  3.893378641412251
 5.106646547517657,  1.801037661979121, 103.825615292581645,  4.328384944597235
14.569919163033122,  9.088078396117686, 10.665231193421866,  4.589991194829123
 8.349451510306864,  8.094801027946797, 85.691996773883943,  4.122668026372843
 5.784323031825112,  6.064753172574712,  4.019012851724690,  4.105902903157920
16.565326754689490, 15.649347624778041, 82.832853696195542,  3.941690523451163
 0.310703519548340, 11.125122482215868, 36.574209206203165,  4.031453312412444
 8.140651023773181, 15.262200717035142, 42.055437656301812,  3.654354653104237
15.539886057041842,  8.767026676251417,  5.721187375945715,  4.043970418730177
 8.464239001050208,  0.472393723579625, 11.524512952825358,  3.953669173311371
15.335759384178782,  7.362201613832724, 83.823933859735064,  4.318300446822310
 7.221819684826431,  1.871685475051283, 18.333258258039507,  3.561146835539397
 4.201620919718870,  1.613162649712273, 35.890825536902859,  3.873493533888280
 1.056608557146382, 16.797904502236598, 21.965544211647988,  4.026274005870548
18.008368676707168,  1.157021927275396, 93.088730618110418,  3.977358501337994
 6.940818691136813,  5.233993961641823, 116.344998705145471,  3.964382670671929
17.358766731081129,  6.601426033098472, 43.703915703335312,  3.776377262771888
18.053641322379910,  8.305228025664077, 108.465547729984138,  4.326508248552003
 3.151318104060414, 11.511360360565364, 50.909947098510415,  4.140390362215653
 1.074032797367926,  4.346916176707803, 41.802112789142157,  3.862200024721035
 9.517201477004685, 15.557185417832510, 15.108518340271528,  3.821923934564111
10.955261755833874,  2.602632958309255, 51.705716104548330,  3.719080881897513
 1.334162208355162, 16.239980197297314, 81.886096434146609,  3.818980002523878
 1.318936661885908, 17.097368010180368, 65.137661391296646,  4.000562352146718
 3.614857195010182, 14.966268245329587, 93.011425394970857,  4.120405900833814
 7.495931145419832, 12.911247410940327, 78.098907638591385,  3.807807950376702
 2.255768659949172,  4.416051749740912,  4.351471298649376,  3.685768135366031
11.569991314772643,  8.500425451986249, 16.909786304078363,  4.090716153714185
 6.585211744096966, 12.055295561197852, 81.815976280588956,  4.026041105587806
16.710869100452470, 13.294829315435646, 34.023151773395078,  4.332960296632371
 9.636742880761741, 17.030199964017545, 28.868401138857401,  4.289387478849210
 6.109888082421820,  5.887109531631141, 88.113167704709511,  3.814864256299742
16.454716070403276,  0.946285192572541,  0.871415485856232,  4.193253760866916
13.221061709126753, 10.966649768915833, 68.519343703038800,  4.359496169861982
 6.191367765574269,  9.523125344712973, 70.145487500115976,  3.910972283811159
15.036820658329205,  3.459317928073774, 50.030282284803803,  3.864749239595718
 4.907479981710805,  0.404518241112937, 55.743536204066416,  4.051657690921117
14.715566662246532, 14.368327484368548, 50.549444162562757,  4.218375823266650
15.817496903761914,  6.824980051747161, 16.877745453387217,  3.876497391781515
 3.581244726476901,  7.524227428882526, 72.381681936261828,  3.990717895630799
 4.128783743396126, 10.854774458829088, 46.857716481924719,  4.296092805995083
 2.831234399336963,  4.697353122124706, 33.995785989834495,  3.854396744267070
 9.842753145034749, 14.834212467951302, 51.751628057141858,  3.982943829854306
16.366657208896601,  3.197920717368748, 46.187492953934623,  4.005312046688953
17.912001904035922, 12.511813002109774, 72.535031572840481,  4.163579408468151
 9.280398758856299, 12.543709573907783, 24.661628935638454,  4.083441137663373
15.022689028966663, 14.458641437777793, 93.755939976283102,  4.008160634702014
18.075654519094027, 16.508759936956267, 36.596205649038872,  4.299453642384389
12.141914571680129, 11.806837595005268, 77.225336270830226,  4.195064131986045
 2.273786548986065,  5.518015617039911, 89.764053954030715,  4.280856854585978
13.045079508081484, 11.198695007031898, 39.246493132171189,  4.094291537039394
 4.922267522569319,  1.874772696077867, 78.528996794894240,  4.134361528704524
 3.024029233887481, 17.337928049535414, 37.867430198746497,  4.042414522167356
 4.321707218459871, 18.312999387883984, 111.070640171490709,  3.983151431939659
 0.501397168680555,  9.351930035699631, 65.201796729932354,  3.973398618257844
11.033140646887349,  0.552819233113599, 76.598263114256085,  4.217119957489868
14.764867377897442,  8.276638059933685, 29.315920976531395,  3.764736233592148
16.930982473859157, 18.943456360088462, 63.213266967352681,  3.898937504271721
 2.482610243295717, 16.389208666349795, 107.831245281715198,  3.698148056107676
 9.161651304020545,  4.029181327113499, 75.301891092892873,  4.036550729823674
 4.092534850407609,  5.844020598861233, 53.907261930968616,  3.770849483284515
12.292005246786909,  9.416145451218375, 64.548629972281191,  4.363187134736719
10.554691203746755,  2.376917881883823, 29.138376697684226,  3.971409790623853
10.392344638066731, 13.160062699458541, 80.820019996464964,  4.148388484465945
17.864491169117571,  9.298413659467897, 79.901789219220319,  3.692963723923585
15.662807656051031,  2.302998555989091, 96.595094650558607,  4.014636576940362
 7.977093702974309,  9.407243859441630, 103.330399226871123,  3.860363737971735
 4.364681359958928, 17.643959383615655,  2.600108654087264,  4.043811220464674
16.075247797359125,  3.413353900482549, 41.577757979131427,  4.262616555793627
 7.590165852691742,  0.845817610416697, 62.700024908960778,  3.838791981413150
 4.678214269725478,  1.814650093893656, 59.430618336610806,  3.842730990898092
 2.032274195239185,  8.841908049436437, 43.041062222077841,  3.969206758678244
14.473211706171478, 12.376019398600533, 117.936436513177853,  4.307468392511060
10.462515148407601, 17.590968999058028, 116.160883740982769,  3.982111089303848
10.912638232011233, 18.174011772524235, 42.282896187439583,  4.351473963524996
17.123781040548376,  2.626244982233568, 111.929852937567759,  4.040022882458572
 7.281133665147765,  2.688727333603358, 22.257861012836020,  4.199719338820210
17.527201655889069,  6.694947323213984, 77.133739162275120,  3.881871433418768
10.777035551304721,  2.940872165260922, 64.837969970801396,  3.718106457655385
 0.994573928468126,  7.057399697965204, 31.421604143519289,  3.968178129173517
11.942797766238408,  0.738186100501043, 96.851559259602425,  4.069355499624035
11.004551957902235,  2.508067862950063, 82.477720046897673,  3.989451507858845
15.966027997523993,  6.790271671649561, 55.749947946504136,  4.004672279808475
10.794191679663236, 10.145408547454297, 30.278070648947381,  4.218634198105851
10.320737896660152,  6.883848123138340, 118.109498870153573,  3.946388364009723
 6.844086881071155,  4.024327568232898, 42.985126184443004,  3.833815293041212
 1.793062974784365,  2.793157131219894, 56.867285834204054,  4.103454197416723
10.041099272511671,  0.277332791118834, 16.434669437101714,  3.908607139198777
 2.130551012814101, 15.869408251856331, 113.852248643369975,  4.218469841440728
18.258070116667408, 12.598349679316987, 47.398606658980121,  4.210110904610549
 5.729409431058730, 11.444317400083428, 35.905743776878332,  4.075013473385899
 9.442446510468640,  1.978046479891579, 44.867549831102821,  3.743015426157183
14.611987744022144, 17.610571988149541, 86.483069030442252,  3.947960971076563
 0.748216354745442,  2.145342743875691, 65.110141878488349,  4.052826645836678
11.252714973271653, 16.648478157347462,  4.345525067778810,  3.812492609008499
 8.818269022243360,  5.994195838467663, 81.648380127151043,  4.145316516143040
17.310913752064856,  6.915946672500195, 98.222414778690407,  4.113321347455629
10.339616311993307, 13.317696758882652, 73.875077603520978,  3.823423924950830
 5.642431022508710,  2.748452823362091,  9.299917615514369,  4.138429272752028
18.261702017358775, 16.978148848131255, 116.787532200776923,  4.199702951778337
 3.377091151710697, 13.810944157535104, 63.400560873727748,  4.367362252268315
 1.250199463043225, 18.582223529807980, 54.438898549766790,  3.830769757358512
13.814403490838343, 10.832915903327878, 107.222618091831905,  3.962139915416854
 3.901036341732154,  9.442763505440771,  7.648708384490465,  4.057792149112581
 7.245808805371396,  0.848505508273465, 81.927165051607503,  4.237493820777710
16.616193354266731, 10.286164432033699, 100.625192369548643,  4.243689175772023
 8.803215672482358, 14.054609133425217, 59.626855949830428,  3.895308602322755
 4.433108518675300, 11.129286298687035, 118.238056583140164,  4.066141527164467
14.781402465059308, 15.136620387124751, 89.805897011136423,  3.771982175807338
 6.768875705869456,  3.783146924506744, 29.652665784173752,  4.108204791122229
12.955180883504440, 15.923218224166240, 53.777149937082520,  3.753582743777023
12.750299935414073,  9.673903428594098, 26.020485509620457,  4.217429741358115
13.186863861848874,  3.161951566091759, 106.686675883999186,  3.844675393130764
14.504575048945521, 13.579431357318974, 11.616837697349270,  4.045025842430293
15.049744035431626, 17.966611643071317,  4.357333250432790,  4.211667897485700
 0.000247539636336, 12.806978348961779, 80.805974148988284,  3.838453527646166
 5.197514369141116,  6.829207900688395, 113.120764957261215,  3.959087251861584
 5.853436267478442,  1.275141332272846, 107.890791389396327,  4.000364930164946
 5.872436999088732, 16.847792781741198, 98.235875876802041,  3.745793527510713
 2.902758146221882,  4.814886789466112, 28.542661681813321,  4.186235641104623
10.766989043536428, 15.486849323280721, 11.352135368727016,  3.985125357349667
 3.781102194878276, 15.760977175579443, 68.009640196863472,  3.949818344742587
15.291861243718818, 12.295408557647718,  7.804403139369516,  4.113674263704116
14.331184652615596,  3.552217788776784, 26.753335012063747,  3.858224373171411
 7.164947819502967,  4.392921374958378, 65.192973964217373,  4.091254532481518
 7.445854653725542,  2.358823181697392, 95.390851647220785,  4.036749579043994
12.650318264278035,  1.976593776093212, 39.650075284552372,  3.999049716602204
 9.505697993353191, 14.727403801377111, 107.557596605966296,  4.306237231890608
12.942494728001991,  9.531601689666449, 46.184153341245960,  4.256123629788367
 4.600244284044315,  9.557901593810186, 13.286267374545295,  4.280265935017760
 2.782009988101273,  9.809770724061625, 62.073980956707970,  3.817971555748383
13.614024738607171,  4.078220412522756, 110.446883742267303,  3.934444844061508
 6.665286587822122,  7.981600970844599,  0.649244324030709,  3.794865619872452
14.297019519653416,  2.724580918352729, 21.340201708384175,  3.697022560646539
 3.474094698425454,  2.284103406918335, 52.505450404852446,  3.941343969664950
17.342959941452865, 14.089410458042753, 113.903797926607808,  3.954101323402996
 4.120735380336616, 14.399969159324664, 83.662516948095117,  3.697726387116067
16.755422037397071,  1.520051945646902, 24.220316375978751,  4.241838176876763
15.059925379370400,  1.430660158230021, 73.987767065681908,  4.229005215843464
 6.070506334561994,  9.007819509272059, 51.809332298809856,  3.716861068092952
 9.075238901221198,  6.391379467033460, 13.345318469726829,  4.106103313115556
 1.083834532014846,  1.465053643006612, 61.047363733035496,  3.898481963902575
