BANDS
8 8
NANOPARTICLES
cell(1), 18.953
cell(2), 18.953
cell(3), 118.454
15.424742265171123,  3.895002949068175, 94.328853191496179,  4.459639721943138
 8.380642428977609,  0.135415252693992, 62.913826188410674,  4.201520916183922
16.419294767481606,  0.298553902173985, 13.696342786024283,  3.907770564647870
12.303375708211552, 12.768518817253646, 81.859431350114065,  3.775040767280818
13.850046587084679,  6.739530744210572, 81.102224519517208,  3.827186908840063
 7.309062975688835,  7.536323803903207, 93.347132333199681,  4.221887048764620
 3.823526346031462,  4.944758026013716, 37.161044868021321,  4.033414714377126
13.553475742728166,  2.944106492351258,  7.724064877447268,  4.312834335439273
 0.927543912624106,  1.678862860364630, 12.541709075973092,  3.849207891720206
 8.933151669326438, 11.128442973230083, 115.650616855613848,  4.324980754497243
11.989033929096948,  9.927626326547923, 104.860690763049092,  3.993377991477513
11.463305908315759, 13.109648431300741, 37.565204030433755,  3.896735286443664
16.847423047738165, 14.185812079440975, 81.794608069382733,  4.125367203296248
 8.679434029088481, 15.143403400226759, 105.075464313821541,  4.248686375210946
 3.548634262775774,  9.820556091283374, 64.914460309019958,  3.964617068062080
 3.824971016533459, 10.070583590130928, 36.673283459037322,  3.902977929142081
10.418626361254494, 16.251751587810158, 20.620020787268874,  3.970619760285232
14.332400778282297,  8.881967534794400, 17.482980279792255,  4.143622147024463
16.233850580070413,  9.710479946176561, 41.172062210892172,  4.169220676488564
13.298801035602336, 18.088771577149963,  5.230893492408381,  4.046774862728869
 2.280632235097894, 11.266406883059203, 95.236692293572261,  3.890843746638808
 5.976256764141668, 16.040093153884648, 63.159258434208219,  3.556322749536733
17.255151857372940, 12.149627867421893, 89.795082658265429,  4.075622320501285
 0.255544657782612,  0.575833700513243, 84.267328988606991,  4.131801502111292
 1.181616945361031,  4.775165725487563, 46.875695017851356,  3.988259395462635
16.163437675354807,  4.824976779951224, 109.247704547945943,  4.558182325503287
 9.429186349984123,  6.498539814137477, 12.719401987828739,  3.430597925069877
16.224639323822107,  6.810949380849632, 49.009251659658105,  4.649318961686506
 1.190024844160746,  0.851322667620527,  8.261735796852134,  4.025125946479476
 7.430348074558196, 14.294822188815083, 109.353277349846749,  4.077981628505041
 2.501300647876692, 12.118849241999024,  6.365044856837607,  4.119095443820084
 8.779220135560827,  0.911706873338918, 30.212576803799742,  3.906606489543191
 0.712624459471630,  3.062830320037611, 95.040128814887552,  4.263416985931733
10.822863810946696,  0.367654595842939, 100.917280522615997,  4.096381230759258
17.692644409970796, 10.148194061059835, 51.430836143763102,  4.054088688705957
12.880512973596174,  8.132220111665378, 11.964750670419917,  4.344508119359576
 5.173755845624325, 16.224358135861650, 88.981404458602341,  4.062233204882966
 8.107123397811410, 17.571423859453304,  4.445585475315196,  4.006539825017994
12.965936016529881,  5.957570290746451, 34.466684562046552,  4.111532758357265
11.963328489272818, 14.475813771757942, 51.051932007170883,  4.305366037353328
14.257455319953136,  8.133432269239753, 107.645929738985316,  3.510371070480061
 7.234206183417223, 14.680314373537348, 53.532668733530421,  4.007885476279548
 8.178230757525963, 16.731235624983164, 24.267982134828024,  4.258798102125988
13.542984452801695, 11.045784944820065, 91.552955912378394,  4.296725078468178
15.115886460621237,  0.472127426341513, 42.692980008512606,  3.671540709085733
12.465486843935198, 13.720616202957915, 106.336501473462079,  4.197241024913557
 2.898070433036673,  3.714794344986946, 50.319853845387151,  3.966573135073991
13.668206307851245, 13.889709466702049, 58.919202860498878,  3.878156638231398
17.558740914327199,  8.790655172032656, 109.231909954563321,  3.766083985624117
15.190857756000256, 18.895098939373401, 71.090767140600107,  4.073543040222698
 2.490753052749484, 14.184505432121371, 79.103586255245517,  4.164100785895921
 9.671014948439694, 18.780724092150908, 89.398510197580677,  4.137320522432266
 6.140242871285950, 13.602361626057592, 66.191035566681478,  4.163179598416004
 7.400377406005028, 15.894006566254898, 92.131795815570214,  3.675356088201208
14.810390317516381, 10.860575980615984, 71.142647649308373,  4.235319418645875
 4.704879598289175, 14.445610257421727, 94.598429407513152,  4.179931482785093
 1.752216346814172, 11.692865549280787, 57.721012537832607,  4.040195690406951
16.409352633179239,  5.812727446631863, 24.170013308690120,  4.181302766569577
17.941172295744973, 17.577138902250649, 113.972502166083103,  3.994729752982244
 2.015368244577550, 18.529046779573619, 116.383051784769947,  3.932852911572987
 7.294015317944796,  2.713555856133476, 96.247850733427981,  4.093038921566824
15.631704467247708,  4.153025482878148, 71.978970036004128,  3.904516991929231
 4.735808103421051, 11.720301735893699, 13.222914801828731,  3.732879879708309
 4.472356981315985,  3.197526562499431, 63.604333972151217,  3.736671141326594
 3.537182711386896, 16.020770397008935, 49.036710297897145,  4.007530490647043
15.830075451791672, 12.681613436200353, 74.859696167668673,  4.208245341830141
11.121527134570741,  9.509046575847339, 94.771307209270120,  4.138778345302362
 3.542445137326428, 10.551483669582810, 84.730455618528552,  4.298916975788302
 0.912367930597639, 13.011795851809007, 47.589108027021673,  4.117189016435162
14.034909881615997,  4.175818862644806, 55.022748016510050,  3.744869719138776
 1.754607626296826, 12.975612916008334, 91.760810657201873,  3.911667629623295
 4.716264257396633, 18.813026191171048,  6.545812291526853,  3.999134255248675
12.945014429189426, 10.859119777800876, 114.679191599275768,  3.935354303942129
17.883845846879641,  0.202354515708670, 88.047135656191287,  3.891362690179271
 7.931963672925095,  3.883438394615483, 19.661458863805969,  4.008713161876243
 7.589605528775971, 11.406028111280623, 37.996043717332171,  4.037722161664740
 3.180410482810127, 15.537958305990765, 98.474783520245907,  4.248327830177967
 0.434171456040962,  6.463470690252856, 52.069553359851412,  4.156504340557611
11.311817277601500,  1.740466128014238,  2.489452633530472,  3.838190316222055
 8.221524283283568, 13.360013019652982, 61.265264467948271,  3.974240065890060
 9.357620181170923, 18.255360195910498, 114.656245694806699,  4.438683493637361
10.110674786887888,  9.780030997039301, 31.318301993427827,  3.768925119165287
 4.119437637351268, 13.241169915351687, 111.222771911173041,  3.757239112031854
11.428273924945419,  2.353337204351259, 33.101022797875061,  4.177828429068875
15.462475673656478, 14.488494980594574, 115.222267392417294,  4.257525275911294
 1.369790365053152, 18.939430260470935, 50.923615910375133,  4.039963107907974
16.768274463898532, 18.177579190752816, 64.297124232641025,  4.099354004991512
 0.881478896661310,  6.392521846456748, 107.541171068014748,  3.632801258135343
 0.949555957011104, 17.360769970832312, 71.910767638446032,  3.980472358536546
14.751153876704192, 13.218529309335528, 31.067766040610017,  4.397679356079351
10.060676996516296,  1.014209695811607, 11.299153733822243,  3.493253552841825
15.603289958705469, 14.736266402215570,  5.550588906862781,  3.893054173196107
 2.521461432773858, 12.378334168135982, 67.840793683567512,  4.051022134409667
17.166868093353681, 10.141515807315553, 100.808698097475073,  3.891456754449214
 5.523872282216441, 11.028578575474974, 59.242043810457055,  4.174766379045201
18.913768994892905,  5.642911367165667, 91.770731711148841,  4.133653553646917
 0.653934630717862, 18.610854168485041, 26.086065144568167,  3.841919488415889
 3.746852201110361, 11.343173562527246, 32.163785456496448,  4.156085126474282
 6.165999821952602, 10.343919007441837, 109.411699824362188,  4.207636184396422
14.561808432971347, 14.665950961406281, 34.979103313444561,  3.909830810027388
 9.798595459566030, 10.497449784886694,  6.236864974460473,  4.067651970091288
 3.895923792045132,  5.476428685083018, 78.945836614956775,  4.204152905945070
11.931266718816524,  2.704782100477612, 91.779937555730598,  4.297480029385667
 6.366295238547332, 17.725586713695204, 46.930620608294873,  3.793373102522915
12.091664325942327, 11.928425675752878, 47.815358165269167,  3.896572833541061
 4.221055481114042, 15.212777023029352, 41.834657430521695,  3.985168490088279
12.006341822176999,  3.661354581535991, 61.265545418365853,  3.885671928166289
 0.285092515383585, 10.626601981677441, 82.145539539990466,  3.925959060891782
 8.165357252368077,  0.029182949189851, 34.064731109668834,  4.058522141794145
 3.467374626760999, 16.684059710648778, 109.063150629976917,  4.365107079538341
15.562189018580160,  7.320435431067158, 53.353679948395843,  3.991354011436338
16.187117530558858, 12.341323466527669, 107.783445528515799,  4.053812497077882
15.849441576365978, 16.576688311825393, 24.516669720099081,  3.742517942379908
 0.816231173136782, 18.483036303612689, 75.625879788827589,  3.707221474650367
17.416179510347327,  9.714656971840919, 31.248936700514726,  3.994038731767197
 3.030548255889056, 12.173513701553398, 71.945472560912563,  4.000288145618176
18.274059073543977,  1.613939221125801,  0.889298610051951,  4.178122560811133
12.428553471738468, 11.587411024054425, 101.313468890315917,  3.882186736959284
 6.344252598036927,  3.618661253253783, 33.426182467503743,  4.055962982369962
11.354385358233543, 18.425929531143879, 106.177021825727664,  4.413215846957157
13.292044977291944,  4.028148471689887, 84.065085114683313,  4.274840611102233
 3.167313648827994, 13.869724713686436, 35.385673834640002,  4.103760649377031
17.029214660225222,  4.126651438473261, 13.378874591373023,  3.820686969221565
12.174427135703347, 13.312379289159395, 18.738675008553034,  3.796619295427230
13.944152001171183, 18.859533800390196, 61.252491920312544,  3.962450956889571
 6.465722547672764,  4.320441323186169, 104.590603210468103,  4.131508644310440
 4.098521584109148, 15.212246901857162, 59.963186520350362,  3.799041974533799
17.190071909944521,  5.112812975293944, 105.164100537991729,  3.882783058675696
 4.220878016319840, 14.437387825435497, 56.200672648511727,  3.869223279453141
10.459901743271093, 18.268670259384766, 70.519422472296199,  3.993483153728108
 2.601568651219754, 12.123726693205048, 17.921445887674817,  4.010115033795119
 3.458812282589200, 14.073179192917964, 21.503113341910428,  3.757546472835361
16.542709193721851,  7.748288534806330, 73.845631379847887,  4.395671717309170
 9.436130310327215,  9.484453943265779, 70.675041917510782,  3.868604294905448
 4.925859070353530,  0.298422726036390, 31.666931087447214,  3.913922678803289
15.595557965771169, 13.828779814153551, 100.083045300352310,  4.249549423419087
17.473135111125949, 11.316855108379803,  6.218284446931834,  4.006126691477081
 2.959281321956633,  1.767870733827275, 17.547223159367348,  3.834838031242387
 5.811378144628613,  7.361894919521277, 57.205707571456749,  4.174220311995813
10.227368948787683,  7.573399914722839, 39.926331497373120,  4.031473867614988
11.670650243602511, 16.703919283772613, 86.599945608880006,  3.849471596896317
11.557524670438642,  7.388890460806412, 77.846114057755386,  4.240221606347104
18.000253277665951, 11.555064165754183, 44.199675944147742,  3.673285187548377
 6.998272161004829,  7.448075456747214, 37.402714675705106,  4.053439463619867
12.217197865350467,  2.245946162329625, 72.600055406263650,  4.004240272917037
 7.615602794433644,  3.101872866118204, 23.627324970844700,  4.094390392855325
 4.691041160614177,  0.289426625163935, 13.135253924494888,  4.234882976480616
16.135042607209435,  2.693438991639829, 90.419155623301805,  3.809092662862940
15.381021322362960,  5.490930233869093, 59.233126470806461,  3.532040805438287
 5.282693303342139, 14.492665641757958,  7.977739918548701,  3.819440739831862
10.988587942425179, 12.716023272034185, 85.581726423425877,  4.042551710985273
 8.799889943669610,  8.435379879272377, 60.212798656160132,  4.175460607807449
 2.458778188712222, 10.449987227620621, 50.346699347299456,  3.704275928335499
 2.716245543779512,  1.436172543126613, 87.259325247303508,  3.764938864780639
 6.566834532313281,  2.908606490460193, 27.522956745394112,  3.777813963266590
 3.398871789525236, 15.758619533311276, 113.933375115228145,  3.776305379301470
 9.391053877404200,  5.044370181778381, 58.156650723746800,  3.812823676213671
10.018550883106858,  9.639663224017758, 81.045299068754900,  4.118154699353629
12.405462009006110,  9.387414224683665, 68.251606060547459,  3.732369997826944
13.237605825980609, 16.527482473011858, 44.162113365581106,  3.748193479217615
 9.303191730767596, 15.345970697881535, 16.894873799830055,  3.888895749933782
 4.544079383197813,  7.269979017874091, 49.382069880023415,  3.945880311349240
 9.204146384418236,  5.141945015484427, 48.736221655744231,  3.531985564348905
 9.965412646201267, 16.223132510816683, 47.343003129596156,  3.974489171097944
 8.704482188038194, 18.522240654125319,  0.453942844549272,  4.074195912209794
13.157073602791581, 15.419333581650644, 15.583498034686805,  3.989617040444313
15.765820373792687,  3.534063065139651, 27.931920553894191,  3.810572226111095
16.261808468133278,  8.099171792146825, 44.994122410452462,  3.720915473311814
16.099543715096363, 17.454353067755601, 17.133109206341576,  3.807696920085578
12.533146919138039, 18.299387165824538, 49.560783494725030,  3.937998359223625
13.758381339071020, 13.825788134860939, 88.365884945271432,  4.085027217930145
 0.754501353135446, 10.266513049495412, 75.080660026506408,  4.032103395970688
14.867269612938641,  3.834239159577876,  0.473117654525160,  3.989371768512317
 1.483439222042492, 10.568602192661977, 117.330514844979120,  4.050471206457851
 9.397557715756648,  9.002341233371833, 56.191913883557881,  3.967480824472142
 6.243832752614201,  6.328764369904266, 113.721094694745048,  3.803443592294709
 8.513486116786858,  7.186599427971443, 33.360393486611038,  3.510322442746109
 6.710595330250592,  4.304598707046568, 51.521265314164253,  4.076204481951635
 5.616119900338732,  6.464193302896148, 22.148428053929329,  4.172490147386145
 5.327765273130958,  6.777652587653858, 85.506589658482227,  4.114427408200138
16.416725234616649,  6.307582109359318, 63.013059635755511,  4.240324337709848
11.645296221054247, 18.698389427011644, 41.153876619716755,  4.055294162284005
 1.273769388161195, 11.754276565205785, 108.675914994982904,  4.239238158321929
 0.098211341753315, 13.768766737283181,  3.406417607788505,  4.078394674548484
 3.785200499541158,  3.339847573982397, 10.561358864285241,  3.838900764666323
 6.863333424195940,  3.924143260794892, 55.455778618997925,  3.821838874869269
 3.248396027813832, 18.036151725370601, 20.507458400866280,  4.083633774594095
 3.589123236374521,  8.853980344567196, 92.545298422026249,  3.789405561685653
 2.582868454437805,  1.375657267828702, 38.745359740740710,  4.143677611629468
18.428951382297452,  3.078329121303106, 64.938062254918705,  4.251108204673858
 4.079715927000913, 13.168423465587557, 28.585347634686290,  3.904079528643896
 6.683057316585954,  2.120413670024350, 37.166157031688691,  3.985632449658448
 2.546308581291217,  7.457651137820146, 82.114880814584339,  3.721119649494861
 9.342952538921580, 12.662937544039041, 21.073112562161715,  3.576967055321506
 2.823302969766442,  3.849421938132815, 83.870746770192525,  4.212383952669363
13.044483818897815,  3.460791271900428, 11.847765108538956,  4.017154238054202
 0.891457551263761,  4.323441620963950, 19.871815781017879,  4.111448554513696
18.226936726657744,  1.455679293924526, 44.778909076697488,  4.056988980110655
 7.885634272952465,  0.011581957544232, 104.127202303478001,  3.658540765099721
16.787388799762571,  1.973645201716181, 10.130974216060476,  3.950128885436845
 4.733146995997092, 12.908625151055858, 116.566752794044362,  4.096755808466919
 6.521268022949354, 17.972778193348951, 111.589465005540831,  3.925434879801810
 2.204907793047839, 16.084347930275850, 45.198327300045428,  3.970673829142532
 4.972594432972209, 18.212317359798963, 56.806958253962485,  3.882432908068775
17.225389404103922, 16.448227815268382, 44.219704761843069,  4.134829737377551
12.986203567814023,  3.450879327151469, 42.125009298604283,  3.736800030037979
10.367096358586894,  0.411254009253973, 76.676997186382678,  3.655675454993610
 7.351385304746053,  7.629069562458056, 46.313307675856734,  3.995434463444040
 7.000816447983632,  2.975176806515696, 100.575282559294223,  4.385520649241538
 0.232876606390773,  5.190774138816882, 70.213889872827025,  4.189682122046095
 7.565628011386452,  6.399863869887858, 42.627250701782827,  3.732573183635864
15.466994667263677,  8.677060828976206, 77.793460622082620,  3.984644155483972
 7.425723469234925, 17.933500931484666, 86.297115914111728,  3.614818114379129
 2.094170408533905,  5.385197334860769, 56.249219768072443,  4.199138126221385
 5.855707562528655, 10.916607940264038, 54.816205354734798,  4.369056105215059
 2.141037298260154,  4.054309013470567, 101.315514326411872,  3.954755232357096
11.326039158993433, 15.942788925255822, 109.529543419663284,  3.874073369544420
15.316482154230867, 12.382909714255558, 38.153730708855967,  3.978752830365397
 7.110263395517610, 14.199319999656066, 49.323113619052386,  3.989796264183838
 4.309044524246478, 15.366564660809953, 25.407690608244778,  3.829813576424832
 5.882969116299694, 11.268037580028089, 20.137237055371116,  4.085349451665464
 0.306053150990412,  3.593749613687203, 26.155566867820411,  4.025412440042500
10.597915051355615,  5.084134194031900, 45.025240062640229,  4.372172039969188
 9.492510716777566,  3.214761402057785, 40.435800951912597,  3.979732421976719
 3.635000629334022, 11.751608111127721,  2.324321700396210,  4.295105917327763
16.360061590891608, 17.849108091890585, 51.572898079221027,  4.081842538512734
 5.763446043128571, 12.005409919033060, 91.240434140943762,  4.270514545596615
 8.310860607900930,  9.527619258366613, 23.061963755529696,  4.115742507334977
12.685169297674586,  4.700050713201237, 38.387118405216683,  4.132265082513221
 1.821569422096834, 18.166230748154661, 95.698846910891888,  3.853267391682471
10.507955440830077,  4.478950952601607, 80.895036359428886,  4.184959112325471
 0.530192928564431, 14.045283125420283, 115.735772413013606,  3.788701525777981
16.454838218677864,  4.978518090772844, 115.688040610316023,  3.482961448580987
 2.291600061605100,  4.249256886035545, 112.730714067248414,  3.528019882310128
17.210856625847050, 12.578113294967601,  0.069520803976545,  3.885190831520283
 7.413013943439464, 11.334762497499220, 95.048284899116481,  4.100689938324677
 2.552729554342335, 15.528694559967031,  0.592519978292172,  4.155117502069706
 5.313057147356710, 14.150872056450170, 102.096311643959524,  4.118230421224263
 1.799804677725505, 14.269648228515409, 83.240561133720661,  4.198726195131946
15.388755203266353, 15.609549929815325, 111.212130693682397,  4.065906843082096
15.632454266008125,  4.826711760923218, 31.626769354763361,  3.956087388901927
12.608452059982355,  6.943040584206353, 57.238598228413572,  3.878324800414664
11.714389828158458,  2.105316427869263, 116.956634281920188,  4.196403125437534
17.039360090014153, 18.658679883663162, 58.528269769620401,  4.291584671588976
16.906717119729883,  1.395223157781019, 106.667171549146332,  4.140290948549117
 5.782154550641510,  3.942895226662778, 47.343536246722138,  4.194088282632896
 3.973665937719936, 16.993338670976900, 53.285985830279664,  3.813529199659871
 0.053484485638299,  9.734889611213315, 71.259615470217639,  3.773396273610764
10.544865815182572,  1.721637887932153, 56.230977145029343,  4.090300380182672
10.679057143221534,  9.270461158470569, 35.996868142686758,  4.456992455217605
16.139854043352901, 11.069024877640549, 47.679019311846751,  4.271210021821156
16.235523272222402, 18.329954681172396, 81.545153294074382,  4.252910685153092
10.280794867153983,  7.933241032961086, 112.948062578762219,  3.587478392675484
10.334937239204260,  3.624849236000899, 15.091462901817149,  4.081571363106750
 9.470711019941261,  5.004251509238865, 84.784417812404499,  3.704279195228080
12.024908284906527,  2.885306536381295, 28.991461939339267,  4.070661693895620
 2.621105925984700, 15.154943780151314, 64.837086070908683,  3.962626358183344
 8.979865264552540, 11.466352022095847, 17.514238925489185,  3.962746162088427
 7.430066983612586,  2.347929271260526, 44.010732110280500,  3.893066045813670
17.641380024362256,  4.340777939908502, 83.822301033565580,  4.026390674200244
 9.744161463364573,  8.969415821201913, 49.417736318377088,  4.286787059081546
13.254661217879532, 14.279380490825323, 63.792093345370503,  3.992531908714245
 5.657920285688800,  3.026064065880512, 111.027887262094893,  4.346048905817294
17.396504181865087,  2.564351650447424, 48.903592224554686,  4.096016206293611
 3.788582094916245, 11.494147363594378, 40.423278252586776,  3.963890750795676
17.077653962048437, 18.805265588394697, 92.837351075901779,  3.772323991572224
 2.342043767993449,  0.170822169029815, 64.599117481989097,  3.927750481401902
 7.987720562063672,  4.260136447370130, 61.946801135029226,  4.278739225826723
 1.243212718941566,  2.720520640928133, 109.180771307844722,  4.327209224539961
11.213736705643091, 11.456196706912873, 77.678524756381847,  3.808387796614669
 4.707081854078781, 18.620454250814284, 43.666972990921117,  3.732433513354598
18.252676909369008, 17.189874296881165, 99.439378866591937,  4.401382180395206
12.158824208768454, 17.872335386356873, 53.536184005850259,  4.091869209796044
 0.977512496390813,  9.377560183103917, 34.179917945875722,  3.734143246409014
10.932198955471996,  7.181983358220703, 91.288359711732895,  4.141565772583921
17.227610299073497, 14.049710276743104, 64.908976890836243,  4.248467391615201
 4.539418521147163,  0.068357439108802, 61.127752151107444,  4.205176303769345
 9.185370194437095, 16.292194949265937, 38.557876718859006,  4.177394094561865
 4.458275484682772,  2.765598388274521, 21.180594025212336,  3.758488559269245
16.175198153287006, 12.773057224061931, 24.218984128895283,  3.908163321538707
18.036481146869100,  2.672753813635977, 52.905297616897762,  4.011601927815273
18.366674532536152, 15.155174290663835, 35.345916286226611,  3.760537747680243
18.670975622185356,  9.665178651760595, 92.673060917239766,  4.033591495599434
 4.576130022422512, 10.529837412779026, 47.155677683656975,  3.943811626417586
18.271324014102312,  5.262982412662200, 43.439396406141576,  3.888658952130203
 0.143077223392077,  4.802352397261198,  8.141542532652943,  4.037130895283735
17.616832249122286,  5.688285098900637, 97.557312446328652,  4.071698632694572
 2.807391728036705,  3.298158433502738,  5.587714126748407,  3.911572295203956
14.877675402705504,  4.366596440932167, 45.528195344070170,  4.260771090962557
 9.203524768881161,  4.375624669181365, 76.200594248136667,  4.069083597782526
14.696781044276189,  9.648835103369287, 65.005292017629444,  4.161957466822107
10.589190166411056, 11.639632164679764, 58.744821116049515,  3.721829875809672
 7.900757239268231,  2.928868561802047, 117.191793932409226,  3.607294608909204
11.187178336028101, 15.961079524553920, 91.848148175940153,  3.914841501693986
10.498744275137513,  1.399863628065145, 85.738988958828614,  3.987681796358195
 7.856824912191102, 11.992751736306749, 83.343995530185126,  3.745520578665595
 5.486182079629536, 17.586232376680158, 66.552493057199285,  3.858195749190270
 4.306109623520575, 18.659629478689752, 73.880514644358257,  3.919186525452236
13.564660715627239,  9.779270927810339, 24.429212569781871,  3.983318822225956
 2.747706327331202, 12.208816695841502, 44.137168408371210,  3.840113532378525
18.154733125228613,  0.486295654748997, 29.560049367287672,  3.849679261669789
16.704012929837813,  2.712864255675251, 61.226997086620521,  3.784819851370820
18.255495257667363,  1.196090291673072, 102.676049452624810,  4.289309522987757
16.254877496097411, 17.792635961910381,  7.851430796492723,  3.854343950465564
 7.320203179487191, 17.580198655122963, 75.981760323449308,  3.535352585611567
 0.322141446178249, 14.076848414959832, 41.484159125757060,  4.160828682900057
 7.313129255459461,  9.990893595097427, 99.271699691090546,  3.982656619060084
 1.789483728595638, 16.592292435879234, 86.715496780198009,  4.095658428938608
16.763542220977733,  8.596480411744409, 84.398370560156636,  3.900375655718895
14.826768389752763, 12.446948660128776, 84.830319353395552,  3.774238290505946
11.138693684724730,  6.317906194033313, 106.333099602063129,  3.985919685274242
 5.504042261346939,  6.935175949090187, 101.437850889782652,  4.249445435727775
10.640409958201543,  7.868780385935235, 15.909732671315972,  3.911543821535781
 2.345572754535905,  7.109390612448008, 27.051718525431429,  4.109939364537743
14.234480311702427,  2.145866393024395, 17.188206359646962,  3.879054737926714
18.049479714876576, 17.701626825912403, 47.933563170247574,  3.863717144607137
 7.203611674662642,  5.205134766821762, 72.859510554351786,  3.857052491650728
16.638769367588612, 16.676182218835955, 74.162693396193944,  4.013745518480860
11.069161168003362, 14.418425254000265,  5.877047979588830,  3.742314406668890
11.130131973667376,  5.472063128394081,  1.005325157678758,  4.166345175129175
10.377264095718457,  6.011101903531646, 22.650598872777728,  4.080704436960061
 9.154377011728767,  0.114505548222761, 93.412300436633444,  3.968232424942355
17.579775870642479, 17.563339329142536,  3.600935465388225,  4.027158446577271
16.752765170360362,  9.521389732497404, 115.594722830532817,  4.340537680961595
 9.652340181020934, 11.426316999406833, 52.906528513685728,  4.184386945290861
18.675053803295668, 13.578813857549260, 97.292182451979400,  4.038777662428321
 6.518936950235790,  9.843711833624896, 67.930383476801637,  4.147037183734270
16.722903056866922, 16.983095904269291, 40.211542545943068,  3.981132141242646
14.320292551319907, 18.807583761810047, 27.414324395879447,  4.158400752662516
12.637871111420379, 13.386383531054987, 94.824698352363200,  3.942194706691823
 0.158742175304463, 15.319971023189813, 50.583158728994690,  3.552623618948101
 7.528958921461606, 17.981063154763227, 107.790151415574130,  3.931913063666792
16.732848826327405, 11.572732733083559, 27.858086509472901,  3.825965007075122
 8.261095296146900, 11.514471071646390, 46.701131538699443,  3.717288492540701
 6.383790498048469, 15.711889943364310,  1.658547564412191,  3.496923481684213
16.424618037949433,  4.797842416443125, 76.950582395761970,  4.154357588487212
 5.658227691450348,  7.176198844176844, 11.966215937123756,  4.062995381421822
18.912306048142842,  2.119146150279693, 72.911782837533920,  3.951915042055444
18.103623755308103,  1.964809724419436, 16.914752516905082,  3.883746396196601
 7.774738682045542,  7.901183368806140, 52.836143256991733,  3.802854464493523
 6.914587867618049, 15.953509180925055, 11.286828068883297,  4.084897826643417
 7.830190959565549, 11.022399371233922, 103.211730584579001,  4.163375232951555
 6.664409338019351, 13.065054111541263, 23.550521276239650,  3.726074552112635
 6.728855586217200,  0.576240424910283,  9.753920264105874,  3.664001763773356
12.819111969514683,  5.830129643979473, 74.258506335861000,  3.977161077589076
17.648894654935042,  0.069991269175895, 20.386313619850185,  3.971793572591553
 7.058563040895194, 10.443819862174729, 34.214059922876473,  3.806335599442631
18.012803500094904,  2.335117966079146, 40.831729056196494,  3.957254830256411
 8.874781670369227, 16.028143051882054, 31.369213892511063,  4.047865721016248
18.474866509019307,  9.428511840256416, 24.891131640529714,  4.258254521363765
 0.140425072629529,  5.377828189361463, 59.818828878440058,  3.895498830199224
15.872972327405552, 11.921895096767633, 13.052299578105128,  4.215325199630861
15.528646961937037,  3.281168470408716, 80.630407124735214,  3.875980414500860
12.502763950874600,  5.986908397221910, 70.251124840765286,  4.036590562440188
 4.259554469535130,  4.350868865633469, 59.769435313332075,  4.278612611558738
 2.791910417652397,  0.870757697045598, 47.051282336773106,  4.392154701235182
13.440475596159468, 15.252458605556404,  8.743800112057219,  3.877863638249398
12.608224329993767, 18.102364827495734, 64.994700607124145,  4.105297143255533
 1.714365060774869,  6.533149251487928, 23.133364326256913,  3.810676119519317
 0.850266307627454, 13.268510394409931, 61.523708566056648,  4.371613365439670
 0.355595714337069, 15.561302737635671, 18.740793298132179,  4.297999807819246
 5.518033009651516,  8.852590255802875, 71.915881991483715,  4.295101406377241
 1.225839239433135, 18.097697458952180, 41.840731818234168,  3.951793882058895
 7.037717167767577, 17.594805710703973, 100.422414558219231,  4.270402805365148
 5.873018288112407, 13.515918409215326, 16.342943829684092,  3.742288010602596
 6.877359372303302, 10.677895200690363, 78.645108955229915,  3.941872968392983
 7.657719495249770, 14.398968057192979, 35.053057380894124,  4.348732299913270
 7.106878143791533,  5.886234278889045, 15.451377439993840,  3.813456707680336
 7.319941519392080,  3.411363284837146, 12.353403441049901,  4.073459729128559
13.915871464499556,  2.335262764590690, 58.258276445519911,  3.683659670045265
18.169192111806868,  9.605414894614960, 59.921648473416781,  3.619936970667231
 4.190443350894668,  6.798163805086456, 53.203497951832091,  3.710616617151962
15.083978359862725, 15.808913506004410, 12.207455895322644,  3.795477026470647
12.766491001542093,  1.637993436797517, 68.203786577828112,  4.017544770941888
 7.009258367083961, 12.669455238391256, 70.938125875922012,  4.126523854401317
 5.439974091819104,  3.642496004015119, 40.742560795606344,  4.170723659642703
18.041378778210198, 13.580348025140566, 71.420859145401025,  4.147216728209047
17.267481102287874, 15.934619936144941, 103.638646508807767,  4.405351837812234
14.679384183427761,  3.247242544711114, 21.345388551839648,  4.117583919522732
13.061645834268857,  6.144602920888953, 66.262924125328922,  3.941810481737085
 0.755955415189995, 15.839930278070048,  7.072496546291603,  4.196441800612380
 8.907355235734839, 13.288499309318230,  8.993767696307509,  3.967311983783890
 9.731189542103076, 12.386469990734801, 92.045565047856400,  3.757329630654769
18.639261590955734,  9.837927931332754, 63.773220404827143,  4.079060849683439
11.039025246467373,  4.483069946858357, 100.093117800456184,  4.286703569098074
12.195334046448961, 17.972438728052033, 23.884341003076628,  4.178202407758193
 0.766029672474217,  8.866142131973813, 46.875838886680320,  4.200327344332710
 8.671552025867051,  2.952336631815813, 107.898941955347865,  4.226622616780696
15.595848281121370,  0.904673024322214, 116.305875001797787,  4.004475279333382
18.772819377855868, 15.474157018496655, 107.641506599557516,  3.756102731115295
 6.362343169845973,  2.755377653581264, 85.932743942504985,  4.225817625856696
12.548499191008592, 14.020247006685997, 23.088957322329417,  3.903158453668758
 9.114664422628836, 11.597802863355744, 106.967516762335421,  3.815056078286259
 7.700429381598905,  2.270144390158961, 79.094270840680281,  3.686957833375626
11.024399020938867,  9.072216283221428, 109.145665843732516,  3.850951039803811
14.646528491353010,  0.104077352301549,  1.534479874154474,  3.735433357556664
17.414155180703286,  3.476564127153288, 56.784809082774572,  3.997747100345323
 6.286143039778906,  3.707104382886647,  7.496093583799019,  4.062321571263031
18.851663704621277,  4.067107826379786, 87.935933154128193,  4.024329358403154
 6.389024890985573, 10.549048538192213, 26.572631173341243,  4.127848498699310
 3.507724331051419,  9.006339843258187, 106.612398271371887,  3.952214995489193
10.381267522811401,  3.059773033713806, 104.013672408407388,  4.151636736416927
 9.065315848107476, 13.430601607795580, 80.112839296179999,  3.677405932571373
 1.544191974426231, 18.564729608772925, 105.825789969072062,  4.048401436622394
 7.737301396035834,  6.771552769367180, 79.008239233318761,  3.830295189386178
 3.431232060035819, 10.571599780606366, 23.530963843779745,  4.325146072513111
12.329272983648835,  5.983312362993919, 50.802414219414082,  4.057207596822990
15.741486652187405,  5.805298745580859, 10.064014805839946,  3.947860041811539
 3.806988461398958,  4.673972513195529, 97.524606315029288,  4.289099139206254
13.562626443568544, 11.711268334661479,  6.986827846897711,  3.934372496126965
 9.211666818559998, 15.806791798718301, 83.373626847468998,  4.311111765993719
 5.440212948083894,  0.503134900328006, 50.442110335330149,  4.221821018699702
13.164888600958179, 10.063314702772404, 28.657674788856141,  4.081258419796487
 9.692825851049950,  7.395704537912951, 102.725960393343243,  4.002036530109033
10.400863007219064, 11.838656939077326, 25.672098992747255,  3.937102172172959
18.625614101518014, 11.783610623312283, 85.950149361384575,  4.103135445041581
12.214262429255722, 11.486422855811151, 15.037826623428725,  4.155136356425191
15.612797881851293,  5.839517892568053, 86.761271914528706,  3.702605843212986
 7.486831070938676,  9.540482906543541, 14.524747551628124,  3.735355177182728
15.342224064884020, 10.480574312664027, 81.294062438843540,  3.892087157943696
 8.978310707948932, 14.535448534908307, 88.736857139159540,  4.219042589137872
 4.620202580453719,  4.802618856651207, 30.136237328682551,  3.728365356285783
 2.409617110529579,  0.310667915287761, 112.434140528632724,  4.092276111109035
18.771151472071743,  2.213436259264336, 98.841997116723334,  3.688358827212087
 7.180347329995912, 14.437599679790651, 113.511153064279654,  4.225539015862241
15.433264353361803,  1.468530445218490, 74.830060906335689,  3.922754328200505
 5.129706149880796, 14.923189983486232, 73.775710913571942,  3.726585925080414
 4.319898620238654, 11.787406966880447, 75.736149997213133,  3.821680176278383
12.744791423767154,  3.238497703033298, 77.719557376539314,  3.961982351162632
15.217926897407937,  8.005614106485059,  0.977482467541080,  4.443281020058015
 3.891890952637988, 15.462450177980184,  4.456552508293104,  3.992994180846989
12.128420985807168, 15.715127880721090, 98.288702834535172,  4.239446708063856
 7.967242626778869,  6.548391778078653, 110.063924541116563,  4.285479247488481
13.365935479371190, 18.452080092425899, 94.083666448626929,  4.071745027062619
 0.838848166846400, 17.414080018132744, 61.438435840223576,  3.834819426029004
 7.965552791671530, 15.827928420610197, 68.854895574746820,  3.668928773706998
 1.533746543430159, 11.197376412795961, 113.283654279387889,  3.984825119698849
 9.755405015791590,  4.978995677524849, 26.449215967380258,  3.885223599535533
 7.375726560726376, 12.391616846840495, 30.979544322498750,  3.757834588223624
13.301060102258472, 16.609258864259736, 38.161630081676549,  3.937601756974051
 4.630957963253280,  1.167495995028107, 93.568397986849277,  3.747124750255686
 0.354038547735608, 12.361856714914845, 37.817051811755988,  3.912603937356740
17.966481733411772, 11.888048300766478, 78.482305831617111,  4.219977258920839
 2.801849973153475,  4.383837483834193, 67.056735699964960,  4.028634250522200
 4.934305157015597, 15.248773444550496, 31.992177021637442,  4.013818976435608
11.724869685303139, 14.834768543181699, 41.032104588314674,  3.480711039368230
 1.274088525871273, 14.482116527791995, 74.980476395872103,  4.395686918550103
17.525849672283950,  0.546840770140887, 67.985291880636453,  3.789697385461344
10.450143839117082,  0.621997194910874, 110.791257365249805,  3.991658263309830
 3.719700231241764,  6.674529005539365,  8.482577284770722,  3.969754754913702
12.938225397164809, 12.343216111306585, 110.163776129686951,  3.991797596914764
12.749245114250591, 16.767397166314140, 31.426137109296519,  3.782128797639156
15.534675868578550,  3.402702139413690, 35.967220133627087,  3.693911005026083
10.284751195674867, 12.106242052970160, 97.764384837462430,  3.898948911806672
18.177555211468142,  6.709667978635511, 112.671421640796325,  4.221771481644490
14.738712303650171,  1.067078431795837, 31.197445433845797,  3.808791594209331
12.730300148685419, 13.066643805035405, 117.934515514367817,  3.906105395814893
17.127307736203253, 15.646330649331759, 28.257836913025809,  4.377678462229187
18.891301769134834, 16.827157710971068, 11.498621177869152,  4.204847511283887
16.638173424890436, 11.692659051202542, 111.883431683668420,  4.258168397284437
 4.727997726763484,  0.206824092425734, 24.199866814529791,  4.154558194306419
16.656027589218716,  7.945405143971747, 13.621565772563754,  3.856864990296874
 1.504061619450890,  7.171675887014314, 103.737583818600825,  3.948323729914366
 1.320758031133686, 10.529858312880409, 28.662114444469584,  3.722037992563416
 3.644125751048362, 15.353056248685863, 13.581200371100946,  3.841613024822241
 5.871044918938685, 10.073609455420085,  5.283461964545308,  3.805654842651851
 3.973818021641264, 17.786581842908667, 77.783981787775502,  4.055450029819625
13.589476694775080, 13.830366762541029, 26.997036031223782,  3.959275806739398
14.520994167877573,  8.312823347754742, 37.615136821083993,  4.097698026538488
12.893747188302116,  2.961719439325244, 25.015407852284508,  4.056080051095731
 2.656665759029487,  2.774217525762142, 43.398454236968433,  3.705162344910547
 0.396334370560742,  4.361680158956204, 30.151017541491761,  4.091144088266247
 7.534123368098383,  7.516424158413114,  7.665982689894587,  3.930937455772739
16.116318558069938,  5.711709294703510, 40.234877823291455,  3.871847438203428
14.801482526511277, 11.144592886133363, 20.867123541304512,  4.032993278098028
10.990492436320276, 12.952024578897632, 70.255861204986729,  3.767011340999237
 5.450683741321535, 10.356246944686298, 113.474491610216774,  4.030046329343865
13.242293317625990,  7.295194867910036, 42.600885880088121,  4.011967692217505
18.936435730201346,  3.959494501496879, 37.363623190414202,  3.688984801760573
 4.467624701830700,  4.485557115803494, 116.661148953991031,  3.982513403534913
 9.154686861591122, 18.787095773827751, 66.860436008357894,  3.843509990673879
 5.908384854246744, 14.209762854048245, 45.358328378350940,  3.899008668658700
16.874418993985287, 11.042474564988698, 55.309990464939389,  3.972143561625904
16.545370457113048,  1.349702692531195, 24.296142864942979,  3.824332483762803
13.791985247231509,  5.128459991529682,  4.145256936689994,  4.077356829667334
 8.267968785522397, 12.124124746671907, 75.099320163295701,  4.133586884221120
 9.854408450878159,  9.542960399752245, 43.583630944736406,  4.256746335415404
 0.726907302468251, 15.539779161466406, 58.037479929160334,  3.933369138560128
11.308309973970550, 12.785989395037760, 33.576553904167071,  4.091052703475623
11.274366682195705, 10.910353826259376, 62.561502880475594,  4.168562139879523
 1.356637125128183,  3.305844935705183, 76.468224109025869,  4.036814688327484
13.341033907509891,  6.547982506545122, 26.719285065608048,  3.924946485503257
 9.312382620347352, 14.920147695446916, 117.209426759207773,  3.863721896319632
 3.508054204736275,  0.762945222481977, 99.254098237620880,  4.275903355159998
10.181646502470519,  2.180246148760520, 51.827335347099122,  4.024926531073747
13.689262845718003, 18.449719129574564, 20.054397623433260,  3.986598891750315
 9.339518589101925, 11.586731715664515, 111.582855235267601,  3.873276430999080
15.155909393814090,  3.503816688296693, 100.080137865728091,  4.125092699488881
 3.612534375744715,  8.477214713692263, 15.559729988425865,  4.561186252842147
 9.741362273098371,  1.946219544852196,  6.154847887968866,  4.138476865210933
 9.287011107229247,  8.190568368376113, 74.450760804693076,  4.084761038253695
10.959240131914001, 16.613472931780269, 28.000658353736476,  3.951957453942911
 4.789674248848296,  7.300203754627614, 34.070649435680814,  3.940145503405690
13.611790295147749,  9.887668506465380, 50.903040735849174,  4.105675434703529
11.782680024538140, 16.116840791318847, 80.394799190196792,  3.576986542200158
 0.095943239512069,  6.771034316518006, 117.808224133114024,  4.078790329179616
 3.675078137308323, 10.446408702257120, 102.837007612921042,  4.111814415738027
18.045647424832183,  9.646999623135015, 96.868087352839808,  3.968772281718140
11.122719342444160, 16.073769900189951, 60.951508836514222,  3.950990191457077
 1.704318460078225, 17.372902082070475, 33.253348026533828,  3.865855502735841
 8.315989339176442,  1.371151318121179, 73.518741928326790,  4.101978038418646
 7.765437426943545, 14.256814386648639, 27.587803700507344,  4.019401103906651
 2.828994432409715, 17.042388999712053, 92.129891207084697,  3.878039834443364
 9.479523379939689,  3.668501647564941, 113.553690236422838,  4.426523515212534
 5.946655168178881, 18.345612027281035, 40.011336758149206,  3.998966940811047
 3.387990027372973,  9.048153874491675, 88.632838339099649,  4.005760945476744
14.219363472409173, 14.983986134155117, 71.129043787133043,  3.978528878588907
 2.813297439622672,  8.530477341264087, 19.848718972867704,  4.125669358172645
 5.495829782230304, 15.853489732992101, 81.309958041191280,  3.886390886353788
15.926350663427373, 12.946252601049514, 17.358781323836382,  4.138897448965606
12.757732412385002,  9.136857560434967, 84.106344576173143,  4.158104435595396
12.966238233611861, 10.132779030877311, 54.895240386801177,  3.954139814974571
14.020077223186300, 12.859259427967853, 67.593336598449568,  4.037184583688407
 9.660844676221480, 18.692334184931752, 97.224230228543007,  3.745241770092175
18.257579415729637,  6.976526702803924, 66.649853433077794,  3.983346236456986
18.726323186686759, 15.508232120154899, 93.884003729051301,  3.768153386845955
 2.697329405529117,  8.185914623612828, 110.606042179503334,  4.284879518404709
13.925910072420868,  7.956551569171727, 100.843015594385591,  3.876203046999135
 1.803906358026117,  9.754193076734820, 54.150422260911498,  4.077339143362785
 0.279396747527630, 13.616340366310792, 31.534237784387503,  4.225635888344941
14.396989162586721, 18.757837882141562, 34.961256100091603,  4.053407887234980
 6.191605406619750,  8.732147884232520, 82.053363332361457,  4.000151905658084
 6.217796191051261,  6.406149004249817, 65.165753189457917,  4.206046428703249
 6.708724227768910, 15.169325988518269, 19.795352062724088,  3.882491546545449
 8.868433412423595,  8.771952872839782, 85.226271067109494,  3.958681508158174
18.236241531671297,  8.411734924709531, 88.964705409946745,  3.828532361991213
10.711060882938398, 13.539558668901247, 44.438461240214146,  4.069078661404420
11.863514391924257,  6.755320388692454, 87.325541285260599,  4.028203054479341
14.682197805058854,  9.673585115098746, 87.728161670273550,  4.107643037823848
 4.489857599944132,  5.248806197691900, 18.237856822086123,  3.887474059001732
10.966563890708299,  0.698073744038182, 45.113838046505329,  4.180977736899632
 9.916248329916709, 11.900954122330106, 66.635746446887126,  4.018380341465927
 7.662036872483754,  6.251509523721244, 98.059198797351698,  3.881411099230749
14.652962540418242, 10.065827460931217, 58.509737675401212,  3.997533237580915
 5.390094132915670,  2.981328572367861, 75.914993287624668,  4.065255534496116
13.359025260239765, 18.280757648966688, 113.371308062505491,  3.878469440503906
 9.300773466897921,  3.900309412923538, 88.694983454570632,  4.117368713851389
18.782487650150088,  9.779642963086053,  2.516536784773067,  4.093661887832014
 1.399757151044289,  2.324027478836874, 61.606406555250750,  3.583383830314586
16.457796912287687,  7.358598553885868,  6.344804923423794,  4.065437038907800
 5.009161294349000, 17.351495917597571, 16.853707428641670,  4.131821557198654
 0.898948029600790,  9.491999518264743,  9.040648115805521,  4.006475848370646
 1.332530773601510,  1.719778996351052, 91.035431877390764,  4.257384136414281
15.748880858171907, 15.090590135190487, 20.884847342578141,  4.065189110172319
 0.487715692558219, 14.775978258068875, 111.456384197226924,  4.108553675611107
 5.511937210400895, 14.554585517211603, 38.416349628449481,  3.432357747360813
 4.884807972288426, 17.563525092392123, 36.129856085680970,  4.167184708023257
12.704655335693658,  2.131126934916847, 97.073680289850287,  3.994536683318183
 6.545294463958707,  4.652651617165579, 82.170357536153261,  4.124197698731197
 2.688171996260439,  7.645568346487786, 114.784843367584685,  4.054502877137370
17.727237329526631,  2.496249349226271, 112.632517608062926,  4.152993384783256
13.952983074143077, 18.258277370335506, 77.946171782682484,  4.209991962703890
 6.778994348304064, 13.752684486499023, 98.137697185389271,  3.809078534014226
16.950950893747304, 11.644058334256346, 34.668534823588466,  3.814779578248034
10.275012181550231,  0.425020921167881, 17.836875804740814,  4.351174162163262
12.025838675518468, 14.060868229123601, 55.282493246496585,  4.083987302467914
 4.815767923978459, 12.138129081803692, 81.422756043006430,  3.448367208831653
10.610507296451244, 10.323087743639704, 88.765818462589849,  3.920861702255989
 1.669160192363951,  7.854593651672002, 99.625997617446018,  4.361520376289858
14.966532099476883,  6.483316375025170, 90.551441442479401,  4.089137799532530
13.299650112928624,  3.069925371755909, 106.732643047317765,  3.799728377825332
 6.268722647681853,  6.592863759774461, 26.703776546184127,  3.774931007392628
10.969607391055675, 12.137838509389830,  2.832850893284768,  3.842555764708325
 4.010520881043913,  4.071645689810411, 24.940892838577348,  3.815296006952980
13.865281383385266, 18.380870523080780, 89.601686145561899,  4.288960449905193
 0.190335505920491, 18.084784402701207, 54.829218382866685,  4.286150361900943
 3.527314122548850,  2.002615684726979, 54.083796155607274,  4.312789762148331
 7.543558246243292, 16.841355326531584, 59.507642822967782,  3.866606413793241
12.247467906573055,  8.698660953955624,  3.768367898471157,  3.702904931499500
16.363003378149546,  0.514360122643123, 96.509542419908129,  3.801252148241950
 1.434126669486237, 17.657430003157391, 80.885280125343101,  3.917058657032269
15.248919193162754, 12.376467067876870, 103.811170341774456,  3.781936839293973
18.901513375827612, 12.191759399326536, 21.311217138277350,  4.146412548645402
14.242249847100036,  2.419946555265492, 51.520998871660808,  4.072872307907325
 2.105338839329643, 13.419125114072953, 10.334651545693665,  4.132341024343733
12.247798664057829,  6.602152405371123, 30.521921332641611,  3.978017195752612
 9.949307403973009,  4.678964888966447,  9.357439281859076,  4.249226665174763
 2.617242393349849,  3.904189048174872,  1.683405711274340,  3.976181280069407
17.026358790466531,  7.246042746877018, 28.106370290566396,  4.030162190537582
14.360361436278669,  0.943743210686836, 109.862002935892207,  4.015137467399167
11.501825550664424, 15.747265574454476, 67.862438783061677,  3.607110426313543
 5.761968226063180,  1.227991093859841, 89.803078987569094,  4.097344147805225
 5.159526962122743, 10.564817327114097,  9.320727481716485,  4.405410434939866
 4.108887085824388,  4.981180213057394, 93.166704827486328,  3.922658984136585
13.763447530697958,  3.333309068725482, 113.530402075459207,  4.136883642348598
 5.431175996298396,  7.986473349003332, 76.025867790401179,  4.082738488729835
18.022999142718156, 18.336351972022975, 110.209930299608814,  3.640009228246282
 0.459241595410418, 16.203019890531447, 22.901901113018965,  4.112852294423100
10.259685222670067,  3.367204139865252, 65.363486040660348,  4.055060381472910
12.975366773877067,  9.771091750802853, 74.662701775263315,  3.946588936455646
15.793406127471993, 11.813501160840220, 61.828460282269994,  3.827119793659189
 6.678678066982244,  2.076336177487297, 16.290643224405358,  3.998163393375072
 2.234909657846795,  6.711957438172008, 73.587183207065337,  4.218230986104553
 7.320887300366326,  0.430190844306211, 54.004216746012993,  3.788002253150845
 3.801890451289317,  3.187838579959392, 71.729045533422862,  4.326783720781887
 5.553123157233561,  8.979903996023779, 117.353660225205601,  3.962463508694579
 8.921541576751624,  6.999608914180546, 116.432415245655960,  3.913208671777206
 3.106284538121973,  7.752355762134680,  1.693581933523473,  3.767085980206248
 2.997593309220807, 12.976650421500420, 88.024470390874654,  3.952247020343556
11.976998531490599, 13.374601531153608, 73.879360018020577,  3.690795812765643
12.909598851582619, 16.044351531499540, 102.712999832479568,  4.456999801385750
14.950471354718731, 15.276338276224251,  1.756971454157918,  3.834024035255876
18.036645812851262,  1.995904671757329, 33.274756377928767,  4.149666292668533
 9.665751632932073,  0.999218508472322, 26.354569849364555,  3.867778751383028
15.126493119851782, 16.644603961406911, 67.809407214969823,  3.663556841476724
11.844295907337228,  4.754894725676351, 110.080606429396695,  4.226795767422629
13.864073318105330,  5.595228171758981, 15.136176909266707,  3.978810102586211
12.877983990381356,  7.497031950085193, 61.121870180861002,  3.901155918255912
14.863472987507425, 11.617734287523652,  3.186238451461796,  4.012940853178275
17.712051632765981, 16.771648903272521, 117.869979926370860,  3.962404931726855
16.855372972923952, 16.925024872755230, 32.263064839923700,  3.946101325354464
 2.414878635589164,  0.084297184031788,  3.201853735868030,  4.126066326534086
11.148969641403822, 16.014764852722440,  2.399367401040440,  3.890411538729308
 0.791651267293750, 13.220124061242281, 101.303854247862361,  4.173107466940208
16.726688270526463,  7.336416973414532, 34.437532108049538,  3.873953484047050
13.743320350812098, 15.799403699162376, 83.567318991610520,  3.699337182631018
12.931951000936506, 17.581999654601429, 57.559100449515533,  4.092787144653632
 8.556899943990256,  4.919488677285030, 30.260044084359652,  4.086806560112559
 5.914900530494903,  5.739356641418508, 69.200778408224764,  3.969996128372891
 5.961981764086952, 16.764303461718320, 116.602452235630295,  3.875338606294294
14.285150221886118, 13.804692456855880, 78.605264615990407,  4.065960728993619
18.865108087935337, 10.840207862436186, 104.714024469504579,  4.270518866521817
 1.241152895756243, 17.910892604748373, 15.387944430418933,  4.019789295504546
16.306167398164174, 15.621460053694808, 61.214818709330856,  3.923720838437965
 9.465269279519431, 15.402015445571422, 64.530052211124200,  4.032032460618150
15.879578063675329,  9.756811134288352,  9.554851902117685,  3.989832207101906
 1.903888857033414, 14.218598464853427, 104.898442782658876,  3.559081184698023
 3.859515668609827,  4.927864133161993, 89.020967292778295,  4.322460039212110
17.047059811447905, 13.694427257799083,  9.477532165836291,  4.082349098883328
17.626418393279103, 10.892138396861631, 67.699210002574446,  4.176432952691703
17.552107184280612,  7.440306438385744, 56.803988866694688,  3.934260869563696
 0.267026937180510, 15.868488818524625, 68.150565285493897,  4.175045628055725
11.522937072812926, 14.567036719469746, 113.430319639343026,  4.373679828067717
 5.174899247315183,  7.934423860931275, 61.674732848214283,  3.678641808839060
 1.828733636378749,  1.492662754013344, 57.892595647413735,  4.074566568069969
 6.365190443077751,  2.549480106822727, 66.906763618467309,  3.935604958054256
15.173173164347482, 15.110273202269113, 92.068446224402578,  4.238915636150359
13.846150925555204,  9.675677875492394, 33.132374748472081,  3.981825350814385
 8.885980830973637, 15.645963679088965, 73.123090648684297,  4.029930542534300
15.171083197003751,  8.224745345775551, 94.321000552489295,  4.203481576428844
14.309858656362376,  2.819545646214265, 64.397665987137074,  4.063743123721414
 9.883612618476224,  5.838705904271592,  4.931584009413006,  4.014750077224416
 6.791054383484162, 11.405039250484833, 87.260862088574683,  3.882304886176545
 7.520309404202069, 12.212015396753047,  0.968392354805012,  3.977074310206230
 9.295715608877719, 16.864853006136446, 56.069829373927753,  3.814490473487909
 4.855416073207474,  8.541203263756211, 96.476137648984150,  3.979635369439234
 3.967543547160558, 13.380649164610833, 52.031939537167574,  3.556916341622456
 5.763781433963728,  9.681583522937197, 43.482142561994948,  3.631177479880943
 9.038654412512384,  9.680351685131386, 10.767419245268032,  4.047573089134827
16.055244614539742, 15.376670827413761, 55.976036708001480,  4.168572045419717
12.977463524958086,  6.835040848493124, 115.758317021657604,  4.282467103146312
15.921813930028932,  4.074095625378133, 68.043224013086586,  3.960095440214035
 0.797049191219025,  3.283912571137086, 115.998931957514742,  3.844060552683549
11.213695712591203,  9.492203341831235, 20.165601132282362,  3.974093561851003
17.204242961266527, 12.817675770055475, 58.592023246472706,  3.498100461679652
 1.804374642787526,  3.557242928104463, 105.204388963142392,  3.868303257784507
 2.909241936192703,  1.902558099576835, 34.698662246396566,  3.995330704998495
10.482374295877245,  5.187557427711601, 95.010632281883559,  4.335130614557970
 1.401821746878563,  7.471244278153454,  5.393747074062853,  3.915743582296426
 6.194031190420912, 10.670944258777277, 50.731561206647164,  3.786297529397990
15.967599318383799, 13.779383077732119, 52.135679734138968,  4.103267283901491
 6.408748937922493,  0.170487940317111, 70.129728567691714,  4.034335944028058
 8.547532771633884, 18.169059594358082, 14.233672760163467,  3.972164864636257
 0.067757779290309, 14.027894541521986, 14.818984817397013,  4.139331363776907
13.920343606024876,  7.172171459868001, 21.504510363144721,  3.601896049855176
17.999968948847279,  0.051929958795920, 36.933002239319919,  4.125725561805645
 4.031150908231798,  6.325807726959527, 44.318199225560143,  4.103197657847732
16.278948672994929, 12.162386683340076, 94.530646247022560,  3.740514407816703
 8.495812344169043, 17.567087862684595, 79.534597393404525,  3.778179046243694
 4.580285869372006,  5.490625941073546, 107.932472852685123,  3.841752871648240
10.966190665614217,  0.991788677536043, 37.171719663759028,  4.378297383917253
 1.265479552565512,  7.187975004243096, 85.768464095402976,  4.035060437282638
14.102120438524707,  1.188929451253520, 103.332340090200418,  4.116396770789313
 8.411486808706043, 16.849023720123537, 43.155235558364410,  4.345330853032034
14.778393426001605,  0.351944935350552, 46.479390528890903,  3.931665215365543
17.360119332833637,  6.399911343665102, 101.579239543218250,  3.739331981286078
11.180206968619560, 15.928031881463282, 12.106984467831733,  4.015789215820686
15.075497907765532, 16.744317713006609, 107.334948990165771,  4.035694120131882
 6.642808414959775,  2.373928816185529,  3.557276232252572,  3.978013663437920
10.333503578282588, 15.261357211054406, 76.920766053182348,  4.085775349020238
 1.476841720901530,  7.069008405046829, 95.161828028046060,  3.813908494818216
 7.534399603150402, 12.790651505421840, 41.894394672336148,  4.190246803184663
 9.238321999018041,  3.280911102430728, 69.824532230812679,  4.380251967196365
 0.864783062406419, 10.522220491532886, 12.917180580402192,  3.990773908498887
 0.682944010333699,  7.059212211267043, 77.246687934342120,  3.697953128124301
18.442016627116626,  9.583876945206748, 16.894296234190236,  4.261928013167503
 2.695426836076291,  8.243019463861206, 68.621922366200764,  4.248091706993910
18.653985349359498, 15.906554056037171, 90.068426518920432,  3.901631821222604
13.206183790789488,  3.099320472788637, 87.995158515257614,  3.704418885972189
15.560194271603207, 15.725535555969875, 96.082722037782659,  3.886383824830022
 9.407012828268705, 14.203329625406241, 101.076220842636317,  4.091674161356414
 0.512640709669047,  5.599063701800484, 16.062977600413802,  3.952913859401816
 8.948857459448964, 17.359791690985336, 51.058055597889506,  4.034770856607572
 4.974247360847841, 16.769326034674613, 105.116804997431160,  3.814255803026039
 5.607623999344763,  1.216999121172145, 114.742058041582808,  3.916773974341497
11.147196895497189, 16.524879870428315, 34.876658592489633,  3.830682378842472
15.184717580331174, 13.624785104659066, 42.024988446725452,  4.090032234731783
12.455192921206384,  0.209928836938546, 14.199685390071824,  4.076314225635922
16.068198972400143,  7.448045761653647, 69.719686399497732,  3.569487653039133
 2.531854953703766,  0.451029480845841, 68.675865531587490,  4.246314015059663
15.590341122290326,  8.530603411014777, 104.266651340395299,  3.787772343114210
12.152651235585187,  2.986067863905923, 48.201835792883998,  3.845594799711391
 7.796263330039828, 13.598123030692332, 57.242025028070827,  3.732309664478084
 8.703722704614583,  1.386818116759183, 48.333282800713356,  3.721566664878361
 9.456661244691100,  4.663421041189733, 35.933807442961971,  3.914766040958834
 4.678722991336608,  1.675737273074079, 107.160299402069839,  3.907551889106593
 2.830632689939555,  9.906857887534423, 78.955808685378756,  4.201132183262869
 9.789709912779559, 17.308901795357134,  8.414968076786163,  4.341119610251872
14.695365186474790,  1.238247052484902, 38.994117384316795,  3.911977866827067
12.283751371577527,  0.791917015257921, 81.543350864710590,  4.018745812675125
 2.521240415779470,  8.219881786894355, 59.168343806359516,  3.632035950203627
 5.317086289992109, 12.780610679958533, 106.085136623302560,  4.205165851807877
 7.731606326856880,  3.626794796046319, 92.372334642440833,  3.878598477103119
 7.757289567022315,  7.857810085742246, 18.849586798024312,  4.110216208029342
14.167780016214504,  8.093384738466233, 111.705372677626542,  4.477528213943951
12.520111011818591,  7.680055162772653,  7.687602319112596,  4.274311405980423
 0.594235510491819,  3.352567256302738, 80.465379742573518,  3.926283812016561
18.938393084181829,  8.085950191188298, 38.057999262183401,  4.671675302921200
11.373109119199272,  9.418079898593241,  0.074935771425670,  3.943192019745953
12.358596832866656, 10.894418899942650, 40.667788925769813,  3.864135232681141
 5.521819282306978, 14.652680556005430, 85.164242108343799,  4.175271698787284
14.644144937602974,  0.242514032343524, 85.453482483147525,  4.223210458031832
17.485352027983925,  1.175636659460785, 78.086487747185700,  3.714524750320221
 0.712817413493829, 13.876751237115121, 54.194755612274449,  4.286061329090465
 1.240295420792919,  1.676476001635133, 22.861198042618653,  3.814794647612744
13.475515186012494, 18.772911420795136, 10.373375925317751,  3.879258557556064
 1.943309369364722,  6.307055520756142, 63.391279350894735,  4.280970146311875
 9.187728449185663, 15.245926193750790, 95.457952344053595,  3.973362139268423
 9.629182436139516,  8.599961691351744, 27.738651784742586,  3.785616819832283
 0.915194330862284, 13.309488570408361, 25.843169260271033,  4.150555367374366
10.628426401633432,  0.596511090433449, 59.800275786388831,  3.394945610992153
10.086529511655529,  7.237557169423790, 63.894149914890484,  3.963795908852307
16.766399940799140, 15.618078471754970, 86.207227330054835,  4.134909704908893
 6.291259976825694, 14.458971676382262, 77.724541106001936,  3.900112711730831
16.244306538532395,  5.313900299638340, 18.278334097746200,  3.876687758391198
 6.854518410297535,  5.706540952103397,  1.219699385076468,  4.080307086403583
17.808139658833348,  7.102564008518118, 80.741061346574980,  4.154510136485307
10.369830317754758,  5.351742658431637, 54.348684373504774,  4.059544928953836
 3.550703542034630, 17.248079870956769,  9.884611599589626,  3.645478993742541
 4.201789106425944,  1.722472426405081, 80.575657809586119,  3.986610458933022
 7.983929238089640,  0.757444177936562, 82.687946076837392,  3.910741861121084
14.736533625158547, 15.187966270671202, 47.753220230346457,  4.430191323762268
 7.327240391416176,  1.790254071832480, 58.700274281392467,  3.950491178988235
17.750510421706519, 16.137447662133773, 78.146316415902604,  4.263675453272446
 1.233302983983309,  5.481419000937935, 34.067634163866060,  3.982267243480033
 7.419092604404327, 13.636328682215531,  4.815917124468498,  3.976021673575660
 1.749270037388028,  5.098970430804203, 40.473426064609939,  3.782045564142266
17.695958502918131,  8.143684551898797, 20.860690497938542,  4.290424911139314
10.876656417098427,  2.095363957659449, 21.618684493641375,  3.817921532525055
 8.570083489251182,  8.931554065993147,  2.822457241904422,  3.827956088846999
 2.343812159354784, 16.865498934813079, 102.268624215709394,  3.930569615671399
 4.135529534900138, 15.620333838523974, 69.940508601395607,  4.272549889469603
 2.991144837913940,  1.713723412550809, 28.477757393850649,  3.994303426680644
 5.100805729258145,  6.338032468502181,  4.745601129001972,  3.851886475544303
 4.654414548910296, 12.705472322886168, 62.673854546931089,  3.652753038722707
 7.294956701932104,  0.040483854026349, 20.838745560050750,  4.129651240530704
 2.217412398198483, 16.704020047351655, 29.274586885600524,  4.200107072122860
 1.286702236328876,  6.394819491735651, 11.941843303879994,  4.503458969651181
13.631482758071655, 10.826226284933952, 44.391048111448178,  3.868031598801444
 9.461162992544480,  6.887932050802065, 67.762789523054408,  3.896304226863565
 3.633180917488897, 11.458523693864940, 98.920532233688007,  3.965757643436537
 5.965963265231786, 17.859529153245546, 96.444445208582707,  3.975507381926111
10.812149421702049,  8.384762850437339, 98.627182330143611,  3.809538699648921
 8.692156532355705, 13.127451430031678, 13.611299851713609,  4.049351017855011
 7.447258618136515,  8.059588061193407, 106.131169401422511,  4.181310842205105
12.240579791509054, 12.178708623353112, 10.980030539766046,  4.077117969666912
12.764941738553135,  8.020705034466465, 46.804250718415865,  3.704849884579863
12.541798757811721, 17.336117330917830, 74.058378489324454,  4.239546350699453
14.467267601057010, 18.616506388084943, 99.680691312563283,  3.702843386442222
 7.381820867944452,  7.756667402645414, 89.063462577528654,  4.316309740460009
 7.419709041633114, 10.241422912232609, 63.877460716740266,  4.064873198710632
 1.227143025622727,  8.772519100272227, 42.370092978291524,  4.240110881798319
 4.632426240746080,  7.599284901873285, 40.564560759796912,  3.801353431458502
13.708883699349933,  5.199387299158917, 103.523846150576887,  3.814200268370634
 6.338288740879302,  8.512247779919869, 30.302385642350963,  4.351822958916639
 4.280094151054301,  1.189151373362580, 103.276632706672999,  3.940968122401984
 2.351628225044640,  7.729524124312017, 31.022170904755448,  3.885595983575923
17.183464743942793,  2.087656771168324,  5.734642033255450,  4.115082076397135
10.869302452847856, 13.108066203700727, 29.667511440581968,  3.794978870086231
17.857686209270543,  5.230275728598993,  3.051464637698559,  4.246880030774354
 4.289180786411518, 18.550922007650499, 84.060302718158354,  4.173736071253154
 3.793814841630384,  4.084103080600656, 14.453135778030997,  3.934000764384666
 6.003168889845175, 17.933665967435804, 27.975455249328938,  4.157201182436729
 1.724295998389185, 16.260008864695074, 38.349219175293626,  3.975329170094745
13.671240714362186,  6.094769219977564, 97.419349817927369,  3.859952059802187
15.385629859781748,  0.669321984525019, 54.980028261347279,  3.767394267471337
 4.953629429649805,  1.039021279788270,  0.193724550918703,  3.965790788631203
12.702927020457514, 17.028386191116326, 117.171268891809817,  4.105631719851686
11.845364991237409,  5.119940175851853, 18.778046278099250,  4.385618042610048
14.102688867278546, 10.596911171066305, 97.702404032041713,  4.290332896922814
