BANDS
8 8
NANOPARTICLES
cell(1), 18.939
cell(2), 18.939
cell(3), 118.368
 9.793568535449941,  9.723273299855947, 92.709709913849878,  3.972460329702153
 6.347367700790972,  1.696649995046245, 40.505270401938510,  3.886846338057129
17.448697256907067,  4.273421094665230, 93.710607605257934,  4.202229514403975
17.762772951914862, 12.315600172660274, 19.522698450733678,  4.432081300540421
 1.573911764842542, 14.817207317793773, 79.868341391963639,  4.059266479199480
 0.888741887473525,  6.913767644225713, 52.198185424438165,  3.792795626255716
 6.119557750196827,  2.930780702619701,  2.703272843004448,  4.524849134961760
 6.414391522650826,  2.100979330158548, 32.429657703735302,  3.647129574377369
16.050556073098054,  8.956628901071918, 111.246035835107051,  4.016836647701918
12.682038247940280,  2.239048303965190, 79.510661062636984,  4.094154193648397
16.964594566590339,  4.470454885700852, 105.615902379150583,  3.768414585584765
16.431932912873361,  2.217899976976383,  3.399206500384026,  3.802787449921841
14.996590536000340, 13.899496224309869, 33.665330744166774,  4.122968969765199
17.277698484679348, 15.497550088404646, 82.531211414346501,  3.828479228636690
 5.697750596502454,  1.601700134835507, 78.794798444816692,  4.197841222707915
 7.078246679733063, 15.087381388028481, 51.280315945054987,  3.573906310794090
 3.946448823896489,  5.448688180582899, 118.245463651308114,  4.184751320742891
16.935101604239712, 15.184258176774460,  8.566422390562396,  4.025818344152809
13.210043634477064, 18.350708908956577, 88.346413822650092,  4.477527189144183
11.508127219004027,  9.069266111721294, 52.557946235596965,  3.913217347552444
12.914671325591936,  2.485308439769902, 67.364511640510500,  3.940328628879559
 1.802574812184348,  5.750760278659909, 24.854512455865198,  4.303218364727783
 6.330354950445490, 17.797573902357268, 19.992523594943350,  4.108189955725625
 0.627070775936134, 18.165796518209678, 98.497834811240821,  4.041400565011000
12.839074892087369,  9.474952686095529, 89.960416419681493,  4.235504555525108
 1.413237043214297,  2.947410883308075, 111.383986004917432,  3.987486432443747
 9.121696524776656,  4.398120136618979, 41.744149328009577,  4.203749771467733
 0.709667594603007,  2.445882034383899, 18.449089609578721,  4.288995988234942
 3.988370442247970, 15.742400650183550, 87.310738211488200,  3.956444061492450
18.700519781632376,  0.161115257487068, 10.116262415549230,  3.889457536694598
12.714050731681061, 18.472946213107384, 112.775719108535426,  3.842238135790232
15.605076695866924,  0.988425971397559, 110.400819708361823,  4.084967575547712
12.427267559429817, 12.412946998329154, 67.943035599870427,  4.230282122681960
 0.666471691507596,  2.031929791276589, 65.137300591791686,  3.851665075380303
18.468542530243127, 17.965565164644680, 31.849615155516936,  3.620170470502095
17.848976907640758, 15.258248484013913, 75.573090066443427,  3.898871192145572
11.417480097910596, 18.775462811614410,  7.381161489940799,  3.579875149136956
17.897079383076157,  7.620814725188952, 26.943563276051819,  3.673261064340792
 4.236283014382342,  1.312192047465138, 117.359440178322387,  4.253937468894124
 1.813329758419429, 15.674709629063411,  9.869214750705812,  4.071834124026327
 1.243433584993952,  4.622383068799630, 77.609620621472487,  3.990107598017893
11.097980010805648,  2.092368652179277, 93.931967839542679,  3.859876857670885
 2.231479360307242,  6.231394255288746, 95.740734080632365,  4.364720532344299
 5.339441778162723, 14.005806003382117, 40.711495220271196,  4.140829862423110
 9.733292052187839,  7.169714071949859, 11.502417030445079,  4.056028871029983
 6.694169969312177, 17.346367237740445, 15.974796750765494,  3.950280412623265
12.726051970189930,  6.598485177804545, 84.977903514351752,  4.049229549074496
 5.780272821317075,  9.449242105333516, 84.008229823657771,  4.089072753249988
 9.227967653602626,  2.863851244876261, 47.874514886403119,  4.446742263548273
 2.122281481516841, 18.535804962389545,  7.070555519043867,  3.848563420222248
 0.130923394580405,  0.931690461988128, 57.744149338995655,  4.307994491938542
 2.377503346250650, 17.307956130880569, 24.893738800891953,  4.227230997103322
 9.484380252408419,  0.243339312836127, 34.034771235823456,  4.189810289902494
18.912292977882057,  0.566014520856094, 102.570695624764269,  4.181365565352984
 1.491049617257697,  9.674819692817849, 44.996984677335696,  3.934335307466725
 8.334271273560201,  4.962657477250795, 80.303193799472467,  3.913374359376566
17.062261058816379, 11.405585842114146, 99.950088983625278,  3.809990514536086
 2.924407231369365, 17.880992147168609, 17.495170320814470,  4.200102006685840
 8.343300393833459,  3.601710697290452, 65.261152705535054,  4.074779583815364
 4.908062878534848, 12.224391331904519, 63.808510166444321,  3.728389095019101
 5.654330004186432, 11.659975382854554, 73.686495719847173,  3.901054143633847
11.792482733709949, 17.940946097532279, 84.174258368191516,  4.193099795136250
 8.709887253309059,  3.489754906270493, 100.496411521846895,  4.214497645094371
 6.611626376001020, 10.525543130241036, 16.605962359841516,  3.996779748746168
17.095259891372738, 16.958456977133899, 89.581067070068912,  4.119229217681722
 5.107304636781117, 12.389107890674667, 102.934214216745318,  3.828842976341432
12.028614128110679, 17.482329827905428, 101.967344100681771,  4.448309183296970
 3.558118537101819,  7.486743406831271, 30.562982584701896,  3.550078931194203
 4.403048022055922, 10.607788012111577, 54.311229122382819,  3.904216727448223
 6.070346920557480, 15.048489579607292, 90.651162382822562,  3.931651530315929
18.308597065618226, 14.090990614054006, 31.091711986421814,  4.256089996598225
16.783405896551411, 13.180851504998643,  4.117355167022402,  4.279006718795051
15.285693605324738, 14.729656253904944, 17.238897483453503,  3.756408899536112
14.888703892951030,  7.076726773884073, 15.463766367738522,  3.869087306961565
13.672936971587184, 10.263282323019936, 34.985500319632678,  3.911102858017542
11.434335836080626, 10.998493678066879,  9.893573559796776,  4.047087852570701
 6.847905602778832,  8.533132629047024, 117.757189519730346,  3.996036977046581
17.255616586254050, 17.061825425111973, 78.981661671779420,  3.878280424368381
 4.069412498918322,  6.488919861283953, 54.657556762849602,  4.276041755678109
 9.814423101761170,  0.267189650694686, 41.603843171038477,  3.913242142061802
 5.214551565597880, 14.477498896142171, 83.541594438777949,  4.329292103398562
15.029557073572974,  9.554116957236420, 78.638593385810495,  3.677978149958468
14.094829405229911, 10.706608035631257, 17.614250932450133,  4.031134391890926
11.781114889496209,  2.763952852496768, 110.432709555209073,  4.336969900304647
 7.504974272803678,  1.786282406566704, 44.274610989399335,  3.745740800274371
 0.680826202277208, 10.877385799721276,  6.701767989241436,  4.059181534308631
 1.204581524567642,  3.106929796946640, 99.568797262806129,  4.057953196153349
15.398276355908843,  2.651066345052301, 29.376704724561780,  4.056087879888858
 5.381034533198036,  6.791799304841124, 63.341854745839370,  3.883370324497810
 3.831127099114003,  0.453430906881354, 60.602996219948096,  3.825302115866451
10.241589591795224, 16.440435758016040, 105.623328411802660,  3.666593392691953
14.693590973328734, 18.448516014205001, 56.761486065378271,  3.895597676874214
12.549702509384769, 15.903598529642858, 59.542060997818957,  3.674298623508687
12.762474739064539,  8.224970940771676,  5.802033679568478,  4.260417963551582
10.777741728843942, 18.772763726845358, 25.645595407732969,  4.088769602285517
 9.535079183405527,  0.788853192071763, 17.950890588947694,  4.288641595335251
 4.770806285770665, 12.201895423383808, 50.860494284729590,  3.725383926553963
 1.754964835874090,  9.900491998223643, 84.337919400682537,  3.907248115304412
 6.738653725039668, 17.727277919902772,  1.507932934523291,  4.100560303571615
 0.094069221060771, 15.099701650743523, 16.612206401768077,  3.803139615060562
11.243051590447743,  7.151186906564178, 81.442169177105171,  3.694843655029699
13.806428588320214, 14.118042629750544, 71.411378152609586,  3.925730402217428
 9.495181485238195, 12.952915465515719, 90.394759191009754,  3.993724383156951
 3.011885603208120, 18.840303549363419,  2.670646252720213,  3.933768017282150
 9.582074974879001, 17.674825780442820, 90.775995474758403,  4.318928840123276
13.592865300198760,  3.175925641631435, 54.574699810258849,  3.809535504786937
 8.276212626915916, 18.566119452181777, 67.116656586034509,  3.682407043003099
 3.658957559253775,  4.492343548438647, 50.738928578321307,  4.123342517064395
17.253078863106559, 13.338214336951635, 36.988066844098007,  3.982000928350145
 7.565819118121963,  2.289746974609150, 26.488907982937235,  4.053697656371830
 7.819207471848460,  2.461147940919344, 91.701012111737015,  4.093810107442838
 3.872684394456549, 12.842547858463799, 44.377515867264357,  4.088226188640715
10.085317532721593, 14.985533562532364, 41.357351291219821,  4.069931985301569
14.238901899440343,  4.212611693073057,  6.165316197190026,  4.277460455207801
10.779530686405433,  5.073219181480832, 107.152702102172981,  3.823419955623925
10.902932866398860,  2.330294168804342, 104.002954660498006,  4.327283441827219
 2.034929858652739, 10.432477091927895, 109.757499611210974,  4.389751216451031
15.994550649635183, 16.222460597061016, 108.956149553110052,  3.892002144089891
 2.323849485432297,  9.639698737175969, 74.607318990990962,  4.030660550769900
 3.319801564003428,  1.069695469607784, 105.033092456523391,  4.103857001340777
15.901951840940653,  7.340347629419746, 91.453011112050007,  3.805481327748874
16.713225382182632, 12.538355868785109, 14.199966269381465,  4.258053546205180
13.130303838806814, 10.564598310365131, 86.006462327680552,  3.946033891063523
 3.442882704051993, 10.803421462095654, 94.658834240993372,  4.337790526355939
 6.282069097925389,  5.550124129710635, 112.450414549472328,  3.710566675940272
18.491991465171068, 10.007289992159373, 90.334393926217786,  3.923273058648380
17.070852717408126,  7.634561756345769,  8.203741695816667,  3.915649875316656
 4.928292410371580,  4.839247804499768, 28.240355327355356,  3.859713312960485
 5.010108413599411, 17.007266111148237, 68.541176954174091,  3.950304660536798
 3.341563598629377, 16.673194353208356, 45.354030533101707,  3.853511797180530
 0.088167074351240,  2.575592170539200, 50.791230710907435,  3.690190564530551
 9.224626536240969,  9.351335934034548, 31.817032156678966,  3.598841366935215
18.078232193038303, 15.020045651539458, 68.659188001949673,  3.894497587071098
 8.851208390721744, 18.197182122896152, 111.397172545344048,  4.343648751342783
 9.018971739666338,  7.316914646476356, 77.227848654021344,  3.946777972369380
11.856054566669878, 14.359961195833833, 87.036500989754501,  4.320072618583986
16.675501641239986,  8.981136797635859, 51.719627195239489,  3.751093192245510
14.215266787142079, 13.618156396256841, 11.175714517167249,  3.861644064708335
11.629508553231190, 12.207395428235289, 32.276342205643608,  3.888164358729437
 4.636092575253680, 16.776921082801831, 111.216514735061750,  4.172099814756788
 5.055962718058145,  5.787826740932269, 34.935637387123599,  3.812371727851603
 9.319596355121503,  8.425697031048189, 73.382726026588315,  4.078959134947524
 2.492806733714882,  9.355602327166221, 63.464907524224060,  3.733845113630088
14.321302289553264,  7.151429392393798, 37.216390484763259,  3.793149194751682
 7.658067068948702, 11.556906411174193, 43.169522792988417,  4.196498969767308
13.467138777926102,  9.121482264983237, 61.647765393387694,  4.250881291944673
15.080673393296381,  0.619241457151739, 33.044207647346290,  4.123067488752180
 7.447805979151936, 18.921798322631599, 71.114027834163849,  4.031964534825305
18.115416909996771,  6.177367056648427, 36.710246328136286,  4.034567396143459
 4.144700543350646, 15.531317290460484, 62.084902865550589,  3.759883844355775
 1.596056875053605, 18.890291687978465, 36.820801121633266,  3.976638190998001
 1.904593684078151,  4.038656175873473, 61.082939534164709,  4.329913926250367
11.387628815292622, 12.127165082598234,  5.998477128646359,  4.023272518636213
16.008629578827957,  6.707743719281527, 114.560887834880660,  3.990169617094165
 9.694216815496869,  1.132889517658105, 22.027516682580174,  3.898918178534100
 1.381608819223497,  4.251150611958825, 47.404704694475328,  3.913281846411782
 4.354015956760280,  1.376035290945403, 109.030079457103398,  4.164926860413076
 1.984326464734226, 11.827994718464646,  2.779794304533680,  4.388967278450660
 4.854168888598738,  8.370573827844021, 51.079794036194841,  3.908947803352379
13.462798547198972,  5.626590126613062, 64.146698515115801,  4.244676169379590
 9.110915551096060,  8.666016754966860,  7.624740933575394,  3.943958759492478
12.871631097458490, 10.034021644086845, 44.623918007716817,  3.949829410894671
 8.163041593164166, 14.821293655005809, 117.616404180891919,  3.783060455936753
11.475678113412467, 16.028892908828809, 17.282275908719242,  3.872046299405470
16.594907410185947,  8.049583583866445, 104.147026240538153,  3.999879544833000
14.946151276000542,  1.333079855858559, 82.821306754501691,  4.095838258661114
 0.900909720853903,  3.004376491098942, 85.312332288106802,  4.020092764424608
 6.371067470154265, 16.964755009709577, 32.427490226203325,  4.057838606224307
10.302462036926405, 14.983779225743721, 98.219525483052621,  4.203771778970912
 4.886935226858435,  8.484748894000104, 103.028918214895370,  3.978874889556363
11.522990346907489, 18.242074286560438, 69.578136889324369,  4.285912894245960
 4.539212082719518, 17.478284835648644, 96.993874947344011,  4.440037254328270
 9.547954352877987,  4.801804077209220, 87.063658716220417,  3.437211598026994
 5.594992835634461,  2.328837602869803, 54.174152185903502,  3.912782233089509
 2.249797292063214, 15.587038676298206, 70.727608559891806,  3.604593935769179
15.983886314892811,  9.761981758723538, 96.767741422695991,  3.632795283902764
 6.905680696827164, 16.876353570441935, 43.356668229459608,  4.246481539212989
14.207229111219556,  4.994245394698047, 81.795161592132530,  3.645822475765945
 6.666874756451973,  0.869854236377319, 12.789328449176132,  4.008224170777177
 9.239683494842788, 11.283949420674112, 111.074173894954882,  3.634160902014268
10.055937567478921,  9.938216375754889, 83.726985848412980,  3.799228749150662
13.418437515821681,  6.713612993628805,  9.681795048672965,  4.169737788621312
 7.704850702073760, 13.079336157848434, 32.251045546080832,  4.140387783946791
 0.233331806297283,  3.434255379940950, 43.819695109180252,  3.752528353657887
 2.881464030143443, 16.177562188561222, 30.272724876948296,  4.035568709102428
 3.621154281270007, 11.189225787550571, 80.994613914299919,  4.071518376456075
 5.949088421438569, 14.137906783437884, 12.265634050696873,  4.014918354841061
16.363181598375714, 17.211122551188403, 36.116215816408094,  4.004820216999830
 3.885738240772451,  6.646096125911711, 45.598043626814558,  3.864521274328737
12.026487799789798, 12.736991097333863, 63.819601079929321,  3.823580602100748
11.288042118019238, 14.326066209239995, 79.340927080544773,  4.274029686687266
12.887967905367031, 12.886798582343541, 52.265569799278587,  3.686146444943318
 2.213578159866106, 16.224901311562384, 90.729264674452011,  3.805930300183818
14.733720040831217, 13.341187322041904, 46.642869177927125,  4.248462434453783
15.905277817459416,  2.607812888180461, 117.880394366263118,  4.079119790568771
13.149982115460633, 14.996401492317302, 55.889061358045240,  3.745655846637581
11.660537405748970,  4.432212211413042, 16.216678119097409,  4.272173260702514
15.647139192095365,  7.283505692807852, 19.360280864855216,  4.073208918144610
 2.927554123026983, 18.538458911644330, 52.580033474610538,  4.046623747785786
16.800863216904720,  2.359499456180612, 47.208259846203923,  4.082938324291859
11.498229442571505,  8.061277609593818, 102.194583057421539,  4.020429483233128
14.319645021007766, 10.773595899154010, 102.514010663563411,  3.804126284029870
 6.370481764507868, 10.918158554227528, 22.750672994606472,  3.706444720848521
18.091104022187267,  9.320336452024641, 72.142247106629441,  4.022192048080047
 4.304073213875092, 15.220875205272915,  3.488601478936753,  3.920690423090542
 6.607797979985978, 10.020890672932614, 90.135397135052116,  4.235879656519990
11.102437905692993, 11.712980518075634, 55.484101419787677,  4.014986470850811
 1.023374035192111,  6.918140565883731, 41.905788130836974,  4.334101248450050
 6.434797300126299,  9.789743713601696, 70.423433953851031,  3.764145880050731
 5.272865485923469,  9.813258448052727, 60.891261312998246,  3.853098039105872
 7.447024636063105, 16.318442599937484, 94.151316143346293,  3.970772143646969
 7.428933003771856,  5.430736024613056, 97.087194986926235,  4.019840461941658
 7.896999346990789, 18.111067571231164, 99.654165736707327,  4.094173462703122
 7.714244847056714, 14.545667280033847, 109.788229710224087,  3.911796463915313
 4.315637505057973, 13.652996393493899, 57.963190061761892,  3.864740853936678
 7.177380446257784, 17.614281601481281, 54.493635361105312,  3.975242005401569
10.890219719612697,  7.316255316034306, 34.556923963508837,  3.939493557937301
17.236268216790606, 16.348984258990793, 24.339630135996487,  3.992577648243389
 5.389356221284824, 10.468836213105760, 47.399285873997272,  4.083978126423042
 2.506128293718763,  3.120948244211366,  5.134239230829204,  4.190332563262548
 8.624661078545479,  6.148121952712183, 27.518735553450057,  4.100378944375613
12.572117731808204, 16.800893637896298, 35.051932743758975,  3.869306929697889
 1.710542544634069,  8.336060098339109,  9.911158390677196,  4.098027118164738
 8.458565353142916,  6.470548593028973, 83.941220728736070,  3.846772779587470
11.176382213717911, 11.172082954983368, 41.365147307184060,  3.621616996866222
14.318433756985632,  6.409519080912559, 107.918680814243686,  3.857370992003346
16.963803389968376,  6.458692923495494, 79.624305054993030,  3.880000450216541
12.359201702949093,  9.500753109576268, 109.568951189868073,  4.037062428114663
15.898955059166360, 15.700737324060331, 93.998873312950451,  4.007123321042216
 8.624582788919891, 13.865985158973835, 15.645803988011545,  3.979673658678161
 1.359578791634032, 13.536621101597465, 83.476712651495731,  3.583671636171238
 6.307867658209029,  3.190711058505634, 22.653833522362142,  4.105074135961855
16.749342934081145, 14.766043609836684, 57.031547947740272,  3.801115937014018
 0.043766778917436, 10.979127075833700, 66.026609197164149,  4.036369611082543
18.124408302261710,  7.852967059931451, 30.778023895846250,  4.013375613834083
 8.439551704083151, 10.058386258877645, 103.716339999990254,  3.873871377844745
16.682438983059484, 10.033306390025217, 43.504328783916783,  3.992292313918045
14.719937908228566, 18.437517198325164, 26.826879089248120,  4.158088184541114
 0.794085182685156, 12.814570308192728, 55.415069793705456,  3.761685145854261
 6.937095795611135, 13.547577754803786, 19.681365455236023,  4.452926251736075
 5.277362576413399,  3.597417414246511, 102.631792240825334,  3.805677567680438
13.965319480419977, 17.278852055530145, 97.980846218669512,  4.324163915943650
 3.584017240141655,  2.343731849861645, 75.010362594517062,  4.182883239705235
10.135678470776055, 10.911832815397956, 18.574412949570259,  4.078524748480102
 7.281435446619573,  3.777493213186153, 73.821579526126484,  4.089773996741357
10.871346532765306, 12.038587629157215, 59.969000084430306,  4.188657043753131
 5.147387889390504,  3.235660077339455, 46.998794883943610,  3.925591491349750
16.791519543318145,  4.929672655535337, 110.889977623521162,  4.142693469875799
 9.532211121354933,  5.945884916959688,  4.380577766223960,  4.003571036676437
16.818339471809896,  4.548293932006881, 66.264323178661328,  3.968106636906637
11.903225856260889,  7.913558273976766,  1.702833736754172,  4.106297476094647
 1.803313220821691, 12.239823586945358, 48.306284920756561,  4.105000625333266
15.134644793776388, 13.078721670912561, 61.144672343647429,  4.360624332416649
 4.359917839553499,  7.965316133148339, 114.698150067107363,  3.913402015126985
13.082201282599550,  6.383431485252140, 111.923287281467069,  3.902904722434041
 6.709860259384626,  3.991268909716038, 115.791601069943965,  3.675603680826747
14.381116217478207,  0.235439881593182, 92.493860297437081,  4.149131764493870
 2.973054777818936,  0.145177981175357, 33.077875694595988,  4.008477597615134
13.247309040517576, 10.252827806767176, 71.888724032474101,  3.927039200047414
 1.902117072593140,  3.607739435177535, 35.408560511587744,  3.885252321736583
14.170025873851733,  3.220320161636825, 96.361561371243241,  4.199431635794537
15.175370804844203, 11.383787728207544,  7.780906842631254,  4.466653102691473
 3.243401141709763,  1.567071702472763, 11.059458892053156,  3.690448769186287
 8.118511077997315,  8.325662720468115, 40.452107341599763,  4.160565703646967
 6.316538840555653,  7.677625188454019, 93.732184352980397,  4.349869191761469
 4.738334085587479,  6.734432398319893, 80.810902164778142,  3.879608428437407
17.951268132381731, 17.053631394056964, 72.056783696252737,  3.983419679434065
11.137283418464719,  8.646058181859019, 15.094987123175017,  4.180721505969892
11.347194629760043,  2.749397935554940, 89.972138203942421,  3.783888138939030
14.784549294467986,  7.917202999413268, 99.886578567568037,  3.998189693010514
 1.170543139173697,  3.758447516443157, 68.690381135963264,  4.040661275712339
 9.971398977765880, 12.325442752891551, 22.411503298540833,  4.023923106495654
15.992068473943464, 17.196057674532028, 101.451156088142355,  3.561054936374643
 5.822708214059058, 18.873854086859513, 89.115804767950024,  4.147261873486313
16.332276459209893,  4.426610916459929, 76.319460255223959,  3.922073332352622
15.457104157685528, 17.489075635192272, 46.328541071769322,  4.163803913743434
 3.623425267842689,  1.338825494830983, 43.534383249405359,  4.202002209830865
 0.528545755881481,  1.668091004802662, 29.027582787316586,  4.314766589628650
11.452862598127892,  5.242612624067394, 74.798143990088803,  4.077466973084766
 7.813014926677073, 13.721235022956810,  4.810199866693239,  4.148363459229031
11.834428719770681,  9.871571237655798, 113.617834523031220,  4.159776695682683
14.167112350653657, 14.088320025538286, 100.545921753159817,  3.870060814825890
10.365613818027619,  9.572117521402454, 117.075328747650175,  3.357701288643406
12.273007065143963,  7.222104581216048, 25.861397808158298,  4.194730962082788
14.965074006451225,  5.083357272678389, 43.407551977616087,  3.671002610484468
 5.719800071985124,  1.250347937752179, 50.576945378084432,  3.560230373620338
11.611201696907834, 10.062102789175473, 28.850666709880048,  4.089633413034111
10.134935538012057,  3.111943284629819, 12.367099940766376,  4.256017108614735
 2.167624063543537, 14.751311582248254, 114.497060595995308,  3.903131656080599
12.299190336184228,  0.164110772484558, 30.104802345395498,  4.011497985211014
 6.117897794838535,  6.976038559227128, 24.339611732138131,  4.117712561962508
14.892600575603247, 11.723291776711820, 92.848100892581428,  4.126491721128013
13.596192839665845, 10.406476108733195, 82.078830762210089,  3.960010587710535
 7.499691346075774,  7.136298508255467, 44.224328101427822,  3.837566274734414
 3.701885739836806,  2.178496156701056, 25.529964326910601,  3.897312689431273
10.674734202026551,  7.135789983034777, 49.305922750656229,  3.806744626838810
15.639593109113875,  8.981098861441756, 65.202778100531233,  3.864451167300159
 5.556335381032794,  9.631809132498161, 33.050021641771721,  4.138637096301158
17.648343150767378, 12.378583455709546, 103.637350487021095,  3.904459399195890
15.987659092447238, 15.730538913645514, 53.261766608898597,  4.113065109256462
 0.013691756383096,  5.997957172662273, 89.395356364962439,  4.019884781312545
 0.502173613157614,  7.770196491563196, 101.259470942667903,  4.111441755794833
 3.643652355338754, 17.727990841376144, 40.097640081028572,  4.074041072502520
 7.047103718311807, 18.855658276753559, 75.232025139720022,  4.099572712888541
10.226588820896211, 15.385921448700117, 53.334178754522114,  3.918123813725586
13.580295592026687,  5.381226280170664, 104.190853008542234,  3.797615798434449
14.477108012327015,  3.188899780692863, 19.314033076703243,  4.365006992902042
 0.394165745635483, 15.675144449967233,  2.061682903689470,  3.928576794085151
 6.830458483948650, 15.377051849003665, 65.247381235257464,  4.187692320409895
15.693136852663171, 10.124994008569237, 107.439342501846852,  3.971489905249155
12.621194655400057,  2.920499124699783, 86.425223293316606,  3.593504340763733
 7.752507650965392,  8.430376548083816, 53.899480717163058,  4.119733656832779
18.908230802850472, 14.575998732018476, 63.336778891403156,  3.848425113500313
16.485485898598888,  7.843566841834358, 58.796657239682538,  4.345819557925421
10.891905281362771,  5.323680944797092, 38.055905581816759,  4.111220918155268
18.121422394284988, 11.596514704568758, 58.685618837508130,  3.839709324668603
 8.503734446180712, 15.346047169630664, 69.516613511760426,  4.023235576477310
10.896539874004649,  3.496309176378618, 83.065756597098456,  4.015936012215886
 8.969654482195343,  9.878905185138303, 25.612248139434289,  4.268944653540283
14.794329778336383,  6.661461367735738, 33.134141368115188,  4.473450400692414
 4.652748206320101,  0.754865761323462, 29.175479918661111,  4.129360900032041
 0.777529458913888,  9.653913904194154, 97.667139527770672,  4.006840333184210
 7.746950673247885, 16.316990595122292, 80.083753210570933,  3.985417213477005
17.019628971734996,  4.788927782327733, 53.804782743896276,  3.885128022780604
 9.117248799355158,  5.110491212751411,  0.366394471062072,  4.232097209284285
15.535064532474316, 12.571996235410836, 88.739959787129806,  4.321435450259894
18.520315538679473,  7.619907757803492, 68.406006820004805,  4.227623392493616
 2.739618980744586, 10.103040637739445, 35.719110154838425,  3.668290075720109
16.533144622327601,  4.551518857171710, 70.170227648119933,  3.860657454508319
17.628351454088200, 12.955606224595360, 40.948367870606823,  3.999182949748499
 3.864365350503194,  0.038598567835645, 101.017718365074359,  4.249899626652256
15.007788486786884, 10.055505287469492, 26.738929623086495,  3.872643212058856
 4.188947211486545, 13.868601793479083, 108.024280983801418,  4.049522920679788
 1.353956954925114,  9.602626945257104, 104.881697380969158,  4.151306440254486
 6.936867875069128,  6.793602838999413, 48.093215408387437,  4.003055641374193
 0.146070527245358, 18.803385348448987, 45.166731953731244,  3.815332829207279
 5.918085929775127,  8.609921817906176, 10.215058443610742,  4.269151338928417
 7.122326903212358,  0.133476895337237, 63.106098035076471,  4.318626674359475
12.595241583722858,  9.111777073707875, 75.671711800960864,  4.029434061576440
15.642490691953258,  0.476350144341018, 12.547908110790187,  3.935264910246907
 1.172917074637815, 14.828641676560187,  5.963456771158870,  4.003711513159598
 8.154117749662992, 11.869774061306902, 86.674974936679007,  4.181818507540454
 8.348008499662789,  7.211272107987010, 17.682157183482012,  3.770269762196590
17.730708049574421, 10.140696069829666, 115.369566241388071,  3.823247482628971
 0.811954806626620,  7.249614526517115, 112.755463965761152,  4.221768633875981
10.905468339586434, 18.003613241320835, 56.274462348738297,  3.791849086243174
 9.237333650763055, 18.406728952212344, 50.687108035729366,  4.326158058306664
 8.620136134103870, 16.249341714576072,  7.965720055686060,  4.047302714584504
 3.097207056928786,  3.884561892874095, 31.619695333878806,  4.000952794210548
18.769380504839297, 10.716794589868467, 24.798164849045332,  3.716772861561574
 8.723916501454090, 15.314801687006581, 25.036884261634007,  3.808688521771607
 3.073369760170511, 12.277389664200561, 90.596877271992469,  4.200742421193345
16.529539623271202,  3.967095784319269,  9.619760496443101,  4.014024222382219
 9.548925653414686,  0.700784165440975, 107.563895932452795,  3.890545896365012
 4.706021582390778, 10.302293039920125, 98.748803799506547,  4.224126028786914
 2.618614580013351, 14.266449464893178, 66.553341272653981,  4.338294698876722
 4.770192958826349,  2.553574676161637, 97.944487626781935,  3.820908920673920
 0.546647932262163,  3.771160638368826,  1.493004681083138,  4.006885788898797
11.085317275024089, 13.223988600547230, 103.199122399668127,  4.422755769623578
 4.367767577612502, 12.667355828520321, 77.298024312292910,  4.006749975411144
 1.551427187469911,  2.042098735238094, 95.676000368291511,  4.034515980670441
 2.694971084819110, 10.093887036131274, 57.816830875827357,  3.953320958477621
17.575927712017840, 16.044651220910946, 12.339518350683576,  3.805822911717898
 1.128625390747391,  7.839416139756328, 60.450572598932723,  3.525049752493465
11.199505008506966,  6.372776688394755, 45.456975003432248,  4.041250264352920
 3.094267501233218,  9.254530308501247, 118.008602743018116,  3.590497159090874
16.133831297122281,  7.609654148337536, 40.503075270067775,  3.768169240866729
 7.687564466874724, 12.325550034827939,  8.923723868666587,  4.119589273352607
13.323034101124692, 15.334207045666703,  3.818810320197702,  3.865102339512407
 7.961602423050607,  8.659340516966504, 80.927914901708633,  3.588503081947054
 9.664358333981271, 17.261393303206543,  4.244101835832316,  3.910915088191574
16.321357481954106, 11.329184242242395, 69.090529938016701,  4.091451586520210
17.350099637301117, 10.223192780430644, 47.418803254227790,  3.942520882769661
 3.783163917299122, 18.102431847442812, 56.452010658600535,  3.917109754002977
 0.259767251409124,  0.064100316054141, 118.031265021830464,  4.181656240021437
 4.169321607455073, 14.728908460456177, 53.989564466810762,  4.372628215619827
15.411218510890002, 17.647299273070274,  1.019123185927132,  4.295236927199613
 3.468018268765939,  2.290147606906942, 14.977899971791761,  4.246264598739148
15.989521451741613,  0.578153664931639, 69.350546849378560,  4.314188454986442
17.081409798732636, 17.558254495192251, 65.569543525011255,  4.300259571090468
17.550720108037694,  3.872648014402266, 40.085381135021414,  4.161436060667052
14.139722035510221, 16.144183548699317, 76.730837407710254,  4.011682742012924
12.069225743020606,  3.360890966313837, 27.168091437149954,  3.859320042805523
15.997138573768556,  6.467508115428013,  1.374489098012273,  4.467601891453862
 2.142214550599750,  3.923837893861227, 92.000374671166682,  3.848421980590507
 3.133519959688392, 11.695545887908017, 19.997870746352277,  3.993192643707494
14.148752415319816, 13.168688738209809, 96.668781692090079,  4.091687453305142
 8.457298719016515, 10.117577843041166, 96.630466452184720,  4.326942713432953
17.699409225609447,  8.233594805329146, 76.076459678789121,  4.169404956793041
 5.466693907905288,  5.395090083954608, 77.117648500786089,  4.096213801004241
17.399301088025478,  5.600601721327763, 97.714891139160741,  4.223431175474058
 1.408212398655400, 14.396764656330555, 110.748645253397740,  3.771331055527432
 7.698612131969154, 13.398577654888919, 105.883772571827308,  4.223761560855936
 4.057144025909428, 15.533811514019773, 49.043415274416091,  3.991380511655870
11.261094661536074,  6.712575810757841, 98.091041267164456,  4.244477930914852
 2.203564507840516, 11.581272883808881, 41.110711211097254,  3.490872768573864
11.494832800918180,  3.020171662066377, 51.207630870159846,  3.594412122202204
 4.023742637092477, 10.154735425562851, 67.147138053110837,  4.322313432683885
10.055809052374027,  4.802760001484655,  8.217728444490179,  4.044737633359895
 8.130492647618738,  0.739180867215765, 116.796307922924385,  3.696287226441119
14.034051034149206, 17.867485642842812, 72.993790959691978,  4.214097959600270
 8.494497917937570, 12.263306395957580, 38.765500456868338,  4.030941537762681
13.864189984445840,  2.568097026993923, 106.868367407239020,  3.922633946180561
 3.169598613182740,  5.968819277142652, 12.960197921416563,  4.134236134250169
16.122026647341904,  4.533084876732608, 85.918427204060777,  4.105674778723155
 4.979143649028798, 10.135916365293038, 106.693440013603009,  4.021088906884793
 6.593093252841737,  2.866317818819053, 83.209289284160150,  4.034396430918485
 9.280711330812274,  8.126919950734811, 21.659096057703465,  4.360947434269347
 0.318517445945653,  6.715535599928919, 85.656101328694646,  3.522174194835920
15.665604649975291, 13.297812411963440, 65.366696962303635,  4.160925768398632
12.819426028395210,  0.284957734470520, 48.836169757608459,  3.891367602937776
 3.952749925671542, 14.732725663692552, 93.843325468868144,  3.714591236208666
 1.097424392378606, 15.863189957516196, 59.071804533062306,  4.239662961928421
10.888884922966637,  3.053231994122163, 57.615390925221625,  4.193323282628483
 6.397892541982595, 13.723824967967641, 97.031789978712439,  3.931226035758895
 0.846978107088545,  5.785551916756696, 73.435278499804866,  4.150324887447600
 4.903215847245275, 10.789316252290918,  6.029933729631294,  4.446935723099268
16.916272395794326, 17.375452575257675,  5.020150078109443,  4.264389024056872
13.244881174511219, 16.063512312151815, 23.747089036836172,  4.034158974582101
 6.698087557059300,  2.949031807710877, 106.196460639011534,  3.716986295657544
18.058972481727082,  1.863606216458854,  6.779731331655037,  3.686653696102221
18.059476476884853,  5.398751746441083,  5.121117890378509,  3.906873455466981
17.788984848427702,  6.705272097571493, 45.497672767049288,  4.064772654662591
 7.634880517676461, 17.916339528473031, 83.781897562817903,  4.069365101041964
17.212517240082921,  2.322086702602291, 61.014984216977773,  3.695492449632997
12.523447407407639, 17.870352609884495, 10.825389145315791,  3.807394338333649
 1.325553517516038,  3.587215920515042, 107.465340606767455,  3.953065025627887
14.303825597813551, 11.100348072167970, 57.658489919723010,  3.811535650716201
 2.698154142548660,  3.129495071695259, 81.460211918120351,  4.348190999512641
 3.860851550813791, 13.763903495051268, 33.289709433316489,  3.757561174972858
11.084452144806516, 13.082807866628581, 108.233907009597388,  4.011594527737467
 5.242671603503507,  2.436341291048506, 18.669757506455394,  3.822884771943488
14.969681599106762,  1.478547726983333, 103.219054187669968,  3.968857647753071
13.847926344137157, 16.273544065253311, 14.059439967303023,  3.869861303020251
 1.611759634781353, 13.635263513778899, 13.304782101459377,  3.915040856610113
17.283121088446855, 18.103121315549629, 50.188103873636486,  4.053350677023739
 7.589343508743075,  6.013325029185905, 70.386861883103222,  4.129063384438227
 2.729394489281759,  9.304033182474415, 27.186343083558050,  4.275189822895147
 3.924977463191474,  5.718344429225998, 84.641458837101084,  4.210241289167794
 5.941976145594158, 18.433465284371021,  5.589989406647759,  4.324755146335770
 3.765709528486913, 17.909456599920230, 81.464775035455901,  4.105286200143925
 9.329981228146240,  0.875490671171689, 87.053113603247368,  4.196188954307574
10.199866040761055, 16.356663006219595, 73.057976981908539,  4.028132760678949
13.045162920377646,  0.379739348463501,  4.000396118358386,  3.995907200421018
18.888027137469773,  0.607228011654590, 92.224463425965027,  4.089626645317569
 5.383748948119560,  8.337644762382816, 20.047611649268859,  4.015942792636755
 2.630617406668767,  2.973003245192481, 39.309444986545543,  4.096461277486877
 2.814456460608922,  3.762129839077118, 88.401524336441085,  3.381780604028637
 7.504261396966483, 10.746013903577008, 57.518368133290295,  4.440282050282328
 5.081057074512500, 12.376330692560531, 116.353523822738268,  4.476209223084059
 3.233016410301908,  4.286529636637661, 114.523621698584421,  3.734320335310756
17.433874869023331, 10.437676191554869,  0.902114515056668,  3.988827717225107
 0.138168348710104,  3.225754915131440, 12.659033506791021,  4.038142376581739
 6.958609784442526,  6.337698034364542, 107.744485507795901,  3.725867720997190
 2.939180019309435,  6.957388857561311, 38.094497650226359,  4.131081110818488
18.625919121727957,  9.025247991649840, 55.339757610289965,  4.121050865217743
 7.530546740147908, 17.106495064102223, 39.172206594997718,  3.875077348179044
 8.004852350381320, 15.936233995997435, 87.299726017921742,  4.007349212209525
16.167131900691555,  8.085412095541125, 23.419661133539595,  4.141165511941900
14.281841917851782,  7.675448138984103, 68.884733489082777,  4.218860619929677
16.071289599158398,  3.750593833612502, 57.483489404613323,  3.902774220170623
 0.674711395574237,  8.384436803864499, 19.876941781529109,  4.217776931994204
 3.540767193869707,  6.511780964563815, 106.145307444433129,  3.820159692517522
 0.412317513879479, 11.996535751137884, 77.255004945232955,  3.964794565109447
18.449810897874201, 11.946244220860493, 10.405399747353476,  3.977042030065405
17.304870469760640, 14.932439724478684, 98.318062690279774,  3.854681896502619
 8.374091631618004,  1.193669588827110,  9.178391315118107,  3.974429821647472
 3.964760797861089, 13.921320907596579, 16.590845090302537,  4.154270966042566
 4.080090248287371,  0.406065991555453, 85.353084992646799,  4.190585626308910
18.731529222297269,  1.618012016656081, 24.935963926003268,  3.971477067638879
17.192991381489882,  5.791540957765032, 49.452030624546836,  4.137181780121844
10.701487719930604,  5.754524790989688, 54.569989333391575,  3.908407126231842
15.016372077619302,  2.766940350747144, 73.136008647800679,  3.690666275492199
 5.182078665790359,  3.770063286674581, 94.341806162810286,  3.808131805436445
 4.480116159668087, 10.717285754320867, 13.374015854369837,  3.694118158410373
18.419390095013451, 10.548223429043311, 81.003929070339879,  4.267113914538379
 5.793007963139862,  9.161222433607776, 78.059774620876155,  3.664995252963127
12.165052915563740,  1.144361083034989, 116.645610089222700,  4.300969615797516
15.762665027145186, 13.963688016989641, 27.329029232956852,  4.170314062598210
 5.145155449864842, 14.488443297650614, 23.426566507049237,  3.962371635625327
 4.883812437599280, 12.750620654610259, 111.837304396214037,  3.943755930652755
 8.439388746411165, 17.991137381902160, 28.999788552062469,  4.156168562104643
11.290359775352641,  6.464080792854853, 30.583379601366165,  3.901973365252457
16.521382668057225,  2.687203135885003, 15.706693750801396,  3.973061965207964
16.737299901893888,  9.097564617644629,  4.572699054702466,  3.935293544432036
10.833583305500573, 13.466458361462168, 45.084827662764361,  4.079931436993838
 6.537694572095417,  9.387020630857403, 29.017560656295359,  4.149501188287033
12.858488187346273,  3.760114990698226, 100.567603877360298,  4.039530005226342
18.847937821063475,  9.857585190003894, 38.517289369145978,  4.242057545200403
11.359450974329075, 13.086487906313922, 116.154657013714271,  4.044325446289666
 0.775808525502528, 16.951369126699213, 85.206804530279925,  3.944384978224469
 9.343424393410254,  2.684706835910767, 77.179685366001266,  4.065112042173396
 4.074739705138298,  0.111406703045157, 92.951818786939100,  4.279332829540754
 4.536257586238021,  9.036021981590046, 42.554381800945002,  3.912401543457887
16.638487049035877,  1.915497338820874, 79.249439900421791,  3.804559043689610
 0.201305287403431,  5.884334450011200, 15.967577659519613,  4.250176837476411
 1.346548227482408,  0.338613231209736, 88.423937168118115,  4.023435878344082
14.561393330552024, 12.781349365447808, 110.151846031866910,  3.933554055406567
12.475045589153847, 10.691618906333812, 49.003827921208291,  4.130479779451931
17.494965486252475, 16.049991491813110, 104.533125360894800,  3.633321451525704
 0.483553024698706, 18.350652260807262, 62.265475867373020,  3.930980232191291
 0.740989436724594,  9.839184848807621, 13.466042087923674,  3.849484384261529
12.930608415942789,  5.959422703359618, 22.026225918049104,  3.982668256552778
15.609840204351343,  0.344656108288796, 39.520790460170765,  3.944166351249724
10.552202618376107, 15.952083725805773, 31.791240449363418,  3.929111769693341
 0.348794568844373, 18.152231382706095, 110.247627993322084,  4.083678428703491
11.883259383344877, 14.658941876790271, 112.355204928422111,  3.945245265685553
 1.852890408198348, 18.834779924411084, 114.128842813392737,  4.250019360252144
11.761550788745616,  9.224244838430129, 65.464828769023455,  3.923014443773541
 1.768366676140821, 15.033905493554512, 42.049084868226899,  3.556470665153468
16.732919932595017, 18.826040475232414, 114.737738022967662,  3.945153510457478
13.291803912042448,  2.175671258551267, 23.402389780252701,  4.061943306573006
14.246350927562773,  9.628094211465715, 12.482107980404974,  4.071497747223731
14.494588424953919, 13.790171986938214, 105.898310790569852,  4.329269334454890
10.209790879442128,  9.182795362111605, 69.430531480276656,  4.134824419056158
 1.191176707077507, 12.308757282312886, 117.273261170831532,  3.492098294789662
10.352726100443366,  3.254776109320711, 61.685378203181230,  4.024075947301974
16.727072754870488, 18.184703302924046, 18.002390437100484,  3.850211238063074
 6.752350343092534,  7.409003446076044, 14.152832205878283,  3.934994998346872
 6.034639392284614, 16.968632244887548, 115.047728602086195,  3.992217976858663
 0.546699135786931, 13.500891063051533, 87.399741338817662,  4.224355210983347
13.667244686295657, 17.435575034817813, 80.388984017648639,  3.797520871045578
10.704550268121965,  1.513413436476163, 73.133685519714717,  4.213971498972032
10.154691791113345,  8.468138935274601, 87.214585259008658,  3.696053788372814
 9.130395473914444,  6.516633061125579, 90.367128507590337,  3.865243282711634
 7.867116941267907,  4.774058538184243, 51.677386615127865,  4.412378634053228
14.414731619692661, 15.904743420309561, 68.069724659792357,  3.704048383095766
10.450668944266347, 17.698928613867150, 45.745106438211465,  4.438387963111676
 1.113228440172207, 13.883205509991722, 22.772336295731169,  4.065238169263417
15.231117052893199,  2.490202557990644, 50.990574696533088,  3.910496837558249
16.371690405132242,  7.776876965580654, 83.403216503498498,  4.097838375265729
 9.285339998690825,  1.542338245915051, 37.893773375225329,  3.941433746267633
 7.368461952476968,  5.073528738433444, 56.758839637844005,  3.953217174422702
13.261415388686320,  4.064150140895062, 47.970108744512949,  3.905108524071039
14.841868208915661,  6.598209404598466, 28.941428829554710,  3.906644499349346
10.571799628370279, 12.842998640741751,  1.816958309787935,  4.171961942875051
12.081707146122680, 16.872037335435742, 109.103189247581881,  3.903710074232420
17.159338326577124,  0.361179417545144, 75.518579859270375,  4.287728679228887
 9.150408161126141,  0.931996006050723, 80.696188560024325,  3.735485821690659
 0.443547836825988, 17.111872277628663, 20.538735467641040,  3.722484620572375
 0.711019300184204, 14.865362205063143, 51.408498852633166,  4.260614643032520
16.875177255424024,  0.248336752195479, 95.680386235633463,  3.937262990804384
 6.352408486215111,  3.603243298169015, 60.729580390644216,  4.219044695703001
 4.062614914611810,  4.273188914418706, 71.460321654340120,  3.953760754806918
14.715658467726119,  6.855930698489899, 94.998161351143622,  3.629174207379152
13.220940809550589,  6.156089664411784, 78.300614472681389,  3.973074954273982
 1.984106606034691, 13.528119431795711, 26.835916777851352,  4.270400812666689
17.507946858490552, 13.229611741292729, 72.312306896638361,  3.722207196287322
13.608763379428712, 16.373164536672267, 63.400704644607139,  4.110587438881687
 7.533148206725329,  3.711182931722971, 15.620782141731089,  4.157213897406460
 3.509378902688309, 16.074843308093030, 118.006851971778104,  3.987857914493060
15.580403249377618, 13.395670336115190, 79.463646135187261,  4.234393249278586
14.664675146139460, 13.497249045902089,  0.446589361029478,  4.116633274578591
 1.288265531315049, 15.598701852423561, 101.694368931413862,  4.245475050218760
18.737946001918015,  0.177926770122025, 82.019324921581941,  3.965284828567344
 2.575201965368460,  7.815142636286036, 91.884492546060088,  3.973355445052369
14.591930753725807,  7.892383025023997, 54.944662806071278,  4.217742183979324
 8.565593790603641, 10.681611639443387, 63.371445606598378,  4.215644711723171
10.916975954035481,  5.854856233896085, 67.308522039721026,  3.880774398277798
14.877692453718897, 12.618308030326645, 114.178713128061034,  4.062609817504589
 9.509392570057734,  2.486169546097745, 113.789880505557463,  3.777048136037813
 6.308113670895092, 18.277131596056979, 24.045516029610333,  3.993730021407860
 1.727230798277720, 11.567261907008996, 101.298664503549290,  3.826925839574799
 2.021638122705291,  8.447042601026869, 78.515346904349173,  3.978325736468492
14.125997691050113,  9.605110286264193, 117.046411064388749,  4.104137884733084
18.214259877042604, 12.539656281162182, 95.184932892437146,  4.138246213828703
18.610732390978225, 16.730609511823602, 28.008866406396294,  3.876538986387351
 2.985082916655464,  0.964793689226057, 21.671071878444955,  4.127399667169395
13.784496156921138, 17.770463310941011, 105.774842216439168,  3.749396484727270
 9.824009982576221, 18.608276173768129, 59.970215512226318,  3.990510994748690
15.608774580339736, 15.720828131805415, 86.047670670345624,  3.882610115009143
 5.141599083257617, 15.235539036033398, 100.378383944100264,  3.700743655332889
 3.481187980946326, 11.990142968461194,  9.879378960697924,  3.991833770365571
 3.785830521412845,  2.908125709025117, 57.594377793458960,  3.900530548823372
 4.852504694692622,  5.066251667239740, 42.057663832300825,  4.110472729282567
18.624594053539486,  7.292975385839401, 107.967804226480354,  4.202365212862532
 9.575085111650433,  6.435176560150463, 114.537315462807541,  4.254186857832515
10.770279011789828, 15.756668206444981, 66.237422151845578,  3.970745667465302
 5.462635656872312,  7.368289889335169, 73.591337273359102,  3.928117340096752
12.361827297380120,  4.556426153482284, 70.840535523329677,  4.080565673105460
17.278088224067741,  0.798383838087789, 53.964862828841120,  4.034648710119196
 0.300296027357356,  0.494517800753268, 41.396852923423296,  3.829158669601675
17.988116649668882,  3.753574124821324, 32.472161593908339,  4.261794092387658
 8.046472152474436, 14.982035867209042, 76.246286048540995,  4.137951201373004
 4.316591290016173,  6.118190998693509, 67.974467917101009,  3.938117716574025
 6.366040349119173, 16.807990658284176, 59.161379421419156,  3.964747223237187
 6.615702934081266,  7.173204783935729, 87.266962850192797,  3.826101587809957
18.363131068930340, 13.705933683908532, 91.408588282570122,  3.760874958049580
17.212596815771022,  2.234373888999567, 36.300223496913233,  4.053985690798930
 8.437065012229519, 10.717079614497537, 50.466028941503851,  4.215116573826673
 7.594857372116352,  7.924493626692571, 66.492734824369819,  4.094991547371613
13.329862099552642,  0.427078671448864, 16.396284299577484,  3.939514231778069
 4.886255954678212, 14.826969084170333,  7.417029011932187,  3.966283799151650
 1.186284364730402, 10.812346272759802, 52.034721761826319,  3.953511538736759
12.190435351039197,  9.983019965648419, 105.630670200268014,  3.905483564948089
 8.220054976369648, 13.857572790022418, 113.731797179576375,  4.035145460794024
 9.827191828447942,  4.404796283345414, 19.896121074241840,  3.889586619028928
11.201553050341783,  9.377438598087524, 37.951422623285616,  4.006783907363052
14.483844296444484, 10.964493648097530, 39.541099823979394,  3.939363650653400
 2.192092075628807, 13.550548599343125, 73.929682858020442,  3.873711667412722
 2.141495617936962, 10.962863095446817, 113.858301356264406,  3.703637043271067
15.659574743640139, 11.840788631167490, 75.513424434188266,  4.167707265084328
 6.022901159742468, 12.401021175033611, 35.894418323442871,  3.539374504880084
 7.871124287520972,  8.010970165136978, 100.299332652498009,  4.160242477736150
 8.829216958827407,  9.691272496627347, 107.640704748992320,  3.944507025733038
 1.097321143641449, 18.575776971415724, 68.418395673715452,  4.141623401400391
18.333599634752893,  8.696075313165119, 94.073656980947547,  3.800686372666661
13.203497302701626, 17.328113273722071, 42.524670253791314,  4.042628105383475
15.935890760459902,  1.341992548430381, 43.368628640796011,  4.007520133232977
 6.029867021947603,  9.040287287173287, 110.574901570319440,  4.205116193502842
 7.773490206536422,  3.293328902387550, 109.836300692616277,  3.810663627315686
10.066631605770571, 14.660710887762946, 11.577648335241033,  4.355948465123038
18.924024127993913, 18.613993731077827, 14.840959544934673,  3.853910987693772
13.030095091008301, 18.261998266531300, 20.263234652033741,  4.090456885844142
 5.114296319117436, 13.277124896856987, 69.669377786728305,  3.839702883443453
18.048556826776284, 11.988376491521294, 112.202656010077575,  3.484177767261207
 1.809068621821824,  8.084734429826014, 48.592153111087221,  3.939669655948275
 2.799693610370787,  9.603158349879372, 16.687628279201785,  3.810488208079058
12.418157720217797,  9.735257950535711, 95.598397088537524,  3.811132820197281
 0.706371212616740,  5.504419048170250, 57.337329604925607,  4.027191834698934
 9.057351523384266, 14.653022556234733, 57.222996386334124,  3.940134390249517
 7.530045443708973,  8.429517386080553, 36.402499342334551,  3.991380649245408
16.323837260782948,  1.487562417964953, 99.440581505638846,  4.045623420203368
 2.512503844792454,  0.412999820522040, 48.448912135644562,  4.313747064484059
 8.333638157263264,  5.934467531583282, 103.976931992961610,  4.315315227537618
 7.542606220774706, 12.286252515139738, 79.867051720435299,  4.014525042368898
17.622632386831352,  9.497650766982273, 16.612112807113327,  3.669660561704665
 6.696654287084529,  5.047724428582111, 38.439249597180329,  4.004776089343500
14.010416904967363, 13.406867488008405, 42.626292990632471,  3.875365698568173
16.699492912306688, 11.997090491844787, 84.601974764323359,  4.197612496001648
 1.543685806998187,  5.908418369554977, 65.064568570716304,  4.098241042735659
10.911892098703632, 10.222877294235985, 79.154187800437384,  3.969249707289253
14.984718706354510, 16.275849564293360, 30.475692285370521,  3.790212972153561
13.352907164313661,  3.380741105449034, 40.488536493399721,  3.788233334249080
12.132971380525511, 12.428230903845527, 25.703121204588506,  3.850558004317886
17.159760067582685, 15.545187931060314, 112.671049598348475,  3.852985260148766
14.189448825012247, 15.799095742606145, 49.783953037479222,  3.686418516712941
 9.002392798616258,  9.801356431971614,  3.880860853494577,  3.817889999140336
11.886492094792562,  7.459579333182098, 18.713393418867710,  3.557479437445285
 5.724209960315030,  7.350776567711691,  3.277823628370994,  4.375139566934856
 7.062174784596817, 14.203815425984123, 46.626669966591862,  4.156445954581137
15.943030179934594, 15.730341304000863, 20.772069113467495,  3.689838573034251
17.865516902395051, 10.200778922429183, 62.282097649215807,  3.871370662567416
 5.421939175278565, 17.780932254875296,  9.774863139936866,  3.623098587090109
17.109448050606549, 16.463353662929624, 42.749704124241397,  3.947829471105361
16.822350637921694,  0.539819138851996, 86.367532857219700,  4.038090141666411
 8.719398665995334, 13.079096136201878, 28.297693998315115,  4.022114361022336
12.856436178767781, 13.618666073556652, 20.008956246443002,  3.905655846325950
 7.010669515140902, 12.435354177983609, 93.396939089714039,  3.862391871436659
 7.990066487072228,  7.313598181734010, 59.857460360674210,  3.787805343805792
 0.322219014293128,  6.868908708286090, 116.906345058262232,  4.027416559385935
10.108919831178419, 16.945522192631636, 115.181603647759587,  3.744895786382459
 4.560997972265301, 16.666138446486972, 77.674981255137197,  4.016796544640093
 7.705780316850990,  1.093291508152471, 95.716246593965053,  4.039285721930984
10.197693922798043, 18.159102929747121, 14.064483276944486,  4.188616877341989
 3.479891857037217, 17.256458124502799, 13.346557268800895,  4.212525177542540
 5.004656489349209,  2.408807323192798,  8.031147688632217,  3.505254083811828
 3.502291934178728,  5.965160211717961, 109.966200315648962,  3.780033708503374
17.778452517636705, 15.279030658948198, 116.691901953541560,  4.135642307943134
14.990171020868956,  6.781176158913365, 73.193592276170904,  4.259135570657538
 6.442663670317786,  4.495076117482030, 10.971097361174200,  4.055397398069720
11.405167953240083,  8.222241491541565, 57.815225937395539,  4.359081151507826
 5.558462505387628, 11.909986707713477, 26.197711990110243,  3.634493244523304
 3.061107654739041,  5.047124296913063, 20.856051540274446,  4.194150309672054
13.707058036354102,  6.054677710131119, 51.418582207599378,  3.878562398305546
 7.148958773067225,  5.994972557187269, 31.468673380712712,  4.295431550385607
16.646529346576543,  4.825124823256774, 101.715401996081766,  4.058111094051314
 5.575928168997050,  1.524049499624234, 112.989832138089241,  4.123016851087166
16.291519074691415, 12.641447212087595, 50.464549100643339,  4.010549316209078
15.300151494233894, 18.727109966122029,  8.410936136943800,  3.708269397148114
 4.700218064366056, 12.803005401350475, 29.677100186216382,  3.718061143682587
17.500828658993260,  0.544605910004485, 106.625530654225358,  4.396580980027040
 7.734298796674590,  9.996094951788985, 114.219375333274527,  3.778178708784088
12.922726948791629,  5.329878843285639, 116.894960116535685,  4.214057924465846
18.665777749487876, 13.365998455415900, 44.893666471974164,  4.193312226761291
 9.428711686515777, 14.240302188523353, 83.554812026466749,  4.056221575645332
 1.909372088387120, 10.795097090117453, 31.548396153579187,  4.077579476031595
 2.071479835892616, 17.482240510237144, 74.612688845842356,  4.032713040025527
16.571830905373236,  0.528465234993041, 21.720105420154610,  3.938685217596570
 2.773284830736291,  8.297890640966951, 70.852046744441239,  3.910362002974749
 1.543175296675614,  0.510818807679946, 78.238432025377818,  4.264586003976818
 4.773255636292699, 16.537237502207567, 36.126839304171114,  4.037403151321175
10.658805034008070, 13.061032517456429, 94.637221783791816,  3.920060636601580
 8.100160652423234, 12.156926456977747, 100.335756104263780,  4.109569714285954
 9.364679326221228,  2.712825823354141, 68.996935339213806,  3.863332116203865
12.929063768080669, 18.540184178029904, 52.851968371928798,  4.209715112542311
13.675641270053491, 10.985963711226178,  3.175902331295073,  3.551296193662084
17.285759600001391,  5.938649128838069, 62.500301255706781,  4.097611256846324
10.427641224827372, 14.420631525319308, 49.238195659560255,  4.371037896253550
16.011263485120391, 11.883871367508185, 54.315636672299426,  3.856119333894302
 6.423966363144427, 17.317529893947018, 107.263953329601819,  3.916762988208236
 2.953322486138867,  9.267828420481385, 23.103855091729482,  3.875959711616024
13.354288274146286,  1.291277880915463, 75.936046125748462,  3.413416911470158
14.922463287381579, 15.414489493520689, 39.406781043627824,  3.901712296952800
 0.458002473297574, 16.043107162908452, 47.656533850641338,  3.612868666729090
14.423118958154356,  7.674392582793548, 47.293267729255014,  3.798946114879009
 9.760483475557384, 16.186210207098760, 21.395563571294225,  3.959379499195452
 9.727753327750644, 15.499924108380315, 62.429363242795858,  3.872404572336167
 2.905255856989212,  8.428654449270530, 87.894673154575642,  4.099642200771693
15.869510388736876,  4.465164307222376, 25.664334493571122,  4.173139077904204
12.297790954041146, 12.621466605544203, 14.523202875728558,  4.069435935605464
 9.457700388560664,  1.805560424348657, 54.062439298120665,  3.814610394565950
17.750532793587823, 10.086577220589572, 34.318310480542671,  4.347999458240783
 4.142647754468936, 11.941348511012338, 86.595107838620891,  3.772699721747774
11.924932707056323, 10.968577446037857, 99.361176401365483,  4.085266389757897
 4.327884781711780,  6.621996675067220, 58.792280560136241,  3.964122313200616
 1.058017241724550,  6.872049773572525, 81.992014729292279,  3.855560898243172
12.925116946183383,  2.476960117041694,  9.552864980676183,  3.768950469226604
 1.403448380440970,  4.390517311897104, 103.481737707037169,  4.163639227023751
12.018731960306576,  3.335500050189412, 33.012253581879548,  4.061228021623203
14.843363937253406,  1.717698564444008, 64.000635095655241,  3.961688421611692
 9.377634188847685,  2.871978658521453, 29.991939379406439,  3.917018623666254
11.700550131009878, 13.186275052476379, 75.255961507546672,  4.201119852808408
15.601615114067320, 12.667150299348039, 23.319309058454731,  4.249936452004516
 9.472340334782521,  6.940131334883479, 110.516156538007621,  3.849268679517599
13.480361089937126, 14.345623109644672, 82.947831282637722,  4.104709044914010
 4.559140374944338, 16.098113626999247, 104.075039030766746,  3.808386273464870
17.742029033794594,  3.916573971011462, 82.251810189392032,  3.590704791246385
 8.477485193098493, 11.026409086492281, 76.232174098148832,  3.799588461924445
18.264923634765974, 11.013511578245364, 28.506691782902500,  3.767646450692579
16.327675579953780,  2.826802073007581, 89.795635893437833,  4.239504206966176
 8.567193696975359,  4.115735520888104, 34.954862124657716,  3.965289904463579
 1.359398073303842, 11.922934771585243, 69.900096028216865,  4.094520676886568
 9.169841582929847,  2.123957302775061,  5.471601933381627,  3.827476347266670
 6.944353623523655, 13.312578887301836, 60.799790527647446,  3.823761245503137
 9.499726066831142, 11.407031302730150, 35.208698636120644,  3.532307693794014
 6.304642402741108,  5.833738351320664,  7.162078444466069,  4.017100852272398
 0.787405899451461, 15.689006604073821, 34.613393008172636,  3.960498176048490
 7.270757931389188,  1.265879142248401, 57.500029756661206,  3.794270920003857
13.690878731349406,  4.421037283585068, 92.408167379811516,  3.736990116618395
 3.512098166388225, 15.347028154410005, 20.261051474084027,  3.355832296831756
14.130652912838210,  4.192813837343550, 12.855898551208819,  4.051861724231533
 2.120257802082958, 13.413487862044892, 104.872220298052994,  3.543196402966601
11.934197824908146, 15.620123835681698, 28.042602915558930,  4.070570333000127
12.057489525947139,  2.503407641291543, 44.219072662125470,  4.258247482112147
12.948366411404381, 15.045894236503297, 91.169979975816929,  4.229194075928652
 4.380515753447682,  3.079619989876496, 64.312052948537783,  4.021079576054752
11.747307627154608, 17.543924769446139, 38.716576167935933,  3.777118991450433
 5.528725759256378, 15.829222615534528, 27.171568775853007,  3.938603356736643
12.203092148569201, 13.361242630061501, 37.157190831476548,  4.190729175077331
13.415089558006244,  5.268941508832482, 60.011371321312083,  4.024476634464368
16.184752896965957,  8.379204828018375, 87.475854007270797,  4.108660591942652
13.573146642365080,  5.653970391400552, 88.794407664707720,  3.877314006587022
10.636451768704045, 17.864690498200417, 77.421427437186523,  3.867906972586231
 7.243510484988143,  0.255924238352410, 103.497642527800508,  3.985292414676986
 1.692205529081634, 16.720652400096764, 106.703242368170891,  3.953957916273649
 8.405152154935676, 10.879000604280543, 12.797211516130783,  4.214520680339200
 6.488089934055545, 18.309268029749649, 47.293283198307478,  4.155555836365239
11.438232997649621, 17.057789782701917, 94.554629613488714,  4.180959939095325
12.926072175423652, 15.344651516152734,  7.884131708390793,  3.966751478581406
 3.465692349612548, 18.109256070341342, 64.981236911359019,  4.106019225048581
 5.546854118279094, 15.687647523192298, 72.931893501109286,  4.282279326330934
11.054051584309050,  0.439457838536308, 64.482294699883639,  4.034628459671456
 9.319240269156072,  9.801410679992374, 46.527921077302864,  4.051715779560842
 5.497957149985443,  1.708816822556155, 36.279537757234280,  4.250830356896029
 4.276809347523653,  5.907375298488636, 16.967074000829399,  4.128815164001984
13.160643100858108,  1.594303292658506, 36.563956596826173,  4.093195152236845
 9.642130848230266,  6.792446197923971, 63.277698533895936,  3.856496716475035
 0.769997791918745, 16.589618536492321, 94.827357412539129,  3.909926051600601
14.444070823828405,  3.087292241424715, 113.714458614269347,  4.073746508771192
 6.169937735648857,  3.366274543952094, 87.094708607653814,  3.846001142036628
16.203572699482248, 17.067308636809710, 60.227076190927662,  4.098627114426646
13.534937070311031,  1.222739195762922, 60.216620057052857,  4.066012863730192
 8.009112861714325, 11.953200722642226, 67.293178496658371,  4.102609437605442
 3.544687346415392,  0.410946028714187, 71.472875101831761,  3.831522251933351
12.229237655740738,  7.336306562652206, 41.508237935060272,  4.307959240130009
17.321688306990264,  6.873892788980442, 12.317146611785860,  4.061183380648470
 2.392605242785593, 13.516208877139938, 37.739798670558720,  4.285800086689888
10.426934313188481,  6.007684310849010, 94.074181411436058,  4.022607905932889
 9.233153196310592, 12.272972796700685, 72.058158316999595,  4.053213956807795
 2.633218857360496,  7.130198629041326,  6.138263643813111,  4.030265273437950
 7.647764852738163, 12.598649874309659, 53.869746257602301,  3.681349273176430
18.338686055402903, 13.190669564112115, 107.565139419032320,  4.124313323449400
 2.219542446690634, 12.353055166259573, 61.031099671826226,  3.960793549309938
10.997565936816423,  1.221172840938648, 97.977836223228408,  3.940384487716760
 1.536221682675338,  4.438857344411793,  8.940204339729176,  3.912212605023413
15.144625798466215, 10.694410576953814, 30.966672012135508,  4.199358173672895
 8.741812828917675, 15.329611114265317, 35.668493443468506,  4.292097090262071
11.332853719599214, 16.703808451127511,  0.608570441779532,  4.052512456347499
 4.070931063307188,  6.174218150669288, 99.676938227805564,  4.313934476242305
 1.024851776549058,  7.698564840885870,  2.463176314673419,  4.068686894975245
 0.493117417591358, 16.627229794643775, 55.040443093129205,  3.821527304461474
18.910671146375879,  1.999070185404169, 72.116858840286397,  4.013516728593610
 1.682867363022179,  3.120129341619803, 54.259110311126932,  3.994045230283296
13.899552636113699, 16.210739716996216, 115.782486445840291,  4.031939052920887
 1.287869677406768,  5.508809265500586, 28.717701046854554,  3.505960107075031
 7.944054459201355, 15.585644107943256, 102.639609962279323,  3.516109376855328
13.097203834848823,  9.919042895107649, 21.446605963970743,  4.026969389179714
 9.927609213853970,  1.321740795297557,  1.735823076146527,  3.921041718128713
 5.351624980862971,  5.377732290558160, 90.428073668063703,  3.850900890108747
 9.870303199649152,  4.477131809390705, 24.063086887088456,  3.935036329793771
 5.392073328790431,  2.140933904550989, 68.214060878665933,  4.251786519546199
18.372390700693352,  3.504412414562472, 114.805074326848256,  3.981614070901361
 2.299149464610333, 13.793087541295655, 97.903925407823678,  4.366155341115507
 1.649297375598549,  7.096597342774883, 33.747435219883691,  3.836897403668068
 4.947014061045760, 10.415004771864252, 38.882862142004079,  3.942370361261873
12.721654019931073,  3.994891535908402,  2.362811782797726,  3.910791407574005
17.862126159602482,  4.502243038435418, 21.818482877024142,  4.367732567105786
18.710101840381867, 16.313004624696966, 39.170507441042176,  3.895616508450707
 6.028598366339994, 11.393240858832565,  1.992260774600599,  3.867212883369507
