BANDS
8 8
NANOPARTICLES
cell(1), 18.934
cell(2), 18.934
cell(3), 118.337
13.888422422811065,  1.063464857775108, 108.080415611257109,  3.751019605130321
18.481778344676208, 15.797703651233002, 73.208212123041704,  4.039849766823687
16.217109354756442,  6.381117804537816, 17.893252541080837,  4.106360681408839
17.858828132343859,  4.564134667288162, 55.384071430908570,  3.960535658865729
12.831365349495112,  5.480816701512481, 95.366081650582430,  3.962330405912049
 5.404940206319750, 13.396380058694517, 37.286893266136005,  4.097888032319846
 0.802571754295956, 15.248251259883181, 79.715379827279605,  4.121746520406134
 2.035814838595201, 10.477311736692940, 98.371985847822813,  3.829234513879390
 1.103461182940788, 15.047675606562979,  8.002944633135623,  4.114402772167663
 1.102800355848051,  1.412490417545468, 54.487860652590335,  3.859407702592213
11.400100454141006,  9.699548656094288, 75.147147202308545,  3.945697837762456
 7.369427087670686, 18.152173529832343, 24.159011091403940,  3.875146890086756
12.950129977449317, 10.594630957681321, 62.158818854698737,  4.157053035850375
 6.163380848096153,  9.114593823940842, 31.756737017817915,  3.826241481906060
10.276511701319864,  8.846442062076310, 20.943997654888321,  3.994238904809520
10.787246462350373,  9.487625849279841, 101.197325177670919,  4.225657416743585
16.577177797998573,  6.205186408351245,  5.202241624729970,  4.019220757762687
 0.880918355158910,  1.568839310483965, 29.055088251806190,  4.018481430818223
 6.734800263600229, 11.138789410045439, 49.674608127584953,  3.859408194343492
 0.527476807940165, 10.018248051072177, 108.030861263551515,  4.547152075283736
 0.914123534363022,  5.653034674464820, 81.814102496612847,  4.004457053283327
15.820496511107233,  0.722026810557899, 90.549111722400241,  4.506187646653423
16.661108556698075, 14.483733321636901, 35.107928259393319,  3.959377199612287
 1.168401597394082, 18.107106352176743, 65.187286161887243,  3.833730719019087
11.454737355138533, 12.452217157168718, 82.350102454160705,  3.669848553373081
10.658998992671986,  3.258827714677153, 63.566732585418038,  4.322822179002419
 8.303395272873054, 16.791999400301375, 110.749595713883352,  3.857864522028101
12.588256797700410, 18.480816796442884, 52.442115009288187,  3.694495580727811
 5.235375282672872, 18.053666493862220, 42.278365628755630,  3.728836704646998
12.216934252444037,  7.865135740650524, 113.123456998845143,  3.534242510896476
 2.052494666052852,  2.078682349650764, 113.718138052260102,  3.995171671841201
13.516800120627460,  2.202719814127554, 18.990323246459251,  3.888540470444157
13.032710709743808,  9.726320401276046, 55.376702405860492,  3.960253357708894
 8.288249247846386,  5.614640876362302, 70.275029507309824,  3.996015352002324
12.761850127356750, 16.849645761280790, 42.810388502756666,  4.123814872521588
 7.210333012648634, 12.400858637747257, 92.467051462787396,  3.884506353312745
12.677020306822403,  9.704538033766237, 24.803230081210394,  3.907772347692591
16.095877320287681,  9.628120787572586, 26.885700758197032,  4.086054039978961
 1.988485325131102,  7.102068032157383, 94.953348925270419,  4.327726711844086
12.018307028529758, 16.248175216428784, 117.897381535262838,  4.114197159406330
16.717147847792010,  2.500529152176336, 48.211799865980772,  4.404047785400929
13.672006027668690, 10.791224496193140, 19.943018507807501,  4.057562247681084
18.307508315261209, 11.507458097809305, 79.128897708662848,  3.880826310243640
10.214780910788308, 14.250919814194923, 46.971110339458988,  4.212583236747158
 5.916686458203731,  0.876044259881180, 81.049324368584010,  4.394922999169260
 2.345682655324876, 15.520794824469073, 104.876786229586273,  3.504526237376278
 6.071818226529105,  3.808607347216629, 98.263449731634381,  4.164952421473251
14.055902107170562,  4.773515931578663, 117.326019567575329,  3.688962738003935
 6.052828351011584,  9.212492269578085, 37.079185755820696,  4.267358894096320
 4.465314276644293,  7.497677933860341, 98.188815921423370,  3.826532288308743
 3.516451444165728, 10.994029845571253, 57.946572036318472,  4.100913684387191
10.091387763139357, 15.993825422223669, 54.413981254698967,  4.214483542509151
 6.857042274545509,  1.573996099209939,  4.855685539071358,  4.309996335788703
 1.190772573905795, 11.775104818768705, 94.646946917376127,  4.064009848788483
 4.423002806547167, 17.346500454886520, 84.142903349970680,  3.949642522208471
 8.939858591397515, 10.738986129801850, 104.556489636483235,  3.777661655207610
 8.301081626347795, 13.320482192175337, 80.094559426719343,  4.078448202668492
 9.297880294175142,  3.458119079880650, 11.910470821730593,  3.990432446021912
 3.856938969175062,  1.084129183671738, 23.428832739519194,  4.160468973674934
14.605105648277688,  3.613572656668532, 15.428907126205166,  3.973462826937987
17.295704300635862,  0.814296606471006, 14.657483318229467,  3.895314226925587
17.719775798335760, 15.115316304677856, 103.263787786769356,  4.021613135432785
 0.829338875873770, 14.904336982487006, 67.166460526465016,  3.653894205161156
10.411629884897881, 13.680038720562962, 18.360834671863355,  4.030733776482254
 8.942136762210211,  6.816041994765373, 47.477409289644228,  4.070446480699979
 8.504495941475399, 13.969089628224236, 67.441595665371665,  3.878341852733234
18.143727477230332, 11.342896988717312, 10.679409172917463,  4.202883175808521
12.929930451908694,  2.041625264792033, 42.626069770401280,  4.137376076611252
 2.297162462141786,  5.876285494669738, 75.735193628823353,  4.176196672060820
 7.458168032074524,  3.409221755595499, 91.691977768346675,  4.144387937920611
 9.639973028642562, 12.272187976873726,  5.024292033229706,  3.981789559838453
11.015660211847139,  9.323283345963020, 89.583781217048042,  4.499480451198265
 0.040012469162812, 18.465962440945919, 105.059387769928904,  3.925500089140445
 2.975603604585929, 18.427639378685072, 78.317940716404038,  4.053937403188739
 8.500477665275554, 12.726320082139207, 111.973046139500809,  4.288412051984161
16.350920478401470, 10.697389424679926,  0.185968842465386,  4.048176323271342
12.790891266463865,  3.236060856757302, 29.341684371029906,  4.275377110526508
16.353100992014785, 11.672741187887476, 104.771166525417783,  3.935178140874740
 2.565353157791075, 11.946172706675851, 65.443319210276741,  3.860307782167118
 9.218573756835523,  9.093025943522665, 44.224872682451753,  3.785716363452573
18.693669885432179,  6.878651904581823, 62.977912658046506,  4.199576237520090
 8.545890020872520, 10.269059331896248, 61.813818633407351,  4.301673079200665
 0.828682525793546, 11.505690766158020, 26.704454555277724,  4.104775578561375
18.151366040389451,  9.465797145168086,  3.504189801832706,  3.871628696758548
11.900479907757218,  0.319857680236018, 56.055305991507417,  3.809266932319598
13.998442570573715,  9.401393197821520, 34.629828449964023,  3.812931880998406
11.658663311982929,  3.049946153514146, 51.401689509199237,  3.728133347746511
 7.446579941080367, 15.927636662167957, 44.539717594275793,  3.882645700699001
14.388706194445440, 14.995707839574814, 72.963964122288672,  4.300821187382816
13.150238112871964, 16.661393731159947, 110.286084900306420,  3.924976540187003
15.947899123459013,  8.463648692353907, 47.413924290283497,  4.053778081050723
 1.828787939725708,  3.276886356292450, 57.872776109595527,  4.002018040187971
17.140663930500075,  8.304951827587841, 13.255889850109053,  3.991554518813285
12.903147692010217, 11.509866307784222, 45.359453490706692,  4.041088012588415
 0.861385562072382,  2.140958615011146, 11.632440694612983,  4.333084910565073
 0.355409375776091, 18.343237079391766, 111.367495206268302,  3.811191993923469
 6.939288177307484,  7.376212222835076, 105.365015519576588,  4.165615563205767
 4.497616121600939,  4.913354777255233, 102.917931429608032,  4.006001205489747
 8.813309987640494,  4.408968483710521, 27.543775134426809,  4.499256947009194
17.587766035586654, 11.843121682774900, 72.913021311619531,  4.090257827815242
17.154786443484316, 10.714771458228348, 36.739854273481512,  4.207322047213943
 6.813612323677284, 14.233542721630714, 58.695230793959205,  4.067201428902218
16.345907021522592, 15.892156707380737, 65.983312802474501,  3.830938314777907
 5.463620252232110,  5.016329510431539,  6.385182021263605,  3.714843485653871
10.364992896070151, 12.398635068494491, 56.184719996642052,  3.752292894102526
 9.782877360880422,  3.358886747503973, 32.162941225134418,  3.965863365478844
 3.666703233776548, 13.113865657559259, 19.919381386839188,  3.741535820961370
13.844977354098697, 15.713582152550067, 56.191215443883834,  4.101057201949031
 5.728670785898518,  1.200884091673083, 101.556990267170377,  4.256981992990239
 7.928240863358483, 15.794392505015137,  5.474360752733439,  3.850199391187383
 2.953708656978149, 11.083345913912799, 30.346502240439492,  4.214847120370639
 2.805919772439150, 14.949080631119255, 16.574144515410907,  3.998916088175701
13.491104357530293,  9.541389835608836, 11.621945405210688,  4.274389167343894
 6.689889459753191, 17.235610896788653, 56.149956012939796,  3.795827121373472
14.451767377955358,  4.164317869766864, 110.259761354591674,  3.887270040205995
 2.146336022658588, 13.949907819383599, 83.525290939483824,  4.270408001236073
15.887244124200349,  6.222018868598999, 10.132000677113467,  3.900356705217594
13.977545081610106, 18.101504618406985, 16.399573740548593,  4.143898624117736
 4.821838347069399, 15.678417383768336, 110.141486981506219,  3.527399177463283
17.882277826248615,  1.832140007826063, 108.461339735181156,  4.103559811422142
 7.994832953744051,  8.142212793795382, 73.494434190220403,  4.208525715558051
13.849410567680048, 18.894415842654524,  3.785241775420112,  4.213242038194224
 2.972591422128135,  4.382948940839224,  9.039698839926237,  3.656183859652033
 1.163732654418663,  4.080521344318234, 105.616680787063146,  3.610092850660227
 2.177558994788747, 16.993869268494063, 101.487571246183933,  3.816527993319974
 5.215416126831190, 11.276874489876866, 82.662095442384128,  3.938091534668042
12.293858768502773, 18.423566745360080, 31.734332540217512,  4.417971053744657
17.024902288518444, 11.035207109486237, 97.328922954633541,  4.263149362284306
13.715267905549766,  9.218510710537625, 83.020186706251792,  4.324341002561141
10.501708712941463, 18.196079789310112, 107.816843945230403,  3.884966953684607
10.844718122039112,  7.129491732262253, 85.666028033694118,  4.063726038876629
 1.729282403503369,  1.651244446280925, 81.545736541132428,  4.100246537422483
 3.044843742400034,  1.122228726388946, 98.442931581096985,  3.932992386162825
 8.590134103804953,  0.525962870561442, 14.397595435766151,  3.794295931843159
 0.358040921021573, 17.800655985640070, 88.883773395178210,  4.033210790237283
10.919573203122257, 18.624786193170216, 85.034175881671132,  3.797048134725141
 2.895492537077229, 11.797200442896083, 40.228252560131530,  4.269936324960346
 4.568662042501018,  4.899076588167498, 112.071938452009348,  4.181845134309738
 8.494559293750141,  7.460263626576153, 40.226760909212096,  4.358183677716136
 4.123648903650369, 12.059755489673968, 111.779497956076753,  4.536760268079522
 7.240651600737488, 12.265175931679032, 33.844404629575706,  4.025031959134332
 5.017324319097863,  3.595522127448219, 68.974701348085262,  4.102313342447813
 0.312577820490864,  5.240645658655311, 115.496414449280906,  3.989293150240666
14.644771622638585, 12.319338697529895, 41.906224680632967,  3.662066906994591
18.028545333162391,  6.274570396416530, 37.889524930114369,  3.631665335831432
12.346059177222642,  9.109085065576561, 93.664750293032952,  4.082278631538706
12.978105546393566,  2.209278317138931, 87.235683518830015,  4.039057590284957
 6.592455421916852,  3.154359022774364, 51.012659903623074,  3.792386202020515
 6.054596324268620,  8.518492784444865, 14.214585140531275,  3.795486946963140
10.706190794065527,  0.613613136071740, 76.037226663470534,  3.865670513516582
17.792672449237198,  0.806015831356538, 59.054626212953025,  4.077142058404728
14.036232471812660,  9.465916997444118, 51.429781510617367,  4.151898187389501
18.757988447403022,  8.811666738711017, 29.590172604595189,  3.646497322197074
 7.686723657442271,  9.608393507857334, 98.555167163685496,  3.902739630672398
 2.244348350497518, 17.436873351787973, 108.068959942908663,  3.812962375738428
 9.719684097524103,  7.564592241235813, 96.075457445615314,  3.648446072538698
 0.026276913882513,  9.153366763643071, 91.760127563277479,  4.060654810753738
 0.199344934034989,  7.728603475923776, 53.073366399987528,  4.279899016248994
12.552433585178230, 11.916184740764255, 103.941677200079013,  3.829146090269235
 3.099182241411360,  1.285600920516249, 50.630404944738409,  4.148162978010906
 9.134010159018022, 18.299681253904438, 41.564856475797953,  4.063345582937713
18.558280041869377,  7.361492507610162, 98.339907061437714,  3.946934783165648
11.736065842551637,  1.317056921129597, 111.374506406967754,  4.082190239895676
11.792215216323196,  9.807263516537837, 41.410652930165170,  3.903761732872572
16.531966707499954,  2.428742619229441, 26.689912559811042,  4.253647035341661
 2.108424491751320,  8.010045704616726, 101.572427473612748,  4.244182307510590
 0.038821409735036,  3.480398008563538, 32.453841657067549,  3.952792681048082
11.805016271743115,  1.366972384841055, 104.596800724890485,  4.002902518759523
14.106053255588623, 13.429849127900514, 115.614852059282171,  3.950890600079432
 2.445078676382503,  7.251820487575057, 89.480731830415039,  3.555971139406813
 0.794808692104295,  5.046160321695367, 85.912204372733513,  4.170809135378526
12.927773999970583,  5.805239364900987, 88.677158884334119,  3.699843135757575
12.507930305381672, 13.716496160512779, 11.145960045102466,  4.350269049438928
 2.622730761015973, 16.278314779246667, 49.241949702050633,  3.713671850871295
 1.708964230498814,  3.746273225064288, 47.533684312757295,  3.942978719081601
 3.256700442689040,  9.598451117266267, 50.852993615325687,  4.089818258049189
17.176681171280919, 17.674100177118888, 62.526965207325134,  4.096898610548330
18.377862126061537, 11.759969302998476, 57.896638091093237,  4.160591787704423
 1.946209156716340,  5.507777176419010, 29.476938834494064,  4.172556411766564
 4.032593011296496, 14.230087014936922, 93.583049565399079,  3.742321306502634
13.745152696072168,  6.578637068440284, 58.098668277509944,  4.183761536018305
17.980512829598936, 13.885009361811173, 116.520319167090619,  3.969619260941109
 9.926432269025092, 13.050896942431670, 42.954152130105712,  4.179313574679144
 8.660178830349327,  3.664644790023448,  7.999746396725558,  3.925195906140522
11.804968390159912, 10.435746752345583, 16.364002113537932,  4.046918162778742
10.510124772473880,  2.866118138894483, 116.427656220864534,  4.376089112203537
13.905763295970903, 18.350536939283238, 59.389496039318637,  4.170904988545068
 0.862724080864231,  0.050468961433680,  8.159978336605677,  3.769532348269171
11.276158269674937, 11.001167247726158, 85.767515431425224,  3.722290226044126
 1.936880062962348,  6.069353459124802, 68.879286783855761,  3.793263219076859
 0.155121280904403, 17.830664610728149, 115.312978923547405,  4.064412203696514
16.223148546769977,  0.040269244308097, 41.218903903597145,  4.026414148674874
 4.043527212356268, 16.894192669930668, 45.848552794996998,  3.628975716167327
 5.438570717740738, 16.524067654967421, 103.283983540553194,  3.684771580407586
 9.372546026369937, 13.789067010505738, 50.989739543224452,  4.050529557979047
 4.555411082761635,  3.319912715315693, 19.991879570446503,  4.027181298512764
 5.772085950189132, 16.098704501398728, 27.075073716451023,  3.926515419653240
 2.323841463757304, 12.279390140650708, 90.744763046679807,  3.931869061257619
16.111405466589545,  0.890527122490501, 30.516071052016514,  4.016540772327513
15.174240802665514, 10.191194364784774, 113.473405753539836,  3.917926277695167
10.409442858966909,  3.381155635740042, 84.667044905525742,  3.587298465831240
 2.934913645507176, 17.438029800160095, 95.430909799220146,  3.910220362014731
 7.853118268300288,  6.327251097693514, 101.057965802689594,  4.156815636273238
17.656160890879544,  1.045521931833657,  4.963039624509633,  3.981476802136025
 6.703327841036996, 15.623756378577994, 114.254563373610708,  3.909446471036396
16.440764941013214,  5.556747528498072, 29.630846753951936,  4.324923876003109
 5.464069340052605,  1.602193240895627, 94.846654527432975,  4.050135669010452
18.264456270537796, 17.695792504445432, 76.749692422406994,  4.004313454554831
 9.227342088498240,  3.456837638837333, 41.361691736540138,  4.083106745101425
 1.662388385909901,  0.982757866319160, 85.633326420288569,  4.145969258694623
 2.858476321819111, 17.245729328472219, 35.748745816919957,  4.139226426861006
 3.896577705798668,  9.395335082802884, 68.161774736338657,  4.022584824727546
11.158804368084301,  2.901107145776143, 71.025627597865622,  4.033000939249327
 0.020806834581895,  3.855262269735242, 51.568168179322818,  4.033814614375888
 0.115639062211053, 17.910696802856531, 23.574601374692371,  4.075963806024738
18.598735223928831, 14.910131564317247, 55.222014502309385,  3.999197734479230
 8.516243760775746,  9.657514133637591, 69.089069083269464,  4.361169268134051
 7.041312233895278,  1.761721721616627,  0.745391511072447,  3.883909981761192
 7.197141271486491,  1.223401176299728, 85.162424806695398,  4.166200215081021
18.082311897089312,  3.364269449625801, 74.317614101538567,  3.907045380700164
 6.445261614920344, 16.790399138084201, 52.270356167551498,  3.957248523671119
 8.068928129918648, 18.924232527256514, 104.699246161289309,  3.944048536358895
 3.508356718342605, 10.985746087694368, 34.383468686064248,  3.934358622731125
10.947071011497908,  6.831487523747538, 51.041736397670476,  3.998522441656931
10.627957853292720, 10.574626647928316, 78.778531901640108,  3.494112645091314
 2.560646886709452,  4.035999385022246, 72.140902886902168,  3.906140658121184
13.468260512642125,  0.308585077563178, 79.740542987114054,  3.958702519962257
 3.167424267744544, 17.376236730963612, 10.683117909867930,  3.723953837269848
 7.153015084620469,  5.836555162750855, 43.846194997137843,  3.940370335270633
 7.014709107845229,  7.490668431639046, 50.976889269488971,  3.891382816142387
14.190120273874893,  4.094381711900720, 65.231635406821511,  3.634370407659854
13.966425502309033, 16.918979752107152, 68.963968878628805,  3.961258656210183
 6.595342987389589, 10.844205196399836, 41.840220328779765,  4.019510667588399
12.391687004736347,  3.615848022826030, 77.875214340219586,  3.932270758080513
10.460242472339498, 10.600158801978827,  9.027614997655119,  3.773050102472870
 1.575422217937505,  2.072163945247213, 102.169297325491556,  4.261613143682015
 2.709324946735825, 14.597646705876867, 24.723419292316557,  4.029672149759586
11.690836010532987, 12.926864924249795, 92.176702429148065,  4.193410696083387
 7.181242114561733,  5.268789784027913, 54.310614018682621,  4.108472113948043
 9.437526621411745,  7.814554170664400, 56.054640023184461,  3.533840764171371
 3.419726154676369,  1.660621155010302, 33.532193180658950,  3.964796039640788
 8.310355922680481,  1.787334686342180, 56.991724629459000,  3.985266271266242
14.209829550505356, 12.182516831605952, 58.473624134921472,  4.248976254969034
 0.767163827739426, 18.765580447576241, 46.937150974324219,  3.985354760572855
 0.197519899012948,  1.403887285138057, 35.869216874273675,  4.002508827402949
17.649836073790610, 14.396619711913317, 24.829364598074161,  3.727448897446865
13.824788645869880,  8.241342665512608,  2.391954661110459,  4.260737278097010
 6.130601959467563,  0.500897616588906, 75.906727089136993,  4.131428926327923
 8.750840687949248,  8.578496898034537, 27.462557601416744,  3.778895972161779
17.509111963753497, 12.071229673838284, 65.862160350449287,  4.022055826062334
 7.676622564122378,  1.716325879022253, 44.692799238796198,  4.001820058669456
 9.521017259970471, 18.074848520976428, 34.832155062746871,  3.678753714268588
 8.752818750830063,  0.246973619964743, 88.860122474842186,  3.974158522031455
 9.046981701170177,  6.907089632586472, 30.782715095921358,  3.667342317333572
 2.997768682105890,  3.043437468337216, 117.491465777053193,  4.008700880878518
11.122127822931400,  9.620500709572624, 58.758091721210846,  3.789539655585020
 4.248020890878700,  7.082872312385533, 86.242725679965673,  3.858292390954142
15.696881923592379, 18.406794095099745, 34.734145344896262,  4.115602106856575
 2.812998248929565,  8.093714293446032, 26.519331168322196,  3.768088689436661
 8.456157368317919, 14.220971210965759, 11.896561783572562,  3.659718783531773
 4.784400249581528,  7.108962235663997, 71.252181715714400,  3.867917980636310
 9.678317411684336, 12.626241350983756, 72.116306909145422,  4.418813133515864
 8.942422356566043, 14.729095635750372, 36.297982735824583,  3.715517655934212
12.379204447825606,  6.335819162603799, 32.777748647615432,  3.890444881508666
17.656336707836584, 14.615997386530898, 95.690618510819220,  3.647085357581805
 7.368587819614466,  6.101353638131497, 109.328503667606611,  3.947448591768830
 5.718883051812445, 16.888367275418361, 61.620597161075473,  4.098553273974375
 6.848685794325561, 17.646378737198681, 11.518086605160612,  3.843866338060980
16.366715409744980,  7.660812177937371, 94.752214271734701,  4.327403142094693
16.858621554254530,  5.885900722862167, 107.824696984604316,  3.767331659026830
10.046264253375874,  4.412047064815053, 74.784978315308450,  3.988436367492339
10.055967539655839, 11.080802725468599, 12.968868740695829,  3.696295462390058
 9.534978488403681,  8.926372969582525, 82.169273496602287,  4.220148741317884
 8.628841466400056,  0.348962029086643, 72.742186823107758,  3.930850453839529
 9.488277559212895,  4.138222896451627, 88.254549898334332,  3.960364219276659
 1.831579155907272,  7.272395248000747, 57.620269226232985,  4.000287047080507
 6.785987871645698, 16.433784958310181, 95.265643472619118,  3.977469637709783
16.986931258777396, 16.165005496977113, 48.596231605346965,  3.936963300227057
 1.893425052260536,  8.897730788083328, 37.415421733957878,  4.050591556767641
11.897405070884611,  6.991148053959269, 71.976626134903412,  4.444494805710118
13.985638182693762, 14.020290801889162, 107.141220141763370,  4.171644100416642
 6.373454127559655,  3.656530553295295, 73.239322565767765,  4.037743226390630
16.758711040497911, 12.305409579982438, 46.470841856380837,  4.011276644820854
 4.192234327388989,  3.780998510034167, 83.996642094321814,  4.003721981615615
10.465490119876694, 13.206089117213192, 59.850492709498518,  3.730366533366115
18.238687159653484, 18.823891061014070, 51.300357281459931,  4.018273001331562
11.339974712773277, 17.989542133080956, 97.248013698850727,  3.981133286318724
13.509025511144007, 17.188180817309721, 87.897290822188907,  3.912917511012743
 8.654994744444270, 14.646996999673155,  1.916680870690849,  3.707169146884157
17.640369444895533, 18.586628720147878, 94.349158040437544,  4.147473996631290
11.966876772561539,  1.773558543785467,  9.336509640792036,  4.051071962454705
 9.984047022107893,  6.893572265754539, 77.987084297732551,  4.093415275200103
10.777029777346225, 10.429554300643737, 48.855042226459283,  4.375602440021904
12.923065619227906,  0.552940572684201, 48.583892293554719,  4.150786301268783
 2.509164688738047,  9.339520175332069, 20.106228017736694,  4.155471248362314
 8.539650411798249,  5.286736203271051,  3.655976358449075,  4.129590019938442
15.490300755873701,  2.345660145401981, 114.704938722384881,  3.971943660965429
18.581615256149711, 13.347477030847987,  2.792465753312325,  3.988104374853072
 1.427313425787124,  9.915015701567485, 82.672386687722977,  4.059232656040896
 7.338273965312034, 11.780776484559986, 108.018805784222877,  4.126305913164740
10.636556597759677, 15.581751031010715, 104.500059188676346,  4.492970828950399
 5.655307800042706, 11.845741000571190, 27.256296370547684,  4.043162806538157
 8.034519747773496, 18.743038669870469, 31.227643244913580,  4.157445338403541
15.453552039082574,  2.483493830639869, 22.561280445652734,  4.247928872406626
15.836799001785240, 13.134758902106320, 13.666719257502077,  4.064940282946046
12.836511589705013,  5.034546812015065, 12.280838643883884,  3.724291485175057
18.818033436554789, 12.579446062610575, 18.050766589601093,  4.076693129599407
 2.371322793038918,  8.303538971961492, 79.071905251910536,  4.041208526904769
16.147503970777951,  4.641733110357983, 40.991053385475674,  4.121887706262033
 8.762477623410028, 17.307816243500042, 101.090658200206860,  4.002838631842963
11.248831399200753,  4.328136845344070, 55.300884874278296,  4.440721304500924
18.534316385668738, 17.305716791258892, 83.123101664331742,  4.156070450846238
 8.737079155449349, 11.667015970922261, 30.038148687396514,  4.177185894412246
 4.194968743827422,  1.743234500987152, 37.380999664964882,  3.836526189016148
 6.273011268260270, 16.889971221423508, 69.113374670539130,  3.838838900080677
15.787552437433597, 16.139383084550076, 31.568844339249402,  3.627410325856418
 5.274383509151731, 17.094293825029876,  2.379952807155206,  4.677581713438882
 8.488589637873471, 18.598281099132244,  8.099615222173966,  3.886864362626430
 3.363954862550067,  9.411969235952256, 43.553137364741346,  3.792563325171826
 7.426712983034538,  5.336498253643303, 85.299543285540594,  3.626989814641345
 5.062849159515297,  3.536880234183986, 88.028173111815690,  4.199899872384599
13.633337895998000, 18.526780002798208, 27.594074287416465,  3.978674655728306
 6.298466443933876,  8.486075392172667, 112.355364651199125,  3.793645928881705
13.967059444406031, 14.972626445517323, 102.312224873715309,  3.486961337817849
11.905528950459829,  1.172781171766511, 67.285205305866299,  4.337019499996388
 5.507296584576118,  9.043787127877634,  0.064722103450924,  3.923819636380436
 3.692825425154059, 14.025581672943611,  5.017898332271694,  3.962679737171982
14.250987592937943,  9.033817064906600, 87.021750254145445,  3.741278785357331
17.902799986611889, 16.238638463146593, 16.441675768432773,  4.058657438343490
 2.813429014442451,  2.017073713503728, 109.721349946315570,  4.020370112836501
 4.699976859351199, 13.336174755055247, 68.477182048634432,  4.034501252952656
10.755240873798195,  1.483172109830306,  5.684509405133705,  3.659449153740374
14.796298156641750,  2.697227954230834, 57.114340882608161,  3.975752555389442
 0.180921915609497, 13.681792438804314, 99.766470435403207,  4.036087829342187
11.640857562544026, 15.673336615561990, 80.185552769724566,  4.076821459538238
12.786487643851471, 18.443206091394291, 114.683602196465117,  3.729023436224017
 1.287664950134493,  5.191994721502927, 40.894307494671686,  4.101494589892171
18.210416412403983,  3.717718608593929,  8.003947254707496,  4.132660090597009
 7.107622708274333,  2.801875949415008, 65.630396627762707,  3.932670246926357
15.241423425676894, 14.377823834584037,  0.875296348862445,  3.760069327165863
15.125998785640776,  8.260300524658765, 90.742762338609296,  4.057674300508167
11.450749699460269,  2.771052143671119, 59.367589351853120,  4.085995535313143
15.869595264944838, 11.758170366519199, 93.166771051108171,  4.491126651792587
14.175180682300915, 11.748164824068219, 100.308381579401143,  4.098632699515353
 2.474591553776534,  2.351936312807808, 16.647555550602565,  3.987798064268345
12.599938680843922,  9.154942915690434, 68.456381273657712,  3.904574495408998
15.961792797203213, 11.219127991040519, 23.245516349577937,  3.818109314747777
 3.040435970017656, 17.312030003998068, 74.311582658009897,  3.872827168323177
 3.923358547472753,  0.572106439012630, 105.209044378959334,  3.981248888018554
17.669100727101405,  5.119021450943990, 101.560662009548992,  4.091963433346927
 1.666040319322856, 14.806126099168434, 28.949458455080105,  4.023859332781655
 4.051808013601418,  4.403239837110222, 79.485090464895734,  4.140149493016634
16.832644412655693, 16.840546250448277, 108.657397501750410,  4.019438489763370
13.914876919396894, 12.871240274276589, 32.571988580217443,  4.136063509755210
10.489895469423164,  7.094495345738936, 107.219016839708090,  3.831395451364699
 2.467598317427455, 17.936078929170776, 26.658431806567048,  3.673799323960122
 4.955449110349322, 12.707820749723833, 62.178038541302577,  4.359549418475313
 6.396250564646217,  2.747241627446109, 115.222590898603130,  4.184280011650266
12.804802503247670,  4.523182140869399, 48.084558406172718,  3.847373789874957
 6.092532129111791, 11.192370631062770,  6.710987169445738,  4.165498771534754
12.463240385032099, 13.453951304973577, 76.657757058821147,  4.411968329120720
11.225529387770285, 14.828923327532541, 85.686701253266648,  3.928358354603088
 9.046510536383389,  8.385088046955994, 34.343989649931714,  4.009661682944949
13.639394491030931,  8.064710194952115, 109.519767692909411,  4.185766505983582
16.077699751580631, 14.416556440508685, 21.293261566337478,  3.673866078140135
 6.191247285322707,  6.131044427272268, 94.731264121165722,  4.269449500537354
15.728067593469959, 15.932592763546380, 52.572513756217425,  4.031424261475545
 5.600563931690464, 17.249237518262380, 15.106331259297495,  3.774124513632561
 7.134497057068949,  2.155139664092705, 34.859010412606828,  3.949475543403821
15.621557089351557, 15.943221920421321, 79.577528444285790,  3.908435776102433
 5.246071255675009, 18.867922084364480, 112.309895253024933,  4.155555739281118
 7.152472819204765, 13.160912903031505, 54.286113114260516,  3.856937222208684
 4.081059739462453, 13.456580298873188, 101.102218150621042,  4.218941720879872
17.594404649017680,  5.432996023693210, 59.276059081602604,  4.030538803876497
 1.331398858279059,  5.342467766930158, 18.901103051973411,  3.810187442691529
11.210274843589906, 11.064365858229243, 114.543109222141595,  3.738051599047359
15.364659349165143,  8.430155145381644, 65.346471973289837,  4.486628690842434
18.027116567004533,  8.222201263422786, 87.920143912324221,  4.022520211624426
11.211194415338655,  6.013783679587082, 103.391035712129209,  4.028554313893354
14.508552775854984,  3.011676398376328,  6.467248937560051,  3.998478171514302
10.019549739594577, 18.007372490860472, 17.916773328375299,  4.320047214295097
15.043121964068733,  4.708519451379963, 44.887015745037210,  3.956601583438887
 9.619460435929909, 14.160678618763336,  8.418028275078939,  3.644453443641864
 3.555680270238331,  4.565202353776147, 91.933403171200112,  4.000740019618312
 5.627711030057827,  8.166564418390898,  3.961300121932842,  4.064024655411306
 6.171371757846756,  6.916279856553602, 24.950325967322204,  3.839757532264771
 1.687317996116934,  5.946356082580754, 109.176653480718514,  4.207874771187980
 6.177279015114643,  1.612167004306695, 16.980032877096235,  3.586772754624746
10.109841430592141, 16.477468785966884, 70.197662492146009,  4.176085919676182
15.750106911569887, 15.316235205546992, 90.707314806060296,  4.160121539062557
 1.930646668886779, 18.199329557542590, 61.065616557513216,  3.852518114390099
 0.470757923791382,  9.696215251881638, 75.814603747483162,  3.977573991862767
11.496919445407427,  5.881496368599425, 99.389201111984008,  3.905224493533598
 4.863869159162676,  1.831335854817855, 13.238612157825898,  4.308219927133636
16.415846575176896, 12.882365182613858, 62.000326326903220,  4.142676343025598
11.095983406855785, 15.264627847122496, 113.698662942184356,  3.688588677427307
16.454415883974630, 15.559317416446738, 112.769284615008516,  4.514176131037582
 8.451519401478686, 16.780587023883509, 82.538657285573763,  4.046836430470901
15.853293206401386, 10.234508123494543, 16.567876682254738,  4.040043006606744
16.935911088524353, 15.193389802972341, 86.610985925752743,  4.311217067242060
15.056225906389413,  8.379995451973867, 39.516577378489785,  4.145971618127311
 3.055354615044782,  5.064303061392483, 54.473225724386758,  3.982427158990003
 7.276926012585300,  5.514261834961023, 118.061671415509068,  3.888889940220410
 4.540706878763679,  9.480033703083510, 75.513502989869465,  4.168463392570946
16.328855667071434,  9.131637345924650, 60.341670596463132,  4.051221332407787
 5.315591252458588, 16.831991768347905, 99.048788608836915,  4.045265441852859
 8.811247878718861, 14.290985759830138, 63.328493788057678,  4.265338911038409
 5.778294365855444,  3.347808355774956, 30.688635509261292,  4.116090663114322
15.222013330115045,  5.361954510659714, 98.420724837524773,  3.795927773312131
16.597226464366521, 13.302924030652258, 28.890155176270543,  4.338355872582776
 0.166516346116433, 14.057209187114971, 51.308587730393299,  4.068701509668322
14.887348601953295, 17.569444303105886, 105.057347619368343,  4.243899695721095
11.222351470520262,  2.675722381175174,  2.157421843820730,  3.843157738920282
 6.595087218784368,  5.495587579074623, 62.857563601898640,  3.847958306497565
12.551185007377669,  6.044581713574828, 42.151584411658604,  3.896964855888348
17.791570334646870,  4.952054223652573, 66.588125964647162,  4.176936366035228
13.055678254037510, 12.922956121437636,  7.062000590298658,  4.025051395648884
 4.207783042836958, 18.107510512161912, 116.444056500887868,  4.356547212383809
 0.401808678362099, 12.063220074376980, 43.463402999504524,  3.908649749526956
16.513097364587814, 13.785615049171030, 69.436938226065379,  4.151963849640617
 9.378619823567306, 17.705307822310743, 49.637833005502664,  3.978192251051763
12.384248349924439,  3.743962917862339, 39.051711518254699,  3.741190347705330
 0.446187436931457,  8.647723478499076, 66.500921373564736,  3.745308685030633
15.544414217739469, 12.909673417741645, 50.104993385103285,  3.734964854539728
 5.254464379923006,  8.197887170551843, 60.324857980586920,  4.020763535549826
 3.016711987751507,  5.005831327173840, 61.300406633255427,  4.013751437856564
 8.971146894141926, 18.829831672166353, 113.973524404844156,  3.869291150397001
 5.113787210804131,  1.561157928453333, 54.360979401934820,  4.134260323645848
13.332446397222130, 18.847964301361287, 63.486590966144178,  4.157514628471749
 9.930707097692684, 16.860782453406671, 58.504989211198385,  4.090982162435997
 8.952464046607643,  5.850585585753769, 113.738880057792201,  3.896556978788869
 4.670677658753625,  0.552542140601928, 71.505445747023657,  3.827799591770777
15.875679435060906, 18.658971013807069,  8.424517077225005,  4.116934316086408
12.174388600226001, 17.007469323889040,  7.278587359879276,  4.304425967758514
 1.391439528635583, 17.541301943805905, 43.185393285586294,  3.947583682676220
 0.515295478955528, 12.526597238529705, 22.021846437382230,  3.908989556875413
 4.132238642231469, 17.852897085681480,  6.461885845748142,  3.932186060121108
14.934995099262872, 17.289513736292086, 23.858723280764071,  4.260957809643867
 5.516959094886911, 11.030967877502443, 71.781576739084500,  4.135548526793368
13.403774574008242, 12.812256488008835, 88.452622494311399,  4.006854026114189
12.273638958806091,  1.178728047928988, 13.302928478635453,  3.988335329261490
 5.210656812864467,  9.031880690029039, 54.627564577889579,  4.260188558169166
 6.600326608366890,  6.676809275347967, 66.706143831349507,  4.169690743182814
17.375150621935781,  7.720253037826363, 84.070607153867400,  3.846621764993119
 5.088906341329209, 10.786271240526045, 95.738605849360567,  4.103244372982567
 6.672655673524308, 13.851095087119285, 23.972665409561490,  3.915660718326504
 0.369072740102641,  3.050952088333382, 23.733474968167613,  3.870301102824850
15.341035707457573,  8.978796293859352, 43.512686591216280,  3.875197980239241
 5.018628257500025, 15.427755373707836, 80.839093827296182,  3.773042642619318
 7.403387989593321, 12.041193629420896, 20.525842518750729,  4.006428733611110
 6.384771824201358, 15.157201157641698, 48.480303292896245,  4.200698910246244
16.638559058946143, 12.580168647811085, 109.819271708958027,  3.868017973461630
12.206380520940252,  7.258465148661315, 28.668645633542006,  3.956686790045083
 5.585539878846311, 14.195653433536409, 30.512324153188914,  3.929070640187366
 2.878233062257731,  7.467662912756063, 105.579843324813965,  3.944640849949832
13.918665192366548, 17.338825523382244, 76.323735114997575,  3.910006969561614
12.741351189811548, 12.626066604599931, 111.135927815375169,  4.359104359384338
15.542529627000365, 15.259142537460951, 98.829559311359631,  3.973160037450245
17.363613529004404,  3.007293044899475, 83.357091648012897,  3.880272285302824
14.295276076011639, 16.360034867165986, 94.929273810861787,  3.915997490326308
13.870460726150490,  0.969361798476857, 118.116933487398200,  4.040521207090275
18.664708783045139, 13.936888126002728, 106.873800349627345,  3.711268252927031
17.934284528897706, 13.107839967628871, 39.960630770947496,  3.906349658775622
 6.063035670115665,  0.275796191505228, 48.069493847672128,  3.935800654783252
 0.756790597298461, 14.708827462822589, 63.413562168422168,  3.862723684671650
 4.987608128860096, 13.908524155701842, 117.712838767544639,  4.078695571193719
12.461603621363480, 17.382543465147670, 91.635632396520464,  3.821685336283568
 4.805772352400999,  4.145968916141984, 106.902011716464287,  4.089754619843527
 4.529571848431475,  1.631350707649011, 62.851563866666702,  3.995419520895829
17.253424338038343,  6.433236617517260, 76.725645648450580,  4.023614940893578
 4.302662969073871, 13.730178167383908, 12.786205429642015,  4.462807149657581
10.211929525529669,  7.143158545786734, 15.204287176344073,  3.559766303243528
 7.987556996089475,  2.803615731099174, 111.478432467537516,  3.921850734604458
10.618449725831217,  4.262771289348287, 44.965864910762953,  3.786053077677090
 5.689875372770572, 14.851309161344336,  8.794623080297065,  4.279719867579168
 8.063348192856610,  7.673338388458498,  7.722640643424915,  4.143527628097105
 6.017893768260199, 18.506695599965507, 91.546406165812414,  3.768793905799689
13.108131794027514,  6.447695172388688, 62.209069219418424,  4.138878619002824
14.273041407643333, 16.730743557100681, 83.483000186279696,  4.431278273404334
13.529976600464181,  6.559689347727151, 75.692153890065271,  3.707384919302449
13.422858005015424,  4.573280552073880, 106.445675347644567,  4.043169345511560
 7.002181822419102,  0.283718200683676, 20.347168958281220,  3.763255379212180
 7.179980765080386, 13.478100579762859, 97.901688679942538,  3.963764874687876
15.811847430635178,  4.368499227240713, 79.921509266448780,  4.073945157889414
13.183965939788017, 12.758060265498077, 96.415076320158903,  4.121669036547708
15.486582749850482, 18.751638316495121, 45.183876258126283,  4.020514055965643
17.708545250020627,  7.391016993758864, 33.831387144974286,  4.690035995558612
16.601660297635892,  2.728319944948096, 104.694533321551390,  4.010578410168145
16.678341498559877,  9.614899178520615, 69.304800718771844,  4.114946904161445
 2.332201474523283, 10.409060935131656,  5.632436631862232,  3.800643407439091
 2.551271104863399, 16.244176039778608, 70.447223774083241,  4.165369167284002
 9.683845457707799,  9.034973689833794, 110.546154993037021,  3.903951465996942
 8.226282369264434, 13.209016593023096, 83.990682980555277,  3.674442310978707
16.376726421354519,  3.433981502699997, 95.211978028305481,  4.008433823657483
 1.001771354318037, 14.612935761295379, 110.432837689341497,  3.956448321740078
 2.569348203345470, 14.755143980019227, 114.614370429209899,  3.873150241496184
13.174652786361206,  1.181805163516050, 94.342902640639821,  3.992477369973436
 4.495103627960360,  0.211745326700881, 66.691396905156410,  3.651696687637410
 5.016088583180141,  3.133353226250621, 41.147433147503691,  4.339149647065232
 0.824498779161642,  9.560084896238193, 46.525350982589131,  4.022605430070353
11.002512061900177, 11.781953039490960, 35.099697625214027,  3.855521202894009
 9.481228309563337, 18.238964831242036, 62.301091958896343,  3.992482042653460
 8.834170424204407, 15.888417646429611, 91.815771774115220,  3.912436867972197
 6.680612256953545, 10.631015299247732, 10.849804758386345,  4.242027673515908
15.039355150696034,  1.753316281661183, 70.124646030317138,  4.193673115281570
 9.042164166601534, 13.164906070886511, 88.752302850366021,  4.280659641922605
 7.167641576593412,  4.840497000950529, 15.058321034011065,  4.045537935226159
 2.280542323292718,  0.258541891306981, 92.030108269342179,  3.844628055347526
10.655159503084830, 17.348486346007071, 11.073316573284247,  3.795393956799358
 1.028157662981164, 11.799495682582936, 69.246310210542660,  3.736759614935493
12.305593154011143,  2.653527217819212, 97.755641540331439,  3.507398651087369
 4.013737917809287, 11.010043478260027, 16.598958972575161,  4.142107981839023
15.632457329963378,  6.380890185067939, 114.269789826697220,  3.896491764585113
18.829797714530038,  8.161731856105927,  8.066386052961828,  4.137305269226760
 3.874907132029372, 18.127381751405846, 18.395553725061589,  3.597385440017960
 6.523019936059642, 11.097212757459651, 115.213195517184715,  3.920971109870973
 9.625300318329833,  0.160843297939933, 27.402323452553794,  4.121798573225635
 8.094864575876459, 10.175319269467904, 24.000949110291018,  3.950998136736919
 0.032149661907617,  2.560448546480866, 63.107157149625692,  4.410909451778383
17.375527000926841,  7.952510451984810, 111.110348084593255,  3.931441862774866
 5.218541252853776,  1.411577082618592,  9.197734415024724,  3.766698007931585
 6.067339672341303,  5.794183475925950, 11.011382653328255,  4.180906744899253
 1.744221481018804, 14.001087490003075, 76.009745575448292,  3.900133737017315
15.072829755975960,  2.944210196606981, 61.276265784850828,  4.105615579671166
17.606680393360225, 12.001477940272926, 89.311143217659435,  3.903559904131376
16.394595346734018,  0.986393797361460, 66.173023445671006,  4.187341121281958
12.305625459054962,  2.019418266191686, 35.330526670024341,  4.364933679357768
 0.758510342435837,  8.415205060137044, 16.434987095586212,  4.142855107761392
10.245626123775319, 14.435610216718009, 108.467202720132192,  3.762558097529587
16.102183547061845, 14.595074587363536,  9.135008420541599,  4.067831804721528
13.539703231918997,  8.344663878100150, 79.022233349095160,  3.833431304815544
17.421235957786692,  9.457604459573837, 20.143252055513432,  3.885858040734922
 9.028147156826860, 15.551762549498132, 29.074990938071718,  3.778827992923946
11.047084713220050, 12.715181421991199, 22.497014244033515,  4.214682399723646
 2.533308411766280,  1.972549942090095, 75.372444949353735,  3.644396939687371
 8.146532019711424,  5.051626836528433, 19.003451185382545,  4.082788672011621
 9.236149505438886,  6.295009148316270, 59.967355089711148,  4.117019678787754
11.543919919885635,  2.115725477370354, 90.905477199064137,  3.842535894030576
 3.959029242809582, 17.980534897752573, 30.374599434884761,  4.304142111350665
18.275337915688233, 11.653134799652676, 32.540770770816827,  4.260517093964842
10.059739786936499,  1.397149756400547, 81.454985613237895,  3.956295652064778
12.295914368128283, 13.191289826280800, 68.725994918725661,  4.195660542608447
 2.950070429722937, 16.011030138680837, 39.741212664875043,  4.201423206088799
11.518027560619274,  8.453270985080374, 37.498985193953835,  3.994777727387605
15.189160615177581,  9.380368116476333, 30.869636304173397,  4.019925965775404
 4.059777425791458, 13.821375320375438, 43.618856189983219,  3.960946737342534
 2.020221117967757,  6.547664363556042,  4.943382009646163,  4.050731104124736
 0.636721840305539,  6.107180223142839, 11.297494542802216,  3.637056756188557
 7.800592187747626,  5.217076785265471, 81.486043990824683,  4.027694251709619
17.720294005298502, 10.291379319554821, 101.317473710618245,  3.826606041411757
 5.644478347381073, 11.043720406673430, 89.225121281571035,  3.743090870514355
 7.461071527863398, 10.406336720519597, 57.863269172515672,  3.866114888249201
15.360075471643519, 10.043920655403470, 75.864493864957737,  4.130559473366598
 1.907187833767517, 18.112894557914842, 14.347466580752982,  3.929792962166538
 4.565864741936901,  7.396007011178519, 82.326864772952817,  3.941031023982291
 2.525141124754421, 11.011908148312626, 116.107223767041646,  4.168086639033123
 2.795124555613166,  7.649328271667293, 32.671336276841124,  3.690251640253658
 9.311668482305498, 15.894410144923034, 74.951498433557845,  4.244762841129250
 0.848833081145854, 14.899452046884372, 46.126309794126115,  3.911612462472219
18.863490688676919,  4.029516056190688,  2.814686514902109,  3.747367436856655
 9.347111277312147,  2.556916767569892, 48.270547996144550,  4.071323247804583
 9.200592417969570,  9.327526424381254,  2.174919228459364,  4.246477881057784
10.859767888285019, 15.222807139808033, 39.609011781227252,  3.998828142363704
 9.751867348530475,  7.205085037827375, 64.218831517061886,  3.820914854947901
 4.648917889482194,  4.436221392846883,  2.598643839217424,  4.099233354017644
 1.531052590811263,  2.838056440394640, 95.078558982456144,  4.203356174948798
 8.256547584548372, 13.358090344624943, 101.742483455770696,  4.013476891409587
14.396075120091627,  5.776136288734526, 36.309293910420969,  4.170046338159833
13.860205244468997,  3.351325289527996, 101.618465097594310,  4.232538253390993
17.780983509081892, 11.916214355813409,  6.613367065190038,  4.012275194982950
 3.518650951240450,  5.591189739932218, 50.545482550766408,  3.960843556897375
18.233507423250749, 16.900557052343316, 37.942624762449725,  4.127133382462171
11.438890628381094, 16.165814674453976, 65.954998602867278,  4.029818278723489
 9.270069706674908,  1.252669037580450, 38.021989953479086,  3.879943528246801
 1.168017623295722,  1.154735055383777, 20.257114671270188,  4.025418758621695
10.520591494489333, 11.043954985957667, 65.520586314540409,  4.166041254974199
13.888720945346885,  8.500057635161838, 105.408054544361477,  4.066670144563728
18.538166381463043,  2.490628692504402, 43.851480548617793,  4.469462414417280
17.186227983974234,  6.665549624623917,  0.488055305185022,  4.042919599155015
 9.532913989049144, 10.167303507530788, 52.976118825616766,  4.213986241716425
10.746673725405506,  5.813188008871296, 91.954689869348854,  3.971899614022986
17.237884117585448, 17.707106090120341,  1.583550277409649,  4.079626149326323
14.459670965335487,  4.503970627908805, 91.910492458256101,  3.902049014630936
 7.439852848676678,  9.658602152805557, 85.846438434887446,  4.369882108095526
 7.740535409303784,  2.481686201074396, 60.791409966473225,  3.808514988568564
 6.085528028577418, 11.936242620838712,  2.683369692747362,  3.917442294127861
12.313158568045527, 14.981483005023247,  3.515351978180143,  4.202967835036508
 8.152496395206242, 17.290329498043800, 117.519433419784548,  3.929007691777615
 1.591063704696379, 11.554645992243591, 104.001386128103363,  4.312810553078306
15.035275186366183, 17.088999980845067, 12.376368159435442,  4.372294144768672
17.056160575012530,  8.224197294404668, 56.563314315227444,  3.819073860273958
 5.636778252502252,  6.835816867556336, 28.746810130771276,  3.786463336866328
 6.296265531239523, 16.169485036903222, 33.868127662455784,  3.977537975279194
10.694565196694617,  0.447279312118412, 21.861345314129583,  4.137906663486739
 2.423835944745826, 14.433103400271850, 32.847164601496971,  3.910991063286704
14.082036010338673, 15.186244992679788, 46.189976707544631,  3.855312218417455
12.287007818759539,  5.335342570425219,  4.497100063570969,  3.540959048993716
 4.199915732388861,  6.401383658947454, 115.825613910676424,  3.841788252987000
 3.844705478030109, 14.540210102484675, 55.953744513533380,  4.009548314298434
17.572396974283450,  5.849363708654756, 21.648876950392737,  3.908149354625841
 2.277241567139650,  5.050340672108065, 35.721277205182744,  4.375133693559492
 4.411906323936150,  7.560555315168248, 40.387990540216471,  3.790763188326146
 3.251640660557567,  5.650911052319885, 44.398625910889848,  3.898536913253762
 9.137986314269639, 11.617181665050330, 38.711787530189262,  4.153772809854107
 6.446600166080326, 17.373695411597129, 37.752093940051033,  4.069660863456496
 8.013760452128169, 11.885066606642891, 76.142499930906894,  4.337515619312382
 9.202256289522181, 13.594361818139056, 116.622609265609682,  3.926870382744895
16.350229602091556, 18.194595192411857, 19.895339109000993,  4.306847225350404
10.957921468762171,  6.129448509428912,  0.533742797900011,  3.739923777721615
 6.636746871599118,  9.121234844623626, 79.123085509353771,  4.190816525528226
17.856807633961488, 17.562707633585458, 69.143373144044915,  3.881106431385883
 3.645956533938074,  1.605135388265028, 44.786521757591075,  4.003918749282402
 9.792116481046071,  7.496199399024539, 11.436887259833336,  4.047869454785570
 2.901336589029458,  6.045924939622932, 22.391826963149558,  3.893749115292760
 1.737639970685271,  0.791312678526887,  2.069649367745118,  3.764273706632084
 1.148888663296731,  8.719190871164871, 71.822621660705593,  4.161135553953857
18.414143535195524,  6.678158796779567, 44.162169534176691,  3.897202008166018
 5.634820289673947,  1.212719638379112, 27.156657527372264,  4.092734722021666
10.710235843163940,  3.261600831465647, 16.365941837359866,  4.046433923008535
 3.162971974180602,  4.554948956408135, 65.379248523668778,  4.180310090750542
14.594540317947990,  7.832131654222884, 101.425607930674758,  4.080759791425471
 9.776397551222288, 12.897502923227144, 26.340436821596718,  3.888532964471572
 4.003022166275786, 10.878161909654603, 23.632885943835422,  4.074143322386055
12.238891854861366,  6.634302428822843, 18.319769902876256,  3.906533054552962
12.426746231477932, 18.545498417368837, 72.741086695742041,  3.801648404660508
 0.743534630211667,  0.572784774453684, 72.057690296815849,  3.913529714348396
14.604805888814019,  5.998336602440238, 25.687987015125220,  4.098232723316221
18.577880498465298,  5.971193289622301, 26.175979381960822,  3.839554954857566
17.178610926442264, 13.582422039343582, 82.312063639306700,  3.882868082832502
 3.182524303206716, 14.006699177561016, 97.241347339939693,  3.773731709042277
 4.270295236659024, 15.630103553468150, 65.189605192316009,  3.989409704729665
 1.222175883610277,  2.763137234512336, 89.244660211546545,  3.935888452382839
 0.267046365271191, 17.926979575358764, 32.520946515516059,  4.227413381441904
16.523014780296652, 11.469714578945588, 54.132539743670257,  4.206491199006032
 9.594476296864427, 18.193992943135100,  2.866741563072323,  3.854234231517928
 9.758853224158301,  2.381001602123642, 100.722177577262372,  4.281102862317404
 0.291583406399142,  3.274270257622131, 78.135763496238241,  3.929613042560653
16.566930252449222,  4.416705574981906, 88.490184015248389,  4.082403849640476
12.606730628587735,  4.367143846188089, 113.455539469432367,  3.489656917902948
16.865039521897774, 18.400411079086318, 55.450323703440354,  3.801675933232197
16.147313591610768,  0.020824245884181, 73.589889707607256,  3.848470263415734
 7.986650511430928,  9.252630220354389, 17.601618589747797,  4.136447876094473
12.066851795374703,  5.405581067708290, 81.634206744581604,  4.418182124079756
16.120960731894701, 15.638031553676655,  5.141877817639222,  4.173729423778619
14.475535554574240, 14.065764434471285, 17.495833884199634,  4.272820505157404
 2.390974268130998, 10.494547986232325, 87.107685563761521,  4.096818853462446
 6.841820335719834, 15.728497220117287, 106.862539706080227,  4.149504745775292
 9.168232373120082,  8.551963409044797, 116.534664310248502,  3.853963839026665
18.353074926008595, 10.375175748770292, 50.096570939745419,  3.821882265346097
12.806085549940653, 13.091850440555870, 53.133004093193414,  4.125359434935581
12.865084948494736, 15.055182940880020, 29.326160661188986,  3.905809034223838
 5.536711810243529, 15.333534133152275, 76.846698526280449,  4.269057058272577
 1.284183057698501,  1.886907114179246, 68.228059223214316,  4.213271950687950
 5.156450831369029, 13.135195396641063, 86.110512986727642,  3.786353710337667
 3.731440689250444,  8.402104038312462, 64.113848354289956,  3.993539197624672
13.633400596102037,  1.916283726727331, 83.336216391285589,  3.890293570296835
 6.872742050368734, 14.725095744301752, 40.816591232274170,  3.988285572861168
 7.518722994208349, 16.246343012429801, 86.432395711089868,  4.012465622718048
12.453022600658652,  7.586117075870837, 45.743877059472588,  3.883767975040008
 5.274210777001277, 14.955954942836817, 89.878878025926412,  4.195617492921132
17.980827210654905,  4.380889237606646, 70.621956494866552,  3.748258045575955
 4.726211511437576,  6.800763258220718, 17.575178883387139,  3.945773311060667
 6.280702761867581,  7.963305098899908, 21.142237708209652,  4.049476956996778
 0.063333545702951, 15.291283653543386, 12.063696450102228,  4.212211710031780
13.477029915496965,  8.814564272151710, 97.567275747163947,  4.048218783446644
10.815967768780414, 15.650639557723380, 14.596396147992184,  3.944622460078524
 1.330870000193435, 13.492745553629623, 36.677383555016561,  4.131054487191652
 6.958508198312332, 11.972340561324247, 45.740831538386722,  4.104442763818739
15.176697340095625,  0.164967357920548, 97.699540233514909,  4.037830494913764
 1.750727827231336, 11.460099742101683, 54.214707614782625,  4.114759537922518
 5.040061397866006,  8.435437308828094, 47.102775090907187,  4.288240121097353
14.643387260505188,  6.391082726390946, 54.203111963180085,  3.800604874097332
11.583931353863548,  9.854194766957928, 31.903115441800004,  3.522476680329345
15.627740751080189,  0.430321991795705, 111.380923386592343,  3.692816687182102
15.663727383514519,  5.863267783330802, 50.478527227797834,  3.969206859302190
13.940899209257612,  7.323145370413791, 21.948494551976161,  3.942460845870384
 8.735787056078268, 15.871618123784632, 21.265520105720299,  3.976773167188236
 2.141137930477676,  8.271769866254418, 112.862881595131739,  4.277160412424021
 8.480291023847373, 17.585328707156901, 78.620005576579032,  3.937064551937549
17.109849783102295,  8.072336418654103, 80.288189514578178,  3.750923713525859
11.215674561406438,  5.361941104413924, 67.434131005016042,  4.147561754237025
18.518810423392807,  4.720401178098981, 14.830105288552542,  4.236969866282474
17.268023178343078,  0.483196419722513, 80.039507291019319,  3.669702758579724
13.660190879800943, 10.926613141954727, 71.981641273712384,  4.167405061564335
13.456032389754265, 11.958292231470288, 38.231282895149022,  4.082858480006665
10.300970127190640, 15.008021831446921, 95.161374824272286,  3.577062332363326
10.280170661325542, 14.806738215733716, 32.679163873723446,  3.989069601873793
11.316337989686902,  4.424234926250348, 21.425197095521110,  3.936569108446212
18.448860969849807,  5.089567426504941, 92.098696620695435,  4.151993957850774
12.186554922775391, 11.866452456878154,  0.492010159459699,  4.152155178121763
 2.465944617524846, 10.803143652816127,  1.813431168954954,  3.844313511809306
14.834842092889819,  6.012525218913640, 69.148812195570230,  3.924521871607333
10.443495015476676, 18.098474254352706, 45.783825743288432,  3.814670846478049
18.077332708792831,  4.091189802366512, 111.830819339190114,  4.008315068768169
 2.261068023580878,  4.742938384963089, 99.346767154457197,  3.587428224857485
18.821942383004977,  9.014745337417111, 40.963491436103766,  4.017938762496101
 7.943662639396901, 17.901036980275538, 65.854687799457849,  3.723359009930549
 3.495241484461412, 13.150133987636686, 107.655947765033417,  4.023657913679214
16.799771479294940,  0.053005366674087, 101.520160876168234,  4.258961528139985
 7.574220147991940, 12.814783469344562, 15.459142436868721,  4.130173957955879
 6.319396469866242,  5.962843768706802, 76.507681621298374,  3.949015727290396
 3.964920677920624,  8.041108057572899,  8.276764977433938,  4.002433893122530
12.065106877323000,  2.720581173480689, 25.135829146547263,  4.254885892217830
 0.974416618902002, 16.771052113689201,  4.381680017767935,  3.859718048374772
 3.430211898599025,  5.713288095971288, 14.047886068332790,  3.850570443979343
10.930729090388580, 16.337156986421743, 24.634836983615013,  4.106643383265324
 1.119346064101594, 10.727621548334490, 61.679199929695955,  4.330950999951335
 5.846719483201212,  5.225627005264299, 37.752387520023504,  3.798451460906817
14.457318524274076, 11.977513652320116, 80.019765190165757,  3.907669635079997
14.451190882261358,  5.328663735427045, 85.157765389500668,  4.013136619785495
15.021989218929619, 11.884846059407332,  3.778524813600208,  3.883418916620858
 0.161983396914737,  6.827607577265501, 49.129459404054650,  3.632842012837153
 3.023930086412948, 11.756941014386525,  9.293229847518596,  3.926278760505896
 4.462702858161219,  8.956822643363784, 92.221424249937442,  3.913324783947836
 9.322336728924968,  3.825567834889424, 95.917820697198039,  3.834927545749823
13.142220445898696,  8.486940176247991, 116.734026228040264,  3.835826828924136
14.825847277437592, 15.489227805079592, 39.580863811048616,  3.942123975651416
 7.819780421010942,  0.394163384480766, 97.608017975871945,  3.584077395873539
15.327931664139799,  2.393295583131846, 52.963683204680116,  4.230929652703595
 1.698189433630095, 17.643295517379443, 57.216913591222649,  3.881082493072674
10.929207183413702,  5.473557418469940, 110.548021290214777,  3.578114926452344
 9.540910935398628,  4.979047081718522, 36.433123300640574,  4.018015116252013
18.272618544534300,  2.509991728094862, 98.573769533269569,  3.907285966920003
12.776322574311674, 15.613399428362900, 49.871014170507017,  3.989519481020875
13.811935544967259,  7.387267254289640, 14.958839171243955,  3.664967534329198
 8.961521414227104,  0.852308105215624, 53.130776003973239,  4.041511209700956
 3.425678984381271, 12.365518192000543, 47.812317679130025,  4.039909159391391
 6.870328892188271,  7.152700704106176, 89.399066380054506,  4.327022330712313
12.663904235281104, 16.067868585954336, 20.632962524775369,  3.948221758412811
10.103424218719129,  6.800859161656259, 24.322544924645793,  3.888553743832821
 0.306755143315509,  8.900652493023134, 23.605008358259123,  4.009304630271337
 4.614143658134061, 18.457001141508446, 87.926736837924537,  3.875850172453682
18.895765361259688, 17.463137500026548, 98.195678441566301,  4.138026914541417
11.311015562573175,  8.756081862213879,  5.592703503081494,  3.854443394426061
15.037457606212826,  3.669103109705123,  2.535291485948136,  3.954097184851647
 6.480916385878722,  0.655710323266091, 108.391906288349574,  4.171555075862817
 6.424361093113152, 11.043880210774590, 65.647383010589209,  3.829650465324864
 2.502019200209865, 16.962243455486970, 53.040519856362728,  4.002994625289569
18.762188094454153, 11.876617087560454, 113.109746250965927,  4.038309569115238
 8.391085554267580,  3.002743750197804, 78.177655689276847,  3.996559725383218
 5.989403799838916,  5.834406623403322, 33.888802588392515,  3.995061392873462
17.055213023257316, 15.617134890121042, 58.937690172506173,  4.167954398743476
 4.204645598353377, 13.511390479180731, 51.632028712886033,  4.052973000788323
15.172797841745290,  3.723063356256958, 33.001372967954133,  3.737227135448696
15.718907556316346,  1.832230448416585, 76.923867052710904,  3.741280953118046
 8.433192657638727,  8.797164492114151, 92.753454172243224,  3.737313556127825
17.596992305510124, 17.306532246530058, 27.582382325932222,  4.249137996718120
 3.700802669128613, 12.164725620206541, 78.988598629814646,  4.117957921628503
14.320694168959285, 12.832782379591936, 84.690038469524353,  3.702414126836586
16.227082511274777,  7.305240309916532, 72.780000881216864,  4.255911770455473
18.002911843151082,  2.167670918062504, 117.832658756641095,  4.029931519038596
13.095870498327265, 15.188924438926311, 61.807681488620375,  3.900704747583692
12.752400135099759, 18.832324218319094, 39.202010811334894,  3.948284233913229
17.902057764511451,  7.936855258795136, 104.553337079022725,  4.136662421532581
 6.292003923066660, 15.307582082002599, 18.298473882714724,  3.793027190539903
 8.206965339022339,  1.262047027731428, 69.005048902952254,  3.799366161917707
 0.570217713005465, 15.510655718717222, 92.341729893338893,  4.024612610377893
 5.720211008779542,  4.265165685994587, 47.293042691440419,  4.151433163493137
16.832567671989967, 15.338878459817385, 43.217975068071482,  4.234689484503154
 2.282031222446376, 12.961477099706100, 72.482163255886448,  3.523646806758406
 4.692227621140085, 16.416747983191538, 21.705280609899475,  3.985186079665007
 1.645365536743879, 15.831199595618319,  0.434690606481630,  3.889096494617329
 2.709697168518919,  9.155247830964807, 12.290595072130920,  3.991025329087214
 8.023971287043347,  3.809757982948427, 104.097950795030130,  3.697712004859698
11.431122948195297, 10.876297993328183, 107.527757899933761,  3.962352600577953
13.830400904547682, 13.178903897199012, 65.043916160472904,  3.764972234476800
 1.004335571974466, 15.991031360738983, 20.046253242768412,  4.096829256445925
12.694081277286571, 18.318320331131972, 101.034184945607024,  4.077258417055911
13.879409165825534, 13.625014641501295, 25.639128222586258,  4.129486534132858
15.698694712724507,  2.160053182576227, 37.784137548125727,  4.002913161446262
11.405088687068062, 14.678829171041690, 99.567828848116449,  4.039743076734380
 9.232401688065050,  0.405642072736833, 93.882928173920874,  4.080238898814080
 3.407444538013650,  4.308441196735786, 25.878416317920117,  3.945789707114919
 5.865213070152516,  9.817231289984429, 102.149251594881505,  4.151145955144617
 9.693548165685559,  3.201895900222042, 107.661470858112224,  4.151557954527157
17.755917969262097, 11.324722277334459, 85.454433840098815,  3.902201530640546
18.151599275890327,  8.934430882804852, 115.567520319211809,  3.716981461638065
12.805439645637710, 15.651920874162832, 35.976727537768944,  4.241424624582240
 2.044932438039835, 14.475856894688112, 59.639636627856973,  4.116581604743416
15.605988020725306,  2.445719175302482, 11.452069180565458,  4.028544501135516
12.164237270421390,  5.862504789344928,  8.386409352932056,  4.308965539139979
15.587090379029382, 16.883872168299149, 116.535273933557335,  3.591573752863262
14.068189869908004,  3.300094448547789, 73.769411586830728,  3.924785890168361
 1.117484298957391,  1.121566873099489, 39.977642200916506,  4.198558162202844
 2.185546163812869,  7.083157242135554,  0.823298949878436,  3.839138383625354
16.723835526818370, 13.893353442266019, 76.341904700764957,  4.032215479588491
 9.491124303853473, 11.333072565020881, 95.486739393040921,  3.958439889983888
12.510501586329665, 11.213156349526070, 28.563719784786031,  3.921705979699211
 4.818738902586493,  0.679105278472586, 58.715530931368420,  4.066769565306495
 5.895931230931385, 15.058939615685084, 72.638451836434015,  4.128377207458965
17.335565432357186,  2.651074450863472, 17.994656601248781,  3.683827935646015
 5.706507581272738,  4.736743828951381, 58.178868446409972,  4.161092971725865
14.813451685023345,  9.153910371751596,  7.552984433209549,  4.194873269505049
 7.639027819059021,  3.330327841642664, 23.278717682004455,  4.533414456405259
 1.867366006483667, 14.436104793873247, 87.529358831133990,  3.766305343868059
 2.489196145022558,  2.524856404834658,  5.540381047030906,  4.126005315702623
 5.731678933115588, 12.814116937660209, 104.582562674138018,  3.568182991309329
16.558504776264787,  0.444220062090322, 86.312063881629328,  4.103196859702519
 0.847272831470650, 11.948407940833842, 14.293209755519728,  3.750695027236008
 4.587767553756290,  8.914666854098883, 108.879580705173325,  3.996282134436976
