BANDS
8 8
NANOPARTICLES
cell(1), 18.955
cell(2), 18.955
cell(3), 118.471
 1.697992900499305, 15.774047470793860, 112.362296662429657,  4.086075210564017
 9.960255233227690, 14.751024391688297, 91.751844001539837,  3.792031817656583
 9.406279684919754, 16.352060403617866, 81.700888428413620,  4.121885827106349
12.945926888480820, 14.180642406676657, 21.471847132530687,  3.657022668065471
 7.317594688918963,  9.964589649956611, 65.232319337899341,  4.020448019962019
 8.041501733804658, 10.447755378370895, 91.878431720796840,  3.800403603258148
15.685815861736232, 14.188690863435502, 83.776951757185259,  4.081626845054712
 6.944892767594156,  5.240222855556753, 88.789802306775869,  3.999742292601224
17.874616952863423, 17.684378137779458, 117.515772926329234,  3.792360257297205
 7.112566612166892,  7.900499341585455, 69.979222292322206,  4.057675751851971
14.829583764224745,  1.221023976912047, 78.742751603009765,  3.670206294096241
15.399815319923027,  9.844758200535187, 103.591364482382616,  3.908017112887927
 7.516901928365421, 12.613455170463315, 39.880422315738812,  3.983322939220857
 6.218130030362818, 13.807342163350606, 90.769742139939197,  4.145551922108449
 1.916988259217991,  2.948318489266091, 19.268589066624926,  3.919321930833836
 2.168300114015830, 17.056234848418498, 64.061066605821367,  4.058074883243829
 9.615650299181368, 10.328634195120392, 35.461001527705648,  3.877787138629182
18.690269180748764, 16.971780672290976, 78.009355017714228,  3.906488202128311
10.863349778691099, 10.606210332171445, 39.160949155635109,  3.943063288363187
 0.556089793339201,  8.051346300029314, 81.152072349879248,  4.060465045383399
10.443649061151630, 15.187668444934809, 65.118229222731614,  3.932006535102004
14.888654618195174,  4.055616854218205, 93.308889921044880,  3.973401515732232
12.513842803206705, 11.393642327674677, 50.395023897589731,  4.345935938601058
13.761840675677083,  8.355788660705976, 114.553301327472425,  4.003077259098854
 4.349229755040681,  0.109339643297998, 82.948791033316041,  4.289003807959301
17.804507352404769,  2.786757629143585, 90.685140317798229,  4.252147197113870
 3.861095988973167,  6.761819169079651, 37.850805417815451,  4.069931334158848
 2.705611235189016, 14.887159367527694, 20.584195546458748,  3.942150805066330
12.882644005386419, 18.547977726883477, 52.071980104170450,  3.787863699688897
11.412601602888268,  1.020892077949357, 69.820281083509229,  3.703768247603868
 5.222750216322603,  4.831855738056520, 60.160398282840490,  4.509722301071938
 9.453167342329854,  7.012992770643698, 28.919522778042502,  3.864993191120837
 7.569996286160134, 10.414453675742836, 78.508261456583469,  3.773641201338223
16.104562786583333, 17.177951927556457, 80.884647667129812,  3.837598737022587
18.855312387197916,  3.865889392012425,  4.401213014290978,  3.954551791384321
 3.758180181327334, 16.940236779749402, 89.863852746589046,  3.964224204763240
16.802228071580892,  7.572163323723284, 67.768045343512156,  4.310700508135311
 6.646912731030618, 12.561080541689222, 103.033570939548014,  4.042560251514341
10.213874427775112,  8.768984341590819, 107.951139729191439,  3.721159331964938
 1.467246428412956,  5.625613951933476, 91.442722197419400,  3.529955889061990
14.046775508171390, 10.565430495237909, 83.497767652865036,  3.802259499813335
13.314850772868111,  7.501980233392311, 52.192839647017628,  4.360724151988264
15.466003363620631, 17.385825071313050, 114.527058254371340,  3.900309872842320
12.546034140248116,  6.451188267460632,  5.815354159866835,  4.147529806880210
17.035083672221873,  1.971942041422938, 111.068976925095171,  4.233107195468130
 7.159554952825063, 14.924559261680827, 70.275770141837967,  3.965181510155913
17.311586297547461,  3.439631152527501, 68.046349859201413,  3.975058457383922
 4.096856162237100, 14.576638054805239, 40.514699510612935,  3.999094012304294
 0.606071813531130,  5.586614337387996, 70.665511005572995,  4.115954992519898
18.191027996230790, 12.795202525371433, 37.293511990995405,  4.046992223880107
 2.053727864891816,  0.617152227578536,  0.381656151616367,  3.991584181624824
 7.128713631318981, 16.422504480933895, 102.495836871514811,  3.809715006856489
12.776853719972884, 17.471407690875246, 23.493031590626796,  4.070513798952718
 2.345199337817964,  7.855039185516573, 41.512088787388130,  3.923856563448776
14.388671331724003,  4.444988687340571, 39.213910362059956,  4.030826126154756
18.326124407156659,  8.445646045898558, 48.323810628047298,  4.088833237680373
14.607817890876245, 14.467282811627275, 18.023787716254830,  3.873161615425397
 9.445831382885512, 16.541263362109156, 99.229427233921626,  4.172823652869655
 7.442797053699182, 13.640271810009827, 16.161993568295721,  3.830098448324979
13.796912003847254, 14.632045028856231, 72.035033320720927,  3.988924297579500
 2.978208372316652,  8.004056513961133, 118.374427969151625,  4.098193095447214
 8.749956281354024,  6.874682150761133, 34.072443109264434,  3.754910044186848
16.786094517049705, 15.083565282361173, 87.872268611031927,  3.905686156612052
 0.087821642202368, 15.526283447903472, 17.475106712899979,  4.240777795060509
 5.315242546139531, 10.190003756578145, 89.203963610126891,  3.791314243078993
 4.525496601482871,  3.191388922753715, 64.541219684385254,  4.592059612219392
 3.278074200576753,  8.717531599187739, 47.526400113221257,  3.764351874392963
18.206447676604135,  3.443790686895511, 25.301630403560438,  3.779259216032421
 9.305922052066951, 12.572110945047225, 25.999900853368846,  3.863116010561406
16.644572807970427,  3.826116382634893, 100.239916967146527,  4.023590155752096
14.465101976918570,  4.309109787419790, 13.510973017128810,  3.853590213493788
16.316745417734552,  5.331814350880266, 73.195445023872182,  4.083544788757441
12.331117773480832,  7.612890027089961, 93.909590299361653,  4.354400151116126
 6.580415237563467,  3.956371071554095,  4.586238021649629,  3.873933836605644
 8.462518915232865,  2.602618175439595, 91.439762559870985,  4.038068757903315
17.471175678858796,  7.106961281911044, 24.570073378551061,  3.832980814152901
 5.503577493881567,  4.530288278928364, 51.453728664750869,  4.076923980620663
 2.995118038974268,  6.239107652594511, 110.169767951354203,  3.806311680433213
10.736244342894066, 10.316650553886028, 16.239565960027790,  4.190391723702945
 8.811144833801739,  4.360096069593159, 62.821854881423100,  4.056769841996352
16.827223154882002, 12.231385832315922, 106.362946089245625,  3.924207220021829
 3.620824566938450,  4.989467163556590, 15.618568017851464,  3.959530299122807
18.526111589095848, 12.076796334559496, 102.499207820389344,  4.019578345332906
 7.371530182051390,  0.325718239554702, 56.612750958548396,  3.930857209302240
16.123847833892064,  0.783898343631006,  4.427839902040190,  4.210768766118361
15.786829244706142, 18.213649005196615, 17.103966091826493,  4.173324056006763
10.835544679331301,  6.816825323294053, 37.683844892567969,  4.084827636702108
 9.784017460509752,  7.516693005601127,  8.679833788183100,  4.077104334716577
 2.727634694286257,  7.076051413407102, 77.841698530622395,  4.073534439775965
 5.662250228827340,  0.774071065913890, 74.796318315719702,  3.842195004848134
15.815046002952741,  4.526175058838670, 108.219975731495083,  3.715637636648132
17.588040450469634, 17.141140645289944, 53.100316429434002,  3.370581848476722
17.890844238395974, 12.412454092628950,  3.990637611427481,  3.945440569640690
15.223670450993238,  8.002230857123394, 98.560604097384214,  4.142780224834714
16.333305104019107, 18.665855882491016, 98.620528745256479,  3.677955823514867
 0.123041015882929,  1.280281593381469, 54.285251736072347,  3.865014695943148
 2.450273042708828, 18.152117674829853, 56.740999283027058,  4.081490662454466
 2.872689121735979, 11.300652947936658, 27.113796243437669,  4.165388224103484
13.702290412870827, 14.811843624442112, 31.197527220345030,  3.971697041781517
13.942686043123096,  7.204638085962401, 61.766669024681896,  3.847163967364999
 6.223402174526512,  7.354459371497479, 54.210193776970570,  3.886088331144168
 5.298821238205539, 14.759430265655270, 63.068747315064591,  3.933328756126957
15.105880573749285,  2.178559764266847, 64.988849977650688,  3.969240034755072
16.175198978739090,  7.572744864073249, 55.639092046501439,  3.934744123249359
 8.164810222220254,  8.782910227868474, 100.276867521342893,  3.920212383537689
 0.570231965364634, 14.849829231147183, 49.939886233032006,  4.136634985597242
13.592576944874828, 10.896839643415296, 19.514801042715263,  4.085896256761071
18.612637044277712,  2.410077514767261,  8.447033044115894,  3.997436860464111
 0.489677624118163,  1.941424420827816, 98.228152570265394,  3.822057792376047
11.246747455530395,  0.903071315873846, 109.049512174119513,  4.142769669114945
14.390053879574381, 11.270586283989783, 96.064484680650068,  4.056776887273847
12.326325696715790, 18.002416543374490, 105.177641225393373,  4.041108602483192
13.526150091565754,  5.110229531574067, 20.232110351300427,  3.929872429818886
14.680567011938724, 13.437780544216327, 57.936129763694112,  3.948751959394793
 7.026446309859916, 13.899246201507404, 66.460343339927121,  3.849470515222851
 9.224316375647083, 18.759616582221735, 24.543464878069653,  3.753931508556141
 0.730608386669464, 12.770876858218944,  0.251570782952340,  4.097170803127228
 9.676967163357139,  8.274753256025765, 12.735378131080109,  4.163404930965648
 5.658661334872255,  8.015542206157219, 115.542574412459103,  3.690397419051209
 9.955643202152945, 12.974572786049631, 72.806253715102031,  4.126528012915671
 0.593829998883918,  6.403434276458087, 17.953121023687924,  3.928365422659792
 8.361880927665005,  2.445301429176306, 53.344016460862576,  3.932454775171434
12.120668916796044, 18.458014560194830,  4.440153857428997,  4.148580342808495
11.253145839531649,  0.788672058084305, 55.620461977452067,  4.086860029674634
11.713944832370075, 15.093718754220324,  1.217172352880640,  4.058422263748871
14.354199589894714, 18.262225034894051,  0.901261936666535,  4.205876500265004
 1.464925369044652,  6.765206904179733, 27.258953331732105,  3.974593611484065
14.882599993642620,  1.575314780250150, 103.716063559523079,  3.579870711384838
10.838470733578704,  8.034915529217082, 63.862073070654560,  3.767823140300250
 3.137227514712150,  2.426588466374707, 72.231259364606174,  3.856804143032635
12.540281519385571,  0.167770393818805, 33.935758389079524,  3.926930697640672
 4.098310230837693,  1.683704562804335, 54.060075581112031,  3.936647736771684
 3.967975361991606, 17.548550472931129, 28.675243391012387,  3.843312821061686
18.290992766682439, 10.905134133647747, 56.042624577579005,  3.990767355642680
 8.438669448456785, 12.863255544273370,  8.266575087031629,  4.262405698701858
 6.376434053965857, 10.683330656627465, 118.390219247715052,  4.046107192976897
16.721699512074832,  0.780247055232736, 13.418377966654047,  4.009294248926859
16.987797446788953, 15.195859407317068, 92.776692008161831,  4.471585080967941
17.923705750595147,  9.892817061349319, 27.317239243010189,  4.020555294605386
 5.895006203357316,  2.857980028353574, 18.274429172390690,  4.191228651332048
11.481119536872450, 17.150140613690603, 45.932701871277040,  4.034869527221709
12.894845928543521,  2.662299411292761, 100.750029811075592,  3.857254106309972
17.353950094624530,  4.142368234887371, 57.127286022072333,  3.894221610439797
16.098732062693564,  8.637177590445106,  4.649424425997203,  4.503490972797425
17.498794256278206, 13.493774008602706, 53.173721696772084,  3.896851371352374
 7.313651876897673, 16.337242824465374, 87.760490909135996,  3.997826492241840
10.182438082991103,  2.715474909251630, 87.761488405069898,  4.010857368618265
17.002527400026445,  3.306824920981306, 61.583047654656568,  4.004499037155451
 8.620412011485488,  6.151981799552872, 105.668075791195960,  3.909856590170679
 2.298458586024819,  6.721140516282138, 114.450105677896545,  3.825689179803982
 3.893960438261168, 10.518956668053216, 20.678058697741466,  4.078167548918482
 2.486014796122874, 16.459757838581385,  8.700163852394859,  3.780758159819403
17.984084536759205,  2.006299474170196, 105.607996299614925,  3.620878907428755
 0.178490726768416,  9.214346224893998, 91.854403638711034,  4.115725437117788
 0.139721939887599,  8.191181418129286, 30.866130914752791,  4.172195731848047
18.720478858508276, 18.674158782370469, 68.346712313285181,  3.972524294573539
13.046295189736556,  8.938064911795086, 110.634435291774039,  4.003366777258902
14.841076354182977, 12.533173652202628, 27.979818175672790,  4.187590949892352
10.620323666435157, 14.654730754837727,  5.146136764188865,  4.143631305644804
 1.733452957362678,  0.195195704377325, 75.262284810626014,  4.153031452090111
 3.608437191256630,  0.949607893660376, 115.109151964906189,  3.930358877702444
14.067892260742031,  8.523877705409074, 43.419408302072185,  4.015409606184416
 2.761815327455223, 16.383324391456448, 85.926532924717065,  4.221687879801721
 0.384203610315258, 18.724694156246120, 42.944818001372631,  3.990802895337433
15.160066975620623,  4.753662105107483,  3.133150851759672,  4.020072922127853
 2.474894032632945,  4.569072998407227, 23.657404197341627,  3.779189875508195
 1.059238481987716,  7.274142242497159, 56.976012881685406,  4.046367190674995
10.506583973853935,  9.472540356887057, 31.901161684137552,  3.586894027087901
13.983884672834293,  4.366582297793292, 48.456681470878564,  3.758366100384325
 9.612348909346588,  0.991436207717430, 73.666020293412416,  4.223624556051268
 7.313773240276931,  2.168411548951168, 67.554176952188271,  3.864382034688132
17.219186685675705, 13.361829731122448, 77.701630832575418,  3.795997727179501
17.277130747137665,  2.183854458082295,  0.751130338476750,  3.924091450696690
10.937817532603646,  2.770422693734732, 37.995023592531290,  3.961930178621978
17.269350133705366,  5.714733763384999, 10.830350743083653,  4.222834101667487
 5.942925480251881, 14.419321345559947, 116.591442985209298,  4.008350292565002
13.146096651751623, 15.853094427753271, 86.566397850069606,  3.979912316479111
10.428006622780224, 17.929236687779134, 112.631182858181020,  4.003951593152658
 8.759803583339501,  8.679238516570189, 88.596743548955217,  3.765850706875164
 0.483884060407302, 12.348657644181248, 46.578977130236254,  4.223996154750886
16.335122062334996,  7.050694873016551, 36.865928225358836,  3.903546333487772
17.040079283766389,  3.379652788845198, 35.296495089885056,  3.947467668529270
 9.056784097200104,  7.144801366214364,  3.698236394692620,  4.000970201079980
17.415938185689317,  2.861492617818275, 41.280694153074123,  3.917887350918885
 2.932463138769011, 12.287003815719526, 92.773903719307739,  4.108699179094798
11.697272313438299,  2.134654379513488, 22.148366250323157,  3.942580242080360
10.984501753202862,  3.621164722369290, 94.498964976962625,  4.139939092438170
 7.323157709482216,  6.652398519226472, 17.105193179524477,  3.944899646053663
 3.812064774014328,  3.158086419145686, 77.384026829565457,  4.108247593033942
18.823403823051684, 16.073269215175117,  2.501813089464038,  4.062970755078815
 1.442107337756196, 16.186279354662936, 60.156857501614951,  4.044718341389501
17.827787831525789,  9.217440636144103, 52.360105470524459,  3.981930587636893
17.482281877361238,  1.015749094231339, 94.888612314999079,  4.135935404544604
 4.939214579948666,  6.004609597384091, 95.653120920617411,  3.672659486852539
 0.645346078472440, 12.541656924826782, 14.467788629125147,  4.297886656254504
16.838801564592746, 15.044083901402228, 111.814342012675937,  3.747041701144232
10.406299826600263, 10.112993553449746, 75.766698801947015,  4.126836605648372
 6.713941832909073,  9.677076063064030, 10.121445186448652,  3.853475092278297
16.724707660443009,  1.200662406515850, 75.457782212632736,  3.887326950178496
15.529985680281658,  1.721249482291676, 20.400313903306930,  3.872838387387398
 2.437100511560878, 13.917896893053348,  5.486744530749974,  4.237676640070640
 0.948047578224504,  6.598356436534700,  7.198318515591463,  4.119548028974124
 8.675653628447520, 16.219466375502414, 61.853420541391650,  3.757402372530400
 6.642220696227232, 12.735589616766495, 36.050181354970618,  3.841323847312033
13.511276257980745, 18.650671766063869, 30.123562296125218,  3.990106593704558
 8.131557098751383,  6.538077136999992, 93.206331819614874,  4.403806697593049
 9.948134809645493,  1.754040728076282, 98.115389793485292,  4.198282267362703
10.675893802688634,  8.083496940287757, 19.740915652127715,  3.989346968847177
 2.747226348713363,  9.413579322768129, 53.870567779715202,  4.197224598082975
 9.913616885433900, 16.197646945124877, 12.025155125710958,  3.990818479695514
17.390896119264376, 16.757490460492924, 36.719519300227681,  4.102486378212266
 6.829588322130006, 12.944021824005386,  4.250081414502094,  4.276185368313747
 3.502775820919468, 11.153546360319561,  2.650413535511329,  3.904570455112811
15.907645286200934,  1.427706456008286, 44.912596358470267,  4.415175835202457
 0.880960831593185, 15.872678980461540, 95.770805848580736,  3.881525903235410
 7.171832460958225,  3.702705847277264, 14.495495226229856,  3.919414920745464
 6.297265120477106, 13.727128704551507, 20.070899813795503,  3.648955971988929
12.475118841088337,  8.304639312920097, 56.004334886744346,  3.605222932553828
 3.677457134321728,  2.461076271491048, 31.907069098587897,  3.940138519125176
 0.339365340644117, 15.608549732957895, 40.040984297502213,  3.841355002934151
 4.779023424454326,  5.454491498691695, 34.192064782784414,  3.803539443314749
 6.739724090180573,  9.755872175964958, 27.312065252299298,  4.166522727916008
 3.315585703830909, 11.119920530000959, 101.054592107781730,  4.216600252504074
15.559500395803591,  5.473230269103190, 84.437495240299498,  3.663491832944975
 3.804191364854646,  0.070337511060767, 111.287954622702600,  3.896230850045848
 9.662907552744246, 11.105617191102811, 42.803874772689042,  3.785922297005577
16.457182418631014,  8.214072714981590, 94.637222703797946,  3.843324013134220
 0.508849701352842, 10.263666038027994, 77.915504924287902,  3.671498839587199
 3.918141416736999,  8.763673188862985, 16.985607132998627,  4.057658594261199
 3.240000309821478, 12.809095480141524, 58.804213412661717,  3.956293306180736
 9.493547063288224, 12.859535690678319, 117.293975449789031,  3.852932318883927
 9.246752124387051, 16.719815858590113, 116.874152843463094,  3.919735648294513
18.435322191178400, 11.806667403637498, 95.155322756640402,  4.248242263555496
 3.848322053239120,  5.691539161056738, 74.283467908515732,  3.882545741831348
15.312024790586527,  0.362239608927609, 55.076435779137626,  4.045976775823221
 3.000956453358686,  5.461033671648968, 54.241009569858313,  3.573817080430620
13.615422902489588, 14.187082246681625, 90.265343006819904,  4.175356953049705
 5.028938266937184,  7.575429961570266,  3.832503399350418,  3.902707333619579
18.303251519916540,  5.688297922106885, 110.716981644419661,  3.637176995672827
14.946166066096522,  0.907267695242309, 107.489803930286087,  3.847326697879114
 9.456503093072717, 15.721219346053891, 22.062896055473882,  3.943551772583566
 0.204918276431075, 13.600707014403225, 109.172556971825927,  3.817314822277007
 3.007748812780722,  5.831167068830629, 87.902539214973771,  4.136694358791013
 9.823591319059615,  8.710536833391311, 117.297713931862958,  3.974771418146069
11.885819449942964,  5.905399936465683, 31.881945343009672,  4.052932124580084
 4.178137439406911,  8.490709658566365, 67.280960591074475,  3.999970351829474
13.529930860860132,  3.091255951519113,  0.007136964438789,  3.729552146031420
 2.152394342342450, 13.775856783573744, 78.453003268254051,  4.139193610015628
16.800311253388539,  1.775173784604047, 28.705472656449761,  4.260979483826969
 8.073731529807564,  0.830855953170858, 11.818941054256976,  4.016834441936342
15.407845951684664, 15.980650489596300, 50.087484655636374,  4.389680461009809
16.502360128228130, 17.145284813320906, 104.959624005045384,  4.190236853971799
18.111806106394475,  0.514807713100483, 101.983722825279600,  4.012853365492628
17.065624991563769, 15.620700844252800, 101.135622107916660,  4.084026986457686
15.879497922022852, 10.722600655131822, 46.007848211829590,  3.661282028057789
 1.058226142396008, 16.168278034228589, 81.908952844576206,  4.478263209919095
 8.997962204537423,  3.486605937301336,  7.857280942770704,  4.293612592914651
18.901437233435225,  4.002531854088689, 31.614085245715014,  4.063721437400442
 5.662753898512737, 16.429268098715035,  6.312917957808101,  4.099116638746049
 0.050846038752640, 12.774159728461747, 90.069499719488022,  3.838331146933643
16.999904053858437, 12.740851613921684, 70.126123564457217,  4.078621174087715
 5.022646516415395, 11.655609723094347, 69.609604467666756,  3.957197865294881
 8.396028463316863, 17.608555671429247, 77.718767360551240,  3.993683186474900
 0.699528804389814,  5.382892358632158, 106.919190728513684,  4.314215575517245
 7.672686409464269,  2.396340319138488, 84.457436082712519,  4.284199166949929
 5.212289881130591,  8.464508315376170, 107.760251692832895,  4.058046978792633
 2.641914633823947,  0.927119343982288, 10.852570416022653,  4.205143318300501
 0.956489566915298, 14.710116387278172, 105.360456384405865,  4.224312028168813
 0.271530169816768,  3.836131001558030, 13.876107830352852,  3.934305648875922
15.474429132939363, 16.309220736730790, 75.724923843517331,  4.083539658482803
12.812711152660663, 17.600717383439903, 97.176295086177106,  3.985838290522195
 2.128705298557436, 18.715476919767891, 104.855322846496264,  4.175664767845724
 6.372887257482294, 12.886131362982105, 43.657710773393823,  3.878587829602191
17.425764877557093, 16.623971224596009, 71.698301035326097,  4.262592448545635
 0.910227001814030,  5.587278103157922, 84.372905281657410,  4.067000717724448
10.426432389075428, 13.791012816448459, 53.431182872571455,  3.722410183445839
 6.357727033104499, 15.408991265846396, 109.640893962170864,  4.077262779926754
17.533670029930612,  9.027569449627462, 84.607933472190027,  4.121337239978727
 5.061179812031527, 15.111982324082277, 105.741849607778349,  4.030255591973971
10.532485166956270,  3.666954309824396, 41.720962416933922,  3.731071768105932
10.582557845181800, 13.448131762551926, 101.895282588885493,  4.298913694882328
 5.748702630639622,  7.036369833446363, 12.863640246109259,  3.997373461097373
 4.205532418040112,  9.842452855236891, 80.462073110264384,  4.090238776215410
15.085459173552000, 15.578470849745424,  4.101913518203523,  4.095737378414297
 1.829085837750849, 13.665662561524286, 70.454730295923099,  3.739056501032185
 0.622751609782185, 15.583797853737236, 33.396618122100826,  4.190470209736450
13.957633850040121,  6.083560555641230, 101.667412540492748,  3.468556874921601
13.308511064099358,  4.622052207273648, 80.307364466818427,  4.013896213297974
13.006786082647885, 17.003046838552329, 82.952774577024385,  3.604690645720220
12.548833899508365, 17.057729644275252, 79.130535672879986,  4.076565940436114
17.858012531297497, 15.419603817120736,  7.132275905661871,  4.102819179178592
 1.554028863539401,  5.407940972389333, 62.262781102014543,  4.014160476596617
14.223264716445083, 11.744370272745392, 37.167292002448228,  4.153826827244275
16.620261220614889, 11.932678823615616, 49.609462518368325,  4.070096526343537
 3.313033653721233, 11.413220959327075, 115.780162199885723,  4.124970058321177
12.713937502140018,  7.980425014904196,  1.841669908354843,  4.359902888468619
 0.072994458465927,  9.462640677210837, 98.816791582417565,  4.023783390897580
15.774234820755499,  2.502984325030170, 115.152754523988634,  4.346941657501326
 6.481823093232735,  6.458610659162695, 47.976093628580600,  4.075931750356864
10.656034803788028,  8.085968005565210, 67.762144139846470,  4.018004671701233
 1.446687745728181,  1.655663898742114, 108.563674117085327,  3.955985286466103
 4.283437879859583,  2.923882962435716, 44.710128936237680,  3.783253487269129
 5.541742383205523,  9.320938573850311, 50.780509740734473,  4.110578765315180
 1.953303433512541,  2.704704295610656, 50.892970326615085,  3.903691259511783
16.824326521031480, 10.083493095946951, 34.448717655726369,  3.885008555213823
 4.794015341483641,  4.684777808723074, 106.001335831184747,  4.161191593361813
 7.355555574228185, 11.206824494154807, 114.559627917589623,  3.800574699096918
13.922112115253897, 12.026320922966804, 61.729226172522708,  3.907557552071359
11.198760542375171, 11.682418381475362, 93.724036642911969,  3.897694783206910
 4.205266026570847,  8.317379912409342, 92.555986573396069,  4.191956646265970
14.438207722763748,  0.286431322822980, 61.486403378649854,  3.919134818256066
 7.538896828241944,  0.203113394683713, 110.196352459869672,  3.742749047821474
13.067520244651149, 15.344047241796471, 94.030819342134407,  3.760251025529539
17.046393978156935,  7.163067481708694, 14.804082280396972,  4.226287837772056
13.879637715470498,  0.476608406043408, 48.403717934728405,  3.856833331598700
 3.747459520464415, 12.816472473928124, 17.341180683630459,  3.999469414731602
 6.914578377199323,  1.531962055279171, 28.556913913986683,  4.131811501509956
17.552450663658767,  6.385592427165494, 77.894757384187244,  4.033927124776139
 0.210020826598614, 17.791330525659856, 26.851372860228874,  4.142217946574361
 1.253208411445137, 17.303932599066332, 99.349466833053114,  3.856445453522306
 9.022313223742698, 12.334899883648273, 62.373495611766202,  4.110071135783065
10.256269036808300,  8.728597600338757, 25.325321874598270,  4.131594362190834
 4.226177238049534,  0.128360509782724, 20.863333418929805,  4.002712073368232
15.600952501822217, 11.193431722120902, 92.220610837515281,  3.987778916979638
12.398352343586245, 12.225887225909656, 33.708114625787083,  3.687915445598382
17.977936953237716,  2.606434856128262, 86.510008765575762,  4.100308719569044
 7.768609481932487,  3.562950638943220, 76.658407632899440,  3.953368515685014
18.809707594543106,  2.032507048081257, 78.786148237448415,  4.018362061827836
18.342002736825147, 12.056788056604251, 81.339995455927507,  4.253820901917845
 7.328361020844373, 17.671038949932257, 91.556778538371660,  4.033282284122556
12.739132004301853, 18.188023935332367, 66.462733277946427,  4.053774071129893
13.366861322065162, 11.999865247043783, 86.940805777034925,  3.755041696206062
 5.040249824901951,  2.270900563549436, 48.328349802541588,  3.689862749056875
13.968590617641439,  7.284615135228793, 70.681132456322658,  3.827949951345048
 4.925871454065664, 13.606887923679684, 112.892213958372281,  3.748164822817655
16.578225497733516, 10.300649140068248,  0.827637741895795,  3.851319767265169
 6.421588861063769,  1.276877407392266, 88.245461532841816,  3.984897454311291
11.800652809453641,  5.736291488564226, 97.991013874326356,  4.133309470476649
14.110958950862715,  2.485969672932191, 96.954823270861723,  4.106322327283659
 6.420444853011656,  0.329016827813292, 99.770453123573532,  4.058329638570451
12.135735683172001,  9.478667245325662, 101.124759901725668,  4.301163735443690
 3.448008402638129,  2.946104959411043, 36.825213585618691,  3.860734165651339
 4.021841600389856, 15.103138729203421,  1.716246227757097,  4.258576494024465
14.532489842623670, 17.764025028206056,  7.724144480736873,  4.104129583515334
 1.291817580393429, 11.722020414007053, 34.097387889295987,  3.734926004955296
 6.147523615258446,  0.180692620205437, 51.198786745457433,  3.695253664305956
 4.471818923520178, 13.947026932476408, 51.020454522597745,  4.116452263148265
 6.854089614367934,  2.511284469330141, 95.284299855850435,  4.297010818167246
12.013972353860769, 16.747254125644876, 15.578545888763957,  4.300266017256827
 5.766619352258315, 16.053529596113613, 54.709867284477198,  4.199734291545593
 8.886414596189329, 14.298928426353703, 112.522492008016428,  3.815978092175881
10.818083536773015,  0.232907083887379, 62.998116736322309,  3.908416452429038
 9.101829980173042,  1.005466777196858, 16.596057522556052,  3.908090173753644
 5.890584396395245, 16.429559649564375, 10.780747957181378,  4.178550183952528
18.568410861778627, 18.712004356690635, 50.011014573830096,  3.821806640112412
 9.019767168913530, 11.584208099382137, 69.006227368220280,  4.085414389836894
 9.352944943242090,  6.072793647333888, 85.627443117585386,  4.109929063352974
15.260937286989027,  1.803490385862157, 82.658042638189002,  4.270066619555256
14.416171751325189, 11.125222265015998, 54.196567470828228,  4.135516734884131
13.595266753575411, 12.711711013700892, 76.218124624171764,  4.091352310655757
15.408332576984089, 13.266909352607504, 10.882589174151784,  4.025794468536207
10.037203040547871,  5.415953500922347, 101.860961595122603,  4.346052485529153
15.484022128989462,  7.918809556209995, 81.010753836047414,  3.978846390853514
 1.964044701092209,  3.446573143261220, 94.657509628513623,  4.292573911060356
 6.739635098364539, 16.364762319899810, 34.885150158428615,  3.760960883117669
 1.055857165102220, 15.126324766000161, 74.676932963962628,  4.086208336453053
 0.968972937301187, 18.108285198490076, 92.341565086211958,  3.841803005323821
 2.675474138170847, 16.473486971853077, 108.578291400037742,  3.845307650167396
 8.241762200773605, 12.431918983790517, 50.503312599266245,  4.019437999101979
15.518133949189339, 11.092647080568554, 15.701774139252537,  4.375500635426510
17.871534348367952,  9.885494636706522, 11.698034223558535,  4.116582311164231
10.004331309728128, 18.619162604702861, 59.323351770410824,  3.690319030599572
 7.354003369915075, 12.331235049813595, 58.414536920438970,  4.312583857663019
17.402630333619587,  4.827526446436754, 96.414917278212826,  4.027692976515921
10.279662729839856,  6.586297482905698, 78.150473355521953,  4.216253892785290
16.647211688944115,  5.932738187101981, 28.382458315895601,  4.026374979942860
15.514081482388208, 11.946787612469626, 110.036754716461658,  3.843977416185822
11.167503197166168,  9.866365175145006, 60.118644930640869,  3.758258482663147
16.439642293564965,  9.549369616217900, 75.640288483099809,  4.008060854924373
 1.802834263595693, 11.014916598378580, 50.242028994992516,  3.931227588743245
 0.972756135181362,  6.852053492219819, 34.785097262190540,  4.266051329739844
 9.068592144521480,  3.404361943899086, 58.879311453931152,  4.058395870187317
13.983059881435359, 14.993565535529152, 107.714907382180186,  4.405872523879452
10.176303498039914, 18.913440522974021, 42.577430077044163,  3.912121487068695
13.007659644453730, 11.090086412325105, 106.496415214739741,  3.958411669473665
 3.872639215779083, 17.738086288075561, 32.895332754343897,  3.659061406628245
13.607095195966950, 10.791694232021070, 68.735725843795677,  4.221143050955339
13.579515742776190,  1.241505858287242, 41.317727838713452,  3.784931255507471
 3.660051123794501, 12.972725329273418, 82.935782845988243,  3.961218901405045
10.016189849702753, 14.198746560709431, 29.622490487401613,  4.072833378636986
 2.588437660148287,  2.571597832731443, 27.743938824674675,  4.665461420254863
 2.632301327460256, 17.402902722870387, 71.583755524564694,  4.184042086245215
 7.953811024345002,  8.007014198600540, 61.246540947525439,  3.999191014896469
 5.997534445847572, 18.040224826901031, 65.305320895394303,  4.127055466022483
10.407657752760135, 15.682436205674239, 33.474173952536169,  4.203132891633724
15.072063139791338,  0.530841113012599, 69.319136389458833,  3.732056655145327
13.547785617951906, 15.719366776775955, 62.846334730414789,  3.828722170079972
 4.780232455372547,  7.320968797014131, 63.546880827073878,  3.909876800363378
 2.765725136165611,  2.106215386232527, 89.567996305424032,  3.921175787574024
18.024284191167808,  0.504606450788013, 58.740536226032610,  4.161962663315570
 7.048973227730861,  2.788365912490346,  0.845664967527153,  4.002571115086832
17.333860975442747, 15.936233281365944, 29.996902641692383,  3.978349893921908
 3.323060900210441,  4.257092925339715,  2.051829133990318,  4.361422623474961
 0.494709257006264, 13.537339155970782, 10.408094442625661,  4.065617658621132
 4.249157583686736,  1.074815751479246, 14.595122660059141,  3.931595286084112
11.007940323005188, 11.380856656424982, 65.635717649026105,  3.746806450662557
 1.617871604344238,  9.450916250171431, 60.397316752986086,  4.108904506352889
12.873520780759444, 14.282749414680373, 111.692860052092257,  3.910982921337631
18.027035179902967,  4.596717499353795, 21.545074288575343,  4.060010165633629
 4.641121699118286,  9.053239416749921, 57.683268130620405,  4.055072162577027
13.826510620329191,  0.224377318757959, 93.807317530169939,  3.648987555405511
 9.085171776999982,  3.149951363849446, 112.386416202712809,  4.140742538252741
 7.931185334430734,  6.142552696053055, 109.729499484429624,  4.091336319452362
10.819239677765225, 17.885871794213422, 89.314300228006488,  4.250448816762889
10.338355355423554,  0.563722065723149,  0.935763938898514,  3.911144616877317
 6.199502775544303,  9.244704670324360, 41.882831129362238,  4.215023663810008
 2.330157185108712, 17.268255236810759, 52.756720071135227,  4.058153358399738
 6.774165587327946,  6.767237026240331,  0.465189955077691,  3.849479157851452
10.930626066142853,  2.886296578711431, 66.006842225883744,  4.107334528140756
 0.623681385022663,  0.650740988182922, 16.265455530453043,  4.028655374323004
10.088899237637783, 18.610611746658218, 94.303553583635775,  3.968878962686881
 4.303062717528721, 12.973569764683463,  9.106026671091977,  4.062094701988015
 0.655266136552958,  4.057368871225838, 102.923852703546828,  3.836070427191762
15.405724900389382, 14.782964111768369, 39.706725220829064,  4.067023521696612
 4.435773517096828, 16.399481467315134, 76.265646684306802,  3.790103490786610
17.232935560600470,  6.918226191088488, 41.179693274715468,  4.201122012854785
 6.542354015016944, 10.847017014218645, 47.102929050148774,  4.073865903225753
17.418737370994634,  8.974153123173936, 71.700337245316319,  4.059264453183753
 3.379088309616902, 15.182167129022966, 101.977010362252713,  4.112228987808497
10.713768122545282, 13.868087844556086, 18.352833620342032,  4.019108128622882
11.559743762571012,  3.046326655460886, 105.022502717308953,  4.087400042570880
10.620403748230167,  7.518516652160822, 41.645609042416737,  3.972547937893367
 6.254685093643872, 15.667707049885916, 84.061094282724525,  3.808835698820206
 6.875749101345465, 13.569197232459528, 76.613179218009961,  3.695715296578327
14.168552653639988,  4.108089840158280, 76.375872160593417,  3.895371183397333
 5.524585788491765,  5.297593153032824, 112.894564828225739,  3.853085150350251
12.074332094856819,  4.713700779955593, 115.166789392573463,  4.111888021130078
18.490854892265936, 13.799818583399995, 26.671967494004182,  3.959955709068931
 2.317053983426919,  3.277906310693403, 57.348899199287906,  4.140318818166216
 9.704872172654891,  4.186926083952704, 19.262800478113171,  4.093539660686580
 2.477027048648518,  7.419808391113920, 102.470377540553443,  3.865219728578552
 3.339918742663292, 10.581477981499223, 31.017495483123401,  3.808959787715738
 5.055173089397942,  6.646872714006942,  8.000261206459232,  4.155253360581927
 9.681221053624798,  4.277427599124091, 48.379978105300637,  3.707658396968585
14.491518358256579,  4.148473839757243, 88.281969801037974,  4.269041185706627
10.491037584827087, 14.937514500084966, 42.639846238103033,  4.059928779705479
 0.302021663627791,  4.817490207555647, 38.300552310671080,  3.956880211928035
 1.375398246563222, 12.294302242705477, 23.371650978863041,  4.098292604992051
13.933300009381673, 17.135424621792545, 11.796926174425478,  4.207490028063329
 9.642903730844623, 10.759593062519233,  2.240318152398854,  3.868491823012834
17.918427095664853,  4.394376771728726, 48.868246636859773,  4.067726839590076
10.472948511481713,  5.712477724697423, 22.814511161873938,  3.724231439184848
 1.110020661397546, 18.642107674258202,  5.577212798460235,  4.272765882381108
 6.660069793689636,  4.210540908331422, 22.867590001828436,  4.386224956550285
 5.771415136485756, 13.135305025736205, 29.301592273985925,  3.885566937592359
 1.551714120529095,  9.670604131979916, 88.008336506618576,  4.070664824075459
 9.695642289627747,  4.592479708182321, 69.726078867086315,  4.193867382984076
14.317278202129282, 17.849100629699073, 110.779585759356308,  3.962282324563109
 4.769182690823075,  0.438458794041912,  3.460147084830315,  4.211430721006802
11.139776607348805,  1.255588730448821, 81.582093452025205,  4.289228148682921
15.157026855834335,  1.861832721419613, 10.070725286843000,  3.677814399097668
 2.297839475027912,  4.521776663447461, 80.824214844013710,  3.814634376377393
 4.667115079989698, 13.559518316305834, 73.280561431041164,  4.261382153423603
 5.958821591455284,  1.167462292844804, 103.820296180546990,  4.226480541281657
 0.490488797092787,  9.092304732417945, 38.238879392958879,  3.995527380642973
 1.407384777419527,  5.599665773703821, 66.364421688718053,  4.072259062067818
16.161228009646905,  6.505706580371913, 33.021070324784148,  3.835696120214237
 2.894571130277916,  1.397157721015805, 101.187553858346533,  3.828164861198905
10.023556985820377,  0.609523051998691, 49.564953614727813,  4.028424427333432
 7.123739515197644, 16.211030541945469, 48.990681865914233,  3.874990872910350
13.168705932053603,  7.426262102976114, 74.555781763643111,  3.897979718292352
 9.599721938563658, 14.817590743368674, 95.582969954351285,  3.891741581914185
17.649972084531051, 17.981915959151209, 10.087949531381598,  3.703659224273030
12.599296747196949, 14.802342112672076, 115.682345412427011,  4.138534266958383
14.201199729389986,  8.325825628093623, 48.305650520089593,  3.762119734204931
16.480955128431617, 16.145258112272309, 60.452751255132512,  3.778518870887616
12.229887651372563,  9.977922972372962, 90.186091522952523,  4.198508282244247
11.746672031989569, 10.854881276313655, 10.193776518815582,  4.040836749980629
 9.651372067541059, 18.321099181832029, 36.480158945909466,  3.912552038949675
11.591747368933149,  6.349727216354780, 58.960142040532716,  3.663123404970401
 8.557005146069892,  8.159935702948282, 44.981800114150580,  3.860894218096133
 0.079031518683596, 14.738460660704108, 66.929072104798351,  4.416863194357547
11.230284489642255,  1.638887988827247, 77.431439405159935,  4.032440160652399
 9.778472004446845,  3.083621276796411, 34.116620674086505,  4.096932291987227
 2.312557448108891, 13.550042645777928, 54.821881803978791,  4.329023472763416
17.182896223904141, 10.071249226648229, 62.362173378843941,  3.800189523902525
 4.098478727846637, 10.685164554293266, 76.352969979657587,  4.175807914412640
 7.764557559580163, 12.594097240635797, 98.606317862691554,  4.418489461143958
 0.549480955273264,  0.814231336736935, 38.569661311742720,  4.042234811857815
 5.975419351590644,  5.595762595478433, 79.860209388214059,  4.059017262939697
10.668976785758620,  4.916420692975928, 55.499444283444248,  3.999297478964975
18.126105275874664,  1.817859340887792, 71.757183410708592,  4.119698596345096
 0.910526714780535, 18.886024628392907, 30.717373754965035,  3.926021895029034
 5.246552018974210,  3.245056252532094, 109.702561623483632,  3.743480064358965
 6.270053481276585,  4.065286930112053, 56.182950266691051,  3.770477757653734
 1.206863760665116, 11.899469379359465, 41.307865016867389,  3.863041311916091
 4.829046183789746,  5.241020713075631, 83.691026002513269,  3.883468355919470
13.676580449616148, 18.815088529934673, 72.968537049625226,  4.185212976127415
 4.526034371562533,  7.729715594921156, 99.057968302722287,  3.994340550816819
10.338923066269967, 18.314331968532855, 85.250056911533903,  3.885482518354955
 3.373697618796045,  8.499980143057071, 71.491902065769779,  4.082101990169273
10.799811862163933,  9.932795357949583, 80.727159266068170,  4.113602395322469
 6.149019806618517,  3.932831878463431, 10.613907984364367,  3.671809311892426
 3.134742330873830, 15.183781620199740, 25.628397268081883,  4.026002908211235
 7.292361213826549,  4.587568125688962, 31.267006090162809,  4.039387564420502
 0.597912713916488, 13.428503700498704, 98.856257297246458,  3.959522460511583
 4.539471691230699,  6.740359808595844, 44.560027843144688,  3.780991086766370
 2.810506679821795,  9.327882406936467, 84.227245229334386,  3.924213388313519
 6.775430948793525,  1.603020252662014, 42.298837755652201,  3.602919349951280
 1.404615920938218,  9.170999255983606, 64.433133678357208,  3.988458733183760
 4.876655988192738,  4.328563766275410, 91.976403898701832,  3.812978224835746
 6.741912854744500,  8.667756738420312, 31.264951110544740,  4.011778235330940
10.143209730553689,  7.584725720183803, 113.068041291444985,  3.949971378802515
13.905623572342302,  8.305029534547497, 39.567492878717388,  3.689581078118888
 7.087277465337061, 15.928560060135794, 26.625763359878682,  4.261249240942049
10.174162159350233, 14.102750836806397, 37.269513994800533,  4.030219232715424
 5.189386463580820, 10.924939932322609, 61.818276683743321,  4.119941107476201
 1.159372355232509,  5.631618690329343, 99.240862889948232,  3.941295437026182
11.188253290176549, 11.441345806516111, 113.871163000727989,  3.989211452384046
17.814062503208824, 17.489312788126814, 108.857003765747109,  4.049284928321438
13.133600804556107, 17.018011553893370, 101.239513638676016,  4.233905422181543
12.330984129606618,  2.217509885266960, 91.070626146456490,  3.727614109518055
16.529078559275224,  0.115532630279519, 23.937183342763756,  4.122027269514317
12.760963743790628,  5.009817816315645, 27.969162737208364,  4.002489035212324
 6.040984554922949,  5.495235958793337, 27.060841599179380,  4.465913060442083
14.465246814667537, 16.760290925791733, 43.180870300575023,  4.106302884285435
14.507648020704806,  0.706185337360870, 37.461840556523214,  4.211840903094532
17.956545135373698, 15.679650074994518, 56.668950734264506,  4.351224814715446
12.171780530821957, 15.038212069092726, 26.479622245614681,  3.723378631127491
 5.926523754593607,  8.020151164454202, 86.136518358568068,  3.809149035632139
 1.067311556236340,  0.756554444312341, 34.590581975848245,  3.981757034769586
15.197547913808547, 17.123417549485147, 27.040400732420675,  3.669241527801096
16.775332212784182, 13.071818907039127, 73.998588261589603,  3.684814097848812
 4.374977601846320, 13.855573051179729, 32.977009319517634,  4.082164543883399
 8.050017028363751,  4.245487190331273, 44.762503941399039,  4.029708591678037
 4.572293328383144,  9.467221738073350, 34.735967158509034,  4.294681452372601
 7.377404156688924,  4.799989166143978, 37.089434273858622,  4.006661446617380
11.657637043119381,  2.296836818642901, 45.556670906852176,  4.204853968408520
 8.360299921852521, 17.527294667234980, 106.150020045367654,  4.178798535611932
 6.214502212107978,  1.223604838856946, 34.668584857796468,  3.942771060957234
 3.300584335583323, 18.912755084769973, 96.401768076526551,  3.932178953320314
13.048637831143520,  1.298763168575696, 26.426646741903244,  4.018352769861498
 6.477306127830761, 12.657778884741507, 94.638395631489232,  3.925221396066560
 8.969430067131370, 16.964638997928851,  8.356644386169728,  3.729292754280281
 7.277461749407677, 17.060378512621931, 30.969366394539705,  4.261872833700172
13.929462549343558,  4.590788243864742, 43.135611004898500,  3.843200431087578
 7.411159897440727,  6.016309017322525, 66.326452549470091,  4.171232411909735
 6.081409432345748,  8.566123924307099, 103.726731750939166,  4.093954516917186
18.594527875984056, 10.569644854153431,  7.648004759085913,  4.201857916428706
16.413696727095665,  7.936973501875267, 20.002471105180888,  3.958806158983928
16.804033973440792,  3.592287669973205, 17.087673066334869,  4.111091014458453
11.412756579624686, 14.395187369401810, 59.948559044656129,  3.840979420384833
 1.913903122163634,  7.951056965358469, 13.610025480502632,  3.935015295042498
11.352682938570737, 10.719314185824594, 28.551586662315053,  3.633208375333137
 3.476589228779853,  3.840350871657600, 40.840606752313725,  4.319331794178603
 1.348419471978324,  7.525877159119286, 95.471886098254174,  4.112775973721115
12.075564627987983,  3.289335262380155, 51.565985668124100,  3.803284835656520
 6.322720500174077, 12.173835399636372, 85.932944690540296,  4.092073089550362
11.482071400353954,  0.728775478235236,  9.710406314042668,  3.997456692951138
15.328780278369290, 12.005558418793317, 99.977130019889302,  4.110129383210793
 5.615696218704334, 15.647170758529336, 80.054645608448297,  4.257917801281717
 9.426919027176417, 15.720813434262348, 56.734302153068910,  4.167050484755861
13.466134918767533, 17.283863955017583, 58.099917261966922,  4.120169693750094
 0.018326923090860,  9.043054679196320, 105.071381671706988,  3.978631394310704
 8.316165170109718,  0.315467854146122,  5.380460577945485,  3.852295106338196
 1.227687649711786, 11.302449347753974, 73.430034715816248,  3.948844114425428
15.714934254933553, 14.264747443507517,  0.111930597378070,  4.381109802902787
15.295646608536011, 15.851168116805532, 68.333757673942074,  3.797465239298859
 1.162598892590279,  8.136456489873421,  3.478642447167383,  3.909225392662053
 4.666019590934754,  4.458040264436640, 116.600296870843536,  3.935545336192679
 0.165520711557894, 18.216542600160142, 88.513093706194894,  3.946924158224662
 3.790932293051719, 18.031333213322320, 44.895682990121024,  3.947812036844957
13.306846283531382, 12.138076956831009, 41.892800513869986,  3.977507395368242
18.893169500416427, 18.621759341635460, 20.190256511143286,  3.963275804265973
16.940033103040196, 13.413794776955253, 43.331913718849258,  4.203866866730668
13.435221390676437,  8.296685225056267, 22.714252879246324,  4.105814332629426
17.437491995147653,  6.942652884209960, 60.021553581491617,  3.955396432976575
12.527573258854073,  3.842725212174923, 72.704947762707690,  4.107303589547563
 0.302900719665747, 10.566860324650316, 18.352257140121715,  4.443308207055744
 7.461202433997653, 10.292860839071665, 18.755018930167203,  4.034582200992795
 3.800242320945364, 17.936539172764082, 36.824854766143801,  3.869886465652072
 0.763460876000814,  3.468340506962997, 116.352315279742939,  4.017127674999584
 7.173467322322236,  1.655367696561201, 80.204825288635192,  4.140256243793406
 9.672701778109639,  4.470112981228616, 11.689336446541798,  3.723397349130752
14.205521641465708,  9.627165461752687, 64.733461256105898,  3.761003525251165
15.531068164861148, 16.928619155346812, 20.821675084329115,  3.657761479660209
 9.958482617022279,  9.877700979337181, 53.475966219729287,  4.130738549344312
13.488406868549538, 15.970195210163981, 36.059712053022992,  3.741599622737439
 0.646279304443989, 11.812032530150077, 112.680327753568079,  4.077392086865919
 6.811555755636641,  3.775878787189207, 72.523203421611186,  3.989556595038010
 0.949839479360913, 16.726837078050767, 13.222654420089480,  4.371704637261239
11.653078682648104, 17.933939197397986, 19.568527993086960,  4.029054768371916
 9.566798531525345,  6.039214214791871, 74.204900064603066,  3.851468365523474
13.614663021346322,  2.940634039625318, 58.389092882118341,  4.321156495282180
15.612529380939135, 14.711769792009006, 24.131875768297203,  3.928421089221321
 4.319250733200461,  0.735936976040212, 92.796228021002520,  3.622282520199992
10.137155747520922, 10.277619396175224, 84.994012915951359,  4.530272984235305
10.701288033532510, 12.161866157650064, 109.365649051951436,  3.681636950726278
 3.435910033210612, 12.293091394877409, 65.999175518809935,  4.026197234810502
10.612853510732185,  2.490845088029461, 30.214427487501638,  3.962018096865077
 7.308682142221564, 12.005905352063955, 107.287598012869566,  4.220919517735653
11.824594173424432,  6.330476505922850, 45.986024053626068,  3.859689701892026
 4.110310369132927, 10.833206346905289, 38.681653253018396,  4.057101767955110
16.036499404322619, 14.988682632303821, 97.081155121803206,  4.282784890260271
 6.268355332321336, 11.801676998982957, 54.258449669691302,  4.333281008203881
 9.219450605872083, 17.471724626906880, 52.918682046461974,  4.017512867986598
 3.610830272947798,  0.817003012120075, 68.099583834590916,  3.997367337343780
14.330165325881429,  9.423219631445480, 30.830766760107601,  4.299685560205189
11.087208163119952, 15.448604855566154, 49.761278324395860,  4.336716005809756
11.861153444706771, 10.802969596111982, 46.170142196704525,  4.265062221311849
 8.159856063817578,  0.807458467808846, 20.975132778851300,  3.955780674908361
 3.672069490405121,  6.176546162169903, 30.520290410922513,  3.988627941995084
16.263905363032880, 15.021136865944312, 14.436933053018798,  4.005408847176875
 9.522714607116628,  8.935900920397637, 48.962199729831717,  3.910046761079839
18.941089303035518,  0.051410950112319, 114.064270929182214,  3.815006658966641
 4.230735666026874, 14.327541579329070, 46.833057483779392,  4.264326011230159
10.252702632160192,  5.055466753519752,  0.258060313208318,  3.912762653536534
 8.322278744839025,  1.292512711206135, 115.741697196729049,  3.620231360761126
 0.158610808977216, 16.141104111827307, 23.225842910633229,  3.809855880256814
13.082923416007626, 11.104776411079021, 117.469670253802633,  4.113455517863643
 6.531064004189679, 18.940908656154733, 70.897772151021158,  4.254480611348098
16.650672797496760, 17.433409692042098, 64.695587203835771,  4.003269277042592
 3.311905848045468, 13.185214411327120, 88.201218084381594,  3.685312687355798
 3.478046691871990, 10.078885205210280,  6.413732121126221,  3.921753457219623
 5.709787818768667, 16.118293732117284, 22.870262132221846,  3.737440100581023
16.597857215625854, 10.816686549735737, 40.300668139637040,  3.785989352062810
 0.746578965477943,  8.579634094349986, 21.908133709920843,  3.693820090425984
 3.980741810418962, 15.797056432363229, 68.007035122447434,  3.946879073166973
 2.468517680784424,  8.968786907107777,  9.946633926998812,  3.736266377591279
10.583993647288331,  9.040529369158207, 71.800118378317890,  4.091283358114572
17.674683058811553,  7.278762150100978, 101.771566775753072,  3.783831087278612
 2.137231769804174,  6.917011955322008, 50.812015915650676,  3.789431207942262
14.618123049860946,  5.402382610388701, 111.881955802049973,  4.112253437114533
14.103982268162152,  8.645076160841692, 26.730170622289837,  4.054678388899364
 5.699987563906617, 12.273813146995977, 24.064873378433262,  4.307328934844918
15.328181271406670, 12.082782912213734, 114.044828841438218,  4.140755395131518
 6.818484517366931, 16.702843624338040, 42.608692542472383,  4.077213174765197
 5.339788121150726,  0.608860336562564, 24.805191744855890,  4.197131017155369
12.873372732993447,  2.263597443804160, 17.393958023821099,  4.199745988356605
 2.409454125107333,  5.061294236301204, 10.724988016541275,  4.066007110872341
15.966981882598734, 13.837531615284750, 34.197066487397130,  3.783814238557098
17.546672165941509,  4.755477150691576, 81.364583967639390,  3.603046291692787
 7.992281008941855, 12.245654410435526, 32.446004652723303,  3.895792459025753
14.900398981686308, 12.450564219893796,  6.853118973287098,  4.234369408501279
 4.958770735394517,  0.275296902959655, 107.523667131778112,  3.601818100060455
 7.510707750459868, 12.962434929069280, 12.310460440404588,  3.984011776038591
12.288757442362460, 13.851431537679051, 98.193667321381668,  3.843891203410830
10.563317319293466,  3.319218517329679,  3.893449890792849,  4.163312689000093
12.110830982486270, 14.715545592968933,  8.975777480816342,  4.069086060072731
18.280243651516393, 14.508124208065205, 115.323929798609811,  3.912987972454438
 3.454657135895480, 11.333541773628637, 105.350815743933509,  4.168818776887875
10.805396331910003,  9.790119922260017, 97.180387303126139,  4.013335191229510
15.889952882178090,  8.457496558081196, 107.704681677642256,  4.188249914958941
17.605108732784334, 12.045059772043039, 31.020678807628070,  4.082255863288558
11.168397619585852, 11.953303009348035, 56.761059985384989,  4.007816545839304
18.617361509771694,  9.405029494939473, 115.928994570205887,  4.193119625554936
11.122219357094696,  5.897420812355686, 90.189568340609327,  4.179908749433675
14.367008886495896, 13.868510929066296, 103.639938704326184,  4.056792893068725
14.204415033769417, 14.241077830793580, 46.440715300092407,  3.959903621858291
12.251924569385974,  0.290235245422136, 115.948419285370591,  4.004671378922921
12.312037292622291,  7.152037264512125, 83.183146346873755,  3.859540758142779
 3.819817657855884, 12.327740119937090, 109.352049920435462,  3.850599659812609
15.812618580937484,  2.106618865280939, 51.433276656529920,  3.939416865186198
15.420476900672483,  6.332341415179972, 117.585664683240068,  3.972912194523482
10.498575609035266, 16.690294181409293, 71.439431030107599,  3.847027769728027
 9.700196222809003, 10.263418887295598, 104.425397130889593,  4.001823611009064
 9.809633269911158,  0.500216099500536, 102.233599747428840,  4.202762258041820
13.746598378995767,  8.548900378686524, 12.789885086621570,  3.943274140479116
 2.618295315288732,  4.968902038482896, 47.660600951256406,  3.665592363742482
 7.108239805029978, 16.316225329815804, 38.675508937740233,  3.844365672004243
 5.567730894007205,  4.896358118836138, 101.865528771444772,  4.198526663510157
17.422950277250376, 11.123378154291720, 65.985917786134777,  3.714371421288991
13.276468640328908,  2.574830450259367,  6.746532628560268,  3.845520687808111
 0.953302645678056, 10.280760548454387, 68.810882074028740,  3.971901462342023
18.202218254387251,  5.087305218511030, 53.034039055915649,  4.302183432720901
 9.627375760940076,  3.450672143617425, 25.951448589290440,  4.072909205790673
 7.328872514592779,  8.287059012412410, 82.520343250308215,  3.912539954837257
 9.407082073491075,  4.952758989475946, 81.781974528814544,  3.880029895945076
 9.024669902029061, 17.601641183137986, 67.937578731735442,  3.929677113946362
 1.888337522972150, 13.087034349989267, 62.495731087907018,  3.727639649951320
 9.878976733062418, 11.645305251275412, 21.833809307045687,  4.245959603253158
 6.855448231679859,  0.870486484450825, 61.518603891043895,  4.338392961620507
 6.998319848514743,  9.142527481984811, 96.303854870200496,  3.897947365745876
14.036658812113020, 10.775507553003882, 72.763354921265005,  3.872136668663479
12.283746374839740,  3.637594281330946, 84.634509073857842,  3.741818597082253
 2.025507288119377, 14.335122585835615, 29.755823325419836,  3.948271939016539
 0.822442826716975,  9.536112861742614, 109.125180454269696,  4.345084020876527
 7.161649138141636, 17.206511421979965, 14.660207164437708,  3.856862421773553
11.540164071038488,  1.612222964519396, 13.595607740930440,  3.917129219027170
 5.592217337014012, 16.334916329935275, 59.087232411820594,  4.528171414695730
 8.048396195590209,  2.524447700364381, 107.142271387028714,  3.975183276660208
12.539195598498615,  7.257670332005760, 105.089727714994780,  4.240023654940482
16.196478832707115,  6.213198405941692, 45.786223202883377,  3.844730778200744
16.562199400048502, 18.320338854617518, 40.441884293270931,  3.465327182334557
13.020344565666406,  5.209193093455692,  9.748560970636843,  4.143967131668449
11.835311932849885, 14.371587737420295, 68.709802962509954,  3.734927489955682
17.424959329407457, 13.562870984490329, 20.757057135877840,  4.061445900636128
13.423528136436238,  9.016041837846831, 77.979295647829588,  3.662146529911126
 7.210277424445474,  5.460298180242259, 40.990788534747530,  3.812882169979600
 7.722801663272821,  0.184978776010396, 46.004628315683050,  4.471030189271198
 5.715628497616410, 18.192088315518411, 118.011432491356544,  4.009838146247204
 9.706634167443733, 14.454129735450895, 85.245261948376083,  3.881684054353257
13.603633051021525, 11.961631312250681,  2.944620035185413,  4.008198247658477
 9.056123632133085, 13.971737309442732, 46.318251236391689,  3.977924224752254
13.274445702179063,  4.594728612002217, 35.394198139040981,  3.914575741520121
16.486126914930935, 18.433316542366398, 33.085374951580206,  4.097362373210252
17.896065354638008,  6.505967290901356, 87.813830025748018,  4.062743150671163
12.792955519806412, 11.718659423323828, 24.635880605180990,  3.817376162639262
 2.520392001626420, 16.391060041513757, 116.541342922426722,  3.890811520197472
13.549709603507500,  3.962378284074076, 68.863148015468724,  3.790598767959292
16.892985960087291,  8.932120872508099, 112.052220831123265,  3.912700429449434
 4.374457868383813, 14.689846954801594, 14.004553932204445,  3.747513997905800
13.160770306813001,  8.551512309391327, 34.778640981736018,  4.077989157196493
 3.279231331340435, 17.828800388284343, 48.860618126343859,  4.036872714671527
 3.216104133052572,  3.178676000422842,  6.621425785788812,  4.141802322369061
 1.487616061332586,  0.830825295755857, 23.605858567644660,  3.858989365263323
11.224903881206018, 10.466167568969635,  5.993138073399860,  4.272284530918625
 6.916459626005272, 17.508807076074394, 96.280421864191780,  3.824359635503662
17.801216849552979, 16.543861777912760, 46.291962881133657,  4.570513850296179
 0.486982826006857,  4.024478173465430, 75.322726433169535,  3.899704806800604
12.821126428587103,  1.982158199039716, 112.480299620758615,  3.683958174032465
17.220037358817056, 13.791589542611327, 63.335362320218046,  3.809483686582375
13.682704304587677,  7.595840868809965, 17.129514622194598,  3.992974749210524
10.272052280849852, 15.899876894047326, 109.278365406734636,  3.839930136035324
10.300338970706452, 13.582784207364172, 78.643047747897583,  4.254482113412392
 3.754565303769927, 18.608122930603002, 40.727662829269107,  4.025870857938009
16.520984482368934, 10.262367535936880, 88.379359746793583,  3.987521396352257
 4.247090520541368, 14.990499393609191, 97.910900757694478,  4.192593952361062
 6.533563942625556, 17.358676997173433, 113.790539531729294,  4.190168430018725
18.805777290083668,  8.974532604322585, 44.358177235229221,  3.903184175369177
16.172830058316730,  5.136567639737120,  6.967054754346677,  3.891553390233216
 1.794391093719038,  3.282632152620566, 112.435620536238218,  4.006483883157880
13.539980847575526,  8.000098725611172, 86.747852985873081,  3.867888350067095
 3.306219308380426, 10.657603462913082, 44.274818519681865,  3.781383593403552
10.484447668631724, 13.993721899839496, 105.885646497023004,  3.739151025752491
 9.285465909238480,  6.119584008742397, 51.850669606983800,  4.164195279512755
 3.359625491998136, 10.993074879433092, 96.766587669558703,  4.302538557509263
 7.586824598554419,  8.254490682674437, 22.257376726843471,  3.980517010823950
 7.699534282823209, 12.460619261147738, 81.982339699077329,  4.261305789740413
14.309585067845891, 13.301278433188362, 65.703365285795158,  3.755385502285994
14.702968086147795,  2.988090253744993, 32.064773296043015,  4.004379130143219
 4.186279661764563,  3.384330935688932, 98.202333721867248,  3.791751988974965
 3.946896344712047,  8.287038250434241, 24.278372307666540,  4.287059615766923
10.774110827372398,  5.288213422638872, 15.410093862160553,  4.146413191592885
12.250882865109832, 13.089220100066040, 13.549463158982313,  4.060549101269883
10.127504023228052, 18.125538407450279, 28.193231684005351,  3.867032043549207
 4.026908922320021, 11.140591464053319, 12.652248129000608,  3.868288184615219
18.765955836981167,  5.733753159706668,  0.849518743259644,  3.628710096674558
 2.971510718087189, 14.138022292721280, 36.715478270671703,  3.899652329627413
 6.939166682165297, 10.053305799760782, 73.415456194216105,  4.058864343812542
 1.715983931074359, 14.941467474115154, 43.648046352545506,  3.862932338515202
 7.925570648320335, 10.010384491559076, 110.884396566566792,  3.931318583726517
 4.329099210617431, 15.988371053751711, 93.735245709934659,  4.001661847239014
 7.309330074900063,  9.488056363718561,  6.286958549818483,  3.803400307534054
15.344660932415977,  7.314913164042416, 90.912046135309438,  4.120060912819041
17.132975496209294,  6.520026483556464, 63.874181417270307,  3.763816053393517
 0.687099925901651,  7.719884737994250, 74.592172155614918,  3.634831052550497
14.447976030946688,  4.216256895804444, 54.504371152137431,  3.935420009584313
 7.975574680800408, 16.725725694762012, 18.483973083696039,  3.897026077475755
 0.462623398469382,  1.622529927259186, 82.797522313530806,  4.051217805647411
12.032103760394127, 13.535559118652277, 82.381224069853261,  3.661125972049239
 7.558723763997806, 16.421168196060716, 73.979636576966925,  3.940548020264993
13.645936650230423,  5.855708943061344, 65.444627651194580,  3.995796780828966
 0.358587967037989, 12.835932444483703, 85.470585880944313,  4.366813035414575
11.388318044473776, 16.081811000908086, 75.302696044735484,  4.126344625917421
 0.970900321664716,  1.486094218361290, 46.636301691839229,  4.219508410934497
14.521735486226483, 12.031756147528457, 80.021077623326406,  3.787263730608690
 9.415982239874888, 12.496769757194908, 88.646438484585417,  3.951325734371336
16.096427200886765,  5.029237283518484, 104.451783413484520,  3.860790928327426
17.251545112925001, 17.817180621416483, 84.937478185213166,  4.141631881146590
 3.054784637682562, 18.633460955898766, 79.127055408985811,  3.817791357325926
17.595554139249003,  5.966224302730502, 114.325093940733950,  3.640644886936443
 0.292983234465398,  1.791584222842624, 64.757981646575686,  4.334426920479745
 3.891667109055323,  6.370368153429661, 20.374277379804653,  4.211574884438278
 7.316734485643982,  8.630960784688263, 38.070271474624178,  3.797154826583746
 6.660027500524641,  7.368058268430319, 76.358622143238364,  3.847809509897567
 8.744370894055349,  8.473269910945508, 57.227315472304134,  4.222376609712426
14.762370135334296,  9.563422813808490, 58.738838784008934,  3.954714175294065
16.512870683583571, 10.848793721185157, 23.652531370008493,  4.059094766643425
 4.459025448767457,  4.756691104426090, 69.130940095523655,  4.320195395042682
11.946795814580259, 17.048956513106841, 39.488546333789557,  4.060349528751306
 0.768940540478790,  4.935095278010237, 44.069400848632945,  4.386079445463483
 4.085464644172524, 16.982846305485843, 17.306334619885732,  4.228343918978529
11.874287656551397,  5.066632701581307, 108.697449144942880,  4.270949502622371
 2.993502331666114,  2.546550160237353, 85.786099302010797,  3.655521777794594
 5.926207170814637,  0.815337592300738,  8.486508010605199,  3.888339679850629
 6.924494336794313, 10.106025474580239, 14.900483238874179,  3.733384402971538
14.369802626280412,  4.491821629891212, 24.187831426525147,  4.204356417574524
15.026851346281637,  8.745578203818230,  8.853696638291209,  4.165396062170594
 4.121294007416360,  9.486549632605568, 112.203032899605034,  4.152551581522410
13.938673353983788,  0.689185536082631, 86.295913929019761,  3.779176391875827
18.225445404940860, 12.713464862449124, 59.645168238402981,  4.045923421256854
15.137219934547723, 18.319604586083493, 90.037763408834294,  4.513779092177769
 6.787673806571584,  1.213339364359464, 38.590361799549214,  3.849306438686150
 8.219934440593857,  5.329018900362394, 115.538013031089548,  3.652346281043297
 2.594300024556727,  1.155845524735922, 61.045049256817840,  4.252443569242662
 8.056298412122770, 16.546300100073278,  2.438757016986361,  4.127877559297178
14.016567443331525, 15.404829484019887, 54.366786331331063,  4.302233489093125
12.649481910507863,  3.640627431559622, 62.326589331722879,  3.803587758474670
 7.709697197468267,  5.306087244422145, 98.307832522461069,  4.107430915393273
