BANDS
8 8
NANOPARTICLES
cell(1), 18.968
cell(2), 18.968
cell(3), 118.549
 5.383554285820123,  3.405408611500284, 19.325709702756384,  3.675587635646457
 0.747548319817133,  1.937837951009791, 117.838189534394374,  3.739649785204490
17.193723696438052,  9.185409325438352, 51.723528006958539,  4.161047199019189
15.706787001494234, 15.507166152435234, 42.794507502432637,  3.936648373183832
 8.604076377533305, 10.706203165215760, 86.084419260063740,  3.873264286110003
17.105442709183279,  5.583219799160752, 65.348594895157149,  3.776467745370592
 0.427346643814493,  5.608667029749089, 68.597164055061427,  4.165090692124862
14.530741074763251,  7.445866401858904, 38.369041120378483,  3.933269593506179
 4.637103017567740, 17.935388999934226, 22.836914838787742,  4.038879677330950
13.162030892155357, 11.407310107985797, 99.863102530078351,  4.141205674204433
 3.804309891126771,  6.595490228337326, 80.989949330918890,  4.343890278032423
 1.462035917436281,  8.512302980085250,  8.931924946158642,  4.227456911005816
17.167431639470450,  5.778427658041943, 40.636984413315602,  3.703379691067070
18.822963569410689,  4.919131544947089,  9.758312198575245,  3.737623613295732
13.669752678391610,  2.900771374584746, 92.153153598306133,  4.155032383731691
 4.654950070539373, 15.435877155887505, 111.651069761133030,  3.869500504203603
 0.355978067144149,  8.699933334242955, 20.396637417688336,  4.298530735312420
10.049660462890175,  8.693453767931729, 100.547182918576965,  4.183460632295877
 4.480845108717464, 11.137645576075940, 74.956403945759547,  3.889968110510210
 4.085723862423024,  3.984273183373135, 62.491668875350392,  3.850569271753343
12.508353945403114, 17.819291872687547, 91.548920655178350,  4.305168849508540
11.241258105759428, 17.474981743502823, 102.223694459070018,  4.030093096585166
15.331167139886897, 17.929379648736120, 72.997418939261777,  3.835475438957749
14.157396397780124,  1.102074071824703,  6.156014521473614,  4.057537748692264
11.633227310471616,  7.567970132163346, 68.533088053732129,  3.899504642948618
 7.911098673850362,  3.831925486023032,  8.614374357988563,  4.024627550804879
14.648460244044170,  8.666771397141318, 79.000381802654857,  3.834789190654086
14.337403217531314,  4.704910597227145, 58.495700964903214,  3.913135104537985
15.674385230423836, 10.811000019464029, 48.054388060131124,  4.206417236928078
 9.390738265229091,  5.928668879392738, 112.964264748535285,  3.968751267397054
 8.218127712676463, 13.182530820247628, 54.829328901588774,  4.245556488446933
13.398681243701915,  3.158479129913480, 19.065898079531962,  3.950347650556476
12.296899823984456, 11.835770318943458, 91.956771964553525,  4.155553529342157
16.774812274574241,  9.930189354746316, 117.423847121599962,  3.921176916898927
 3.591687865036532,  3.275200321175834, 44.286127983483375,  3.817047321741001
 3.521222126863315, 10.601621885774254, 12.877259663057641,  4.015101941122869
17.614147452426117,  1.618625630837062, 42.040993985306628,  4.344162514083360
 3.260038656554668, 12.682657459494122, 78.338862923076022,  3.876054933984502
 0.389977393279087,  2.661318759947963, 29.946890520349587,  4.218461951340623
10.160670099635448,  6.324998248451571, 14.866427763441383,  4.411011459012503
10.177403177066084, 13.646102802259724, 101.552131454352121,  4.022332546511875
18.254581178982157, 16.289223948227665, 51.687822750868158,  3.752607029364265
13.337777053775053,  8.280866817103936, 106.440662491949809,  4.007719111906797
17.465759707726704, 17.956030912342360, 101.214433887969975,  3.820968011861284
 9.108671129195528, 12.473523381279902, 58.721045957430917,  3.792190877918211
15.654727710718284, 18.018411011720286, 49.346568180858554,  4.039831979406313
 5.750497831811941, 16.345889703004129, 35.218782131993969,  4.159254674688151
 6.644787096262252,  9.373837732066951, 45.477641187038309,  3.712865990911169
 2.696104779572109, 15.532252532535523, 50.542804524910224,  3.560746200362687
 8.455351195984699, 18.844383430221132, 108.987440215516685,  4.043497466111542
 7.525428758486698, 14.941258521030329, 41.324133871591897,  3.792660211853749
 8.237914491618909,  3.639961421698009, 25.027170265710158,  4.098015878141706
 9.351823489350096,  3.716231629583190, 18.854062683866470,  4.214124458208221
 6.311742506769810,  7.987363955337690, 98.888411894618528,  4.080075474933817
 6.468744911551418,  1.319564247707955, 90.245055313499975,  4.366961378571387
 0.260595824676625, 16.462252359874039,  9.364378109806077,  4.106694678566067
13.366497454015555,  5.871759269836679, 48.683009794431165,  4.143921309296690
15.027041322648747,  5.958769831648696, 62.278905226350936,  3.666304269011559
 1.106836068859189,  0.224993733331146,  2.845685289635295,  4.133493972033005
 5.785361982956845,  6.669800935381077, 57.985963842734911,  4.011266477372772
16.125045164639278,  6.003951854672934, 104.441231911292277,  4.043046235264273
 6.166126917883964,  6.629565239058755, 30.721221253548016,  4.175898908688019
 7.060084447709951,  7.837160201210658, 25.203432362471240,  4.187378598399237
 9.194766939195571, 12.233032257853695, 118.051999636709525,  4.117518695801463
18.325784440098527,  0.804725266808241, 89.716148522643863,  4.050302107201254
17.364091320738932, 17.886431337870434, 116.111273944481198,  4.197357025146738
 5.469772570861175, 13.011524239245423, 70.931218218470306,  4.231726502523651
14.128123988660429, 10.574689575535244,  6.077959845268128,  3.998770893479815
12.229980091615641, 13.793260075610149, 55.978687139852234,  4.149598887435283
 4.808185981063015,  0.056079675450475, 110.356654872738218,  3.743746378989629
17.688686401614294, 15.622294143794381, 83.364178433061213,  4.029698975504105
11.033890331269731,  9.767326136769560, 12.549066715221221,  4.065502880006489
13.309884023050433,  6.793323145081610, 52.661815350613807,  3.990292889189895
 6.683878877623957,  5.704388812305795, 16.791389719557284,  3.611872768766581
 2.870468807766243,  2.555361723376257, 86.171047722204023,  4.024970078513692
 8.083595247573159, 18.964857410627818,  9.268788603674901,  3.730388421300502
14.784363002268842, 16.750336697823993, 86.117192434560877,  4.279249719072572
12.614501853576851, 16.681700869749722, 108.154176843120879,  3.915007370538008
 1.081589910405008,  6.602036940246117,  5.387773431461014,  3.794739822042263
 5.873030984658211,  8.285851886959266, 49.077967462690992,  3.955710204398399
 8.586603640147821,  5.741058451302941,  3.897794392700047,  3.642951661714160
12.749421786807689, 15.822419238282425, 29.487324650888272,  3.824665450271886
13.978670063431959, 15.521966786154495, 46.503493236258883,  4.235504397088814
15.462580210378029, 15.759893161624719, 57.851080998138393,  3.991583793736109
15.488022298829192,  2.750084043768438,  9.806142893818945,  4.207244246007820
 9.419935586309141, 11.389423008503597, 25.592274857678568,  3.944574524982332
 7.618069241747069, 18.410575349579318, 76.547075783278046,  4.319577326208472
17.384381090250390, 10.006264367927185, 31.167136145184124,  4.045546052620343
 5.684073252321216, 11.291154371632055, 60.575431303702686,  4.295818765141373
 7.261479068430924, 16.692484335952745, 100.899376278807651,  4.495097784848134
 9.065009571967877, 11.827951653826524, 107.128789969746208,  4.493032819281830
 8.206424558732362,  2.792213590467302, 97.030989113610332,  3.716052577618432
11.769175128315462,  5.963908351285282, 79.070784298463138,  3.951829268494298
 1.607187331760694, 13.025996258211533, 84.553076762078206,  4.081531489700160
 7.008518402827661, 16.975039992402881, 71.182169176242738,  4.151740424644473
 5.468626314558567,  6.785612657886309, 64.655664697729989,  3.730781020018307
 8.841829984744434,  1.937866047239482, 73.518311278006152,  3.901526475584068
16.740767502092286,  5.582582334270398, 18.926468280891626,  4.286843884706556
 5.195352277041050, 12.588678011375571, 106.926183959882351,  3.174631112155352
 0.582814589475926,  7.643338550089215, 12.800923763636813,  3.808600173111536
 3.413713068116626,  6.452944626806498, 85.431925836294567,  3.962435793698930
14.031309771940695,  4.581442740528109, 68.898582495838951,  3.786730979224999
15.881786053021100, 17.176959199903802, 97.188175784509554,  3.666785577398478
 5.988117409142766,  1.263548450707850, 64.694953151671882,  4.117089865757066
 2.675966219993638,  7.770939716579809, 97.220223930545004,  3.928928376074587
10.167585616241235,  9.709993534928071, 89.396061827261860,  3.683050659776055
18.078199166058749,  5.240222669485328, 44.588301399280340,  4.472950679349839
 2.791338034412551,  2.947551129379700, 111.486104987665158,  3.644287825760170
13.208273860937602,  5.775314559111744, 83.029294646971337,  4.357429963880406
10.661715669823190, 11.569353859118378, 44.968410399856161,  3.952464336819378
 5.081928204847703, 15.599411264588937, 53.625448618895490,  4.025303853057843
 0.465195892805533, 16.979947317076444, 43.472927306269995,  4.190406112104962
18.263385460277341,  4.233035062153873, 58.153409580184132,  4.011579252565947
12.724013887435619,  5.881888286032070, 110.860724217518467,  3.820870942032080
 1.711250567452765,  3.690125925112758, 114.804273412791531,  3.478919520000001
14.433423842917492, 15.171029787300668, 36.575687454710533,  4.037549728475743
 2.238058331122161, 17.186373351262269, 30.002361439972642,  4.126133130523555
16.092602234125749,  0.719147915233356,  2.629108142257010,  3.868091909953428
 2.347744471706497, 14.760142188056596, 107.232672316621944,  4.001620444964786
 3.772529903025766, 10.596087096062544, 43.652174741815003,  3.511164612258812
 7.911929275602243, 12.619470960792109, 19.271779958105569,  3.911803332059673
 9.281902129986436, 15.097134507205842, 109.847456900176056,  3.779306658126062
16.744947905556636,  9.255770262354842, 99.167328054778253,  4.323235848629557
13.392012715888104, 18.741231207948509, 17.043910882550421,  3.914104076397160
 7.961080139846182,  2.739687668250697, 56.172665794019487,  3.921289037404581
 9.315258783053812, 14.736528916272809, 68.685726661853622,  3.981935887108813
17.419486673583428, 12.685902116865359, 20.630173243757415,  4.138167600209607
 8.036832700133225, 16.891088137229040, 12.506307724635652,  3.898127068198624
12.630396398756377,  9.790868115618292, 117.373465651164651,  4.282338327315876
 4.727004314976241, 13.829001043506604, 21.426735555092598,  3.694711812095149
14.960972866703178,  4.987499578992332, 34.956385526704857,  4.402181432550534
 0.323532037646848, 14.270977934960671,  4.997600814942330,  4.021356058108858
 3.569285174347960,  0.108733769967544, 67.630683120718501,  3.795831905137801
11.186512759565337, 12.533381079344602, 51.953944836213338,  4.051212289608245
 8.144690509797364,  2.726561204700910,  1.536067745078114,  4.044941561684437
 4.748107084309284,  2.547941291926870, 103.403556041598961,  3.853699452110746
15.279588315037419,  9.360623174186099, 19.734242994201711,  3.967574774683909
18.024722572021062,  8.239020763504543, 109.321850379670565,  3.901075034632736
 9.635703156275573, 13.393275122835332, 30.589203284691287,  4.179272700527082
 9.434459483996486,  5.860068903562468, 89.282964351201798,  4.140518071312722
 5.302690673924070,  2.428035709877220, 59.137264168302352,  3.927152332106108
 8.964137713577157,  8.879731739524331, 51.618614057343287,  4.126156927649159
 8.512662370739458,  3.349883133255657, 66.942660677530696,  3.773666927881864
16.320104034471253,  5.599308550016537, 12.556688086047624,  3.776247680621241
 9.866013204288576, 15.177556352959641, 26.885181770942534,  4.035488867415138
 8.043711806265861, 14.835157795515139, 51.094338092879603,  3.912293901169524
18.704026413951674, 14.273552276517055, 94.507386330814526,  4.171326440886522
 9.172446439062917,  7.700104455296742, 105.296002116583622,  3.860739810672275
 9.442853822181004,  6.362258235075350, 97.106918170436387,  3.823954807364795
10.061254080870640,  1.363557773964688, 44.213734609116401,  4.064361625522536
16.542726719447707,  8.942565900022577, 23.525330800567552,  3.959021171367448
 3.509011040773641,  9.706384209484458, 111.435079782832830,  4.330724189121368
 3.474598116169935,  4.899792591541726,  2.618392894275815,  4.130242240331551
11.053273338748388,  8.662078131716557, 94.293974777539489,  4.105907824658035
 1.868265877674964,  1.324598539686394, 71.139751507058534,  4.354626463749582
 1.132710919203958, 15.888419440731608, 91.028629759496226,  3.958463316867864
16.822342656167496,  9.923209699861404, 106.123795358296732,  3.713190000823629
 6.750700987078123, 11.116603485808270, 89.370825131953509,  3.619276650581539
 0.093937579760927, 10.459239617572930, 95.894265209895266,  3.925251322650956
 8.881271749150761, 18.757349068068105, 34.034222259664752,  4.053081120824701
16.486969443602476, 12.717964782255443, 101.658531715955732,  3.744677213629664
 1.867295763247610, 11.005854374033614, 62.820558452275037,  4.015789008522472
 2.265941533960094, 13.949328593928650, 73.319997140121657,  3.937399975227379
12.093510305211327,  6.554627761229891, 103.189851888599691,  3.689623684375898
 1.746687820071428, 10.322765571620259, 81.358663617119518,  4.109366300317149
 6.017565454980479, 13.660440642788942, 85.694848315743613,  4.017231143948225
 0.027841966877529,  1.388003048582299,  8.563125251781690,  3.696493496084153
11.109169502712570,  0.547865145847081, 105.778912147103796,  4.057319042546915
 9.048585802237028,  7.959630765542515, 116.382412887737019,  3.984355934276823
11.035779856541083, 18.709650388789996, 70.691105816686914,  4.300411913922047
 0.553408010417108, 14.888130048399480, 102.258374828707630,  3.764528131647268
17.131468239046299,  0.692876564199664, 12.736309208865700,  3.670105928022132
 3.577662347508030, 15.720204360784228,  2.998483568790054,  4.141083016560985
 5.413376872472907,  0.456044237950347, 31.411241943654783,  3.926197500660362
 6.130003822845812, 11.536191418327531, 31.334404328888571,  3.886164936102113
 1.023235200176461, 18.175774510778091, 94.299111464423419,  4.019048863415808
11.023776994410561, 15.122934709785754, 18.813264131341516,  3.954131553620312
 4.475430869937345,  3.283264485218921, 117.454915850261258,  4.201584885605392
14.306065182741371,  0.694852468794379, 99.686372946969783,  3.984428157588187
 1.606285564154656, 13.191391661989448, 110.738717889048786,  3.709292733547664
17.593683923504916, 18.260064830452482, 31.727152069391298,  4.156622341210211
17.135252699671213, 17.941356737833214, 19.242328798478674,  3.824667622690738
 3.062877025442969, 12.271046096455915, 67.551150482922978,  4.001781187508677
 4.885336955576537, 14.649368505515849, 89.679108357406633,  4.366871144555012
 2.489184451861377, 18.139312392644317,  6.446451285629701,  3.852386284022886
 5.554723326354074,  1.473285763277540, 35.447234230828762,  3.917678833830900
10.572699030020383,  1.881054803363871, 89.381408226925956,  4.086777825030255
 0.488746700079124,  6.726088606568668, 33.345713362926297,  4.066623622461754
 8.919316176579786,  6.808374181868504, 10.966992488508124,  3.820548545055617
11.376611026276390,  4.357495865535492, 99.937905453187639,  4.109109405722403
 0.925121132559717,  3.070012295745865, 64.623506378956151,  3.666369697591719
 4.348946820327140,  1.861477832742295,  8.716029769908026,  4.098592443110079
 6.640102477193546,  9.146355910630927, 54.948101017451620,  3.992220595984537
 0.620094259893483, 12.160288536783948, 99.561766229022425,  3.813213531982838
 5.446924759217935, 15.547905021720050, 67.623346881300336,  4.102840445881651
 0.300144683044053, 15.839905934381964, 98.317901006191249,  3.943106236616731
10.562219484679085,  2.107216641799245, 113.075128248004575,  3.963585473108588
 2.379428863726024,  6.418203969192109, 93.140216693456168,  4.110676581920862
 6.077256090578524,  8.979986422704966, 71.668448652187010,  4.022335598320817
14.087009715619921, 15.353850405907988, 114.900201500986412,  4.302799104844337
10.541783894965425,  0.628389309082458, 98.981834076760819,  3.666394083965498
15.013941094124169, 15.467954620008017, 32.506990021848402,  3.602236628198875
18.103119697330179, 10.364361009351349, 78.162105520113315,  3.960036518406962
12.788554156753827, 17.775105817008836, 78.626959709004950,  3.893520178460549
 4.857497813678915, 10.125584124862783, 20.973356751930034,  3.746212892410244
15.831265244059303, 12.266099811171376, 40.709625105206847,  3.749118356939602
14.179325804301072, 13.455424020568454,  0.057361363069229,  4.021745240686857
11.684194017468640, 11.125226136860597, 19.387605022598649,  4.068018866848251
15.782782992259342,  8.014689853140064, 68.220606621602840,  3.997792872147077
17.541086831068327, 17.831462760466607,  5.841599605493721,  4.065242692933053
12.488002340509151,  9.469983699413058, 49.999883272398151,  3.658780584042583
14.879214940812266,  0.198283005033945, 69.144249221162681,  4.022659554068035
11.546011677436862,  2.105677005820010, 57.614862959299742,  3.898932441744563
15.854886935331747,  0.049893867556757, 53.305808230286850,  4.132204062403567
 2.373670235799161, 18.620744665145139, 53.261754960651999,  4.120539317463892
 6.115778156230108, 14.930400724721773, 58.642117486522999,  3.920660284844600
 4.308988729528406,  9.786894070815940, 93.701007701974277,  3.643642314997721
17.345560932751550,  2.223257308162917, 105.020887114043532,  3.885834473554771
 3.582836851358134,  7.708216357368356, 61.247820219622433,  4.054744684461814
17.189541976509549,  9.117000670284369, 63.329467147902747,  4.257886446230231
18.725326796673500,  1.103235277312799, 112.929156328676811,  3.976975499997572
 9.693788680335963,  8.678308256391588, 58.760643870466900,  3.870353671961180
 3.308634700975997, 16.627090382324955, 85.330890837476375,  4.029922157375324
 1.410728060761262,  4.638950131498198, 48.691454349912739,  3.972791506348165
16.154100908266589,  2.482920192431499, 61.182994217322097,  3.909673828784344
14.471172887858822,  1.026086999519927, 88.636750081958127,  3.953697865095975
16.817521552310073,  2.249241464202626, 21.431976253158208,  4.045936221652054
 3.930938013728660, 14.061556497196008, 100.523832523653851,  3.916285565014727
 1.779101872252287, 15.395018518254084, 80.784227797987057,  3.976974730687330
 9.455455979364363,  5.066621886712810, 93.242851004562240,  3.858788742307087
11.619459406242145, 11.486855030003142, 70.055850776922355,  4.368693775615223
 1.554372368611968,  3.055718632776070, 80.713631157049690,  4.022797068387690
11.746090781727270,  4.437505847738882, 37.833807884468413,  4.233756542210094
 3.259431540163381, 15.987706094788198, 76.406849772377456,  3.710811138295919
 9.670643573884387,  7.595931156247358, 47.678759796065172,  4.254235736552208
 6.071199279826781,  6.521995445902804, 110.940826503522402,  3.889842081697818
 1.268602609284347,  5.830940703595476, 117.853549641335007,  4.022481297884186
 8.989242613374213, 17.277911376501695, 54.182226800755082,  4.184703854565744
 1.986804180294356, 13.196878614290267, 37.076153561477597,  3.974884049956049
15.435903988717289,  9.851931603156174, 75.458612995020800,  3.628648765819497
 0.765266937324905,  6.207220114730211, 52.615067315571345,  3.824488102123768
 3.441047788015814,  9.902583690258531, 100.811570846678478,  3.813587091829008
 3.366547696012233,  3.746776314545862, 32.792785982970514,  4.288761755183829
 9.893049064647753, 13.493319039854317, 12.131156706950842,  3.697985549354396
 8.126530712227057,  9.483499203839131, 28.726864492472561,  3.815309444438345
18.698053319225817,  0.892581152977339, 97.832535270662802,  4.215844567605068
17.345587184704765, 11.973157057223434, 109.187712714732825,  3.688764410194587
18.939385176889871,  9.686182544855898, 102.762851080101896,  4.117736923396325
11.051302792526691,  4.995678049445562, 74.064643423758028,  3.703316295661105
 6.123203758508359, 17.818538944153108, 39.045393931230976,  4.053404159496989
 7.661672887964566,  9.938759484799832, 95.796611551710512,  3.714653376114316
10.837911750273021, 15.266473181703848, 43.417985795276337,  4.051476793274585
 6.332002296170220, 17.629288036931911,  6.194273211660396,  3.827893122005678
 5.309621473272017, 11.530828224792774, 24.574017790877086,  4.029258226194474
 4.536785782571537,  6.608059217016514, 52.276891792025026,  3.735479018787005
 3.778966365536019,  6.166732490786390, 38.038478375508177,  4.355010817602847
13.871251572443120,  9.957820928357997, 61.037642243529938,  3.973728492647993
11.361363254573698, 15.384937608602213, 33.856850763724474,  4.178355634691145
 3.355807015612795,  7.403855213537260, 74.198620313319097,  4.032295276437527
 3.744144076951040, 17.732676963392105, 59.848082112964420,  3.742727858628744
14.012832705352295,  8.215132531300219, 32.480124032651609,  3.915031670741731
13.061264917899686,  4.681710308821818, 87.759543613615321,  4.069169123543348
11.148789345642188, 18.485539344898584, 83.746881329350217,  4.320446922301211
13.601894086913116,  2.295247716068372, 50.701051622562964,  4.079283810620530
17.215495568837554,  7.004950898368781, 48.299888076223851,  3.914315208978989
 7.685168237812134, 17.875603574029274, 96.774682016510440,  4.125425794993494
 8.259531818153210, 12.410486006311064, 92.634911598218167,  3.993926509848949
 0.455894284077181, 12.023419409666914, 42.394370427331957,  4.066663707060378
10.045740441346696, 10.989379737282192, 62.377996572316661,  4.305331599610529
 1.477460695573307, 10.814538078327413, 116.153907469501362,  3.992939597032661
13.216101561105287, 18.235957769359391, 43.536076388348555,  3.554619828382321
 4.487054314916550, 18.619826355547133, 73.874113129517696,  3.914041424055998
 8.814322633541952,  1.544130525762946, 37.702070711622859,  4.004404370434866
 8.010975677783550,  3.786020271662681, 105.577616708407575,  4.225182858882760
 8.482711243851941,  8.799503419327365, 18.225005062435905,  4.047940156191408
 9.319115292316811,  7.583444718953278, 82.954162742453846,  4.019909804668267
 1.453673607988869, 13.633757554547969, 53.716587112106915,  4.194608676379955
11.534079354204904,  8.246983924606798, 26.255314536025505,  3.718635636039478
13.060767454854208, 18.181093454101465, 59.768443570571094,  3.742125858149032
11.018774670754775, 16.096956057400742, 14.928392438579209,  3.930765252616761
16.359870268238950, 14.098061841720604, 54.300613494749342,  4.045041870493015
10.972757251225488, 17.171256594697493, 87.708078585247719,  4.020147581216879
15.848406901578162,  0.764284054651230, 108.454171613516465,  4.128638806792315
18.427938318252266,  7.348161413369852, 75.479999329506626,  4.049888808479325
 6.495608156861591,  5.011734910315926, 83.534609380901358,  3.695160685968370
 4.804222418386369, 17.712844956330187, 79.508622957645102,  3.915788447704196
 2.150666693643264, 17.174548625773870, 117.920335476344178,  4.164391571597766
13.447618787458316, 13.919208423926284, 103.845627995770585,  3.956556927296658
11.988622928496850,  4.452797865175199, 106.719309379299006,  4.127903525153135
 8.073458125318185, 12.974840948003317, 34.606151804989324,  4.111158608329652
 5.445843832730314, 10.596107373208948, 64.646779334957998,  3.864327156591876
10.051247582933115, 15.548885308418322, 105.454105311607549,  3.781272768643054
13.198128410429604,  8.594473931983348, 45.686181971222268,  3.948535971633197
12.345551450365866, 14.121699915350865, 39.842958485314689,  3.991150272035745
 5.592985951106855, 11.710339907482126, 51.816130835668581,  4.132340836324935
12.488763190661466, 10.151747685203491, 40.792949411314034,  4.160689558293484
 0.083093950877724, 12.494746930058513, 49.891658925021048,  4.138796243773355
 6.385825539744190,  7.884902358789437, 87.537370864431864,  3.846864044071372
 1.503287041239729,  9.213849444440225, 36.322677445191736,  3.950461091911623
 4.353283904423869,  3.283402880822122, 23.204532936666610,  4.354004542716750
11.725665656526415,  9.040170844346550, 113.479541221575275,  3.823770144697761
14.322675735681754, 10.472948197624310, 88.788608525718104,  3.813047462532321
 7.227015703785892, 10.892718127356126, 41.317547807932662,  4.300585476701226
16.508122741936344,  8.266693882904288, 82.421893496694523,  3.960092893198124
 7.712271588547392,  6.632375433123621, 68.855622479274714,  3.980623460678747
 1.806235979648550, 10.701391465767248, 107.647284771303333,  4.195774743330202
13.793544203623421, 14.148618578934562, 82.899563933963904,  4.086103779541035
 7.445495296533305, 16.952985874238635, 44.504355404818469,  3.684582344386145
12.760455006636946, 12.490566054405217,  9.672734746856447,  3.978842820837333
17.035695397406645,  3.151259238497085, 70.578383324398160,  3.658572621472159
18.574367235099981, 12.945449101416136, 69.822713425877041,  4.070513657909063
10.336081442363435, 18.887366227946139, 19.284710844238361,  3.664980623819600
12.961501292086917,  5.051642905901516, 114.948762498885031,  4.364135187577073
12.147505468000357, 12.584512327016789, 48.272448937720398,  3.496158552308900
 3.425381968123294,  6.992964939907083, 45.928374927120217,  4.311558236674101
 4.076151645509018, 11.701615802982692, 47.874944880724769,  4.079572592215002
 2.088587341985867,  0.844093622686554, 57.081140141421933,  3.897135044173737
 4.341388739180250, 12.566529773684477, 114.197612151990725,  3.771214777835813
 1.209290288616234,  4.412404630050064, 103.450933452839507,  3.867343645610713
 1.591686637152264, 10.309065682868241, 58.704758242002569,  4.231528712100348
 3.008372994441076, 12.367600421397313, 104.030442694662696,  4.086895100736824
16.244324106276796,  7.494052618703789, 114.162021110848045,  3.964441623855072
15.125486552953577, 11.907255981124202, 67.973665435032274,  3.825911496733148
 6.502687281250920,  9.284458007092466, 37.576731682513532,  3.963323113362931
 4.779673232014181, 16.947650317764143, 10.060795741569610,  4.156127837528889
 0.050543511886565, 15.024204179058177, 63.020343180340326,  3.816398369463568
17.637636490394883,  8.242406374389567, 92.798913390569894,  4.103479218554485
16.499279413157932,  4.800893658606713, 51.311365226488505,  3.638152197832255
17.963453336685646,  8.242537150623287, 71.451710359641950,  3.808356702946514
18.508608790735206, 10.341537800837610,  5.579404866783027,  4.038933961525436
14.941330165798041,  2.775773527070691, 111.913295351127147,  4.073169613822614
 0.303987446376707, 15.019848286470769, 25.490816334466519,  3.883797273303535
 6.411352431286645,  4.058919134592378, 87.202403140369483,  3.815246904717803
11.426131717930371,  2.905161141471985, 34.048122481457703,  3.958348958069402
13.391407202494419, 12.910607160766364, 13.905853395927751,  4.223670278625331
 5.896220454281933, 10.241436113512101, 116.864095951811478,  3.852932908958069
 5.474732249712661,  8.518770835488697, 10.004487456509393,  4.078365155960639
16.651877672777001, 12.352906186668667, 91.425575397572572,  4.164388232199178
 9.242479229570916,  1.891191953758507, 102.253387698717361,  3.802925562089787
14.287113072226077,  4.334953786699882,  3.454678796048097,  4.366294683508513
 0.397204466124228, 17.164697268630640, 48.027682307643396,  3.993029829929100
15.127425488033285,  9.424889584853922, 27.329478782493396,  4.062543655377833
12.949652783139120,  7.363289259365997, 90.865148147021443,  4.116815845298855
11.641294650671542,  1.462122387712737,  9.383404116793175,  3.926412561157371
 2.541516032784412,  9.669315835223959, 53.585785516535715,  4.013126884421563
11.884233871384131,  1.887272570925571, 67.478868846308060,  3.607845203938108
 5.984203394294210,  0.171699999423964, 17.137950387368544,  4.192411786498913
14.162862582252762, 10.711821180255493, 54.042985723906753,  4.043521477681367
11.341735963726116,  7.004924749625721, 61.901942842317574,  3.972771468679722
 8.401164153533056,  3.987559502428055, 116.284739977407114,  3.969969259785552
 5.521070090111460, 15.626125042012012, 47.795432979174464,  4.266887626636890
12.249060325727365, 12.070188728321238, 85.949883374863077,  3.909103204369593
16.546237548721617,  5.259809622745266, 90.024806783154332,  4.317256660611862
14.789455083032589, 10.347655429907967, 95.001303329472847,  4.210476399736000
 0.038479296464340,  5.664928934247927, 61.877348160268205,  4.063302093811190
18.466032498828429,  5.633069207458066, 37.069924124876366,  3.880034676384457
15.367361659999656,  2.929172342052577, 31.329919613762122,  3.958825144409369
 7.171838781222098, 18.573940794456686, 104.891022437835431,  4.124490984405774
 8.252644721106520, 18.445119282978190, 67.565921641013588,  3.962742488722487
16.207579771098501, 16.376486248574817, 90.361576453579630,  3.970855718643044
 3.962994615653274, 15.892076335849646, 96.616476469244333,  4.102522741315791
10.875557905063406, 17.481781298074932,  6.580851680326315,  4.336286952172859
15.538282166370093,  2.883621417510243, 38.598113885810520,  4.082603397025007
 7.066476444229298,  8.086729946974900, 75.671395843971439,  4.005831109324062
17.685893572336425, 18.760763828099410, 63.882143142057458,  4.292627635429583
 9.867970463883951, 16.399405670579782, 58.238492341536890,  4.175525170334241
 8.183124554533624, 14.889104273239672,  8.693281759456021,  4.248032928779744
 4.704080980989107, 13.004000837888929, 81.989896761610410,  3.949689386276865
 3.915693638190938,  3.368875673421694, 15.853521108395194,  3.837411847758300
12.764677270004334, 17.830650572907928, 55.683799588630094,  4.014703563375099
10.246520000372962, 17.470367972299925, 22.995488277362934,  4.270389372363448
 8.592197918497249, 11.943111177722798, 82.318385449872324,  4.047829326200231
 6.204694365762879,  1.619915151615255, 99.984591617109089,  3.773530234668678
12.448853888455149,  2.058816323328916, 41.072747644877275,  3.913614186452615
14.227892571546821,  1.899257370438792, 76.483668790933336,  4.127822317795427
 6.110803233811363, 15.900392372367179, 107.734958681042983,  3.877799049751802
18.808996298359798,  1.376440734158882, 50.504016939323947,  4.122505941450395
 3.941821697747007,  6.191597388747751, 101.457515833317132,  3.770470770509724
11.553079404914271, 18.380846990999363, 74.796386554889338,  3.913456724868420
10.824438099531042, 16.039517266304632, 63.341473771034337,  4.066124596935739
 3.133744475387275, 16.489237444207571, 70.609634934677388,  3.668473542429533
 8.829997209187093,  0.899348228904648, 60.284832854661211,  4.090808418791497
 8.491178044934353, 16.629519319674188, 90.839887754276006,  4.028858020967101
16.394085002311201, 18.608038410047087, 45.521770484453342,  3.825489753439483
11.648033062184608,  8.146290254309589, 86.191931090322484,  4.027226838938248
17.585933429144060, 16.003881092295412,  1.503485726600373,  4.376957782308172
16.020009755186329, 12.749278042079155,  3.445729536272168,  3.806725531328976
 8.649086862560525, 10.917937271539749,  9.554701357284804,  3.922014168882744
10.411214362669622,  3.996084663010078, 70.299095267586210,  4.018243797275353
12.166468021513088,  3.016255905826591, 61.496401729729840,  4.160903521242139
 3.064239250799201, 13.183236741517879, 29.276718634455154,  4.128743159385506
 6.927384584150113, 13.714263504529731, 103.937688972310795,  4.036521253100364
 2.160002201707971, 12.175163046554625, 19.164302468913597,  3.901302562166505
13.752693469238444, 18.692745635424529, 20.980128687318249,  3.921779260322708
 3.228986450398978, 17.969317852940556, 100.075873940003206,  4.072500456635961
18.411370436221787,  4.983224503031320, 111.672724112698617,  4.165896014869801
15.716268377198139,  0.220515842313561, 35.273077938198597,  4.069823893309151
16.658157378409847,  8.823911176113180, 35.337506799224350,  3.963073695665920
18.549626967616675,  1.205964556991531, 67.665066605456417,  3.954981095119219
 0.682431127317095,  4.992861467840584, 72.559473451284660,  3.839464682290013
 3.909196794602014,  4.012352789982699, 66.971288828210049,  4.134864977630300
10.140185970784126,  8.180773918820682, 72.077232451913574,  3.865532389614982
11.004515768500859, 15.710976418678811, 98.205180005240194,  3.990278033090255
15.650566124424399, 14.226389553091058,  7.073883632182945,  4.059398601704554
18.516425724435219, 11.732975004289591, 27.625815303333702,  4.099157582622306
 9.815047479048197,  4.520067769044046, 85.426747463924315,  3.895597205184178
 9.529277509346603,  3.791582465986963, 81.643584534466768,  3.816191080229900
18.638214985430935, 17.633458596841979, 106.304083011131866,  4.064678560031028
10.493717442823662,  9.840908187328367, 55.173970322264204,  3.817538133796253
13.337839782020023, 16.083698813221087, 25.307569291375884,  3.797680865271305
 3.785698228524577,  0.321896056021836, 49.318196336295777,  4.362030071200036
 7.463087026030180,  5.427531802996434, 72.562084249902043,  3.799942861857081
 4.301265503486733,  7.435446010105969, 34.187237640397498,  3.801673198923202
 3.003832937199777, 14.068508753366919, 44.804753582536804,  3.961261367760037
12.008838111708963,  6.980423686961950, 19.277163246308483,  4.161202477090320
 1.077950830158732,  0.702043367467954, 23.270162815350986,  3.923537570291372
 5.544840235563182,  8.244743460271106,  4.022289803650089,  4.217867695513842
16.466567142699635, 12.298774805937414, 85.731476217061655,  4.454523227508785
17.711283923975003,  3.616473581044716, 93.798732317019585,  4.202589173502625
12.049087581365677, 17.116804318482277, 67.029758649058493,  3.913602125425735
14.888370071021528, 11.308218287305470, 114.181095230710895,  4.069861943224121
 7.334435076601849, 16.524001216415261, 20.093942636499438,  4.144843978633845
 6.882016663756082, 14.294124694853229, 78.894028046989462,  4.018898245290961
16.755050120355492,  2.871750035563771, 82.129118200545633,  3.994076885652401
15.085760353842087,  1.956736837475793, 25.125729449739989,  4.129897795962351
 0.600557153971842,  7.879479424567392, 26.195811053234557,  4.382559838228694
12.862480226226610, 12.627092875116682, 26.864538732527482,  3.799995735806493
 3.852139543978983, 13.305685150857444, 118.268025137497204,  4.004374363382206
 3.759819878963861, 15.740161488463178, 18.134889237104137,  4.151286033004565
 2.975826777107581,  3.261865219250098, 51.929206138603419,  3.653731444681756
11.313619004697793,  2.574863969482710, 22.492035927569038,  4.152368832853296
 0.632139562133202,  1.687299789560667, 46.201717384249811,  3.893157806069208
14.410758054241310,  2.814313792122770, 44.413853498573815,  3.964222850204507
 8.775573300119619,  4.203381517216509, 40.847332679521578,  4.233327584961281
 6.812500692031010, 16.780044828277436, 62.318132913840948,  4.307002555298971
13.498257804648874, 10.978866805742856, 36.976753522901937,  3.877054345176080
 3.979643152154617,  0.688591808041277, 82.828909610814364,  3.933993417041798
13.180839378489633,  9.260301260874170, 16.017122753629948,  4.124939862829549
14.541332866294267,  9.295362190686630,  2.376946479326223,  3.836523744512518
 5.784347668208091,  6.751185691065777, 95.205491847958712,  3.741702451072440
 2.804217117600895, 18.006123065725735, 63.580518250900909,  3.960473428441497
 7.974682061617290,  8.931403589424924, 33.821960989284740,  4.128512942703079
14.529737251485187,  6.180170200771207, 94.458314830366362,  4.027211380291575
14.353697926755055, 15.700947549221516, 100.401009192750948,  4.008332065933613
15.351837363927181, 12.073463279711824, 33.792790563340795,  3.687971869548755
11.776760249405323, 13.057968293126072, 66.036849092312536,  3.986227150941712
11.333540519859570,  4.733175864345814, 45.536946769668333,  3.606048732980964
 6.748136150102996, 13.049646609065345, 27.855760387868447,  3.734642321096027
 2.480269809292681,  2.912035776961781, 100.074468929593110,  3.886896259939111
10.296322420786636,  2.545090765408846, 77.503632534306220,  4.095483556212105
13.035138077160378, 12.532225453449373, 78.823783476441747,  4.540579263116173
 4.039770657446565,  3.527931877945500, 73.805544825725150,  3.805548305030121
 8.513678994555933,  9.936963109038075, 22.050883112409746,  3.883197886342380
18.799788998872895,  2.772418941152168, 54.388325875195157,  4.116785284501888
18.774614363604552, 16.542895170798765, 87.320057982264444,  3.972040431833531
 1.090112345948044, 12.546955744434095,  8.460243076902978,  3.827157306516882
17.665430526319817,  1.987504284033412, 74.212493065294694,  4.062472369899236
17.922235832943297, 13.821235524695382, 45.964133720997829,  4.377386021711818
13.286499189064429, 14.238754695117919, 88.952130699654447,  3.779225005399328
 2.483722609097063,  9.875025872079823, 31.666474680028884,  4.091330168903344
13.456232016225018, 13.764483042920736, 110.960793552852607,  4.200482602509753
14.308725609914672,  2.563196547220509, 118.325578155284191,  3.791898366616902
 1.299254377049235,  9.749043350885943, 16.136643927052354,  4.046313843219917
 0.579939620166908,  7.315097618789958, 105.886007027122417,  3.798951272037823
12.631286617121344, 13.846681408216394, 60.238864233940674,  4.341158929480340
 3.797422383432918, 11.705158809510996, 97.116566220892267,  4.249887219373054
11.820207474107749, 16.709737044255149, 10.976970971538666,  4.111544199500394
 2.673404801187331,  0.364738513763167, 40.781763410319002,  4.168612570473563
12.172527727057380,  0.736569711275868,  2.560459016283563,  3.916772240992590
 7.355074887262101,  9.735404860446094, 113.184022372401174,  4.021588113210526
18.096516755674248,  9.363603199241997, 39.515435728201219,  3.941345895560694
 4.204276222645555,  9.389918718406991, 27.920207939447025,  4.130762378011935
18.118270706803305, 10.541227700717629, 55.334824398929740,  3.771158283693395
 9.968643778085106, 16.094746154002717, 116.273082963605816,  4.464432581454924
15.332681026840433,  6.358650485913207, 118.392322275582174,  3.995259410995279
 5.497547312988858,  5.273603527504241, 90.771770182653441,  3.837493256991063
 2.878197098826946, 15.776344232435962, 56.795240131459543,  3.699753737169268
15.732137916639292,  3.733590510876477, 97.459231587847853,  4.007917792040813
 3.408070587343202,  0.371405048465372, 106.671725484148098,  4.163735736275641
 7.081027304000123, 15.514301594914151,  0.875651318059386,  4.040587128886298
 9.756635867886274,  7.755057899725656, 43.264993328378281,  4.578739776322312
 8.676729974510437, 18.210441759558943,  3.243128820913600,  3.783735161611907
 3.808913805572516,  7.314701659041924, 18.607551634029679,  3.888235418377143
16.517609259304141, 11.746916754621404, 16.549830822012272,  4.263207259313654
 4.503491785754801, 11.221324563151017, 34.825883460219970,  3.841540581905834
16.381811031352331, 15.627706087204684, 108.858947880890653,  3.836635387483398
 8.692850572720680,  0.177074845075324, 80.478042605511490,  3.959036478827382
17.256869373569888, 14.230538657473419, 112.435509796408539,  4.002619613625312
 6.682638202964135, 14.600209630672193, 74.720479133638150,  4.329450430003931
 6.676728910471846,  6.440007179656982, 21.213001971292645,  3.900075524351504
 1.165820963729737, 15.843288114327546, 21.527730060007620,  4.371451691409910
 5.779679768253506, 18.361795387425147, 56.558025430539082,  4.086081908000115
 3.020932262092949, 18.516638367388385, 88.807514124821211,  3.889898274097174
 2.191087708635122, 18.699977042662024, 33.920947738711810,  4.246869990673185
16.112489857461537,  7.405611531956726,  5.176114726690863,  3.561798580859696
 0.381093993209260,  6.201319792375621, 100.051291067894397,  3.852143414487389
15.930566979214818, 15.525254969793425, 79.759387566560108,  3.970238225084551
 9.224036233113452,  7.942892993278878, 65.279024101509947,  4.202844415677824
11.537285742442663,  7.836135251729201, 35.543349761715589,  3.957734495477636
15.177130539712271,  2.339258439615988, 65.849656889993597,  3.786787187975587
 3.682265789581054,  0.215193794014974, 114.394464832717176,  4.508881784507537
 1.084018250897558, 17.180653969371232, 110.306656164808288,  4.213730012454400
14.155496245706091, 16.537863303501851,  4.048887639249300,  4.020411754424017
 3.714574665289560, 10.695132243545133, 87.063009011462029,  3.939799029825353
 8.288132088898234, 11.646438073532808, 48.429040507895202,  4.413429084882996
18.840720460699977, 14.942447504671833, 17.541517351924423,  3.862491143222612
17.284734083201673,  2.971986879497952, 101.124762448380949,  4.042204180896184
 6.673773308602370, 11.991437065457657,  2.706824429270223,  3.934376275310700
16.131441661999666, 15.157562434594466, 27.743039191586764,  3.826635274923386
 1.900546974697000,  0.318584980271659, 11.767627046290688,  3.996845385083158
 0.250270743848251,  5.620017078660839, 83.357740516500812,  3.780926872000988
 6.571524662713085,  6.407057766191349,  0.511754911147360,  3.941196240550595
13.665380882156409, 18.744947835915958, 63.467903092608303,  3.783896153905738
11.833686975936102,  7.599244524788102,  4.682932256797741,  3.998404767970400
 6.902370963035655, 17.368041725800360, 87.099097353195816,  4.093996308639659
 6.584341795082936,  2.992237304013435, 112.776964022952185,  4.130999099600277
 1.476725273643497,  7.911724293827843, 42.461751887767491,  3.826158243843909
17.662384948034646, 12.224719149066024, 60.783344957310710,  3.824362381015356
 1.717066945801767,  6.894288387537875, 56.379949826588678,  3.979463358174918
12.066108659475029,  1.346801215116885, 109.573398114541178,  3.790669780307565
 5.842745707018548,  1.439232590270598, 12.733872862338631,  4.397105297071613
 9.337356527844861, 17.956278354407115, 29.947241012469860,  4.260776294830578
 4.388495287921681,  8.560020157009593, 67.866384954183445,  3.902735118099846
11.362853100603408, 10.602965488507797, 103.844198399455678,  3.860480658899180
 3.501753114847462, 15.113151759139244, 40.928261341624996,  4.126043246657181
 6.383929174021079,  1.122334226884072, 42.458661178923769,  4.087542604152168
 9.536399722546191,  3.213798982140152, 12.208112044257250,  3.859056362040458
 7.890911708574740, 13.817479627414707, 113.441802985254924,  3.905690705744906
16.672374593333721, 17.418290232941992, 23.504625300624618,  4.199703873822981
 9.823834984614111,  3.402321709032487, 49.041597398956171,  4.454649424409096
13.721530290123166,  0.520536172039032, 115.032135521104223,  4.000646800488537
16.049216231264790, 12.835999478202581, 24.537079164364908,  4.089482135581182
 6.196554692670122,  2.175860723331690, 70.202769708343240,  4.559865309287316
 1.952693740243637,  2.895127214767474,  5.693549174272995,  3.816728699069392
 7.579717065335090,  8.435040472779219, 92.080425974868660,  4.141050796646086
14.678454354057692, 15.178447881906665, 17.611469089188482,  3.737864838804910
 0.555382320177157,  3.609495037043357, 13.738744999696175,  4.109953393689979
16.077874427328869,  5.695845394276324, 26.297103132184418,  3.848253188510555
 0.931625440062642,  6.038842113330457, 16.636566777133588,  3.472314617520543
 9.589096885940295,  8.028144132391269, 109.370100984332396,  4.329476600864185
13.039925411992231,  7.859869224579763, 97.801907224389538,  4.025749031194374
10.352348857837018, 15.404542958812138, 80.861983288541225,  4.241737526115222
 7.739190092334043,  5.326039142369223, 36.410440681959798,  4.131134047690669
16.146513619163066, 14.221582816016022, 11.107408197881611,  4.056077836713604
 1.156529533979926,  1.688635200218530, 60.932980360120027,  4.203288970890785
 7.644373423906611, 17.885347145119265, 112.982990047949173,  4.292952298372540
 7.546192798515028,  2.452403323186304, 28.850888105133450,  3.833554171161414
14.989503813388366, 18.919000949481251, 28.659356538150455,  3.994245418990249
14.206469558946143, 15.373396074965200, 75.803192592628079,  4.042888066942088
18.757531229940778, 13.685108261534271, 57.414414154861390,  3.836054032867650
17.258844296760248,  4.019038489620645,  6.350268351616312,  3.928391296778042
17.318025465536131, 13.828306784855023, 105.401171280656996,  4.171796485584358
 6.180920486658344, 10.190152254744980, 79.472582573542027,  4.119950842902547
15.631163502427547, 17.810639292354519, 111.985150484813147,  3.911561751928790
11.446906232960119,  0.476732408581220, 26.567988239637035,  4.225629937256755
17.033995021276560,  8.114652634909534, 59.239083807688765,  4.130146084614782
 3.901180883600600, 18.419693967868152, 45.197228687515512,  4.007995840684136
14.760919123820653, 16.845783829851424, 13.830088930633622,  3.990680646976396
12.775371229320216,  4.712001008323479,  7.375943040105374,  4.031863620505903
18.363637900598572,  0.064588972883918, 38.276973831389668,  3.925445132199631
15.664297672212598,  7.095121588830972,  8.969404616164624,  4.088984286373656
18.380796443299754, 12.278869551808834, 65.780896482262861,  4.056080897659054
 5.208834018232899,  3.486167559814708, 108.578411661619356,  3.973620710764773
 8.247782166779352,  4.379882897986676, 63.164392034275046,  4.058985718944236
18.474888199568078, 17.151560444281472, 55.714545583076436,  3.889443729962134
 4.703367376453732, 18.510228219634438, 93.363805834911815,  3.603836508775165
14.287030283287718,  9.612547094080229, 110.339352157480960,  4.307989192406404
14.109203973033798,  3.440190657380612, 54.733914086483345,  3.968067451560759
18.436500756337328, 15.171994728521442, 39.738987105866940,  4.271463569236302
 2.835604029085059, 14.466281631792180, 33.117590086535621,  3.946837504013240
13.655519355985614,  2.540434903915046, 72.448608803150307,  4.122798305194896
18.709574996842068, 18.728038207344810, 26.965580748827183,  4.121513007445566
 9.231454061644795,  8.981884002368677,  1.929956126945284,  3.978609675410507
18.051987308302643,  6.640915122943206, 96.356234066816569,  3.732964647636586
11.240760631263745,  5.493621965384350,  0.460824545032490,  4.449965845101524
11.907434301256643,  3.463873636468288, 95.961550215254533,  4.078057443945263
18.342324776572958, 14.208233993416856, 30.939651797359623,  4.173731993120028
15.426617280415503, 11.205645757367757, 71.846708212992752,  4.022194465479745
11.249831723512827, 12.543085164714553, 114.750025612647107,  3.677014169094242
16.036695682537115, 18.790587511502647, 93.595357195435568,  4.074954208297750
18.293156431557271, 15.680549459168775, 35.035377689915840,  4.333501364420272
11.504697735265658,  2.798729831368344, 29.999822202805028,  4.060695105971132
 0.446510068878673,  9.496026064873190, 68.238750819025881,  3.608376081808029
17.716900822233875,  3.284772942495867, 86.341951404889670,  4.352537690669990
 7.473205182717919,  4.535268420589118, 45.141118426681686,  4.147563877636460
 0.720677379413013, 17.501449926812914, 73.980801036355032,  3.898109848377317
 9.440541688119998, 10.776211718499971,  5.506253546281688,  4.025849231311179
18.686545131702093,  8.924872955669393, 88.977092751522008,  3.921423213402515
 3.539035099190547, 13.459510700164797, 93.437764670063686,  3.872763150339952
10.268440965376058, 15.505817465662894, 94.273395393911841,  3.975618620975455
 0.316945550069516, 12.084128076282941,  1.300751909230710,  4.099341112452890
 7.809952850471383, 10.887167102232269, 68.037552828197903,  4.335360479781867
 5.444819552211775,  6.544008483278689, 114.970003777702502,  4.208159061371664
 5.891504015828373,  2.484598965199534,  4.947717469952371,  4.125007774046241
14.978035829217404, 12.847964633291609, 63.609662398265144,  4.055845050386153
 7.464033423367521,  7.888378699331226, 61.706612529149034,  3.683794763372166
 0.092090167300094,  9.672985642435671, 45.815757532637974,  4.223347122936751
12.620364649539718,  5.493310132537696, 11.341648680739382,  4.001497968257707
16.223042999262223,  8.699628143660753, 42.972514948824546,  4.010047240001607
10.827746179269109,  1.237103416573565, 117.544873528204093,  3.764991628093085
 5.642005102458496,  9.391198471528970, 83.674379918221732,  4.202635815675250
 4.925813712577690,  4.845560364912592, 27.097998420850477,  4.070084250058669
 3.237453421115398,  7.294761064561903, 23.003842107906504,  3.920853620991924
 7.772298941059305,  5.503459289093882, 101.786943847553360,  4.037271526958257
 4.368271824893575,  6.019362702868807, 105.461365824677031,  4.219327568233404
 2.313408102520579, 13.396871212717997, 15.174506923884282,  3.539847661990508
 5.492759040133647,  6.822718027272069, 42.047777105761796,  4.462827223762958
11.327700910440319, 12.189218660025309, 96.284229912759841,  4.009896527872436
 1.648221632916420,  7.535424978138478, 65.133245958546539,  4.102142709994780
16.884333958056754,  7.837663561353661, 15.568811322124061,  3.806922152924366
14.925222955268660,  9.442207737819061, 102.873753894035616,  3.866363063216324
18.756186252835612, 11.137214341654106, 74.402149229921392,  3.785631573733961
 5.173617171941475, 11.153056708538589, 16.629311685147432,  4.232926522702466
 1.893797316036738,  4.009879079496308, 96.346493840896102,  3.930379463632292
10.515101683426636,  6.251616774911452, 31.969983816104612,  4.110108680682802
 5.173862476137865,  4.485848964187774, 98.013770881487247,  3.480529556845967
 9.397323035124222,  1.019607276455680, 93.515368898400183,  4.234681333308338
16.946691915635050,  3.679074632193349, 115.559423242442335,  4.131119869356143
 9.753614157957653, 18.140042056168824, 40.809462333413592,  3.997479812284552
 9.810442167949269, 15.664614369336366, 47.470761506932519,  4.315104421954677
 1.697543268366618,  4.296352533631580, 41.080464393778335,  3.899152023884442
10.021782716430366,  0.923312849393509, 64.284150927305262,  4.013080423502090
12.894738395761843, 10.114621684716013, 82.479799479834114,  4.137527357029803
18.410282538246218,  3.973350086952335,  2.431135271025151,  4.097486253148017
 4.240055128300087,  0.945289293053241, 96.784033875977300,  3.829906903188240
 8.682231643306345, 11.572146102950567, 76.653394158807302,  3.846609832956759
14.106687951296758,  5.113009273832928, 15.690861647284184,  3.952621003926487
13.279156691717565,  9.254994193310907, 65.111937823699293,  4.323278547805796
15.924506542012905,  0.878346749314535, 57.434337857738811,  4.257057766884743
10.231880951011403, 13.431388318154919, 22.328075141698889,  3.911798619946759
 7.687830772277195,  3.426959959559619, 32.739586262099600,  3.977419227292468
 2.699008793365192,  4.841793176047791, 59.222155389987030,  3.168224269624062
 3.810291719579466,  8.613064208667017, 90.252173817961733,  3.672340903736200
 5.583967548433065,  4.218433069114259, 48.889452235258972,  4.183725468410437
 2.847126139696356,  8.923267928677580, 77.769334477248947,  3.762255617887651
 1.379039926936822,  0.525898704147892, 103.226111440316870,  3.838207443908368
13.451390450363467,  5.869085751230069, 41.924076133098318,  4.137459918243204
 3.850093500528098, 16.377073728987739, 103.809733166408890,  4.102877759316617
 6.086690055154799, 15.491175560478164, 30.848531725250222,  4.077172556869038
14.028922599893230, 17.469054184038061, 118.456270702534084,  3.941038530731617
14.129452517474887,  7.214452225628001, 71.849419234100637,  4.124927053862661
17.700721176661329,  3.086359568479158, 77.978740323020261,  3.757962292053697
 7.334131556739132, 18.658161899718472, 25.930005351230228,  4.202903997834236
 3.959301432041551,  5.777899326468358, 70.602710172460974,  3.940490979864274
 4.201108640118728,  3.872131610219427, 55.524961202052936,  4.024115186540050
 6.942734871448290, 11.568142602506907, 100.543376958554305,  3.902749022981383
 2.571354929855421,  6.381045138164390, 109.152986925460539,  3.940988772329717
 1.303696656489527, 15.895712399689673, 66.745207297195535,  4.211392488651796
 2.517856629483586, 14.113862063830611, 11.568173280911779,  3.696555210784644
 2.648979013242265,  0.368087485638347, 19.631775170803412,  3.936988013060581
17.129100068395669, 12.316643380387424, 37.121446802062430,  3.865427507056186
 8.679243249523113, 11.582813842636330, 72.833952819437897,  3.679146887993454
15.771723525883003,  4.931864251298737, 108.408061115684532,  4.203484628709880
18.477801185101271,  5.586842985468965, 22.940153262584246,  3.848113844825477
 6.157677762738635, 13.483126442716006, 12.565747793694181,  3.755039158474395
14.373423001603989,  5.529698946441628, 22.565649366607619,  4.350590804832589
18.411454966990060, 18.594668238165276, 80.530212878401912,  3.933977686779678
 9.205200708831706,  4.812631677627621, 59.294764591681052,  3.957576683254943
10.322800645623236, 15.101120993952373, 72.613773613233661,  3.982890612848963
 2.074474589150709,  2.579645188302140, 36.891207711206775,  3.905631113095890
15.299542687773748,  5.168082311919917, 79.607434563638478,  3.358603178945294
 2.573504411157331, 14.018250596950612, 60.209683684492944,  3.986906307984332
16.610885956983129,  6.763555258331328, 55.227424827895348,  4.362934945980233
10.004172665697919,  2.487092590365450,  5.425762943162965,  4.049074079078008
15.998924270402650, 15.773545800590551, 66.784385906305189,  4.329140110080869
 6.361109995643697, 12.323018765925289, 110.216554039717280,  3.771736549136619
 4.013979770814109, 16.745690304683208, 14.125433946966032,  4.119868665358934
10.283386805873983, 15.147202072965246, 76.711585091038302,  3.971250415778277
13.227753681515601, 12.114109873338254, 107.298927308588077,  3.844458737370889
 7.278185364883821, 15.059707967927471, 16.040728287339789,  4.124924459169337
 7.604262454450493,  1.291462962949053, 21.596533385392537,  3.896340653801887
 3.116303205409132,  9.096712561652131,  0.832923340343059,  3.978508712901213
11.073075534723005,  8.359875181419390, 75.932085657590818,  3.983355060889082
11.022604516828659, 15.480226467832246,  1.774386965767142,  3.989883264009545
10.287542642769631,  6.514243688097718, 22.971892372473455,  4.043279991058694
 4.087544764981939, 16.046878574692943, 26.446008614454030,  4.178773861975992
 4.022080278195018, 14.559014232592871,  6.855955194485051,  3.960398409098644
 1.638001143411229,  4.236353669970466, 19.891536247772969,  4.062716080762661
 7.149168093787820, 15.026959507556995, 24.045360660276799,  3.828810969014653
 6.704214305841199,  5.210272176929006, 13.318436088421000,  3.382868399676319
14.805824086263781, 17.826673948537046, 104.482690502169220,  4.406305497731931
17.241447979899569,  6.168297983595147, 30.022404960950738,  3.964209355094022
18.439408198784804,  2.878236306360602, 33.950399996833703,  3.966591094866194
 7.898530959993069, 13.690800082534569, 64.913958919518777,  4.044537443504218
11.777947334319116, 11.804244854210596,  2.527580125792173,  3.568970114918904
18.833508941465301, 16.197406581746840, 13.678279726299676,  4.254760978348349
13.380574087243975,  6.248800332032902, 29.129483480977903,  3.956613379243427
15.649454099437609, 16.136937388580296, 61.682131059780950,  3.673188115094014
12.562278939541894, 18.443243426564919, 95.736846117894856,  3.989846917872710
12.287227849561296, 11.977686976669148, 74.420131941236249,  4.222900990181589
 1.792793771948447,  8.643972921463897, 49.560075676939171,  4.252084493457466
 3.073714723751836, 11.489407281067459,  4.183557353318367,  3.872461695411108
11.887104750012021, 10.062900528620469, 29.667681792163766,  4.023583784616875
16.320970287876822,  3.202639494567458, 47.867486631238499,  3.935460012602614
 1.673157234125934, 15.417033460430604, 114.248765907045822,  4.031499366015878
 6.871011378069536, 13.153583604925448, 44.745166105292860,  3.918399949234862
 7.490113043578250,  1.458334502553387, 84.531898416130218,  3.937187878752914
 9.566147924366124, 13.472788373138330, 88.778580014384559,  3.748399722174065
 9.261982196890267,  5.844797500397753, 28.196446018775735,  3.860963443401361
12.395342461614151, 17.215202927413053, 51.668179233298666,  4.121899038405177
11.964559786124374, 13.728105765403015,  5.619891209574591,  3.701703204353634
11.674171225030557, 17.321061123584023, 112.111225992597014,  4.029561901059984
 3.540681188327497,  5.068342716562464, 11.229760960521405,  4.198307251485383
15.359675519392678, 11.825829544975178, 57.679864070065648,  3.880285595977619
 6.681139994646170, 16.629790906535998, 82.960233610302282,  4.157749454502605
 7.158199756230262,  0.229516296788038, 116.873857499104673,  3.957604787068118
 9.834853836974142, 11.862966276553934, 15.838682071451855,  4.066417026857618
 2.367145767682700,  2.409830594717679, 92.056425837230989,  4.190578886601379
 5.889968126660089,  3.101126767211276, 93.986753048435602,  3.954482112824519
13.057152636367084, 18.728621595775270, 32.182991641340081,  4.027135672750469
11.771624381830007,  8.473264331916624,  8.686045361846855,  4.157297873403833
14.693292716214396, 17.921624723580365, 39.648768082885518,  4.214784789939647
13.730943863823962, 15.191411842242671, 70.390533184841615,  4.118901033991864
13.402114198854548,  8.400600616301373, 57.379360406935383,  4.025887112274567
 8.512300772880730, 14.744520455541245,  4.722293200768274,  3.716030980196746
 1.479462672677878,  0.349533673179628, 15.862824203302614,  3.861286039780936
 3.758564018806251,  0.936553380217059, 27.464273571641506,  3.822809365420816
 5.592290463963421,  2.795350588127294, 79.661501565761199,  4.319617255826301
 5.775823073310179,  9.135986209738959, 107.918702692790305,  4.103170169659622
 0.544262278703797,  2.858840927611201, 108.327878324534055,  4.046855346321516
 7.571449939007157, 13.698900127609432, 97.123061036995054,  4.253828588527928
10.083922610672234, 11.641094298710073, 111.171838668252022,  3.756833315851701
18.841573211275843, 16.941395908247689, 59.632655651178197,  3.960763591929610
15.147035035383768,  9.435672888218708, 12.349630716206679,  4.142491926007124
14.060894862063735,  2.127281072985365, 84.926437031072908,  3.815935224659897
 3.267247522147692, 10.414612737087559, 39.807947102056552,  4.208257019103764
 7.161414178923603,  9.095547178428674, 13.648400835008138,  4.010526812595312
15.384618223425514, 17.676038219594442,  9.226869715724114,  3.941225730720554
 1.357376491617647, 10.857478994028702, 91.795109150888663,  3.639821139368765
 7.156427019511248,  0.945726717906549, 46.959996194095758,  3.900700791326736
 3.881298301506581,  7.092762140457101, 14.719685842466294,  3.861002750302054
12.091804646699915,  4.461210889212123, 25.920064172571969,  3.824698908848080
16.756749808046003,  2.046792693797154, 16.491262878878732,  4.278569867392939
 7.708115670469978,  6.399807526801901, 79.291457795765183,  4.060485344594784
 8.890860009302617, 18.480379779119868, 50.240419421092206,  3.754850855470450
11.999090112369002, 18.373437192606264, 36.576198391772913,  3.971727681216748
 1.770519799782532,  5.368523325709859, 89.069468173290701,  4.279733027609174
14.859364394676623,  6.025894420009964, 100.725584882843009,  3.768056631270373
18.205584931285770, 17.032802122649194, 70.218118034705029,  4.166417392365705
 4.969185776217417,  0.295196153263000,  1.630683832829847,  3.945003601560158
 2.222404569668055,  6.345466394057796, 29.722253839442939,  3.963234565284618
18.510640352110130, 10.420309248603353, 112.599377164106357,  4.026437820163158
 4.455869827776525,  5.701734206994002,  7.219445425197876,  4.074835099526383
 9.746029078163401, 11.612764795657325, 38.066901453705711,  4.034655988993728
13.592043753394517,  2.831905215639748, 103.170185499651851,  4.300775355269842
 1.938648502948367,  0.724624690232198, 77.254106684294754,  4.335070505091104
 1.526500349690575,  7.370307064458504, 114.200431567947618,  3.919974620510459
17.045186748065603, 17.990223077141703, 76.853584234789949,  3.957481358665140
10.164460491269416,  9.522997038990118, 79.582553146291872,  3.891192781268623
11.594911154759851, 11.270456995077760, 33.495645325999348,  4.014715161266357
 0.176596077659643, 11.906407141394830, 33.995802660872030,  3.617357380689330
18.771193645941967,  6.594477957039163, 79.501749965984828,  4.149536676178695
17.207629769654279, 14.517610825968976, 73.259984354859597,  3.960311996683405
 1.193876307274587, 11.415205609123845, 23.678339347633973,  4.359997787179339
14.452660604578554, 14.873321329842598, 94.129901701392797,  4.436537996475737
 5.363261746250330,  2.631249112951676, 39.048376159855252,  3.630283839864347
 6.990085737972408,  4.203287627659993, 76.121077739115321,  3.782368940589634
16.648030004854100, 10.951112261176862,  9.012347858946706,  3.771318132961546
 9.766112215720117,  1.007579258780625, 15.544403725268195,  4.151967842734035
 2.302207670931944, 10.394162681408254, 71.486045357278996,  4.041870247247832
 9.244860363675116, 15.616405949416961, 37.625413854909397,  4.080486840269847
10.764408656126422,  5.786150235083213, 55.675379432345416,  4.134377644518989
 5.911155142929601, 13.270696611570333, 38.099234687079118,  4.120554602685615
 5.948193449375538,  9.529241398877256, 103.840272305599100,  4.078833054957657
18.363056376569553,  8.110035046871534,  2.125607232683159,  4.136546145800564
17.029310877771387, 12.115244416623431, 81.553451664393876,  3.969304484115923
 0.649874946557709, 12.802928015198562, 88.531204857436080,  4.035345551497113
17.647492272318001, 13.734282414491647, 116.455835490339410,  4.115813937932592
 4.391271553700318, 12.206605233165378, 56.289584400400834,  4.037757878211684
14.505537056574433,  6.044448128420906, 75.867811843025507,  4.249095039050300
12.185491144955376,  0.192036729577527, 47.492305508917418,  4.088404114680636
 2.594928552474268, 16.997483280402530, 37.539698572189081,  3.773213666126768
14.525585197684446, 12.081402468117377, 44.314782444865948,  3.916622790617919
 5.760199655574994, 11.049060134974715,  6.939491193057811,  3.873498841499887
 3.980819263830954, 14.210611987375115, 64.040868437485074,  4.016517655468642
 9.721371886474808, 14.796732020825596, 84.810034347466029,  3.838645941157759
12.340558419850222,  5.103146054601250, 65.354050438331043,  4.136310360637101
13.307408310998524,  1.770653643522948, 13.343983290529311,  4.323267530496000
18.587584832149254, 11.561989880026657, 12.950298403596902,  4.014991425940915
 5.599171482472048, 15.791815628478162, 115.811084125579328,  3.772227036801961
13.949714655500525, 14.709401651982585, 21.550095575235105,  4.100501187952569
14.711328530433496, 12.653971732562743, 30.189727655100853,  3.697772542437751
13.058895390782261,  2.322253284990747, 80.545512238705044,  4.111771802803579
 0.444839968573102,  9.152826125752382, 85.052578598010797,  4.063928211353755
16.212501792598573, 13.233167227884522, 97.708537308694332,  4.171869465251890
 2.804009202095443,  4.849167209037912, 77.299328773572441,  4.059801466295335
 1.170221409923888,  3.655336732165827, 25.989298047926169,  4.087606086038942
14.954509215093795, 14.145804432826353, 50.449983898240703,  4.126069377611332
18.724900308268481, 14.237894848096834, 77.072795109867471,  4.179789319740900
 0.390642172229527,  0.116034557534511, 84.328334991193898,  3.839885288372477
14.980865042000024, 18.301504934700080, 82.342939134649598,  3.839308383438327
15.849075709503085,  7.497962949657059, 86.416018502601716,  4.234235789900566
 9.790462622886917,  7.768558455191107, 39.048159311694434,  3.838906651923791
 6.247221739124622,  1.152095261226975, 52.734043704048659,  4.215623697111877
 9.064263428685113,  3.851837139357779, 109.563424885888040,  4.015864138066014
 6.554829497024970, 15.519942020370427, 93.862891892908834,  3.478681126060915
10.682331274488687,  1.930343602025942, 53.468619540923875,  3.914767041610141
 8.078434485146271,  4.942085118784248, 52.655635445476051,  4.101394956001831
12.802053372611839, 10.490993792507846, 23.295586895781149,  4.123335761380871
 8.080453306207573,  7.529221433021869,  7.198977213132022,  3.767744689548936
