BANDS
8 8
NANOPARTICLES
cell(1), 18.948
cell(2), 18.948
cell(3), 118.424
14.015060109672817,  2.394373367638637, 67.754032969621534,  4.171197045759402
17.048338755922714, 16.221058758334944, 91.806300896288818,  4.046768582843590
 2.614002320805746, 14.708886930181981, 76.410962100732988,  4.197220745809985
 3.757147460454355,  2.039777078590627, 21.686558135004631,  3.928797314298220
11.675694466693860, 13.974134491094796, 31.137587994613142,  3.644228960588652
17.562731970013761, 17.688879417246660, 39.865794732895807,  4.408054252601480
 9.588744365548898,  1.652646444130391, 48.105380979405389,  4.138667507472490
 3.582616726073166, 13.386483510996118, 80.082408065449812,  3.791201417506517
11.311561601511400,  7.698663013272366, 63.681186356064750,  3.591379721413601
13.466662010880473,  8.985007385267268, 15.300955824618619,  3.865668061696017
 5.067976479237276, 17.425985525119149, 34.562141627354258,  4.202243586968903
 2.749341464104163,  4.945282331391495, 75.087277504284700,  3.922170134070959
 8.360810412288737, 17.185448279417468, 71.134438192191922,  3.761808962273126
17.529069034001683, 17.744565506400452, 81.214551643716291,  3.514182159117407
11.148415583923368, 10.959868384711971, 70.545377880921649,  3.654022976965964
 7.923332147661398,  3.014110453862429, 91.198275223956230,  4.086604541016901
11.399049284904585,  7.167193353699116,  8.631331510013670,  4.053826159086673
 4.788459901220516, 14.975860221916191, 60.294865110071143,  4.009853156772280
 1.708063109373969,  1.168070995242356, 74.766544459483683,  3.930813871706039
 1.190644448360283,  4.183445093356799, 90.466716262260206,  3.955478416693149
18.348858422651094, 11.793174436585469, 43.952252696104736,  3.467190424715223
 3.865379528499043,  6.518452499166156, 44.974204436790203,  3.634238379758171
 1.399093848405018, 10.539153565374349, 102.148429499818818,  4.361665650921566
 7.565893223165622,  6.095604582892240, 60.640275319428532,  4.089965419277243
 1.955420425177065, 11.197173967939181, 23.031133173275528,  3.600786980515695
16.726768111506040, 10.851659186869279, 78.412364159609467,  3.899436027919802
14.658110123427399,  1.834363039333186, 60.622858686498674,  4.202998616885388
 5.961881621567519, 15.085374294184289, 108.557170640931076,  4.212033306550451
15.127506831573044,  7.840536186058158, 21.377316044768541,  4.251694933189080
 6.776862576584704,  6.066665270104356, 108.400093322743416,  4.145298359706272
18.821181725836016, 14.875112283562551, 23.485596435865702,  4.139701605541893
 7.691741886018495,  6.816188440479826, 42.062358529681298,  4.186430763515146
13.828537808653040,  9.126654796950026, 61.069879590210924,  4.168039396232550
10.315916794374763, 10.037917873657683, 48.228719913284266,  4.190741626242025
10.775443478973502, 16.555634371261458, 85.586507152082163,  4.185250451342641
 7.864623263828597, 12.576269549473269, 65.601870970075339,  4.031733938505660
 6.391832654165435,  2.715893191116340, 105.624598194583939,  3.846823323937997
 0.250031132505774,  6.188530146791615, 107.781367175199620,  4.003182030986996
 6.149031149546839,  0.544506832152686, 46.348825704419852,  3.894850034298232
18.497585367222012,  6.263365274394462, 13.695802066915260,  3.882828914983790
13.248886090914976, 17.776521870605645, 53.778257051571508,  4.170628368835094
 8.955583457239614, 17.732176353593140, 26.670924389764821,  3.436293360296658
 4.154916797019738,  3.858074014908479, 60.395642271096165,  4.042784226418697
 0.567105290846804, 15.846472426649935, 11.651537978325473,  3.534968303331319
15.673282911165197,  1.865972746619867, 81.569161252799304,  3.656154237571974
 8.801403814021493, 13.038996600941958, 33.969149080532411,  3.985971553796649
 7.566168239822440, 16.016055736674410, 31.596827488218647,  3.968404533330831
14.593209465087982, 14.724169172387359, 56.491209011045115,  3.850016459099287
 1.820535539809373, 14.679555383385646, 101.229988736283460,  3.988136853360775
16.043842482686518, 16.997839318280874, 28.942225869865851,  3.786296855592052
17.370341919626505, 13.446037834760281, 115.970388790167092,  3.852937595364944
 9.522448076575309, 16.828179024802822, 44.932108700346404,  4.685757790147818
11.687982761986637, 14.641461744265206,  6.018805789663919,  3.537647731503834
 5.682575844601274,  0.466472438921133, 53.843676740909707,  3.596551008448373
 0.361716701031360,  0.157802774235155, 88.923782333594588,  3.940561262597261
 3.353993382515332,  6.139975866576810, 54.803914817827952,  3.795790768460336
12.996924827981058, 14.955929137158055, 27.340311114647108,  4.055280931542852
10.439681440388350,  4.487707913967244, 88.564168854064576,  3.764073115771942
10.843878150280659,  6.027484279820430, 14.844547179103380,  4.028611515881079
 1.219761227422908,  8.144826595588535, 91.226181904651980,  4.108798712160907
15.658416558077493, 17.938201145619821, 108.607218613444260,  4.030505147935326
 7.473171868630547,  4.911503954566847,  7.453723342536972,  4.295341270348536
 9.211221036374369,  6.343860869787581, 50.067234206788790,  4.324671015404772
 5.663923999150416,  2.080206084887009, 74.783172835856163,  4.183196729486071
 1.203186972435915,  5.864403720936534, 50.465175744074678,  3.773921753847425
15.448114327786740, 10.029019120400688,  8.740319208921207,  3.886261515009248
10.165663402182989, 13.477293356045678, 24.274088401787004,  4.104454829676016
 1.662759886352911, 11.527006331487234, 19.002127043328290,  4.023253934926847
12.981136302917831, 16.228036375613140,  2.973618034236417,  3.687350514110157
 8.212618490566552, 10.415447598195158, 73.166040360061203,  4.233933429893697
 1.655727199336871, 15.560367871962351, 115.785787701095899,  3.874361392720409
14.691271922838556,  9.519588307597516, 38.423163742702876,  4.081939546239153
16.318797392064091, 15.114332291666868, 52.991103340536057,  3.989831840061354
14.272794124678045,  7.485953400981032,  5.914635567814429,  3.811285865116517
18.537774178735308, 16.512875151844899,  0.623050765140782,  4.075340989345578
10.635554065533869, 10.478608465884399, 52.589712699378481,  4.294866974888212
 8.562447256771797,  3.244220752959794, 98.522229431132388,  4.048862169971071
15.217485700441314,  6.560612601366878, 53.324206952896752,  3.801931055089757
16.174364113736104,  7.148587125160322, 27.557777585239627,  3.851362312352772
 9.165639868987371, 10.088818526116905, 96.171499838109412,  3.952012441010950
12.233836405325187,  7.238294527304461, 28.977487988204356,  3.885569124943889
 7.494287614901749,  6.268155825587198, 112.296005496190205,  3.762235377261533
16.870029536710067,  9.606741313636290, 17.756629142691157,  4.159533477522054
 6.654128936650264, 11.461916181039635, 23.086420241687083,  4.331600749094802
18.773796320299748, 17.968387406085753, 65.675272900946041,  4.052442525429218
 7.852079848749883,  5.365606814540981, 35.061984067317624,  3.980795605904267
 7.640188893573744, 16.850684770455736, 11.083482391223438,  4.157921820752309
 6.275514163698017, 11.194168537972120, 27.440857388240882,  4.406140734122392
 8.208658713455455, 11.907074081216113, 90.493000561240109,  4.051141639539576
14.022031923243716,  1.377052766302161, 14.689142123306555,  3.968672415601560
18.309180811428671,  1.415356544712882, 92.457020621589962,  3.777498945690704
 2.145376348511556,  8.746424983625774, 11.338410245160217,  3.891583231692186
 9.581440411310117, 12.945479187052941, 108.861279023293918,  4.142123690028432
 7.350386438462487,  9.983464616526746, 113.236670322202229,  3.903565737635259
 7.035385016768221,  2.823840005918650, 40.381278702300492,  4.134358859017642
11.839760401846419, 11.541535477688340, 36.309759476322313,  4.041892114385337
15.823781307574002,  7.232715907669866, 104.169689406552095,  4.414942562210816
18.036003146855666, 14.345753022099073, 18.933246926939187,  3.496389082193608
 1.056602507294629, 18.418171549342535, 33.347927668230994,  4.143717335615156
 7.898507144385502, 13.662988367518317, 105.321095346359684,  3.791797024507513
 4.934061770803169,  6.094849089093909, 68.233826436360502,  3.756980037459423
 6.367850465868357,  8.148777920212209, 12.673409448239266,  3.512907036235617
 5.647792475126472, 14.661737602752462,  4.229051398854241,  3.619019252276612
 7.132954708953781,  7.778576715264187, 38.127007653599236,  3.951856504354737
 4.165803903461880,  4.631671747298878, 115.328172195360736,  4.067061295758973
12.849594849935261,  2.371273838964723, 45.564131919948878,  4.183137735806573
 1.476266717568528, 18.320761547584720, 71.201365264180566,  3.989066863838231
 6.276819003454619, 13.544512844957103, 53.935280870212843,  4.306246290896806
 9.165839292928210, 16.361563977742712, 40.598861730429078,  4.054272470462045
 6.614468208660221, 16.083841921465815, 63.827154312702724,  4.202427103078103
 0.141525556189593,  8.498248848036154,  1.074782406826804,  3.823209293186610
13.757060769114414,  5.476964800123312, 56.831021949903921,  3.976943437503033
 1.902332317742001,  1.338664689851924, 56.048486236756574,  4.580067065232329
 1.029393946340729,  1.086652364786762, 107.205209721690707,  3.986246879421957
 4.397316344118379, 18.941179997440472, 109.309141489449729,  4.218435172017821
 5.743243765816609,  3.423897512529456, 56.612404109203823,  4.178273474654815
13.017238129327652,  4.171471087516299, 91.595094221202132,  4.188098596161259
17.836599563386240,  3.641493553592065, 105.028532257899457,  3.965826899462912
11.205488006707876,  0.488541465747634, 96.979040242977106,  4.109586090142647
18.750480406271976, 12.167262171362250, 74.838424148510427,  3.867907058755577
 4.690719692710044, 16.300604845700043, 95.122381555105733,  4.213183321983278
 2.363211924997576, 13.792815468261592, 97.409389140902420,  3.912464200443893
15.422085992881204, 14.378137421103823, 75.647528684335782,  4.255552567024195
15.221265894220663, 12.469177099001847, 15.399456489282846,  3.917307660306702
16.458432440602156, 10.012638234896485, 117.225787077346709,  3.662278400149541
10.983781242414763, 13.442386144569344, 95.652275672377328,  3.694881918008870
16.380529632704139,  8.811033390710074, 100.074787503608576,  4.315449999237212
10.319952119914195, 10.756288900591038, 80.425236401955900,  4.148824949518190
10.350692673816997,  2.999717297738097, 94.177931433817335,  3.595645033671580
17.184928122273778,  1.479905135131909, 26.997470040415337,  4.371710086537014
16.919871535618679, 14.066464298430004, 59.536011231101348,  3.854753906720812
12.263293407620262, 16.484221803626813, 89.205164983816388,  3.578924923053791
 8.266942108511317, 12.696773898834453, 42.305901363006832,  4.072744557506312
 2.518950301965548, 17.918805032946818, 47.473454620580959,  4.298819775265597
13.266962260596966, 15.403626677367363, 115.681717408907673,  4.041892010104330
13.673164325203947,  2.994930457734930, 74.068689849554048,  4.170302773773836
 2.941087694979414, 13.533131911132715, 25.898237547259516,  4.010386113098522
15.881455777645296,  0.596649985359999, 43.283646105712528,  4.004952789745453
14.268711203144500,  5.289973647893930, 99.915226476027470,  3.801278047118856
 4.333757679873116,  0.017909367481273, 59.378061868281961,  3.859465534870165
14.345675263582027, 14.785485145327108, 86.571681903184839,  3.931489535388882
13.390279892283782, 16.340488884835636, 14.473287996962169,  4.031680555414494
14.641322654637952, 18.308818070465986, 75.348258682412236,  3.764139366994348
16.678799305523537,  3.042871496930440, 108.990267372420192,  4.349574467404830
17.409136451229017,  3.785427128152612,  2.693035137630644,  3.942006614589834
 1.195184865107410, 10.131263570457396, 98.016740343654249,  3.866075712257592
 2.566345056430461,  3.384314313243590, 47.244700570817869,  4.525354058453875
 7.653987767198519,  8.815019149038887,  9.097883597738383,  4.179716666259078
 5.118688614927247,  0.573885702174267, 115.402192862768175,  4.240630933173676
17.725559540413691, 15.098275606428155, 31.853038797843833,  3.933863547223039
 1.895520007265329, 12.364922691600995, 12.770525927392484,  3.892912475996554
 5.362455584396829, 18.342346795571107, 27.129076559230420,  3.898782547748706
13.687125460950245, 16.853833559261133, 60.595438769502735,  3.830227055995604
 1.157843693752191, 10.895203940584071, 67.156231607673263,  3.944112658732479
 4.002451689354903,  8.392977106232239, 114.242061575072569,  3.763695300827421
17.109630334763491, 17.239811960604747, 115.440602613634567,  3.808809185712374
 2.468882525389195, 18.148878743820692, 92.091964982338254,  3.850854202564332
15.286223942575246, 10.888890779395643, 57.535254392299322,  4.200723713815600
12.091823529264117,  0.947244880058755, 81.019186569828889,  3.806224956897823
14.169532853680257, 16.648359508909305, 32.275346740490868,  3.840822843715372
17.969755556317939,  4.728816139923294, 101.166264856269677,  3.987500076284777
 1.667024788684605,  9.507534930025962, 49.826945351123960,  3.654306506017141
14.265882066375925,  1.638121667381695, 39.041781869578948,  4.132403647748303
 5.092387133140825,  7.676873920565069, 17.024175108880822,  3.709414586361523
 5.717183111471901, 11.115426519619410, 44.884661807893629,  3.835119488097201
11.748587550611594,  1.542362053474612, 84.877701619383487,  4.019754598667141
12.051615249329711,  8.711065935199251,  3.009326549120578,  3.869203124994922
17.301283254140415, 11.500239906310473, 21.492055311547922,  4.253479658588740
11.030799661730338,  5.120985124685359,  4.885646200261162,  4.467901162763000
16.781157467601538,  5.876275079685015, 92.263662144950644,  4.149394529277604
 0.752206321419766,  5.575365850102878, 62.037188527099737,  4.104233798649747
17.386281889673977, 14.167432172363633, 108.264385000919177,  4.279010529974132
 2.812640567006977,  1.474403058145466, 36.403603062388903,  3.898175232531688
 8.856028356475948, 17.471549884570301, 78.617863925512268,  3.356051851569414
14.130747882551058, 18.638672672608877, 64.333831374232773,  4.421883549120921
14.854403109653648, 15.022967996741686, 105.003121382039694,  3.912473451227782
17.950769539770377, 10.295080734386135, 113.700215508593502,  3.951971806038894
 3.466169924867256,  9.228325954027493, 82.150475403007974,  4.270077881043974
 4.680478600665111, 16.215946595086294, 99.118324999073238,  3.577604027751878
11.411799029631194,  5.669031920054723, 53.575659039972500,  4.027654756000572
14.613441683413901, 18.712859232335006, 10.522253632814456,  4.119464016799827
15.038998183062677,  7.140922188759664, 79.759902723193846,  4.188695630800484
 4.686856588712757, 11.947168280284272,  6.614531158130948,  3.852734456903969
 8.363852684908311,  2.326900971155661, 109.201801059686801,  3.886955238145767
 9.378376606981865, 16.550746955230334, 14.737480760546578,  3.946198527738028
17.175091125830587,  8.293401918693601, 44.145036788491112,  3.840878124208571
16.979987470098752, 16.592919916174402, 35.772202897877108,  4.063584114016133
10.078436799922375, 14.749048680936690, 102.044490618265883,  4.245221042082606
15.639777622197776, 10.355502749397097, 82.097306207584381,  3.830032564954837
14.119284369801314, 11.114865229316461, 97.089715594609544,  4.471309053587970
 7.141711978810768,  1.352423043608272, 95.289955126173496,  3.937144111836173
 2.594006480615190, 10.243659405853295,  3.546906165932261,  3.931368492612715
12.943684821921934, 12.817088591961699, 89.656020336065779,  3.866141995474481
 4.542235612571049, 13.498250282986474, 83.923456277299934,  4.113936094924447
18.104478010122126,  9.135052818913534, 60.056035480151635,  3.846569128866491
11.659230848020005,  7.863933437523284, 98.430458397520638,  4.084904047491361
 0.563397198725773,  3.697962033646990, 33.757003721612669,  4.340629088042300
 2.874931248180406, 10.524488244146237, 34.091356882530270,  3.852118966179241
 8.109593310843607, 12.947144412072348, 12.560299586019562,  3.862988095707389
 5.879189741173377,  7.642576587973883, 57.345659502168743,  3.929380363520802
 1.821130786690674, 10.485742625504416, 77.925075460263017,  4.234689706347855
 2.059294292425283,  8.951155334202458, 57.354762857479898,  4.075563257713744
 1.563430901031596, 12.379183961027605, 60.349956032978717,  4.155452894531253
 0.068258655517589,  3.617457890274181, 21.056966515730455,  4.177764546828176
12.803244268442970,  3.966659052188642, 49.498062283994571,  4.256505665258502
 9.721411265905006,  2.596140859606062, 113.048478970188611,  4.216124820532335
12.504432332436698, 10.959203925083692,  6.256455435215136,  4.010369139553630
 9.766309389169789,  7.726753649574136, 86.437092700315048,  4.020901128650663
 8.299367843845351, 16.088557281457412, 89.097430951661408,  4.273957646138911
 1.466661352032354,  2.716645005606776, 110.852198262611253,  3.956360069191909
 0.492093918633918,  8.330503698234043, 84.992240437264329,  4.130447434886070
11.600287521104503, 15.836280614570253, 76.546074006990466,  4.118795849399013
 0.308851652661528, 14.121705602119825, 63.954422131222110,  4.215292344963690
 2.845918954430571,  6.693974578077721, 87.875997489659611,  3.869700417787073
13.305495523775674,  0.129900167425363, 27.281825946051594,  3.842888547442384
15.388866534348635, 13.562836511884903, 38.162822569621767,  4.111933807997235
 8.966362926907250,  2.151155069102859, 43.982649788654065,  4.117901324006580
11.136205705864455,  0.093887597731459, 12.376810636618316,  3.760678382370048
 5.753632257435727, 11.386854696846180, 77.709212584627693,  3.779362671392532
 3.791258689417220, 18.485755063563779, 66.632978031933760,  4.055158454273831
 5.760258501738718, 15.303496513805133, 115.945872042400069,  4.354014152593832
 2.853459309533666,  9.466893582731759, 26.118622660189999,  3.688436045556224
 7.237977286950772, 10.635478220633935, 85.052945462855106,  3.829989334763985
10.945304425447841, 13.673328467764216, 55.295024916162973,  4.086598758848360
 5.719040629186997,  1.393331397450998, 13.090290368571448,  4.116705317659733
 3.959443441791274,  6.315097836074818, 34.034365907909034,  4.227155868684327
 5.079568999113619, 11.196345111074370, 10.969662081320958,  3.756439233352181
 9.488018522194620,  5.708565918841015, 25.181132266545294,  3.775165277984300
15.145655483521947,  3.118123542856062, 95.113064128739367,  4.274514859783692
14.158159928535548, 17.512775305312889,  6.607770011873724,  4.115358217760504
12.945246338542571,  4.622375009111997, 82.414258183995344,  4.215697140995695
 9.673082980683763, 18.669204924171844, 33.917849856310532,  4.191250913599474
 1.102958173165078,  9.436002486619573, 41.581414803919998,  4.031501829770021
 2.842545878675936,  5.283076687367235,  7.421431452694343,  3.993603773306744
14.932298524948408, 10.968903471587550,  2.015280178505598,  3.700173683344489
 8.246791785924515, 13.228210675296523, 46.875489672725365,  3.851212105898591
 1.337315098857030, 13.917819212678427, 46.496397851437429,  4.199376325076204
13.065197305414687,  7.373415490153543, 25.030987793672107,  4.118233544730597
16.345865549890274, 11.099628144164813, 103.301661900214413,  3.568005867398362
16.804514552050339, 10.929615777202905, 63.250582050382910,  3.913304745243308
 6.980015646860092,  9.347952205844823, 34.313393991079963,  4.259382990136829
14.448234083862920, 13.918645458800368,  8.557625733503341,  4.073872082832249
 9.396794257048210, 14.041361582556943, 69.059240516140633,  4.024851722712883
12.994367988869504, 10.477810712368072, 110.375493164678488,  4.417408048184248
 6.302651206443620,  3.738018512782905, 49.025607821135495,  3.749945352087384
 9.697640205708856,  4.942808607759777, 38.419436711039367,  3.714700681224060
17.865783335625910,  3.972913267858375, 75.541033949180729,  4.020944825962054
 8.445740753001409,  1.131121117083658, 87.433292947215349,  4.357193583147374
10.062143177242064, 12.175349472098022, 76.288593133154549,  3.826562595858423
 6.349308441737694, 18.310983777933654, 91.971187553234856,  3.914277210824439
 9.183426236572705,  3.700279806590128, 63.344327474732452,  3.759135748111614
17.814319790113498,  7.117524420664601,  9.900310406371032,  3.959605395479509
 5.475987273489016, 18.402333186581103, 38.656640791936269,  4.052619374383974
 9.160050105602361, 18.914178035867973, 65.094995949677070,  3.785317012158709
 6.270260141744994,  2.775162244726968, 66.640287670245883,  4.053354092178331
 5.353838270585834, 11.136856188548130, 14.999506818227012,  4.310891838652442
17.749451332455941, 12.652838723240565, 99.726076516072936,  3.863811344216660
 8.189437214164418, 11.728170506478495, 38.267610403037374,  4.215631759024507
 7.551278571695111, 18.167954707247134,  0.251810768416931,  4.313318258132195
 2.357612707824399, 14.669982584485622, 33.250322031846572,  3.785424015172533
12.668024388350336,  9.384185775615110, 102.153745158269388,  4.182822287149495
 1.313867443958532,  4.263581720109619, 118.280225968663999,  4.159581005426000
 9.060996285966446, 14.310289683186975, 28.253723508125240,  4.103698603409031
15.633306819198697, 17.895510935541939, 88.519803504127054,  3.834998440121789
16.466181197805820,  6.997385677768590, 64.023325563635254,  3.983109334492006
 9.168741226892088,  7.253653382667633, 101.472419228136090,  3.845301193570918
 4.823664848307489,  3.100856995603968, 43.700486093334320,  3.860937350998256
 5.000924525135910,  5.601540442105059, 63.973014399877115,  4.089262586821658
12.887268037310104, 16.627385123467928, 94.585088023893860,  3.996705232323892
12.182594221970600,  5.549399032849025, 103.077195330705067,  3.764396722791414
17.238978559710137, 10.128982358560402,  5.043182589057483,  4.039068143934305
 2.107884943803808,  2.882685608002546, 13.998269629152691,  3.775600604206432
15.190281827087640, 14.417536058518357,  0.532105680983560,  3.785059074594858
 8.166611260270681, 13.073302786428648, 61.374941892096636,  3.977672097815049
18.313090104876999,  4.187765636193308, 79.691436595374654,  4.285239779437667
18.764577695650122, 12.882460620727224, 35.771267460683987,  4.128380401504478
14.534524695567393,  3.606096766551458, 112.618285768454285,  4.148299035767224
15.606533821641323, 15.956960767865073, 67.153932354674552,  3.898575185152535
 8.392135991810722, 17.458618130571139, 60.481316780213099,  3.841177587717777
 5.053432167301260, 17.677388729408495, 19.881899248860506,  4.041609885354678
 4.939540573736140,  2.553444666002430,  0.564415308472844,  3.936615013989818
12.065616293351983,  4.602023809192973, 70.809323803661712,  3.696310277889551
15.180263131487765,  1.671391665258172, 116.176228708705835,  4.035997153987990
13.661276732764776,  5.968778935472480, 32.508793955624803,  4.144146844052508
11.886373026707757,  5.020264481479138, 21.704415465039503,  4.363874697902745
18.016256951069391, 11.445111450809007, 91.812869421931225,  3.853369133734117
13.545026692843217,  3.873619441126638,  1.597053020903908,  4.088134218600069
 0.841574192746399,  3.422209820709695, 86.446548859788251,  4.248445754405550
12.234891536848485, 10.391851001145685, 32.436223382983655,  4.048771455880568
 3.339721551808056,  3.108855384867318, 52.302020195302909,  4.060851700960740
12.019775750973812, 13.161881149365204, 59.462489698622527,  4.565314630458711
14.796363692472788,  5.266548655655055, 14.979368678506656,  3.971348942716449
16.609513805590186, 14.966544672258150, 71.718860772906169,  4.004651554857798
15.372412603621905,  9.028674859727944, 30.697336091356654,  3.617460426016289
 2.017895001026486, 16.174399502914149, 37.434208986461336,  4.454501344537944
17.695051264580560,  2.705904638441057, 15.950561644969047,  3.972613998581079
16.965313246923440,  5.227985333475736, 83.602764907226884,  4.230024183884308
 9.591670089639349, 11.681096774565177, 19.778457650385825,  4.188644715066297
 7.815146653313283, 14.774583330365532, 57.615109791365484,  3.989872914972556
17.431129469543436, 17.876667053193966, 47.221806305796697,  3.783555853654947
 2.408051249220993,  3.084855759711632, 68.158607295593697,  4.000629069818112
18.732488234314786,  7.975410581030844, 81.060328423241216,  3.804833018021196
 3.188387321302748,  2.510363070915663, 78.233969151045358,  4.073083707570734
 6.746147247655645,  5.073415054843718, 88.064617312972075,  3.758757924447712
17.232650482582866, 13.700091593813026, 88.852229918800660,  3.725213396008185
 2.083110097540945,  9.865949606028105, 45.924778383531070,  4.115971575359135
14.949678150667333,  7.545772430632504, 114.085655043275025,  4.220719462329131
 5.249750549877936, 12.653822601751967, 101.026928362378712,  3.984908808445064
16.043043924005723,  5.729926263261199, 60.177336215915624,  4.104088282640106
12.593694558276225, 10.389984942940943, 86.747408898212484,  3.718376312731531
15.450259438313783,  1.989656026965117, 19.446055042818664,  4.175889834181316
12.201795133707261, 10.370581878216827, 22.492161362848869,  3.734907815436777
11.035350913502688,  0.760312779198357, 61.951130479041439,  3.674635622053213
16.205045652466129, 14.373848619362139, 82.202016946502553,  3.978204824096174
 0.289653277087955, 11.838044514999412, 81.520161790049116,  4.019632615047393
 8.689379345749872,  5.412896726907911, 18.512552872670010,  4.149947673931778
11.770885397669161,  8.211931718909133, 18.867885306180817,  4.145517489898701
13.317197073942966, 17.507799684675582, 101.821993735137013,  4.204032660577880
12.802593628076060, 13.846338547682540, 51.778154938848992,  3.861971595081077
 0.461017355117456,  4.943018934696476, 43.508571322223553,  4.042038060239590
18.168376686719924, 16.214621412136328, 43.818574501619104,  3.911827618472672
13.720665355319031, 17.314481921074947, 46.067136647760208,  4.063894963256542
11.405071441563276,  6.304783802968058, 112.362436046558955,  4.040378270090945
17.266925022705934, 18.180795461791124, 104.980962274381440,  3.867222103069925
13.955547086908973, 13.258984866441452, 101.059308932839642,  4.258334772173483
13.942692573822164,  5.022677442057069, 86.611984333229685,  4.268915325108217
 9.948252895351018,  3.397011493386858, 32.489651580678526,  3.702189335402962
 0.988822076043180,  0.935860077228396, 44.066364110774828,  4.019192973549042
 5.407572219376108, 12.579557488788213, 31.898433858986412,  3.959418714462831
15.108765234219289, 12.752726580480825, 29.986631366347250,  3.971989251915282
 8.932136798398556, 17.011878518939810, 53.607493792257188,  4.408210182021215
17.290508103630817,  0.040028166337697, 53.747284531947187,  4.119475169254260
 0.246154963064688,  7.589185869001430, 34.900458715774171,  3.755287128400974
 8.481972584098466,  1.836337734603260, 10.145296312146257,  3.974653697925721
 6.866261598360615, 13.709663424890602,  9.013967423707648,  3.514592263995761
13.492371036650935,  1.509585485592197, 56.772497477222210,  3.864907336088973
 5.027745172140847,  5.474728797638588, 20.188065756806466,  3.867569057124128
 8.508738440363510,  7.862257772712230, 82.634065824159478,  3.893466834526839
 2.512227767362526, 18.581394489101090, 101.246770373970250,  3.908630242081961
13.460627998159383, 18.835405440805143, 35.461528795447329,  3.982015813578045
18.835895022448270, 13.592936445727581, 104.485442398402654,  3.864941387812950
11.326409421410220, 10.836912930336789, 92.840046147362003,  3.995634150846359
14.817204512646855,  4.711314390705764,  8.690671885429667,  4.081291803943419
 2.520424721694213, 12.572918002587162, 52.231002073671981,  4.102941743886628
 6.449468999657737, 16.914662877029663, 85.405240397380240,  4.137003520618701
 0.225496479570507, 15.606233429630716, 50.149469153099865,  4.116576025772483
 4.268897379533559, 16.663918628429567, 56.078223930628262,  4.029444344563871
 0.485907217792821,  7.843502645281447, 20.673435984484158,  4.337949679084053
11.808518828905745,  0.929694861947934,  3.995745383423104,  4.240267895241419
13.699280835016792, 10.238773605665420, 45.938696488501321,  3.974742734396868
10.149803768849715,  3.887623973168413, 28.626699623053241,  4.029946557592708
17.134479610119644,  6.834040474441136, 40.390031485297555,  4.140108110399479
17.142495270368482,  5.015778981724400, 67.503555116604602,  4.002975777918427
12.828294159929419,  9.652091882086989, 77.418444429938560,  3.976311500803191
11.740779246627628, 11.231046505214113, 28.413910075549087,  4.056269113595545
 0.627524876355496,  4.165078867730805, 71.693605798963915,  4.180137092580965
 4.231289096375263, 15.941747029962936, 69.683183663104984,  3.859799009902533
12.549442985748307,  1.284988532655641, 88.754930251276434,  3.913962208704399
11.725945239406029, 17.408325512497175, 49.803984270107854,  4.233106505707194
 4.114060472551306, 18.289536858506168, 105.173904641938279,  4.158332544944328
 1.786135908690287, 14.532874549849355, 72.407187797879089,  3.966789425883561
16.606790896282931,  3.111998342726980, 12.025478470258571,  4.134337403020676
11.893254671351183, 17.172231725518355, 24.115802478678340,  4.055694646452274
 1.239596616540448, 15.544155717990003, 82.750992585778846,  3.975447811410594
11.714912682319547,  8.018076452254942, 73.542197665691589,  4.245339924859326
 5.582626156031610,  4.748793705208818, 100.807060130694353,  4.005384480610862
17.611666955116821, 17.901823798833487, 17.547481108858040,  4.183657680751795
18.597905411040422, 14.641008560734235, 15.177033501117505,  4.098338384183406
 5.601920300631164, 10.946305872087356, 19.116138067293104,  3.929733605058851
12.095310900309101,  4.433778838975631, 115.996209048207589,  4.168954863403690
12.372632385032581,  3.734084192420648, 11.771215514862947,  4.002246388709513
13.653229152929178,  8.082800310295537, 42.686094302872888,  3.696912252419390
 7.714879496170726,  6.250135411622614, 73.517661173875226,  4.080772767506056
15.418091313199746,  0.143536084095224,  1.626281582597888,  4.242007094168791
11.703007891143645, 15.803537002414334, 98.500124880695282,  3.816672433294694
12.607131428214242, 12.710750292981889, 83.460714318935658,  4.307859968166033
 0.932634582522546,  4.935771774846002, 37.855270742797337,  4.235254416222095
11.987169218502491,  4.253549007397990, 97.164705147269089,  3.588450783768119
 3.718866214515440, 14.313941291402060, 104.694107136486011,  3.888700655186359
13.874762653999319,  4.004007506621935, 27.169308818024017,  3.939690179284332
10.514541166655974,  9.846292964299550, 67.034919154663157,  3.800742553825083
10.246492239687628,  2.633708293732428, 105.860873815853026,  3.788922176118487
 4.100861578891110,  2.461619060672678, 93.195426135441181,  3.759834509042051
 8.433885856836795, 14.018658405881448, 83.581424053135095,  3.751801501798361
 7.489795802987111,  7.077863552925326, 116.271702753109977,  4.344546527827037
 7.311995335181946,  7.076319801442256, 98.009167291556167,  3.959322007222689
 6.597785671696085, 13.848296634311009, 71.741280672816586,  3.678183200058675
15.118551354785556, 11.051234338209605, 106.837879528971001,  3.894956502142517
11.174973271073696,  7.578024211654294, 35.898087035614765,  3.899603786168371
16.740821838934977,  5.645002511769856, 18.362666857601958,  3.858970422892812
 4.166324913740333,  1.027597570097741, 81.981849469168537,  4.187846358023669
11.118983802285939, 17.234871714444505, 57.465492433800620,  4.238980199850610
 4.857334317628874,  8.715998147808904, 30.672489765328802,  4.218148377271936
 6.040984378131102,  2.249210946988912, 17.949874568679327,  4.160870686189039
 5.113351913769706,  6.431932289821006, 104.545094547366432,  4.214888250744004
17.145289923108994,  2.941565473967978, 46.578785353481777,  4.341796831971803
 9.603007602268420, 18.701246490621276, 103.218888777140663,  4.052080395921720
14.486686974933383, 15.821198932797065, 42.200567622687444,  4.163269941532132
 2.587263668426666,  1.951894487106032, 25.585948860365143,  4.211048231828241
 2.248099899972784,  3.132502413708140, 99.902637982147311,  3.587358781746605
 1.395821712227974,  8.593092811326814, 73.868256557720514,  4.177082845512317
 1.860316028768966,  5.179297248732351, 17.429215810108317,  4.487417634059086
18.945177519339978,  9.948290175577382, 106.161673298093916,  4.130932738987460
 8.162831280149321,  1.135422627651409,  6.057265806480462,  3.859954540459425
12.534125272457088,  6.273800174032732, 67.266844795541601,  4.186327968674756
11.044815208823048,  6.910855649196144, 79.711669897599407,  3.794178057412688
10.900932497940129,  1.009761194027728, 69.996411400013088,  3.972373273317584
 4.408693085533802,  1.989492978589874, 89.184459536636496,  4.240742651849133
17.760510082898236, 11.973995185582504, 50.934029898509444,  3.828797291781819
 0.392537359496659,  5.002807121854832, 27.093261442584264,  3.840845784235603
 0.914783562275352,  4.367433312002019, 94.627074374103003,  4.173678195512522
11.066873771352512,  6.389335647459554, 46.239523038475681,  4.156592976948363
17.319071198377216, 17.137629008430590, 61.984448660335424,  3.957546914850017
17.559220325511440,  6.557716677864894, 88.242142942865868,  4.154008002460386
 7.236359683028739, 14.226616338686531, 17.316794911352851,  4.202732086359766
 8.974690980689868, 13.844701584494748, 50.732293208151759,  4.064215119224571
14.213447435240139, 13.808303644226417, 23.299924300859150,  4.239748961089540
12.849813178965078, 11.857991965462267, 117.521884684172548,  3.682249497656874
 6.062134640826276, 11.109804045728417, 116.948482799359383,  4.266427044618039
 9.575734278343528,  2.619946385024884, 73.466193045419345,  4.074027307552726
18.648622362269158, 10.185963774068199, 28.263124552327209,  3.984762569552203
13.472033015892253,  5.649087092392337, 39.010481919161613,  4.035675730117625
 6.474607422027872,  8.871747250472614, 88.396159781405331,  3.881380385170057
 5.268101395120913, 10.110839093447611, 40.968766085299379,  4.276907661038339
18.461696369032804,  3.418119643632794, 114.369796257374503,  4.146342108161484
15.597148633592878, 17.160163419860790, 21.181822834481835,  4.142762142696919
15.835660953442694, 14.001783791553340,  4.610314761117762,  4.235808884707378
16.597826006773101,  4.154788287064934, 30.234225085229330,  4.107071793347976
 8.494172192855382, 12.592042544022050,  5.756183529113674,  4.051640631095148
18.189519919976011,  7.488694370825316, 77.204574257398988,  3.782865990450496
 5.388401325030109, 18.402439779044485,  3.774086172636457,  3.804353580182042
 6.559268723825317, 10.445260463304864,  2.662229027645733,  4.132216451275911
 6.451553616839610,  6.314598912716374,  2.305229756711213,  4.079043754803598
12.665960147589848, 18.414905677647692, 17.855936449493687,  3.874456305178784
 9.230797890216033,  1.523666287039505, 15.440608036879862,  3.986230109111490
 7.342108405010026,  3.748493401261411, 52.794183554983000,  4.051083019249030
10.220795972828162,  3.066539958003759, 66.851233256149399,  3.646588789739491
16.261415483136847,  1.052721960810720, 32.846825635691090,  4.026579510862991
 2.290465619941479, 16.157252700239141,  3.506367460140921,  3.856984613083795
 3.496552113199277,  4.005215705746553, 107.801364761361853,  3.630286680528315
16.815350600056540,  0.387119140479587, 112.238680604445022,  3.769678711489743
 5.790524678251751, 17.751482539202271, 16.038940928061866,  3.731021350643857
12.187803831967789,  3.716964649704452, 35.672282119275998,  4.089338435995663
16.616538113672803,  5.082395462205064, 24.137470814645123,  4.092462451241579
 9.068929492986962,  8.767453396414112,  5.379769803803383,  3.716326152374734
11.081994908844724,  9.643442294854591, 114.774155068430844,  4.190418079448348
17.677027539655636,  0.765128139826392, 101.389211785984500,  3.973839443423864
18.087529167270834,  2.550336802757669, 97.914772801630647,  3.837390414197824
 4.756880436161189,  5.959636533534786, 91.404715371582242,  4.201459127994644
 8.534769277997968, 10.601623280092118, 56.478156249543055,  4.072622282288433
16.644779892115199, 18.020160189017094, 57.913899596851010,  4.409816863963130
12.684977361795324, 16.533893937420427, 38.615448079053138,  3.972233660829978
 2.290426277565265, 11.723600943234949, 94.038063143201228,  3.975061440241904
 6.112743754457801,  7.707924886182199, 24.930775648716494,  4.068755714955687
17.758372285385217,  1.583748933809583, 36.835136594691321,  3.905881945576378
 9.934006258881814, 14.361836020187750, 73.236715544438610,  3.685799870896837
 4.808162131393040,  8.433728318848981, 71.444443730344531,  4.159180234096961
11.344117406854545, 11.619149572166089, 63.524623876074600,  4.224859174700529
 9.298328730900256,  8.744688989779457, 110.110417483713803,  3.756668908226278
11.882440927247188, 13.260266742785307, 44.044405442243900,  4.018371601660593
17.803292069819392, 17.801253422366823,  4.814153547776456,  3.988357696641343
16.062160257370895, 14.699227029491370, 12.129606933046826,  3.797472124363785
17.185423528710341,  2.802485856340408, 63.979895982369854,  4.316956233752322
 9.754471593383577, 12.901261088052530, 86.981700511139834,  3.874904531994630
 4.990403421441043,  5.014597117891220, 10.694177836850644,  3.848275052581057
 3.346994807759314, 17.196501640149695, 23.772115774115836,  4.167075668796447
 1.152555317321954,  4.183598872692688, 10.661420322263586,  3.631185935391077
17.492109322102383, 16.727325047258812, 85.350553107772598,  3.853104960525995
 8.217454925389061, 17.968164811830473, 99.430308051754523,  4.147376798884742
 4.224366778986236, 11.670596188865916, 74.006356371154126,  4.162004379578934
11.570058059268163, 15.446354960409415, 10.989687960912889,  3.990362619803589
 1.116851460567244, 16.376272241318983, 106.535857509957168,  3.452323311857897
 2.696305993277668,  1.998679136240828, 40.440795941240872,  4.218817084672803
18.544356647594995, 16.834940371499730, 74.802079345600404,  3.842570697232695
17.141662157223184,  1.038364072140639, 72.842450004427249,  4.069977094231144
 3.527353603289878,  8.536029618949639, 107.732758374209425,  4.054308461387066
 9.831339315915237,  7.213959983596438, 32.174991055020044,  3.935504569099030
14.747155812987478, 14.372046804990330, 63.558548189751001,  4.130902496611484
18.932610213388632, 11.231123932807247, 70.976067059226850,  3.987235207122907
14.537538626318362,  3.375765484386743, 78.267108873030139,  3.934409916544272
17.704035268727452,  2.860702948408292, 40.636460123361417,  3.826464326563827
 1.590582330466868,  9.353480041652725,  7.380227154443877,  4.186246726468121
15.530784498408362,  8.494705845024141, 85.415981560492185,  3.729183676412431
17.873829719033395, 12.643942007667128, 95.872844928129240,  3.845166001470593
13.510756137750514, 13.251573647000347, 79.297136356828545,  4.256640404553585
 5.189051934765553, 15.388287428674674, 45.193340882314438,  4.351700734602114
17.164066858801586, 18.089356862580420, 13.515360419162576,  3.838077884115616
12.894521222576437, 11.885237444630500, 73.721780828358916,  3.821092005982775
 0.878825874988149, 13.243012676285707,  5.927453913483934,  4.218893717928294
 4.302954927424807,  4.521635900479412, 96.977958947687682,  4.036313582895880
17.356569214010925, 10.654806368115585, 47.321274656634280,  3.873714229524849
11.761389618860967, 17.654389560267003, 73.007347040347256,  3.736518703353741
 6.809859534223844, 10.565577094771394, 51.207273408918326,  3.833887916977868
10.047336247036137, 17.342833063675574,  7.947841805124956,  3.780239683730444
14.689211180444486, 13.177220066602361, 93.289823069847102,  4.200258739699437
 8.413390174223002, 17.971659488243453, 74.965784798846897,  4.041551204885632
 8.637160098292981, 10.665856558662707, 30.805829157239216,  3.843783472933151
 1.565662118154645,  9.760734978480881, 63.388147265485031,  3.832201042963263
 5.470641650585245,  0.780024571719300, 70.182825786645779,  4.154687314284677
18.384887964158988,  6.702092406557282, 111.780200045477358,  4.209443312204593
 4.839652689793368, 14.983225223913289, 13.459386020304255,  4.037160716735810
16.969343121032427,  6.767079027731461, 73.049084472970122,  3.642292626781037
 7.447192067907647, 18.138263207452646, 112.112807464734360,  4.176406337237731
11.776790793657542, 15.479414422778122, 20.383393508677802,  4.060342145755880
10.842854792674904, 15.814342000937829, 63.241456748002371,  4.179492131287627
17.813921662292735,  1.299482876274083, 68.860494366487714,  4.006141426081998
 2.494133579748107, 17.773505478414041, 52.666472838742770,  3.923364654773711
14.821228983695656, 10.573964613988192, 53.346866183379049,  4.213444083794795
18.378331239852226,  8.669067645940734, 24.601487967065172,  3.946660206114672
 4.764521096452950,  3.255099151056837, 85.319500875418456,  3.921368722068459
17.075436578643743,  8.191428108139228, 50.342312502245548,  3.939889731574649
13.084716743015724,  2.086413629334535, 30.653258749829057,  3.950891484979250
 8.667394380886956,  6.921856511101293, 90.947040941891501,  3.844128080208304
 6.575326110288154, 15.129014856607171, 25.165936675267947,  3.981130595677458
 6.285251661358482,  8.082068727606980, 79.484098000876983,  3.795629668832869
 4.865158126503224, 10.538387683327754, 104.492223269830305,  4.004282007292191
 1.465832195523960, 18.850136599880379, 113.646650088943431,  3.972330351783751
 7.798311521023490, 13.990726403989909, 98.079576827454460,  4.238296787098411
 2.472405460306449, 12.667691242751708, 108.235485012346430,  4.299700695360767
16.082998020153077,  5.184270194983313, 35.845108726429892,  4.207605687670481
18.933906527305222, 17.010962676751220, 98.530479163731457,  4.024127910588487
 7.487072351805515, 13.972781525378711, 112.293830925841220,  4.145500507731501
10.770919454699539,  5.415724274839079, 108.529929032254771,  3.929274233342017
 9.621797493274606, 13.439530239846823, 115.849844973478568,  4.214678842165857
 2.283983979510334,  6.949087775006543, 100.098493142257738,  4.033575210791844
16.888461350666852,  8.892786273910229, 68.080550934037703,  3.846796797309171
 2.179155794469551,  5.197761572368282, 82.796634102692394,  4.150727458863237
 1.851112924264003,  0.502128795135556, 95.819354134632903,  4.129474496808011
15.229430590067951,  0.618958862286427, 49.956814152276792,  3.958274957395421
 6.314723565821758, 18.436693702326178, 42.558597986158908,  3.913635370728218
11.271641191326715, 12.669096349598744,  2.681499098858275,  4.216042782758547
18.070274844954685,  6.183951197932252,  5.924917144057242,  4.208181594681470
 7.848056195810074, 17.082119336459662, 48.816840252953554,  3.782319638503030
10.815587554040309,  8.775635775345654, 39.926848811961882,  4.331769915850926
 3.999376853816818, 17.870903924435492, 30.718370453184903,  3.822853680474531
 4.861976087324131,  9.499920825767873, 66.059749324865933,  4.269993229233420
 2.437644204099074, 18.378221738075258, 85.429052905456146,  4.156812726356360
12.883926570838241, 13.026330395416867, 67.154206340586882,  4.099373730458369
 2.133223490782320, 17.485524254513432,  7.307157756180391,  4.199801182577667
15.689325221171876,  7.295459600305581,  2.369182634645329,  3.826904766129687
 4.699179763918299, 17.155636212951880, 73.466190768980923,  4.133110930734526
 0.640616171415014, 10.846601540098348, 88.374828658575169,  3.705837936151677
 9.521203934011591,  3.629926789288530, 80.677625167172749,  3.650739710399552
 1.190867851749648, 16.236199645455375, 59.270358305047210,  3.863822119484240
 0.676696070527748,  8.752016749285334, 53.505536003662968,  4.109028760503892
 7.144522047275495,  4.961721409734182, 77.305237884614030,  3.991004731164991
 3.510543934788671,  6.322781024731261, 13.889345268154905,  3.644416586943490
10.600972729457229, 14.645360642472230, 92.102261672956445,  3.821708796584708
14.750213239558368,  2.836008296019645, 102.888266033976691,  3.713003886677468
 2.110053258077077, 17.898503670669378, 14.524433039238478,  4.157631282393088
12.814032913992186, 14.693629696164583, 70.923540063570783,  3.707756104306769
 6.870428213886068, 14.344115032408547, 75.507890907594302,  3.910406842686794
 7.719931167323677, 14.049074804544816,  1.044205739558938,  4.050221806569350
13.333665380915027, 14.317762160687748, 108.578744083915723,  3.851297587287565
17.408740230737088, 11.983208163156666, 85.293311998932637,  4.165577901491582
 6.927533285826007,  1.494196537320297, 79.085598709786282,  3.783802252285497
 5.442013097110815, 17.354907138113646, 77.452368300049514,  3.800691415613773
14.963534055050351, 11.499565834220981, 70.358654376914515,  4.059762047393686
17.283339733253996,  7.395909735978267, 56.591859141941903,  4.044954355852147
 0.567625299567579, 13.616870695540127, 111.919805753030019,  4.205726310026827
16.342742308181954,  5.388321659840129, 117.372404783495256,  4.111185018526909
 3.186857636603635,  8.485411693010919, 37.401695797362194,  3.821790029015488
 5.239471214708228,  8.100277466977076,  5.778096382713668,  4.097153419497162
15.263167051684910,  4.620917679690191, 43.199441983512017,  3.919397044540840
 9.720534862111352, 17.405606240616773, 115.321402282143964,  3.777879605360362
 0.101167488296723,  6.663355637388775, 46.979424838244981,  3.681324315505546
 5.188021068996069, 14.890105943782444, 28.744044166869365,  3.707032891699005
 7.333663796670609,  5.278450526056293, 94.490773500696932,  3.933791899419643
 0.283796997566604,  1.628989852494340, 82.850877941075652,  3.848922877023818
13.085177645545066,  7.968605232761717, 50.403240897891003,  3.952260814218464
 8.807603905753867, 17.851680175837487, 18.455405400760146,  3.990894612462931
 1.255539066610436, 17.168194450826377, 27.633873177761128,  4.524130086474503
 0.865297684148021,  6.975841885534531, 30.786601904593130,  4.482820852803622
 8.360498449128803, 13.979230280460078, 79.185448287652804,  3.786190506702355
15.807431038649051,  9.778008999380262, 74.875247339795095,  3.707797635304154
11.362407537097379,  5.004332980193819, 42.388104835155147,  3.986402843036131
16.260777398510385,  2.830992798656469, 89.421252468572334,  4.056958313617682
 3.235559907581589,  7.805711804907608, 94.813061829369957,  4.106473043818861
 8.928744286158423,  3.541653189111610, 102.419051513746524,  3.794686519817004
 8.346170771472393,  9.842035726883152, 106.449233308543626,  4.097469168138473
14.381082626277271, 11.874013205945403, 114.055129792084628,  3.883678164730667
 6.607425136799010,  9.389697656080729, 93.186475923219774,  3.946147400487831
 7.226790094496696, 16.972254967324382, 67.611007081398427,  3.635115062833743
 0.794188518323596, 15.780751223805407, 94.563534213129714,  3.702310352343582
 5.958959750681387, 16.302757893850210, 81.280130588120088,  4.091550865090345
10.537851746026513,  1.927717738063975, 25.088977672770028,  4.066324243715441
15.698725756676213,  4.103142817088838, 70.924684693169425,  3.627692835075860
15.577796499509160, 13.757463789307646, 45.578969535817535,  4.013174182684244
14.376322282160857,  2.789242589603929, 53.179472602555592,  3.929592477750240
 4.674711855194683,  4.416694594084891, 71.670752083389175,  3.837260229386475
17.637820262991006, 13.867615218334219, 27.189112207326719,  3.882260083319579
10.186920134918719,  5.983864284781550,  0.834089904116220,  3.976470793566160
 1.605700463116205, 14.467875740392698, 86.705341563725739,  4.202630235146080
14.398123222349048, 11.386062051813028, 49.493904310283320,  3.567758798128937
 8.139329924878062,  3.771683804965650, 69.965625975244464,  3.822678724966197
17.557616050252875,  0.547957691682692, 77.715340449283104,  4.111769075957123
14.048673355875232,  9.593413936101504, 65.640475667516156,  3.734412492213347
10.231188810180338, 11.993418975883817,  9.383125878950004,  3.989750501747722
 8.523042026192897, 10.964744626082839, 102.563710118592979,  3.994037742537618
 8.817485397971510,  5.633800647493944, 11.355129958855454,  3.958586927958708
 9.031436823307782, 16.666623455807578,  3.998060604996883,  4.238690392379580
18.240267890987155, 14.486471165431551, 78.732168975033431,  3.917680762034753
15.604512547975665,  9.048879248584120, 34.506406192905459,  4.005981631455034
13.654220038132454, 11.807674352544046, 19.140903949546111,  3.975979734598679
18.293526653758526,  6.291269408738728, 97.672148246227337,  3.620031515115933
10.698616080334377,  1.661696980339399, 52.180571348737701,  3.946057765365790
 0.521022064236540,  1.543893972707389, 60.401958357276143,  4.521440023570820
14.394929822334706, 17.317557732578813, 79.149364295580725,  4.038409945268771
 4.046792537204244, 10.964768969441185, 90.607877892808233,  3.868167374288841
 6.705586953870771,  5.023719980733430, 31.302720273582892,  3.893139685872407
 2.451942241831633,  6.177142999585089,  3.376636374110216,  4.169060963172567
10.707565864491393, 11.562647626346143, 99.399990230401642,  3.785768712172494
16.686641255035621,  4.319506674226732, 50.490619015601858,  3.790154141417994
18.381555458928247, 13.745237157273117, 40.818844277890996,  3.850135044259320
 8.975197559704183,  8.448114088537125, 76.705291313761791,  3.967856845725417
 4.929501055337104,  4.532921394252067, 37.494538678446759,  3.771318465927762
15.269460209981020, 15.362406458894226, 49.187429456618730,  3.905929058844277
 8.274110257094955,  3.014503611812805, 116.872011354814504,  3.992087638961153
15.115186659716608,  6.632697220110296, 47.148618483827235,  4.141708735620489
15.277174657411317,  2.258157939396839,  5.594480848217095,  3.844691207719678
 5.502468644050714,  7.112128240964211, 85.042788934333188,  3.933927495917106
13.102834541100425,  3.774041008839960, 64.029207466608995,  3.944434448551913
 5.628966097182985,  2.862775073410227, 112.005448204065104,  4.009964849981999
 8.732025724934632,  8.079101466138773, 21.667656352641664,  4.087753034575689
11.962586141792086,  1.849071650044203,  8.065334058020177,  4.082726448815300
 4.953582329250771,  8.110054432772468, 75.844080140537500,  3.926409084554663
14.568643910794474,  6.394005619540438, 75.889965357434392,  3.736150397208376
 8.445212628250042,  2.748969349253235,  2.441200072078516,  4.013975608198330
 3.743388286259126, 13.309577661026930,  1.196945646715907,  4.028974195124242
 3.661646373586441, 10.316219042678789, 86.221276748743875,  3.719335572424918
11.710566123501241, 16.973238005738235, 67.412028568761855,  4.074811178325387
 9.652849289701662,  9.921877524714874,  0.147016063271806,  3.907786323104970
15.472737932715596, 15.146794415714584, 97.703736762747198,  3.976224388405364
15.309404061463628,  7.149181967137217, 108.831072327869791,  4.247151698788894
 0.283498533744570,  1.222075458411914, 50.276907137749859,  4.134893720714740
 7.878310325154736,  7.610033533577985, 53.833349793648274,  4.017382095561816
 8.661393729096016,  4.262965411805888, 84.499944626541037,  4.212048368336347
 0.428552084824850, 17.311577829249462, 110.103852344543569,  4.018986097249782
 4.835056112898859,  0.898127004172755, 98.415802835751649,  3.813588603243385
13.502619558364684,  0.288458836534497, 105.509538112486865,  3.899508448595470
14.140067656544236, 17.549425669232171, 83.484003248746006,  3.983936272857986
18.325495417167730, 11.002077778510271, 32.187460341618007,  4.009876971928320
 5.510429817223608, 14.519732319174580, 39.905165113612824,  4.080003527474383
 1.726871894370463, 11.038799353528802, 116.721662939952708,  4.317413759981033
14.443798953511410,  1.516440598150317, 23.586903850324212,  4.324976399619061
 0.405222872034327, 14.930424920872117, 68.513775477911125,  4.321415708068682
12.505200631662355,  1.712021371311933, 109.319912261811339,  4.398960911796823
 2.729659068274432,  6.518795682441119, 78.789919456810594,  4.072221536428064
 4.800413354880829, 15.415481288146454, 50.512969175062068,  3.943984251391391
10.952926011719665, 17.625780030970120, 30.106399035923257,  4.040447255041610
 0.390725896305193, 15.919443245541407, 55.445422078263050,  3.956034206950595
 2.145983834283406,  1.002069666437655, 18.193083543146560,  3.993825399562724
 7.305189565747803, 10.640457580051901, 69.167121638527675,  3.912138630550669
 4.740092633673978,  1.721320090156436,  8.332965364503620,  4.266603444809453
 6.247481041914163, 16.908983940469948,  7.224734506157455,  3.895228644553056
 5.572338033430866, 13.254367051559125, 87.809677626767098,  3.937550086117064
16.928563578040844,  3.147798167024576, 57.305394988972303,  3.809301605733196
 6.063214591932716, 11.036493563897988, 109.639715867156170,  4.012624764787777
 2.618475921292344,  5.783834976206997, 23.785967332770554,  4.229277255421870
11.011323257083742,  0.912606762141113, 21.164252931142570,  4.046894550975392
12.099887398649967,  3.372222243683630, 17.574568236963181,  3.980027955022169
 7.273562330698987,  5.318611939782670, 45.742305436887925,  3.744048995559240
 6.025661200308799,  1.054337103934952, 102.085921539037528,  3.847977555075844
 6.971458811876079,  4.878471310942361, 14.834400262946204,  4.010801556945290
 3.721580494190201, 12.077535499596628, 69.970790553902162,  3.922156369029504
 4.442903517490066,  2.187325139836839, 32.888708778656323,  3.961815023872440
12.231302634316659,  8.342167954458091, 106.180478196318035,  4.104428722396231
16.677248778831977, 12.392933277707415, 66.723564630291222,  3.563210638493492
 4.747063530775663, 11.907484089558970, 62.766606515728093,  3.762782245606448
 1.755978689673084,  1.255321708406821,  2.923855921288096,  4.376199513298413
 0.379599019079328,  0.463504067820418, 10.465079350573767,  3.977636964500129
 2.778061519864529, 12.929536917123631, 42.757872459209587,  4.048169255608341
 8.855864193086036, 16.674343109313131, 95.052093027213701,  4.097360674502588
 3.124558610035018, 15.019935778373757, 17.388975971368076,  4.168180883748797
15.768033937514303, 10.147748638421978, 88.894428097447900,  3.953263365300848
10.156317779683254,  0.907026464866281, 38.129464213215975,  4.399404368114900
 7.872612067023565,  9.334429318901776, 63.144766756313999,  4.098303744359361
 2.613539589289395, 16.919512890235193, 41.688106582818669,  4.213208343674079
13.454601839864427, 11.672524562914859, 11.865133586290803,  4.133178054194832
 3.614913380939325,  6.128858204968493, 41.019137629332434,  4.321434188615228
15.072382607726073, 11.690143519968064, 41.939562325823559,  4.195226855625696
 6.297754202308838, 16.167306713674353, 102.471949224062840,  3.860770071308012
11.932732898265607,  2.323873889607019, 100.422011109305117,  3.815451988363411
18.713776312183246,  4.559124721285983, 53.956740463507380,  4.207279371535226
 5.934186486848168,  4.692690492736896, 81.313346207748722,  3.920144374969543
 1.268802964223965, 16.863522442972208, 20.372185953817496,  3.757477997739065
 1.732564835532259, 13.312397987508227, 29.686894830315961,  3.924769703873937
 0.173523511569709,  2.200802008676918,  6.781453875331912,  4.172718579859383
11.151344760503944,  6.921009344647436, 94.310565919244098,  4.375187838943560
18.598928757147853,  9.625827207057265, 37.997926614559269,  3.695484093961457
 1.565712571947791,  2.117204550348784, 29.787446370330930,  4.395553741368305
 4.960962681781673,  6.717802623948437, 51.184875639659175,  4.062471521777019
 6.858086212825731,  2.910144599432973, 26.047206966456095,  3.785852664910414
 6.121719172725047,  1.176450626308105, 62.827195714937979,  4.171015140002690
 2.718680637967774, 17.549768353338266, 62.771452721727130,  4.169198743177214
 8.406771974773777,  6.514763620161531, 66.198743288413752,  4.249214323448497
 5.192402641682301, 10.659213167135086, 97.247659096584812,  4.313571050123648
18.611052714533258, 12.503528532022379,  1.764282880247764,  4.255541673262008
18.628921026816023,  0.102130056045024, 23.252468805477857,  4.109490398361133
 5.474783956432327, 11.194102867975582, 59.028582672576640,  3.958220903958501
11.389778576607931,  1.049971722291666, 77.035685962182896,  4.262882736735002
11.925588991319426, 13.768206732594313, 47.982445579110220,  3.883385883079521
 5.567270446748836, 14.647462135783362, 91.616025202931780,  3.595343335411945
 8.176676292833548,  7.461323832272313, 28.481799918656062,  4.120066037427981
 3.090834863340285, 14.138724514203023,  9.451456131235863,  3.962956060705920
18.197726565107430,  8.839628509623900, 94.791179770039236,  4.066370403423179
 4.547481524074186,  9.804476364102124, 54.358356194967300,  3.890486223692762
 7.836438224116168, 15.093873788603329, 21.329261252015101,  4.061878675121970
12.335093158505083,  8.591178332591966, 83.201406187918579,  3.956838914694165
17.322728414234302, 10.128290905165541, 12.723616321214759,  4.342363026136310
16.145493606203782,  1.553902651462919, 85.456450709495286,  4.156573506303226
 7.950120758901952,  3.805058178752852, 22.154290397327149,  3.902117956655236
 3.478006147285719, 17.575524504016293,  0.107231394177084,  3.804075676321241
 8.286275333865715, 15.949451129242970, 36.673415463278864,  4.025222357718818
 2.061264789163766,  9.852797605179996, 111.228224340153560,  3.956372553304343
14.540245205392363, 18.134583322102543, 70.312862921752782,  4.060559244273771
11.699202570559390,  5.258963582977138, 60.434309342177521,  4.325408011353970
14.887809911022030,  7.072785242935244, 96.189542105513567,  3.929891095056438
17.427427515382256, 16.522637243680997,  8.656146129404876,  3.792640666872336
 3.684082159301384,  7.600088887190248, 118.060096042377040,  4.020870784175269
11.614068067581876,  0.804136968490273, 118.020856475849072,  4.176722569951181
14.492573745773793,  0.363668856871458, 92.087553527023104,  3.992342230186920
 7.573340484857118, 12.993265278952714, 94.203582794006238,  3.740384736599185
14.866123971698435,  0.536655595119993, 98.645678306544795,  3.880142961520087
 9.670708716050640,  9.594755822359479, 25.353791085493953,  4.010975102884010
 9.795335682578704,  2.792747870974735, 55.984055582976794,  4.114272388078168
 2.892698195253067, 12.849385386212550, 56.398825720188391,  4.105563983996612
14.836411615992368,  9.248454139976749, 92.832169490705695,  3.665587211282168
 1.525119101997364,  9.279956003884163, 15.551847339780796,  4.200692164041350
 3.879815255356639, 13.991743056512199, 21.276052071548744,  3.995810046713724
 6.871817409857573,  1.743214802052317, 35.868231987579698,  3.683400049160522
 1.741450345496809, 14.330691116176757, 90.913282515760571,  4.208029835834150
15.855125818454102, 16.970105542408088, 25.155140925439543,  3.792769860179583
11.144794043570892, 16.152490553470745, 105.796389413042306,  3.799932517364697
14.729843555015309, 15.250123078190866, 17.905098051147842,  3.630686259479030
12.456852646282345,  7.963088997350692, 89.896239686095214,  4.189858677764422
12.187670165304757,  8.977336515704124, 55.961246163928614,  3.677846525876626
 3.530658712931550,  6.140406179519863, 110.996250931094934,  4.028532598103562
13.817627476487580,  4.243877782006055, 106.290156858348780,  3.860753242369326
12.926858096140272, 18.709577281469016, 113.203290386455706,  4.239564808842085
14.969811676232911, 13.078198615000391, 34.059688231896139,  4.193121812166870
11.777323697826056, 15.341552007356873, 35.001167337086436,  3.806343378283906
 8.384146076828742,  0.429696771566340, 82.662967506621982,  4.162778751459808
 3.929646677605095, 13.820829389927404, 66.216573796560183,  4.288668490828066
15.187075337953921, 10.804361768888954, 26.138582937939049,  4.227401063416597
15.563612919632298, 15.408206170643661, 112.049209072930168,  4.474734931949375
 1.934009442124748, 17.642066634038642, 79.338488072704081,  4.153756903085436
 1.202982325784731,  7.676570497439148, 69.813380468568567,  3.853642050522846
 5.622962428960683,  8.762312200312167, 101.079733730453185,  3.807380068058335
 5.087266619679211, 13.383919495243395, 35.913847829637454,  4.243452201374500
17.426862470072287, 10.462793423541203, 109.841835691273772,  3.763922271606859
10.256449947265022,  9.657845065223290, 43.938539989870876,  3.847174079672260
 9.609966192515355,  6.560004497859641, 57.192140583117116,  3.806184475001182
11.643827832469519, 12.261696383083811, 105.033574451639822,  4.137675372946223
 4.166790708212972,  8.717434262031206, 21.739931913522224,  3.486636792873179
 8.648576819539986,  9.010445098828644, 16.380168640710032,  3.981715400734644
 7.276854631329241, 18.832415843716749, 23.290333971718923,  4.363252478654180
 5.045010733861136,  3.257663616172202,  4.522685350315363,  3.947491181453989
10.513946777873327, 16.912509511598479, 109.626274034890770,  4.083633152391137
 1.251192758358762,  5.089852343446537, 57.986679511876311,  3.892708954182286
 0.280285557594391,  0.764863216192104, 117.135087647215784,  3.486241453814082
12.030488365798384,  0.171329029263470, 42.135356623136154,  4.038768825056692
 1.082393269010985,  6.758198578030259, 103.910887863880433,  3.958215734395902
 9.505989380429583,  7.459217017706191, 70.080230298877552,  4.035425212050222
 7.432820478576732, 18.749784664546016, 57.026573291160595,  3.773778286824613
10.970497671234876, 12.553184815944267, 15.658038465860024,  4.601415615496843
10.812673267668075, 16.001180144133873,  0.083281079920790,  3.510731139132020
 6.603285949856021, 11.498347579811629, 81.317921886619459,  3.629385929891955
10.983596231879623,  5.062950441794801, 76.307212711053481,  3.928860804288096
 4.300178083513876, 12.000307734927100, 48.583410752709810,  3.947574721557386
14.168850203559275,  7.500676727883512, 11.636608112302701,  4.135585409947678
11.575545407854491, 13.997313033214370, 112.282862234472518,  3.984663404366344
18.179081164237303, 12.209973467346140, 54.916504271834981,  3.881867615687865
 2.417444165090715,  2.463149267996425, 64.141109100331434,  4.040763026738103
10.049054792376040,  9.348568318328017, 12.514139610212567,  4.197507033946929
10.390808339931384, 18.702496268455160, 91.802584126894388,  4.154911699840195
 3.813561325675306, 17.725654961399950, 10.897208984833481,  3.694719184455771
 3.948547107520122,  7.953920606299788, 60.825957728041132,  4.036184120241752
 7.851190573560158, 18.230829973915554, 106.788228266794533,  3.929968087962259
 2.420087224189286, 12.169424012191492, 38.796702837544977,  3.974277102508590
 4.213205914684846, 16.844535224843582, 88.824302837090002,  3.984512146701166
 0.532491659415958,  7.245990247033239, 115.665177375129659,  3.906373424515795
17.045235568343390, 15.841218234102207, 101.859974287823647,  3.903102844992902
 2.749104805057766,  3.048383215084917, 103.809115676207426,  4.159624549214554
 3.920670923463636, 16.014232244650376, 112.199952201049740,  4.055265057263941
14.343962793405060,  7.543578229288428, 70.565207963530852,  3.746968582929746
 1.551009282656050,  6.709800771686561, 65.945804238410929,  4.122432111954144
 6.372383179832972,  8.518038045997510, 47.809394993055619,  4.075424062428294
13.275887845974426,  7.998468416416264, 117.787027193348038,  3.953615670090672
 7.483086986722252,  1.055969009390032, 30.265963955731234,  4.359841115989696
 4.056000336265969, 12.282317506597343, 113.589379932649450,  3.866975964205313
 4.335589476323829,  5.446761825174129, 27.986468074590153,  4.287746828033005
 5.135451183951245,  0.343398270411363, 50.211005139274988,  3.746494145777256
11.007711113853990, 16.043807999258402, 81.355706053571708,  4.166234461610225
 9.070923334569986,  6.186411182098114, 105.150179247321390,  3.791070591866809
11.664595689204972, 12.947483309578590, 40.063551963874723,  3.976628383876335
10.056227526229060,  9.243894425277436, 59.837571225778632,  3.766214572315388
18.362981969429846, 12.762973160086757,  9.703307361766727,  3.878099931891668
16.697108407033216, 18.187572065791187, 95.352062377798575,  4.087690626152866
 8.410675269720731,  2.333108364148027, 59.726459786729109,  3.834671251329492
