BANDS
8 8
NANOPARTICLES
cell(1), 18.959
cell(2), 18.959
cell(3), 118.493
15.324504067573491,  6.164109824838631, 73.372509403198649,  3.731285756044145
 2.503619361154837, 18.203470890125281, 54.039526009501621,  4.054319819504011
16.229020579817828,  7.988719665723548, 40.977886724337942,  4.118411014301118
 3.344542849138219,  3.059967267722225, 26.123924832652914,  3.831414018827146
 8.587982456368520,  9.608094527998512, 89.437907607796532,  3.738553345741146
 9.060624130175466, 10.677335487160120, 114.908348155900867,  3.810049972630847
12.059600200689012,  2.982335409160771, 23.088107872465883,  4.034731548043662
 8.043025048243953,  8.984721010395786, 41.514206155296762,  4.485025781479979
 7.139460436064091,  5.390632690608386, 44.264285779909130,  3.957492440279521
 1.173805351163157, 15.245441375667253, 75.471994578012996,  3.960397162828798
 7.807689896338627, 13.575895066527172, 54.542918050568957,  4.040659198179439
 5.246041749980812,  7.340949891765450, 10.756450182890484,  3.896638451345675
 5.196859507075944,  9.657825890323220, 87.849652336832506,  3.741534917178895
11.697935700030561,  4.625625169282617, 107.484605210541801,  3.963322129761095
12.396368665549852, 13.224708825651101, 61.496033516109691,  4.351330428320662
 8.395412743978882, 16.602881975820548, 66.052349769915708,  4.144825955396730
 2.214256944091447,  7.882871502130693, 117.518144035270197,  3.936311599397370
11.913740582430648,  5.635691450485695, 57.935633863251404,  3.758302683291050
12.657606517881851, 11.962299095991131, 75.291365762321959,  4.022421744888614
18.698627188280486, 13.133190871194484, 93.900468750649310,  3.575893632069633
 7.162422460545522,  2.993729867453496, 84.948390506054764,  4.037821658292169
 4.596791545447725,  0.259679325481210, 60.874834661042406,  4.119650962751724
15.685358053613678, 18.200154529180477, 96.471174908613321,  4.555084331889417
 1.607605290929620,  8.285414660564919, 74.834771023322233,  4.116944506420702
 1.244464874839960,  9.141953182996128, 87.694459710213465,  4.208192307249382
11.582590851515679,  7.457621649075084, 114.999623974008202,  4.371463157462401
14.345993324418018, 11.488712818131754, 64.744795310822383,  3.849952796558670
12.563643282847117, 14.836618068118959, 27.167202869397673,  3.996196303699620
 9.801033489830015,  5.076791919073662, 82.464835803313974,  4.302624639490189
 5.341418049116806,  3.096030788181536, 92.702761202810763,  4.309298481846553
10.984569370878216, 15.987398361363665, 105.209473521815283,  3.796027074953701
15.369495176070723,  7.676882963920059, 94.847668124622174,  3.702681526346332
 7.639035638174199,  1.958637672138529, 98.204654336448641,  4.219676511314239
 5.355996663255805,  3.110952864156530, 36.892746920244129,  4.189530650633066
 9.982976538588176, 13.144867736503267, 36.368186535259355,  4.025427542946452
 4.502600773654184,  8.783978052562933, 65.707731888085988,  4.161101985410970
13.862678551749887,  7.175920289672757, 105.507891553151282,  3.754468387940876
 2.527091455724654,  8.264299821198053, 104.333673737910246,  4.031121682525776
10.832769952406736,  1.315853855017860, 48.700749297085267,  4.226967044633645
17.002659773093360,  8.993435290410536, 53.681355259386727,  3.621701073677352
16.934453541698971, 11.732586486167138, 48.281824232211669,  4.163746580900715
 0.455198533487114, 10.565069277820427, 41.106472992575732,  3.738383810482994
 1.771412391228707, 15.594981162199849, 67.301737460213602,  3.969515674582675
14.481746141842599, 18.678943912662145, 39.473604713822972,  4.416384667576077
 8.828102679443687,  1.130564333377612, 45.020131877866589,  4.159870747094912
 0.111514441194652,  7.797210443977643, 93.974424835048495,  3.888828283761312
16.992616879261998,  7.078823538417049, 86.099270112375422,  3.993785614342126
18.448962174780160,  3.033151673007918, 10.190648592116498,  4.038776378623520
 2.789314470921339, 16.896629049798538, 70.894031161956136,  3.916415495101237
 2.253590014341243,  4.613217970601455, 95.151345049135827,  4.129814002418928
17.667932138610293,  9.265452645999581, 64.108893463643668,  4.232857504427297
 8.904302787134576, 13.357305810991337, 40.395555134666132,  3.476951144851073
 3.983442959161131, 10.329779180886598,  4.685453380868036,  4.147082384804211
 4.911545670903555, 18.205312734392862, 35.497221855985977,  4.054744896655307
11.615310043691371,  2.216875816744473, 62.758253964924336,  4.043907651158463
 8.704725381919367, 11.659250328773812, 19.768795531132525,  4.058488996455371
16.974197939775042, 17.893305322224311, 56.768780698334993,  3.828276620044544
12.586573857602435, 18.031940713264859, 51.672812514872682,  3.991363305355225
 5.330072760331427,  0.969157051581160, 107.469768452631513,  3.737935893223922
 8.541534002577999,  0.342783385894817, 17.736913556629673,  4.571390196403413
11.372403117066030, 10.653009466144660, 39.334471027715828,  4.110539115887542
 7.980867511025645,  3.629831152538988, 106.360087410155430,  4.046370621981268
 9.086011147770883, 17.983772497270781, 69.824520182486069,  3.997768012549151
 5.023095316564366, 15.220765621838598, 75.957557075029612,  3.785712938475491
18.118877035185886, 17.309749023909841, 99.868618799154547,  3.988729147974623
 5.085480841170813,  1.859865131855819, 81.758335377243640,  3.766599972286895
 0.749619734882798,  9.754915005307529, 101.085236179495112,  3.902886875397860
11.352202877706292,  0.033737331973208, 95.652694517272735,  4.364034238811954
16.046892998836437,  8.754994094553739, 68.036361621827638,  4.274535053999793
13.173042384469992, 17.471723205620449, 12.277872084741329,  4.030813244936193
 6.553444516501481,  3.105799599745600,  6.381932160722248,  3.786038507985276
15.994384625971914, 12.909703180424660, 19.653122881550413,  3.936903014987220
12.595410423232330,  6.814421724938647, 36.463024830567079,  3.799935907030237
 9.186779879828135, 12.873264664036279, 100.176654946925083,  4.136011253457895
 9.527929102100625, 16.358820511952192, 10.775882539433157,  3.813640116149022
 5.424990195470346,  9.832855935305465, 21.379997448847924,  4.052150643810558
12.420652115028592, 13.170420144630624, 107.503354614741056,  3.965732690800194
 3.910830077759899,  5.707754280550067, 41.103277705766139,  3.625508774135656
10.188531488460129,  2.189861406117176, 76.733274328615181,  4.174510926226050
18.298795729180100, 12.147121957168419, 37.511503685643369,  3.716636777867045
13.720333897169406,  5.322576691552258, 20.092516548340477,  4.188389903588846
15.757104899608768,  5.198470090115016, 108.267022905643017,  3.994738359640033
17.483748345555167,  3.999903231818203, 105.145955783693722,  3.511997148956818
 3.414454859888652, 15.549269577363779, 94.873459463647535,  3.719866293550167
16.477988801761487, 11.166904425058030, 96.355482985653808,  4.106566341549486
 5.603085039830374, 10.093148652961819, 53.619241393447219,  3.978082903137385
10.750336643466303, 16.901434604224487, 73.217535403179383,  3.849864757081114
 6.349028932183137, 16.933230821683992, 87.073373390201780,  3.760909810440785
15.652185544670179,  1.209689202744058, 22.080235402683492,  3.865028724619296
 8.573123426458837, 14.459952732074894, 89.310333126435680,  4.051580340037247
 9.841257916732379, 16.029300152893594, 81.594906421110821,  3.922524825608025
17.057933110320274,  8.023462920889019, 98.795058208585289,  3.907866018455826
14.699435420916370,  4.441571321429381, 88.412217823657386,  4.287516222444381
 8.993749614358190,  7.552853821128450, 59.559100712049947,  3.909829950379256
 6.721734220788235, 10.624810493934147, 12.353053052256627,  3.957159548927008
14.379388248223401, 17.896059922465064, 28.928050176233285,  3.940645764036707
 6.451380387208240, 11.975326941298958, 74.551509413998929,  3.750638693420457
13.068127868512839, 13.785195651636315, 51.398596544491163,  4.555470463282447
18.115762648741438, 16.408920532021110, 115.605572655880593,  4.246722906354536
13.717196295688012, 13.774045986501157, 38.101422119723836,  4.056213830826207
14.221544691404979,  3.677100723699982, 42.203357815014456,  3.713919390777272
15.992502111622015, 14.422502467763341, 12.472760717289001,  4.221552316091360
 9.963103313522282,  8.205976201906438, 11.042855892922015,  4.102979673237888
16.554314796849003, 12.812469456159207, 114.004450542351492,  3.908666793637630
13.328892540732360,  1.638816015509798, 45.395712713109042,  4.068126427546303
16.159177955379512,  8.230581186846148, 82.238308673365594,  4.193185223089023
10.706363783772922, 17.583633306403289, 116.959480678779144,  4.155766439949601
 7.313808152502084, 16.231574804765465, 112.071606370470974,  4.271368777920847
 9.921946112863061, 14.419998234000166, 114.613111696038800,  3.862130090419988
13.305991133335318,  5.923586993773713, 84.673427637360490,  4.116627138565060
 7.458071229971545,  7.173650556733804, 13.896597859949065,  3.728668114563443
18.913860161716876,  0.791040266522438, 50.976201813337106,  3.993977510336477
14.144982162034204,  2.946056655007241, 95.848328596127473,  3.555174807749899
14.892105915136941, 16.648865992012819, 104.888847866735674,  4.153559135255803
 5.932488708371867, 17.246219316367640, 12.780191543022235,  3.898651452620320
 2.299834241879680, 10.976040768613533, 60.495054862374353,  3.978864098600364
 2.923189735665620, 17.613234883524580, 81.997051755786359,  3.902551854686703
13.235628033463616,  4.258331439429707,  4.074570008316656,  4.023310614317744
14.784989362851947,  4.772209185884264, 115.269389042117879,  3.976526024883420
 6.765286914640856, 11.236372948287524, 38.175355229681351,  3.961834705578219
 1.803714515651996, 13.077667313428281, 115.201179931044351,  4.285913145366417
 5.887648386221429,  0.010831199266294, 71.687716427475380,  3.634015768544106
14.771599132594339,  0.365147148782635, 48.744707745056544,  3.636979952638196
 9.685746563789142,  4.130609308898817, 36.330113628146194,  4.112523251541009
18.763636954365928,  6.336816116858483, 17.791251295570813,  3.833907570996610
 8.895280278431837, 17.093910447830012,  3.465090293414580,  4.180034324107226
 5.544328554045919, 12.214990176358343, 47.428746165905537,  4.065134745642932
 0.057926475808903,  9.585229936814482,  3.746481352482084,  4.026179949168437
13.638890793656849, 13.563338922709743, 45.478980030797338,  3.913499023658503
 4.986400589529633,  1.875055911321653, 19.781099087359252,  4.178036707451971
15.804301675077140, 15.477541044522612, 59.581171813413931,  3.923009908397837
 5.782186570599617,  9.603267528531054, 106.174166927728152,  3.885936777783810
 8.493815325657659,  6.772038000073103, 23.787280740349637,  4.137250904337005
14.250219019260422,  7.465996997432359, 91.142613550720611,  3.910957484885478
17.982726409946981, 10.732877745997685, 84.787321701341980,  3.761477646338260
 5.940790077589515,  4.235995740618227,  2.563264838080594,  4.144609549959672
 7.721400826166260,  1.559109727522061, 34.041953201012149,  3.780406190958016
18.277772094556472,  1.721404284946771, 94.210076382276142,  3.913108595634256
10.661208208066515,  0.915761916338099, 107.140763891907383,  3.721281705285698
 9.624672010676269, 12.365011648784842, 10.323203596765302,  3.932308116795962
11.815143192953599, 13.815276601357253, 13.233989073043366,  3.893176859930783
 5.358264056181414,  8.182594526086618,  1.306966170796425,  3.803897035087056
16.561695536450706,  8.338296476632882, 24.725474391087470,  4.041976958002500
 1.682436842617701, 14.311442062691881, 107.779774279309180,  4.089001377816588
 7.903473077762405,  8.811108058929623, 72.851601830944674,  3.882926552593966
12.498690875515688,  1.703508760950899,  0.800094163838818,  4.352764038852458
 3.305875497906785,  6.751909840219772, 113.522391843397486,  3.996060906693262
 4.442459663239651,  3.318492443062506, 70.539583536174007,  3.888250762123517
12.943967964736913, 10.689739682325513, 18.194812747431570,  4.006043934091063
16.210010297444768, 15.741999626152545, 49.109249940731445,  4.112128968368148
 7.834654313368006,  1.044822606942830,  0.478500033109065,  4.340648095012647
18.174439067401920, 10.241414658252214, 17.605938205776660,  4.063179242517405
 4.386033639470080,  7.178337191629788, 46.591537996077797,  4.080018119786509
 5.695942269883795, 15.306186481712752, 68.781119952033876,  3.931085620825609
 8.576043325283175, 15.737815993364899, 20.287674716384277,  4.159654834995552
 3.666262234418895,  6.194305729636254, 89.267420720178805,  4.039318560343378
 3.607276658478095,  5.010838729492225, 76.643378900726759,  4.287634914676191
14.287176424087585,  2.533422014740611, 11.387526045389576,  4.479630764607692
12.794512689302280, 15.724252361248121, 34.569989912163301,  4.195170062689797
13.553222583108079, 18.876659063733992, 55.359128245348415,  3.793917812490881
18.586875835575615,  5.349562169664774, 114.248314388030323,  3.932189625635318
11.240781780267184,  3.094797833802034, 55.010021506038719,  3.953521423739112
17.642086314700656, 12.438943026073987, 61.457472366796665,  4.033835210565960
13.216728363659584,  4.753371877663701, 48.704642449186231,  3.916776020286284
 4.891094227707794,  8.134156877239535, 31.119285598679706,  4.056588837062279
10.805501723184591,  3.989849314227024, 96.817323489300890,  3.633616670907337
 9.693835910838905, 11.921196915483405, 44.119351647694167,  3.987107246188086
16.119160157453241,  3.346952805366376,  0.064544155095728,  3.664458069944275
 3.665140589736015,  4.788711571417136, 85.556529058165651,  3.889039561096799
 9.539184020301212,  1.104198968365443, 80.788893675460557,  4.308285675327096
 0.838504469602234, 15.786532168721472, 51.169701565364321,  4.135863677532297
 3.206444310712127, 13.757781489716224,  6.957057697286192,  4.174843153285829
 0.378953409084417,  8.402306249917373, 37.865314274487979,  4.044481624983796
 0.167914164871933, 11.860451775420415, 73.644111262157082,  3.947879820968446
 8.654488851787601,  9.668452562634142, 30.493944166510754,  4.154380909030590
 5.659034551106280,  8.533350879733895, 76.074846464689287,  3.934901989303057
 7.355666786630233, 11.633814422952254, 66.774782053468755,  3.734185122029712
16.925700902860424,  0.987338934718820, 43.430418946873431,  4.224503968351556
 3.837602635117825, 14.173805598692997, 53.692380993599592,  4.127934775841098
 0.403544132045231, 13.305076625192902, 87.512440541875975,  4.177317749934021
13.252112256408259,  6.899389889646862,  8.597504994215411,  4.476396896323744
 0.897364846667197, 14.459553589468293, 47.229926250434005,  4.074788556547701
 7.713185744566448, 17.395437175521426, 41.894115633376060,  4.368153522799296
10.955614318968779, 11.868985329134466, 87.081017862293152,  4.218286419161798
 9.710489216098662, 16.743211513622427, 101.578981819183227,  3.911588412134459
 5.058806555175444,  4.216622801485931, 13.233477517568637,  3.993372207349712
 1.910036688601637,  7.885149443360373, 43.449312184082643,  3.923521948229659
 7.315263714198048,  3.954934268303928, 67.418207203839358,  4.187576927730146
 4.475451188704483,  8.721630098506411, 50.183048592319011,  3.736396362775141
10.421286835870635,  1.208288341632033, 66.651723004986451,  4.115010868033862
16.228889971264298, 13.615333319197546, 117.853044433868021,  3.852059844473238
 4.010399069466984,  2.251879003393454, 88.578040396933901,  3.918119326445249
18.431170797882270,  5.011635248615931, 51.280709356728984,  4.507342155291771
 4.159707903972323,  7.501231497813203, 96.830709535258407,  3.509277800895400
10.387920926914743,  8.960958086860437, 100.805404878441209,  4.115448751317885
 8.452919558621602, 11.843483360459839, 59.984301347185486,  4.005353136836646
10.457500124404358,  8.412145668696366, 27.039789389329950,  4.020697516692283
 3.029650027075975, 11.788533531774126, 76.540273983016462,  4.165443217702493
10.009602202772889, 14.894865770015082, 24.049565476144270,  4.055844105012951
 9.672033800073416,  2.342905390331320,  4.021626794700956,  4.036957613197182
15.293742783053007, 13.657057015049983, 85.910543481816035,  4.356032956330997
11.225925023968609,  0.832686139331194, 99.650454062077657,  3.738222691966701
 6.254718447360760, 13.714553191702622,  3.678555745569184,  4.123504969437760
 2.695847252223404,  7.198765501455686, 61.976656496294140,  4.161481893823757
 5.104268747922578, 14.225631135507998, 34.548472772996718,  4.086050672376775
18.752563665575828,  1.555787389353124, 24.751210047425893,  4.299578381736723
12.262186891322997, 13.680810976828758, 41.744419911132340,  3.787189345817813
 1.680749268292564,  1.104101905587026, 37.169614902442113,  3.962074929830031
 7.212569550012577,  6.342316603858267, 87.325942832776619,  4.016902906020841
15.920704714173658,  9.768361251549887, 74.548187992023813,  3.914761287203079
18.765588850069037, 18.246799361538223, 40.194474364109318,  3.947480253443234
10.844381724515072, 16.448230238417249, 39.189137939852131,  4.070656441329008
11.200446159275767, 17.150161377697689, 31.078537738993695,  3.840459859665047
16.939076214367390,  2.585540301740312, 78.504164357918853,  3.877282747722874
 7.251352145815207, 12.209660539947810, 50.893337442398270,  3.657995821847881
 6.003304249893921, 16.750228512667242,  6.436028684498088,  4.082628444874824
18.636913020462753, 10.275474854328380, 34.387301562510459,  3.590416191974524
 9.123508869594509,  4.203455656242457, 20.344272133246609,  4.252528893808742
15.604828409834985,  2.855332392402030, 63.070507156487970,  4.044194152363680
13.382998207026800, 10.715591323470084, 10.844963472068235,  4.339048044350569
 1.117746186473442,  4.424317699877370, 14.597118135456011,  4.044237249179586
 7.832156954509830,  1.499542566205140, 13.719178112635092,  3.796118609919107
 0.891947100311342, 14.376954584897881, 34.601157896553360,  4.230966806071691
 6.203501214849912, 13.647789607143530, 96.923852009253935,  4.146976085221430
 1.820503304888237,  2.953375353035639, 62.354663019470827,  4.121403754374760
15.022074482902728,  9.884641549367645, 37.406175322528320,  4.246312469097747
 2.951502746254008, 10.066989952013568, 71.408310709104157,  3.981226124342063
15.731400529321043,  4.430131458439558, 24.339948814695138,  3.984205799893425
 7.164626340406514, 12.091708054006100, 85.535011630487631,  3.976320214600905
12.863610671836852,  7.972587701773606, 31.475792230395552,  3.809445564266527
 6.319181503775669, 13.658182214238806, 43.014669389789042,  3.897474432170973
 2.079603071225855,  2.644039979735196, 79.547506520723331,  3.785212835685427
18.573610045130497, 15.328030695974245, 111.410913593854190,  4.348174081114125
12.956705475969232,  0.898307377878849, 74.184100750146541,  3.707495728313755
 0.748510586215947,  1.387520551436724, 69.951676592341968,  4.280577646977108
16.254469504548027,  5.994409424218365, 37.281079350608287,  3.863609187683100
 9.623037523612798, 18.440974324283257,  7.321387660097724,  4.099862302218256
 0.577787913326418,  2.704012823621420, 28.896713939325348,  3.793643964813723
 8.371956803011869,  7.955247426263599, 66.369987571246284,  3.837652061841616
 5.586947751267839, 11.255797419860484, 62.676587948829415,  3.921858726826049
 5.938837771802114, 18.328988920326786, 90.743662717787473,  4.133740113773924
18.042691482533172, 15.629827441092793,  1.883188269320331,  3.507438800983119
 2.630437293733404,  7.704991902603921, 34.513426736995285,  4.110815414506359
 9.725521191738620, 11.900899007503037, 96.122028035463231,  3.753625776259482
 3.038648629053391,  8.239822558195895, 18.601679045739438,  3.770916547764345
 2.731572124935805,  0.267217092187525, 44.907746177384425,  3.902971702081551
 2.694994286408634, 15.393125339868106, 16.957776737352773,  3.772956925457003
17.724732010527216, 12.872872966153924, 66.422222455477112,  4.060597747555779
18.733746883578970, 12.071695682408567, 57.552626002247784,  4.074275448363762
16.972066453994490, 14.581104740867692, 102.306299391455170,  3.640954716933383
16.955466016811258,  4.838537242138718, 69.830208035239835,  4.442245780559873
12.320929105315431, 10.528922125040092, 34.353574880680384,  3.959423072647688
16.969133449830146,  8.818861041467288, 44.820069679688174,  3.797348663852119
 4.937080920117717,  1.378945736606979, 77.427826996918313,  3.585111036598800
 6.809150676032361, 10.176491602031776, 102.410879637040807,  3.985955301871225
 7.195705601338084, 18.811116968117197, 94.614756056086947,  4.053700028635691
10.319061590980503,  6.221190832646303, 103.940642042516330,  4.203422325754453
 6.206298485309426, 12.882491650114352, 30.915649332727703,  3.956693141639292
17.872923664289406,  5.492744051107024, 76.103258765512678,  3.778597589591304
13.206208445689331,  0.505167098367522, 88.179603849672432,  4.134729389873064
 1.040792140642691,  4.569469501844901, 72.837468916365694,  4.084047081969145
 2.855978437674487,  8.428557426545698, 78.828918563078233,  3.916121710234889
10.452468638621168,  4.310390051884391, 51.398136985675137,  3.821607034758714
 4.017733138564044,  9.391324418624068, 40.457871113439438,  3.837327857807884
 1.663382827314485, 18.202367305987735, 108.596871349652730,  3.775663880613279
12.699283411760307,  1.959139207995002, 110.359371421176618,  4.125282107556258
10.860116755415939,  4.361409884841653, 44.048517126336876,  3.704388683393559
 2.266502454623311,  6.587562234211500, 69.609575764401370,  3.843898647978230
 3.353845734362768, 18.411154854514248, 74.471264782050326,  3.883362096694946
 2.356823215171775, 15.926869117179319, 118.084084670444810,  3.889009720874528
13.006579455006996, 16.831752783171808, 68.789054060039007,  4.115249522877686
15.231706179395974,  5.460928915853609, 59.964257388478117,  4.017911045226107
13.450623481697630,  3.609767007522088, 38.477431794756676,  3.857774702389526
14.233220155200504, 10.722344050176561, 22.430758787682493,  3.931937879847116
 3.038589607958707, 14.450331275691594, 79.619663032931200,  3.972725271280556
17.340379846620536, 12.661982888583729, 44.335774100354648,  3.984085986775904
 4.616477320250239, 13.574849222728224, 88.363352498173839,  4.168787973537367
 2.975948238403419, 17.115619902360510,  9.695629531792504,  4.190132159281721
12.460323789519498,  5.624701262232483, 94.048816803032210,  3.586419718006100
15.848049536111358, 10.444834020619108, 30.783036774020324,  4.056316519037919
13.373745066875454,  9.772835962048575, 47.125360037427050,  4.286088846312617
12.964827666587224, 10.680172687376164, 94.284936624506898,  4.056475810582530
14.285624907896716, 14.291404921743526, 30.877913825408111,  4.247216853660869
 2.829287065303494, 10.257992372704392, 111.954896794042668,  3.724542410791369
 3.581919364340737,  0.367701647808866, 30.104359515237626,  4.161197655085831
15.820476349990388, 16.953116608499109, 19.699014507454599,  4.125067869121518
12.264665195887984, 13.673536181910128, 117.705313054873329,  4.017233636766648
15.945406869108144,  2.275837156608673, 27.629190070656321,  3.866933537413266
 8.028423716418109, 14.075775869651608, 13.340115883360845,  3.666912419504400
 0.847936509854695,  2.059779897208285, 75.931993966606115,  3.885844778461260
14.044964206366609, 15.860151055486723, 79.696270920466034,  4.058254436952075
 0.705515474504262, 10.375069406837596, 81.364139754008733,  3.785360769670556
 7.228085436204568,  5.401364870278026, 95.806380506333625,  4.097520356527426
17.949313919468878,  7.760611689683013, 14.251408672155589,  3.892524503758201
 4.099775330671519, 16.767839654713750, 104.865744513562731,  4.005389745146774
 8.323518268951911,  4.015925326214255, 57.777739222663385,  4.090539873948525
15.762960652707308,  9.968969190345621,  5.776265950752410,  3.665442231249993
 7.511175592377728, 18.257824140401109, 75.485776423533920,  4.046874174090243
 0.752237463320636, 12.948641299837218, 69.964089490366604,  3.807641842519083
15.968590272250786, 16.748132340296255,  4.795502007964670,  3.953862292081953
15.186437619497990,  8.501978868898830, 113.285943337955530,  3.815268442731231
14.808534329811369,  6.486711984455271, 64.171220810088059,  3.696787274783839
 7.113844762612275, 15.386933180298131, 72.557443390934992,  4.111891150443522
16.939926679005758, 13.910136943743172, 90.668028125876887,  3.869824770121521
 6.328563280162607, 17.137281199200359, 79.543270177404025,  4.506855086707280
 7.087529307483909,  4.276081136086964, 79.130267679574288,  4.358214405100118
14.095163820496357, 18.842815818414582, 65.430769694658991,  4.001016924492118
 3.085928540832481, 17.123803093037775, 114.350405572930796,  4.045794314473198
14.166240950554409,  3.953600681199086, 103.363499295905925,  4.008723563707541
14.915788233652643, 11.874848865402800, 58.473845922610209,  3.786517232896930
12.371937951531402,  8.275226022247907,  4.549490344697137,  4.233864782294783
 0.831923581138346,  5.237245957491944, 31.981066126031823,  3.771998465419018
 7.309350378159134,  8.069217496259869, 17.823385759106962,  4.157346225708057
18.484415019855753,  6.020518507761124, 55.279511005861259,  3.725677138083461
 1.558806286995123,  1.731971455255299, 105.580457626069517,  4.005641629602543
 5.250621079959827,  5.052344086779536, 116.879130872301076,  4.415618094174612
11.086842353518099, 13.129775272717051, 56.938663109724097,  4.066162104423736
14.309123173221582, 10.682238387828805, 110.090234572832586,  4.047709066349101
11.040942061935693,  9.994317277678865,  0.791845324359216,  4.316874730559547
 3.492458486698800,  0.301463169314889, 23.305732219621522,  3.983720268896885
17.692892891066510, 13.166508673263305,  4.882370900433124,  3.923054637935169
 0.486255276871730,  6.413417429427190, 107.276189599009740,  3.993090431224359
 9.468514482119636, 15.319328217481468, 85.439794982407022,  3.928453254083263
 8.360779441278988,  0.455214663361102, 37.874696408881157,  4.042433246752571
11.056804311217498,  3.014279086357827, 32.702069805615785,  3.942441768594028
 9.895832064265159,  4.319530777888699, 117.290063534740227,  4.033815275182365
 8.805402324570688,  0.581040932909285, 60.174961498040659,  4.241852700538564
 4.966841522852427, 10.184449106345864, 44.079800829420918,  3.813154828452554
16.066422505096391,  1.898175108348861, 18.054699551299841,  4.337440709523932
 2.743189797329468, 10.390883695839758, 10.947826691345908,  3.883163650576227
13.970693468277357,  5.967359642206881, 97.913081711581100,  3.711179178385207
 5.639060940427324,  1.997348187246082, 42.681315668271559,  3.926575303163081
 3.808610083635397,  0.721870587759088, 117.535231676569310,  4.229013096521106
 6.910677997031859,  5.525735496633742, 27.403535653231092,  3.736683522393656
12.019318430257700,  9.433129324606105, 58.028246550254678,  3.840074814681933
 4.412648621062083,  6.680274124235352, 24.548733952047485,  4.138237068740114
 0.192575262657459, 15.162480434454524, 55.085463305365991,  3.860515151291988
13.722928180725740,  0.476775241492890, 77.874071130005234,  3.876487567972577
18.145328808461674,  2.132419379456996, 108.668582395152953,  3.808465242249687
 0.121689998887356, 16.489520944741205, 43.857685447107848,  3.933213990324401
 2.141640678170662,  3.862718885321162, 21.999570298690280,  4.036505316099737
 8.571047547296578, 11.636710725442516, 81.836819277831566,  3.984293278692722
 9.469495720243316,  0.224254325030472, 86.665968078171630,  3.945990448282932
18.709965735235421, 17.924245290126933, 73.028371324055414,  3.788371794212618
 2.622884858836674, 18.871532048691666, 93.040129848964611,  3.965020630234150
 2.460681250357862,  7.671831648078992, 27.971707372584167,  3.946702102488410
16.751163646152769, 14.772378030971897, 73.180579147584993,  3.605207000419212
 0.746232900433691, 13.796523124902784, 10.801459414489100,  3.936430277090870
 3.376409864935789,  0.777521582144391,  6.632195143624801,  3.869387001753486
 7.235435112876235,  8.100305589490498, 80.692225877518283,  3.891147252178698
16.296310277805183, 10.366380335334505, 88.365592419441995,  4.073763209755279
 3.879696102891788,  5.640475764754628, 81.386703981673065,  3.922397229195302
12.064898715070891, 16.329245574392193, 48.066605476727631,  4.032376566340304
18.129443611585430, 18.908612669655621, 62.054299181135711,  3.911657952799950
10.935417576080360,  3.604076801239920, 113.550814902529339,  3.852346634802789
 2.847597000665195, 11.597576671278516, 16.934584132571501,  3.716240530033061
 4.590758673787533, 11.064722153821258, 81.289642949148828,  4.078754433744235
 1.115922575301548, 16.737872925203089, 13.585354491407788,  4.127245289912461
11.639633716854190,  5.833373925835693, 69.328762767530350,  4.160383622880953
15.936454098457066, 11.954200775050989, 40.789196088997194,  3.766540002630283
18.527157758105972, 13.645570754467100, 30.523894921620045,  4.274286300944289
 7.003434926711997,  7.709773074780183, 62.827287939513440,  3.712266238547970
14.412948109815721,  3.756663916682850, 34.671396262685093,  3.905288818761477
 1.340717673666589,  6.028114154468298, 98.703157013604368,  3.694475255425666
12.646314461286241, 11.921882446923757, 113.522036697251053,  3.794909293919462
 5.899412225851306,  0.566084030302081,  3.853948591920949,  3.499022038904521
14.260176265737719,  8.026105138850774, 27.907285641413747,  3.799795976731036
17.859927981350225, 14.331632932002512, 16.320867196170258,  4.168713950704387
18.392828860226551, 16.269585124899116, 23.823915460712293,  3.764904563835105
 0.240902190708478, 18.849993920148240, 20.966594315549141,  4.005913212836736
 8.723625834702815,  0.461060303292318, 22.116034944873341,  4.061284283869174
 1.780856430637522, 11.330716300846165, 20.616227490884153,  3.949015175321418
 0.669670858713621,  3.533909298018601, 83.215858944456670,  4.080076944640671
11.901404992820121,  9.474472447824974, 107.472556560606805,  3.445798173432934
 2.590746622304707, 12.156067900749870, 50.329255019514321,  4.090868158637940
10.342962893662614,  9.739345961906384, 62.921175679364993,  4.095472505863921
15.550882985821568, 14.426628209140338, 98.659220796482202,  4.082828240049736
16.626043821294783, 16.664439719005077, 33.367570117869974,  4.044639992356911
13.253091749749304, 11.924566062553628, 68.475234683535817,  3.951774785138894
 7.968756101811480, 15.615082741867756, 58.532662730768905,  4.124936041365076
 3.589221568948687, 17.176184931601409, 20.088095650013788,  3.641943404181236
18.085604000529827,  9.445062264461987, 77.869640794526461,  4.035608336294317
14.851862809640760, 14.441474007725073, 94.243542568305543,  4.315208149214895
16.959330818868203,  1.414213413102672, 90.311817640458969,  4.166620697701875
 1.250335445699836,  2.678080163851424, 18.242346112151566,  4.031915133898702
 7.803720251243740,  2.746101600687473, 89.412340980962895,  3.898728455302830
11.256220927152462,  7.984966463745493, 50.239906777979769,  4.042439425009807
 6.675882601741687, 11.810422806521164, 16.209959782098363,  4.087169768608594
 5.125656395917463, 12.563772418466803, 108.423386698516154,  3.663999403961002
15.804113705911618,  1.890089709716837, 85.245703108200544,  4.135964420211993
12.938793028869846, 17.037897222937723, 108.481915878323747,  4.031164248649694
 0.387053710847442, 14.973778036358830, 20.036508307802901,  3.931890608347801
 5.220199603265786,  9.523471881999340, 115.586288613535842,  3.890459844455479
 2.379450197550302, 16.206630742793156, 37.966409249537278,  3.986850578654751
11.608964345920194, 15.618708304813934, 98.217606379286778,  3.983633755088090
15.634346427307758, 15.604360355400690, 42.103614761535106,  3.989479951252268
 8.595956368189361,  5.824032460429527, 75.456002495508585,  4.146283749475129
18.040273369258752,  2.812992949150363, 66.305200789478008,  3.949650816994071
15.250224301601278,  2.144266387420861, 52.259406842364577,  4.221629518078574
10.346330273543300, 11.375334472639651, 104.327344234530273,  4.399513703977753
 0.051476415520057, 16.922963029669752, 105.072599831499303,  4.099384543315753
13.364200544984739,  9.046528453890573, 71.481340695665807,  4.176023850342452
 2.309632716210745,  8.071736704487455, 57.363733618561355,  4.265936322706115
 8.001893147323917,  4.340922783089680, 16.410185038708164,  3.921243990502385
10.149970277747567, 13.814865805204514, 16.754634408276242,  3.886648320055796
 9.452092030966694,  6.367318622483782,  2.282406672127084,  4.085301168736422
 6.590626118355262,  5.038752651145717, 32.916877644199943,  3.863845152393421
 3.039896117354531,  2.885692172405787, 66.922193869586650,  3.883323832492822
12.542425500121473, 16.685350699171703,  1.883692799730059,  3.805712989472048
12.060292380252289,  2.798786450265410,  7.691632487439785,  4.107520693515539
 9.176458550701529,  2.421805312039546, 26.039581931277944,  4.242289040541150
 7.636839700041238,  6.294548507392954, 91.329440773470594,  4.018716362035579
 6.768477366797317,  3.567428403283150, 54.067083085077002,  3.920127976104974
17.143009873083646, 15.921860582482115, 37.322383703456751,  4.033702870296684
13.271252226062206,  6.191870021466242,  0.379229325984138,  4.307488065284352
 7.076564830659284,  9.675031587634018, 98.283067809851417,  4.310526974325060
15.088971797044223, 17.111808371248433, 45.609161685728147,  3.713978471988233
 4.943731314065292,  7.573415292727074, 109.766460082301521,  4.360054054760528
 6.148762481055974, 14.405805563025329,  9.862633042415821,  4.157703534731008
 9.767295350096655,  5.658742752155106,  6.165069146402858,  3.815894449063468
 5.996834105582116,  2.870840165909978, 74.116930806922795,  3.873810824957628
 3.984948116185469,  7.712712014318533, 93.031332228444455,  4.084736477041612
 8.732508236905108, 16.685877757502471, 34.749004996184965,  4.144523213439373
18.189374329887254,  8.496615018317618, 71.560895112520200,  3.983050403760697
 3.698159733556846, 14.164531568064307, 111.643760914921117,  4.062773156433602
10.514631532683882,  6.951762061008438, 78.878253838249591,  3.914643192269324
 2.858876656751493,  6.832464251761846, 53.222894785927316,  4.102115513362748
 6.457791577028017, 16.739369874556331, 24.037522338920109,  3.929491625967322
13.457771306949883,  1.007213170223168, 115.065559176058770,  3.992219997906109
 7.999000302100962,  4.603157887020719,  9.736934094505873,  4.107331416941607
14.139015489119727, 15.807984787177048, 114.875771925558780,  3.910206249583672
 4.604601082976856,  6.405246875452866, 72.921190382823809,  3.894925496088800
16.314846161590040,  6.075327584853574, 11.264769899313855,  3.679045758869333
 8.774938789386608,  2.407166033594133, 102.192516011823955,  3.957047870993492
18.926050466361620, 18.095500161678338, 17.134647182486734,  3.810921637813928
 7.195469659814800, 18.157991954111292, 83.550223758165345,  3.874724836145796
 2.145275448623909, 17.802098350259268, 26.674060259925270,  3.823664637380062
 4.168366139681203,  7.772895526833141, 100.629886908768995,  3.984325428642990
13.482613477771434,  7.475053441776633, 13.486717904722866,  3.972301132736630
 9.606061450769877, 18.577699207848280, 56.196113734160093,  4.075313381648013
14.639215867237715, 14.653416902824604, 23.738370971661254,  3.917782371844523
 3.041958572368562, 14.726117873338326, 23.116013800287433,  4.158367789628158
 3.200715429197492, 15.446287167653756, 31.208735721151204,  3.931006719095483
 4.904101228313349, 12.111722781972199, 57.323183733573678,  4.381657466244137
 0.786353248965829, 13.880825672293062, 97.795098503903034,  4.539610077955146
18.503242877948278, 10.516440341029053, 27.628223720086915,  4.184405436612576
 2.003739040030491, 10.173765572308969, 107.965958126427935,  4.219086953139383
 1.407835721733611,  3.484808871395008, 91.321232970047788,  4.017287527510787
 2.261027560527807,  0.175949575749091, 101.811700629528659,  4.119170977175770
11.823931910226598, 17.307250067023570, 43.362944734747288,  4.201671597945155
12.191303067058055,  1.679621080674559, 19.369660070151475,  3.842859975205653
11.318896200043262,  5.009550451564417, 90.581277881986139,  3.811653366995504
 2.080486975318064, 14.603408525933546, 91.362156886981538,  3.926462078904683
 9.866781738377629, 12.063207461758063, 72.599925427811030,  3.694115050459621
 7.122069511039289, 18.420059400422442, 48.492981333643428,  4.079085231031504
17.638852368159718,  6.164199987289721, 28.766456427103694,  4.101627268209095
 5.536269578138271, 11.054192088281381, 91.422576278109489,  3.946003376772949
 4.857862780613182,  4.277775716655844, 60.070744255623609,  3.860137809820956
16.884933005166012, 16.755688274173490, 83.617107874436542,  3.842415667545370
 1.877477806814022, 15.014641252276189, 101.904760539168379,  4.145860611056116
11.570670981474228,  4.533337118925298, 100.461567899240038,  3.851372564219289
 1.992845776628409,  4.865303160057682, 38.029479401528185,  3.718887245972941
 7.489037743722133,  6.897682075581068, 51.920003157920057,  4.094808425181869
17.010575476126029,  5.869332742985548,  3.478140287013972,  4.241898211444747
 9.465905437549074,  9.308569001800345,  7.284039181768652,  3.783974811326166
 2.882462267278486, 11.353275639207640, 32.574274672700376,  4.057781669721140
10.011853937485320, 17.003748124402552, 14.536833984334088,  3.794631341211702
12.148641068122304, 15.687763079563549,  5.671201027436014,  4.060309601218139
16.578523995742714, 10.395891476682237, 92.390275768117675,  3.973600231618443
17.968118193502097,  5.071709474055148, 43.333289441460856,  4.134351977871761
11.481350594614728,  1.463280454535469, 29.173251661670367,  3.749910545408055
17.194900495958276, 18.116417905882987, 76.606411478350608,  3.968012169167832
 3.519897794754375, 11.745845409679641, 94.711437339808484,  3.742434017684376
11.847641130386958,  7.906769267796005, 87.956823821128282,  4.073928668922872
12.491735336177660, 11.781106930538671,  6.789770613570227,  4.081868571012191
 6.453065388782620,  9.434376254960231, 26.925100042620986,  4.187110922595790
16.024014690202026,  0.621976734299946, 68.618708758661114,  3.587433315229363
 3.752068230346252, 12.115800643938501, 67.784978860984666,  3.790921157173002
 9.192762904404020,  7.780316078735766, 37.753239980205315,  3.728277472050110
14.438010363459206,  4.372364586903652, 30.689180869660454,  4.139012698214918
13.309375345205632, 12.192091300057296, 90.494867874470046,  4.086801196161868
12.460498421391257,  3.700381553565641, 79.672796835455898,  3.817805518312372
 2.441520091310461,  1.319947392564505, 12.228379118904344,  3.901862634858519
11.972591066299145, 16.614514187255782, 58.942369042939340,  4.161467587442459
11.373985140721192, 15.833757425287395, 54.387736581987674,  3.378075981934791
 1.407348269418322, 17.264117235042939,  4.294889123289848,  3.936608805684694
12.428702541846905, 15.501994757045653, 88.304980998870676,  3.944051461602224
 3.230931935017214, 11.601076706090227, 85.059889587338617,  4.005905905977881
 0.408675189606486,  6.535676292128247, 46.828022544603101,  3.936029751715882
 0.268426499435555,  4.742911495771676, 58.946058168571398,  4.156630101947951
 6.049526364756112,  6.894159839945201, 56.076897483590535,  3.979868113121206
 6.397792591401970, 17.282718543431848, 54.030532870587471,  3.940117768005475
18.888897702312448, 11.862450740772402, 104.571069446562063,  4.404920912614443
15.364331441078267,  7.941724215013994, 56.880655446219357,  3.829118724504647
10.847283327987721,  1.741774464971668, 41.020405337477243,  4.259685982424552
11.960378426604899, 18.495393841739965, 25.965375139410884,  3.747722087841965
 5.102856725140771, 15.030876248368742, 27.515245379297944,  4.275105134710428
 0.481094679440912, 10.865588942628539,  7.501475120497814,  3.839074838719935
16.183578964961555, 12.923449520469394,  8.585410609060437,  4.063992638699015
 4.023428993585174,  4.575109183903646, 106.954746957258550,  3.994068074508989
12.296607356959735,  1.312024287759698, 15.311321252613865,  4.241752871139886
 5.750370013362366,  0.198807762163360, 67.888641882040361,  3.975060391237800
13.806020962772322, 10.951196775141682, 54.804427075774868,  4.076747555366086
 2.182052951941148,  6.170220009660166,  2.778320226895587,  4.157544537882036
18.850399035638830,  9.383375784588305, 114.556946733667587,  4.120617987447567
10.263187753124447, 10.734651156853388, 23.572082198431822,  4.327753339868583
12.945760562422185,  6.049528898525224, 111.090963267653621,  4.135857166524189
16.054018296279686, 11.158827530891172, 100.940149294289142,  3.931173368043268
13.250397736109051, 10.035405319704983, 42.938190005414704,  4.090393724809640
 8.354668660577548,  4.277692951166043, 61.820767851863238,  3.876781377418780
11.392122319107456, 17.449948856272055, 112.347417250695969,  4.245409132784829
 4.172137994894534,  0.643100148793276, 85.168437093204275,  3.563879548696697
 3.972331735610426,  1.247966732009628, 96.555012358130952,  3.925315530725510
 8.490983110856130,  1.125875898951578, 110.554570076792288,  4.335329562620710
 4.217486962503557, 14.501081876401489, 60.800270607896067,  4.059658678478655
13.004916303039446, 17.016683278273405, 84.569658888166273,  4.054735636110692
 5.947750428293321,  7.968698883721473, 69.479555260476573,  3.984185016539625
 0.964507207946985,  9.612968222354100, 67.794276547238667,  3.660199846290229
14.132813500532444,  3.702205115261782, 66.812470448955281,  4.091219776970704
 3.972651197359886, 11.942313895630489, 100.050481954613105,  4.147374273278879
14.373902431801222, 18.475602551676527, 61.488347579254224,  3.729179103857560
 1.898146608180564,  4.375310855236901, 110.521495147899756,  4.119301621488114
 0.922357440930600, 15.432348945990837, 63.222280586698766,  4.216227950209658
16.789128901311290,  0.804146571812165, 36.006669339164475,  4.100525026981710
15.104204154312514, 17.816802621951439, 71.954566109852436,  3.660423244859375
16.707141507473949,  8.077385551023387, 20.701817832559673,  4.023738039647990
10.652885248473703,  5.010955301964475, 65.394376767783271,  3.861132794638764
13.884684031667916, 15.955112504887307, 75.562141014701709,  4.195562959691615
14.837168651912277,  2.532751860690003, 99.582678140013329,  3.988229294791426
13.208737649036559,  1.776395336678542, 92.178169178814031,  4.242585167954683
 0.502592061694470,  5.606909413035649, 25.208991665048330,  3.965127041109268
15.863980914389144,  4.476419075251455, 14.789820841741490,  3.961200576629618
10.737837541624559,  8.360669247568666, 92.162471969893303,  3.613919489653559
10.755835811504962,  7.199449407879700, 54.452055814680094,  4.184878322644926
 7.167948905898125, 16.565395609746080, 62.263299644948226,  3.712125319815847
12.689106335835810,  7.182030045477576, 23.794100200271398,  4.221076406985652
18.574706100375966,  2.071981751999357, 54.847420577970553,  4.182142823118761
18.415000377192424, 17.865755380319460, 29.703790449722590,  4.276473261095393
16.433704021361343,  7.121133669796083, 33.320791715441935,  4.372917502162156
11.793399697826185,  4.633223314437108, 73.211463259770497,  3.971782479900057
 4.024261067580595, 12.394468391784942, 104.098291974411595,  3.889772983140147
16.502759539433857, 13.470927120598535, 107.819204334140522,  4.244794538020029
12.723448444483758, 14.625645479420502,  9.549405895549391,  3.854352194974069
15.847759266430097,  3.643375842268225,  7.077218149102035,  3.706555558587490
 7.108362903852551,  1.118294175017740, 64.106763014411058,  4.205359424598070
12.589554033807401,  1.795505727766608, 58.774150169672623,  4.185484043617532
18.078823734597265,  5.709955438195331, 62.508939181341596,  3.575580646662498
 1.302473427660282,  0.708880299350884, 58.395223664969038,  4.105637380777717
 4.902160002920549, 14.618035665171318, 64.864185082307074,  4.177993137902871
 9.687082868375892, 11.948997253141986, 92.305833522157997,  3.847188462364543
 5.941905964361345,  0.867871151979495, 57.142119829065564,  3.884301979134958
 6.786813372213960, 17.297883991335141, 116.021093881181216,  3.903891021701386
15.537329641291487, 15.296809036230121, 63.721535337870044,  4.378369500852311
12.222116828819845, 11.115730436381504, 29.304730515292558,  3.853121202843310
 9.278403827904603, 10.149010625996643, 76.641784205977871,  4.047247473535435
 2.090450418720232,  4.656960855691826, 103.223140747386324,  3.512960006990032
 1.328637251781543,  7.472857253051560, 83.909576420788554,  3.949743485975198
 4.380814778044559,  0.294723759275455, 111.163109155638281,  3.981813021665915
16.377768133090555, 17.168942953899602, 52.939579078187997,  4.044322806532707
 9.092331841938483, 15.773099938476687, 51.122731766887590,  4.335074967777992
 3.035079831716107, 11.237829558282790, 36.655657404967094,  4.083743032441852
 9.372807449261465,  8.709580113908462, 84.699516865484753,  4.256310210581079
 3.313739584381421, 18.493766669107497, 64.714268799054139,  4.093677173022727
 2.608234657403498,  7.620208825736053,  7.418453694447953,  3.879309464621351
 0.421569768883193, 11.409874738060033, 13.947437355568901,  3.950266220321726
17.250792121841020,  3.025929093057290, 39.785619005105865,  4.141418759299320
 3.543244105938440, 13.639692191654676, 72.818264666044797,  3.778902718022135
 9.749050034838032, 13.978139993167371, 69.120657950724095,  4.217010505915865
 0.366694652152379,  8.834122073545240, 31.095527799834741,  3.624845229169437
15.337705570242822, 17.501530494487376, 15.669037606059517,  4.012976588775685
17.595953144891503, 17.932542147678209, 10.662061800439247,  3.896875488578674
12.876327785640267, 11.276367045609232, 98.404662186416516,  4.125580164458420
16.206799148576287,  3.366116034641404, 111.807423986739906,  3.946251646269761
14.678696910854221, 17.136795001006671, 91.058523497743423,  3.830776183781254
13.160726238383965, 14.065483697470437, 71.884583341078070,  4.016170692193614
 7.337170014533955, 14.277763596460604, 105.595485848175642,  4.292217567458132
14.955074591086097,  6.595785346241079, 78.668426987400849,  4.009062324507135
 9.033573580625458,  0.793714540916997, 52.370069266912729,  4.003553877849258
12.276700786690069,  8.510018622157622, 66.286590519091035,  4.032032760610303
12.174218285270848, 13.752209252283258, 20.701275976643259,  4.043824067275751
 9.695151688347192,  7.422739411961762, 33.821397596045976,  4.123154355427926
14.340770612968168, 10.434446908560400, 78.481273473541236,  3.769916218851038
 0.457504321603839,  2.106372027059152, 98.682772673168643,  4.056703973588101
14.649918375568467, 14.823943263057430, 55.818177623147712,  3.978809603003840
11.958276086713616, 14.444093178394025, 65.703210304275203,  3.953943141925284
 3.456392880477461,  2.810202572231234, 33.343934610121913,  3.859974283634962
 1.711826463159967, 10.407429621022100, 46.652004345201718,  4.233857570610318
17.959209875970647,  0.577850004281841,  7.216153668164094,  3.730680092194480
 0.383640057130481,  0.552925541982350, 111.920020746382932,  3.749308465948875
10.211208639247539, 12.485994979780921, 48.220981195311580,  4.313872948129916
 5.137890425553948, 15.239265738366353, 50.031831148100466,  3.923324824726603
16.097930399755210,  7.278307428879282, 48.698876070290623,  3.740796368783877
18.477644013757637,  0.327125396811560, 81.231514354410436,  3.729132421872313
17.922196397068891,  8.613551251708442, 59.893834803259438,  4.183800603606042
10.273173039960993, 10.898781259181648, 52.813291514850590,  3.961344432028854
 0.088916312999760, 14.330713712287874, 40.561180026687623,  3.879650304293444
11.430572070797123,  6.457571699912870, 16.708684306209069,  3.933067211400628
16.861947004604559,  0.851216980637722, 102.980163157537959,  4.212687938364510
10.632209369180496,  8.102787353286050, 20.296638547764239,  4.095996771294614
 0.081532594148427,  3.697150949651263, 87.377647065407984,  4.307737855232700
 2.449011216275978,  1.965982530767733,  2.844326196593485,  4.197562773457209
18.058819715725463,  6.634382769877862, 90.216074017498954,  4.093149426244413
 4.133633240544262,  3.515256293486034, 100.002771815744140,  4.243083793087983
10.734811087917715,  8.009830791397352, 96.699679418215695,  4.312160813676473
17.386499064472392,  7.877651703396084, 104.092150393244779,  3.863655028135837
 7.509269988690985,  2.075727571725156, 114.855537680249398,  4.042204530205669
18.740315410240530, 15.813543229190662,  7.570037758837103,  3.903402011451072
 8.499524014391906, 10.046097181663201, 56.384815777654914,  4.023146311602457
18.099580844809232, 15.662272853664916, 79.651215682946329,  4.043038514228179
 2.838028103922685, 16.065613446351119, 85.666086458758542,  3.988721659999106
17.218284692131729, 12.714585468381904, 52.398250410411414,  4.235976121046949
17.242087503680285,  7.070503091844767, 117.719311611043139,  4.061366856329034
14.407834378296572,  6.245087496633726, 52.554136927450550,  4.171257178787734
14.198983987550900,  3.807111809939971, 76.110111018593685,  3.690917817412362
 9.870889587708943,  5.749769692884440, 30.027972747938250,  4.066203126831148
15.955384167208020, 12.547630436101352, 81.653626610882313,  4.461892312445739
 6.284450148313902, 18.724906186438716, 101.078392916580327,  3.466478435801393
15.408547516331852,  9.353797550317902,  1.994589377096342,  3.979584832840712
 3.247106697554209,  3.789910853867925, 56.132015922875212,  4.239340310342121
12.652101684671001,  4.511607053868318, 26.984087281633901,  4.084695934316124
16.769192315189802, 13.143492942170576, 76.696382960920658,  4.139890870447335
17.856768598470950,  1.142996094610594, 13.959872211778308,  3.961831273843005
 4.019631960382918,  4.425110032896310, 29.758857310184485,  4.028404650417222
10.491871222036252, 17.288152373647826, 77.937197318247414,  3.839365256199687
18.851599766881094,  0.005924231883375,  0.277770577913362,  3.999798839642542
 8.901592592426669, 12.959639896260237, 27.758207041072712,  4.279568252733118
 5.270910089540362,  8.164787105472914, 84.168070622972721,  4.069008294206236
11.943678007542420,  1.877228187671744, 84.041103281066682,  3.892766115512003
 1.252753358208235,  6.636530641088447, 11.086633552254925,  4.180354881415522
 4.214806355437874,  4.965683987433223, 16.997541035948650,  3.832481502315206
 6.521162917376146, 15.828621264552101, 16.451215884293013,  3.811740470157031
 3.380086843373036,  8.284025535508418, 14.509782895044550,  4.386493123580362
 6.153862577729812, 15.065340329099893, 101.725369692788988,  3.941216758956735
 3.966777339726726, 13.564586649827609, 13.453596391239163,  4.393769725178510
18.075319185943481, 16.872901309303462, 93.035345401381306,  4.043363197324448
 6.085854695078979,  6.920913133252408,  5.658636304544463,  4.032210949047598
 5.751026632854206,  4.003296342755275, 111.801809314501355,  3.987382567290114
12.025744669367340,  0.656661782168010, 35.958527466838532,  4.208281909436058
16.539838640262069,  2.292976434842550, 73.291176406318698,  4.170807699099393
 7.752237986283872,  5.824095587640315, 99.966162666514379,  4.201671630243926
10.407433947319459,  1.129477519920821, 10.905582894090063,  3.820400830470973
 2.179215580501835, 13.570984688782442,  2.833876766944706,  4.132809153943459
10.234035450365567, 13.178630873190952,  3.279054171779208,  3.853791333134076
 7.076570364670173, 16.949864764857324, 30.853309423648547,  4.316105997274851
14.132346002810539,  9.327557980478367, 61.384120507044940,  4.083205825303446
 1.232964256082461,  9.739201613987838, 97.202417013684411,  3.864165010046156
 2.104852359062164,  2.391318234794668, 40.975193579861696,  3.918756730889445
15.765270269948543, 12.834783698114085, 34.507342286487862,  4.091539333921212
11.298341862449943, 12.889574299288871, 79.107569981723216,  4.116188111303778
 5.037385620643298,  1.076047291096984, 51.557094064562925,  3.925135589420850
 7.609650265662740,  9.110029538754755, 94.195674107442784,  3.992224616686513
 1.403583637309586,  7.754643090688113, 22.078353432909388,  3.812161939655599
 8.090903376150074,  5.053156071796489, 71.388050976549223,  4.171192788154426
18.829745073628271,  5.933699176690000, 79.954228263553247,  4.173038117504203
 2.928970945515137, 10.545145864905543, 24.663628229757741,  4.103805057601800
 9.445909884494570,  2.974147786594262, 93.365473888538403,  3.987024307436131
 7.977874791195879,  9.932945011136741,  3.684814920022456,  4.084312733779363
18.709409263947219,  4.022476460988386, 35.231105757940767,  3.481982622587721
13.975216520388997,  0.485793757080426, 32.451143690227020,  3.795769389840438
10.235793815496372,  8.059146553862677, 45.007034829935655,  3.959651520269278
 5.537200641883966, 16.863834212748209,  1.413628426162660,  3.652383508090910
10.550077090015186,  9.430688349643154, 111.226995908141149,  4.127446366716088
 2.831539824549276,  4.170776270066749, 44.415476442432265,  3.960423187357862
15.665620713472061,  4.167179388880922, 81.876592237703875,  3.995413147622122
 7.546795647961410,  3.052524060861413, 49.986778112794092,  3.090217249773747
15.197924994627815, 17.925211864310334, 117.916131401372141,  3.787244009974020
 4.760297072230462,  0.013282559334714, 39.422211461295994,  3.842395041360993
 7.835121664770128, 18.398645802796221, 104.830045615769379,  4.146113175471224
 9.293798131834716, 15.500474227603599, 95.066320524731609,  3.795794690523302
10.487236543525031,  4.131117279983878, 86.906233362175755,  3.918112287954003
 2.999079439665416, 18.250023904606497, 48.705780459120703,  3.914458387912682
 4.185985254559468, 16.275919934059818, 57.165560267679183,  3.988445185877483
 9.202631027176190,  5.050161489167845, 110.561338431368640,  3.631152173467822
15.189790706970395,  7.626847743524118, 17.045436865440163,  3.899221660101911
16.221191051059929, 11.793985958224061, 71.007864817199419,  3.759506160347927
10.014479417145829, 18.608996268077558, 90.617357689231952,  4.030762576315926
 7.928497143870236, 16.946537786632820, 98.245899325265484,  3.657003582680147
 8.734272708347618, 11.369088079586763, 108.166675033979573,  3.900824934108647
11.784229968921430,  6.640992552954002, 40.789266503255547,  4.461493555185809
 0.772310848963117, 13.997224346554820, 82.946194088096277,  3.984615208542962
 5.152795599225046, 16.323097841032574, 108.637270633796419,  3.844986410603749
 9.385155880190831,  1.542037756575214, 72.834908827740122,  3.836848308484394
 0.886880725591075, 17.864296749783783, 96.417584191344176,  3.790818404854346
14.621385229411965,  9.912569020645833, 50.980039591585985,  3.809099429229967
14.214475771510076,  7.627937768893258, 101.609392047971070,  4.114710614396763
12.039121287736842, 13.135626734992169, 83.268227390409720,  4.076937015356709
 8.767944774980988, 13.886469292395713,  6.808348069941429,  3.909721336489161
 6.479875532856107,  0.616637642098953,  9.609884784594922,  3.932642826585476
15.609490962463678, 18.294074891491725, 112.056595666032322,  4.105054019343156
16.679777961823511,  3.474355957572888, 46.978809255375928,  4.202174064617914
 3.988349082984161,  0.225732808736401, 15.931057794687582,  4.407673348639157
 7.563884837813418,  2.215433668021586, 30.018535372608195,  4.331934818247023
 5.121920855517927,  2.320824375568846, 103.830403179241330,  4.012789700551220
 4.473984520243082,  4.770380903720995, 50.178414419492647,  3.902408244426801
 8.281491267186167, 14.418862575582423, 118.456795913285887,  4.207021618092115
 5.623152528385209,  2.854214022796674, 46.896624341265436,  3.943716311936821
 5.435180766438210, 14.670690138626901, 82.948979208993194,  4.022443357106284
12.588496760228431,  1.811561420317595, 70.253621313623583,  4.304000116118731
 5.063149426551742,  4.645995242458017, 64.066985921331053,  3.944414200322927
 6.026957307382864, 13.442595629321600, 114.991715842440769,  4.188748615828542
14.215523859259461, 13.172618048038688,  2.800475397739160,  4.164069037993671
 8.695002314045311, 15.645699337290232, 45.738357337732907,  4.243716831950544
 4.000811121275710, 16.730908961016507, 98.683037415856404,  4.201406803853986
14.244886134251121, 18.200949326884249,  8.303038147815581,  4.306358771012695
14.660982046909183,  1.523938017442703, 106.676783566819410,  4.250740083785169
15.071712409335854,  4.002791972531552, 56.121430011655704,  4.206000390227092
 1.172653960449155,  6.264708462086737, 65.757736892795364,  4.179443372865443
 0.852458117159051,  4.051732516840959,  6.241287044267937,  4.380317641103464
 2.085869846927928, 18.004268245854490, 78.150938648633698,  3.905387071296733
 7.752620650490482,  4.709725195839655, 40.139836518924284,  4.491916127384358
 6.149382335724360,  3.204087081478138, 23.437391302006283,  3.888503486371711
 6.520390462151797, 11.813552421932387, 70.611833500848348,  4.099137055433814
 8.794739477415144, 16.962886738086265, 27.242825419664726,  3.653030089570932
16.039287483991121,  4.532678877061984, 92.850534692650314,  3.759454443762202
12.469673203173201, 17.666582157137221, 22.086099895082871,  4.206300225491312
 1.674089771984223,  2.964354132458262, 48.053261048488807,  3.991680553722691
17.378628449493654,  4.815423604504362, 96.504871746606483,  3.995232780669856
14.643231775737586, 11.034254217037159, 104.805030327076253,  4.213754236165559
10.359383250722944, 10.090454160017096, 14.886807447385992,  4.432061562655134
 6.118299422655175,  6.287410652909614, 103.869948609271177,  4.124763134593340
15.586355199013264, 18.164895493331478, 25.336563852718772,  3.623550353377391
 9.831192543063898,  9.763399559173800, 69.530360597579985,  3.961058879499341
 6.412116651207550, 14.703505254292558, 92.645882098556470,  3.866191806265762
 5.351804766705929,  7.167907293954385, 37.474458439555008,  3.994818969027264
 5.349414212100212,  5.878913140571918, 20.653994561090798,  3.987011831121288
 2.382545362876542, 13.179672610274487, 43.616883268904189,  4.095261557805984
12.936743863290847, 14.047508568785279, 102.008336803873362,  4.325622097664082
16.876251995279986, 17.492061504008333, 108.376905587811592,  3.832842274394582
12.187030539576842,  9.361565019416657, 81.642446599159669,  4.135750757913940
 7.858604329598124,  8.915134676315574, 48.186459040985902,  4.106106084089066
14.266445206512207, 17.673743045763516, 100.583669757246483,  3.878008807190335
16.816816895202926,  1.588020044055921,  3.527539499218754,  4.225497402152381
17.941485952447533,  7.250266117969624, 110.862136240334323,  3.922780475769859
14.100092209360445,  6.209881613403448, 45.119527862757913,  3.972726827619941
14.742785438652948, 11.579579488822407, 26.305974071911312,  4.028034076886970
14.428732758683545, 14.516989546261092, 111.184404770743015,  3.928667288630942
17.430678308316960,  4.308211761717438, 20.931601480501858,  3.633929820526685
 9.043723948246399, 16.633393720117844, 108.421419034112930,  3.783929344179556
 0.281877068466009, 11.179207413285683,  0.073228444322605,  3.982201127398151
17.385429027483955,  7.121667064013254,  7.751671772157436,  3.956994544133402
 6.515546418458425, 12.669694754425649, 24.250073028187888,  4.205729222154332
 6.760496831579078, 12.720885911925395, 78.365435338063918,  3.919086996550563
12.517094058715060,  7.896743160754474, 75.483352846959718,  4.073170503054111
 1.373130849663378, 18.367306862316514, 33.466289906838988,  4.108173933323032
17.948067717276547, 17.899536740245871, 65.801679542449776,  3.839598707289145
 8.777108362758106,  7.421344306953814, 107.579262283799466,  4.033097309171294
11.805657109588219,  6.098494562083199, 61.852105041858458,  3.896550359361279
 1.525165219894159, 10.644189061811840, 91.544543781333715,  4.029265447779316
 3.928804712864623, 13.219520245568756, 39.962592938520558,  3.823027514830984
13.016894798120285,  0.415455741058534,  4.635765109971786,  3.754061881299848
13.969389276375528,  9.801728582535643, 85.213089640176193,  3.819281221303894
 1.053115253144874,  3.950889204045719, 117.853391421741705,  4.281507433110351
 8.212539837783543,  7.857437650700370, 117.313050808933838,  3.772250636821940
18.010470225565854, 12.189387927139462, 23.683838337988181,  4.410481776321235
10.163903304113985, 13.339093835046015, 32.173606068545482,  4.356374469984051
14.653682128872243,  0.325315395171309, 81.688154388918960,  3.926871131907282
 7.642007381179563,  7.288846239668032, 113.329645837223410,  4.065387486212741
18.209642125722034, 11.185865049129740, 110.812499667491025,  3.941460729961783
17.491621088499627,  1.587531003551174, 115.276152515050896,  4.138505997070085
17.513678678769924,  2.095222144542131, 32.218428420398993,  3.982089618662244
12.071182398789430,  0.445845290158069, 103.495688647129512,  4.144376383634381
 3.363272075418539, 11.456408511198724, 28.591470722413476,  3.908085488590026
 3.876202084180217,  3.784608161501231,  9.310266803450778,  4.244771688488794
17.119557060462260, 15.891165757794475, 69.196702777382953,  4.179923937451969
13.922476046720739, 13.996186934120541, 16.394410196754158,  3.678193144517523
18.319430158756273, 18.634594033254597, 47.146573602552344,  4.036443449227257
 0.039178572183551,  9.093975316737748, 50.506819098118086,  3.875804501304513
 5.041751830533802, 13.552873647061714, 19.604199517828739,  4.190866917116818
10.378144933522565, 13.763821060350335, 110.807986739922782,  3.890788474460794
 1.992590166368894, 11.673813020110069, 64.375656182424294,  3.927414719148196
 5.439406836747833,  8.882336164415921, 59.675887911431609,  3.678902789723097
 6.712440453003902, 10.992420810063921, 111.659932716072348,  4.193970871389006
17.504064316560509,  9.754910831282881, 10.794800074109082,  4.095005687316602
16.510475441024766, 15.047314620910093, 27.251610000845815,  3.901905171011737
 8.761955706616735, 13.359905885844231, 63.646434127739361,  3.931184832868793
15.387935635383686, 10.853011883987334, 14.642372175714552,  4.086729006020381
 0.437552734064966,  0.169780534626913, 85.318800351380588,  3.824399811375836
14.341291036745085, 10.305513831705046, 116.703854910453529,  4.080591088354478
10.970317486440736, 17.162437906718704, 62.896314056187215,  4.061934645188984
 4.900699968989775, 11.985631686304279,  0.215056740609937,  4.043636751926551
11.481134056493765, 15.295145253009176, 92.019371527406037,  3.708451185444475
 6.646329075165091, 15.557211800885167, 38.175775585664631,  4.182946674714313
16.669168837309673, 17.299594037455059, 87.551272923292743,  4.081248588052709
 9.362487984869722, 14.221944099658415, 75.768822499978072,  3.994487124992778
16.531437074565638,  1.856733381509381, 59.143064567312997,  3.727136275747450
 6.708618153207553, 10.387453314614259, 34.155823206645927,  4.253983072988133
 0.762643097181691, 15.723679295073817, 59.130041482329752,  3.977556295398126
 1.252380597661888, 14.060168176403977, 26.649085362351613,  3.838214988065957
 1.552224114320289, 10.680229095445338, 54.083070728902811,  4.203618963040843
16.996583838697081,  9.421058410171819, 107.538909258275808,  3.673070633830351
17.643350254103616,  4.900922927531100, 101.382433199826735,  4.170672038901291
 3.584597494710541, 16.643977491099761, 42.187614350935078,  3.730100854005230
10.536428461485732,  4.565279949457522, 13.124426191944170,  4.336803093900913
 2.698874167476571,  2.851922779886543, 114.191797274842102,  3.983184013931487
 5.909424632982283,  0.303831536576898, 26.842686849210885,  3.694103901546367
 5.849981936243622, 10.536932584175725,  8.380373106904942,  4.141601453103980
 1.516253945492117, 18.029010751213026, 89.089657047984190,  4.223606711938172
12.131276223775371, 16.970434862036090, 18.012989453442138,  3.978745282263021
 9.358557542921954,  5.114469204318570, 47.645985391493063,  4.115832131505922
 4.506502711232258, 15.829347501226744, 45.927411481404235,  4.019152518167240
