BANDS
8 8
NANOPARTICLES
cell(1), 18.970
cell(2), 18.970
cell(3), 118.561
15.648779099849156,  9.090666931239539, 15.339005147742856,  4.316739328436435
18.898744265736724, 15.893020352343282, 45.975993017097863,  3.920791847930747
10.579292166039540, 10.756445832972423, 44.602171611937607,  3.824391970922648
 0.549060713126861,  1.952958925358516, 75.006470095524804,  3.946744215567038
15.309214088723177,  2.044185721290647, 94.877202303560239,  4.200595849087141
10.473812987432275,  9.728397071840314, 109.930105194280785,  4.477278585110988
 6.506632941194952, 16.431814929446240,  3.329726353817633,  4.019183761771871
 6.982099289700408, 12.399623211070129, 118.219492359158579,  3.952327687923539
 8.768966622835489, 16.362131392048539, 77.848956734966137,  4.039582112274638
 6.923936586516215,  6.294804146257704, 11.439418935377013,  4.136685313995661
15.825355354225403,  7.145316055488267, 40.525965322206687,  3.928723697067222
12.631515298537671, 13.483110966675600, 69.442005134058618,  3.813967690367326
 5.475817041607451,  3.283332795262043,  0.253942115268950,  4.032167755620538
15.883288609997164,  0.257310597072045, 110.329291743812036,  4.351381756217736
 7.011118373307423,  0.185061292995322, 87.214210807683259,  3.664859742263820
 9.605653411364973,  9.994220246763296,  1.228754562726586,  3.798746091976175
13.996882427778608, 18.628096042364863, 56.258827518332801,  4.107413767671296
 3.563327310442590,  9.758891849690103, 42.918905142070372,  3.996724837353044
14.610781679899565, 12.256745888814910, 88.991065409704575,  4.066130614151104
18.177078980599383,  4.531334720148603, 24.072181245637214,  3.698385534291151
 2.480913542077856, 11.809630465693976, 82.062085437530143,  4.086303710428336
 9.394672179967243, 12.622234243886657, 71.233467822991869,  3.765261882113857
13.775128171044775, 17.655122581787975, 41.778755853854342,  3.816157860719617
18.783898978135248,  7.555610353377999, 66.158370813492837,  4.121002369229310
 4.336382194371668,  3.469232039122378, 107.935531611510626,  4.132103316722616
 5.597237559914113, 10.590945321248958, 50.826967756429049,  4.065410059114568
17.015336004848631,  7.948265191302983,  8.426625208379626,  3.971006961772296
 1.575691994661150,  8.086211412303337, 80.415677608961246,  4.105585313339957
11.364020163614056,  3.784163112315583, 96.346662070720498,  3.811593537952126
 8.519384695889737,  2.702784142960411, 58.157119816359987,  3.999506243393234
12.015082304180980, 14.416928092710123, 77.762482175565566,  3.523645606556303
 0.766531416434367, 14.961596559309886, 87.140846875722872,  4.062510134392784
 6.082380478375390,  2.599430202692798, 100.661366014499279,  4.108126629144500
 2.447663069123973,  1.076517083490389, 69.663984314952870,  4.326955969911398
 8.689028344673673,  7.038332680788628, 31.423693498970753,  3.938146061988394
15.865646549350933,  5.780372069768512, 56.273557398751599,  4.340855101252749
13.459194084480055,  4.113246874591115,  3.078588017741464,  4.207823237999477
 2.870997152508679,  4.608264669503184, 72.804487167413086,  4.273970648918708
18.237624138806929,  8.092276345430824, 37.557213421202839,  3.875081536397517
18.045793039227693,  8.576151002233209, 62.397785382660011,  3.806035524281578
17.982520404954453, 16.264943883555272, 61.333985572572658,  3.798777933506155
18.198515753605790,  7.751598676865159, 110.328093220279925,  3.957305348750566
 3.070753968018951, 12.889539990691963, 111.940091102002711,  4.048128240576410
 3.061973198181062, 15.047580470794472, 38.828259763025258,  3.746051788114073
 6.476506256166230, 12.248849984191587, 83.221532846794076,  4.247591257050525
16.233392514791561,  6.558669453325833, 44.261399937068134,  3.661749176328640
 4.828105624572216,  5.954723487204116, 32.237498677664369,  4.110735226554549
 9.746209029174748,  1.771874956577252, 22.139389422789620,  4.042773858884549
 6.657112014800186,  1.357097968346725, 13.177125261443466,  4.263041163349968
13.085248806752734,  8.022046508106550, 45.983576493070423,  4.086036020145066
14.216678995812266, 16.448003469590997, 59.853512378769977,  4.295753700754677
15.430864725279603, 16.035167176855428, 33.855839171054235,  4.015179360747456
 3.123198858681918, 17.546175669574652, 113.268613839390298,  3.946872465238662
 6.418053534038447, 11.160744223586219, 100.364143308781053,  4.017348671562343
 6.418773070756127,  4.363419508241482, 112.171106500774300,  3.973603204186981
 0.635317501654390, 18.885664640645661, 97.985566410936428,  4.109619039528924
 7.726583470219238, 11.412703391443127, 96.533609389223599,  4.077895379014387
11.052139331310327, 18.602905350275403, 12.524861440890394,  3.731376730558478
10.343567784777001,  4.511559582150621, 65.286033675441004,  3.945921134943554
 0.913686487036281,  8.603891981838093, 51.311159159636084,  4.127989370684977
 5.232505390675939, 12.389100033951420, 35.549810032467185,  3.817621284363899
 4.700332654776214, 18.133750750395485, 102.199706713676036,  3.906617811735436
18.487696647010878, 18.886684327083199, 88.798315538818514,  3.999157707241875
16.666527015074593,  3.566856110359865, 46.697158654162827,  3.804058036344750
17.241453629418110,  0.082701289935670, 68.966984288335794,  4.024827865354162
18.093086586531488,  3.556846258668188, 103.717398451492116,  4.227176887256726
14.502956320293203,  1.276306758562959, 31.949979911713523,  4.039825062610152
 6.358274116531298,  7.465731928227531, 109.704931904019560,  3.941373574059560
 9.783559655535766, 18.209147579209532, 56.241435158579172,  4.257349964691556
15.060658015493985, 14.672944200420192,  0.106018957192636,  4.108903811450127
 8.624391027482817, 18.568488286531242, 36.882239887975736,  3.701572396248280
 8.170146334386528,  2.919913686134461, 84.658198345495762,  4.007845774860423
11.468628926516947,  7.599144812324338, 62.119107136889426,  3.606369197866421
14.437863334794596, 13.469807973156648, 92.897001932399121,  4.107293155931456
11.722539391495229, 13.944584053494509, 86.402783075527836,  4.341171464891843
 1.948497436130697,  3.761706075314850,  2.594784938016083,  3.959627814961773
 8.110287415378647,  5.739749772144744, 15.334142246499987,  3.998027883114667
 9.438493367785464, 11.886533803164083, 51.538778393253715,  4.050553351795417
15.579096373251955,  3.569809836209755, 82.547197480653665,  3.970148227611628
 7.764148604310127, 15.628182526356989, 44.540126292534318,  3.818365684328962
 5.976385858514218, 10.857804728560390, 65.736402307268847,  4.126641214237468
16.276072493567003,  5.772287636884381, 100.745018566010245,  4.005601983177160
11.231198581450199, 15.420008982921285, 50.228638615500927,  4.179757445707863
13.141774825391439, 12.107612362590581, 65.642357700851505,  3.889010501150651
17.473356737535081, 12.254129541335022, 60.940949624092454,  4.150113187846488
14.395656484529217,  3.725108689545540, 111.971307194274928,  3.674733098140317
14.040140773093460,  0.502044293312289, 77.909379935645731,  4.213701050203233
11.303926379933738, 18.804571540810045, 95.916217798068416,  4.109398728554804
 0.099974776048792,  1.715072716126510, 59.864507468803353,  4.244962466469371
11.151015295750737,  3.407092602707825, 31.542492169322511,  3.938907017507268
 0.883969821526535,  7.375862530936044, 15.796880873456079,  4.088082104220121
 1.162588087618091,  6.470809472216430, 43.627525939893971,  4.235585148342389
12.461888232934831, 11.610139026628753, 14.312313790700946,  4.018768654390613
12.412445003686734,  0.669889838673667, 52.668228438011838,  3.989089744615028
 0.504210240827420, 13.499259215879629, 78.944843810974490,  4.005467937411437
 4.996564811569191, 16.821707285989895, 54.420581586567813,  4.375638102365916
 0.599150853587629,  4.454482536209341, 82.186123915612143,  4.187178628567339
 1.254893751525217,  2.544236377940022, 95.020970138026343,  3.905143803656243
 3.052136460822615,  9.784373965894327, 101.850865055990710,  3.680010873888722
 4.597132465287558, 17.986215742844866, 16.077122154557234,  4.193233387615677
17.621983098217267, 16.310675500072985, 16.075180010194927,  4.138445023711550
 9.070885731679349, 17.834037438950372, 108.991670528468802,  4.203530418559254
17.995817753076043, 14.152578162372476, 19.657675560441408,  3.943472395029450
 7.625101912888034,  3.799779266832958, 29.557978181735773,  3.770171049332652
 1.195788007804391, 11.637787638648799, 38.244750808980967,  4.102095356235706
12.136510712037397, 13.694963714971214,  6.990012500159885,  3.731695340023975
12.149964552773559, 11.549851890265028, 39.209542174205410,  4.214981846934683
10.139143081311108,  6.953941094808404,  9.210157432693848,  3.737993169430922
17.123157588945837,  9.430547240110370, 57.960507753544789,  4.085219013709765
 6.568066022091128,  5.777208589660615, 60.066877939282776,  4.203975230033473
 8.759218450741288, 16.746058456253486, 114.539148161371486,  3.756828105623927
 8.120309701906798,  1.306870199935292, 75.158515983723689,  3.605044043229250
13.008575036575081, 11.913608294994070,  2.196639391071744,  3.918755108910517
 0.124090837273560, 17.877763484694274, 20.751658687381774,  4.117188476489546
13.492636101810197, 17.128337646165068,  6.100693985751406,  3.836278374305910
16.314827492767275, 12.999419462907197, 13.973046571548837,  4.056843461342397
18.199798307458565, 17.753379040479956, 26.412505453770613,  4.031691864649182
15.161051680858172,  2.563680273215290, 58.849484012777175,  4.002309353658329
 2.027026280087849,  7.573991013532824, 19.971924726849604,  3.685152804721372
15.078413980039263, 12.388888420631096, 17.563241714138517,  3.630559023681229
 7.152190039805834,  3.831992869813289,  4.065532325093330,  3.844638594822564
 1.292663716906933,  6.703208375663484,  6.644587797926929,  3.837112894960639
11.380456880083830,  6.510844762173477, 90.843204070081200,  3.874198882880345
13.710606723519023,  1.655285892834491, 98.583444503853457,  3.894747897671045
13.970474089809874, 12.137372703066905, 45.840693234238920,  3.834895083056218
10.461097938253356,  8.026697674794706, 38.327423025963441,  3.775116524925092
11.486382599634270,  6.918383317033268, 103.446691134838943,  4.022890129877951
 2.189301343904645, 15.720981819882123, 18.206732127161267,  3.663029286118727
 3.415254525946657,  3.773289671363732, 58.243108238506721,  4.048977285093907
 0.654495727282457, 10.108814595829530, 95.313268494076539,  4.252512315027055
10.642749633902804, 10.479158864737384, 30.736205154694602,  4.049578368576463
 7.474905587002659,  9.560630045480327, 16.273188298404154,  3.972303097966943
 3.559011783907835,  5.400757755041031, 96.505994565122506,  3.924594302055635
16.114109438116824,  3.804553364868072, 76.296436798358428,  4.194297663400658
 5.997229523209486,  1.326945481569769, 47.383698639608390,  4.076344254458963
14.863470122340479, 11.321892902255200, 84.913698091646353,  4.289266164660718
 6.651110646346767, 15.360308205504870, 65.663219436971531,  4.263911408686005
18.321691916756183, 17.942022715658709, 84.973318088621397,  3.785964825105076
 3.724863866203198, 17.067614133070364, 46.234654715728873,  4.037215288428191
 9.369714717522699,  2.922318365623798, 10.439532510530224,  4.041308779521403
15.535829976453527,  5.440590479417847, 13.416978295643483,  3.897660112335094
 8.603918260301320, 14.633072610399507, 54.452664193157055,  4.035344110710077
 7.465691288758398,  7.471724827843961,  5.777885931831056,  4.204491328599277
15.315963335300113,  0.628935419062006, 73.822614634227904,  3.966943077619061
 3.521460719392973,  4.229687992987115, 10.550244961536304,  4.016333047652559
 4.642943991627234,  0.394758391000314,  9.541672253815085,  4.224638567139855
14.987984356316288,  1.138645435636921, 90.723974232487066,  3.764665021780033
12.373747079173276,  8.762477751170639, 52.509981470533759,  3.870580049471794
 5.836338559789088, 15.947949434328299,  7.369042526122989,  4.217287304844334
14.907786121137525, 16.817794163509390, 51.326823332629068,  3.986436895848209
11.664257182743514,  9.359192897570296, 70.231571967530755,  4.407994240895680
14.160731680374910,  3.976448744032713, 10.008752346330043,  3.955504645509915
18.132487583159339, 13.575434786576805, 83.635026282387088,  4.015191469090027
16.373168140239613, 11.238875119978914, 54.618254868146479,  3.647820999285969
 1.708239239028015, 17.395641135184214, 42.763044100902079,  4.011506056766473
18.069802793106909, 13.517686644221962, 52.010296949378230,  3.983535454918827
14.831057075341031, 16.616918094187898, 71.084525551016469,  4.029932860899443
17.776033998196677,  3.222326865507090, 43.041462979267003,  3.864535522665159
16.164401520022388, 17.695141268158778,  3.040863468944790,  4.365169936211853
 8.180339783461640,  9.121355986896207, 23.789107356293769,  3.881049297985330
 4.542592768864474, 12.380035000615459, 58.444222492762748,  3.955342722176683
 6.341816035092819, 15.554630532466357, 111.457000987142607,  4.425278247808554
16.881651086809121,  8.939936923591246, 98.322030684426096,  4.053287282515982
 6.449381115485208, 11.440401060944479, 19.648864457706029,  3.836765323951797
 8.208561132929802, 13.601302637438298, 41.351287910231896,  3.718343229915089
 5.102556806449329,  6.310672645238650, 79.197139269872920,  4.147479118883510
13.448886046835421, 12.035829719134387, 26.758190502655843,  4.073503316049717
 0.526716240895433, 12.630141722490729, 103.525099011372248,  3.788241743128211
12.653768255742667,  4.757995128254330, 39.291604266781277,  4.196638576042989
11.276027451023108,  7.867533498062876, 95.295949107868594,  4.413052171568379
 0.054596926179519, 15.195095165944796, 113.555153351592338,  3.698911788806843
11.436695781633219,  5.359534072042838, 59.036569578187844,  3.990747124479898
11.728223370899011,  5.591584783568344, 114.057110552692365,  4.037826694245966
 1.963972940177011, 10.187900261934201, 60.431000529155497,  3.857668546203113
 7.305125391525254,  7.840712851506632, 44.727040563751686,  3.855958967937187
14.323558140375965, 16.378408546558614, 37.896367998145173,  4.290967235717956
14.990512233875812,  6.793791154010179, 64.547749697003439,  4.228694036821458
 3.429213404522654,  7.628468223227296,  0.354426587701783,  3.806369128851256
10.704760319025015, 15.111194604269786, 66.393362475064137,  3.986773299668042
15.099164603272282, 17.684120076666233, 65.827889440913026,  4.046658343685361
13.164483077501309,  3.564014007937423, 62.391061533378121,  4.350546346110521
17.658199310148621, 14.364501588773843, 37.042057096207415,  3.684570074307319
18.315743222079458,  9.837435676597952, 77.198058332955455,  4.411984049590531
 6.547914907353137,  4.072362706161647,  7.887833127161531,  3.883035747891870
 4.350758849997511, 11.700403749760383, 94.341121089837017,  3.992460929577693
14.512978682846246,  8.997004223703737, 19.279963867160891,  3.881738935195625
10.070796370143334,  2.593251467678698, 99.810301332520453,  3.933105893686017
15.460676109611034,  5.149122578402014, 26.637664826847910,  3.873519953096302
 7.685590030242387,  8.675339497296463, 81.443878055451293,  4.078604947627046
 5.795979151558421, 16.059798315945411, 12.238066006257823,  4.453568682160647
18.141543229211052, 18.228745317767867, 53.169773381022942,  3.967463316866028
 7.462961479819888,  3.902666808890003, 97.053531973948338,  4.031004896099570
 3.253631833442216, 18.293766251877553, 87.391601645202726,  3.971970350194576
 4.407463227706855,  9.486556034915244, 22.493740271892637,  4.127397367856449
 4.602687613924963, 14.616333173707185, 42.402181860779706,  4.041580845773003
15.113187106215751, 17.143414617673670, 113.745091114694361,  3.778252931098638
 3.825443867225642,  0.480488717475365, 73.510332761619395,  3.746974532659453
11.546424957714406,  1.027632479248382, 34.740376166171259,  4.071303985966278
16.184448539107713,  1.687753321119394, 28.279145851939280,  3.920810082797530
 8.065385595730271, 13.108670271385133, 60.688896041970303,  3.595343563279382
 8.995306818819433,  6.430213152526400, 68.280741547836726,  3.633612893745083
 8.483752740206477,  9.673338867196488, 41.352731695593675,  4.121971482200426
15.212548842390134, 11.205300160000212, 71.138508715821118,  3.781291720015441
 9.307372091037800, 15.365290923757220, 95.485475678613184,  3.842290083107960
 0.638144754214016,  7.497582273532036, 55.299904497404789,  4.115653355166352
 0.134165275907133,  6.022330720022143, 59.174709681834749,  4.102355551275711
13.838478165233861,  7.424036030678675, 111.134246790597288,  3.981837507381291
18.768051195556602,  4.594953455109424, 51.960172028814355,  4.211373720009798
 6.477731163199938,  6.547293370866464, 74.061749784167901,  4.239943113761155
 5.609260684954431, 18.586479229122062, 42.978159883241126,  4.051165454038499
11.797952831899416,  8.401512083030278, 26.082051930561146,  4.006597318213318
12.560829904724466,  7.106163773837468, 31.609659578947131,  3.815566011633126
17.959446528528932, 10.457370336308292, 26.705185955159049,  3.811591198015860
18.570317557738729,  3.779095948372200, 14.984282265937134,  3.688899896299833
12.560781197158597,  6.879993742094936, 107.547319344508665,  3.689228875282974
 3.737632703726398,  9.292968343210031, 97.957400450912388,  4.032826733346816
 5.052425201848581, 18.162345520105482, 118.447092588209316,  4.210990771097174
14.259254894105593, 10.194760673878857, 62.354455343709944,  3.986406955671147
 1.555495991130604,  0.982931483869766, 109.597630723628384,  4.021687642977179
 1.819824744947570, 14.091481970808294, 34.925888833114882,  3.893262497067828
14.797213134600096, 10.766317222361799, 117.311450003341463,  4.150489542017790
 2.619431452398960, 12.174401421597675, 75.206320755979490,  4.562314393564648
17.977104029294356,  4.083704189232671,  8.570155669036232,  3.998008238395092
 2.443561969069404,  2.598381683615087, 85.377431666145384,  3.882817255376122
11.503518737219053,  5.643389131394289, 12.754197942352192,  4.274750224668516
18.110537252132591, 10.612198465555489, 87.647092170039869,  4.104477027610685
 9.932245254299394,  4.039577044328086,  0.830545876278116,  4.044690330047164
17.204762705182535, 17.633232915701079,  7.002382683242705,  3.823876626127398
 3.525017650044473,  8.231044652237982, 88.591530700319311,  3.862626943471988
10.449583001723795, 15.821283603387176, 39.177605073986541,  3.941142198258307
18.687857564288414, 17.784626222419366, 72.527195319758391,  4.051349567489531
 2.623592909288594,  1.637878484692970, 104.573423486655216,  3.920962520094682
 3.135156228062547, 17.414275593054533, 66.067008788411002,  3.902765585755369
18.844274740537859,  7.396560560539527, 90.144639765888897,  4.154627614858963
12.420199492625171, 13.929502206999159, 113.520885323229848,  3.893844381851444
 2.333471053599790, 13.102852712926744, 107.307269281532442,  4.007762331920937
 2.548073745525378, 13.668282429172192, 97.149886536725859,  3.722351399724583
 5.484989704301500,  1.599335362669237, 36.324341149487516,  3.825446346400011
 9.503284930543197,  3.360169305654407, 18.377707811665736,  4.039948148454440
 7.644050116287873,  5.165044073495618, 47.742506448336250,  4.234947183339495
 6.005695709111423,  8.096275692942145, 94.873926487377801,  3.987900041147769
15.474624176112004, 12.971580034383010, 29.757354619754562,  3.383667889993983
 8.143987104543678,  9.478135039229684, 54.446209640461518,  3.914308140800813
 0.785408331795505, 15.973657543820114, 68.844611086767586,  3.911270589756755
 5.381337367312574, 15.025226824896077, 115.610780410128541,  4.111807798667253
 1.047743443437522, 11.921298366511618, 48.802896554336648,  4.148394686513442
12.163235666475847,  1.791857664240107, 81.914345301414158,  3.819843889122233
13.297336772787466, 12.673482812995935, 108.887098936229620,  3.938836802581839
12.237409533115068, 11.595964784493338, 81.095257380627899,  4.157553574186034
16.497638131839967, 15.534439243489746, 103.023222791896202,  4.161170554779411
 8.431585541285909, 16.474117022650457, 22.603615714934040,  3.978395805178053
11.367841984899702,  8.117796913272571, 16.188606248802774,  4.191503125726717
 6.939725333161233, 14.685281542373959, 51.072622998363180,  3.486947835090444
15.621340185023330,  1.714315570624230, 40.083334154859308,  4.026103456415493
16.905405419353198, 11.729589223440650, 10.049795478161471,  4.235579513651229
 2.307476017951248, 10.063335145461075, 64.275469090918321,  3.865251362168599
12.544535052148879, 14.952028942785317, 24.267962760658371,  3.783535967565776
18.606735972720347, 10.372487087462812, 72.774624117337723,  3.932848274638444
 4.032094635191847,  5.083908268923953, 14.484360127745497,  4.094174768651519
 1.656475240182674,  9.769259191420682,  9.356334709665040,  4.278472083578799
12.314778410723020, 16.239412871250909,  2.545155965308348,  3.859785294429650
11.609957072043322, 17.622488130928225, 31.425662222162824,  3.815983014968260
16.049155388370632,  6.612469573220690, 85.573517346881758,  4.060702089747180
12.380175159828676,  1.140908667816005, 28.667064678815841,  3.770980539503921
15.481031563858219, 13.840137470869845,  4.812122087968324,  4.222718955745011
 8.782531214808294,  3.330674682570656, 25.810156137975639,  4.109558990967342
12.045756572653287, 14.077670034557768, 42.647357314887884,  4.317943308563628
14.023819074022891, 12.776724682813592, 35.736366635273896,  3.915050886697436
 0.376203960145921,  4.937268419919747, 39.949919464955620,  3.870830951192315
 1.003485537095163,  7.421144943163432, 32.012290138371654,  4.051044027256141
18.301590893378687,  6.118615125651390, 94.781947215713643,  4.210593219138574
 2.908165235754549, 16.433922535072366, 79.737728584054921,  3.744962589896005
 5.610408580405606, 15.027477019675750, 95.640895498546882,  3.576721478443916
 9.972753272861492,  2.587826537546630, 50.058683438914777,  4.114770126305928
 1.963699397855998,  0.696608067971472, 23.953737435739036,  4.054195503018827
17.077371554315491, 18.522674650558940, 43.349585313409314,  3.608108176107882
 5.708343680181183,  6.053109698800860, 24.368688337087178,  4.009650502224282
 2.177817780685873, 16.427227501473073, 75.447900202272621,  3.998204372395242
17.611390021378220,  2.963012095719584, 85.811743004620084,  3.784065366923061
 5.623508528980939,  0.708416049471725, 110.666635528977878,  4.027677744203650
 1.655513724634652,  0.488923768244739, 82.103934588251050,  4.009720465621536
11.592317073837995, 17.834749995195448, 112.203941586263724,  3.896667738983047
11.987933727120861, 16.279834077705537,  9.727951080439281,  3.764577155945738
11.293145957757044, 10.835196477387344, 77.270849314250540,  3.848639185106613
15.618293244781798, 11.278627779214458, 104.502859620342207,  4.192098145911447
 8.143608330933466,  2.653585117854312, 108.307047678244558,  3.667850527421928
 0.711852478730260,  5.367646350161133, 107.210502283733192,  4.149620290286950
 4.242453066464779,  9.107193324616851, 113.291884125292128,  4.230943804175339
 0.378644480222002, 14.116483515019393, 93.760236601001296,  4.354954264801784
 6.522513965505590, 15.897093187802152, 81.201886439153611,  4.085407685502731
 2.449097397474132, 11.698169085794488, 25.374405967367476,  3.951081459509581
15.973961275853222, 14.412435466684885, 41.180529735449205,  4.041641043772034
 2.822919652388561,  5.965027968581592, 110.783963882515806,  4.019676056273105
 8.759846325105313,  9.176799102774369, 92.129489633997792,  4.008995391904328
 8.554616194517042,  4.546225457299613, 80.849276468260882,  4.241146380428979
 0.826649603806052, 13.707188778471933, 41.567204244749092,  3.734719091030140
11.802375227248737, 17.073414470527634, 80.485779379750127,  4.043833812054305
 4.928209814918622,  2.062864395548865, 26.885170974284616,  4.259798684262230
12.223027213239190,  2.994070287746228, 74.965750416875906,  4.006115571678741
 2.328791752712747,  0.888777970114973, 78.279691538378628,  3.767196226397915
 0.507984053884262,  0.497510871477831,  9.657834718728537,  4.047755640302536
 7.361477370129839, 18.760433207043487, 19.460243647060427,  4.047991159730883
15.526079600952286,  6.937404030161596, 104.752019744063205,  4.441691424728963
13.221360781835882,  3.529365123598854, 102.023136205113232,  3.978208688778318
11.651683314301179, 10.408773224047142, 105.756117643050743,  4.240712106555744
13.207356518299434,  0.679522758438929,  0.544952109830914,  4.236587833746586
 1.007719582479641, 12.952220697015543, 15.772066852951221,  4.079459000908387
14.157691817002345,  8.669102557220167, 11.327286715033965,  4.258951124204022
11.407244358040149,  8.474341005893747, 65.976904612169321,  4.177759338420500
15.336825603110574, 15.602593605865799, 79.151795922795955,  4.023449974058329
14.314787843538040, 12.464422904634365, 21.517573301547781,  4.371103942257603
17.454445217548407,  7.475260813293078, 21.570948607592907,  4.086888746585968
 1.190066622477731,  4.688419349659989, 78.058659913998397,  4.155516937112287
10.458360601877233, 13.175525875158119, 98.775382610030562,  3.818055892629647
14.146221243323183,  9.118122829141818, 101.373360758741612,  3.926942951757963
 4.575102113472358,  7.233455446374816,  8.423120697848063,  3.633230052921094
15.861636311645091,  4.972235825762720, 30.676095396878956,  4.225459587108495
 3.564777592830165,  8.810855422139912, 71.997392647876737,  4.134617309436782
15.188937265702796,  6.696844767425892, 60.371267971638211,  4.132865882808917
 7.224270393439609,  1.658436393795151, 39.867946114093655,  4.057856837772668
11.188976990341855, 11.133212260744305, 60.033292768588780,  3.898824925860461
 2.114038966426905, 17.305545606681644,  5.732940565118159,  4.334029896016852
 3.168748114376235,  2.995468725521984, 65.854314090928071,  4.057588530199350
 8.773996785185856,  6.674254862626800, 106.538190028874780,  4.157036763772669
 6.758726173006965,  8.106363842117226, 38.252117271731372,  3.626854431149937
17.770478596632781, 15.561427956874029, 11.277491589156153,  3.926024079895445
17.875882192913792,  3.211333821333658, 92.053323318836803,  3.720037649545180
14.292028366686427, 16.457295969308763, 13.135497666040775,  4.110781226719713
 9.144943563257481, 13.102914933759926, 47.520400724107660,  4.054279399007633
 2.402019502612746,  2.604863678588773, 49.365519775625714,  3.966192024870139
 3.435015657087232,  4.828355151839229, 54.123952283836992,  3.903826498367247
18.593579225548112, 13.066405417127353, 117.654654619881327,  3.903398014715485
15.817029546442146,  2.387028179626321, 53.888892456731462,  3.951040446829865
 2.266601167407219,  1.736905197316545, 34.256913122476789,  3.820753320014608
 9.197865788371985, 11.590364595584715, 26.934312792279982,  4.357980365901981
14.950454874559343,  0.294148728824039, 86.855327624692222,  4.029205836861756
10.310591508372147,  4.126972529187729,  6.485488742930396,  4.117777614239397
12.035880060539693, 18.270860416014628, 68.602383943642138,  4.140434540498874
 5.861026726331031,  1.461481743938144, 79.973327347229940,  4.045448397193792
 5.339418641232019, 12.926763465215735, 27.827669906274991,  3.992043776373540
 4.601421706499882, 16.797755996192549, 35.709331989251460,  4.008866665316901
 4.121948328009001,  6.565528825030763,  3.950293878491210,  3.624735221548769
 2.827068503700915,  2.632326066551420, 42.584113151532357,  4.063946992403291
17.878369501150747, 11.064171671540503, 34.604528496677958,  4.525227980564166
 1.051572256935235,  6.554801516040705, 99.400183819685594,  4.016294229877970
17.878948910631205,  3.687474905989754, 33.999763296790491,  3.947240281397324
16.654314964939971, 12.725246826554395, 96.747133244850161,  4.151356837655620
 5.270570794019646,  0.303263567448715, 83.796537409877274,  3.979744090154436
 2.013489932146935,  5.315536200100369, 35.897458727885052,  3.936786213229793
14.430235462723795, 12.583786357698665, 58.078801139766320,  4.195640580542382
 7.450774362670462,  8.474001383649329, 88.066251903915415,  3.924430510701720
 8.058881493140873, 12.896187604861334, 92.978587234657269,  3.609169544993385
 4.017983822532429, 16.255121283339271, 71.203717485166280,  4.077080081710406
 1.634936695005035, 14.675499636294028, 28.023525688898715,  4.138427770606547
 3.038352437017378,  6.719202569549948, 62.149973017531401,  4.177270379319714
18.229375277612586, 11.313050893186491, 69.053949709300028,  3.507953151153849
12.278015909377032, 10.571419314843434, 49.009655438363517,  3.989187801247671
14.359779650547969, 10.506763573215759, 32.263645332563321,  3.974929021121548
17.068571620670632,  2.769171168881817,  1.361001505868382,  4.174487755292495
16.972787238701994, 18.292533478699166, 117.276787882562388,  4.506047533020826
10.090088208499806,  5.425749349726727, 110.293062745955694,  4.178821725621266
 6.880163012476937,  8.958940866030442, 34.457380702788221,  4.097519980057840
13.278679005174009, 10.645408588649991, 97.764657665842122,  3.995277498634260
14.382632955424683,  8.660866861161107,  3.818258167635418,  3.847142438897114
 5.106222738177252, 14.782764394795233, 92.088362928792691,  3.614353033411454
14.532808876419139,  5.624017288036669, 72.743925885165979,  4.285146423629046
10.165744737569501, 17.552811436207030, 42.504944939184583,  3.547710933353980
11.237556032595771, 10.695513527597418,  9.491761668200585,  3.721564475050215
 8.669805456019658,  8.218178588760038, 19.924910832667564,  3.854016386260886
11.101155260009104,  7.885237206877797, 79.796112308686688,  3.667141541845060
12.744126899384284, 12.851862325992391, 101.979480692476187,  4.060314831165662
18.474949581302265, 16.448495080478928, 81.153388529952281,  3.606784493641124
 8.513355529232992, 18.028206401557870,  9.690400420121348,  3.962057830442901
12.426402514933846,  3.333974801821501, 89.273256430067633,  3.455819798001594
 8.727155759232392, 13.871417395502366,  9.717749175214895,  4.273714547699677
13.148595600581869,  1.419299733589739, 114.881799029520195,  4.129125947080785
14.051333002737657, 12.861260211364561, 51.890110795953277,  4.112547072673618
 7.132628295967492,  6.908745409176769,  1.527019840698985,  4.088117921221077
15.122487468944394,  9.529685958954797, 67.666530090170625,  3.742872827270069
 3.263921775612526,  0.052706002450251, 39.302786940379910,  4.211857664272767
11.394017098332418, 18.664581299172784, 105.877141326424706,  3.736739789571306
 2.666377810377903,  4.380908371474126, 22.187231428985619,  4.179767082034513
18.842746991969946, 11.184297554100944, 113.970415957587136,  4.229878992872195
 2.800317390844683,  9.238887430360265, 35.221416974709484,  4.146551787925420
10.674282449618689,  6.466777127641630, 55.152342193254213,  3.896552310633111
12.097737603402873,  6.354336478899389, 87.001832829999799,  3.945629906398925
 8.501436651511263, 12.489244194494745, 33.463382560659419,  3.920027942849657
 1.843148938356485,  5.171880509285006, 68.893233761143918,  3.865611462766755
 2.951636728940163,  7.994050842007442, 39.241772771073677,  4.227370644995202
11.832614995702606,  7.063086320569269, 75.777388975166957,  4.325670596787546
 1.231752420791767, 18.503856367841259,  1.699978250476546,  4.149673532786498
 6.821251739048523,  5.909603843315313, 55.903068671336428,  4.002541492313454
 5.202536341375515, 11.619639981175037, 39.550928142971266,  4.312968671955805
15.667645893798600, 16.831750479233833, 29.757513204801484,  4.328966191034090
 9.765690740941142,  5.732028729337644, 22.774552464857731,  3.869760862507797
 5.246882979831139,  0.240985507059333, 59.457815020033699,  4.262206657772015
15.324520214309967,  9.094277913571013, 94.616943069531942,  3.985115640439220
15.589667812041657, 17.974412711511675, 106.079823587043578,  3.763798702493763
12.506616466265685, 12.182231731395104, 73.773740457921718,  4.020096749260022
 0.814232769062006, 17.762089356984461, 102.349316742768622,  3.873582958539575
 9.139209657386271,  2.479476360083333, 62.077723613769081,  3.950937362136026
 0.210317470710276,  9.549776938420592, 106.292129928882090,  4.452509267760070
15.963765119294342,  4.364560962750209, 88.960978001591343,  3.838681154085237
18.708125060602022,  6.696602026631892, 28.255250313907215,  3.988937606612476
 3.287996322129013, 11.547658524505502, 116.635533395194145,  4.252355820442249
 8.565118004228237, 18.824905472740284, 102.161814351828696,  3.877095172507221
 1.433739221172710, 11.286861765236118, 54.236159224754928,  3.828222172753944
16.633853270789565,  5.815655850918932, 17.869573984102527,  4.158495585200660
17.362451169177632, 10.906277915053844, 91.657850783842861,  4.041188639893685
 8.478687857420873, 18.967937817756560, 29.270047289810950,  4.024975262643083
 1.034229269568084,  0.598768074244772, 17.110975641780101,  3.860455070691583
18.395523355116307,  6.600148513110510, 74.207948172974284,  4.141415202218186
 0.541024561683874,  5.956108094029828, 48.113521602126717,  4.068150861674914
 6.998946939805580,  3.224508391214431, 67.260321803862766,  4.113410491211978
 8.106496690533605, 12.243785833635592, 114.387191513717042,  4.028595758876758
10.729644097098079, 15.914822328267876, 103.376646350311773,  3.766626433959108
12.030903485694884,  1.835907098938490, 109.373004979005145,  4.170835769620312
17.966428097760023,  3.354124195811631, 71.444429949425455,  4.308321770668615
 3.486913464514399,  0.990035861381959, 20.096660672837601,  3.867438485031189
10.332351316973707, 17.341268951659611, 92.174058894808226,  4.130093116038288
 3.200974261044706, 13.954045801749137, 51.754565776871495,  4.200876588478684
16.232069143417529, 14.261129267136177, 48.460796810956545,  4.029471413885883
 9.780896735076517,  3.132706058493310, 104.371028642451449,  4.384522850050510
11.328227661395612, 16.274523383483185, 46.138002213926896,  4.036035177649005
10.362210412811683,  6.359187819951261, 34.858207502884646,  3.813297744117632
15.208123634969315, 14.936210251578983,  8.571529538366264,  3.581547825237722
 2.580177194355544, 16.901532306575366, 32.347144612022490,  3.838909539948563
 0.845780715088976,  2.932712711994672, 27.208619316133326,  4.032800886802798
 4.215383593729437,  6.268039517376791, 50.103420804570312,  4.310928761208076
10.635487110453870,  3.035986769145561, 68.895282374979473,  3.851747781891465
 4.837457328934331, 12.088710065754045, 104.355049276210067,  3.972939242770813
 5.433603831330843, 18.226955784614177, 76.724317199429223,  3.838934621686943
 9.884732724038514, 14.435020441057224, 82.759466945199662,  3.826361724921515
 7.060762512219765, 15.897473092167481, 85.202026765606476,  3.976229554832543
 3.319343797448936,  2.796918867000214, 61.974326763548433,  3.658214588269229
 6.215327614318302,  0.799098152756162, 114.715097691181995,  4.125316116453406
17.958758374655805, 14.193670794681211, 75.425269633541077,  3.755695838122532
15.717398938805760, 15.295233204703649, 86.426277022317734,  4.092503078928738
 1.271657530827326, 15.939107415378647, 109.960737092565736,  4.034399022955051
14.266931927272152, 10.550228873741874,  7.208397991147813,  3.854772824184774
15.246693279095988, 14.531534920748580, 63.407822819038927,  3.875017555500508
 1.735559112600852, 12.477743884440345, 90.135643575735642,  3.935396773985742
 3.158134470699320, 15.657793913068861, 83.741679361040227,  4.358395420735492
 9.037469247224015, 12.991120101824448, 15.456612564978318,  3.634502663329826
13.035877354184107, 16.628116147529909, 108.730195156950842,  3.992716411563278
13.060074535198600,  8.716964471611186, 57.446979327500507,  4.105405291254668
12.143087484133016, 18.537040406266701, 63.203412081591452,  4.026228450366459
 7.452924626898082,  0.712970259586461,  6.214530203399107,  3.744875774308698
15.003464709504309,  2.056347209710665,  6.460727486032649,  4.286362068659439
 3.688715697261205,  8.902772395340046, 12.953592523436749,  4.162255243996896
 4.293221216471690,  8.660908984966875, 54.082481145804493,  3.918418491614272
 7.864034840181592, 17.322747597986567, 33.102943512683694,  4.391694981231002
18.672667684591360, 15.501654800899473, 65.041624685844909,  3.868680745944323
 2.691706017551659,  1.113023243480253, 53.028763292709236,  3.962535766200319
12.985133823334799,  2.516321164204987, 25.095310353850799,  3.897357112916051
11.786389517459542,  4.903134129897564, 27.962359678367335,  3.920860298723119
12.218364163138551, 15.936785292406665, 54.022664996486121,  3.692194919584785
13.208779892623848, 15.134801910933836, 96.532060488165882,  4.247599860877905
 8.840492327152807, 12.421008542060989, 103.386586875713945,  4.126685617749422
 4.888278117849409,  6.501543300714096, 100.568039101241368,  3.943161747643558
 4.101111426419652, 16.897880928148588, 98.510912192007808,  3.895198174145343
14.978013500416386, 12.331678769446738, 76.954873533528456,  3.881758523761021
14.849686879672980, 18.950449173024975, 10.022468893995564,  3.942106612628994
17.390602825231444, 14.191268746597405, 106.866168435016633,  4.101942945312124
12.241729949361435, 16.697868675766617, 116.374176027436135,  4.027734701255539
15.897431079778341,  0.459801002796305, 62.144180279059739,  3.934316769142455
 6.195492284670863,  4.251004772593721, 63.633363472728149,  3.589782898010193
14.926601716967092,  8.186733707271458, 89.165055075660064,  4.061526230073614
16.176818446896526, 14.382261337785412, 67.950967376996729,  4.078974652059119
 0.059296669378693,  9.111146674038753, 117.543539521529212,  4.038604092553353
11.383844119337549, 18.739562534040132, 18.793118065796101,  4.101966955837505
18.357393035200658, 10.201423239387994, 18.513125637875717,  4.298444689985059
13.899308014625953,  2.641726699239638, 105.846157209328524,  3.935675645093697
 4.551548965460471, 12.512492844150403,  8.920464098375678,  3.740763587001584
18.307601949424722,  3.802030208107122, 111.564084895685653,  4.122277931935307
15.515353461350013,  7.296467247491175, 114.969407373547597,  4.338504276161201
 9.731926418240528, 12.641783032502497, 22.696134295305150,  4.080649565958185
11.087412701600186, 12.790069195892677, 117.238256316387009,  4.288916489040635
 0.645613085813172,  7.412674889121888,  2.939594777088785,  3.782908967397235
10.153374290759931,  5.624979389920081, 72.040144854887714,  4.349469789631765
12.253666026113814, 15.123627400843441, 16.662034187705231,  4.434919121102076
12.687549899897656, 18.865607906690890, 48.835982778457087,  3.790228431849886
 4.182339069115906,  5.524777358549700, 115.584282036947755,  4.169556579240240
 9.387035939900304, 11.055383678035140, 63.570218867623844,  3.954913681792736
17.793403095771318, 14.016497220221488, 71.607518636842670,  3.885445435575109
10.319619507274206,  2.239608637001132, 42.238830796532262,  3.789480564360858
18.421177929834730,  4.531586210386576, 63.128297215655017,  4.446575130912040
18.934951577647716, 17.600275121277658, 35.323024548478756,  4.062824363527228
 5.448570257069131, 16.417646949057044, 29.720201584437930,  3.943850995539598
 1.234724819234952,  7.845303343595991, 24.643615524926695,  4.141958759330524
18.784413438023154, 10.291785949562076,  5.663434139871821,  4.027885992884725
13.901639888221554,  5.806985086606294, 23.025962615137129,  4.090004631416971
 6.042633403646374,  2.569609194598333, 51.303522184503812,  4.105787213459489
 5.008953567307290, 13.511776679056185, 47.925217989200199,  4.229230860122837
17.679983292139422,  3.432178377743005, 97.862406423114351,  3.905616767459089
 2.114544526377796, 18.838615385461782, 56.774726621686320,  4.002425542703616
13.959527203629158,  1.921739790326031, 13.306471735332389,  3.813002291731677
 8.023132387604383,  4.248969614127064, 115.786441717880081,  3.924687340541742
 6.611586055854025, 16.657267903673198, 39.598104170689176,  3.949167652998978
 8.417425611695560,  9.194425891065585, 48.301401189724665,  3.997270455754554
 9.739095919789023, 13.534840839343959, 110.987349629747371,  3.524380844076736
 8.136319897683295,  7.395109040066327, 63.938882063701129,  3.787119045375742
12.062098494063950,  5.686066153623737, 82.938268985342674,  4.232439567843800
16.188393098596478,  7.876341904905336, 52.734805248642175,  3.907707344231439
18.090173490636587,  2.929439401823918, 20.489466341002373,  4.136627440422665
 8.985717609469878,  4.853466665368093, 93.467601150420109,  3.950820719145665
 9.868257125553503, 14.098104190200210, 107.121268643632106,  4.273710797147816
16.546368788317974,  7.263845648820421, 33.821219331518520,  3.674417720701272
11.869585226822597,  2.325381143488342, 92.842156916096272,  3.775562533838591
16.886349649357488,  0.945602715963199, 100.808074971190962,  3.948920854695053
17.174186000804976,  3.928635324570145, 67.291643572143329,  4.122611934096531
11.332329037954633, 14.515952650562976, 62.364612572589820,  4.222086102542601
18.477872855475589, 14.267160717934596, 31.638648027153334,  4.148028723689668
11.801123132472986, 17.769500803306485, 84.539628166671037,  4.167711686933507
15.075291197465271, 15.731619744157648, 44.895917660048099,  3.916614207298516
14.359115196034475, 15.812957918093836, 75.061189975465339,  4.134762311844620
 1.942747859033679,  2.777235068665061, 100.695976858392868,  4.159547972759170
 5.602087227306998,  5.888249206996193, 69.969829152983507,  3.977868779393013
16.370622900861566, 12.191722175348554, 100.747791512237171,  3.674439488154126
13.365460756440848, 13.190235319268172, 11.013686572569945,  3.454191189076491
 5.350094483534092,  5.724410620749828, 86.335569834452329,  3.801410953139268
 8.570980812622457, 11.249379014757075, 37.258096677132571,  3.860448965410471
16.129052933525784, 14.870025011542005, 110.702626199806915,  4.081202308783422
 1.391074765001802, 15.120499746430367, 23.537362365890893,  4.055444781545635
 8.240015398130659, 14.847073179283152, 18.796038431484856,  4.036198301921496
 7.401495682278399,  9.796096925366058,  9.253722072036355,  4.152708303704191
 9.815616702930990,  1.066038370590952, 45.971268247219832,  4.033376201105688
 9.603767354799700,  9.283411808155279, 12.664540849333640,  3.932803605099388
 7.225758202415375, 12.378009907038949,  6.255090028996172,  3.761417112390649
 5.779457505642765,  4.821172455238862, 104.214882073177606,  4.275917744685458
16.267105600888957, 10.319775055012839, 49.553075165835281,  4.074861152059649
 0.746304970940127, 11.316843777996636, 99.428040202901073,  3.662673986326935
 1.994456799644778,  1.367161581845137, 116.716196234139971,  3.969712550046509
 8.257315981722272,  7.049321525297811, 27.451846241002610,  4.042285581362090
17.506085375198381, 17.608621877951720, 57.791728918998480,  3.787680516276394
 2.361202793411982,  1.175044490464204, 91.487892820392929,  3.906579630386128
12.787125845644395,  3.572958346889272, 47.244702803665085,  4.030270496602823
18.198121118024119,  9.037168192722751, 102.170568207445783,  4.079381995704663
10.135213319483123,  2.468350939477145, 14.686275918155212,  3.628481018772735
 0.666100977775468,  7.088713736705968, 114.043364665014977,  4.105823913378337
15.181732970331973,  9.278453047430858, 74.503836599021085,  3.929047892346813
18.542381291966674, 11.706930249097876, 109.888278181989691,  4.022010907068340
12.975110233914293,  4.785744789046281, 52.277447629074913,  4.124687220795352
14.869111636681787, 10.813705645613668, 42.345968126106868,  3.836502826213182
 2.004436154583477, 16.351789923445327, 90.662366911638983,  3.889397963460641
10.758420849502082, 14.937707453537081, 12.928934238723533,  3.590343324938832
 9.714042823804876,  2.242149392726158, 112.871697456384467,  3.910497032624301
 2.040907820068068,  6.434541259159117, 103.451154902607087,  3.976664315672916
 1.824240067303548,  3.683920830715623, 30.953002137099059,  3.838270902647341
15.213602219488520,  6.369610706189992, 49.117719146231941,  4.147568441475027
18.691355891102802, 15.133995602726714, 99.491890649062967,  4.176965701860117
11.330304375357006, 10.100147421533988, 34.770609851618296,  3.902073421766874
 5.799454470370266, 13.295096642004832, 23.766843925678938,  4.116060483214516
17.021392892154978, 11.112962447705559,  2.149989195597615,  3.993667206134877
 0.538617036845823, 17.684069384900244, 106.362755213871893,  4.081140536513780
11.770166876701859,  6.289063431830400, 99.459612902199751,  4.069911137543986
 3.848115133743670,  4.570477281910107, 46.150658227831777,  4.054411451994259
10.356959699388627, 18.448063978669712, 25.649936572499733,  4.187147678754627
 2.678509274808978, 12.672558367751313, 20.499904142703844,  3.982853380153964
18.501997030944167,  0.439626413461570, 31.625489073537153,  4.156420956037475
 0.955665132013557,  3.710868533373376, 88.832896804912210,  3.955911522387264
 2.060485493236043,  4.255349577289965, 18.043599990545253,  3.953423519188895
 2.960699092925552,  8.681069817837516, 92.351447255502052,  3.754429060605344
10.771934725787643,  0.920756691378741, 72.024334638470137,  3.670270144727810
 8.509992025015855,  5.603842812047319, 101.462918041847516,  3.597626245411142
 2.423119616872499, 15.791021862352308,  9.642974739458912,  3.974987209253606
 5.318292988360081, 14.395376775398791, 77.582735984968153,  3.888337495994018
15.002112658584728,  8.604239896924659, 28.692069513893077,  4.210257792278501
 8.342867197294810,  7.888438966191603, 113.280185468931933,  4.272887024527167
12.028180571549880, 15.583157181754983, 28.096610072778304,  4.012240646055770
 5.360153390982564,  2.951044465153324, 93.639775315046379,  4.193765288916087
 5.991468998349095, 10.476296741928101,  3.054910957200634,  3.948342350816010
11.213905548876946,  6.601228216547614, 49.170462156492675,  3.796628683915251
 1.859171092522772, 16.293382667299479, 13.625566843052269,  3.891620739450728
10.369862566912593,  5.368126204005644, 44.578329245190574,  4.009670312612938
 8.167054516468633,  6.283085778358116, 51.845718527757420,  4.324600593160461
 2.372766310698863,  1.374721546247781, 13.337525613899910,  4.286825342027409
 8.606055866987546,  5.552734270440308, 40.790899215109931,  4.128056620902624
18.465844942641276,  9.535225818981058, 83.708938721221529,  4.090917996408223
 8.720337675937335, 16.084699804199399, 118.451561104688054,  4.178360181662851
 3.859173710019435, 14.416994999101288,  1.067917583886260,  3.975940476316190
 2.969340765523715,  7.864495831023262, 75.993129926555994,  4.152251853382408
11.992082835479165,  2.674385001089427, 85.664376658511543,  3.874231634969536
15.402225552064511,  9.446148944759827, 108.115717552865519,  3.919520598854435
 7.436113180532272,  9.421841481161429, 70.113570021458798,  3.977797888693562
18.753924608452373,  0.643303440858403, 65.120114235465778,  4.312882796480220
12.713757709040914,  8.105260970032989,  0.590522372574305,  3.454398332876317
 3.826911607077710,  6.052655357693650, 28.070251262489158,  4.274863290312927
13.529216450554658, 14.521866646135075, 105.503308843456097,  3.776131863018521
16.019113086074839,  1.306245228764083, 16.811384575819975,  4.251506881981606
17.704761853595361,  1.965828578344090, 107.256570240751131,  3.548526501706495
 8.664950416165615,  4.600399644636102, 88.345495079055809,  4.156352838586669
 7.607835255215148, 10.602978432575261, 106.868409509518870,  4.065771115549814
 4.746627332901512, 10.517409510567324, 78.762816480388594,  4.297437020372358
16.316716095387893,  6.806092291753732,  0.906425625060563,  4.050350220690019
 4.347014749769540, 16.874977950830733, 25.769414779907606,  4.108300207720022
18.901620907034438, 10.153325015886642, 13.143894898583282,  3.765344064563068
 8.043842662686160,  2.639731970777099, 33.713690379294299,  3.772315463704566
11.211085882882417, 12.095378014420985, 94.787751163639669,  3.794642943289339
10.653821187258098,  6.971266356536211,  3.388693439267020,  3.824272837137437
 2.183361235233611,  4.990995148964998, 92.242739142030814,  3.723680126762730
 6.333108774147893,  5.294115203820396, 35.853129417615214,  3.813979695585451
11.032208561295505, 13.460180081500006, 90.568881878368657,  4.110848496325731
 3.358079810413259, 13.778234502764787, 100.980364208128279,  4.109777680111791
 4.352236529463077, 17.305136381321613, 107.616536800534902,  3.923644761360036
11.782670058863875,  9.171751232654602, 22.138622084710317,  4.016319198860381
 6.939671045873647, 18.205618631977849, 94.154453646290506,  3.911808427054997
10.607972868547446,  0.253094925431723, 88.374434671319975,  3.889827829397168
 2.937908669532004,  2.587525054244440, 113.025326266995691,  4.008428642275248
11.541043677342987, 11.811093136224629, 55.111670635024780,  4.215618782618567
 4.098646324686153,  4.056275351984984, 39.026042730396853,  3.985575545597020
 6.141318641917059, 11.790518042491120, 72.970524867494888,  3.786141367574254
 6.621154892805672, 11.374021793145072, 110.733160145306655,  4.033151189147487
16.794162529757688,  5.598885322019627,  5.026699352619219,  4.059332836340381
 0.637159853335681, 12.353336212213367, 57.721050267336935,  3.569682266220640
 5.378645986517713,  6.657690565558961, 18.243479627908236,  4.066093725396668
 9.642302877777899, 16.440960352480879,  5.979967622567952,  3.926127056106830
15.815694348934585,  5.040358804971420, 108.557581724404884,  4.056067163428905
 8.812423267473733, 18.955687896525014, 82.166219197811245,  3.774737547234130
 9.873937247575068,  7.416664931931786, 116.996197915083954,  3.786427629112699
 5.345911487695166,  9.362652275988641, 26.333539812707610,  3.717210382935440
16.932476580829110, 14.084454556315547, 26.697287528279343,  3.707010284369804
12.936670502580901,  4.440832382972500, 78.964408312226794,  4.199154013583627
14.013060044198577, 14.823389881951449, 82.849055166677559,  3.837204569064069
 2.186157055551690, 15.553207940110088, 59.106057955527945,  4.054162126533964
 2.973046417460210, 11.474811700924480, 86.201202476739880,  4.260263513519631
18.583041163768378,  0.325766882703398, 113.518778013198911,  3.858891619517111
 5.657525072225708,  2.748380701630734, 17.345863687756911,  3.968116791066169
15.950678747027746, 13.710873770150368, 114.984465831744487,  3.700929802571129
13.437890377144775,  6.670429082997847,  7.105327838628521,  4.032685807359607
 6.421904470118515,  0.889895304669431, 105.395854541814899,  3.948489223605751
14.118233933881164,  2.230891911731403, 70.427148769676094,  3.910539143135012
 2.720762046548018, 17.631866375499989, 94.635848511131371,  4.106375502156755
 7.932086655916243, 14.915282480746711, 36.403944268744247,  3.766319012356260
 3.102317200985989, 15.530340266055726, 104.449106238386733,  3.626702484891613
15.006352652077886,  8.312505471078238, 82.169610660566846,  3.803983935484425
 9.396923427285291, 13.508494127152883,  3.117993238376642,  4.170795385240703
16.313095477347986,  4.679973816149062, 37.485753763564254,  3.947519270802047
 1.966953788121414, 13.552909975303002, 62.548108086044067,  3.889930861471133
 4.639815856470154,  6.888706189153988, 66.081117775820331,  4.249593176413440
 4.987170470065058,  2.902536748467753, 89.056562258843286,  4.040250438509151
18.634853404435280,  9.833201742346754, 41.622374457556361,  4.076789123534306
 9.435766679298554, 11.589769570085569, 67.556850807195730,  3.796845748277049
 8.371924515352559, 16.000176883307862, 88.921435058058691,  3.906112471577482
18.653044824653634,  1.482694654846633,  4.801373032569233,  3.801140638310071
12.487931932095165, 13.873857148883424, 31.620271319645578,  3.831362106927870
 6.992163183047097,  3.296724395406684, 43.973003510436122,  4.005814246784416
 8.819318398371033, 17.558734969212622, 60.956783513945382,  4.153945813288934
 3.768354285983030,  7.804483277323865, 57.890737439957185,  3.951499324546173
 0.227147858981434,  3.270150223155990, 55.827568310835566,  4.000000080943773
 0.171362514283057, 14.597333442894898,  2.854012916510835,  4.204249212166931
 4.179274030280879,  8.379970204537411, 83.614473604165070,  4.146080527648807
11.589930357096431,  0.747028209443680,  8.110254904420414,  3.724096356077021
15.135093068246777, 16.771863049600213, 99.574535516233993,  3.637105637476064
 6.351518443206998,  8.835104597887582, 116.726333123590663,  3.805613401934692
 8.109847446910706,  8.443821202077549, 77.379872143952127,  4.071606151802678
 5.482952833286231, 12.302783184399260, 54.639447517386955,  3.751677452194419
 9.521645908018245,  0.563543605908142, 65.868605187836422,  3.675245194237803
 4.565508616699076,  0.946341450384508,  3.566269512686815,  3.968169173230255
 8.094217474724015,  7.747779348854297, 98.299576515848699,  4.063783972704867
 4.513139573684799, 17.697687151334279, 50.248453823606965,  4.198919919172912
 6.541597938188692, 11.872226257061742, 12.702478856305660,  4.079452956700461
 0.164282119992729,  1.960379733406545, 37.481487394956389,  3.857456216411161
 8.801158099059426, 17.630151507289717, 15.693257628905682,  4.255004299133791
 8.745605384328863,  4.588993760547967, 76.783731395026805,  3.818316410853487
11.144461782719072, 10.111875572023122, 88.144674476604806,  4.132006115139124
11.828467560650241,  0.676407225249900, 38.899271782979895,  4.167860196701725
 9.213155472751025,  2.848770498897608, 54.132977934550858,  4.163930182967145
 4.461677657006893,  8.246910213391009, 106.007373500190369,  3.863279050519958
13.925376302468152,  2.735585317735096, 20.231416921004563,  4.210951328973361
 2.092727252020946, 10.929633474983991,  2.010300316240140,  4.043547876957390
13.830217627923250,  3.757062752884466, 43.138816685507052,  4.053239486115332
 8.781054126317724, 14.346647582789057, 30.018017729328072,  3.925342893213525
18.846084226599245, 13.970633576788060,  7.198481209651609,  3.937671393989596
13.594174326317024,  5.838430260407133, 68.512153248594444,  4.324286019288115
 5.075482850563836,  1.226209323294062, 31.366585613756673,  4.300373900657567
17.498507665801661, 11.568021897024071, 65.128944941790152,  4.316419738459664
 7.339108357989717, 15.251159265109953, 100.465407695878966,  4.340079991699527
 2.390091830157886, 12.577961073833331, 70.979466697125289,  3.905735154332873
 8.136774263043232, 12.033014490587128, 57.234590970476908,  3.637097766980609
 5.611754175045728,  1.766320018426390, 55.617525546520227,  3.885821739689414
18.201802775112981, 17.493306541803943, 39.444568436115837,  4.271527808036333
11.923772369838026,  6.175008707977461, 19.634002091156475,  3.796261516319809
13.774392707350275,  0.394802252130408, 45.166480201059152,  3.740098485784961
 9.268983481490782,  9.586627402078884, 73.681859182602636,  3.982020365173586
 2.724133361043853,  9.990622744211498, 29.257619359129716,  4.219028893723944
 1.734331937423160, 16.310264423195385, 116.837745985534411,  3.989046125304690
14.490995972846394,  8.755989109190397, 78.390755931619310,  3.859675806334077
15.088512751586967, 11.146039700136884, 112.134397997948113,  4.062758371921305
 7.997583233500626,  0.865236538711352,  1.889083517349050,  3.646992804985356
10.034088483800073, 10.359915448243081, 84.287065008188776,  3.889352799532404
15.262465604372425,  2.424625064423908, 50.059349806814922,  3.786541498536866
 3.104494664054577,  9.759062187813736, 109.380482367375720,  4.006230466460021
 9.676158863601296,  0.821639964968605, 116.952184262613713,  4.034080691642385
15.431383555935493, 18.509531746383360, 82.344154141471591,  4.102466162665062
11.263044710010519, 15.690058619882974, 72.494375488649084,  3.847838299540790
10.834110481956985, 14.648626091353519, 58.154517629637233,  4.083167291231686
 9.037505864314090,  8.420859135875235, 58.153979533671837,  3.971114422448033
11.250077792352672, 17.113967224699536, 99.634607739025043,  4.046969807230032
 2.220014911515348, 12.815151944711905, 45.044416366164761,  3.902171848631295
 2.281159002012381, 18.113643710677366, 62.223286329830927,  3.898904840162626
 2.873290705619689,  2.992119101902439,  6.663210409964503,  4.152435328247009
 7.321187307397439,  8.660110827978766, 103.319831959072232,  3.923041682610513
 5.989563200013038, 13.936247281071665, 107.809195160681426,  3.551477462127067
15.093423055719205, 16.969618162191029, 19.307066946164205,  4.157321260628463
18.011277063463059, 18.356856701297477, 92.765995416319925,  4.036930442720379
 8.326543250655087,  1.726999026362845, 91.174963714161791,  3.895693130155263
 5.303146334334648, 15.565658840428309, 61.714747543885153,  4.068209747367637
 5.906977580614174,  9.869806786235204, 61.574039009597037,  4.358320574726185
 8.637252549600285, 16.276693718050407, 69.615790453416295,  3.961814968817678
16.302078949918315, 15.937456274927307, 23.202511889825956,  4.247472468209526
15.163406269335637,  9.420249380607601, 24.234270697263856,  3.922095525202049
 0.576303152290768, 16.556831720715760, 49.847542232519174,  3.964987266312395
17.140743146685981, 15.198682965534903, 90.304154877644635,  4.122889841364109
 7.931743687649978, 15.390566078682728, 26.344945632070431,  3.733529619328817
13.830673442426015,  4.522357887217542, 34.328210629023488,  4.086761360237701
12.658291606860658, 10.036593275443465, 91.868562023692945,  3.891616363212384
13.101377691875079,  4.282281367585152, 16.377264524658802,  4.088251292626936
14.735533948659414,  5.590373057394336, 92.744622432032259,  4.020663648822122
17.401773901679146,  0.108051603357493, 13.072746649201198,  3.978168773416819
 2.298891096895673, 18.569479520489466, 28.821809974271186,  3.891139876358721
16.768565227396319,  5.967041597015222, 79.709095104406131,  3.807921783847666
 6.927305979984382,  2.116695962018968, 71.400539757769792,  4.433564951963283
 5.537713916631089, 18.127172919821874, 90.542519443270336,  3.777058597022501
 2.556254530210774,  9.765378874548480, 68.185447706363007,  3.979181437094562
 5.950182999191592,  6.321141468832113, 91.182293695498672,  4.189900075340381
 8.657542529223369,  6.791362364249025, 84.790208049954472,  3.797480667054415
 2.691917028685439, 12.779646102454997, 12.177797665829452,  3.717720806770453
13.397141969544574, 16.629338052702170, 89.514620122303299,  4.043582287866770
 6.713534142716295, 11.786665878389185, 44.500393757984433,  4.134234519593853
 6.021049052502943,  0.276434237913521, 63.734565843348591,  4.365585265144729
11.137097310778504,  0.769212416990829,  4.191963264856601,  4.136984587909322
16.391042706424621,  1.082770401038182, 23.648096608540715,  3.841649264637854
 3.550108327389989, 13.371563172659050,  4.992464729741688,  4.145851629108276
16.418683011668183, 18.280616240235265, 47.911746966119416,  3.976637851521131
12.696920301947376,  3.344856775717804, 55.930290559864211,  3.674125021078289
 4.900322286738644,  3.256034201395597, 76.301856989385826,  4.239479759865397
 2.820343204775194, 13.431379229404868, 66.479393598738795,  4.120722818238661
18.395987547129202, 11.395988075539590, 22.643961809045095,  4.213932287799209
13.483432670396656,  2.339354667401597, 66.331380170623859,  3.922968900703264
 7.953166716321862, 16.875644106760408, 48.204597596148616,  3.932403140658637
 4.046368817334119, 13.208586784172361, 31.716172866270135,  4.107044710153986
 1.224692098592696,  6.438317844535131, 85.830602099896709,  4.168496043565600
 8.412898283412881, 12.531732234547061, 79.488231229181764,  4.169368572581229
16.754605005460586,  3.313504617068595, 115.330999293304103,  4.002605619926427
 6.977704146250682, 15.903456165333544, 104.662106352453208,  4.127829747237802
 6.563090624471488,  3.983476265122453, 21.035488846349409,  3.976851424159448
14.222697303194789,  8.159937082573952, 36.907328276264487,  4.238891879903194
 7.859736693735480, 12.396308106378598, 87.166173550623753,  4.092782585821210
13.606163634853901, 18.517097987724643, 102.652315616832269,  4.066121488359348
 0.203229010111022,  6.382900877425064, 11.787566751228836,  4.261690581972188
 7.735635453747025, 18.752663861075821, 98.081130692384889,  4.146198192680011
12.151496237864718,  7.929788354235543, 41.989435524401671,  4.095190249515953
15.901403645945713, 15.136864153686947, 55.102527261990879,  4.134919500394691
13.005307344501775, 18.405503603609894, 22.511584407828963,  4.009503160371778
11.429572936746412, 15.832804727564906, 34.922422403385177,  4.044600041569093
 5.114260278117343, 13.752838013484610, 16.185459522280965,  4.322960836231957
 3.430028601011437, 10.121133491016749, 17.410324010843251,  4.043372493701603
 8.923235953211297, 13.256792457126240, 75.273875298993019,  3.990140227896688
 4.930939279109302,  6.145047433657997, 42.224567668124365,  3.829846261562631
11.195483357527520, 18.208644233061833, 75.382046708612890,  3.801486731869588
15.520495611487707,  0.984722044754025, 35.938073810937261,  4.200633062388189
17.432485167569070, 12.739922178289746, 44.379157673722055,  3.730596728834696
10.358995384438151,  9.811725732528991, 100.796154352987372,  3.819912140265431
14.718215746524528,  5.792524630712121, 96.768852422884237,  3.963172802801315
 6.000975279013247, 13.166767806352885, 69.225161081540847,  4.194510453213922
 4.611848786480610, 16.311041564953442, 21.197414723534539,  4.079473656086881
 5.964957409145354,  0.626556503110976, 23.148834084910330,  3.995871545168335
 4.265895841844475,  1.610335439300657, 97.266642837116422,  3.828795840372306
 4.869494726237138,  4.260743288130042, 82.727561911953728,  4.030597127398833
18.290811685769974,  9.309803156143412, 46.085161340808931,  4.114982570571383
 7.450015814223018, 16.716330098197208, 73.541210085964991,  4.268963493827655
11.969917324079509,  9.694177542542501, 114.456697358938797,  4.161342733105215
 4.151693064082759,  9.327322496824175, 47.023498204167410,  4.334938419776016
 6.667226963566665, 10.269763804665917, 30.468467256829246,  3.912683565640948
16.197037931294055, 11.266062990183155, 38.714070347065558,  3.917290781972766
17.672494613613523,  1.739734407060992, 79.592245322781778,  4.128214056790719
 3.587728083897481,  9.588835599406892,  5.857774170552641,  3.600706953434241
 5.588027629938559, 11.189803935136442, 90.457330580925927,  4.210413385000406
 5.931560753642618, 18.611706667687759, 68.309148933017482,  3.634314747996073
 0.608569192550251,  5.085652142204343, 117.609829345333608,  4.061675451596800
 0.771841684997596,  1.035059769209921, 45.881267384474015,  4.306994656251100
14.194278364223354, 17.426331507702155, 93.322017306086963,  3.865526815406115
10.862471942797320, 11.506956220871478, 18.771528221656283,  4.380297957894999
 9.487416813942067,  3.436639584093729, 37.167733402701188,  3.832629063182480
16.318641852819390, 11.641353749239293, 80.620112851539432,  3.991602482900352
 4.658190563826031, 14.643452863425907, 88.276232253231029,  4.012614702208722
17.460137222142830,  7.418503651948392, 70.150967356587671,  4.273773786298870
16.901641485126436, 16.692454937659729, 96.132668230979206,  3.776815488011834
 9.965449508835288,  1.253315204594186, 78.596878821872991,  4.140259003402873
17.957641458571349, 10.539948510423839, 30.490873010071279,  3.706513921988098
 8.526313190844002, 18.124215923492581, 52.118277675954459,  4.342925194748486
10.578177424892916, 10.320664445567600,  5.594821478113272,  4.197935982617096
14.330755773013603, 18.032302405564259, 26.132763089094386,  3.738250995395056
11.607962166972827, 15.346009137090707, 20.655959186055590,  3.649190065432011
11.713952310782366,  0.847169919025677, 59.416982063351121,  3.769037066000451
17.631319793940133, 17.840847314892329, 76.703059618355169,  3.980285306756793
13.562650204344376,  4.535553558110839, 117.518448544494433,  4.074829751831659
 1.091398460871176, 15.221979569911522, 55.149203905651476,  4.183489669129592
 6.867695367258068, 15.574098908343512, 57.958675121863273,  3.996308710186015
