BANDS
8 8
NANOPARTICLES
cell(1), 18.958
cell(2), 18.958
cell(3), 118.489
10.059240142318208,  4.837337862826803, 47.768533643022351,  3.630697409820811
 6.934937237071971,  2.528230267112624, 75.381503590650155,  3.970748285263628
 5.248616123045383, 11.251695554155779, 93.837228021024572,  3.634387450452928
14.290779814985294,  6.519784674925323, 82.791923667945781,  4.103693639012400
16.232166414438343,  8.413024274767229, 70.421330948144899,  4.061554610628554
12.935558023423747,  1.058120201311863, 65.352278519046507,  3.880515593595140
10.234003956980755,  9.703342148465403, 103.148432425854423,  4.106263997121164
17.147334187817016,  4.082399197855143, 77.565842273636562,  3.774249814967732
12.315916171270519,  1.371689029637820, 92.940701359359608,  4.209277505253491
 5.209777242621521, 11.565756872922313, 41.790137260987322,  4.007021636839789
 2.121641141349320, 14.608729867075828, 80.545576795649978,  3.664982636533718
 2.023544562775075, 14.106180201764912, 100.524420980441704,  3.974891437674345
16.697894750259451,  3.448040535697471, 81.384349848856019,  3.914496489475214
 2.257627221779274,  6.250365389201986, 18.007799470107951,  3.798449837524489
 2.226265785971814, 16.805063695443877, 97.111939521936122,  3.467724598577438
 0.741179371789326,  5.299373403727142, 29.755047476128382,  4.259163867173784
 5.228201559092704, 17.195827347294923, 10.977389709064031,  4.299871494587720
15.193588409259554,  6.396204664252855, 12.086637479398183,  3.880656576267814
 3.086640475444398,  3.049109950726558, 104.215323774005796,  3.948434706619957
13.017013305378496, 17.766687677701448, 96.024033102705204,  3.924828216966344
 5.980435386199158, 18.142248921646953, 96.988345616297920,  4.327409170393040
 8.124710547540777,  1.606210409579395, 48.040707067966132,  3.919324775654172
13.980834085703778, 14.820608234783707, 103.166850725084316,  4.125567555583682
 7.646742564982512,  4.867926751884781, 29.220591500558918,  3.946229976823641
15.954800957354839, 16.658286722586723, 26.851023314175418,  4.015963098855745
11.575597200527126,  5.749876919494245, 13.856287353766410,  4.135291768639690
10.740080742469752, 12.254434276463600, 115.385076984545350,  4.197449829032773
14.005645501168944,  3.093443005919336, 57.629682950587984,  4.299015550497288
 0.753025489647121, 10.173285786793503,  3.290275595046927,  4.056890950272741
 1.977372041555976,  9.027441955035817, 33.913247898181851,  3.966665934399765
14.306324810820094,  9.820346263694931, 26.105799010548360,  4.026770322783077
 3.683599567599397, 17.243247033425568, 53.469905270552928,  4.176767659060749
 2.626689254681779, 12.481758456789604, 117.325855385642782,  4.376485070332215
18.605345444306071, 16.306245539133990, 66.783241764965027,  4.049273179504888
17.634751526545305, 12.735888190451250, 103.508228068564762,  4.011572433902176
 7.595280689964615,  2.761564211002276,  4.617934828024723,  4.307638872947864
13.596109720207172,  8.821042732550209, 40.962582921646671,  3.962349733522613
10.195100520498720, 16.494895039184179, 56.239717954651042,  3.910543281964863
13.421295960508976,  4.592797194119271, 79.169713373994711,  4.284168567406420
 9.270389482836753, 13.910989658674684, 59.082296192945819,  3.935293905657732
 8.984970715028775, 12.111416396491061, 92.852185022068454,  4.146515544229594
 5.526216613244308,  9.539677543241277, 76.906563330100482,  3.977479210149886
 2.112571352982002, 11.434282332422391, 105.272080092380108,  4.014040383950601
17.988787160326996, 11.781799287370658, 60.940682306647624,  3.963413945984774
13.287255303884139,  8.226059543368956, 44.795070772231874,  3.791072301686584
 5.000027587900775, 18.310605330001405, 29.997947079068325,  3.817835375301422
 8.570727101556914, 17.220537982628464, 13.502285982260235,  4.060701720850555
13.361486558738479, 14.704584328072357, 113.441227348768678,  3.886301046473342
16.316432013049500, 17.019373955212128, 112.816452885474718,  3.691504844466057
13.575530702741311,  4.407893353866087, 49.584588302010147,  4.330034999651649
 0.514775110374426,  0.979355708114863, 53.282659854152342,  4.015818385555238
14.953544058173524,  4.648735835069728, 35.235782854954429,  3.931266230777795
16.302329794796655, 15.997078779932718, 84.052435492331981,  4.168869013153430
 1.493959098553348,  5.090706190826833, 79.163688501571144,  3.833063222811729
 3.688261182858326,  8.410002860855540, 52.146471889754871,  3.840593792948655
 2.590392861060781,  6.387417674620472, 85.513879614424027,  3.818266214373688
15.381355533569726,  7.747769611038974, 104.892608456981506,  4.014005198965015
 2.679404374857873, 11.240187871541828, 45.869514681111674,  4.076938349964531
 2.847007593191774, 15.777625321751900, 63.972440260554613,  3.889133117849287
 1.485156491936380,  8.834962785344546, 70.668073251718340,  4.396933906830874
10.761357741573686,  1.594155680498574, 116.904076316949414,  4.335765542381915
 6.169998536242866,  8.555162211274318, 28.177157338881685,  4.199292331664348
 8.985124814248692, 11.413126516152147, 11.268852230797657,  3.893383223387608
10.740783132900106, 18.696367344282230, 110.184232321060108,  4.030511122375612
10.869042172815231, 16.944366783199950, 61.165236952357404,  4.012008509593866
12.432485317782989,  4.668803018344803,  9.932314848884740,  3.920488296465387
 9.266969339187391, 17.857074792064392,  1.606776784337766,  4.139315746644059
 6.347876052654501,  4.048344607930376, 41.440603811747330,  3.590781163162098
12.999311687267259, 10.756464069954639, 69.973731876425944,  3.970046182638273
11.869952159347843,  5.860361517116345, 30.062870114629916,  3.802154460405600
10.562068437199889,  1.663714995784401, 12.757404006549832,  3.929103368909950
17.326769616802999,  1.299242103853856, 27.983480821777974,  3.872769068821676
 3.519062718183704, 13.262153968340696, 34.048746924168633,  4.123598677327233
18.829856455085643,  0.901001119703486, 102.654587199257293,  4.145615901320911
11.658878204478494,  6.362113221974713, 104.789546684066067,  3.864916203795907
 4.258135841108595, 16.113420294495402, 15.386139543399112,  3.707383929404436
10.671130363376619,  1.766184752740162, 19.835493248298889,  3.771172671681447
14.952310193569401, 13.341590243588767, 99.455783780300521,  3.954199161442930
17.699301933667833, 17.736870680438216, 95.199329495371572,  4.121495354510296
15.229929977328762,  4.344916384888470, 65.802319715063447,  4.150113867300931
17.877465352852091,  9.036089476653833, 90.024877682957253,  3.839093206852039
10.528305842647232,  6.603778118241036, 81.328647027046998,  3.896733239812798
17.866748019574079,  2.131778949725407,  0.888313777943957,  3.942712843861690
13.798079949380570, 12.999156112171290, 48.628462269337618,  3.896449623256983
 0.668536098441605, 18.866874255214839, 113.288678526837444,  3.883619770871572
16.213270207137292, 12.250288887105445, 86.087109946239408,  3.931893147861464
 7.662541178419465,  2.178558066335658, 60.137180655631944,  3.666130697929575
12.961817256698277,  7.308279587976449, 67.705013981603940,  4.092135721899470
18.368401828100797, 15.046878096268850,  6.483950485088442,  4.032801759638181
 3.519159789675137, 12.369960713348322, 15.571440908136340,  3.852600680387533
 7.267065650472942, 10.549804831031080, 113.888447740971060,  3.943838947678239
 8.863940737151367,  1.390961481293618, 90.510655743626657,  4.208313969048626
15.544008153207924, 12.329030600746663, 41.023760673974046,  4.059812654546460
 4.898932253146205, 14.624903745342568, 22.420102246846572,  3.887243524998000
14.265975505450774, 17.158326980814991, 11.844929828805169,  3.955976965751780
18.003756300519626, 13.655227707773690,  2.852938250893891,  3.700765513034149
15.266167166841221, 17.430027224819117, 72.305262743738183,  3.609167233629123
17.776606581533375, 17.426009097132461, 46.507235080314416,  3.777932545908356
 0.342911455715852,  4.473640595827217, 96.904528869963926,  3.803077584914878
12.210609260878964, 12.189864477824448, 35.370346880964910,  4.043508000897452
13.205362291396735,  7.419251423958172, 20.364116595959658,  4.014516185156444
 9.918299376710427, 12.896934190245744, 14.952575149377711,  4.003012635124391
 3.454829553984679, 17.696512548420191, 93.413591565268291,  4.457479053893743
 8.814036979258695, 17.096258391620310, 69.398809957039873,  4.053262799438967
12.145257870315916, 15.581658453248711, 50.835397862650360,  3.626349813836625
16.690058877838805, 14.925518725955930, 50.637398338407017,  4.097668083331668
 5.391972147461536,  6.706546700884954, 20.374160818030578,  3.959096629454942
 1.680249281055311, 18.337414714645732, 13.190040711881709,  4.341627526755716
 9.430080463152423,  0.053380705204373, 106.688400325499586,  3.454650023558419
 8.667146916849534,  7.837664814820382,  1.737204688968757,  4.201805167575984
10.531467892768980, 16.415931796823404, 81.136036262337683,  3.817843225498924
 4.322286393919664,  2.353545215078328, 52.154598440401131,  4.363759310726368
17.067563779624773,  0.613881770086585, 59.704803394026307,  4.367879094898147
 7.821274295317905,  1.583729596033482, 31.233900300766432,  3.721019233347736
 5.393164283401205,  6.072375255385519, 10.324331531557043,  4.305847075132931
18.648020580476445, 15.838207669624605, 71.009531092563833,  4.095973649263633
12.021637584433066, 15.354402433155411, 92.954800665461519,  4.076085708201985
11.357046498478679, 16.783236616128100, 72.750677652656321,  4.362494481462384
 0.429799758941113,  7.231077702211346, 116.573094382045312,  4.141629558512304
18.787956333701420,  6.862063465515259, 106.892484307418727,  4.040264394899339
 6.502544903538885, 12.625589766680276, 107.054162222133428,  3.987658474791466
11.732519289931274,  3.265738380990395, 37.219576926024160,  3.836648032119260
 0.783904370933451, 18.398662357103859, 56.958856816845007,  3.628965556936799
18.033177086415392,  0.408044804531209, 39.905795474646332,  3.782260203256900
 1.174283696594190,  9.575891937002227, 109.226863950185844,  3.582467972986022
10.567258319689678,  2.307283990089395, 86.568461251292945,  4.020184770237188
 2.552116139609923, 17.421712865743146, 32.810445422835407,  3.798231758147197
10.752428568341978,  9.984716517973780, 52.463707469143856,  4.035483408671898
 1.205009825702771, 12.665711724073651, 27.797928220415105,  3.841457437870123
 2.578642694583010, 14.417949255127464, 12.431130527879372,  3.831856086359039
 8.055111746993301,  6.179206962512985,  7.329653154926592,  3.693825745766169
 7.087130837505436,  0.417747643679672, 40.791506989873028,  3.898762773174654
 5.605534643661481,  4.530282883812185, 17.077299240387802,  3.949849634478217
 8.736439622001489,  4.897870193180188, 99.462561131632341,  3.812624779428355
10.516882514704937,  4.802143170929641, 65.114640590917659,  4.348247823972760
 5.021505309167952,  9.327505064028266, 55.858301234333645,  4.006246949555575
14.230963571388516,  9.649093089489359, 89.045216305037641,  3.798178755199192
 8.369961587684122,  9.026850955733103, 21.240570858624466,  3.772465727404494
 4.901895238047595,  4.223506513186813, 61.902563377973863,  4.047866852259455
11.797540778338103,  6.152388010475424, 85.888998648780969,  3.879406285051591
14.985182280535028,  4.923589475558599, 15.982392005177761,  4.015834814396093
 1.652030260154056, 16.490858616177103, 84.613693750938651,  4.133171407728527
 6.878120491106340, 16.645463411138373, 105.315907038944502,  4.017945305930042
14.032875200796900, 18.901767658890925,  0.719451838566858,  4.273139958252847
12.340465250615779, 17.637014302457395,  4.332110687030242,  4.071813084894432
15.179734391821636, 11.059493574461353,  2.240858858631896,  4.050576964755203
10.442460507801234,  5.620465917991392,  4.523472234392822,  3.751984396765486
 5.228810056336776, 10.364874606075237, 97.613243202510816,  4.121170418588159
15.289179027729860, 17.669317414339272,  7.188048000109231,  4.088663907404878
 3.143220321999895,  0.439377934998501, 110.138631935952176,  4.094663218445873
15.026836828292769, 10.655166006210081, 22.102117539515852,  4.179408009341332
11.084849802746497,  8.255974457899823, 92.538319117132119,  4.071250484445233
14.445118060116165,  0.106678954823186, 102.389056295951946,  4.297175048809168
10.430403279154461,  8.692666773870069, 27.416246982850154,  4.426500503960583
 1.062155705041061,  7.780543434949254, 112.703612012794835,  3.752031073417099
 0.639708572067442, 10.660216750929957, 80.090624874514020,  3.945989721588387
17.522565474795414,  3.658582207350002, 50.885630673757795,  4.110297631405746
10.414523570546754,  8.848911586044013, 74.439233559084215,  4.109257804361217
14.979225444615428,  3.387733540745427, 116.886025003174296,  4.075725741967317
 4.252148928723233, 17.698892812884964, 19.854160043180539,  4.197683111259347
17.865867682731704,  7.555721347902212, 52.091507983583064,  3.997008571805819
13.133342283717569,  7.413948124969412, 115.001672595031295,  3.843862944685561
16.699239291295189, 10.392111217180750, 10.935751242875446,  4.341365967598412
15.959386502786835, 12.978626893390256, 90.375201134936233,  4.113979944269299
 8.555484645600648, 17.850432739546360,  5.816943876936426,  4.016711586057273
 8.488441819930644,  6.928802960849437, 77.421398349253110,  3.946473198806584
13.329310167627613,  4.905219804007398, 41.151496219560080,  3.893614848057930
12.612210055250396, 18.439833085159982, 68.988845871739272,  4.040859553157779
 9.006364616825506, 10.755352709659531, 42.437135667019263,  3.849976059672780
 6.228087905140645,  2.377994717676948, 65.351879304212133,  4.207867285297630
18.396210987157470, 14.289184992685078, 24.529976956840894,  4.211756025226354
 6.683443705811934, 14.664746789561647, 55.596952298213068,  4.096455883815613
17.163705467627363,  5.007630066320171, 109.962294740113492,  3.770368243830613
12.357883623437015,  9.995267501104967, 97.528985767795533,  4.340075423390335
 7.863990564750487, 17.041924872584385, 74.924581314595073,  3.860802740375022
17.321049148189203, 14.848959601466804, 74.994803128792256,  4.431052917871492
 0.035915876649824,  3.502239166651141, 37.497856148875073,  4.159380818965269
 4.455541134034869, 16.211444401790146, 118.343581169303008,  4.029250455869250
13.807479343160962, 10.270063415848096,  5.848817225415948,  3.824057527071717
 0.002185678786664,  3.785922821018696, 46.370132777343663,  4.255766009293278
17.774022450214279, 15.372443701984595, 12.132783642375422,  3.910721966247815
 9.698352235297587, 18.885443635372397, 28.211336131922817,  4.108587644919345
16.314846344049627,  9.942693310819600, 55.060711354433224,  3.721650274823390
 6.561094612264014,  1.754265210344623, 12.726135967643208,  3.945019999481873
 2.742345398987172,  4.166103509975309, 118.331395467635218,  4.013131526822366
 4.786509674991864,  5.658694278264577, 77.079733341649998,  3.890890240142075
 5.008419074942122,  2.054587493281750, 79.070025492501728,  4.351509486782805
 3.173006909140030, 18.187211501982077, 100.622799785563288,  4.295143487693715
 8.854062274312954,  8.046126613282361, 31.373125017964927,  4.062606072079229
 8.059721702434221, 14.392840664879499, 118.322030881337852,  3.983184345220586
 3.304316771554588, 14.710848978330349, 37.906088476755805,  4.114133045271244
16.067665141323261, 13.414314147035775, 68.801796685856473,  4.112451390049511
15.076870078937938, 14.770899211997213,  0.398261783615362,  4.230425631386495
 1.334862692844871,  4.812555692596492, 53.494731148447705,  3.820814785422038
 9.786924788772074, 14.237071766261238,  5.484654602138261,  3.629987101840003
16.143270172409906,  0.147641600439812, 18.936066722197751,  4.157959845241169
 0.007471670479400,  0.096899823460583, 90.415263649356703,  3.657776593390773
16.989527562464225,  3.383858496675884, 99.864908813572711,  4.018396978207487
 4.554019851818586, 15.930564292143872,  6.960896328587715,  4.206233044428961
11.995617530992018, 17.767881690266972, 89.666818468524227,  4.064846696203869
 5.095633177269919, 14.455579457036382, 47.246968189532595,  4.011902490284908
 2.299678417217523,  1.486547576251641, 27.615897043715663,  4.011613286476907
 3.765622959996790,  4.157550293579686, 68.082245513290957,  3.959410172107201
 6.262110599655042,  1.983579907466771, 93.656675962925448,  3.898971561278506
18.282346445016749,  3.247188190209450, 63.059146964251603,  3.753893708150902
14.499481769428659, 16.199096073464432, 66.069838024643573,  4.219007324189817
 3.918565001547168,  9.865264637451126, 88.572496746175105,  4.305710229072314
 5.541424628116569, 17.662696686202366, 112.942253932837801,  3.956564212651092
16.131574033086277, 10.172417577511533, 46.340689913504370,  3.753835839102710
11.297931870052267,  5.002554487834571, 33.770390939061386,  3.881993494752805
18.313227886119790, 15.276655616673182, 43.327906287851462,  3.967029265803542
 3.951622755636968,  4.080685093587924, 23.061284357698980,  4.037061477680854
 5.978839579811878, 14.209755123079949, 18.361655820661618,  4.028675514118100
 2.775462860374497, 18.864411358902050, 67.745584021427206,  4.243739333396948
12.018385699440309, 12.528490632379391, 90.194666508635038,  3.817518008384098
10.193694031230859,  7.588753500928021, 112.381425825281411,  3.964501032358984
 2.158192931081749,  5.477361011216071, 64.596376950190731,  4.036663666362013
13.551572842097421,  5.974902045027810, 25.731544420913561,  3.829085022574060
 6.227181358801102, 16.983742637182505, 66.176668351841784,  4.213885666654129
15.663512469804941, 11.410632509098356, 33.259064367470678,  4.152041243251658
17.383732528882511,  2.854421118266995, 88.203130478550179,  4.083492429108816
 9.183578364239356,  8.836075789556427, 84.401375785815816,  4.119629212955903
18.328927724512372, 14.341045336477377, 97.465195267855137,  4.102881809123192
 9.307013613943166, 11.842279546659292, 70.519519538561710,  3.790007997612819
 0.065041546521229, 13.399462580536916, 31.645032663496675,  4.296175994436810
 8.663273579791056, 13.037871666973681, 26.069287372110523,  3.785789409851455
17.168649384915305, 10.719039387241928, 106.964193158221192,  4.031510354646345
 2.404277712504065,  3.536973550661215, 100.218656830794089,  4.201559331723164
18.159821642184326,  4.699823443344188, 84.794491297434149,  3.822023503734592
 8.410337641061439,  1.756534027533372, 23.688256354692221,  4.173817398343791
 0.490384592485613,  5.196481989142533, 25.338132942908874,  4.018729025762315
17.311809035490111, 15.551172565241332, 58.683335714144313,  3.800055210653684
15.879343016796321,  4.462620883277457, 69.802837001015874,  3.955708260446149
 5.590908198471603,  1.582271306645549,  8.529095818682917,  3.996525945626843
14.431853031314320, 11.132693172634411, 116.777935560879811,  3.792638051564702
 7.322653287596766, 10.406738232957052, 60.241060752647833,  4.384157880988757
10.042450653216038, 17.025380981218895, 47.875334313852420,  4.132547598380524
10.025185707101977, 15.458966596651337, 107.314146773518956,  3.789590510370142
 1.257047871782483,  3.535492394370952, 111.934386650055515,  3.934507375015336
 0.740468532269438,  5.690235485558000, 21.447399237976953,  3.802920486923109
16.558945174906434,  8.910739514712164, 110.587635105178848,  4.152589579344466
18.379952489091696, 11.401550847116122, 43.572954829439809,  3.779069995860035
 3.281894033573779,  2.544806791542773, 39.785223697551281,  3.988229121051615
18.794128540798845,  1.819792561234577, 21.666335773430625,  4.154802625584925
10.882292225538448,  4.348381846742120, 44.121931931197985,  3.858363481863216
 8.692206266004240, 17.743660263599708, 87.320317510616718,  4.019801855051020
 0.804060659041600,  4.600973667922675, 70.992224085152955,  4.159599674470546
13.552489113456177, 13.504633334266922, 76.222381119277514,  3.919493261946024
14.223242649519195,  1.367900996236973, 109.108832865628003,  3.942345041505995
17.412537174245454,  0.078578106657381, 10.329308822965627,  3.969437385820938
16.546236127491170, 17.112934472442426, 108.994749595320897,  3.965712303254141
 8.551441885863598, 13.583860696247623, 67.020816919356790,  4.148692357107334
 6.695111169273039,  3.030945897948057, 87.378311265391844,  3.992423380115961
 3.131533984077586, 15.656677886058580, 25.932106581130451,  4.149173183018594
 7.643473669570235,  5.765886373711597, 109.687137214637573,  3.773215851089401
10.681098108354062,  0.771171484712258, 58.357661573544860,  3.856755216346911
16.529786011873455,  8.116106831874395,  4.429302442509425,  3.659141463234137
12.921698403565591,  0.736657823636751, 40.805353339605318,  3.925318135808050
 6.497541137486823, 10.227467422030200, 24.428259248143547,  3.999942522046438
 2.001435674717057, 14.930783498421855, 50.184299503220579,  4.441151566533982
12.492790638664461,  1.916575254553748, 105.577124578050359,  3.997740037511092
 5.055763910988646, 14.310746735982155, 98.068201894573605,  3.822030465000591
11.623116121059351, 16.340643073701653,  8.041710584714812,  3.887226057189269
 0.916372581979653,  5.677490554287441, 40.729590302762496,  3.795233018937572
12.287898636152702, 10.206439856875475, 13.099751300497971,  3.821430796255741
17.384071257842383,  7.234879770749241, 63.450433939768715,  4.421614259302664
13.426246729258187, 11.275320601550380, 105.076973164553209,  3.984545620159849
18.569046881296138,  6.020794665885363,  1.909564084888979,  4.044661271021353
 2.986835120718706,  7.265819301637975, 96.308079387811546,  3.950382833027054
13.392773164173757,  6.557038598966901, 62.862911234134351,  3.750275876687523
 6.153616944754078, 15.456675914590955, 40.888602355671281,  4.157877064437514
 7.717489073154173,  1.166964347749859, 103.609469366714080,  3.911655298009393
13.705069331666309, 17.131933408055151, 58.228975868057759,  4.077726184357623
 4.690126679564552,  3.717905286252746, 83.520327818270317,  3.972698900038545
14.498833598192464,  3.090944255327626, 53.451998535500486,  3.896867486960143
 3.285173392198952, 14.586009064749586, 43.659013352938288,  4.001322882140016
 1.084146820306034,  9.730924322961361, 16.920060981362003,  3.782366471155997
18.309368194136141, 13.470935140587329, 47.043276662856428,  4.263717882623838
 4.636177854405052, 13.933728547900593, 83.215145730345597,  3.730761132897346
14.525572586452245, 10.352732114847260, 62.816926939237639,  4.129886948941508
 9.859272268605912,  3.141900487581573, 40.581870642253506,  3.862144464903523
14.375413784549698, 13.598526863870743, 24.848070088286651,  3.936154760595509
17.102234324627080,  7.400603091880069, 18.833274115476399,  4.305061158766675
 9.667533969976523, 16.598953291209074, 97.622093388389885,  3.763312072013980
 7.487439438698133,  6.121712949337462, 73.614066763995012,  4.054832169353599
 9.424468685372737,  7.805032266184080, 45.402489215431004,  4.062077799386071
15.805452615021775, 18.827189604024952, 98.540618209133910,  3.853600652830523
 9.683673686671391,  1.267882370679958, 63.200003863280521,  3.857418382426985
 2.623892936969541,  0.919376083584207, 63.551838860967926,  4.358668362454877
15.464162507597136,  7.573416527692839, 118.310901592439251,  4.046956977267312
16.996527656251846,  7.517096948777902, 43.126843653129818,  4.459155221980339
11.557339885599621, 12.357965359521287,  8.369184216025198,  4.047213155720545
15.943099733099285,  1.531485755070560, 47.905155142483082,  3.820068319820471
 7.546329693014704, 17.499445503656439, 59.048269153713925,  3.916861445530873
14.582526361549169,  2.944123800150915, 62.061353025668076,  3.911845854007951
 0.015351499267436, 12.987418742048174, 83.313947174991668,  4.007432990305512
16.265075392938179,  6.020617525417137, 55.601121429016771,  4.102613977577823
 4.233707986075363, 13.916140628033496, 91.010668449992920,  4.292374435150154
 0.813359825132142,  9.843607182424297, 20.762280794629753,  3.844588837666718
14.365028577966214, 14.128953568956469, 61.021247855668420,  4.224082797190798
 3.298487145880171,  8.654999216250088, 66.860666728880773,  4.042473471700026
 4.112658824671215,  2.802731998723604, 47.768536289663039,  4.347220124957189
15.190439924957722,  5.985626178391753, 89.986284148612924,  3.935866945332490
11.959683172984365, 14.441540915147861, 21.926879397046083,  3.819663933851189
16.247844131685348, 11.012076777089741, 96.571867483399899,  3.896093127463387
15.627752724975419,  9.998408390039645, 50.130242342864662,  3.639904822071403
18.746071694647153,  8.983463066351934, 103.279033500112916,  3.797745842705032
18.828951690167465,  4.498603924407213, 33.638128458056627,  3.750819198059059
 7.698090928181262,  9.327289806273521, 80.568173797883347,  4.085905643029879
 8.295238245804612,  4.529090017459025, 68.801915007429486,  4.130173373946416
16.819367420793760, 18.836028381790591, 116.151340820976358,  3.969026432079201
18.853690182462930,  3.269880280307687, 115.654608179500769,  3.995047962842566
18.638296247568384, 12.114262361359005, 52.842685081705980,  4.015231293580960
14.842448238916903,  0.200495072022831, 82.225647464083892,  3.642720869261933
18.647837540260348,  6.535848938890709, 14.900765627535970,  4.272947630032383
 2.081640745009548, 12.857876601197173, 77.239428592323165,  3.791347086830601
18.700854311572169,  3.034157008176841, 56.525943824954560,  3.816359902602056
17.350417160149576,  9.892737167226027, 114.359694756264162,  3.769321639113492
 8.806354483789121,  9.061793138622676, 14.457604457611579,  3.994764664188709
 0.215978495739721, 16.060306557853281, 118.273158272636550,  4.435321837087400
 8.820151974407686, 12.603228638435212, 82.486678292076206,  3.805603416284701
 7.811541881735309,  1.067848258043187, 82.460843349897047,  4.312958240084064
 6.358205152808137, 17.570635182214087, 37.224950007748056,  4.186514347183331
 4.863879348525181,  8.836785519008879,  5.087995319494529,  4.142255625673708
 5.875877147804099, 13.543524423253219, 76.109285296272745,  4.207795688771800
 2.596245471987691, 15.818273086954107, 114.810624947700461,  3.922970568087435
 6.190780031101627,  6.511457698265758, 117.194745603950381,  4.048456828091897
14.571498784473343,  4.255212247945877, 103.003155077529854,  4.086505870281392
 7.132776913403527, 17.166642041138193, 109.334347819175136,  3.976220849164958
18.534336642316180, 11.392668279759588, 93.236619371210537,  4.191744521521239
 8.389472583339474, 12.849098366455179, 21.989666963465314,  3.979505808796277
13.092200099000298,  8.646380926219123,  9.467636706936116,  4.189025312323593
12.530332470707743,  3.733160888471077, 113.726935768936954,  3.926379471481045
10.010510167954163, 16.642766432922549, 41.070348443190873,  3.918890056000568
 2.278471676421737, 18.767924949258344, 36.720896143132450,  4.370790839752473
 8.966064891092634,  6.121171720686300, 37.246270120256540,  4.111778925517978
 5.305378976924560,  1.086368174527683, 34.153520205986332,  3.945690841672381
 2.354569559782055, 15.462132521453146,  3.575977210764114,  3.917354421492952
15.131507147074208,  0.443164219544635, 44.164143773556113,  4.112479995389292
 2.247839176322047,  8.938379360525525, 42.583784626492644,  3.937981305050675
13.093720353200942,  7.827292398521039,  2.993700272633986,  3.788687875890655
 3.824103581256324,  1.829772717313819, 90.272841868440551,  4.382543273011039
 8.564292566688158, 14.450575318316744, 44.159858070311330,  4.174617572975319
 4.740922520213639, 13.838984766608418, 103.428033052712124,  3.977204332479987
13.833232631769242,  6.192140187097840, 111.145978183321716,  3.618097441643921
 1.595131380112853,  6.667169760826111, 60.844928326807505,  3.857202245573320
 9.695644631337482,  0.620519895037260, 43.750869197152142,  3.989358203414278
 4.110395228283459,  9.886539152120276, 111.434136484089422,  3.692940000147287
11.024368708651611,  3.993833694089933, 60.637711954932165,  4.024710543264687
 5.822845127676397, 13.810870207162640, 115.269417042494709,  3.612812380235883
 2.976151980631572,  5.337264257050805, 43.998688192870141,  3.933058723661669
 5.106643983175039, 18.686991122637014, 85.503492044298724,  4.237481872767349
16.659754216324536, 18.682127456146183, 14.799470980179256,  4.215014618817127
12.840923680229590,  1.252090578050030, 16.343579226165861,  4.510311152401793
 0.406224846026911, 16.650762640833495, 21.187902316928675,  4.171109057750136
 4.613082994872788, 12.744943773717885,  9.565519050767474,  3.944400410105144
16.337730108524546,  7.513039695030582, 79.426143608861651,  3.952132049183446
11.369013009392635, 14.247593896735925,  2.039931559874749,  3.944224409556387
12.200880731775060,  3.477411558815084, 68.687293190410671,  3.962322849507359
 5.770965108468958, 14.996491024578246, 87.249126664890994,  3.962254918889098
 0.546721212868724,  7.355920231936471, 82.269796507276936,  3.969680272258727
16.551479253256762,  4.057049574303722, 73.656919906809023,  3.888557923542254
 6.940940833188298, 12.235255645874673, 100.651724697158258,  3.780827824699756
 9.537293213978014,  9.364583187463774, 35.030755118389393,  3.756629420151139
 8.985320833453120, 17.966559872942263, 93.960685612069028,  4.166426436514466
11.778632589282157,  8.663058446649194, 16.930573237888929,  3.768234038819134
 8.982716737630366,  4.780671022130464, 114.988258787108023,  3.864620347432895
 1.101620520246508, 16.579540944581808, 77.537847679328408,  3.792557210628053
 3.152829883824371, 12.723578604915797, 109.110763344803260,  3.849821266028478
 6.477507049332169,  6.383367443087659, 65.768124036176005,  3.852468919821018
 8.914785595674775,  2.727997978210411, 16.147406721023689,  3.811846135942891
 2.487809248673290,  0.373976525576847, 116.749901328753538,  3.955298923302471
13.316176552214673,  1.858772297181883, 72.280214469370662,  4.184166027530294
10.781431273276876, 18.390771575255339, 37.543923583256159,  4.088025300699440
12.862153506608090,  6.933151904189309, 37.589697598657530,  3.844719374417286
 4.697520364166651, 11.329362007997466, 69.501561124932721,  3.966294786882268
 3.376047575037098,  1.055511881932798, 75.195418266235549,  3.716713915757006
14.035462238122191, 17.459910680129784, 75.945292472206461,  4.043232253689373
 6.797626964297628,  9.541348733151024,  8.562305365702754,  3.842034081754916
 4.950818061561477,  7.392677194857531, 47.043943297864466,  4.392829350666721
10.299373482415364, 11.700001826970370, 107.275374457307379,  3.701499241146863
13.057819192621757, 15.537693726403278, 109.692763988640309,  3.809153375114631
 9.372491774921842,  3.254593690633286, 78.549625650033533,  3.915823886819862
12.238629380348328,  3.281358385126318, 23.121569887003595,  4.086359579633272
10.683539961889064, 15.906836329578349, 77.344283376827761,  3.834593777839974
18.326248590592641, 10.123747355708742, 24.502685291189973,  4.049516920490276
15.764780031291311, 15.322252947895832, 17.152430839146550,  4.149174252224767
16.485260459567744,  9.902050068775822, 82.928167108622375,  3.956693564710556
 0.545947954203017, 16.917880663304469, 29.101635831883812,  4.405296323011097
 6.394124845770727, 14.509272200455280, 71.856614169432419,  4.548633895042009
13.393441489913865, 12.108519790850597, 16.752131176420932,  3.812633478050639
15.725248414475599,  5.789228423897685, 31.324829464033705,  4.285707157534454
 7.574281650780878,  3.856937385578888, 56.523042423436287,  4.258768244860764
 6.699910382283448, 10.159661910943646, 73.043067686972847,  4.182548525251748
 7.290854400292613, 11.180616743064872, 64.204605844079481,  3.668250945291250
13.476828745079978,  6.331117367057851, 72.377114995206000,  3.808216146991577
11.754912641945866,  5.603861063010318, 118.357678807163467,  4.260900329112278
11.679942893350141,  2.071943393930078, 31.109771491843336,  4.047543527033481
 1.354784988253160,  6.921364752140748,  5.426909796373224,  3.766503485431764
14.973963588678622, 17.906876198870332, 37.688683574156883,  4.304373864706912
18.544739698466120,  6.604089291936204, 67.557853734363789,  4.118753314821577
 6.340564390040963, 16.222604125919609, 33.227088570897905,  4.184558085249914
13.414143944662399, 17.703616488502480, 29.722210488320897,  3.930947244556073
17.000683593866277, 13.325116106249558, 110.858257314040699,  4.324585338719067
11.117053582198238,  3.767487405762622, 110.011704755391207,  3.994802992334428
 8.630166199021264,  2.589987375648909, 52.426610925095154,  4.274044378213210
 8.826268497973414, 10.985266533523779, 56.197109624504222,  4.320657921582142
10.642577790901576, 17.229738579906250, 103.576180798537223,  4.094069573450744
 2.928100792695140, 15.464043657964705, 56.878386046049350,  3.633794810873796
 6.835846895636811, 11.195446213644306, 32.898069084348393,  3.993394026983131
15.922949950631015, 18.848669267831845, 51.495678815484688,  4.069677764225891
 8.394870917922983, 11.469233619157482, 29.440770524964488,  3.553989007937158
 1.001653792757957,  1.402906548069090, 78.146941859511514,  3.860238416182658
12.011487938759581,  0.688178289921848, 50.743833975923806,  3.929051175692746
18.337530505698695,  3.516085623330104, 17.774320233628565,  4.080235575020076
18.829311097963370, 17.692477044662674, 81.123803648618463,  4.052608034691632
 1.065956852722993, 10.437558728350451, 64.052063183787752,  3.880779796176609
 7.013838215299658,  8.674192212556076, 91.334400214613126,  4.324959895532526
 1.113837842611393,  9.094801259368898, 55.037784095337763,  3.978274582241040
17.533751013983682,  0.688720954313889, 34.798801246974122,  4.145344908331738
11.424079426211170,  2.981590467926834, 82.425422039013455,  3.819505644819042
 0.180439580490972, 18.328009692879416, 24.968207387313090,  3.975629326872950
15.222577171933491, 14.029032891018327,  9.206767380058768,  4.180482689872584
 7.107874098419876, 14.976314733981640, 79.796557111487161,  4.074702376211143
 3.376548322830315, 10.184679099454673, 38.515436933529060,  3.929626620698115
 4.243926487080766,  3.203027424977931, 30.818467850406321,  4.175165608670580
 8.242312165347535,  6.652617070909519, 62.050249015368983,  4.120889934797273
 5.427473788082828,  9.836863591725601, 12.306896020498639,  4.145591253845776
 6.789285796533810,  1.975888925065934, 19.949444331944321,  3.967549865677660
 5.287929957153967,  5.623790762497182,  2.588425941279964,  4.014432865971541
 8.221103308747187, 18.561525401120104, 78.637006605795960,  3.732622217525705
 1.649882362626083,  0.586375708146957, 71.711371906969049,  4.104549053256013
12.121138663582887,  1.570654678116326, 46.834709224023314,  4.052531312035869
 9.448172405441008, 13.155456921285039, 49.325711403347007,  4.211298966451444
15.187083364807654,  8.737126533054129, 92.790792343812868,  3.886729718862689
17.784261550607280,  0.274761958611930, 74.848023595809437,  4.337707076898267
 9.311388455510548, 14.974123660431701, 35.868318529792866,  4.049532616880865
 2.286329455944278,  5.914452293160391, 57.087797728594253,  3.926204103977309
17.775641311643696, 11.759359417841239, 72.136145202917305,  4.006329583519729
 8.047199552510273, 16.792586370854355, 21.228018540921710,  4.055955483963833
 7.109936928735594,  4.261448510792673, 45.238596389606357,  3.979431351622055
17.934545668605210,  8.552816610410984, 58.462725575035748,  4.156289652962002
18.390510783618382,  2.898534296096686, 12.915620710259791,  3.924980569733684
14.235322502347424,  3.458732683904516, 28.435570507852816,  3.673053196122731
 0.636394959948181, 10.106015650285778, 49.323545965804108,  4.252250021846778
13.091524617043687,  8.428113656519519, 33.986424577895150,  3.843341298015492
10.496444815578421,  5.245305611221792, 89.670854308538722,  4.277929804391140
 1.441914053371774, 15.769380266694977, 110.969469860745093,  4.000933109216579
14.203099036524826,  2.328278550407699, 76.042194221010845,  3.594316998774269
 1.659898921805080,  8.524407616661692, 76.913133848431983,  3.975372258108872
17.035189069584749, 13.096792717072596, 64.700008667748108,  4.199564569144528
 8.827257519390759,  1.081176083612945, 72.014250451993234,  3.812794407733811
 3.359389936012401,  7.155798919619514, 103.799055421793696,  4.258650151222448
 8.449342754718224, 11.803004433526944,  2.711169598819450,  3.782094315989796
 9.619024679383944,  1.631173672245164, 34.511372147828745,  3.751445297057046
 3.638243961341095,  2.525026809676930, 96.489034145352448,  3.892461328462001
 5.095045793737198,  3.148572505156786, 112.243953872863457,  3.771312745000871
 3.784865243563558,  7.452365369979721, 73.771366351320950,  3.801068683957582
 1.262776000168554,  3.613721156279952,  8.085127560410864,  3.680483394869797
14.585873958627365, 14.158366343655773,  4.963186385027126,  4.249436454987410
 3.166852150894043, 14.990852695798743, 69.079033784769521,  3.940816348089353
12.455664381221180,  8.315401161951732, 48.820366094244172,  3.909944945090554
12.870602385266743, 18.697388552256033, 113.635058711265529,  4.071805405245011
 9.992182373665864, 12.133967994945410, 78.594576555898442,  4.156297590205993
16.755263771048309,  7.094653623846648, 27.592974486422378,  3.880605054030520
 4.175854360545525,  0.483653494364768,  5.057870121783946,  3.789636263296002
15.261927597145196,  2.844710048087893, 38.598336818680032,  3.715155440176602
13.025941816846698, 12.274975589276110, 66.172184235888281,  4.141093223474885
 5.678306427100611,  8.266669904635629, 35.605981567025793,  4.274682580049141
 3.033156134284397,  2.888316127376267, 11.375014879699252,  3.891334671596472
18.153668241284432,  7.811278500024168, 95.240775840603519,  4.000178002438582
 7.276425240049432,  9.169515081976416, 39.259791800794567,  3.873567206784429
 4.698900175475140,  7.134972173011490, 31.717775065420678,  3.933219046316620
15.214359464195917, 11.329738304732526, 58.384971425753399,  3.598440364732861
 4.544278606454295,  8.490372013629202, 62.919076423510752,  4.219661349959475
 8.635624541246919,  3.569908581772814,  9.978820987188719,  3.804077888732890
 3.250814224410529,  8.440424298227803,  0.692246137498059,  3.904177416094949
 8.812786900749005, 17.374079970044818, 51.827062690465183,  4.164162821851766
 5.485956152305314,  7.313196339513354, 70.140032185442010,  4.209500638437150
 8.160243286101581,  7.795570730273588, 106.135959107041614,  4.057230800962150
 6.414195024586200, 12.227999752581978, 36.822815925525028,  4.128043058808851
16.066203393725768, 13.640326675869570, 55.692710142760667,  3.655573492862500
 7.586259318997523, 17.854625209403071, 116.377888326296272,  4.008972377467003
17.143859195426195,  4.777052216997634, 59.735764737741007,  3.879960486786031
14.449219852979004,  2.482429341985755, 12.575592958584645,  4.020906149999352
 6.706816211613187,  4.695119583289019, 90.881108150098115,  3.707153119979881
10.648323439178750,  3.426652825056201, 102.450366710829684,  3.840570528571609
18.627020745242525,  5.004816096212728, 103.240126651959528,  4.153176775177132
12.096357214863419, 16.467789923107581, 44.420994109779102,  3.964961458253768
 0.844101602644020, 12.285494445236687, 89.564107083948542,  3.765199990476269
16.639043667392489,  2.166947125470568, 105.926057403698820,  4.053134473598503
 7.251571028776591,  4.679653610148339, 33.665286180268232,  4.111638416491608
 0.989430160958107,  7.373830410316150, 37.297594227494670,  3.819401155656320
 7.753532064749496, 16.075754589362866, 83.809696544140394,  3.915382415700870
12.789867782606736, 16.548268728904695, 99.718207246765132,  3.748188886689352
 9.963480066682529, 14.316274559719908, 18.687765381843654,  3.787049851714540
 0.549081443778816,  0.185963028329265,  6.568392276029236,  3.928491100700696
 2.597388420643263, 16.256185452369955, 73.936734725940838,  4.025401724634555
12.828386725721698, 16.207417554147273, 34.497559976860643,  3.827336027967596
12.672914826465705, 17.030845582566300, 19.130159997929219,  3.930755468966704
10.075294966574942, 13.433324146975172, 32.193590890898690,  3.996803454203148
 1.884877286887544,  3.756864089273936, 107.817469757884297,  3.610357350647663
 7.235446570061325, 12.001492474816397, 89.131025453897578,  3.652116796146044
 5.637835873234440,  0.856076987441997,  1.351734141258837,  4.091911482890961
 2.546892984164479, 13.789076517368997, 94.853585693171169,  4.043347921970734
 0.734465554781722,  2.049617898321038, 93.728447820442952,  4.069252556132496
 2.621884629575953,  9.112053832742573,  8.764775218095910,  4.486340333227987
16.269727237277209,  6.828876489986686, 23.006346917360073,  4.052588317929406
 5.282726548548456,  5.100032032273086, 106.728163175999356,  3.814582651095947
17.505537711396613,  4.224097090745851,  5.417939444896301,  4.012326394173587
 3.514033860071209, 10.795641887583567, 30.681740769226430,  4.014810804418426
 6.045343858715680, 14.278718418531408, 51.537394050092274,  4.157970140461726
15.525210769460733, 17.683006455100042, 91.711705129386246,  4.082079290740965
 8.260483485972683, 10.965760511746023, 17.950524201692009,  3.858196051612730
14.450872868323321,  3.009736523888672, 85.168837829576475,  4.339763921212333
 1.992953886011972,  8.671514552654328, 27.444392380604466,  4.282004934881873
16.965771637702563, 11.628338196307988, 18.566064725670657,  4.117258569529302
 1.032757599258515, 18.687998554910113, 17.393956911490964,  4.143781536670689
 3.242768027439442,  5.282888702184489, 114.677340866604567,  3.679815681283424
10.645858518498251,  0.930039421974736, 75.542924518132835,  4.088177705471812
 5.728052002466058,  6.771413204603482, 58.861363348247075,  3.999830881096126
11.375558765179678,  4.891195205645376, 75.555250156406998,  3.945498096647142
 8.913563944236147, 18.644629867931251,  9.741742550671365,  3.994014417623645
 7.706204979773217, 15.310507142256048, 29.349590008891859,  4.230418654503669
13.042212476256731,  9.930911493944167, 85.275230490292358,  4.082095315556169
14.125177663938855,  4.998785705107936, 107.520898779830318,  3.977000323041257
 1.728822429954521, 12.654285167481026, 40.784616945239314,  3.502657954170862
 5.099180551856033, 12.442971898847933, 27.449786120987227,  3.872045705637048
 0.879371194367906,  7.790322684532174, 46.065544366441785,  3.712634239153460
16.239299185539590,  2.643400309127539, 91.972051479041596,  3.767844578686061
 9.314058320716349,  2.057342457506607, 96.758793731653185,  4.112911107424384
 2.129554815868890,  2.525456144342064, 86.432360737383192,  4.124012083287218
 3.400606901901959,  5.842259429159993, 89.276900732656458,  3.928101250702639
 3.814396995826192, 14.686516552776061, 30.303724883303673,  3.821396646397259
12.798951633869915, 11.562668032263476, 93.812325223794787,  3.774935774794636
 9.807209672287136,  7.112058323677706, 58.170747377319302,  4.288798944340095
 4.799078198074471, 10.862259533031585, 20.675694569287700,  4.326361857710578
 9.552373100524107,  1.182138978695783, 67.123751674815409,  3.687223379817494
 9.153609561546954, 15.064894518805511, 90.162901856150356,  3.829808214454518
 3.176164413173071,  8.094124936558204, 23.452998792161306,  4.115953393983900
 9.029095842486127, 13.485684844754969, 104.066827619359529,  4.016180638661679
 7.049078304755994, 18.858343690048635, 55.277881281907810,  4.103159291153649
 0.817858817867815,  7.392266319504073, 99.743071966100899,  4.173210375801132
 7.769937649089130,  5.982679907665328, 25.189413883470003,  4.294705660789025
10.184240147227296,  9.352901341856795, 88.460261717160506,  4.295699960802981
 1.885306469093348,  0.020228371495053,  2.109945853567583,  3.733214868133908
17.935526893198617,  0.780321951867518, 84.493023765598949,  4.020327906597062
15.658368518919904,  1.711336535380351, 31.433196991846991,  3.817349633187229
 8.419620175141956,  7.116075109803974, 17.838260104471402,  3.841578646229197
16.769415734359590,  6.785537668323385, 48.259572269172402,  4.041204138350633
15.799040206573386, 14.554163455518820, 21.134381540908070,  3.952802195711875
17.009277046465602, 13.847485577312584, 115.173344926333201,  4.320367810354611
 0.152988178589052, 11.931037958174999, 36.366079329109361,  4.443848272644746
17.715269524405237, 11.801669603833847, 14.671194858381210,  3.819026119841055
 2.071691987692748,  3.475498843959916,  3.726500638294461,  3.896007179609991
 2.701435312103162, 17.587123349149866, 46.255397010102193,  4.003996597676395
 4.840573061295980,  5.605923945560693, 54.375127424150008,  3.520461868924772
18.291897382911646,  1.511455482856644, 109.342202878221826,  3.618392432260517
 2.909949138057011, 11.928172135579377, 24.398850986875839,  3.697072498679954
 3.036890694212637, 10.365494929471073, 83.289245619192002,  3.991443023642810
11.591234198443193,  0.761157098980041, 54.618678263556113,  3.826117480981655
11.978959722631291,  6.741036407158914, 100.831414328430910,  3.992696138804949
11.851802053268992, 14.497094541571913, 69.313278267177353,  3.903768136424726
 4.357401015336744, 12.093517096668068,  2.649238904284676,  4.018315159044202
16.494690427052465,  6.473066453229729, 38.979844401697804,  3.976220015759216
11.302892785294498, 15.928039312189181, 25.928153065815664,  4.023677295034786
 8.537394910332015, 12.808321927823066, 97.056006840049406,  3.874658696745759
16.203262367095356,  2.097986250649678, 112.665705507425983,  4.311608453936762
10.048772969885219, 17.483592888294631, 32.063585519933795,  3.981541992958037
11.859676704577282, 13.320541996215670, 42.116848868008724,  3.835402796156586
 2.965698647745358,  2.689556554578552, 19.297400456576028,  3.865761589729201
12.799970768343794,  0.854209091780696,  9.415526130887036,  3.808338021992284
16.640573425825469,  6.096945577946277, 113.764612253214239,  4.027188804301688
 5.604942270576001,  0.608586441261735, 16.408552175041329,  3.970791510741357
13.809076437824887, 10.731652902862409, 112.964939562669883,  3.970211803349048
 4.448729288132751, 17.587736465631011, 81.517103861921413,  4.134120335971742
11.296078487957404,  4.891066783580294, 54.972171923592548,  4.048410131702010
 6.331036704058075, 18.540581997192703, 62.522883202939120,  3.727550884189603
 3.576594273979723, 18.142735906379560, 59.695265307102787,  4.205902904000143
15.801583763046523,  2.828642957995615, 95.878975221466845,  4.102530574839039
11.482563793602504, 18.247656695614626, 22.682829619887929,  3.939862882773573
 0.260777571321739,  0.683354496455870, 43.691645858594072,  3.938424009580923
 2.601034715940087, 12.955561795948208, 86.266661160239792,  3.819498219815286
13.732036323618573, 14.265163536877360, 31.364158156018124,  3.673841573766870
 6.212924025482711,  1.977137598034524, 100.052101432630835,  3.972579921721346
16.064418347316394,  9.634593877428292, 66.614443887367656,  3.936465406114284
 3.676908459100569,  2.119302485151466, 56.415961799987393,  4.248106813031308
12.134041490770642,  8.569506682430282, 78.200037762541896,  4.155939408664039
 2.533783279279781,  2.830221367696645, 15.307852699919211,  3.909709280830422
 4.700828933220537,  3.472730984647164, 72.038848109675811,  4.216724383161633
15.569250555313763, 14.120615603509915, 36.233444772341713,  3.885160013890666
 8.227175535182546,  3.806323721898305,  0.730270979262133,  3.826228778917181
 1.485198930120655,  2.275814585252729, 81.859397570621866,  3.788435002759876
17.261706709183571, 10.831362253449692, 76.611822135864685,  4.027666536286707
 6.129003951328913,  7.687418679948090, 42.878242632921975,  4.235986097197252
13.608734685034523, 16.257358486734667, 54.267463743494261,  3.931024552029577
10.657289975916756, 13.252433541240855, 62.933232892229562,  4.111834959446965
12.603982617280597,  9.231936141174446, 55.933472157664049,  3.962622967888214
15.230421958538518, 10.213743989895161, 37.412632659899238,  4.243277891048631
11.561442351521359, 10.212104467203430, 81.697244127549780,  3.577984854495639
14.096603242365994,  7.302563703931164, 59.085607140664010,  3.996835784476974
16.198723436036715,  0.491899597907530, 78.671851051964637,  3.950434784680910
16.509514407950775, 16.820481735511638, 32.044549618227791,  3.983568525479278
 4.342331964970551,  1.465079888809343, 43.656128764736764,  4.306254628358272
 3.612766703935041, 16.295389869258308, 107.585367928814904,  3.947343075907266
11.238291222253526, 11.582100281173535, 45.759460091532418,  4.295359408798283
11.474378967059298, 10.566380704578894,  0.687021042029889,  3.901844954014481
 0.337447282307392,  9.609456812691459, 86.265179011017210,  4.178707415545661
 1.788968566330076, 13.367394876447063, 19.064566459693491,  4.116063214415582
 0.455730281584623,  0.864315809010585, 98.041347636781069,  3.694159254886041
 6.323353663662421,  6.849002990004988, 113.112752955530183,  3.846182368988577
14.917726570903111,  6.580643261467120, 97.438394024253640,  4.193653438936970
17.450239584333350, 16.158594875536437, 101.163243965521687,  4.288576031190835
 6.430033079335958, 13.626633629400189, 111.312056649530518,  4.234136752794265
18.696752999059008, 16.016548049458304, 54.074220309105279,  4.133589854550408
14.885722344523671, 16.291811590574547, 41.530909719459082,  4.032841343808141
 0.043788147791671, 15.401480947640366, 91.967480009933666,  4.248301408178575
14.745271180545517,  4.512358855376756, 45.402082120268410,  4.275403807775505
 3.894653442816533,  7.999142541172462, 80.192733861047031,  3.977957436902428
 3.572709851508941,  4.884024704222058, 93.156733214316105,  4.029903673389272
14.129430882251683, 16.920660590922687, 47.833787243891720,  4.019842709226694
18.443227782955773,  9.805746793570066, 39.913795952106312,  3.931075015639528
 4.538451675097345,  4.897402977737458,  6.444324523472653,  3.973670251827235
17.159632123264110,  7.877369352428180, 34.616470669121902,  3.981809395496926
 9.962499799527997, 13.797360193730778, 53.373403763463109,  3.958501000050730
18.034212426533269,  7.759311895632104, 73.962751634966494,  3.990476869648608
15.263136635147319,  8.843185447120598, 15.291961621135966,  3.941197556529731
 7.047755454448316,  5.162997241248718, 103.120398958634070,  4.197987593845204
 9.814890280653305, 13.042784493859003, 74.397221580248683,  4.361709351489296
 5.824828958325593,  2.569435572017148, 116.089107065359400,  4.136636417923399
13.208437802535196, 17.284402275115774, 106.459314200705521,  3.533779917034082
 6.885721946172257, 14.714472586012690, 62.825011838767097,  3.956681165128908
18.116278821283053, 15.422801708001774, 87.778769695977473,  4.198170093977640
 4.637244795142447, 11.859851235336599, 79.956273633243015,  3.874925673305285
15.212420791966837,  3.896769926969792, 20.383580152263285,  4.086986235662189
14.444707476723163, 17.982111085081737, 62.399559612165781,  3.791929083886244
 8.157106881817331,  7.321865845562737, 54.406669716729262,  3.940101467699555
 9.959964524537801,  7.045931478530256, 41.347316171129584,  4.093851151424205
 8.737171611795482,  1.242459876925088, 113.306577525295353,  3.945039091950737
 9.437342552678727,  4.139294686547078, 93.403465898802821,  3.765377905453229
10.996922147160317,  7.640739928443669, 23.497605602265857,  3.664837289520885
 1.380054915015030,  4.518295030462592, 75.158881017674602,  4.243649673918828
 3.458372965009838,  4.642752476122610, 35.373784887976413,  4.207590795234279
14.892107193497122,  4.433990133158460,  2.309538465322057,  4.002739553847041
 9.034938777827543,  5.102346505309677, 21.248070744736413,  4.156754272186342
 6.241935736797796, 11.340488582913316, 85.518323342551753,  3.913316053066009
 6.845246461728473, 11.024287215279390, 45.799498036771944,  4.161469996130316
 7.510114736720848,  5.414690438069906, 13.753953982394481,  3.859828983352363
 5.370445132622837, 13.932189459179799, 59.301020669158149,  3.858814474016258
10.263375630651590,  6.167057538176418, 51.293718039478804,  3.903572940125575
14.487485433650702, 13.436231624681293, 13.216333703936622,  3.970932890520074
 9.032222063117837,  3.816846881200386, 106.525665385199446,  4.119293515100756
17.059758606394457,  0.454466921491480, 69.259365573945189,  4.431910713564689
 1.775635258282985,  5.965599402382971, 49.572134398331613,  4.205819666563706
10.710234999220079,  9.099921639061300, 64.484524147827116,  4.321480031722259
11.266662440746154,  2.282261591586499,  2.718300714867246,  3.978935164699464
15.564905253456143, 18.205579861269328, 22.938243821419441,  4.123309544472993
16.175913218231170,  0.106743298892391, 55.583320734562783,  4.116307362233767
 7.198224958316566, 16.908447338190864, 25.386129809437591,  4.372143802235922
16.889445445350958,  3.436284372528865, 42.047289350647944,  3.971619418258269
 9.644212449278953, 13.445577083764391, 86.342385748494308,  4.252655867062696
 3.228863506795752, 10.361244660554831, 101.126372121239569,  3.960202464958888
14.366548134243436,  9.986196685432564, 73.781664528716462,  4.212365313139427
 0.544092711307545, 15.088143235592813, 15.660177421668886,  3.904002979254956
10.414252168796160,  4.369503583239360, 71.988672064149526,  3.486838621061473
17.596457648983066, 11.051501124161748,  6.721526331954949,  4.081154572271464
 9.024332107018363, 13.162627618995757, 39.555420251816116,  3.647869489752059
 7.821515673704433,  9.594935477570514, 67.679682827026397,  3.947480107570669
 0.487332084585807, 12.484241995541348, 57.172312005367822,  4.066606422718939
14.854009036489986,  6.635930457799836, 75.952038635599735,  3.803385737578305
 4.709778214678342, 11.043120494333783, 49.386143658291232,  4.051189062983222
 6.313760175353515,  1.142942575649975, 69.154985736809735,  3.745147131271369
13.425526852649773, 14.789918336826101, 87.332703167816845,  3.998527917833056
 5.618583638256099,  7.486821967441223, 83.570520984591255,  3.673393556818220
 0.248163654427915,  2.824091746842607, 66.705284793052854,  3.727156971496453
13.432984889487058,  1.064423161842980, 34.526808746778123,  3.890355361572966
 8.688583252632661,  8.899682471042277, 99.380239336509149,  4.144989316045679
 1.453357942731912, 12.266481225483581, 113.182469406225849,  4.168907190555988
10.658577186318189, 12.669207473046036, 111.192805999818034,  4.217980042073996
 7.788803733029779,  9.814081482002051, 109.831022994433482,  4.307207317634552
18.252300792736118, 15.365670952871604, 39.132197699489161,  4.374279088505645
13.192778609696546,  0.547196886195200, 26.124722061246878,  4.040198045519068
 3.712844434155774,  6.386265954910690, 14.081309244546262,  3.942824855328466
 8.046180870533428, 14.717313271211712,  9.003699024768329,  3.989606891234208
10.933295361325923, 12.909644839077334, 100.405032256346757,  4.310803859114884
14.827129680025294, 13.601954941506088, 44.791887582341211,  3.962130905401123
 5.269328228740186, 17.953121777524235, 49.545930060840909,  4.343338010879005
 2.867957956561944, 12.090745290842207, 73.289724129658737,  4.406908184776749
 0.618069589109498, 12.902558088840300,  9.556192758016273,  3.753110898675049
12.359850963464799, 13.181212956057070, 56.631878107252149,  4.038324777300462
 1.655731564411851,  2.836727908302261, 59.949518855806872,  4.006659938170068
18.105833522824813, 16.561222896538684, 62.690029445667918,  4.073336738858535
 7.228969283901575, 16.404035948461601, 101.031929605770202,  4.568021309597559
12.285674181379342, 14.009171000255087, 96.682629319936723,  3.834068982516596
 6.831484271328977,  7.087131100419953, 87.296537650462795,  4.114517683808620
11.924598434275296, 12.624194901158420, 28.302276620992846,  4.155808352612123
 5.061260366591061,  6.822841061256472, 99.801429138719413,  4.199867408022799
 6.097963606115317, 10.187923852608286, 103.785753960226273,  3.812742414455573
 6.664700758452963,  5.296007430287903, 96.031750693082344,  4.186788537680380
16.085746525136599,  3.017890799808056, 24.582939901343540,  4.135559440274355
 8.461344467289466,  4.829636311862137, 84.225187889827311,  4.009989815686786
11.548598548146510,  4.901845007817206, 17.867595802650239,  3.810640644906312
 6.871163830230089, 10.544563884557506, 52.641932701929917,  3.795583191215231
 1.193521075612390, 10.719814821046405, 97.178276885907280,  4.024876302528785
 3.793358119542191,  9.063379062019848, 115.188388139205074,  4.000416865062432
 6.331207010714680,  5.788261006304658, 50.729287074579709,  4.076869462286089
13.526277477762116,  2.509244255204945, 89.211459673709669,  3.917403894213004
 6.406834399605656, 14.844449578600118, 94.427457868800147,  3.982309982429286
 4.690444025811588, 13.118304128629129, 66.050715944968971,  3.793591876032374
11.088792188693219, 14.743023286536582, 11.596683717259168,  3.957611165810680
14.348510454459273, 15.861051081020948, 79.807219536316822,  4.323471940015551
13.843772839281788, 11.447250049414617, 109.018533794003474,  3.814131681991058
 6.477119741853653, 12.470889633318842,  5.994065928689048,  3.936297778759761
 5.335471499159931,  1.074803610569098, 106.798238964020442,  3.948787526007600
11.534617658393183, 16.244120880112572, 116.838585576548212,  4.419214737484351
11.612932431693524, 10.617625420080236, 59.812420487852656,  4.243973020583871
 9.147771430768946, 17.969020638534410, 17.466383528951106,  4.081918824835435
10.927821270298963, 10.139435313024940, 38.475923001467919,  3.792840016641681
17.619703779349670, 10.681112442106693, 100.120406987309096,  3.695901772778901
 3.889785587599807, 12.358987418493275, 62.443298247828231,  3.663721018378072
 0.842534624579663, 11.927928329097659, 67.770858412707724,  4.095970813309728
 9.791029344625883,  9.450434486665754,  5.754135886932465,  4.346026809247356
10.083121059681652,  7.855433713254794, 70.509689386416341,  3.989984051575207
 1.585762308530203, 16.221081745254970, 103.892175758489969,  3.953081744607643
 8.235128089801425,  8.991512643284695, 95.312251148352743,  3.931084020470478
13.895261954653954, 12.592105927747793, 52.618672735582614,  4.126111742178041
18.796034922834327,  5.613700204308908, 91.784487146930161,  4.053571741121732
12.282923992216594, 16.137298006153298, 15.157235604491197,  4.008261385577505
10.893386908706827,  6.204165549257261, 96.419715934624065,  4.078002865319890
 4.990602557572677,  8.916906342163832, 16.937332191494239,  4.105443846670074
12.378634537507548, 14.741791823817437, 38.489169627587252,  4.020369978841376
17.996487871688181, 10.654722081426224, 118.029778799713213,  3.790022369324574
13.786842626480421, 10.158450307951011, 101.351950667298453,  3.804907733755040
10.176442833057354,  0.331573013207741, 100.238266584053875,  3.798723756587511
16.916620161137548, 17.217681394064684, 105.082560313791348,  3.889570329370134
13.782671880314952,  9.359767430173918, 30.138795820514630,  4.131976732282451
 0.584264228424101,  6.097808125194594, 10.906627438258568,  3.950660831803091
 4.869649628559868, 17.261132260481514, 77.355128404624963,  3.863022957123945
12.758715719751676, 13.685484456002490, 83.307274140644068,  4.411359175581073
15.918495627657606,  7.418903076415051, 86.387521437505981,  3.866215035767027
 8.363301628858654,  9.081328493771595, 49.203043936382223,  4.198370891962537
13.926575784429637,  5.941612880234968,  6.393240557593431,  4.162316905578552
12.845527569542190,  3.133315905951727, 98.897719268095372,  4.359723132110329
 0.563406821504314,  1.469356534108369, 31.356646280234177,  3.924906139577804
 0.739036537070993,  0.560833173638180, 49.246803148769509,  4.108071849653010
11.354280790947001, 11.315559147541807, 24.019641164196603,  3.789458569761488
18.945482800695729,  6.248840221505001, 87.999794520407264,  3.373422199813953
 6.724525873620152, 17.729219119409379, 45.675024684649721,  3.928237220059495
 6.232667796097378,  1.642641448143023, 27.111901039014306,  3.924524963800879
 1.693865777353021, 14.599019345159441, 60.346847576627525,  3.879443889384707
 9.350759978031419,  7.416100907430393, 10.797164096936838,  4.098492797681007
 2.606234528194250,  8.737457594883939, 92.447846574132058,  3.964230458589110
16.254600359554999,  3.763454571871629,  9.219788039068913,  4.015054292521884
 7.639987232682852,  2.015115473033007, 109.715909385684782,  3.714981362021744
 2.735983413522872, 17.194914026720554, 88.497462085797636,  3.913759286396436
 6.481283723371628, 10.610018934730538, 117.907877826387960,  4.243995107065962
14.233314065445670, 13.802678678503751, 72.364427073777975,  3.932662206467097
 9.588763989306520,  8.429368377938916, 116.287995951358852,  3.963056973337801
 1.445150903597765, 16.659667020412758,  9.456759872499745,  3.857635114228283
12.231960275780727,  0.569646038480240, 79.372565094383120,  4.098793544803554
15.721828091665095, 14.237184056803489, 94.295982723880257,  4.067910787506055
 2.541144765207316, 17.612475448099040, 40.935500314424672,  4.249652838428500
 1.311079483788812,  0.298787016907073, 106.374891681864071,  3.893086362695565
11.538751363250762, 11.065206179134295, 20.058080190971406,  3.927975199170766
 6.398298353254782, 15.511812183043336,  3.314584650533102,  4.000662377166740
11.567952707835843,  8.104540966301288, 108.525519364896056,  4.284858582913159
 6.856083981395522,  5.392475272239785, 80.644953380088623,  3.896541565329697
 3.107966704175110, 10.086944607681660, 59.364436323866251,  4.077495272442979
18.269081052378500,  9.213382769296162, 30.754838723274002,  4.306414578286383
 3.656508295770303,  6.220066456638519, 110.178831197103378,  4.073226783964020
 3.950750350392471,  0.081438980666798, 23.743355502891514,  4.045772455043775
 4.401724884253015,  6.327903208518992, 39.080056144324260,  4.022028468217184
16.132663771506522,  7.269018600624341, 101.151403951933759,  3.633494220337707
14.166660617604286,  2.062872250537569,  5.363316010493604,  3.860674744423175
17.219110477253320, 17.696639380266674,  3.414897410066609,  4.378509779783977
10.677459241466590,  3.592216610606981, 26.943376973603570,  3.852459911593313
 3.443124846843038, 12.633261669184433, 54.220691833605095,  3.998175940937844
11.974405987639269, 17.799805012148891, 84.690589411627300,  4.338103550062762
10.797877599487649,  2.883598808854351,  7.006238666061044,  3.652146938107899
13.853201392347483,  7.379409659274356, 52.536592341871298,  4.065426569399929
 6.665823400189492,  2.739597129936165, 37.554860118010836,  4.066508406056712
 6.410227501083828, 13.765583288341325, 13.181213757179533,  4.039916073239497
16.738365557072509,  0.449494227425989, 65.094017856485223,  3.821571018617946
 9.331582321576121, 16.163193260876124, 113.089412337830595,  4.160911929089912
 5.386339881556413, 18.502947719016753, 72.432583782545947,  3.726538526850108
 6.152389793942219, 17.412432438191207, 90.270400473448845,  3.792898196960871
15.097262556080535, 14.230312026398749, 106.852831667620080,  3.649589244500806
14.615082060014611, 11.592777643029068, 79.715596439086582,  4.203691039647339
 4.510986587810736,  9.000661835643688, 107.358698213500844,  3.989500465035068
 1.390197598086551,  9.635061536014186, 12.775337176202926,  3.969367375821346
 2.479074046727411, 12.463161562331013,  6.171006626038353,  3.981998409413092
 4.147601478562057,  5.076518143412441, 27.124775100651316,  4.108752675586157
16.145406098453417, 12.845771865360701, 28.501732925206483,  4.294478960212388
18.800753299714739, 15.857169979966697, 35.050932155219066,  3.807821485898866
17.315886716487668,  7.336009893200850,  8.002637777680587,  3.767528216714995
 0.034229062599536, 14.394799303157013, 107.193786778596092,  4.176856809431583
15.264978330641506, 18.401227130741997, 87.283525644183754,  4.107270332788488
17.786861162713500, 13.900522499598599, 78.962234505610340,  3.766183587684371
10.435333430989797, 16.821787850520099, 65.225279937058161,  4.154547676130263
13.552162374894154,  5.230863704218559, 93.524666527187051,  3.968420616467992
