BANDS
8 8
NANOPARTICLES
cell(1), 18.932
cell(2), 18.932
cell(3), 118.325
11.358800900351852,  2.531005724800361, 60.326713232732452,  3.983247344495407
 4.135013494207005,  7.433427072376330, 53.219576821633034,  3.927310898428742
18.733973416664824, 10.346126020826700,  2.089523372789293,  4.231061740616894
 8.449944506685387,  4.506212582958523, 79.534157952695750,  3.830679666042564
 3.786878332850906, 11.455357023832864, 24.008365108143700,  4.087803314892550
11.505790289035488, 12.993817048105646, 101.804541642282473,  4.236674194733195
 5.001415434885946,  9.914890885430365, 66.060626604869071,  3.905449457725598
12.451949794800720,  0.640555348263129, 25.483625727586382,  3.996703547371918
 8.231122303609073, 17.153666973701696, 71.562059952763647,  3.884244061373430
14.338695529936297, 11.444073514178157, 54.962832302225465,  3.888032364953919
14.443388528326638,  8.302461975345247, 20.319863271455255,  3.988411189586857
 8.192365689782447, 14.290936285398953, 20.113400849619985,  4.005229420221174
12.357362644742045,  5.279721297573412, 33.269903909001947,  4.110667366092107
 0.392885949635806,  4.430892408093314, 62.377003442558681,  4.143179785059005
18.209355442941867,  9.851698413174004, 108.615407858872601,  4.437219268050979
 9.528529447809325, 17.477586902755785, 60.066166824219216,  4.307302461081222
15.728664626932638,  7.522848649798434,  1.440717850930110,  4.082054909424530
 0.694000552511880, 10.974253028574019, 36.263313946993655,  4.066001359682337
 5.650079140772531,  8.848520078006356, 84.837488627151913,  3.669327875004099
 2.563035668881833, 15.599698699373064, 49.517370512309974,  3.961097388527959
12.532645508611040,  4.727133455031577, 15.293451385756001,  4.254035384699594
 3.973432525642439,  5.013013979285455, 85.264799850873658,  3.855456005550570
15.324657239181230, 12.695342249448057, 77.138690616992420,  4.012759076771463
 7.673879078190287, 10.975771505136763, 22.734568699664901,  3.752357260254015
 2.534926428417139,  5.762955580094984,  8.070516908687368,  4.154867548979307
 5.494345126119527,  1.607318187144252, 82.467893019258511,  3.959744530100215
 4.581089902283242, 12.185694521386432, 19.845174105317877,  4.357682029648572
11.831322826623312, 14.288692821437424, 94.523918172468797,  4.117352986094407
 5.415690823116836,  4.811698792576632, 24.459378137404151,  4.428316222839727
 4.355532406411451,  3.632794084260067, 107.925586169425486,  3.894295248692633
 2.445063827034843,  0.072946631717320, 13.087022933080370,  4.154828717961176
11.253223403909393, 10.693817899770057, 51.132970047409657,  3.941794793707612
 4.886881998211039,  8.213747052666612, 57.152776719644031,  4.086576447768962
 4.306752358437691,  4.838807271163449, 80.486685512736983,  3.981903656113478
 4.426258580371960,  4.866866916955043, 32.065934635417740,  4.206729672960744
 9.151043038320086, 18.182260758487320, 19.358425063434847,  4.031232126408696
14.429043072808398,  4.383622660754972, 19.080427881869966,  4.217093089690261
16.816835641422731,  9.809977416395080, 13.538515297797170,  4.104712648856173
13.219688867922940, 12.184348258818851, 105.396847909533221,  3.860765432882852
 8.121645077793056,  6.161404720462262, 100.395231188612996,  4.058941800173208
13.624163375806138,  1.078267415075108, 97.299222737284083,  4.141618361808793
17.310902731653858,  7.596507505131386, 36.656419168313221,  3.835629190888834
14.130460451472063,  9.124109949564396,  4.742753929615818,  3.912225981963680
13.843580762413112, 12.271324241561594, 98.284837430207560,  4.172419718544830
 9.284583058823960, 18.829085438820485, 51.023053159868383,  4.120258290827612
 1.376184777787227, 16.349632164669632, 62.594750446802628,  4.150347758528785
 8.467927199071820, 10.522590759071532, 64.497945334845582,  3.681837325617280
10.121952288599275,  1.807240760740327, 41.290109282054843,  4.030151766059094
16.173859488055239, 10.085258517687922, 42.031469706171549,  4.248773546335941
 7.976159916366056, 13.194832075398562, 94.638747206833557,  3.890289758785380
 1.235733893321664, 18.014295430999837, 27.579738848403355,  4.382662493550724
18.098248189431335, 14.203657214279128, 91.262100650334446,  4.145489129781111
 3.689475598154101, 10.819164165122492, 62.432260270296709,  4.003755752889639
11.605641688622608,  5.056176722854919, 65.939296505255896,  4.020415031554608
 5.683790656099014, 16.685766922962117, 81.665424710554461,  3.829537669370314
 4.026745362681509, 13.676241397594898, 104.935540430364625,  4.115177509515354
 1.524014220661716, 12.093965041752432, 16.884142380287962,  4.064427803254968
12.516826407274303,  0.812062177594491, 74.553963912706209,  4.358310639432320
 1.177930330349196, 10.656166212361619, 43.625559232379231,  4.262179988462457
 3.862989348104959, 13.975459474561386, 75.102500868173507,  3.781080637705354
 2.944917700974490, 10.883119940920277, 54.955870625100559,  3.843394763510236
 3.226855228593582, 13.290013409951804, 10.002317594091258,  3.816866598289545
 8.160452167874416,  4.851601172338071, 91.683452660121191,  4.387503590802315
 6.424590406125648, 16.300914464430505, 112.765791433472700,  4.112422917848980
11.102239693683750, 12.293294734322094, 82.349291762222919,  4.323861272695652
13.178699036935432,  2.032959408630074, 83.239942616665488,  3.803413085997857
18.786098560652199,  6.683305062065790, 111.254045077050463,  3.873659345405824
11.350084742418661,  9.656038410843701, 22.474030595129626,  4.010122651094440
14.556641882438024,  4.841890346257106, 104.371805969148824,  3.930756347806945
 7.842986036775559,  9.793701000620223, 89.394641528342333,  3.636672646620571
 0.505359899122174,  6.224384183568533, 51.155637238902244,  3.678080587123465
 9.444558826169720,  9.885701663144806, 100.259049158851525,  3.833624548795763
 6.525430336741879,  4.805335120095275, 104.031562017209623,  4.049670118281854
 3.451128615517793, 16.581474480027087, 66.418290654444363,  4.182786380055610
10.986551449637441, 10.225990691575314, 112.133905195747175,  4.480373810241558
11.540690028363887, 18.358967167403900, 94.180425698218997,  3.999433682162917
17.781828476258053, 17.101882743209277, 59.378634668918529,  4.126073944318740
 8.137902361928806, 17.853061048723664, 47.333741547752453,  3.792994359309294
 4.492921433665151,  8.696076365244396, 90.991279311382215,  4.049566444677630
10.291751679669966, 16.264132827203124, 15.968009149491587,  4.032542732348319
 9.192333490479605,  5.302855596545419, 43.314908353085634,  4.168310365079689
 5.132004629844804, 12.835191470864977, 14.246312258530448,  3.557876392270622
 6.252726315018085, 12.341406779573383, 111.930102823216856,  3.965081618601860
 8.948669012807429, 15.182455037723326,  2.354467813085503,  4.056411966328324
 2.443630681832284,  3.683494685925327, 104.246035436509160,  4.396103232083430
 1.541613787700412, 17.016108450234228, 79.072543820921979,  3.650336838293018
16.588339079571515,  3.435800987402930, 110.420209856387643,  4.046060068862599
 3.160890663360581,  1.032842555629817, 56.274223573297093,  4.165662427274616
15.016203993715189,  9.258759481833390, 95.909987533995633,  3.612573586347214
 0.178494188675928, 11.292273680029828, 88.136023433871401,  4.229272224610486
14.120140656236776,  3.092152260244151, 100.956149420810675,  3.791909433602671
 0.597509234709799, 16.316977001719923, 70.160178907202194,  4.033052411584118
 3.243182063611732, 16.918029165036319, 34.648616343732272,  3.641290953661196
13.899088198977692,  2.544748908109696, 87.143629420060677,  4.081131799620470
13.954089867165115,  4.112230123544215, 72.270414182741007,  4.163652001791759
 7.760997518341333,  2.091931575476149, 38.139394181577948,  3.787234305380691
 3.891145305722361,  6.777808105653991, 13.753286250195055,  3.968672491881748
10.243768400601981, 14.207788845110329, 41.997768238418232,  4.290989762065759
11.682362098810669,  1.446639685058901, 36.863349797654024,  4.273739909288365
 1.785578631260588,  0.462729707641162, 72.578110422084961,  4.112681691568098
 5.818090671951309, 14.637113072847605,  7.433756127117500,  3.770132031750413
11.498114871237064, 10.635438174618095, 66.858157387259013,  3.904690068794629
 1.104742297322269,  7.870789714563277, 29.881775207673044,  4.244742455474282
17.453058897646692, 10.957765355558360,  6.073989044851203,  4.124894344835849
12.160099742392992,  0.894123107882234, 17.030763444689036,  4.192603087689085
18.181954388116196,  6.315760950326347, 104.050669802313919,  3.884242061418685
14.653153404719141, 18.712412016565260, 65.134934032404814,  3.879659763550160
15.945382721890356,  9.377589068787492, 105.088676803637824,  3.971603420262674
 6.871169626812732, 16.536541991753058, 105.219520205512850,  3.966033011714448
 3.070338086758504,  2.541061148021942, 42.400089165532620,  3.752953540402698
16.172969983751027, 16.777970649446686, 27.074368052294339,  4.025103767620478
 6.868905415891629,  5.259690548269883, 11.458560696526316,  4.102013475218115
 4.123878336233304,  2.006708419642510, 21.664808249617444,  3.787433171070023
 9.218206296802336,  7.918530304711771, 103.974053054616775,  4.105277058814750
 0.981158185534095, 16.293905451711975, 105.983637484754837,  4.158485116914881
 0.237309506060875,  9.835416874564606, 67.510377091736245,  4.081970359348787
 4.747898225058289, 12.201794324688167, 50.449093789132924,  4.266350391295397
12.332802553048849,  6.026939385423182, 53.162002313470161,  4.085014036425243
18.215418303075207,  7.114414021373885, 43.821512861178142,  3.771526084554129
 5.477087557776779,  3.024863724781732,  8.360119435089109,  3.862356570465456
17.573427755456631, 13.518838045685678, 68.006777274051757,  4.002364936647148
 0.695878609389735, 18.635867272812735, 44.001609830928949,  4.113019927319809
 9.537799836071985,  1.568621705401548,  9.314544705154708,  3.945080886271348
16.527129463829315, 10.570411543906562, 70.273862129657942,  3.622324093095481
18.893570919544107,  9.343252500042116, 62.103804236142992,  4.038812879150838
16.301738717717548,  6.346590759674670, 15.466718092141399,  3.883698089674247
11.861853400192009, 15.936888269863550, 32.647958468721491,  3.830706764734058
 8.948055283965706,  8.586861258450373, 10.037096086781240,  4.220065762907919
13.356838139430817,  4.590566417624117, 76.279679868448653,  3.957462664453707
16.714732208706401,  4.238516072314581,  3.220050347006892,  3.620571818161306
11.125150157870792, 14.481737642915409, 117.215723900630479,  4.231731872499098
17.393183490179467, 18.430822795277724, 99.912045542310494,  3.978781792193950
11.787675243200706,  6.627332820715454, 109.693829451399026,  3.996656328415124
 9.561069530547579,  0.883716708038755, 97.151421341910563,  3.703970064591721
 4.916727991269149, 18.433395730868160, 61.917728674319257,  4.162151412777201
16.522058967458349,  2.555141242743693, 15.953837504073807,  3.741335912364568
 6.228346450352221,  5.108719825760384, 20.424621679636846,  3.785080816817247
10.120166618845241,  3.806135612508017, 25.012832885369253,  3.732083334912532
17.428003130847703,  6.616047431039995, 59.227914120697548,  4.398305902110390
 8.675473099825696, 11.242076175989373,  6.873744486513239,  3.986242485189325
14.083661530111781,  1.406969104016858,  3.078406372076390,  4.101508074039747
 0.740952469357152,  4.382554098956586, 14.596222679683885,  4.016760323082405
 6.291980070720830,  1.047571370819622, 53.585744845805287,  4.086551290945847
 5.852304949726885,  0.937860758813350, 65.721150641124964,  3.827243540575014
10.802194465082055,  3.307403363022975, 94.512162432049436,  3.868259670539945
 8.595009947343803,  6.509320000297998, 54.747134702837940,  3.758557529297893
12.480256165659023,  9.724334307285643, 77.250303292773026,  3.819912187865675
13.762097094740389, 18.160856396392568, 59.885261333315320,  4.152381596982544
 3.873820946086944,  2.665922017952445, 93.296110721492383,  4.094813257064041
 7.625333140577024,  4.458154023824206, 65.695573508801402,  4.030523678455317
18.417502714574031,  7.464914707208875, 85.060620727788205,  4.049566489379469
12.792911982893138, 15.685536061810943, 25.435271266462717,  3.793171847886165
11.361394322269820,  7.616041935527155, 80.551805033537562,  4.288307197763497
10.149419822287157, 11.617084553141897, 25.763530032908186,  3.853095075889159
 0.224279095021686, 10.781640277682641, 95.402830033158551,  3.910148829082285
 1.533364627070408, 14.930811573640687, 13.835347501718315,  4.226014472199787
 4.768112752647666,  5.800985078717106,  0.028141717913896,  4.112848156294914
16.928882586709058,  3.406071208500791, 98.195827737924546,  4.100928500892967
 1.019585350581920,  0.681554879419563, 108.962827918526372,  3.901924166169157
 5.182809123994113,  0.725797964740737, 45.220445739856459,  4.073529928076367
13.137574575807429, 18.222269994247782, 29.224807787371478,  3.936179411060029
13.427429692998505,  4.721898510076716, 90.719854473995710,  3.942912816458853
15.712137350574466, 12.296385008178325, 102.127406748053872,  4.313470147520206
 2.616771425654120,  5.101765179347717, 90.166193437870803,  4.210388718230654
 6.329756832815846, 12.902400587799006, 82.700857580323131,  4.118616810619824
 1.009760964099575, 16.605909916486954, 10.006040841998246,  4.116549836807639
18.501931890270747, 13.170435884987320, 60.595794228675572,  4.092643671999753
12.819808605348058, 13.032343059286179, 15.654636109608143,  4.168712314146697
15.707912607160855,  0.352436583032978, 19.078576190201844,  4.064573865011352
 2.327866484200057, 14.412215234981950, 53.336171556415870,  3.980173938903662
17.808868952140305,  6.764708691040265, 96.335356583931343,  3.773036298211958
 2.751026214234849, 12.851800454749588, 101.057331106508940,  4.117527340389221
10.761267795950415,  0.539158206644717, 85.799283572241151,  3.836295637574883
16.775484318774094,  5.677304705217752, 40.388030989492250,  4.172280800195582
12.401833185662815, 17.012676551836709, 114.209237853494386,  4.026072382756861
 3.695836822888320,  5.229579542024087,  4.072057046536100,  3.965212281141847
17.257104988295744,  3.593624429909432, 90.405589504355234,  3.786696540803013
 4.369092652730646, 12.377633386156377, 115.388558766791078,  3.866002778231099
14.345929386880014,  2.990094056809217, 30.421667424291499,  4.183504557095181
 5.135894215075109,  7.266313923331673, 97.873726183418299,  3.900732776466748
 9.867058603130982, 17.314740488785148, 23.284382520111770,  4.126533809258341
14.969064613173982, 11.327982413132231, 22.914429841966736,  3.933902333916752
15.578955469651996, 10.763502265831814, 115.991633002475950,  3.808186855665533
11.584654880045674, 11.423975593707599, 58.402138517711656,  4.357496355884448
11.370833806018481,  6.853750150201349, 93.218812663988373,  3.762937356171087
14.364053940485993, 10.631561422295530, 80.505723524776229,  3.860665543346633
10.898141348748688,  1.195534737436538, 64.203618272628461,  4.261476970030083
16.286613217642600,  8.816139912060198,  9.497765601601452,  4.280158806345309
 5.984925505704111,  4.636191435381961, 40.732145889300796,  4.025523134310647
10.532637408670704,  7.621511612912849, 25.879487550791698,  4.088810968098842
18.397598202340802,  7.329608214142449, 81.019280348220221,  3.998646440906545
14.719337382467831, 17.431850583886064, 84.336029947264066,  4.209516249391432
 0.815845464127751,  8.793386526393723, 71.383109561685785,  4.005730069503349
 9.853429398433837, 14.711591234192703, 50.254485182733866,  4.136591188867706
11.752261563944664,  2.492207986972100,  6.184792046798084,  3.930857081562784
 7.383957312197317, 10.279610463482433, 97.078624313900235,  3.768685273245949
 2.147855077001392,  9.679475270065481, 98.644114591617864,  3.911190894779528
14.288049589346477,  3.492987453560322, 63.398795680748634,  4.002783238124615
 9.384113780516600, 15.133589151358343, 84.992313881744323,  4.135556734486467
 8.910240905600313,  7.640351234126878, 86.165646222981053,  3.755719298785641
 2.058489254443017,  8.739241988831969,  5.234750812513219,  4.110938795197280
 1.583806376227975,  1.554522753825912, 98.536670705034254,  3.982211377598423
10.743472278501223, 14.207082929094200, 46.210995932190428,  4.193304390353974
13.022843530358761,  5.376274338491778,  3.669748493765912,  4.128550225646096
17.338401771409021,  2.885914495252946, 70.264878168775297,  3.703610968715619
14.376128902089919, 15.711803546012872, 45.328311214495209,  3.866296836552777
 4.738471452401811, 14.464082753036436, 61.339648566543929,  3.859200796558090
10.512221748147969,  9.839990367724115, 37.632601842349963,  3.923417780007691
10.430180197195080,  9.180650516127269, 61.632708858174126,  3.751026640548121
13.422970227337142,  5.983490081278021,  7.876066481911789,  4.391074034954004
 2.355110507828251,  2.945358232335378, 116.633027267692952,  4.108356481149920
18.125893102818690,  2.844551866917353, 36.431906430325888,  4.139409844641874
15.518115278987679, 16.611583121570373, 34.378171401096360,  3.869238112097711
17.232859224693257, 18.497855089812781, 103.996011733137649,  3.793970328894882
11.498768011119965,  0.300116545032258, 100.680926834684243,  3.882349270124601
15.118576335414284,  4.667667938363993, 12.269465446506581,  3.671741216647662
17.562861972727365,  9.406468896203060, 26.723036803677395,  4.265092071146611
 2.467720479473928,  7.475581024774544, 46.426253592904757,  4.052603903588302
16.102207888134128, 18.111996180843260, 107.931300660451839,  4.401575930438578
17.573117844739407,  3.037429063276418, 21.317314736833151,  3.859084619865275
10.581926081176226,  2.975891735837752, 110.310166882272952,  3.707673935333327
 7.222974852528181,  5.750491506973638, 83.110734786093474,  4.071237785251597
 1.933148781060187,  9.093356380554772, 19.584096178710084,  3.794874518817468
15.288459054635119, 15.170508574913743, 30.685601816511674,  4.064425385030352
18.920055868202262,  7.039615100313432, 74.876682743207027,  3.983752371016837
 9.664451225865827, 14.397941479032081, 69.319819853183446,  3.727534343207977
16.502103882018190,  5.282352189110066, 33.360304924333825,  4.116375167731915
11.613156252658747,  5.548642469547882, 84.210041245390642,  4.065273834963720
 3.522807392226981,  4.588475808960572, 49.199764185476141,  4.072697499195177
 1.611424097474296,  2.863215370085908, 112.416170130128705,  4.343172903030949
11.810550313127086,  2.419588508781593, 79.287060370374562,  4.057748077744856
 7.753116361181285, 11.335788022147240, 40.302868069580356,  3.979976306238602
 8.041111863186606,  6.438058523267595,  2.557261418381964,  4.181961551087522
 3.260531016679965, 10.788530611898093, 27.929590806772264,  3.933515605166344
 4.411521137602864, 14.586156592362340, 93.985141119035802,  3.848026401670603
 8.829544572143304, 10.909850012004666, 78.966526311734029,  4.275660865171847
12.786018102729725,  2.291767586261056, 44.460504080886736,  4.281928945538268
17.335072577582590,  2.706741269405056, 66.106348282460431,  4.278059893462036
17.918460272991194, 12.942194322498700, 10.863542594200084,  4.295394931801922
 8.567453500544177, 11.388982076760069,  0.750368880820752,  4.181154973120778
14.995808766244101,  0.933135682915037, 50.459116019429480,  3.830811437190001
 2.896501890757073,  7.597716877790274, 82.737108708136688,  3.673435252685577
 9.702771598885930, 18.210776905918905, 111.172590640487684,  4.055363218650194
18.074623694234958, 13.173693560269122, 98.624345089666221,  4.277349903647986
15.403389531800739,  3.636243136604469, 80.524073415118565,  3.885397682775009
 1.590348038274745, 12.778426017663763, 72.019290350322947,  4.199804305010039
 1.337944229888790, 18.291424962449277, 37.612652412334235,  3.917862132415975
10.091666372336999,  7.538641786182498, 58.162574094041709,  3.956661142740567
 1.289077811861201, 10.023638469290653,  9.009376189403737,  4.008502550872051
 0.381737978348766,  9.941021483858398, 113.566572149077132,  4.042285834669570
 1.672886887271705,  1.204060068705598, 60.463441781886949,  3.712216179233540
15.194098225586991,  8.882260044882782, 45.918568811487738,  3.794536464283840
 1.012341741666516,  2.447548863991966, 18.151569832141508,  4.084931137043149
 4.956762730009343, 11.538269042826151, 87.565595352615858,  4.034272120429232
 6.175071769407579,  3.922759733467811, 73.070153930312046,  4.046094700577191
 7.680418029359299,  0.913156271624693, 93.496362086235592,  4.242357199223243
 4.959552142117447,  0.466389670374431, 114.863184977885368,  3.883687172498465
 3.141494862071774,  3.675503102229876, 11.448375993695095,  3.860572717044155
 2.614645773097073,  9.272438592116831, 117.372927825126823,  4.274798814377810
18.090365016777152,  5.209860355395069, 24.986987190048648,  3.777759810605840
13.063315052412104,  8.273799624781391, 64.213687130983047,  3.839891666778904
14.632312821746526,  6.570985756124729, 87.061844652082172,  4.099151350991305
18.735394277053427, 12.649074200473082, 105.010833883561787,  3.744864279154314
 6.486078785393069,  7.504607339661047, 63.363234177769527,  3.871263768716998
16.454696488862066, 14.441567350149230, 56.513600241530078,  4.054875199746300
17.555714865744321, 15.722006925536705, 19.355969567370874,  3.975113221784564
13.981257381876391,  8.324220624903880, 39.002499111512961,  4.004924027574837
11.323751380909222, 13.660105393062841, 22.445145450979538,  3.902426924563432
13.629500877691189,  2.312717087419690, 53.777287720776279,  3.843257361659254
13.817475694057341, 12.477225947829828, 48.287034473472175,  3.914963798917781
 8.447543174800325,  9.360881500068199, 82.576870296258193,  3.589092932682384
15.079100711460837, 16.112080796773391, 49.224990457810677,  3.994417964432611
 6.762160684345485, 12.704922705600747, 27.666983087721391,  4.057646014516711
 2.517833739381310,  4.785287822451442, 96.694199511414823,  3.619382634195143
 0.097891225019264, 15.894253927251386, 109.922925797519071,  3.950745566666240
 6.288647926139555,  1.803001755287689, 18.543532746285035,  3.809739666620796
10.765742720535670, 10.456292126983156, 70.813930614062713,  4.143518181333083
 1.385473698277024,  1.507298326006880,  8.645899265027172,  4.034958398710948
17.672772307770579, 10.211613693169001, 91.807479344900685,  3.919369679633429
18.574829509608993, 18.007063346469998, 16.080420845928600,  4.256509261431288
11.366913778167294,  9.734285932429129, 46.688954947231899,  4.097252326278100
16.402652069510172, 11.236371443592290, 64.781979965682154,  4.175717718748284
 1.279137651647388, 18.348229508496839, 20.871363592204858,  4.068265254109083
 1.900071920565068, 16.922822165760731,  6.070175741383060,  3.960812984073257
16.766519923297501,  3.472936752913728, 43.903711412217326,  4.045690687073165
 5.811353167470454,  1.470377873200028, 76.294060583964495,  4.024486209013753
 8.278574505518732,  7.277886154544420, 22.695393176629953,  3.715402014303237
14.853903428949728,  8.905595591941449, 67.499814809780659,  3.616775600713064
 2.069090285078997, 10.478864488044813, 58.842933053749761,  3.871000145893037
 7.964674925146654,  4.030177501884769, 47.875034565534783,  4.102563671937333
 1.647852170764135,  5.099813920280974, 38.897641232510779,  4.064254172927045
11.534005012369374, 16.588134897754994, 97.815979075719000,  3.914257344166277
 7.265060654888143,  4.836838096544437, 110.209421688117061,  3.875475755767028
 6.278938379999278, 11.804797932860456, 107.905922096786753,  4.145589322162721
 6.480866677220807, 16.594420079474368, 91.517138782051092,  3.732915038656800
 4.631287453838442,  8.347033923572187, 10.266517671200523,  3.792394754937456
 2.811022782696976, 17.222922152730177, 91.744967396391075,  3.662017983119281
 1.270604985227460,  6.167229708324626, 107.551796771247552,  4.100675552807694
14.057302234140961, 17.359346643718148,  5.679721535994440,  3.779887921409034
17.784964992072268, 16.497320636835941, 81.758630228488130,  3.999158980649243
12.096963179419063, 16.281572298102567, 63.143404269290862,  4.050647681588537
 1.337114832175354,  7.505793585001821, 93.321933431063087,  4.114331282435861
 2.961317884238642,  1.885158465361482, 35.055986030135600,  3.963403417810315
 0.988394896321648, 17.021090331666830, 86.853327328525509,  3.882439322555368
 0.472359400406250,  7.225947196669464, 11.774822822463955,  3.968586692849942
15.733419179828685,  8.037881886699946, 53.612284302402529,  3.774659731960220
 7.779970787478611,  7.826958672837410, 46.287266753105428,  4.063511517688350
10.250428123260148,  8.575501237587483, 32.917753689730866,  3.731293793853130
15.664933856649640, 18.600044334763069, 42.939629001211649,  4.046317574484535
10.290505742622800, 16.062973653447660, 91.201798128896314,  3.923517837611933
 4.570569156765365, 18.027207772062308,  8.784062684224038,  3.930511818567113
 0.584856067937160, 15.492852821483902, 31.693558295690597,  4.038405032739666
16.760467263676830, 12.492034530028247, 45.423012829859879,  4.130256813359455
10.874860423336353, 13.408541637368737, 10.174298023289017,  4.023633122548248
 8.274200054782868, 15.359783269933265, 108.735826626527881,  3.959000484888744
11.094923724693041,  2.566383500254187, 115.534255854449924,  3.832168418643418
11.140383815753180,  4.726378768881501, 102.605193976695361,  3.742574098435100
17.869524862635359,  9.199373717250214, 33.103318893448204,  3.953310031153093
13.388381167473311, 13.884908005467288, 52.045331877225479,  3.945143266722846
 9.800897158088624,  2.971815575355228, 53.817794587352353,  3.925518439489131
15.776951278038796,  0.123166990067281, 23.181967510558277,  3.910508666937348
 4.446443290384476, 16.077734800876193, 70.253353333174502,  3.670782762827349
11.153779924159121,  1.359500938946819, 32.652590725434322,  4.173228748610790
 1.727747348768367, 12.621674695353393, 47.130182136314289,  3.848527522628254
 5.778602324089541, 17.771064078453492, 37.349711113151130,  3.958880935779156
 4.490135541053249,  3.978982171189765, 100.355031528554520,  4.411159304306957
13.438957655097685,  2.300770001286457,  9.810748302593586,  3.898779736607235
13.319612345115312,  4.454537968456852, 112.742749998584003,  4.073655058110324
14.413419852472451, 11.480335305635959,  1.409762394615589,  4.132113781760377
 0.773554373827506,  3.261446718462618, 27.988442161228470,  3.877026624859499
18.491552083832826, 12.032788074762236, 20.329703057846480,  3.836843824494243
 1.339697222845075, 13.775179907364310, 57.052214803937062,  3.735360135567979
 9.573569461674545,  7.164294683963032, 14.052461443387674,  3.798313879552489
 1.956239604770484,  4.602369999678728, 57.803684324550510,  3.940464804942651
 2.895426901665044,  9.296027638226564, 33.353501180447743,  3.951317972518627
14.369772225368839,  4.754867246889193, 36.930415928065145,  4.246485391483276
18.073790919422223,  8.572292472838996, 22.509158792203319,  4.350978766332257
 6.034853361936543, 10.997131189981030, 36.660213126709323,  4.047808647422499
12.805534117958469,  7.906647217114841, 11.786184898314914,  4.220217729000429
 3.298204623446003,  9.887149434483426, 109.733820524340402,  3.827196227839389
 0.069099284492779, 12.619446610267316, 116.910274881041829,  4.131407106598774
15.759861089074077, 12.859725576025037, 94.500049883808487,  4.242222621615363
 0.550314775183611,  3.592059521728903,  5.496198074628104,  3.655968131420066
 2.207002022103680, 10.420407426983775, 75.342387369129582,  3.865514501419503
 6.051891533554899, 10.335261878388971, 104.185842754273153,  3.815145388843850
 0.225352949920367,  9.794959720739516, 102.269760609378608,  4.171361063908539
 1.980493896368678,  1.140559124919111, 64.422423263113032,  4.223694316198412
 4.584829401578117, 17.622758368694132, 88.466967492178995,  3.734211433887988
11.299987980235581,  0.528269659015925, 56.721945447856612,  4.222707825759016
15.625220729334762, 18.726143306789520, 37.769692036223887,  4.047869743599604
12.462102560265137,  4.516207690215304, 56.982598995798497,  4.074608115402176
 7.251606548310965, 16.206808765338824, 43.998293328467128,  3.852156837020340
 6.022513433142369,  9.564186846137908, 76.162694279848225,  4.102012205444709
14.013199943856250,  5.440415794917294, 95.946666395928347,  4.257346154043498
 5.168169851748854,  6.340649480283613, 94.105360064600262,  3.849210010705510
 8.354804372572129, 18.377622401683741, 88.671028225990156,  3.946320299690994
 6.391821673310812,  0.128578053663436, 41.350487663573524,  4.102005635491053
11.151032410517278,  6.639696645548597, 29.735190787320715,  3.777916436167987
14.172762174378692,  0.752085630194991, 13.406301945912839,  4.066574911174521
 7.362317221244776,  2.878511936222619, 117.018085779247826,  4.140031850846730
16.457952961496062, 16.122379871953608, 52.921956489667309,  3.795760654331497
 4.926963918411305, 16.401545618305093, 55.542696254747163,  3.910952365569401
18.355980651389995, 13.856085097326030, 84.867314555259597,  4.210928029935976
13.983264148777465,  7.010714647035246, 115.983473470596238,  4.285955546110429
 2.312512528990696, 11.810187252137045, 92.230865587750230,  3.940952253739867
17.094610647124295,  6.180699616297586, 71.647189982746454,  3.455488735173774
 8.784685987057012, 13.941127602530793, 31.054623487914817,  4.062468314014259
15.240830495960271,  3.048354551308280, 59.532351824332061,  3.988274251308753
 7.831669460054238, 14.177784744440327, 88.672033280834242,  4.076080902807849
 7.650779718391480,  7.887171814954135, 72.034562434451558,  4.252779760280307
15.775944006598756,  6.446032098414100, 107.825708391266005,  4.015053841914783
10.190347314181990,  0.099761171511556, 12.982953057815593,  4.039347175850416
 0.642746775642907,  2.949708703127230, 31.949498189093262,  4.071970222499383
18.722966964654933,  5.912723535209938, 68.281907070386268,  3.946089074420706
11.683192338647864,  5.633284874625492, 21.982394903061316,  3.972323668960022
 6.894586078769927,  6.007651295926349, 59.814181384966950,  3.862317581905067
 3.339545219477182,  7.535543467915055, 68.642438759674690,  3.844924197061833
18.298868743573067,  1.671094225721182, 57.470161820308817,  3.885981619132021
15.188550781943983,  8.034931188805984, 112.136018316244076,  3.972995061335602
13.443204374133598,  0.893162951764155, 104.258360647789843,  4.253341283053432
 2.133499067458767,  0.138038644939296, 47.714640054316426,  3.888718393602365
 8.168336592646424, 10.811948462506670, 48.783773856613664,  3.748185412489554
 9.375351396755681,  2.401948069107942, 82.661995629428091,  3.914883273109161
 7.395674554307335, 11.363101087249847, 68.792217494370348,  3.913142249652904
 5.056346461888823,  0.809015908884703, 110.803469831554239,  4.261941234592954
 9.441984243457561, 17.585782882200270, 38.909014415984338,  3.949231047957331
17.825366865360021,  1.780093236824064, 12.070029613318333,  3.967020615595211
 8.147058284209411, 17.014668432643425, 63.985543935558375,  4.004007092019934
10.452834811358874,  4.524494736495523, 88.040293829123570,  4.052428353170613
17.643506216429305,  2.987592416153539, 106.390071909077690,  4.319650532379345
17.993598628827005, 10.074651381260995, 48.440983988660868,  3.975495635659020
12.256320717384067, 16.359587351328315, 36.461342176254689,  3.875277230389557
 9.436284431415361, 10.172131312163767, 29.433541403792894,  4.085747447464588
16.264099661656275,  4.131122963968803, 84.318528098738227,  3.933233847526636
11.613095327193600, 10.435647800212454, 116.428820245473062,  4.055945143000319
 6.419445339267202,  8.862910622297658, 26.008584549753763,  4.311248615320606
 2.919546149892712, 16.821257883070061, 41.026438949324529,  4.128130269370347
10.418325501998224,  7.864609279272832,  5.595176618689145,  4.029930882828298
 3.941642666650120,  1.927469293404193, 38.794608573613750,  3.763676986974829
 6.045391640744577, 12.214857163213175, 91.518986633466128,  3.695446825981866
 9.461165807427388,  1.540951812747418, 103.849878464831022,  3.782333701537723
10.079047242915884,  5.997801097492319, 117.277132803690279,  4.117336391642115
 1.592525746448648,  9.845541946456327, 51.465093451102405,  3.862870177646654
 5.933722423628820, 15.298824697918754, 16.984643000966916,  3.954745576460352
16.926225974645881,  0.600024223802255, 46.827097345467003,  3.824828709333713
 0.280843812806975,  8.786183222798153, 39.729183875800558,  3.771698610768111
 3.020515809345198, 13.192571906354619, 33.894112861620613,  3.914072557045015
 2.177915681397272,  7.273670749932398, 64.840176154071386,  4.117605383064461
13.788908336321276,  6.198989673262582, 43.247639315891966,  4.134268044657518
 8.909572628247568, 17.676261856088740, 34.848984352592581,  3.983219654710346
18.884568635907137, 14.989498460544157, 35.721345778026986,  4.059491318589449
10.923421340366289,  9.071442723122090, 41.897297498106049,  4.411370697056581
 1.154655702850299, 11.686919676113945, 30.959093873646136,  3.651262889480885
 1.291127772379613, 12.938751365861277, 64.947831998988704,  4.133977445234759
14.825439393980064,  7.395485776341367, 82.710526939178322,  3.873162160784170
 4.014640535266387,  9.900359212729420, 95.211838411384193,  3.880343936144816
15.184499351609229,  9.946367733240526, 61.029364382494499,  3.761391681966568
 4.276813496312806,  9.109530223697348, 113.349730804955058,  3.806150803087339
18.475201315311079,  1.167137588285733, 80.152993402063061,  3.982375811491284
 8.495566366011243, 16.646988262825282,  9.926803048309607,  4.021298390523583
13.631567541785486,  3.631428646340685, 118.190873356777942,  3.758127290901733
 1.926940213361692, 13.032015711331907,  4.834332568052393,  4.194686731358182
 5.145271465989937,  4.879943545848834, 36.603917753913834,  3.963222332584760
 7.252176918225124,  9.102585052273351, 19.496263948388425,  3.664506208594271
12.542318564971769,  7.596175393754464, 106.053111538808608,  3.671625679410560
14.816812944401375,  5.115086716138713, 68.376748843240151,  4.004449727787690
 4.555856248061792,  3.014394994531246, 15.153000428326473,  4.156582605273698
14.480455907917717, 14.101233801498015, 60.037603333739419,  4.047688350665649
17.914125183393075, 16.670951759882499, 40.273051825513498,  3.884097602376420
 1.837933432081039,  6.372912020726349, 114.598385431705140,  3.894344583674854
14.241329257303054, 18.730764019475114, 90.114605322850110,  3.970495524695525
 5.270696802174911,  4.881249417024588, 44.803437469273881,  4.224053106058190
13.689159466533566,  9.926664780116321, 92.309380527027116,  4.126711621946492
11.489289922838667, 13.408199210644639, 77.204459590872318,  3.756484391829104
12.183687388911354, 17.284478504698512, 71.158621591165172,  4.019943277462178
15.385262878447879, 15.208243380016272, 22.594547455996139,  3.875168222670615
11.580949702613786,  5.644179301756492, 46.662150160675424,  4.059424314191316
 3.264698330498491,  1.149247188499814, 85.758077401136333,  4.031066116142349
 6.521613517880631, 15.135588256645756, 117.370313060161294,  4.142171392389373
 7.713380592050232, 18.479492069949540,  6.463600277681062,  3.928491102478519
18.184618761500822, 11.864549690831653, 53.932106458910681,  4.017872270318525
16.575482433289615, 14.129111615533599, 71.979638680020727,  4.130200159530585
11.070133070267593, 12.039311469545073,  3.781524427613280,  3.763205965653465
18.787867672086620, 18.788651240913300, 115.774485176870002,  4.011576132259744
 6.110382196483151,  6.141340412642070, 88.309486218445230,  3.900963933243591
13.875102253896278, 10.109664317121499, 108.823668393007921,  4.254672973712830
13.737851621093906,  7.797410969713379, 49.572438659422254,  4.274805885666440
 7.500393235301729,  9.676672135576762, 52.560929436032417,  4.230350983496988
13.160676125282523,  8.891963849745974, 15.856105568739427,  4.144402999443530
 3.151750376628606,  7.119637675702325, 60.770191712329250,  4.163598040760976
 8.372997216269658, 11.335529130517735, 85.688794453391012,  3.707221126659510
11.270791547245384,  6.903487627181674, 73.787109576425308,  4.014983875193030
17.537318339531144, 18.904634775774383, 112.047775086409274,  3.830866645085593
 3.723911311593040,  7.483361326658679, 102.687292225116266,  4.106620869661947
 6.585097432322697, 15.156421397935146, 40.262172028578540,  4.004836890356699
 7.230196276847717, 18.644749606742007, 15.509514889577087,  3.771509078109448
14.650072195101835,  3.804146609843861, 23.615207155245052,  3.717750966978810
 8.480910026970601, 14.459957543111427, 57.568845857174480,  3.801899750161966
14.912836770628278,  1.635374002631342, 34.242141492243491,  4.001832588330453
 8.740148808107060,  3.477364049669418, 57.604290288483540,  3.750747006890091
14.966356511172938, 10.576617588695235, 88.336666014038443,  4.187121868399450
18.813975423654213,  3.662877059976620, 94.069030349883946,  4.140319443366171
 6.994070930804223,  8.658960034330965, 116.278623951923791,  4.221555081900869
 7.783071210221964,  5.370861872804804, 28.019717023311923,  4.189908523426406
 3.831224071576061,  7.226997718827403, 73.598788892645885,  4.103268925622871
 9.746576566426789, 13.784341070547370, 37.943642345816798,  3.890205660165080
17.134724338031543, 18.866719130815511, 30.403519102368591,  4.056777942423454
 6.529816064437690, 17.933812265339011, 85.223153157622875,  3.853861426591077
 6.900465467330419,  9.932969221457020, 60.216362091425900,  3.994161808979885
 9.553421136701017,  5.186547316490896,  8.226297805516296,  3.516350694309163
 1.872259132886932, 10.310797777454372, 80.483361842799084,  3.660883272764271
 0.303533552623309, 17.130809895058501, 55.501225723940969,  3.928378672357052
17.323050598346249,  0.711764739205762, 87.953041092414352,  3.768373208885936
 3.405229343915077, 12.922886642416108,  0.865205904282981,  3.953084472566321
13.504759343075900,  8.792954799695972, 35.013074716505756,  4.017683597697164
 8.502915169807926,  4.954002085401683, 31.999861819799701,  3.936662343514914
11.803966760922037, 17.789792705856954, 107.618078829076026,  4.230847510214435
 0.637377148864238,  6.113766380546039, 100.120239212389507,  4.374419334181863
 0.472762202718474,  3.915739795841723, 86.814873581938386,  4.091486971993661
 3.257670635573514, 18.141162104588961, 95.577187950547881,  4.267976462770754
14.397832430145012,  7.639238820462203, 24.416223477758390,  4.112309368396990
10.555640357499273,  2.336971124638231, 28.650396028538708,  4.122933379045604
14.801600465525523, 12.836106459903476, 19.245395102021927,  4.002388711683839
 6.598259307932400, 13.434947887386164, 72.138439308618189,  4.115632727121938
15.403154882572760, 16.830552375669665, 68.869495781477568,  3.914275846965504
 6.330477719992761,  5.177892914678595, 69.327741516692925,  3.801270399292093
 2.865667044863101, 13.102846328590479, 97.105984434415646,  3.714621814854927
 2.757964791166036,  8.149850691399267, 87.342834010236245,  4.046270964687422
 3.833046231353848,  5.513302468589261, 28.171534478193259,  3.707796642022684
 7.809227018773114, 18.703880513717731,  1.121607801592098,  3.742453386297647
 6.930088088244621,  0.176881445501959, 57.404042240828950,  3.783065265732366
 2.754548097144573, 14.956290872189307, 22.367149976676725,  3.909809331337221
12.600223001469375, 12.158180591412332, 63.175621859636827,  4.224647467510465
 2.346707675187599, 15.390611736899528, 18.674593232634539,  3.559925931020839
 5.538972235143600,  8.634121271694294, 80.160620494216104,  3.952324562510500
 5.238582288968717, 17.353335739387077, 20.433216373562743,  3.980469854534743
 0.822693469151281,  8.252289521839007, 15.867348985124979,  4.003715940393517
 3.575685203039312, 12.852248417851813, 68.332220108999067,  4.031709968032274
 9.833736086550971, 13.873589238220621, 65.589712657304759,  3.796444041483114
12.360976044347595,  9.460448153084799, 85.216334151860934,  4.116019073445981
17.836450865708347, 15.241338359184073, 113.819291221296311,  4.301436357744771
 4.584246954049458,  9.435207851550503, 16.678926464017323,  4.026382988153800
16.828334903379250,  6.858724566349933, 64.742905443971836,  4.261644097411484
10.925320833032869, 17.632380236656672, 44.059224664664534,  3.798998862500647
 7.762998625750740,  9.220941929660396, 93.308414167111195,  4.027666392100785
18.608922706113500, 15.307569705662154, 102.168270091518565,  4.038722351583209
 3.724566426531182,  1.443899754692701,  5.256704169651288,  3.922020575736865
14.528759316861152,  8.099423135029410, 31.120460168782952,  4.083767493408597
 5.183355166586408, 16.059668397579255, 12.201755755407961,  4.047504633294346
 3.442894736596645, 15.916201650510882, 45.552405429546290,  4.184779332805288
 1.350456464544631,  1.019561231914970, 68.534717978817241,  4.065269715469205
18.841047615310767,  2.783681286578602, 49.560131860633774,  3.933898080646553
17.954682535537081, 18.467255035812023, 91.816149598045200,  4.199183743444210
 8.751048350405728, 18.154094088740969, 115.641871741418157,  4.119378530468774
 6.596793670855446, 14.687158722939264, 23.962032536921559,  4.351987895086221
 7.955059901917952,  3.357556584388482,  5.289779425334316,  4.041591518038460
14.631267642539518, 15.549649991514704, 111.246953969660538,  3.914854041386304
14.321580497798001, 15.816144970662487, 105.026956003534906,  3.732764954627476
16.217330793452248, 15.824288318447445, 87.917751183948340,  4.174738503695768
14.079574196549117, 13.435437881001338, 85.100817966194981,  3.982953833028660
 7.742740514737423,  1.043982986198787, 26.092327111152787,  3.836499415214927
17.848660697020666,  7.822679532538438, 116.525028050590663,  3.680378154585964
 9.605440073402217,  6.279238537728355, 113.178008725984398,  4.131360068561775
16.463730877893489, 18.661298868601389,  8.732696359466614,  4.320674300238444
 9.211255970862297, 15.753571722087955, 26.876584621553754,  3.756500712416174
 4.048037241447862, 18.837756049272762,  0.265035775296124,  3.865089043316932
 1.891193097536059,  5.283834347112423, 22.014242108394473,  4.163561551058971
13.275397417611599, 13.172967345407693, 114.042080673898781,  3.848918244899823
13.972979743958328, 15.744274977048374, 74.774784766473132,  4.162779981350162
 2.199157322549134, 17.597971455917786, 112.786239359908507,  3.904373245033367
18.034481298552230,  9.741592838040097, 77.758123806884029,  4.095059491877498
 9.362064489801959,  1.807643886238243, 72.045875988238663,  3.670557130064166
16.445782213232246, 11.425919766475140, 30.062277972565063,  3.847915473820630
 2.443528405266126,  9.838081708005689, 105.765789386499364,  4.042485350531973
14.511435070105261, 14.506198973429766,  9.584460342111884,  3.580442691140934
 0.430601049368299, 15.980708795990644, 74.343412976248516,  3.997643156436916
 3.510072550650136,  4.002579988809677, 66.923220824503943,  3.969054790123875
 1.403060197525147,  5.843273537316984, 34.732326826762161,  4.046021401672894
 7.050435022869872,  6.364622942134833, 16.832384110916994,  3.852646669048991
 1.032006157063367,  3.927197648662597, 82.735063308681276,  4.092606512841466
 3.305716086735888,  8.213496252606191, 37.211640556214910,  3.747571321118599
11.211475808988698,  5.406091699448695, 39.674247325294616,  4.149153789715863
 6.733186576526731,  4.701390038427535, 51.761569823487847,  4.071472593028894
 4.794420338192585, 10.870080153187832,  7.394698668880749,  3.858796556304882
 7.473054650453138, 13.509046079107296, 102.398993689027250,  3.931127211564875
12.457219140218678,  7.942976022480019, 98.794731046106790,  3.860398387386745
 7.991167551183866, 11.622177374728645, 16.474115691122343,  4.062581792952618
12.834501659989058,  9.133186465314235, 102.531659912702835,  4.017420477576089
14.796468167398773, 18.750931069143224, 80.525589819496815,  3.838244218495759
 6.101697657526246, 16.116230730729406, 51.609024964431860,  4.319394257219939
 4.715963745055389, 12.625066444651264, 78.815711541432904,  4.300295376724661
 1.518600624049112,  2.197210165645576,  2.170689665514518,  3.811744911082713
12.490266407811321, 17.564927287290111, 53.184667032878302,  3.951282463168857
18.805027636899688, 18.589224455435822, 34.037563639509280,  3.828386756743339
13.654800724099026, 11.548197132624974, 73.572566939536216,  4.101588110144392
 1.861791856828594,  1.185993041605343, 89.477350371226962,  3.859071201183312
10.762406592452100,  4.437485989225010, 11.646290197012563,  3.830206929660494
 5.788765497519186,  7.530708231611244, 107.211220048059474,  4.442771418789909
13.226983492659439,  6.477456010746002, 60.595675298932612,  4.238616594919018
 7.899743962243053, 10.727712917277639, 56.526193284231795,  3.814005446133077
11.534909834170634,  3.305644769368588, 50.115938870051075,  4.226232353904330
18.469281234222127, 15.916304942673497, 46.870872297083274,  4.027266674749582
 4.585374442784589,  4.043746052721263, 63.056221286254242,  4.010142378876561
 2.309172925441103, 13.269517338485079, 112.070361295283334,  4.140866259723206
15.412732483094594, 16.007140806930142, 97.196149686585898,  3.944330356125434
 9.643258093750518, 10.572885976090886, 74.724806029086025,  3.943502583406626
 9.379926452538834, 17.756409183857688, 30.103881418625935,  3.825883326223982
 5.667571302079062,  2.134257113516590, 89.753544986567306,  3.914438301239672
 4.015978411351685, 18.927876249679020, 106.524957691295725,  3.926603170744456
 3.997943144769244, 14.869379961877778, 85.471530452949210,  3.988160731183573
17.205200215046137,  0.940785858347911, 62.347056657938488,  4.020651384194410
16.255849126877855, 11.921418380447550, 111.767350422036543,  4.034184552885064
 6.337352505699646,  1.142159194818466, 11.843902627055760,  4.233462851645626
12.219502302765640,  1.415487787011553, 21.332174775748236,  4.445388733118294
 9.736740735495006,  3.935322764304467, 18.746556336490936,  4.306964269014702
18.619910094293505, 12.649723439804523, 24.276793943414106,  4.093461096792658
12.288350008265127, 17.542537121437654,  9.100216896864627,  3.926183394228135
 6.171450047183667, 13.740613886472648, 98.765298367060041,  3.784290073507107
13.406937559561280, 13.319903351679999, 69.506322597073776,  4.064367475306801
 2.521322857192629,  3.464685274248188, 53.028073316403109,  4.014701454076185
 8.360372945330832, 16.812881431337075, 100.281938594025490,  4.075391410442466
18.648263661772638, 16.629413361283834, 24.047381934979871,  3.782266831649664
18.137446783429553,  0.674622156360522, 84.182848730398874,  3.897636052885727
17.199512306373329,  6.929754208685216,  5.841740084824479,  3.920901638091086
 0.223991988988894, 15.250918268201882, 95.127512741457295,  4.135713371625724
14.665950418237530, 16.703816279196761, 16.166156686336386,  3.981887570898056
17.655222880843638,  0.072093349652784,  4.653984153593401,  4.130171677006391
12.025879671358611, 13.840706345752498, 28.721466760884354,  3.887122243285099
 5.576597068266169, 10.131250490983039, 100.409412463940399,  3.796721834326970
15.514994287553492,  6.677489044739237, 101.108429696701364,  3.782303493872141
17.479184065025954,  2.965142293735822, 118.036437504016732,  3.997475198481570
 9.366634065330222, 11.988998521488897, 34.495912104714165,  3.913508822171646
 8.718384117262657,  7.932347617893051, 67.435823589668232,  3.849980224973549
14.005761366064077, 13.246769566719397,  6.032141588752931,  4.006577865627421
 8.379505901719227, 12.326726311843261, 115.194332773857823,  3.809566567357117
 7.171106177027593, 16.766652957193049, 96.314551221346235,  4.151003244615146
10.349420678617408, 10.897303082864051, 13.243103894648474,  3.948967712520496
 4.027173954272198, 14.117534506441235, 30.205542641369437,  3.913823800092064
15.348480237710037, 14.575365285368802, 117.158091567564028,  4.128193927130342
 5.047262139941209, 17.405996239194199, 73.808697967749637,  3.906440473767967
15.268091550313402, 12.875557042974179, 26.570814511783791,  4.025317595309185
 8.811852615132784, 17.008358451177294, 54.611144374128621,  3.939093552589495
16.329652695239229,  6.598841747878869, 92.726820477026308,  3.995245310181794
17.025452008546189, 13.977673811376416,  3.268887859290857,  3.993524983907191
12.574165623122829, 11.634432566940699, 32.104669330176982,  4.103801828247252
 2.336008873375472, 14.392170465253276, 81.804827756046464,  4.090385439918376
15.573602435264934, 10.894003886226084, 51.262864986782176,  3.622916391146408
 1.286081032630411, 16.293124042221063,  1.961379273219851,  4.289533909592669
 8.614181949824291,  3.380479651127801, 14.767692794806107,  4.025301338044932
11.115159656590412, 17.695408106711721, 82.216136586977328,  4.168442826952129
16.145319711140203, 12.730250699431068, 33.784336213753946,  4.005834176729167
17.811774287152836,  2.904042759881401, 102.109016984046804,  3.928099053342031
11.069755685033959,  9.394164211635944, 54.846683808018113,  3.827380891653668
 9.717925173864742,  5.490261437799990, 62.457818185078082,  3.940307798649037
 8.386749315442742, 11.361091964206777, 44.405583106134003,  4.012628628027478
 7.275042377470458,  8.678524970288400, 110.933828079020287,  3.895197335859748
13.884264860838503, 11.787829566216775, 11.929657410946341,  3.659554523282432
10.825443992673007,  1.705641447587014, 90.904537153828116,  3.996977461633833
 5.754696090305899,  2.644410823282248,  2.220382023402444,  3.607343362637977
11.139843812923006,  4.110893999423382, 98.621066256082187,  4.026927536609715
14.043864753812853,  8.156079692197459, 57.022933525923939,  3.821220620604574
16.448518101195027, 18.540041291311045, 72.570883629060987,  4.490661784333157
 8.739137895828264, 17.698775152664474, 75.420885752316877,  3.906890750589899
 5.713099615840738,  8.345001843852055, 30.132459460830010,  4.110818674584162
 9.232286048053755,  5.141651721323851, 36.003511774202863,  4.192255867409314
 9.272971351318803,  1.512058939393956, 68.057144332557698,  4.097442240232758
17.529237940939460, 14.919109790819018,  7.162624966640218,  4.064057877260518
17.127789425236614,  4.653748586609833, 114.316169878635108,  4.157345974365948
13.356873172223453,  1.405986062608824, 68.895004559503846,  3.922608443070412
16.918104516548667, 13.451453149719267, 15.377717303355828,  4.051977480789741
 6.091055405799866, 12.610686001534962,  3.952761160732330,  4.252153170677199
14.214961392217553, 14.725554612070230, 80.599173854848772,  4.295563173556567
14.406388164428828, 14.567304338580374, 65.869160541466542,  3.846063838461278
17.169253983472338, 10.574053816005554, 57.665072098094427,  4.126153125639670
 8.769167263000194, 13.453592031476202, 61.569714547123702,  4.416854233053768
 2.541680513331683,  3.637583226069248, 75.159937717366091,  4.114066511804317
 4.953124585202089, 10.646975126542808, 46.257464040342782,  3.894910964930228
17.763618784146335,  0.105080362389999, 95.923035395432620,  4.084107555821542
15.513053162040354, 14.722601215523085, 37.857387849779116,  3.929416224046478
 0.527153644785278,  7.587000469931741, 55.323317544141275,  4.320511807140021
18.080546363472838, 13.644269225079690, 50.289718182601270,  4.055028681198955
 7.248023743333213,  2.846444778997617, 86.097366454345050,  4.157462283480384
14.058355853490925,  2.481619657992416, 40.438103782020740,  4.131292057327058
 9.762353386896267,  9.642244187805039, 107.779414445905587,  4.039227061804839
 9.866559633863794, 13.040833431991031, 98.079928977826597,  3.854603115988660
16.188489690884118, 13.657332455465957, 107.931703459197124,  4.253818268479767
 3.187360451126210, 18.770366830411167, 31.254472132720053,  4.074702557643747
 5.058270135476213, 13.073894819028313, 43.251777497207883,  3.781480816583247
18.302625003231242, 17.304723992591118, 66.129554792244960,  4.100442712763899
14.957334606902615,  2.044439542419222, 93.492701034743860,  4.138220057327049
10.452889606227691,  5.177999693289909, 69.999627571487409,  4.417868743334204
17.537778559826723, 10.815721399993633, 73.955521635886726,  3.818886673772685
13.026519727505017, 12.174975002555916, 39.662661760019169,  4.029564795882173
13.525944382873654,  3.067293568927255, 107.802955003305485,  4.022744429881422
 6.524524648017819, 14.583159743754480, 35.075210519198492,  3.840855108398005
 5.795869760090846,  5.515629786143350, 76.787533816907995,  4.069795539943511
16.095576691013655,  1.943857745532713, 26.773777750684555,  4.157580494383645
16.800151651931127, 16.576419125274846, 77.769280820852543,  4.183334755900183
 5.703911178671119, 17.181437747520143, 28.098225914484257,  4.154023798074036
 5.266199244211122,  8.212087706865336, 49.405831529763937,  3.979117438334691
10.530764342012681, 14.158269383403065, 73.143863969227183,  4.083826448556694
11.469095180163032,  8.638308136938619,  1.746534884933943,  4.048177035524281
 7.215936518901479, 16.906780861340305, 67.815944116931206,  3.862272717428402
15.544775667721378, 14.120405809225936, 41.986778868341716,  3.837963094451440
11.379046247163556, 12.405725190997877, 87.797002271521876,  3.906058995816184
17.759470345427093,  6.124366508730075, 47.618052580184795,  4.056414688960675
 6.378407820869836, 16.783687213810893, 32.070874930240045,  3.602745506332231
10.232326251724791, 15.132063847184448,  6.384181363590677,  4.387498330280809
12.743201266244276, 15.911447268544476, 12.729283627060580,  4.028460545132793
 9.649198830077635,  7.102725205031170, 50.026635090710194,  4.051124748605695
 5.421038323224671,  1.105224972693002, 69.941465094141194,  4.507752255172154
16.340321912762192,  4.649744692504503, 55.584253660031607,  4.155295569542329
15.011987523812126,  7.929768769253261, 74.847774567729957,  4.008792148196501
 6.581438028713173,  7.819435159047813, 34.139552852191784,  4.133008686670829
18.394390962305938, 17.932879674113693, 50.226361386707993,  3.751480113286763
12.349493438511654, 15.347878624434943, 56.698470264557692,  4.256027052390060
14.911881021743588,  1.204425750248916, 115.240580779306583,  4.243869250738494
 7.802203404882802,  2.213899398175800, 61.875074151968889,  3.734625740417670
 5.677310731956370,  1.004964153385197, 103.055272882690630,  3.961155772607520
12.142077392704625, 16.348410211053661, 87.714816733132139,  3.986194761080255
 6.769494400014035,  8.344752322528425, 42.538399149008065,  3.724415702031354
 9.440996767782377, 13.076741669384441, 105.750782417820488,  3.887141136074010
 1.841723477607478, 12.981200235980856, 108.122040967739650,  3.707859911466373
 2.332294423454950, 18.382627862448942, 82.416813330407024,  3.690133159663672
14.751011861732286,  3.594826234713700, 47.738369726280247,  3.790491399964123
 2.651780215795919, 18.372434898538479, 52.479448113252964,  4.106063926786996
 4.092445843888937,  1.871251447570262, 26.986756149168997,  3.577593446732324
 4.691622322187182,  8.157429094988352, 22.066901712377248,  3.765603386058092
 4.258624611564854, 15.899300428935584, 109.260694002821339,  4.167033088718758
 4.715623670503331, 16.271296136057593, 101.887920756634983,  3.939328002769600
 9.389274969906445,  3.555913998636858, 75.677763706531110,  4.259075579308178
16.746794643502447, 16.593434777468076, 12.574695805419205,  4.072500708199380
10.675947144178911, 16.651735627379754, 103.713823922173560,  4.172196149068382
 5.236258423296300, 16.802647287550105,  3.614913791708160,  4.319035258001141
 1.077859522620110,  1.772178461744693, 24.253122009272637,  4.178363323858944
 5.613062764005226,  1.063415790455838, 49.527889324371507,  4.140129415793718
18.549036563248713, 12.755828465627436, 39.772752638498737,  4.092380114124941
11.540249374145908, 17.120404591216008, 67.127134454860325,  4.144344431078799
 0.777134866915394, 13.504124264903865, 77.560057322382733,  4.139362296774243
 6.134619375252100, 11.456216455452784, 32.497382210861360,  3.739434490634411
 0.411243383338350, 14.629949692985013, 43.235976581067803,  3.854397723581649
 9.876744555296403,  4.621484351311768, 106.551402681729201,  4.278307839295493
12.904456179100070, 12.687080848959202, 35.846612112357782,  3.670388825539673
 0.753805017075332,  6.138070033753269,  1.311691028701462,  4.291311476470199
17.737847522384548, 12.570112651738173, 81.022288704521500,  3.985642217558655
15.673867058225584,  1.526464610862488, 77.163469106532645,  3.903888815526033
 3.047593511906521,  7.209443113747067, 42.110909570010229,  4.102426734898503
 6.643778536603971,  1.844130324422228, 30.077118180207478,  4.256333437730431
 4.155550941797884, 18.016183370697981, 24.452762436854684,  3.938907021957969
 1.439151836097296,  3.579967684554908, 45.810370118216774,  4.078119773450606
12.761117860992696, 16.322586630020453, 19.762886948143077,  4.128377938373005
11.954425047401742, 13.805312940529561, 108.780322000950662,  4.017367422937243
16.328230207064514, 16.044875455838891, 62.912029261316768,  3.798457184315051
11.492638555774921,  8.364442687243914, 89.138120747043644,  4.194538457115126
13.210384280727752, 15.285620009687570,  2.441503398306339,  4.075095815201355
 8.869139245827839, 15.017321464754151, 79.945433550325532,  4.139866283388649
13.924963469637587,  7.950073452803563, 71.021914702578457,  3.898786966173016
 2.293601452493180,  7.822857192863179, 25.326495680804992,  4.157794338252661
 1.953139815636577, 16.390281760248243, 99.062008104823832,  3.954523067353670
 2.513960874983715,  4.262359116685750, 70.932544499729644,  4.293081525979776
15.084781445474611,  7.162627166762134, 78.784539997961616,  3.996115665839120
 5.996190890056897, 12.997010406420243, 54.167902005785209,  3.731127902633129
14.157165110924327, 16.209875629943035, 101.066903306070657,  4.202916284784940
12.480558328672629, 10.169407184641466,  8.278197720946002,  4.140810800688494
 4.519968073985137, 10.222104156173261, 71.071127148331229,  3.761908372156108
 3.212164382372736, 14.637886807566991, 26.287640120182068,  3.820006939594964
15.854976028682573,  4.686820177667878, 51.475257170284479,  4.116735204431581
13.101344876499262,  9.878795900853433, 27.889292703635736,  3.821071282746940
 7.007437972694922, 12.256990185811485, 10.397049092014100,  4.057725506168161
12.103012522346791, 18.664473814021605, 47.852563003421452,  4.308969830416631
18.526242903794635,  1.784030198805153, 40.509005491452271,  4.294807002173123
 9.263088673026820,  7.340031206586897, 77.112001385768210,  3.779671251758106
13.207795963375673,  4.840234473596175, 27.009884612898858,  3.873868086492805
16.402179824516178, 10.558443177069279, 84.034175155424933,  3.604357610326648
15.917663647553825, 11.037700610446100, 37.198098992468680,  3.569484651149645
16.636842982893736,  9.905255256989911, 17.486084156978880,  3.757084942072134
12.145773079151969, 18.493261201649819, 118.157608849700395,  4.253847926593473
 6.380549419577619,  7.096629901332760,  6.698664204082775,  4.413123933697579
13.645810603185977,  0.611343758018643, 111.184737741826581,  4.226169649607010
13.108240900345274, 16.786994196074996, 40.356120461893639,  4.067737086209370
 3.594544038397002, 18.474542520683578, 16.967661138539675,  3.897066025033469
 8.891740349986849,  1.696222827160917, 44.911771556706796,  3.609522992909742
17.041002545165686,  9.338301485069959, 98.962931290556227,  3.695671791394987
 6.655269930633782,  9.565553752185460, 13.304034463290018,  3.893428021962191
17.586176743112702,  4.652350612638423,  9.203631435273651,  4.150192462873422
 3.494919450861174, 14.388757056419536, 37.722185738954302,  4.140056609650756
 7.412224298407414,  7.703117886187535, 38.662796737854038,  3.880786487463442
 4.955758191687664,  2.724475704321161, 59.395877633503900,  3.790932511464420
 9.958041824619178, 14.339898592375024, 112.234666272539556,  3.973016978123299
 3.671969104077269,  6.192053621237803, 110.775359237119332,  3.882315266507284
13.779465946943180, 13.932785584121568, 90.820025183327232,  4.281638349416565
 7.720632919008874, 13.874793522800358, 76.133190675969217,  4.134341025258175
16.562745117687257, 18.013973279529406,  0.783921951923588,  4.094299483276326
 6.469297861537432,  3.266886565941789, 96.685254551380979,  4.043007964310238
 0.412903072289956,  0.456704063075647, 76.355641141210882,  3.899564443101637
 1.722197271097018, 18.858416089342818, 102.175237612776868,  3.969109558047554
18.126782822813297,  7.243502940633121, 89.137848728720272,  4.113321861322985
11.099898764955439, 10.057831141816129, 95.597765915331465,  4.235494842168580
10.672244117663711, 18.415660041779031,  3.904067837081592,  3.887018544950184
 3.299752498919029,  1.312631832565357, 79.306605046265432,  3.694739183362082
10.175284936289682, 11.953772294884100, 91.581842978062724,  4.033542249262509
 4.946505151570927, 12.860410450569919, 57.820399578570807,  3.860504026697579
18.275351144622476,  4.605181800572296, 77.961990543656796,  3.897457250253650
11.020781897593480, 11.759088311756534, 19.059776811956990,  3.854551106845026
 8.052662250633695,  1.957158924511007, 22.212282438317992,  4.124949794505415
15.283713173397883, 18.370741393008313, 56.019613801588406,  4.154552575181667
 5.152562484783116, 16.692385301722940, 77.744157353164908,  4.045861894861715
 7.971498063685858,  0.876793474776252, 107.602368095164323,  4.368649245062625
 5.681760291713163,  5.322624354556235, 114.143037668330081,  4.114211090704734
15.539052238065242,  2.849851919974764,  6.398733394996701,  3.671598179990939
 2.046092054139153, 10.856065591341427, 12.973659310282487,  4.156196628406379
 2.675403053124989, 14.363420328277797, 89.230938507463023,  3.954609953932064
 3.290221591543089,  5.812862872901835, 17.915018837954271,  4.041135497422588
 2.390821382876388,  7.369526015791060, 78.046909899361452,  3.997224470047997
13.091360249956285, 11.941778034348369, 43.916682205961706,  3.775129716550783
 9.924252966183044, 13.127696791922302, 54.075743880726790,  4.130351325036465
 2.845556607100252, 16.800449558475481, 58.857330337756274,  3.911957580706017
11.890887375760805, 17.334655216725043, 78.072347301605191,  4.258677629089727
 5.432532226656328,  4.424397619660716, 55.727719842937681,  4.066384402421731
14.917174996461958, 16.650688533448690, 93.482400671733970,  3.610194818465027
 6.852639624884858,  2.131532591401148, 34.277756764493368,  3.980522871744101
18.154459072860792,  6.226240347703701, 18.997836620092759,  4.095143107329918
 6.760417671864522, 14.170492115614872, 47.371671542376724,  4.061000599854292
10.773870145568798,  7.892822761746908, 18.911936512715723,  3.862352023147413
17.875083851201076,  1.415603717863766, 53.334036708580733,  4.184375112237252
 2.586859836407165, 15.790627378166979, 116.322757935986317,  4.043910966882465
 8.383665756264081, 14.106582041492182, 13.438802494265678,  3.570706703033538
 3.646321637908335, 10.940276333956669, 40.135990075442663,  4.258811428576457
 8.086587934875201,  0.179063264754790, 79.416959061346063,  4.114724920160016
 8.108998053555965,  2.330450597412998, 113.121172981147254,  3.851656229347376
17.521256139025418,  3.380255411543962, 74.177380680744633,  3.967054981335272
 5.967283194084573, 13.615860390148018, 65.009033685407019,  4.005543802957922
10.184289665528041,  2.906597043380033,  1.786495684739249,  4.215536900455447
 8.809647131461224,  6.610405900085053, 96.298924851751622,  4.137283097259238
 8.187402165738259,  2.203647462888076, 100.360232942443460,  3.758432336934022
18.801813586513269, 13.849306584667580, 28.116377116270534,  3.929953557105764
 5.204517820680864,  0.062403829422604, 99.084955255932698,  3.924239426113243
16.700642039642478,  5.803400752798810, 28.581906749599838,  4.019004105478674
 4.923512361805932,  9.017712342604618,  2.409702068273125,  3.894275397926632
 2.614208976933344, 11.171456005275420, 84.279471552814627,  4.050315104163037
